6-anwendungen-opAmps/daten/ALL0034/A0034CH2.CSV

Memory Length,4000,
Trigger Level,6.18000e+02,
Source,CH2,
Probe,1.0X,
Vertical Units,V,
Vertical Scale,2.00000e-01,
Vertical Position,0.00000e+00,
Horizontal Units,S,
Horizontal Scale,5.00000e-04,
Horizontal Position,-7.0000000e-04,
Horizontal Mode,Main,
Sampling Period,2.00000e-06,
Firmware,V1.14,
Time, ,
Mode,Fast,
Waveform Data,
-36,
-36,
-36,
-36,
-36,
-37,
-37,
-36,
-36,
-36,
-36,
-35,
-35,
-37,
-37,
-36,
-36,
-36,
-36,
-34,
-34,
-35,
-35,
-35,
-35,
-36,
-36,
-35,
-35,
-36,
-36,
-36,
-36,
-34,
-34,
-35,
-35,
-36,
-36,
-38,
-38,
-36,
-36,
-36,
-36,
-35,
-35,
-36,
-36,
-35,
-35,
-36,
-36,
-36,
-36,
-36,
-36,
-36,
-36,
-37,
-37,
-35,
-35,
-35,
-35,
-36,
-36,
-34,
-34,
-36,
-36,
-36,
-36,
-34,
-34,
-35,
-35,
-36,
-36,
-34,
-34,
-36,
-36,
-35,
-35,
-36,
-36,
-35,
-35,
-36,
-36,
-36,
-36,
-36,
-36,
-36,
-36,
-36,
-36,
-34,
-34,
-35,
-35,
-36,
-36,
-36,
-36,
-35,
-35,
-36,
-36,
-34,
-34,
-36,
-36,
-35,
-35,
-36,
-36,
-34,
-34,
-34,
-34,
-36,
-36,
-35,
-35,
-35,
-35,
-35,
-35,
-35,
-35,
-34,
-34,
-35,
-35,
-35,
-35,
-35,
-35,
-35,
-35,
-36,
-36,
-37,
-37,
-35,
-35,
-35,
-35,
-35,
-35,
-36,
-36,
-36,
-36,
-35,
-35,
-36,
-36,
-34,
-34,
-36,
-36,
-35,
-35,
-35,
-35,
-35,
-35,
-35,
-35,
-36,
-36,
-35,
-35,
-34,
-34,
-36,
-36,
-34,
-34,
-35,
-35,
-34,
-34,
-36,
-36,
-36,
-36,
-34,
-34,
-34,
-34,
-36,
-36,
-36,
-36,
-35,
-35,
-36,
-36,
-36,
-36,
-35,
-35,
-36,
-36,
-35,
-35,
-35,
-35,
-36,
-36,
-37,
-37,
-36,
-36,
-35,
-35,
-34,
-34,
-34,
-34,
-35,
-35,
-36,
-36,
-35,
-35,
-35,
-35,
-34,
-34,
-35,
-35,
-35,
-35,
-36,
-36,
-35,
-35,
-36,
-36,
-36,
-36,
-36,
-36,
-35,
-35,
-36,
-36,
-34,
-34,
-35,
-35,
-36,
-36,
-36,
-36,
-35,
-35,
-36,
-36,
-36,
-36,
-36,
-36,
-36,
-36,
-34,
-34,
-35,
-35,
-35,
-35,
-35,
-35,
-36,
-36,
-35,
-35,
-36,
-36,
-35,
-35,
-36,
-36,
-35,
-35,
-34,
-34,
-34,
-34,
-36,
-36,
-34,
-34,
-36,
-36,
-34,
-34,
-35,
-35,
-33,
-33,
-36,
-36,
-35,
-35,
-37,
-37,
-35,
-35,
-35,
-35,
-35,
-35,
-35,
-35,
-35,
-35,
-34,
-34,
-37,
-37,
-35,
-35,
-36,
-36,
-35,
-35,
-35,
-35,
-37,
-37,
-35,
-35,
-35,
-35,
-36,
-36,
-36,
-36,
-35,
-35,
-37,
-37,
-36,
-36,
-36,
-36,
-36,
-36,
-36,
-36,
-35,
-35,
-36,
-36,
-35,
-35,
-34,
-34,
-37,
-37,
-36,
-36,
-35,
-35,
-36,
-36,
-35,
-35,
-37,
-37,
-37,
-37,
-35,
-35,
-36,
-36,
-35,
-35,
-35,
-35,
-38,
-38,
-36,
-36,
-37,
-37,
-36,
-36,
-35,
-35,
-37,
-37,
-36,
-36,
-36,
-36,
-35,
-35,
-36,
-36,
-35,
-35,
-34,
-34,
-36,
-36,
-35,
-35,
-36,
-36,
-35,
-35,
-36,
-36,
-35,
-35,
-36,
-36,
-36,
-36,
-36,
-36,
-35,
-35,
-34,
-34,
-35,
-35,
-34,
-34,
-35,
-35,
-34,
-34,
-35,
-35,
-34,
-34,
-34,
-34,
-35,
-35,
-34,
-34,
-35,
-35,
-36,
-36,
-35,
-35,
-36,
-36,
-34,
-34,
-35,
-35,
-34,
-34,
-35,
-35,
-35,
-35,
-36,
-36,
-35,
-35,
-36,
-36,
-34,
-34,
-36,
-36,
-36,
-36,
-35,
-35,
-35,
-35,
-36,
-36,
-36,
-36,
-35,
-35,
-35,
-35,
-36,
-36,
-35,
-35,
-35,
-35,
-34,
-34,
-35,
-35,
-36,
-36,
-35,
-35,
-35,
-35,
-35,
-35,
-34,
-34,
-34,
-34,
-35,
-35,
-35,
-35,
-36,
-36,
-34,
-34,
-36,
-36,
-34,
-34,
-35,
-35,
-35,
-35,
-36,
-36,
-35,
-35,
-36,
-36,
-34,
-34,
-36,
-36,
-36,
-36,
-35,
-35,
-36,
-36,
-36,
-36,
-36,
-36,
-35,
-35,
-35,
-35,
-34,
-34,
-35,
-35,
-34,
-34,
-36,
-36,
-35,
-35,
-37,
-37,
-34,
-34,
-36,
-36,
-34,
-34,
-34,
-34,
-36,
-36,
-34,
-34,
-36,
-36,
-36,
-36,
-34,
-34,
-34,
-34,
-34,
-34,
-34,
-34,
-36,
-36,
-36,
-36,
-37,
-37,
-35,
-35,
-34,
-34,
-35,
-35,
-36,
-36,
-37,
-37,
-36,
-36,
-34,
-34,
-35,
-35,
-35,
-35,
-36,
-36,
-36,
-36,
-34,
-34,
-35,
-35,
-36,
-36,
-34,
-34,
-35,
-35,
-35,
-35,
-34,
-34,
-35,
-35,
-34,
-34,
-35,
-35,
-34,
-34,
-37,
-37,
-35,
-35,
-35,
-35,
-36,
-36,
-35,
-35,
-36,
-36,
-36,
-36,
-35,
-35,
-34,
-34,
-36,
-36,
-34,
-34,
-35,
-35,
-34,
-34,
-34,
-34,
-35,
-35,
-35,
-35,
-34,
-34,
-35,
-35,
-36,
-36,
-34,
-34,
-36,
-36,
-36,
-36,
-34,
-34,
-34,
-34,
-35,
-35,
-34,
-34,
-36,
-36,
-36,
-36,
-36,
-36,
-34,
-34,
-34,
-34,
-33,
-33,
-35,
-35,
-35,
-35,
-34,
-34,
-34,
-34,
-35,
-35,
-33,
-33,
-35,
-35,
-34,
-34,
-33,
-33,
-35,
-35,
-36,
-36,
-35,
-35,
-34,
-34,
-34,
-34,
-33,
-33,
-35,
-35,
-34,
-34,
-33,
-33,
-33,
-33,
-35,
-35,
-35,
-35,
-34,
-34,
-35,
-35,
-34,
-34,
-35,
-35,
-33,
-33,
-35,
-35,
-34,
-34,
-35,
-35,
-34,
-34,
-34,
-34,
-35,
-35,
-33,
-33,
-35,
-35,
-33,
-33,
-34,
-34,
-34,
-34,
-33,
-33,
-32,
-32,
-33,
-33,
-33,
-33,
-33,
-33,
-32,
-32,
-35,
-35,
-33,
-33,
-33,
-33,
-35,
-35,
-32,
-32,
-33,
-33,
-34,
-34,
-34,
-34,
-32,
-32,
-33,
-33,
-33,
-33,
-33,
-33,
-34,
-34,
-33,
-33,
-32,
-32,
-33,
-33,
-32,
-32,
-32,
-32,
-34,
-34,
-32,
-32,
-34,
-34,
-32,
-32,
-33,
-33,
-33,
-33,
-32,
-32,
-34,
-34,
-34,
-34,
-32,
-32,
-33,
-33,
-33,
-33,
-32,
-32,
-32,
-32,
-35,
-35,
-31,
-31,
-32,
-32,
-32,
-32,
-32,
-32,
-31,
-31,
-33,
-33,
-32,
-32,
-32,
-32,
-33,
-33,
-31,
-31,
-31,
-31,
-31,
-31,
-31,
-31,
-31,
-31,
-30,
-30,
-30,
-30,
-32,
-32,
-33,
-33,
-32,
-32,
-30,
-30,
-31,
-31,
-31,
-31,
-30,
-30,
-30,
-30,
-30,
-30,
-29,
-29,
-31,
-31,
-30,
-30,
-30,
-30,
-31,
-31,
-29,
-29,
-30,
-30,
-28,
-28,
-30,
-30,
-29,
-29,
-30,
-30,
-30,
-30,
-29,
-29,
-29,
-29,
-29,
-29,
-28,
-28,
-30,
-30,
-29,
-29,
-29,
-29,
-28,
-28,
-28,
-28,
-28,
-28,
-27,
-27,
-28,
-28,
-28,
-28,
-25,
-25,
-26,
-26,
-25,
-25,
-27,
-27,
-26,
-26,
-26,
-26,
-25,
-25,
-24,
-24,
-22,
-22,
-21,
-21,
-20,
-20,
-19,
-19,
-16,
-16,
-9,
5,
5,
17,
14,
14,
21,
21,
21,
21,
21,
21,
24,
24,
25,
25,
23,
23,
23,
23,
14,
-1,
-1,
-18,
-17,
-17,
-20,
-20,
-23,
-23,
-22,
-22,
-24,
-24,
-22,
-22,
-19,
-19,
-18,
-18,
-11,
4,
2,
20,
16,
16,
20,
20,
24,
24,
24,
24,
24,
24,
24,
24,
23,
23,
20,
2,
3,
-11,
-9,
-21,
-21,
-21,
-22,
-22,
-24,
-24,
-22,
-22,
-20,
-20,
-21,
-21,
-14,
1,
-2,
14,
11,
11,
18,
18,
22,
22,
23,
23,
24,
24,
26,
26,
25,
25,
18,
18,
12,
-15,
-13,
-13,
-18,
-18,
-22,
-22,
-23,
-23,
-24,
-24,
-22,
-22,
-18,
-18,
-12,
1,
-2,
16,
16,
16,
20,
20,
24,
24,
24,
24,
26,
26,
23,
23,
21,
21,
12,
-4,
-2,
-20,
-18,
-18,
-21,
-21,
-24,
-24,
-24,
-24,
-23,
-23,
-19,
-19,
-14,
4,
4,
20,
17,
17,
21,
21,
23,
23,
26,
26,
25,
25,
23,
23,
19,
-3,
-3,
-18,
-17,
-17,
-20,
-20,
-22,
-22,
-23,
-23,
-22,
-22,
-19,
-19,
-13,
10,
10,
21,
20,
20,
22,
22,
24,
24,
24,
24,
25,
25,
20,
20,
15,
-9,
-10,
-21,
-19,
-19,
-24,
-24,
-22,
-22,
-22,
-22,
-22,
-22,
-18,
-1,
-3,
15,
13,
24,
24,
24,
25,
25,
26,
26,
26,
26,
24,
24,
16,
0,
0,
-19,
-19,
-19,
-23,
-23,
-23,
-23,
-23,
-23,
-20,
-20,
-16,
5,
5,
20,
20,
20,
24,
24,
23,
23,
26,
26,
24,
24,
20,
20,
13,
-14,
-13,
-13,
-21,
-21,
-23,
-23,
-23,
-23,
-23,
-23,
-20,
-4,
-4,
18,
16,
16,
21,
21,
23,
23,
24,
24,
26,
26,
20,
9,
12,
-15,
-12,
-12,
-21,
-21,
-22,
-22,
-25,
-25,
-22,
-22,
-17,
-5,
-4,
19,
16,
16,
24,
24,
24,
24,
25,
25,
24,
24,
17,
-6,
-5,
-20,
-17,
-17,
-21,
-21,
-23,
-23,
-22,
-22,
-18,
-6,
-5,
19,
16,
16,
21,
21,
25,
25,
26,
26,
23,
23,
18,
2,
1,
-18,
-15,
-15,
-22,
-22,
-22,
-22,
-24,
-24,
-20,
-20,
-11,
12,
11,
24,
21,
21,
24,
24,
24,
24,
23,
23,
17,
-3,
-1,
-20,
-18,
-18,
-23,
-23,
-23,
-23,
-22,
-22,
-18,
0,
-1,
22,
20,
20,
22,
22,
26,
26,
25,
25,
22,
22,
16,
-11,
-10,
-23,
-22,
-22,
-23,
-23,
-24,
-24,
-21,
-4,
-5,
20,
17,
17,
21,
21,
27,
27,
24,
24,
21,
7,
8,
-17,
-14,
-14,
-20,
-20,
-23,
-23,
-21,
-21,
-20,
-20,
-12,
18,
17,
17,
22,
22,
26,
26,
25,
25,
22,
9,
12,
-19,
-17,
-17,
-20,
-20,
-23,
-23,
-22,
-22,
-17,
3,
1,
24,
21,
21,
24,
24,
26,
26,
23,
23,
18,
-7,
-6,
-22,
-20,
-20,
-21,
-21,
-22,
-22,
-23,
-10,
-13,
17,
17,
17,
23,
23,
25,
25,
24,
24,
21,
3,
2,
-17,
-16,
-16,
-24,
-24,
-23,
-23,
-21,
-21,
-12,
19,
19,
19,
24,
24,
25,
25,
25,
25,
18,
18,
8,
-21,
-21,
-21,
-22,
-22,
-23,
-23,
-23,
-7,
-9,
22,
21,
21,
23,
23,
26,
26,
26,
26,
22,
-9,
-7,
-21,
-18,
-18,
-24,
-24,
-22,
-22,
-20,
7,
6,
23,
21,
21,
26,
26,
24,
24,
22,
8,
8,
-18,
-16,
-16,
-21,
-21,
-24,
-24,
-22,
-8,
-8,
19,
19,
19,
23,
23,
26,
26,
24,
24,
16,
-11,
-10,
-22,
-20,
-20,
-23,
-23,
-22,
-22,
-19,
18,
17,
17,
24,
24,
25,
25,
25,
25,
22,
-7,
-6,
-22,
-21,
-21,
-23,
-23,
-25,
-25,
-18,
10,
8,
25,
23,
23,
26,
26,
26,
26,
18,
3,
6,
-22,
-20,
-20,
-24,
-24,
-23,
-23,
-16,
13,
13,
25,
22,
22,
25,
25,
23,
23,
18,
-6,
-5,
-22,
-21,
-21,
-25,
-25,
-23,
-23,
-14,
24,
24,
24,
26,
26,
26,
26,
24,
13,
14,
-16,
-15,
-15,
-23,
-23,
-23,
-23,
-20,
6,
2,
24,
24,
24,
25,
25,
23,
23,
18,
-10,
-7,
-24,
-23,
-23,
-24,
-24,
-23,
-10,
-11,
25,
24,
24,
26,
26,
25,
25,
23,
-2,
2,
-20,
-20,
-20,
-24,
-24,
-24,
-4,
-7,
23,
20,
20,
26,
26,
25,
25,
22,
0,
0,
-22,
-21,
-21,
-22,
-22,
-22,
-8,
-9,
21,
20,
20,
25,
25,
26,
26,
23,
10,
11,
-21,
-20,
-20,
-22,
-22,
-22,
-22,
-16,
23,
23,
23,
25,
25,
27,
27,
20,
7,
9,
-21,
-19,
-19,
-23,
-23,
-21,
-9,
-10,
26,
23,
23,
24,
24,
22,
22,
17,
-18,
-18,
-18,
-22,
-22,
-24,
-24,
-17,
21,
17,
17,
23,
23,
26,
26,
24,
12,
13,
-19,
-19,
-19,
-22,
-22,
-24,
-11,
-11,
25,
25,
25,
28,
28,
25,
25,
17,
-10,
-10,
-24,
-21,
-21,
-24,
-24,
-19,
12,
12,
27,
25,
25,
26,
26,
22,
0,
2,
-20,
-21,
-21,
-22,
-22,
-21,
-1,
-2,
26,
24,
24,
25,
25,
21,
0,
1,
-22,
-20,
-20,
-24,
-24,
-22,
-8,
-10,
27,
25,
25,
25,
25,
23,
23,
15,
-17,
-17,
-17,
-24,
-24,
-21,
9,
8,
25,
24,
24,
25,
25,
24,
5,
5,
-20,
-17,
-17,
-24,
-24,
-21,
-8,
-11,
26,
24,
24,
25,
25,
19,
-2,
0,
-22,
-22,
-22,
-23,
-23,
-22,
5,
4,
26,
24,
24,
24,
24,
23,
1,
3,
-23,
-20,
-20,
-26,
-26,
-20,
24,
23,
23,
25,
25,
25,
25,
20,
-15,
-14,
-14,
-22,
-22,
-25,
-25,
-17,
25,
24,
24,
27,
27,
23,
5,
8,
-23,
-22,
-22,
-25,
-25,
-19,
22,
19,
19,
24,
24,
27,
27,
22,
-16,
-16,
-16,
-21,
-21,
-25,
-1,
-4,
24,
22,
22,
25,
25,
23,
8,
9,
-24,
-21,
-21,
-24,
-24,
-21,
23,
23,
23,
26,
26,
24,
12,
13,
-18,
-17,
-17,
-23,
-23,
-22,
17,
18,
18,
25,
25,
25,
25,
23,
-8,
-7,
-24,
-21,
-21,
-25,
-10,
-11,
27,
24,
24,
25,
25,
22,
-7,
-6,
-25,
-23,
-23,
-24,
-11,
-13,
25,
23,
23,
26,
26,
23,
-5,
-5,
-24,
-21,
-21,
-25,
-11,
-13,
27,
25,
25,
25,
25,
21,
-14,
-12,
-24,
-22,
-22,
-25,
-2,
-2,
27,
26,
26,
25,
25,
22,
4,
5,
-23,
-21,
-21,
-21,
-4,
-4,
27,
26,
26,
24,
24,
18,
-19,
-17,
-17,
-25,
-25,
-23,
-1,
0,
27,
24,
24,
24,
13,
15,
-18,
-18,
-18,
-25,
-25,
-23,
25,
23,
23,
26,
26,
24,
7,
9,
-25,
-24,
-24,
-24,
0,
1,
26,
25,
25,
25,
25,
22,
-11,
-10,
-26,
-24,
-24,
-25,
21,
21,
21,
27,
27,
24,
5,
5,
-23,
-22,
-22,
-26,
-26,
-19,
27,
25,
25,
27,
27,
21,
-15,
-14,
-14,
-21,
-21,
-25,
6,
5,
29,
28,
28,
25,
3,
2,
-24,
-21,
-21,
-24,
-24,
-17,
25,
25,
25,
27,
27,
22,
-14,
-11,
-25,
-24,
-24,
-20,
23,
19,
19,
28,
28,
22,
-10,
-9,
-24,
-24,
-24,
-25,
6,
5,
27,
27,
27,
25,
25,
18,
-22,
-21,
-21,
-24,
-24,
-16,
27,
27,
27,
25,
12,
14,
-21,
-20,
-20,
-23,
-23,
-13,
26,
24,
24,
27,
16,
18,
-19,
-19,
-19,
-25,
-25,
-19,
26,
25,
25,
26,
26,
18,
-12,
-11,
-26,
-25,
-25,
-18,
26,
25,
25,
26,
26,
20,
-19,
-18,
-18,
-24,
-24,
-17,
26,
26,
26,
26,
26,
22,
-15,
-13,
-25,
-24,
-24,
-18,
25,
24,
24,
25,
25,
23,
-20,
-17,
-17,
-25,
-25,
-16,
25,
24,
24,
27,
27,
18,
-17,
-15,
-26,
-23,
0,
0,
28,
27,
27,
26,
8,
9,
-21,
-19,
-19,
-25,
18,
18,
30,
26,
26,
26,
6,
7,
-25,
-24,
-24,
-23,
10,
10,
29,
27,
27,
24,
-4,
-4,
-25,
-24,
-24,
-19,
24,
23,
23,
28,
17,
20,
-22,
-21,
-21,
-23,
12,
13,
28,
25,
25,
26,
9,
9,
-24,
-24,
-24,
-24,
23,
21,
21,
28,
28,
23,
-16,
-16,
-16,
-24,
-24,
-17,
28,
25,
25,
27,
11,
12,
-25,
-25,
-25,
-23,
25,
24,
24,
27,
27,
22,
-15,
-15,
-15,
-22,
-5,
-5,
28,
26,
26,
23,
23,
18,
-21,
-22,
-22,
-24,
26,
25,
25,
26,
26,
21,
-16,
-15,
-26,
-26,
5,
6,
28,
26,
26,
24,
24,
13,
-23,
-23,
-23,
-23,
27,
26,
26,
25,
13,
15,
-23,
-22,
-22,
-24,
21,
21,
21,
27,
27,
26,
-19,
-17,
-17,
-26,
-14,
-13,
29,
27,
27,
24,
3,
2,
-26,
-23,
-23,
-20,
25,
23,
23,
26,
13,
14,
-23,
-23,
-23,
-25,
23,
22,
22,
27,
27,
21,
-20,
-19,
-19,
-24,
26,
23,
23,
26,
26,
18,
-23,
-22,
-22,
-25,
20,
19,
30,
27,
27,
22,
-3,
-3,
-26,
-25,
17,
17,
28,
26,
26,
24,
-18,
-17,
-17,
-26,
13,
13,
28,
28,
28,
25,
-16,
-15,
-27,
-28,
-13,
-13,
30,
26,
26,
25,
-4,
-4,
-26,
-25,
-4,
-3,
30,
26,
26,
25,
8,
10,
-26,
-24,
-24,
-20,
28,
26,
26,
25,
-19,
-19,
-19,
-25,
-25,
-18,
30,
27,
27,
24,
-1,
-1,
-26,
-24,
1,
1,
30,
26,
26,
25,
-21,
-20,
-20,
-25,
15,
14,
30,
27,
27,
19,
-21,
-20,
-20,
-22,
27,
26,
26,
27,
27,
22,
-24,
-24,
-24,
-21,
27,
25,
25,
27,
27,
20,
-24,
-22,
-22,
-11,
28,
27,
27,
27,
-19,
-18,
-18,
-25,
14,
13,
31,
29,
29,
23,
-9,
-8,
-27,
-25,
27,
24,
24,
28,
28,
23,
-21,
-20,
-20,
-25,
28,
27,
27,
26,
12,
13,
-26,
-22,
16,
14,
31,
26,
26,
23,
-18,
-15,
-28,
-25,
3,
2,
31,
27,
13,
16,
-24,
-24,
-24,
-20,
28,
27,
27,
26,
-19,
-19,
-19,
-26,
22,
19,
32,
28,
28,
19,
-22,
-21,
-21,
-24,
28,
27,
27,
29,
7,
7,
-25,
-23,
13,
14,
31,
28,
28,
20,
-24,
-22,
-22,
-25,
25,
22,
22,
29,
8,
8,
-25,
-25,
-25,
-18,
29,
26,
26,
20,
-20,
-21,
-21,
-25,
28,
28,
28,
26,
7,
8,
-25,
-25,
-25,
-16,
29,
28,
28,
22,
-20,
-17,
-28,
-24,
27,
25,
25,
28,
-1,
1,
-27,
-26,
26,
25,
25,
29,
11,
12,
-25,
-23,
-23,
-22,
28,
28,
28,
24,
-20,
-18,
-18,
-25,
25,
23,
23,
27,
27,
17,
-27,
-26,
-26,
-19,
31,
26,
26,
21,
-24,
-22,
-22,
-26,
27,
27,
27,
24,
-20,
-17,
-28,
-26,
23,
22,
22,
27,
27,
22,
-24,
-23,
-23,
-22,
29,
28,
28,
25,
-20,
-20,
-20,
-22,
26,
25,
25,
26,
11,
12,
-25,
-25,
-25,
-20,
31,
28,
28,
27,
-20,
-18,
-29,
-21,
29,
26,
26,
26,
-19,
-17,
-17,
-24,
24,
22,
22,
26,
10,
10,
-26,
-23,
-23,
-21,
31,
29,
29,
23,
-7,
-6,
-28,
-25,
24,
23,
23,
27,
16,
17,
-26,
-25,
-25,
-21,
31,
28,
28,
22,
-24,
-21,
-21,
-18,
29,
28,
28,
25,
-8,
-7,
-27,
-26,
22,
20,
20,
29,
18,
19,
-26,
-23,
-23,
-17,
29,
28,
28,
26,
-20,
-18,
-18,
-24,
23,
21,
21,
27,
-21,
-22,
-22,
-25,
23,
23,
23,
27,
14,
14,
-25,
-24,
-24,
-25,
27,
24,
24,
25,
0,
1,
-25,
-24,
-24,
-24,
24,
23,
23,
27,
7,
8,
-24,
-23,
-23,
-25,
18,
17,
29,
27,
27,
25,
-8,
-7,
-25,
-22,
-22,
-24,
14,
13,
28,
25,
25,
22,
-5,
-5,
-24,
-23,
-23,
-23,
-23,
-16,
22,
19,
19,
24,
24,
23,
3,
5,
-22,
-23,
-23,
-23,
-23,
-20,
8,
9,
26,
26,
26,
27,
27,
23,
4,
6,
-23,
-21,
-21,
-22,
-22,
-23,
-23,
-15,
22,
19,
19,
23,
23,
27,
27,
23,
2,
4,
-21,
-19,
-19,
-23,
-23,
-22,
-22,
-21,
-21,
-14,
10,
9,
23,
21,
21,
25,
25,
26,
26,
24,
24,
23,
-2,
-1,
-21,
-19,
-19,
-22,
-22,
-23,
-23,
-22,
-22,
-21,
-21,
-16,
-16,
-8,
4,
2,
18,
18,
18,
19,
19,
22,
22,
24,
24,
24,
24,
26,
26,
24,
24,
23,
23,
15,
-5,
-6,
-20,
-20,
-20,
-21,
-21,
-24,
-24,
-24,
-24,
-24,
-24,
-22,
-22,
-24,
-24,
-24,
-24,
-22,
-22,
-21,
-21,
-21,
-21,
-20,
-20,
-21,
-21,
-21,
-21,
-21,
-21,
-20,
-20,
-21,
-21,
-22,
-22,
-22,
-22,
-20,
-20,
-20,
-20,
-23,
-23,
-23,
-23,
-21,
-21,
-23,
-23,
-22,
-22,
-22,
-22,
-23,
-23,
-23,
-23,
-23,
-23,
-24,
-24,
-24,
-24,
-26,
-26,
-24,
-24,
-26,
-26,
-27,
-27,
-25,
-25,
-27,
-27,
-26,
-26,
-25,
-25,
-27,
-27,
-27,
-27,
-29,
-29,
-28,
-28,
-28,
-28,
-29,
-29,
-27,
-27,
-30,
-30,
-28,
-28,
-29,
-29,
-27,
-27,
-31,
-31,
-29,
-29,
-30,
-30,
-30,
-30,
-30,
-30,
-29,
-29,
-28,
-28,
-31,
-31,
-31,
-31,
-31,
-31,
-31,
-31,
-31,
-31,
-31,
-31,
-29,
-29,
-32,
-32,
-29,
-29,
-32,
-32,
-32,
-32,
-30,
-30,
-31,
-31,
-29,
-29,
-32,
-32,
-32,
-32,
-31,
-31,
-32,
-32,
-31,
-31,
-32,
-32,
-33,
-33,
-32,
-32,
-33,
-33,
-33,
-33,
-33,
-33,
-32,
-32,
-32,
-32,
-32,
-32,
-32,
-32,
-33,
-33,
-33,
-33,
-33,
-33,
-34,
-34,
-33,
-33,
-33,
-33,
-34,
-34,
-32,
-32,
-34,
-34,
-34,
-34,
-32,
-32,
-33,
-33,
-34,
-34,
-33,
-33,
-34,
-34,
-33,
-33,
-33,
-33,
-33,
-33,
-35,
-35,
-35,
-35,
-33,
-33,
-36,
-36,
-35,
-35,
-36,
-36,
-35,
-35,
-34,
-34,
-34,
-34,
-36,
-36,
-33,
-33,
-36,
-36,
-34,
-34,
-34,
-34,
-35,
-35,
-36,
-36,
-34,
-34,
-35,
-35,
-36,
-36,
-35,
-35,
-36,
-36,
-35,
-35,
-34,
-34,
-35,
-35,
-36,
-36,
-34,
-34,
-36,
-36,
-35,
-35,
-37,
-37,
-35,
-35,
-36,
-36,
-36,
-36,
-36,
-36,
-36,
-36,
-36,
-36,
-36,
-36,
-36,
-36,
-35,
-35,
-35,
-35,
-35,
-35,
-35,
-35,
-36,
-36,
-34,
-34,
-35,
-35,
-35,
-35,
-36,
-36,
-37,
-37,
-35,
-35,
-36,
-36,
-36,
-36,
-36,
-36,
-35,
-35,
-34,
-34,
-35,
-35,
-34,
-34,
-36,
-36,
-34,
-34,
-36,
-36,
-34,
-34,
-34,
-34,
-35,
-35,
-35,
-35,
-35,
-35,
-34,
-34,
-36,
-36,
-35,
-35,
-36,
-36,
-34,
-34,
-35,
-35,
-35,
-35,
-36,
-36,
-36,
-36,
-37,
-37,
-36,
-36,
-35,
-35,
-35,
-35,
-36,
-36,
-36,
-36,
-35,
-35,
-35,
-35,
-36,
-36,
-37,
-37,
-35,
-35,
-36,
-36,
-34,
-34,
-37,
-37,
-35,
-35,
-37,
-37,
-35,
-35,
-35,
-35,
-34,
-34,
-36,
-36,
-36,
-36,
-36,
-36,
-35,
-35,
-36,
-36,
-35,
-35,
-35,
-35,
-36,
-36,
-35,
-35,
-36,
-36,
-37,
-37,
-34,
-34,
-35,
-35,
-34,
-34,
-35,
-35,
-34,
-34,
-36,
-36,
-35,
-35,
-33,
-33,
-35,
-35,
-35,
-35,
-35,
-35,
-36,
-36,
-35,
-35,
-36,
-36,
-36,
-36,
-34,
-34,
-35,
-35,
-35,
-35,
-35,
-35,
-34,
-34,
-34,
-34,
-34,
-34,
-36,
-36,
-35,
-35,
-35,
-35,
-35,
-35,
-35,
-35,
-35,
-35,
-35,
-35,
-36,
-36,
-35,
-35,
-34,
-34,
-35,
-35,
-35,
-35,
-35,
-35,
-34,
-34,
-34,
-34,
-36,
-36,
-35,
-35,
-35,
-35,
-35,
-35,
-36,
-36,
-35,
-35,
-35,
-35,
-35,
-35,
-34,
-34,
-35,
-35,
-35,
-35,
-35,
-35,
-34,
-34,
-35,
-35,
-36,
-36,
-36,
-36,
-36,
-36,
-37,
-37,
-37,
-37,
-36,
-36,
-34,
-34,
-35,
-35,
-35,
-35,
-35,
-35,
-35,
-35,
-35,
-35,
-34,
-34,
-36,
-36,
-36,
-36,
-35,
-35,
-34,
-34,
-34,
-34,
-35,
-35,
-37,
-37,
-35,
-35,
-36,
-36,
-35,
-35,
-35,
-35,
-34,
-34,
-34,
-34,
-35,
-35,
-36,
-36,
-34,
-34,
-37,
-37,
-34,
-34,
-36,
-36,
-35,
-35,
-34,
-34,
-36,
-36,
-36,
-36,
-35,
-35,
-35,
-35,
-37,
-37,
-34,
-34,
-36,
-36,
-35,
-35,
-36,
-36,
-34,
-34,
-35,
-35,
-35,
-35,
-35,
-35,
-35,
-35,
-36,
-36,
-34,
-34,
-37,
-37,
-35,
-35,
-36,
-36,
-35,
-35,
-34,
-34,
-36,
-36,
-36,
-36,
-36,
-36,
-35,
-35,
-35,
-35,
-36,
-36,
-36,
-36,
-36,
-36,
-35,
-35,
-35,
-35,
-36,
-36,
-33,
-33,
-36,
-36,
-34,
-34,
-36,
-36,
-35,
-35,
-34,
-34,
-36,
-36,
-35,
-35,
-35,
-35,
-36,
-36,
-35,
-35,
-35,
-35,
-35,
-35,
-36,
-36,
-36,
-36,
-34,
-34,
-34,
-34,
-35,
-35,
-35,
-35,
-35,
-35,
-35,
-35,
-36,
-36,
-34,
-34,
-34,
-34,
-37,
-37,
-35,
-35,
-36,
-36,
-35,
-35,
-36,
-36,
-34,
-34,
-36,
-36,
-36,
-36,
-36,
-36,
-35,
-35,
-35,
-35,
-34,
-34,
-35,
-35,
-36,
-36,
-35,
-35,
-35,
-35,
-34,
-34,
-35,
-35,
-34,
-34,
-35,
-35,
-36,
-36,
-35,
-35,
-36,
-36,
-35,
-35,
-35,
-35,
-36,
-36,
-34,
-34,
-36,
-36,
-35,
-35,
-35,
-35,
-35,
-35,
-36,
-36,
-36,
-36,
-35,
-35,
-36,
-36,
-35,
-35,
-34,
-34,
-35,
-35,
-35,
-35,
-35,
-35,
-35,
-35,
-37,
-37,
-36,
-36,
-37,
-37,
-35,
-35,
-35,
-35,
-35,
-35,
-35,
-35,
-34,
-34,
-35,
-35,
-35,
-35,
-37,
-37,
-35,
-35,
-34,
-34,
-34,
-34,
-35,
-35,
-35,
-35,
-35,
-35,
-35,
-35,
-35,
-35,
-35,
-35,
-36,
-36,
-35,
-35,
-36,
-36,
-37,
-37,
-36,
-36,
-36,
-36,
-35,
-35,
-36,
-36,
-34,
-34,
-34,
-34,
-36,
-36,
-33,
-33,
-36,
-36,
-36,
-36,
-35,
-35,
-35,
-35,
-35,
-35,
-34,
-34,
-35,
-35,
-36,
-36,
-34,
-34,
-34,
-34,
-36,
-36,
-35,
-35,
-35,
-35,
-34,
-34,
-36,
-36,
-34,
-34,
-35,
-35,
-35,
-35,
-35,
-35,
-34,
-34,
-35,
-35,
-35,
-35,
-35,
-35,
-34,
-34,
-36,
-36,
-34,
-34,
-36,
-36,
-35,
-35,
-35,
-35,
-34,
-34,
-35,
-35,
-34,
-34,
-37,
-37,
-36,
-36,
-36,
-36,
-36,
-36,
-34,
-34,
-36,
-36,
-35,
-35,
-36,
-36,
-36,
-36,
-33,
-33,
-35,
-35,
-34,
-34,
-34,
-34,
-35,
-35,
-36,
-36,
-36,
-36,
-33,
-33,
-35,
-35,
-35,
-35,
-34,
-34,
-35,
-35,
-34,
-34,
-36,
-36,
-36,
-36,
-34,
-34,
-34,
-34,
-35,
-35,
-35,
-35,
-35,
-35,
-34,
-34,
-35,
-35,
-35,
-35,
-35,
-35,
-35,
-35,
-35,
-35,
-35,
-35,
-35,
-35,
-34,
-34,
-34,
-34,
-34,
-34,
-34,
-34,
-34,
-34,
-35,
-35,
-34,
-34,
-34,
-34,
-35,
-35,
-35,
-35,
-35,
-35,
-36,
-36,
-35,
-35,
-37,
-37,
-35,
-35,
-34,
-34,
-35,
-35,
-34,
-34,
-34,
-34,
-35,
