6-anwendungen-opAmps/daten/ALL0034/A0034CH1.CSV

Memory Length,4000,
Trigger Level,6.18000e+02,
Source,CH1,
Probe,1.0X,
Vertical Units,V,
Vertical Scale,5.00000e-02,
Vertical Position,-5.06000e-01,
Horizontal Units,S,
Horizontal Scale,5.00000e-04,
Horizontal Position,-7.0000000e-04,
Horizontal Mode,Main,
Sampling Period,2.00000e-06,
Firmware,V1.14,
Time, ,
Mode,Fast,
Waveform Data,
242,
242,
242,
242,
242,
242,
242,
243,
243,
243,
243,
242,
242,
243,
243,
244,
244,
242,
242,
243,
243,
244,
244,
243,
243,
244,
244,
244,
244,
244,
244,
244,
244,
244,
244,
244,
244,
244,
244,
244,
244,
244,
244,
244,
244,
244,
244,
244,
244,
242,
242,
245,
245,
244,
244,
244,
244,
243,
243,
246,
246,
243,
243,
245,
245,
245,
245,
243,
243,
245,
245,
244,
244,
244,
244,
244,
244,
244,
244,
244,
244,
245,
245,
244,
244,
244,
244,
244,
244,
245,
245,
245,
245,
245,
245,
245,
245,
246,
246,
245,
245,
246,
246,
246,
246,
245,
245,
245,
245,
247,
247,
246,
246,
245,
245,
247,
247,
245,
245,
246,
246,
245,
245,
246,
246,
243,
243,
245,
245,
246,
246,
246,
246,
247,
247,
247,
247,
246,
246,
248,
248,
246,
246,
247,
247,
247,
247,
247,
247,
246,
246,
247,
247,
247,
247,
247,
247,
246,
246,
247,
247,
247,
247,
247,
247,
247,
247,
247,
247,
248,
248,
247,
247,
248,
248,
247,
247,
247,
247,
248,
248,
248,
248,
249,
249,
248,
248,
247,
247,
248,
248,
246,
246,
245,
245,
248,
248,
249,
249,
248,
248,
247,
247,
248,
248,
249,
249,
248,
248,
247,
247,
248,
248,
247,
247,
249,
249,
247,
247,
249,
249,
249,
249,
248,
248,
249,
249,
249,
249,
247,
247,
248,
248,
249,
249,
250,
250,
251,
251,
249,
249,
249,
249,
249,
249,
250,
250,
252,
252,
249,
249,
251,
251,
249,
249,
249,
249,
252,
252,
249,
249,
250,
250,
250,
250,
251,
251,
251,
251,
250,
250,
250,
250,
250,
250,
250,
250,
250,
250,
250,
250,
251,
251,
250,
250,
250,
250,
251,
251,
249,
249,
250,
250,
250,
250,
251,
251,
249,
249,
251,
251,
251,
251,
251,
251,
252,
252,
251,
251,
251,
251,
250,
250,
250,
250,
250,
250,
250,
250,
250,
250,
252,
252,
250,
250,
252,
252,
251,
251,
251,
251,
251,
251,
252,
252,
252,
252,
252,
252,
252,
252,
251,
251,
250,
250,
251,
251,
252,
252,
252,
252,
252,
252,
252,
252,
252,
252,
252,
252,
252,
252,
253,
253,
251,
251,
254,
254,
252,
252,
252,
252,
254,
254,
253,
253,
253,
253,
253,
253,
252,
252,
252,
252,
253,
253,
253,
253,
253,
253,
251,
251,
253,
253,
253,
253,
254,
254,
254,
254,
252,
252,
253,
253,
253,
253,
254,
254,
254,
254,
253,
253,
255,
255,
254,
254,
253,
253,
253,
253,
253,
253,
253,
253,
253,
253,
254,
254,
253,
253,
254,
254,
253,
253,
253,
253,
252,
252,
254,
254,
254,
254,
256,
256,
254,
254,
253,
253,
253,
253,
254,
254,
251,
251,
253,
253,
254,
254,
256,
256,
256,
256,
254,
254,
254,
254,
255,
255,
255,
255,
255,
255,
255,
255,
255,
255,
255,
255,
257,
257,
255,
255,
254,
254,
254,
254,
257,
257,
256,
256,
256,
256,
256,
256,
256,
256,
254,
254,
257,
257,
255,
255,
255,
255,
256,
256,
257,
257,
256,
256,
256,
256,
255,
255,
256,
256,
256,
256,
257,
257,
256,
256,
255,
255,
255,
255,
256,
256,
256,
256,
258,
258,
257,
257,
256,
256,
257,
257,
255,
255,
257,
257,
257,
257,
257,
257,
256,
256,
258,
258,
257,
257,
256,
256,
258,
258,
257,
257,
256,
256,
256,
256,
257,
257,
258,
258,
258,
258,
256,
256,
257,
257,
257,
257,
258,
258,
257,
257,
257,
257,
257,
257,
257,
257,
257,
257,
261,
261,
257,
257,
258,
258,
258,
258,
258,
258,
257,
257,
258,
258,
258,
258,
259,
259,
257,
257,
259,
259,
259,
259,
258,
258,
260,
260,
258,
258,
259,
259,
258,
258,
258,
258,
259,
259,
259,
259,
259,
259,
259,
259,
259,
259,
257,
257,
259,
259,
258,
258,
258,
258,
259,
259,
260,
260,
261,
261,
260,
260,
260,
260,
259,
259,
259,
259,
259,
259,
260,
260,
259,
259,
260,
260,
260,
260,
260,
260,
259,
259,
259,
259,
259,
259,
260,
260,
261,
261,
260,
260,
261,
261,
260,
260,
260,
260,
260,
260,
260,
260,
260,
260,
261,
261,
261,
261,
260,
260,
259,
259,
262,
262,
261,
261,
259,
259,
260,
260,
262,
262,
260,
260,
261,
261,
261,
261,
262,
262,
261,
261,
260,
260,
261,
261,
262,
262,
262,
262,
261,
261,
262,
262,
262,
262,
261,
261,
262,
262,
262,
262,
263,
263,
261,
261,
260,
260,
263,
263,
262,
262,
261,
261,
263,
263,
261,
261,
262,
262,
262,
262,
262,
262,
263,
263,
263,
263,
264,
264,
263,
263,
263,
263,
262,
262,
262,
262,
262,
262,
262,
262,
264,
264,
263,
263,
263,
263,
263,
263,
262,
262,
264,
264,
262,
262,
262,
262,
263,
263,
265,
265,
262,
262,
264,
264,
263,
263,
263,
263,
264,
264,
263,
263,
264,
264,
264,
264,
265,
265,
265,
265,
264,
264,
264,
264,
263,
263,
263,
263,
263,
263,
263,
263,
264,
264,
264,
264,
264,
264,
263,
263,
263,
263,
264,
264,
265,
265,
265,
265,
265,
265,
265,
265,
263,
263,
264,
264,
265,
265,
266,
266,
264,
264,
265,
265,
264,
264,
267,
267,
265,
265,
265,
265,
265,
265,
268,
268,
266,
266,
266,
266,
265,
265,
266,
266,
266,
266,
265,
265,
265,
265,
266,
266,
266,
266,
266,
266,
267,
267,
265,
265,
265,
265,
266,
266,
265,
265,
266,
266,
266,
266,
267,
267,
266,
266,
265,
265,
267,
267,
268,
268,
266,
266,
267,
267,
266,
266,
268,
268,
266,
266,
266,
266,
268,
268,
266,
266,
267,
267,
268,
268,
267,
267,
266,
266,
267,
267,
268,
268,
267,
267,
267,
267,
267,
267,
268,
268,
267,
267,
268,
268,
267,
267,
269,
269,
267,
267,
267,
267,
268,
268,
268,
268,
268,
268,
268,
268,
267,
267,
267,
267,
266,
266,
269,
269,
268,
268,
267,
267,
269,
269,
270,
270,
268,
268,
269,
269,
269,
269,
268,
268,
268,
268,
269,
269,
267,
267,
270,
270,
269,
269,
269,
269,
269,
269,
269,
269,
268,
268,
269,
269,
269,
269,
270,
270,
270,
270,
269,
269,
270,
270,
269,
269,
269,
269,
269,
269,
270,
270,
269,
269,
268,
268,
270,
270,
269,
269,
270,
270,
268,
268,
270,
270,
270,
270,
270,
270,
271,
271,
270,
270,
270,
270,
271,
271,
271,
271,
272,
272,
270,
270,
270,
270,
271,
271,
270,
270,
270,
270,
270,
270,
270,
270,
271,
271,
271,
271,
269,
269,
271,
271,
273,
273,
271,
271,
270,
270,
270,
270,
270,
270,
271,
271,
270,
270,
272,
272,
271,
271,
271,
271,
271,
271,
272,
272,
271,
271,
272,
272,
271,
271,
272,
272,
272,
272,
272,
272,
272,
272,
274,
274,
271,
271,
271,
271,
270,
270,
272,
272,
272,
272,
272,
272,
272,
272,
272,
272,
272,
272,
272,
272,
272,
272,
272,
272,
271,
271,
270,
270,
273,
273,
272,
272,
272,
272,
273,
273,
272,
272,
274,
274,
273,
273,
274,
274,
273,
273,
271,
271,
274,
274,
273,
273,
274,
274,
273,
273,
274,
274,
274,
274,
273,
273,
274,
274,
274,
274,
274,
274,
273,
273,
274,
274,
274,
274,
272,
272,
274,
274,
274,
274,
275,
275,
276,
276,
273,
273,
275,
275,
275,
275,
274,
274,
274,
274,
274,
274,
274,
274,
273,
273,
275,
275,
275,
275,
274,
274,
274,
274,
275,
275,
275,
275,
275,
275,
274,
274,
274,
274,
276,
276,
275,
275,
276,
276,
275,
275,
274,
274,
274,
274,
275,
275,
276,
276,
275,
275,
276,
276,
276,
276,
274,
274,
275,
275,
275,
275,
276,
276,
277,
277,
277,
277,
276,
276,
276,
276,
276,
276,
276,
276,
276,
276,
274,
274,
275,
275,
275,
275,
276,
276,
277,
277,
276,
276,
276,
276,
277,
277,
276,
276,
276,
276,
277,
277,
276,
276,
276,
276,
277,
277,
277,
277,
277,
277,
277,
277,
278,
278,
277,
277,
278,
278,
279,
279,
278,
278,
278,
278,
277,
277,
278,
278,
277,
277,
277,
277,
277,
277,
278,
278,
277,
277,
278,
278,
279,
279,
278,
278,
277,
277,
278,
278,
278,
278,
280,
280,
279,
279,
278,
278,
278,
278,
279,
279,
278,
278,
279,
279,
278,
278,
278,
278,
279,
279,
278,
278,
280,
280,
279,
279,
278,
278,
279,
279,
279,
279,
278,
278,
278,
278,
279,
279,
280,
280,
280,
280,
280,
280,
280,
280,
279,
279,
280,
280,
279,
279,
279,
279,
279,
279,
279,
279,
279,
279,
280,
280,
280,
280,
281,
281,
280,
280,
280,
280,
281,
281,
281,
281,
280,
280,
280,
280,
280,
280,
280,
280,
280,
280,
280,
280,
281,
281,
281,
281,
281,
281,
282,
282,
283,
283,
281,
281,
283,
283,
281,
281,
281,
281,
282,
282,
281,
281,
281,
281,
280,
280,
280,
280,
281,
281,
282,
282,
282,
282,
281,
281,
282,
282,
282,
282,
283,
283,
281,
281,
281,
281,
282,
282,
283,
283,
282,
282,
283,
283,
282,
282,
283,
283,
282,
282,
282,
282,
282,
282,
282,
282,
281,
281,
283,
283,
281,
281,
282,
282,
282,
282,
283,
283,
282,
282,
284,
284,
283,
283,
283,
283,
284,
284,
283,
283,
283,
283,
283,
283,
283,
283,
282,
282,
281,
281,
284,
284,
284,
284,
283,
283,
283,
283,
283,
283,
283,
283,
284,
284,
283,
283,
285,
285,
284,
284,
284,
284,
285,
285,
284,
284,
284,
284,
286,
286,
285,
285,
285,
285,
284,
284,
283,
283,
283,
283,
284,
284,
283,
283,
284,
284,
284,
284,
283,
283,
284,
284,
284,
284,
285,
285,
284,
284,
284,
284,
284,
284,
286,
286,
286,
286,
285,
285,
284,
284,
285,
285,
285,
285,
284,
284,
286,
286,
286,
286,
285,
285,
284,
284,
286,
286,
285,
285,
285,
285,
287,
287,
285,
285,
284,
284,
286,
286,
285,
285,
286,
286,
285,
285,
288,
288,
287,
287,
286,
286,
286,
286,
285,
285,
286,
286,
286,
286,
285,
285,
286,
286,
286,
286,
286,
286,
288,
288,
286,
286,
287,
287,
287,
287,
286,
286,
287,
287,
287,
287,
287,
287,
286,
286,
286,
286,
287,
287,
286,
286,
287,
287,
287,
287,
287,
287,
287,
287,
287,
287,
287,
287,
288,
288,
287,
287,
287,
287,
287,
287,
287,
287,
288,
288,
288,
288,
288,
288,
289,
289,
287,
287,
288,
288,
288,
288,
288,
288,
288,
288,
289,
289,
288,
288,
287,
287,
288,
288,
289,
289,
289,
289,
289,
289,
287,
287,
289,
289,
288,
288,
289,
289,
288,
288,
288,
288,
288,
288,
288,
288,
289,
289,
289,
289,
289,
289,
289,
289,
290,
290,
290,
290,
288,
288,
289,
289,
288,
288,
289,
289,
290,
290,
290,
290,
289,
289,
290,
290,
290,
290,
290,
290,
290,
290,
290,
290,
290,
290,
290,
290,
290,
290,
289,
289,
291,
291,
291,
291,
291,
291,
290,
290,
290,
290,
290,
290,
290,
290,
290,
290,
291,
291,
291,
291,
290,
290,
290,
290,
290,
290,
290,
290,
292,
292,
290,
290,
290,
290,
290,
290,
290,
290,
290,
290,
292,
292,
292,
292,
292,
292,
290,
290,
291,
291,
291,
291,
291,
291,
292,
292,
290,
290,
291,
291,
291,
291,
292,
292,
292,
292,
291,
291,
294,
294,
291,
291,
292,
292,
291,
291,
292,
292,
292,
292,
292,
292,
292,
292,
293,
293,
291,
291,
291,
291,
292,
292,
292,
292,
293,
293,
293,
293,
292,
292,
292,
292,
293,
293,
293,
293,
291,
291,
293,
293,
293,
293,
293,
293,
293,
293,
294,
294,
293,
293,
293,
293,
294,
294,
293,
293,
293,
293,
293,
293,
294,
294,
294,
294,
295,
295,
294,
294,
294,
294,
294,
294,
294,
294,
294,
294,
295,
295,
293,
293,
294,
294,
295,
295,
294,
294,
294,
294,
294,
294,
294,
294,
294,
294,
293,
293,
295,
295,
296,
296,
295,
295,
295,
295,
296,
296,
295,
295,
295,
295,
297,
297,
295,
295,
296,
296,
295,
295,
295,
295,
295,
295,
295,
295,
295,
295,
296,
296,
297,
297,
296,
296,
296,
296,
296,
296,
295,
295,
295,
295,
295,
295,
295,
295,
296,
296,
296,
296,
296,
296,
297,
297,
295,
295,
295,
295,
296,
296,
297,
297,
297,
297,
296,
296,
297,
297,
296,
296,
297,
297,
296,
296,
296,
296,
297,
297,
297,
297,
296,
296,
297,
297,
297,
297,
297,
297,
297,
297,
297,
297,
298,
298,
296,
296,
297,
297,
298,
298,
298,
298,
297,
297,
297,
297,
297,
297,
298,
298,
296,
296,
297,
297,
298,
298,
297,
297,
298,
298,
297,
297,
297,
297,
298,
298,
298,
298,
298,
298,
297,
297,
298,
298,
297,
297,
298,
298,
297,
297,
298,
298,
299,
299,
299,
299,
298,
298,
298,
298,
298,
298,
298,
298,
298,
298,
299,
299,
298,
298,
298,
298,
299,
299,
298,
298,
299,
299,
299,
299,
299,
299,
299,
299,
300,
300,
299,
299,
299,
299,
298,
298,
299,
299,
300,
300,
300,
300,
299,
299,
300,
300,
301,
301,
299,
299,
300,
300,
300,
300,
300,
300,
300,
300,
300,
300,
300,
300,
300,
300,
299,
299,
300,
300,
300,
300,
300,
300,
299,
299,
300,
300,
300,
300,
300,
300,
299,
299,
301,
301,
300,
300,
300,
300,
302,
302,
301,
301,
300,
300,
300,
300,
301,
301,
301,
301,
301,
301,
300,
300,
301,
301,
301,
301,
300,
300,
299,
299,
301,
301,
301,
301,
301,
301,
301,
301,
301,
301,
302,
302,
301,
301,
301,
301,
301,
301,
302,
302,
301,
301,
301,
301,
301,
301,
301,
301,
302,
302,
302,
302,
301,
301,
302,
302,
302,
302,
303,
303,
302,
302,
302,
302,
303,
303,
302,
302,
303,
303,
303,
303,
303,
303,
303,
303,
302,
302,
302,
302,
303,
303,
302,
302,
302,
302,
304,
304,
303,
303,
302,
302,
303,
303,
303,
303,
304,
304,
303,
303,
302,
302,
303,
303,
303,
303,
305,
305,
304,
304,
304,
304,
303,
303,
303,
303,
303,
303,
304,
304,
303,
303,
305,
305,
303,
303,
304,
304,
304,
304,
304,
304,
304,
304,
304,
304,
305,
305,
305,
305,
304,
304,
305,
305,
304,
304,
304,
304,
305,
305,
304,
304,
306,
306,
304,
304,
304,
304,
305,
305,
305,
305,
305,
305,
304,
304,
304,
304,
304,
304,
305,
305,
305,
305,
305,
305,
304,
304,
306,
306,
304,
304,
306,
306,
304,
304,
305,
305,
305,
305,
305,
305,
306,
306,
305,
305,
307,
307,
307,
307,
307,
307,
305,
305,
306,
306,
305,
305,
307,
307,
305,
305,
304,
304,
306,
306,
307,
307,
306,
306,
306,
306,
306,
306,
307,
307,
306,
306,
306,
306,
307,
307,
306,
306,
307,
307,
306,
306,
307,
307,
307,
307,
307,
307,
307,
307,
306,
306,
306,
306,
307,
307,
308,
308,
308,
308,
307,
307,
307,
307,
307,
307,
307,
307,
308,
308,
306,
306,
307,
307,
308,
308,
308,
308,
308,
308,
307,
307,
308,
308,
309,
309,
308,
308,
308,
308,
308,
308,
308,
308,
308,
308,
309,
309,
306,
306,
308,
308,
308,
308,
309,
309,
309,
309,
307,
307,
309,
309,
309,
309,
309,
309,
310,
310,
309,
309,
309,
309,
309,
309,
310,
310,
309,
309,
309,
309,
309,
309,
310,
310,
309,
309,
309,
309,
309,
309,
310,
310,
310,
310,
310,
310,
310,
310,
309,
309,
308,
308,
310,
310,
310,
310,
312,
312,
309,
309,
311,
311,
310,
310,
311,
311,
309,
309,
311,
311,
311,
311,
310,
310,
311,
311,
310,
310,
310,
310,
309,
309,
311,
311,
310,
310,
311,
311,
312,
312,
310,
310,
312,
312,
310,
310,
311,
311,
310,
310,
310,
310,
311,
311,
311,
311,
311,
311,
311,
311,
310,
310,
312,
312,
311,
311,
311,
311,
312,
312,
312,
312,
313,
313,
312,
312,
312,
312,
313,
313,
313,
313,
312,
312,
313,
313,
313,
313,
313,
313,
313,
313,
312,
312,
311,
311,
312,
312,
312,
312,
312,
312,
313,
313,
312,
312,
312,
312,
312,
312,
313,
313,
313,
313,
312,
312,
313,
313,
313,
313,
313,
313,
314,
314,
314,
314,
313,
313,
313,
313,
314,
314,
313,
313,
314,
314,
314,
314,
314,
314,
314,
314,
313,
313,
313,
313,
313,
313,
313,
313,
314,
314,
313,
313,
315,
315,
314,
314,
314,
314,
315,
315,
314,
314,
315,
315,
315,
315,
315,
315,
315,
315,
315,
315,
315,
315,
314,
314,
314,
314,
313,
313,
314,
314,
314,
314,
314,
314,
314,
314,
315,
315,
316,
316,
314,
314,
315,
315,
315,
315,
315,
315,
315,
315,
315,
315,
315,
315,
316,
316,
315,
315,
314,
314,
315,
315,
314,
314,
315,
315,
315,
315,
314,
314,
315,
315,
315,
315,
315,
315,
316,
316,
316,
316,
315,
315,
315,
315,
314,
314,
315,
315,
313,
313,
313,
313,
313,
313,
313,
313,
311,
311,
312,
312,
310,
310,
310,
310,
310,
310,
308,
308,
308,
308,
309,
309,
308,
308,
306,
306,
306,
306,
305,
305,
304,
304,
303,
303,
304,
304,
303,
303,
303,
303,
302,
302,
302,
302,
301,
301,
300,
300,
300,
300,
299,
299,
299,
299,
299,
299,
299,
299,
299,
299,
298,
298,
297,
297,
296,
296,
294,
294,
294,
294,
295,
295,
294,
294,
292,
292,
292,
292,
291,
291,
292,
292,
292,
292,
290,
290,
290,
290,
289,
289,
287,
287,
288,
288,
289,
289,
287,
287,
286,
286,
287,
287,
286,
286,
286,
286,
285,
285,
285,
285,
284,
284,
284,
284,
283,
283,
282,
282,
281,
281,
281,
281,
280,
280,
281,
281,
280,
280,
278,
278,
277,
277,
279,
279,
277,
277,
276,
276,
276,
276,
275,
275,
275,
275,
275,
275,
273,
273,
273,
273,
274,
274,
272,
272,
271,
271,
271,
271,
270,
270,
270,
270,
270,
270,
269,
269,
267,
267,
268,
268,
267,
267,
267,
267,
266,
266,
267,
267,
265,
265,
265,
265,
265,
265,
264,
264,
264,
264,
264,
264,
261,
261,
262,
262,
262,
262,
260,
260,
261,
261,
259,
259,
258,
258,
258,
258,
258,
258,
256,
256,
257,
257,
256,
256,
255,
255,
255,
255,
256,
256,
255,
255,
255,
255,
252,
252,
252,
252,
253,
253,
251,
251,
253,
253,
250,
250,
250,
250,
250,
250,
249,
249,
249,
249,
248,
248,
248,
248,
249,
249,
246,
246,
246,
246,
245,
245,
245,
245,
245,
245,
244,
244,
242,
242,
243,
243,
242,
242,
242,
242,
241,
241,
240,
240,
238,
238,
240,
240,
240,
240,
239,
239,
240,
240,
239,
239,
237,
237,
236,
236,
237,
237,
236,
236,
235,
235,
236,
236,
235,
235,
234,
234,
233,
233,
233,
233,
232,
232,
232,
232,
231,
231,
231,
231,
231,
231,
230,
230,
229,
229,
229,
229,
228,
228,
227,
227,
227,
227,
225,
225,
226,
226,
224,
224,
224,
224,
224,
224,
223,
223,
222,
222,
223,
223,
222,
222,
221,
221,
221,
221,
221,
221,
221,
221,
220,
220,
220,
220,
218,
218,
218,
218,
218,
218,
217,
217,
217,
217,
216,
216,
215,
215,
214,
214,
215,
215,
214,
214,
213,
213,
212,
212,
213,
213,
212,
212,
211,
211,
211,
211,
211,
211,
209,
209,
209,
209,
208,
208,
209,
209,
208,
208,
208,
208,
206,
206,
206,
206,
207,
207,
204,
204,
205,
205,
204,
204,
205,
205,
204,
204,
204,
204,
202,
202,
202,
202,
202,
202,
201,
201,
201,
201,
200,
200,
199,
199,
199,
199,
198,
198,
199,
199,
199,
199,
197,
197,
195,
195,
196,
196,
197,
197,
195,
195,
195,
195,
195,
195,
192,
192,
193,
193,
192,
192,
191,
191,
192,
192,
191,
191,
190,
190,
189,
189,
189,
189,
188,
188,
188,
188,
188,
188,
189,
189,
187,
187,
187,
187,
185,
185,
186,
186,
185,
185,
185,
185,
184,
184,
182,
182,
184,
184,
181,
181,
182,
182,
182,
182,
180,
180,
181,
181,
181,
181,
180,
180,
178,
178,
179,
179,
178,
178,
176,
176,
176,
176,
176,
176,
175,
175,
174,
174,
176,
176,
175,
175,
173,
173,
173,
173,
173,
173,
174,
174,
172,
172,
171,
171,
170,
170,
171,
171,
169,
169,
169,
169,
169,
169,
169,
169,
168,
168,
168,
168,
166,
166,
166,
166,
166,
166,
165,
165,
166,
166,
164,
164,
165,
165,
162,
162,
163,
163,
163,
163,
162,
162,
161,
161,
161,
161,
160,
160,
161,
161,
159,
159,
158,
158,
158,
158,
158,
158,
156,
156,
158,
158,
157,
157,
155,
155,
156,
156,
155,
155,
156,
156,
155,
155,
154,
154,
153,
153,
152,
152,
152,
152,
152,
152,
151,
151,
151,
151,
149,
149,
149,
149,
149,
149,
148,
148,
147,
147,
149,
149,
147,
147,
146,
146,
146,
146,
146,
146,
144,
144,
144,
144,
143,
143,
144,
144,
142,
142,
142,
142,
142,
142,
141,
141,
142,
142,
141,
141,
141,
141,
139,
139,
139,
139,
139,
139,
139,
139,
138,
138,
138,
138,
137,
137,
136,
136,
137,
137,
136,
136,
135,
135,
136,
136,
135,
135,
134,
134,
133,
133,
133,
133,
133,
133,
133,
133,
131,
131,
131,
131,
131,
131,
130,
130,
130,
130,
129,
129,
128,
128,
128,
128,
129,
129,
127,
127,
127,
127,
126,
126,
126,
126,
126,
126,
126,
126,
126,
126,
126,
126,
126,
126,
126,
126,
126,
126,
126,
126,
126,
126,
126,
126,
126,
126,
126,
126,
126,
126,
126,
126,
126,
126,
126,
126,
126,
126,
126,
126,
126,
126,
126,
126,
126,
126,
126,
126,
126,
126,
126,
126,
126,
126,
126,
126,
126,
126,
126,
126,
126,
126,
126,
126,
126,
126,
126,
126,
126,
126,
126,
126,
126,
126,
126,
126,
126,
126,
126,
126,
126,
126,
126,
126,
126,
126,
126,
126,
126,
126,
126,
126,
126,
126,
126,
126,
126,
126,
126,
126,
126,
126,
126,
126,
126,
126,
126,
126,
126,
126,
126,
126,
126,
126,
126,
126,
126,
126,
126,
126,
126,
126,
126,
126,
126,
126,
126,
126,
126,
126,
126,
126,
126,
126,
126,
126,
126,
126,
126,
126,
126,
126,
126,
126,
126,
126,
126,
126,
126,
126,
126,
126,
126,
126,
126,
126,
126,
126,
126,
126,
126,
126,
126,
126,
126,
126,
126,
126,
126,
126,
126,
126,
126,
126,
126,
126,
126,
126,
126,
126,
126,
126,
126,
126,
126,
126,
126,
126,
126,
126,
126,
126,
126,
126,
126,
126,
126,
126,
126,
126,
126,
126,
126,
126,
126,
126,
126,
126,
126,
126,
126,
126,
126,
126,
126,
126,
126,
126,
126,
126,
126,
126,
126,
126,
126,
126,
126,
126,
126,
126,
126,
126,
126,
126,
126,
126,
126,
126,
126,
126,
126,
126,
126,
126,
126,
126,
126,
126,
126,
126,
126,
126,
126,
126,
126,
126,
126,
126,
126,
126,
126,
126,
126,
126,
126,
126,
126,
126,
126,
126,
126,
126,
126,
126,
126,
126,
126,
126,
126,
126,
126,
126,
126,
126,
126,
126,
126,
126,
126,
126,
126,
126,
126,
126,
126,
126,
126,
126,
126,
126,
126,
126,
126,
126,
126,
126,
126,
126,
126,
126,
126,
126,
126,
126,
126,
126,
126,
126,
126,
126,
126,
126,
126,
126,
126,
126,
126,
126,
126,
126,
126,
126,
126,
126,
126,
126,
126,
126,
126,
126,
126,
126,
126,
126,
126,
126,
126,
126,
126,
126,
126,
126,
126,
126,
126,
126,
126,
126,
126,
126,
126,
126,
126,
126,
126,
126,
126,
126,
126,
126,
126,
126,
126,
126,
126,
126,
126,
126,
126,
126,
126,
126,
126,
126,
126,
126,
126,
126,
126,
126,
126,
126,
126,
