5-grundlagen-opAmps/data/ALL0063/A0063CH1.CSV

Memory Length,4000,
Trigger Level,-1.00000e+01,
Source,CH1,
Probe,1.0X,
Vertical Units,V,
Vertical Scale,5.00000e-02,
Vertical Position,0.00000e+00,
Horizontal Units,S,
Horizontal Scale,1.00000e-06,
Horizontal Position,0.0000000e+00,
Horizontal Mode,Main,
Sampling Period,4.00000e-09,
Firmware,V1.14,
Time, ,
Mode,Fast,
Waveform Data,
-47,
-47,
-50,
-44,
-46,
-49,
-43,
-47,
-48,
-42,
-48,
-46,
-41,
-47,
-44,
-42,
-47,
-41,
-43,
-44,
-40,
-43,
-42,
-38,
-42,
-40,
-39,
-42,
-40,
-37,
-40,
-39,
-36,
-38,
-38,
-33,
-38,
-36,
-33,
-38,
-34,
-33,
-38,
-29,
-34,
-35,
-28,
-34,
-33,
-27,
-35,
-29,
-27,
-34,
-27,
-25,
-34,
-23,
-27,
-31,
-20,
-29,
-27,
-18,
-31,
-19,
-23,
-28,
-17,
-23,
-23,
-17,
-23,
-21,
-19,
-19,
-20,
-15,
-18,
-16,
-15,
-18,
-16,
-14,
-16,
-13,
-14,
-12,
-13,
-11,
-13,
-12,
-8,
-12,
-10,
-6,
-14,
-3,
-7,
-10,
-2,
-8,
-6,
-1,
-8,
-3,
-3,
-6,
-1,
-1,
-5,
1,
-1,
-1,
4,
-1,
0,
6,
0,
4,
6,
2,
7,
4,
4,
7,
5,
7,
7,
9,
8,
10,
10,
9,
13,
11,
8,
15,
10,
11,
18,
11,
15,
18,
11,
19,
18,
11,
20,
17,
14,
22,
16,
18,
25,
15,
22,
22,
16,
26,
24,
18,
27,
22,
21,
30,
22,
26,
29,
22,
29,
27,
26,
32,
27,
29,
29,
29,
30,
30,
31,
29,
33,
32,
30,
35,
32,
32,
35,
34,
33,
36,
35,
33,
37,
35,
35,
40,
31,
39,
39,
32,
43,
37,
35,
43,
34,
40,
42,
37,
39,
42,
38,
42,
42,
38,
42,
42,
39,
45,
41,
41,
47,
41,
43,
45,
41,
44,
44,
44,
43,
45,
42,
43,
48,
42,
45,
47,
39,
49,
45,
43,
50,
42,
44,
49,
41,
48,
48,
42,
49,
47,
41,
50,
45,
43,
50,
43,
45,
51,
42,
49,
48,
42,
50,
46,
43,
50,
43,
46,
48,
44,
46,
47,
44,
47,
45,
46,
45,
46,
45,
44,
47,
46,
43,
47,
43,
45,
47,
43,
44,
45,
40,
47,
44,
40,
47,
42,
40,
47,
39,
43,
46,
36,
44,
45,
38,
46,
39,
40,
45,
37,
40,
43,
37,
40,
41,
37,
37,
40,
35,
40,
38,
33,
39,
35,
35,
38,
35,
36,
36,
35,
32,
35,
34,
31,
36,
30,
32,
36,
25,
34,
32,
25,
36,
27,
26,
33,
25,
29,
30,
23,
29,
28,
22,
29,
27,
20,
28,
23,
19,
28,
20,
22,
25,
18,
22,
20,
19,
21,
18,
19,
18,
17,
17,
15,
17,
15,
15,
16,
13,
15,
14,
11,
15,
13,
10,
14,
10,
7,
13,
6,
7,
13,
4,
9,
10,
2,
10,
5,
0,
9,
0,
2,
8,
-2,
2,
5,
-3,
2,
0,
-4,
3,
-3,
-3,
-1,
-7,
-4,
-3,
-6,
-6,
-4,
-9,
-7,
-4,
-10,
-8,
-8,
-13,
-7,
-10,
-12,
-10,
-11,
-14,
-11,
-13,
-16,
-11,
-15,
-18,
-10,
-21,
-15,
-14,
-23,
-14,
-18,
-24,
-13,
-24,
-22,
-18,
-24,
-23,
-21,
-26,
-24,
-24,
-27,
-23,
-25,
-29,
-22,
-27,
-29,
-25,
-31,
-28,
-27,
-33,
-28,
-31,
-29,
-32,
-31,
-31,
-36,
-30,
-33,
-38,
-31,
-38,
-35,
-34,
-38,
-35,
-36,
-40,
-34,
-38,
-41,
-34,
-40,
-42,
-34,
-44,
-40,
-35,
-45,
-39,
-40,
-48,
-37,
-44,
-45,
-39,
-48,
-44,
-41,
-48,
-43,
-43,
-48,
-44,
-44,
-48,
-44,
-47,
-48,
-45,
-48,
-49,
-46,
-50,
-49,
-47,
-50,
-50,
-48,
-51,
-48,
-48,
-51,
-48,
-49,
-53,
-50,
-50,
-54,
-49,
-51,
-57,
-48,
-53,
-54,
-48,
-56,
-52,
-50,
-58,
-50,
-53,
-54,
-50,
-55,
-55,
-51,
-55,
-53,
-52,
-53,
-54,
-51,
-57,
-53,
-53,
-56,
-53,
-54,
-55,
-53,
-55,
-52,
-56,
-52,
-55,
-55,
-51,
-57,
-54,
-53,
-58,
-48,
-56,
-55,
-49,
-57,
-53,
-50,
-58,
-51,
-52,
-57,
-51,
-52,
-57,
-48,
-54,
-55,
-46,
-57,
-52,
-47,
-59,
-48,
-51,
-56,
-47,
-53,
-53,
-49,
-54,
-50,
-49,
-50,
-50,
-48,
-51,
-48,
-47,
-52,
-47,
-47,
-52,
-45,
-48,
-48,
-46,
-48,
-48,
-44,
-46,
-47,
-45,
-45,
-47,
-43,
-46,
-43,
-42,
-46,
-42,
-41,
-46,
-38,
-42,
-45,
-37,
-42,
-43,
-37,
-43,
-38,
-36,
-41,
-37,
-38,
-38,
-35,
-38,
-37,
-35,
-35,
-36,
-33,
-35,
-33,
-32,
-34,
-34,
-31,
-33,
-32,
-30,
-30,
-32,
-28,
-31,
-31,
-26,
-30,
-28,
-23,
-33,
-22,
-26,
-30,
-19,
-27,
-24,
-18,
-29,
-20,
-19,
-26,
-19,
-18,
-26,
-15,
-18,
-23,
-12,
-19,
-20,
-11,
-22,
-12,
-13,
-19,
-10,
-15,
-15,
-8,
-15,
-11,
-9,
-11,
-11,
-9,
-8,
-11,
-5,
-6,
-8,
-4,
-9,
-5,
-4,
-7,
-3,
-4,
-4,
-1,
-1,
-4,
0,
1,
-4,
3,
0,
-1,
7,
0,
2,
7,
-1,
7,
5,
2,
10,
4,
5,
10,
5,
9,
12,
7,
10,
13,
9,
11,
13,
12,
12,
14,
13,
14,
16,
14,
15,
18,
16,
18,
18,
16,
20,
18,
17,
23,
18,
18,
26,
18,
21,
27,
17,
26,
27,
18,
30,
24,
21,
32,
21,
26,
32,
21,
30,
31,
24,
31,
30,
26,
34,
31,
27,
36,
29,
31,
36,
28,
36,
33,
31,
37,
32,
36,
36,
34,
37,
35,
38,
35,
36,
39,
35,
39,
38,
36,
41,
38,
38,
42,
38,
39,
42,
38,
39,
44,
39,
43,
44,
37,
46,
41,
39,
48,
38,
43,
46,
39,
44,
44,
42,
46,
44,
44,
44,
46,
43,
46,
45,
44,
48,
44,
45,
48,
44,
45,
47,
44,
45,
48,
44,
45,
48,
42,
46,
49,
41,
50,
47,
42,
51,
44,
44,
50,
41,
48,
50,
41,
50,
48,
41,
51,
45,
44,
49,
43,
45,
48,
42,
48,
48,
43,
48,
45,
42,
48,
43,
44,
48,
43,
44,
46,
43,
45,
44,
44,
43,
43,
44,
42,
45,
43,
40,
46,
38,
42,
44,
39,
44,
41,
37,
44,
39,
39,
43,
39,
37,
43,
36,
38,
41,
34,
39,
40,
33,
41,
34,
34,
40,
32,
36,
37,
32,
36,
34,
33,
34,
34,
32,
31,
34,
29,
33,
32,
28,
32,
30,
27,
31,
28,
27,
30,
26,
25,
28,
24,
24,
29,
19,
27,
28,
18,
28,
21,
19,
28,
17,
21,
24,
16,
21,
21,
15,
23,
18,
14,
20,
16,
14,
19,
13,
14,
16,
10,
15,
13,
11,
14,
10,
10,
12,
9,
10,
8,
8,
8,
6,
7,
4,
7,
6,
2,
5,
4,
-1,
6,
1,
0,
5,
-2,
0,
3,
-4,
1,
-1,
-5,
0,
-4,
-5,
0,
-6,
-8,
-2,
-10,
-7,
-4,
-13,
-6,
-8,
-12,
-7,
-11,
-11,
-10,
-14,
-11,
-13,
-14,
-15,
-12,
-15,
-16,
-13,
-17,
-18,
-14,
-23,
-16,
-17,
-22,
-16,
-20,
-24,
-17,
-23,
-25,
-20,
-23,
-26,
-19,
-29,
-25,
-22,
-31,
-23,
-23,
-34,
-20,
-31,
-31,
-24,
-34,
-29,
-29,
-34,
-30,
-31,
-33,
-32,
-33,
-35,
-31,
-35,
-36,
-32,
-37,
-35,
-35,
-39,
-36,
-39,
-38,
-38,
-39,
-38,
-41,
-38,
-39,
-43,
-37,
-42,
-42,
-39,
-45,
-41,
-40,
-47,
-40,
-45,
-47,
-40,
-46,
-47,
-40,
-50,
-45,
-42,
-50,
-45,
-44,
-51,
-43,
-48,
-50,
-45,
-50,
-49,
-45,
-52,
-49,
-47,
-52,
-48,
-49,
-53,
-47,
-50,
-52,
-50,
-50,
-52,
-51,
-50,
-53,
-51,
-52,
-55,
-49,
-56,
-52,
-48,
-56,
-52,
-51,
-57,
-50,
-52,
-57,
-51,
-53,
-57,
-49,
-56,
-56,
-49,
-58,
-54,
-51,
-59,
-50,
-55,
-57,
-49,
-57,
-55,
-51,
-58,
-52,
-54,
-55,
-55,
-53,
-55,
-55,
-53,
-54,
-54,
-53,
-55,
-52,
-54,
-53,
-53,
-52,
-53,
-53,
-51,
-54,
-52,
-49,
-58,
-47,
-53,
-55,
-46,
-55,
-52,
-47,
-57,
-48,
-50,
-54,
-48,
-51,
-53,
-45,
-51,
-50,
-45,
-53,
-49,
-45,
-53,
-45,
-46,
-52,
-44,
-48,
-50,
-44,
-49,
-46,
-44,
-47,
-46,
-44,
-47,
-44,
-43,
-46,
-44,
-42,
-45,
-42,
-41,
-45,
-41,
-40,
-46,
-39,
-40,
-43,
-37,
-41,
-41,
-35,
-42,
-38,
-36,
-41,
-35,
-36,
-40,
-31,
-35,
-38,
-30,
-36,
-36,
-29,
-38,
-30,
-30,
-35,
-28,
-31,
-33,
-28,
-32,
-27,
-29,
-29,
-27,
-28,
-27,
-29,
-26,
-24,
-28,
-23,
-26,
-25,
-22,
-22,
-25,
-19,
-23,
-23,
-17,
-21,
-20,
-14,
-24,
-15,
-16,
-22,
-10,
-18,
-18,
-8,
-21,
-12,
-10,
-18,
-10,
-11,
-15,
-7,
-10,
-12,
-7,
-9,
-10,
-4,
-12,
-6,
-3,
-10,
-2,
-3,
-9,
0,
-5,
-4,
0,
-2,
-2,
0,
0,
-1,
2,
1,
-1,
4,
1,
2,
6,
2,
5,
8,
2,
8,
6,
4,
10,
8,
6,
12,
7,
9,
15,
8,
11,
14,
9,
14,
14,
11,
18,
14,
13,
19,
15,
17,
19,
15,
19,
18,
18,
20,
19,
20,
20,
22,
23,
20,
25,
22,
21,
26,
21,
26,
26,
23,
28,
26,
24,
31,
26,
26,
33,
27,
27,
34,
25,
32,
35,
25,
36,
32,
27,
39,
28,
32,
38,
28,
37,
36,
31,
38,
36,
34,
38,
36,
35,
40,
37,
36,
41,
36,
38,
41,
36,
42,
39,
39,
41,
40,
40,
40,
42,
40,
41,
44,
39,
44,
43,
38,
47,
41,
40,
46,
40,
46,
45,
41,
46,
45,
42,
47,
45,
41,
48,
45,
42,
49,
42,
45,
49,
43,
46,
46,
43,
47,
45,
46,
45,
46,
47,
47,
47,
45,
47,
47,
45,
48,
46,
44,
49,
46,
44,
51,
43,
46,
50,
43,
48,
49,
42,
49,
46,
43,
50,
44,
43,
51,
41,
46,
50,
39,
48,
47,
39,
51,
43,
41,
50,
41,
44,
47,
40,
46,
44,
41,
46,
43,
40,
44,
42,
40,
43,
42,
39,
44,
39,
42,
41,
40,
40,
41,
40,
39,
39,
39,
36,
42,
36,
37,
41,
31,
39,
37,
33,
41,
32,
34,
38,
33,
35,
35,
32,
33,
35,
31,
34,
34,
29,
34,
29,
29,
34,
27,
30,
31,
27,
29,
28,
27,
27,
26,
27,
23,
27,
23,
23,
27,
20,
25,
25,
18,
26,
21,
19,
26,
18,
18,
24,
15,
18,
21,
13,
19,
19,
11,
20,
15,
11,
19,
10,
12,
19,
7,
13,
14,
5,
14,
11,
5,
13,
7,
6,
11,
4,
7,
7,
3,
5,
4,
3,
4,
4,
2,
3,
2,
0,
1,
0,
-2,
-1,
-2,
-3,
-2,
-1,
-5,
-3,
-4,
-9,
-2,
-7,
-9,
-2,
-12,
-9,
-5,
-14,
-5,
-10,
-13,
-7,
-13,
-13,
-10,
-15,
-14,
-12,
-15,
-16,
-12,
-19,
-16,
-15,
-20,
-18,
-18,
-21,
-17,
-23,
-20,
-20,
-21,
-23,
-22,
-22,
-26,
-22,
-23,
-28,
-19,
-30,
-26,
-23,
-33,
-24,
-26,
-34,
-25,
-30,
-31,
-27,
-33,
-33,
-27,
-37,
-32,
-29,
-38,
-32,
-32,
-41,
-29,
-36,
-39,
-31,
-40,
-36,
-34,
-42,
-34,
-38,
-41,
-36,
-41,
-41,
-38,
-41,
-41,
-41,
-42,
-42,
-41,
-43,
-42,
-42,
-42,
-45,
-43,
-44,
-45,
-44,
-45,
-47,
-43,
-47,
-47,
-44,
-49,
-47,
-45,
-52,
-44,
-48,
-52,
-45,
-50,
-51,
-45,
-53,
-49,
-48,
-53,
-48,
-50,
-53,
-48,
-51,
-52,
-50,
-52,
-52,
-49,
-54,
-53,
-50,
-54,
-53,
-49,
-57,
-51,
-51,
-54,
-52,
-52,
-55,
-52,
-52,
-56,
-54,
-52,
-59,
-49,
-56,
-57,
-48,
-59,
-53,
-50,
-61,
-50,
-54,
-58,
-50,
-54,
-56,
-51,
-55,
-55,
-50,
-58,
-55,
-50,
-60,
-49,
-54,
-58,
-48,
-56,
-56,
-49,
-57,
-51,
-52,
-53,
-51,
-53,
-53,
-53,
-53,
-51,
-53,
-50,
-53,
-51,
-51,
-52,
-51,
-50,
-52,
-50,
-49,
-51,
-49,
-47,
-53,
-46,
-49,
-51,
-44,
-51,
-49,
-44,
-53,
-45,
-46,
-51,
-43,
-47,
-49,
-42,
-50,
-46,
-42,
-48,
-45,
-42,
-47,
-42,
-42,
-45,
-41,
-42,
-44,
-40,
-41,
-43,
-39,
-41,
-42,
-37,
-41,
-40,
-36,
-40,
-39,
-35,
-40,
-37,
-35,
-38,
-36,
-31,
-39,
-31,
-32,
-38,
-28,
-36,
-35,
-28,
-38,
-28,
-28,
-35,
-27,
-29,
-34,
-25,
-30,
-29,
-24,
-28,
-28,
-21,
-28,
-24,
-23,
-28,
-21,
-22,
-25,
-18,
-25,
-21,
-20,
-22,
-19,
-20,
-18,
-19,
-18,
-14,
-20,
-13,
-15,
-17,
-11,
-15,
-15,
-11,
-15,
-13,
-10,
-13,
-11,
-7,
-15,
-9,
-7,
-13,
-3,
-7,
-11,
1,
-11,
-5,
-1,
-10,
-1,
-2,
-7,
1,
-3,
-3,
1,
-1,
-1,
3,
-1,
2,
4,
0,
4,
5,
1,
6,
6,
4,
7,
7,
6,
9,
8,
7,
11,
10,
8,
13,
9,
10,
16,
11,
12,
16,
10,
17,
17,
10,
20,
15,
12,
23,
16,
17,
23,
15,
21,
22,
17,
23,
22,
19,
25,
22,
21,
27,
22,
23,
28,
22,
26,
27,
24,
28,
27,
28,
28,
27,
30,
28,
31,
31,
27,
35,
28,
32,
35,
28,
37,
33,
29,
38,
31,
33,
38,
33,
35,
38,
32,
36,
40,
32,
39,
39,
33,
43,
34,
36,
44,
34,
40,
42,
35,
44,
40,
37,
43,
41,
39,
43,
42,
39,
43,
42,
40,
46,
40,
43,
44,
40,
44,
44,
42,
45,
45,
42,
44,
47,
41,
47,
45,
42,
49,
45,
43,
50,
42,
46,
49,
41,
48,
47,
42,
50,
45,
43,
50,
43,
45,
49,
43,
47,
47,
44,
48,
46,
46,
47,
45,
47,
47,
46,
46,
47,
45,
46,
47,
46,
44,
46,
47,
43,
47,
46,
41,
49,
42,
43,
50,
40,
45,
48,
39,
49,
42,
41,
48,
41,
41,
47,
40,
43,
46,
38,
44,
46,
36,
45,
42,
38,
47,
39,
40,
45,
36,
43,
40,
37,
41,
39,
38,
40,
39,
37,
38,
40,
33,
39,
37,
33,
38,
35,
35,
36,
34,
35,
36,
33,
32,
35,
29,
32,
35,
28,
34,
32,
26,
35,
27,
27,
35,
25,
31,
30,
25,
29,
26,
25,
28,
23,
24,
25,
24,
22,
25,
21,
21,
23,
19,
20,
20,
19,
19,
20,
19,
16,
19,
17,
15,
19,
13,
15,
18,
10,
17,
14,
9,
18,
11,
9,
17,
7,
9,
15,
4,
11,
11,
3,
12,
5,
2,
9,
3,
3,
8,
0,
3,
7,
-3,
5,
3,
-4,
4,
-1,
-3,
2,
-5,
-3,
-1,
-6,
-2,
-5,
-5,
-5,
-7,
-6,
-8,
-6,
-10,
-8,
-7,
-12,
-8,
-8,
-14,
-9,
-14,
-13,
-11,
-14,
-16,
-12,
-15,
-17,
-13,
-19,
-18,
-14,
-24,
-15,
-20,
-23,
-14,
-23,
-21,
-17,
-25,
-21,
-23,
-24,
-24,
-24,
-26,
-26,
-25,
-28,
-26,
-25,
-29,
-26,
-29,
-29,
-29,
-29,
-32,
-29,
-31,
-34,
-30,
-31,
-37,
-28,
-35,
-35,
-29,
-39,
-34,
-32,
-41,
-32,
-38,
-40,
-31,
-41,
-40,
-33,
-42,
-39,
-36,
-44,
-38,
-38,
-46,
-37,
-43,
-45,
-37,
-45,
-44,
-40,
-48,
-42,
-43,
-47,
-43,
-45,
-48,
-42,
-47,
-46,
-45,
-47,
-47,
-46,
-47,
-48,
-49,
-47,
-51,
-46,
-49,
-52,
-47,
-50,
-50,
-48,
-53,
-48,
-50,
-53,
-49,
-49,
-54,
-49,
-50,
-54,
-49,
-53,
-55,
-48,
-57,
-52,
-50,
-56,
-49,
-53,
-55,
-50,
-56,
-52,
-53,
-53,
-54,
-53,
-54,
-55,
-53,
-53,
-57,
-51,
-56,
-54,
-51,
-56,
-54,
-53,
-57,
-54,
-52,
-55,
-54,
-52,
-58,
-50,
-55,
-58,
-48,
-58,
-56,
-48,
-61,
-49,
-52,
-59,
-48,
-54,
-57,
-48,
-56,
-53,
-50,
-56,
-53,
-50,
-57,
-49,
-50,
-56,
-49,
-52,
-54,
-47,
-53,
-50,
-49,
-52,
-49,
-50,
-51,
-49,
-50,
-47,
-48,
-49,
-49,
-49,
-48,
-49,
-48,
-45,
-50,
-46,
-46,
-49,
-43,
-45,
-48,
-41,
-46,
-46,
-41,
-46,
-44,
-42,
-47,
-41,
-42,
-45,
-41,
-42,
-44,
-38,
-43,
-42,
-36,
-43,
-40,
-37,
-41,
-37,
-38,
-38,
-36,
-37,
-37,
-35,
-35,
-37,
-36,
-32,
-37,
-30,
-33,
-34,
-28,
-34,
-33,
-28,
-34,
-30,
-28,
-33,
-28,
-26,
-33,
-25,
-25,
-31,
-21,
-26,
-29,
-17,
-30,
-23,
-21,
-30,
-18,
-21,
-27,
-16,
-23,
-22,
-16,
-20,
-20,
-15,
-20,
-17,
-14,
-19,
-14,
-14,
-18,
-11,
-15,
-13,
-11,
-13,
-11,
-12,
-11,
-9,
-11,
-7,
-11,
-7,
-6,
-10,
-5,
-7,
-8,
-1,
-7,
-4,
-1,
-6,
0,
0,
-5,
2,
0,
-3,
4,
1,
-1,
6,
0,
2,
6,
1,
7,
7,
2,
9,
5,
5,
10,
6,
8,
12,
6,
11,
13,
10,
11,
14,
11,
12,
16,
12,
13,
18,
12,
16,
18,
13,
20,
17,
14,
21,
16,
18,
24,
17,
20,
24,
17,
23,
26,
17,
27,
25,
19,
31,
22,
23,
31,
21,
29,
29,
22,
32,
28,
26,
32,
28,
28,
32,
29,
30,
33,
32,
33,
33,
31,
33,
34,
33,
35,
34,
36,
35,
36,
36,
34,
40,
36,
36,
40,
33,
40,
40,
34,
44,
37,
35,
43,
37,
39,
42,
37,
42,
43,
37,
44,
42,
38,
46,
41,
39,
47,
40,
42,
47,
39,
44,
44,
42,
46,
44,
43,
45,
44,
44,
46,
45,
43,
47,
45,
44,
47,
44,
45,
49,
42,
45,
49,
42,
46,
48,
43,
49,
47,
43,
49,
45,
44,
50,
42,
47,
50,
42,
49,
48,
40,
50,
46,
42,
51,
44,
45,
49,
41,
48,
45,
45,
48,
45,
46,
46,
43,
45,
44,
45,
43,
45,
45,
43,
44,
44,
43,
45,
44,
44,
43,
45,
40,
46,
43,
40,
48,
38,
41,
45,
36,
45,
41,
36,
45,
38,
38,
44,
37,
39,
42,
36,
38,
41,
33,
39,
40,
33,
40,
36,
34,
40,
32,
35,
37,
31,
35,
35,
34,
34,
35,
32,
31,
35,
29,
31,
32,
28,
33,
29,
27,
32,
26,
28,
30,
23,
27,
29,
22,
27,
28,
20,
26,
25,
19,
28,
22,
19,
26,
18,
21,
24,
16,
22,
19,
16,
20,
15,
16,
18,
14,
15,
16,
14,
15,
14,
14,
13,
12,
12,
10,
12,
12,
9,
11,
9,
7,
10,
5,
7,
9,
4,
7,
7,
0,
7,
5,
0,
8,
0,
-1,
7,
-5,
2,
3,
-7,
5,
-4,
-6,
2,
-6,
-4,
-2,
-9,
-6,
-3,
-9,
-7,
-4,
-10,
-8,
-7,
-13,
-6,
-11,
-12,
-9,
-13,
-12,
-12,
-15,
-13,
-13,
-14,
-17,
-12,
-18,
-18,
-13,
-21,
-17,
-16,
-24,
-14,
-21,
-24,
-18,
-22,
-24,
-19,
-26,
-23,
-23,
-27,
-25,
-22,
-31,
-24,
-25,
-31,
-25,
-29,
-30,
-25,
-33,
-29,
-29,
-32,
-30,
-32,
-33,
-31,
-35,
-32,
-36,
-33,
-35,
-35,
-35,
-37,
-36,
-34,
-40,
-36,
-37,
-41,
-37,
-39,
-43,
-36,
-43,
-42,
-37,
-44,
-43,
-39,
-47,
-39,
-42,
-46,
-39,
-45,
-48,
-38,
-48,
-45,
-40,
-50,
-44,
-43,
-52,
-42,
-48,
-49,
-44,
-49,
-49,
-45,
-51,
-49,
-47,
-52,
-49,
-47,
-53,
-47,
-49,
-52,
-49,
-50,
-52,
-50,
-51,
-51,
-53,
-49,
-54,
-51,
-51,
-55,
-49,
-55,
-54,
-48,
-58,
-50,
-51,
-57,
-51,
-53,
-56,
-50,
-55,
-54,
-52,
-54,
-56,
-51,
-56,
-54,
-52,
-57,
-53,
-52,
-57,
-50,
-56,
-54,
-54,
-55,
-53,
-54,
-54,
-54,
-55,
-51,
-58,
-51,
-54,
-57,
-51,
-54,
-55,
-51,
-57,
-53,
-52,
-55,
-52,
-51,
-56,
-49,
-52,
-56,
-48,
-55,
-55,
-46,
-58,
-51,
-48,
-56,
-48,
-50,
-56,
-47,
-54,
-52,
-46,
-53,
-49,
-46,
-54,
-46,
-48,
-52,
-45,
-48,
-52,
-45,
-49,
-47,
-46,
-47,
-47,
-45,
-48,
-45,
-46,
-46,
-45,
-43,
-46,
-43,
-43,
-44,
-44,
-40,
-45,
-42,
-40,
-45,
-39,
-39,
-45,
-36,
-42,
-40,
-36,
-42,
-37,
-37,
-41,
-34,
-38,
-39,
-35,
-35,
-38,
-32,
-35,
-35,
-31,
-34,
-34,
-30,
-35,
-30,
-31,
-32,
-29,
-31,
-28,
-29,
-28,
-28,
-30,
-24,
-30,
-26,
-23,
-30,
-21,
-24,
-28,
-18,
-27,
-23,
-19,
-25,
-20,
-18,
-25,
-17,
-18,
-23,
-13,
-17,
-23,
-10,
-21,
-17,
-9,
-21,
-11,
-10,
-19,
-8,
-13,
-14,
-8,
-12,
-10,
-7,
-12,
-9,
-7,
-10,
-6,
-5,
-9,
-3,
-5,
-5,
-2,
-4,
-4,
-1,
-2,
-2,
-1,
1,
-2,
2,
1,
0,
4,
2,
1,
6,
2,
3,
7,
1,
8,
7,
3,
11,
7,
5,
13,
7,
8,
14,
9,
11,
13,
11,
14,
14,
12,
17,
15,
12,
17,
16,
14,
20,
17,
17,
19,
18,
19,
20,
19,
19,
22,
21,
19,
26,
22,
22,
28,
19,
26,
25,
19,
31,
24,
24,
33,
23,
28,
32,
24,
30,
32,
25,
31,
33,
26,
35,
30,
28,
38,
27,
35,
37,
27,
39,
34,
31,
39,
34,
34,
38,
34,
37,
38,
37,
38,
38,
37,
37,
39,
38,
39,
40,
39,
41,
40,
40,
39,
43,
39,
40,
44,
38,
42,
44,
38,
46,
42,
40,
47,
40,
43,
46,
40,
46,
45,
41,
47,
46,
42,
48,
44,
43,
48,
44,
45,
48,
43,
44,
47,
44,
46,
46,
44,
46,
48,
45,
46,
47,
44,
48,
45,
44,
48,
46,
42,
50,
43,
44,
52,
42,
46,
51,
40,
50,
47,
41,
51,
43,
43,
50,
41,
46,
49,
42,
46,
48,
40,
48,
47,
41,
49,
43,
41,
49,
40,
46,
45,
40,
47,
42,
43,
44,
42,
44,
41,
43,
41,
41,
43,
39,
42,
43,
38,
42,
40,
39,
40,
41,
37,
40,
39,
37,
42,
35,
37,
41,
30,
39,
39,
31,
41,
34,
33,
39,
30,
36,
37,
30,
34,
34,
31,
33,
32,
29,
34,
31,
28,
33,
28,
27,
30,
26,
28,
30,
25,
26,
28,
25,
24,
28,
23,
25,
27,
20,
24,
24,
19,
25,
21,
18,
26,
17,
18,
24,
14,
21,
21,
12,
20,
16,
12,
20,
14,
13,
18,
10,
14,
16,
8,
13,
13,
8,
13,
9,
6,
13,
7,
7,
10,
5,
7,
6,
5,
5,
2,
5,
1,
3,
3,
0,
4,
-1,
-2,
3,
-3,
-1,
0,
-5,
-1,
-2,
-7,
-2,
-4,
-9,
-3,
-6,
-10,
-2,
-12,
-8,
-5,
-14,
-6,
-9,
-14,
-6,
-16,
-14,
-9,
-16,
-14,
-12,
-16,
-15,
-14,
-18,
-18,
-14,
-20,
-16,
-18,
-22,
-17,
-20,
-22,
-19,
-23,
-23,
-21,
-22,
-26,
-20,
-25,
-27,
-22,
-29,
-29,
-21,
-32,
-25,
-27,
-32,
-26,
-31,
-32,
-26,
-35,
-31,
-29,
-37,
-31,
-30,
-38,
-31,
-36,
-37,
-32,
-36,
-38,
-34,
-39,
-37,
-36,
-39,
-37,
-38,
-40,
-37,
-40,
-40,
-40,
-41,
-41,
-41,
-42,
-42,
-44,
-40,
-45,
-42,
-42,
-47,
-43,
-44,
-49,
-40,
-47,
-47,
-43,
-49,
-47,
-44,
-50,
-44,
-46,
-52,
-45,
-47,
-53,
-44,
-51,
-51,
-44,
-55,
-50,
-46,
-55,
-46,
-51,
-52,
-46,
-53,
-53,
-49,
-53,
-52,
-51,
-52,
-54,
-50,
-54,
-53,
-49,
-55,
-52,
-50,
-56,
-50,
-52,
-55,
-52,
-53,
-55,
-52,
-53,
-57,
-51,
-56,
-56,
-49,
-59,
-53,
-51,
-59,
-50,
-53,
-58,
-50,
-58,
-55,
-52,
-56,
-54,
-52,
-57,
-53,
-53,
-56,
-52,
-53,
-57,
-51,
-56,
-53,
-52,
-54,
-53,
-53,
-53,
-53,
-53,
-50,
-54,
-51,
-51,
-55,
-50,
-51,
-54,
-48,
-54,
-51,
-48,
-55,
-50,
-49,
-55,
-46,
-49,
-53,
-45,
-51,
-53,
-44,
-52,
-48,
-45,
-52,
-45,
-46,
-52,
-43,
-48,
-49,
-41,
-48,
-48,
-41,
-49,
-43,
-43,
-46,
-42,
-43,
-44,
-41,
-43,
-43,
-42,
-41,
-43,
-40,
-40,
-42,
-38,
-41,
-41,
-35,
-41,
-38,
-36,
-40,
-38,
-35,
-39,
-35,
-33,
-38,
-34,
-34,
-39,
-30,
-35,
-34,
-28,
-36,
-30,
-29,
-36,
-25,
-31,
-31,
-27,
-30,
-30,
-27,
-28,
-27,
-26,
-26,
-27,
-23,
-26,
-23,
-23,
-25,
-20,
-21,
-22,
-20,
-21,
-19,
-21,
-15,
-20,
-18,
-15,
-21,
-14,
-15,
-21,
-10,
-16,
-16,
-9,
-17,
-12,
-8,
-16,
-9,
-9,
-14,
-6,
-8,
-13,
-2,
-10,
-9,
-1,
-10,
-6,
-1,
-9,
0,
-4,
-6,
1,
-4,
-3,
2,
-3,
2,
1,
-1,
3,
3,
0,
3,
5,
3,
4,
6,
5,
5,
7,
5,
9,
9,
5,
12,
9,
8,
14,
10,
10,
14,
11,
13,
16,
10,
15,
18,
10,
18,
17,
12,
20,
16,
16,
21,
15,
21,
20,
17,
24,
21,
21,
24,
22,
22,
24,
25,
22,
26,
26,
24,
27,
26,
25,
29,
28,
26,
27,
31,
26,
32,
29,
29,
36,
27,
33,
36,
26,
38,
32,
30,
40,
30,
33,
39,
29,
37,
37,
32,
38,
38,
33,
40,
37,
34,
42,
35,
37,
43,
32,
42,
41,
35,
42,
40,
40,
43,
39,
40,
41,
41,
41,
43,
41,
42,
43,
43,
41,
45,
41,
43,
45,
42,
43,
46,
41,
46,
47,
41,
46,
46,
42,
47,
44,
44,
49,
44,
43,
49,
43,
47,
49,
43,
