5-grundlagen-opAmps/data/ALL0063/A0063CH2.CSV

Memory Length,4000,
Trigger Level,-1.00000e+01,
Source,CH2,
Probe,1.0X,
Vertical Units,V,
Vertical Scale,2.00000e-01,
Vertical Position,0.00000e+00,
Horizontal Units,S,
Horizontal Scale,1.00000e-06,
Horizontal Position,0.0000000e+00,
Horizontal Mode,Main,
Sampling Period,4.00000e-09,
Firmware,V1.14,
Time, ,
Mode,Fast,
Waveform Data,
-84,
-84,
-84,
-83,
-85,
-84,
-84,
-84,
-85,
-84,
-86,
-85,
-85,
-86,
-86,
-86,
-86,
-85,
-86,
-86,
-86,
-86,
-86,
-87,
-86,
-87,
-86,
-87,
-87,
-86,
-87,
-88,
-86,
-88,
-87,
-87,
-88,
-87,
-88,
-89,
-87,
-89,
-89,
-88,
-89,
-89,
-88,
-89,
-88,
-88,
-89,
-88,
-88,
-89,
-87,
-89,
-89,
-88,
-90,
-88,
-88,
-89,
-87,
-89,
-89,
-88,
-88,
-87,
-87,
-88,
-87,
-86,
-87,
-86,
-86,
-86,
-86,
-86,
-86,
-85,
-85,
-84,
-84,
-84,
-84,
-83,
-83,
-82,
-82,
-81,
-82,
-81,
-80,
-81,
-79,
-79,
-79,
-78,
-78,
-77,
-77,
-77,
-75,
-76,
-76,
-74,
-74,
-74,
-73,
-72,
-72,
-71,
-71,
-70,
-70,
-69,
-69,
-68,
-69,
-67,
-67,
-66,
-65,
-65,
-64,
-64,
-63,
-63,
-62,
-61,
-61,
-60,
-59,
-59,
-58,
-58,
-57,
-56,
-55,
-54,
-54,
-54,
-52,
-52,
-52,
-50,
-49,
-49,
-47,
-47,
-46,
-45,
-46,
-44,
-43,
-44,
-41,
-40,
-41,
-39,
-39,
-37,
-36,
-36,
-35,
-34,
-33,
-32,
-32,
-30,
-29,
-28,
-27,
-25,
-25,
-24,
-23,
-22,
-21,
-20,
-20,
-19,
-18,
-16,
-16,
-14,
-13,
-13,
-12,
-10,
-11,
-8,
-10,
-7,
-6,
-6,
-4,
-4,
-4,
-1,
-2,
0,
1,
1,
2,
4,
4,
5,
6,
7,
7,
9,
9,
10,
11,
11,
13,
14,
14,
15,
15,
17,
17,
18,
19,
19,
20,
21,
22,
23,
24,
25,
25,
27,
27,
27,
29,
29,
29,
32,
31,
32,
33,
34,
34,
36,
36,
38,
37,
38,
39,
40,
40,
42,
42,
43,
44,
44,
45,
47,
46,
48,
47,
49,
50,
51,
51,
52,
52,
55,
54,
56,
56,
57,
58,
58,
59,
59,
60,
62,
61,
63,
63,
64,
64,
65,
66,
66,
66,
67,
68,
69,
69,
71,
71,
71,
72,
72,
73,
74,
73,
75,
74,
75,
76,
76,
76,
78,
77,
78,
79,
79,
79,
80,
79,
80,
80,
80,
81,
80,
81,
82,
81,
82,
82,
82,
82,
83,
82,
83,
83,
83,
84,
84,
83,
84,
84,
84,
84,
85,
83,
86,
83,
84,
85,
85,
85,
85,
84,
86,
85,
85,
85,
85,
85,
86,
84,
85,
86,
84,
85,
85,
84,
87,
84,
85,
84,
84,
84,
85,
84,
85,
84,
84,
83,
84,
84,
83,
83,
84,
83,
84,
82,
83,
82,
83,
82,
82,
82,
82,
82,
81,
81,
81,
80,
81,
79,
79,
80,
79,
77,
79,
76,
78,
76,
76,
76,
75,
74,
75,
73,
73,
72,
72,
71,
71,
70,
70,
69,
68,
68,
67,
66,
67,
66,
66,
64,
64,
63,
63,
61,
62,
61,
61,
58,
60,
58,
59,
58,
56,
56,
56,
53,
56,
53,
51,
52,
51,
49,
51,
48,
49,
46,
47,
47,
46,
44,
45,
43,
43,
42,
42,
41,
41,
39,
39,
38,
37,
36,
36,
35,
35,
33,
33,
32,
32,
29,
29,
29,
28,
27,
27,
25,
26,
24,
23,
22,
21,
21,
20,
18,
18,
18,
16,
15,
15,
13,
14,
12,
10,
11,
8,
8,
8,
6,
6,
4,
3,
3,
2,
1,
1,
-2,
-1,
-3,
-3,
-4,
-5,
-7,
-7,
-7,
-8,
-9,
-10,
-12,
-12,
-13,
-14,
-16,
-15,
-17,
-17,
-18,
-19,
-19,
-20,
-22,
-22,
-24,
-24,
-24,
-27,
-27,
-27,
-30,
-29,
-31,
-31,
-31,
-34,
-33,
-34,
-36,
-36,
-37,
-37,
-38,
-39,
-39,
-40,
-42,
-42,
-42,
-44,
-44,
-45,
-46,
-46,
-47,
-48,
-48,
-49,
-50,
-50,
-52,
-53,
-54,
-53,
-55,
-56,
-55,
-57,
-58,
-58,
-60,
-60,
-61,
-62,
-61,
-63,
-63,
-64,
-65,
-65,
-66,
-67,
-67,
-68,
-70,
-69,
-70,
-70,
-70,
-72,
-74,
-72,
-74,
-74,
-75,
-76,
-76,
-77,
-77,
-77,
-78,
-79,
-79,
-79,
-80,
-80,
-81,
-82,
-82,
-82,
-83,
-82,
-83,
-83,
-84,
-84,
-85,
-85,
-86,
-85,
-85,
-86,
-86,
-85,
-86,
-86,
-86,
-88,
-86,
-88,
-87,
-87,
-87,
-88,
-88,
-89,
-87,
-88,
-87,
-88,
-88,
-88,
-87,
-88,
-88,
-87,
-88,
-87,
-88,
-88,
-87,
-87,
-87,
-87,
-86,
-87,
-87,
-86,
-86,
-86,
-86,
-87,
-87,
-86,
-87,
-85,
-86,
-87,
-84,
-86,
-86,
-85,
-85,
-84,
-84,
-86,
-84,
-83,
-84,
-83,
-83,
-84,
-82,
-83,
-83,
-82,
-82,
-81,
-81,
-82,
-80,
-80,
-80,
-79,
-80,
-79,
-79,
-79,
-79,
-78,
-78,
-77,
-77,
-77,
-76,
-76,
-76,
-74,
-74,
-74,
-73,
-72,
-72,
-71,
-71,
-71,
-70,
-69,
-70,
-68,
-68,
-67,
-67,
-65,
-67,
-65,
-64,
-64,
-62,
-63,
-62,
-61,
-61,
-59,
-60,
-59,
-58,
-58,
-57,
-56,
-55,
-54,
-53,
-53,
-52,
-52,
-51,
-49,
-48,
-47,
-47,
-47,
-46,
-45,
-45,
-44,
-43,
-42,
-42,
-41,
-40,
-40,
-38,
-38,
-38,
-36,
-36,
-34,
-33,
-33,
-32,
-31,
-31,
-30,
-29,
-29,
-27,
-27,
-26,
-24,
-25,
-23,
-22,
-22,
-21,
-20,
-20,
-19,
-18,
-17,
-17,
-16,
-14,
-13,
-13,
-11,
-12,
-10,
-10,
-8,
-7,
-6,
-6,
-5,
-5,
-3,
-3,
-1,
0,
0,
1,
2,
2,
4,
4,
6,
7,
7,
8,
9,
10,
11,
13,
13,
14,
15,
15,
18,
18,
19,
20,
20,
22,
24,
24,
25,
25,
27,
28,
29,
29,
31,
32,
32,
33,
35,
34,
36,
36,
38,
38,
39,
39,
41,
41,
43,
43,
44,
45,
47,
46,
48,
47,
49,
49,
51,
49,
52,
51,
54,
54,
54,
55,
57,
56,
58,
57,
58,
60,
60,
59,
61,
61,
62,
63,
63,
64,
65,
65,
66,
66,
67,
68,
68,
69,
70,
69,
71,
70,
71,
71,
72,
73,
73,
74,
75,
74,
75,
76,
77,
76,
77,
77,
78,
78,
79,
79,
80,
80,
81,
80,
81,
81,
81,
82,
82,
82,
83,
82,
84,
83,
84,
85,
83,
84,
86,
85,
86,
85,
86,
86,
87,
86,
87,
86,
87,
86,
87,
86,
88,
87,
87,
87,
88,
86,
89,
87,
88,
88,
88,
87,
88,
87,
88,
87,
87,
87,
88,
86,
88,
85,
87,
87,
85,
87,
88,
85,
87,
85,
85,
86,
84,
84,
86,
84,
84,
84,
84,
83,
84,
83,
83,
82,
83,
82,
82,
82,
82,
81,
81,
80,
81,
80,
80,
80,
80,
78,
79,
77,
79,
77,
77,
77,
76,
76,
76,
74,
75,
74,
74,
74,
74,
72,
73,
72,
71,
71,
70,
69,
70,
67,
69,
68,
66,
67,
66,
64,
66,
64,
64,
63,
63,
62,
61,
60,
60,
59,
59,
57,
59,
57,
55,
54,
54,
54,
54,
51,
52,
51,
50,
49,
49,
47,
48,
45,
46,
45,
44,
43,
43,
40,
41,
40,
39,
39,
37,
36,
37,
34,
34,
33,
32,
31,
30,
29,
29,
27,
27,
26,
25,
25,
24,
22,
22,
20,
19,
19,
18,
17,
17,
16,
15,
13,
13,
12,
11,
10,
9,
8,
8,
6,
6,
4,
3,
3,
1,
1,
0,
-1,
-1,
-3,
-3,
-4,
-5,
-7,
-6,
-8,
-8,
-8,
-10,
-12,
-12,
-13,
-14,
-15,
-16,
-16,
-19,
-19,
-18,
-21,
-21,
-22,
-22,
-24,
-25,
-25,
-27,
-27,
-28,
-30,
-29,
-32,
-32,
-32,
-35,
-35,
-35,
-38,
-37,
-38,
-39,
-40,
-40,
-42,
-41,
-44,
-44,
-44,
-46,
-46,
-46,
-48,
-48,
-49,
-51,
-50,
-52,
-53,
-53,
-54,
-55,
-56,
-56,
-57,
-58,
-58,
-59,
-60,
-61,
-62,
-61,
-62,
-63,
-63,
-64,
-65,
-65,
-66,
-67,
-68,
-68,
-69,
-69,
-70,
-69,
-70,
-72,
-71,
-72,
-73,
-72,
-75,
-74,
-75,
-77,
-76,
-76,
-77,
-77,
-79,
-78,
-78,
-80,
-80,
-80,
-81,
-80,
-81,
-82,
-82,
-82,
-84,
-83,
-84,
-84,
-84,
-85,
-85,
-85,
-86,
-85,
-86,
-86,
-86,
-87,
-86,
-88,
-87,
-88,
-88,
-88,
-89,
-88,
-89,
-89,
-89,
-90,
-90,
-90,
-90,
-90,
-90,
-90,
-90,
-91,
-91,
-90,
-90,
-91,
-90,
-91,
-91,
-90,
-92,
-91,
-92,
-92,
-91,
-91,
-91,
-91,
-91,
-91,
-90,
-91,
-90,
-91,
-90,
-90,
-90,
-90,
-90,
-90,
-90,
-90,
-90,
-89,
-89,
-89,
-89,
-89,
-87,
-88,
-89,
-87,
-88,
-87,
-86,
-87,
-86,
-85,
-86,
-85,
-86,
-85,
-83,
-85,
-84,
-83,
-83,
-82,
-82,
-81,
-80,
-80,
-81,
-80,
-79,
-78,
-78,
-78,
-77,
-76,
-77,
-75,
-75,
-74,
-73,
-74,
-73,
-71,
-71,
-71,
-70,
-69,
-70,
-68,
-68,
-67,
-66,
-66,
-66,
-64,
-64,
-62,
-62,
-62,
-60,
-61,
-60,
-59,
-59,
-57,
-57,
-56,
-55,
-54,
-54,
-53,
-52,
-51,
-50,
-49,
-49,
-47,
-47,
-47,
-46,
-46,
-44,
-44,
-43,
-41,
-42,
-40,
-40,
-39,
-37,
-37,
-36,
-36,
-34,
-33,
-33,
-31,
-32,
-31,
-29,
-28,
-27,
-26,
-25,
-25,
-23,
-23,
-23,
-21,
-21,
-20,
-18,
-18,
-17,
-15,
-17,
-13,
-14,
-13,
-11,
-10,
-10,
-8,
-9,
-7,
-6,
-6,
-4,
-3,
-3,
-1,
-1,
0,
1,
2,
2,
3,
3,
6,
6,
7,
8,
10,
10,
10,
11,
12,
13,
14,
15,
16,
17,
17,
19,
20,
20,
22,
23,
24,
24,
25,
26,
27,
27,
29,
29,
30,
32,
32,
32,
35,
34,
35,
37,
37,
39,
40,
39,
42,
42,
42,
43,
44,
44,
45,
45,
48,
47,
49,
48,
50,
51,
51,
52,
53,
52,
55,
54,
56,
57,
57,
58,
59,
58,
61,
60,
61,
61,
63,
63,
65,
64,
65,
66,
65,
67,
68,
66,
69,
68,
69,
70,
70,
71,
72,
72,
74,
74,
74,
75,
75,
75,
77,
76,
77,
77,
78,
78,
79,
79,
79,
80,
80,
80,
81,
81,
82,
81,
82,
82,
84,
82,
83,
84,
84,
84,
86,
84,
85,
85,
86,
86,
86,
86,
87,
86,
88,
87,
87,
87,
88,
88,
89,
88,
89,
89,
89,
88,
89,
89,
89,
89,
89,
89,
90,
89,
90,
89,
90,
89,
90,
89,
89,
89,
89,
89,
90,
88,
90,
89,
89,
89,
89,
88,
89,
88,
89,
87,
88,
88,
89,
86,
88,
87,
87,
87,
86,
86,
87,
84,
86,
85,
84,
85,
84,
83,
84,
82,
83,
82,
83,
82,
82,
81,
81,
80,
80,
79,
79,
79,
79,
77,
78,
77,
76,
76,
75,
75,
75,
73,
74,
72,
73,
72,
71,
71,
70,
69,
70,
67,
69,
66,
67,
66,
65,
64,
65,
63,
63,
62,
62,
60,
61,
59,
59,
58,
58,
57,
56,
54,
55,
53,
54,
53,
52,
50,
50,
49,
49,
48,
47,
45,
46,
44,
44,
43,
42,
41,
41,
39,
40,
38,
37,
37,
35,
34,
35,
32,
33,
32,
30,
30,
29,
27,
28,
26,
25,
25,
24,
22,
23,
19,
20,
19,
17,
17,
16,
15,
15,
13,
12,
11,
11,
9,
8,
8,
6,
6,
5,
4,
3,
2,
1,
1,
0,
-2,
-2,
-4,
-4,
-5,
-5,
-7,
-6,
-8,
-8,
-11,
-12,
-12,
-13,
-15,
-13,
-17,
-16,
-18,
-19,
-19,
-20,
-22,
-21,
-22,
-23,
-25,
-25,
-26,
-27,
-29,
-29,
-30,
-31,
-32,
-32,
-33,
-35,
-36,
-36,
-37,
-37,
-39,
-39,
-40,
-41,
-41,
-42,
-43,
-44,
-45,
-46,
-46,
-48,
-47,
-48,
-51,
-49,
-51,
-53,
-52,
-53,
-55,
-54,
-56,
-57,
-56,
-59,
-59,
-59,
-62,
-61,
-62,
-63,
-62,
-64,
-65,
-65,
-67,
-66,
-67,
-68,
-68,
-69,
-70,
-70,
-71,
-70,
-71,
-72,
-72,
-73,
-74,
-75,
-75,
-76,
-76,
-77,
-77,
-77,
-78,
-79,
-80,
-80,
-80,
-80,
-81,
-82,
-82,
-82,
-83,
-83,
-83,
-84,
-84,
-84,
-85,
-85,
-86,
-86,
-86,
-87,
-86,
-87,
-88,
-87,
-87,
-87,
-88,
-88,
-88,
-89,
-88,
-89,
-89,
-89,
-89,
-90,
-90,
-90,
-90,
-91,
-90,
-91,
-90,
-91,
-90,
-90,
-91,
-90,
-91,
-91,
-90,
-92,
-91,
-91,
-91,
-91,
-92,
-91,
-90,
-92,
-90,
-91,
-91,
-91,
-91,
-91,
-90,
-91,
-91,
-89,
-90,
-89,
-90,
-90,
-89,
-89,
-89,
-89,
-89,
-89,
-88,
-88,
-87,
-87,
-87,
-87,
-87,
-85,
-86,
-85,
-85,
-85,
-84,
-85,
-85,
-83,
-83,
-84,
-82,
-82,
-83,
-81,
-81,
-81,
-80,
-80,
-79,
-79,
-79,
-77,
-78,
-77,
-76,
-77,
-76,
-74,
-75,
-73,
-73,
-73,
-72,
-72,
-71,
-70,
-70,
-68,
-69,
-68,
-68,
-66,
-66,
-65,
-64,
-65,
-63,
-62,
-63,
-61,
-61,
-61,
-59,
-58,
-57,
-57,
-57,
-56,
-54,
-55,
-54,
-53,
-52,
-51,
-49,
-49,
-48,
-47,
-48,
-47,
-46,
-45,
-44,
-45,
-43,
-41,
-41,
-40,
-39,
-39,
-37,
-36,
-36,
-33,
-34,
-33,
-32,
-32,
-31,
-30,
-29,
-28,
-27,
-26,
-26,
-24,
-23,
-23,
-22,
-21,
-21,
-19,
-19,
-18,
-17,
-16,
-15,
-14,
-14,
-12,
-12,
-11,
-10,
-9,
-8,
-6,
-7,
-5,
-4,
-4,
-3,
-1,
-2,
1,
0,
2,
3,
3,
4,
6,
6,
7,
8,
9,
11,
11,
12,
13,
13,
15,
16,
17,
17,
18,
19,
19,
20,
22,
23,
24,
24,
25,
26,
27,
28,
28,
29,
31,
31,
32,
33,
34,
34,
36,
36,
37,
38,
39,
39,
41,
40,
42,
42,
43,
44,
45,
45,
47,
46,
48,
48,
50,
49,
51,
51,
54,
52,
54,
54,
56,
55,
57,
57,
58,
59,
60,
60,
60,
61,
63,
63,
64,
63,
65,
64,
65,
66,
66,
67,
68,
68,
70,
70,
70,
71,
71,
71,
73,
72,
74,
74,
74,
75,
76,
75,
77,
76,
77,
78,
78,
78,
80,
78,
80,
81,
80,
81,
82,
81,
82,
82,
82,
82,
84,
84,
83,
84,
84,
85,
85,
85,
86,
85,
86,
86,
87,
86,
88,
87,
87,
87,
87,
87,
89,
87,
89,
88,
88,
89,
89,
89,
89,
87,
89,
89,
89,
89,
89,
89,
89,
89,
90,
89,
89,
89,
89,
89,
90,
88,
89,
88,
89,
88,
89,
88,
89,
88,
88,
88,
88,
87,
87,
86,
88,
86,
87,
86,
86,
86,
85,
84,
86,
83,
85,
83,
83,
83,
83,
82,
83,
82,
82,
82,
81,
80,
82,
79,
80,
79,
78,
78,
77,
76,
78,
74,
76,
75,
74,
75,
73,
73,
74,
72,
72,
71,
71,
70,
69,
68,
67,
67,
67,
66,
67,
65,
65,
64,
64,
63,
63,
61,
61,
61,
60,
58,
60,
57,
58,
56,
55,
55,
55,
53,
54,
52,
52,
50,
49,
49,
49,
47,
48,
46,
46,
44,
44,
42,
42,
42,
41,
40,
39,
38,
37,
36,
36,
34,
34,
32,
33,
32,
30,
29,
29,
28,
28,
25,
26,
25,
24,
24,
21,
19,
20,
18,
18,
17,
16,
16,
15,
13,
14,
12,
11,
10,
9,
7,
8,
6,
6,
6,
3,
3,
2,
-1,
1,
-2,
-2,
-3,
-4,
-5,
-5,
-6,
-7,
-9,
-7,
-10,
-11,
-11,
-12,
-14,
-15,
-16,
-16,
-18,
-18,
-19,
-20,
-21,
-22,
-23,
-23,
-24,
-25,
-26,
-26,
-29,
-28,
-30,
-30,
-31,
-32,
-32,
-34,
-36,
-35,
-36,
-37,
-38,
-39,
-40,
-40,
-41,
-41,
-43,
-43,
-44,
-45,
-46,
-47,
-47,
-48,
-48,
-49,
-51,
-51,
-51,
-53,
-54,
-54,
-54,
-56,
-56,
-58,
-58,
-58,
-59,
-59,
-61,
-62,
-62,
-63,
-63,
-64,
-65,
-64,
-66,
-67,
-66,
-69,
-68,
-68,
-69,
-70,
-70,
-70,
-70,
-72,
-73,
-72,
-74,
-74,
-74,
-76,
-76,
-75,
-77,
-77,
-78,
-78,
-78,
-79,
-79,
-80,
-80,
-80,
-81,
-81,
-82,
-81,
-83,
-83,
-83,
-83,
-84,
-83,
-85,
-85,
-85,
-86,
-86,
-86,
-86,
-87,
-86,
-88,
-87,
-87,
-88,
-87,
-88,
-89,
-88,
-89,
-89,
-88,
-90,
-89,
-89,
-90,
-89,
-90,
-90,
-89,
-89,
-90,
-90,
-90,
-90,
-90,
-90,
-90,
-90,
-89,
-90,
-89,
-90,
-90,
-89,
-90,
-90,
-89,
-90,
-89,
-89,
-90,
-89,
-89,
-89,
-89,
-89,
-89,
-88,
-89,
-88,
-88,
-88,
-87,
-87,
-86,
-86,
-87,
-86,
-86,
-86,
-85,
-85,
-85,
-84,
-84,
-84,
-83,
-83,
-83,
-82,
-82,
-82,
-80,
-81,
-80,
-80,
-80,
-79,
-78,
-78,
-77,
-77,
-77,
-77,
-76,
-75,
-76,
-74,
-75,
-73,
-72,
-73,
-71,
-71,
-71,
-70,
-69,
-69,
-68,
-68,
-67,
-67,
-66,
-66,
-64,
-65,
-63,
-63,
-64,
-61,
-61,
-61,
-60,
-59,
-58,
-57,
-57,
-56,
-56,
-54,
-54,
-53,
-53,
-52,
-50,
-51,
-49,
-48,
-49,
-47,
-47,
-47,
-45,
-44,
-44,
-43,
-42,
-42,
-40,
-41,
-39,
-38,
-38,
-36,
-36,
-37,
-33,
-34,
-33,
-31,
-31,
-29,
-28,
-28,
-27,
-27,
-25,
-24,
-24,
-22,
-21,
-21,
-20,
-19,
-18,
-18,
-16,
-16,
-14,
-14,
-13,
-13,
-12,
-11,
-9,
-9,
-7,
-7,
-6,
-5,
-4,
-4,
-3,
-2,
0,
-1,
2,
2,
2,
5,
4,
6,
7,
7,
9,
10,
10,
11,
12,
12,
15,
15,
16,
17,
18,
17,
20,
20,
20,
22,
23,
24,
25,
25,
27,
27,
28,
29,
30,
30,
32,
33,
33,
34,
35,
35,
37,
37,
38,
39,
40,
41,
41,
41,
43,
43,
44,
44,
45,
46,
49,
47,
49,
49,
50,
51,
52,
51,
54,
53,
54,
55,
56,
56,
58,
57,
59,
58,
60,
60,
61,
61,
62,
62,
63,
64,
64,
65,
65,
66,
67,
67,
67,
68,
69,
69,
70,
71,
71,
71,
72,
73,
73,
74,
74,
75,
75,
75,
77,
76,
77,
77,
78,
77,
79,
78,
79,
80,
79,
79,
81,
80,
81,
82,
81,
82,
83,
82,
83,
82,
83,
84,
84,
84,
85,
85,
85,
84,
85,
86,
87,
86,
86,
86,
87,
86,
87,
86,
87,
86,
87,
87,
87,
87,
88,
86,
87,
87,
87,
87,
88,
86,
88,
88,
88,
87,
88,
87,
89,
86,
88,
87,
86,
87,
87,
86,
87,
85,
87,
85,
86,
86,
85,
86,
86,
85,
85,
84,
84,
84,
84,
84,
83,
82,
83,
82,
82,
82,
82,
81,
81,
80,
81,
80,
80,
80,
79,
77,
79,
77,
78,
77,
76,
77,
75,
74,
76,
74,
74,
74,
72,
72,
72,
71,
71,
71,
70,
69,
69,
67,
69,
66,
66,
66,
66,
64,
65,
63,
63,
62,
62,
61,
61,
59,
58,
58,
58,
57,
57,
54,
56,
54,
54,
53,
52,
50,
51,
49,
50,
48,
48,
47,
47,
45,
45,
43,
43,
42,
41,
40,
41,
38,
39,
38,
36,
36,
35,
34,
34,
32,
33,
31,
30,
28,
28,
27,
27,
25,
25,
24,
24,
22,
19,
20,
19,
18,
19,
16,
15,
15,
14,
12,
13,
10,
11,
9,
8,
8,
7,
5,
6,
3,
3,
3,
1,
0,
0,
-3,
-2,
-4,
-5,
-5,
-6,
-7,
-7,
-8,
-9,
-11,
-12,
-12,
-12,
-14,
-14,
-16,
-17,
-18,
-18,
-20,
-20,
-21,
-22,
-24,
-23,
-24,
-25,
-26,
-28,
-28,
-29,
-31,
-30,
-32,
-34,
-33,
-35,
-35,
-36,
-38,
-37,
-39,
-38,
-39,
-41,
-42,
-42,
-44,
-44,
-44,
-45,
-46,
-47,
-48,
-48,
-49,
-50,
-50,
-51,
-52,
-53,
-54,
-53,
-55,
-55,
-56,
-57,
-58,
-58,
-58,
-59,
-61,
-60,
-62,
-63,
-62,
-64,
-64,
-64,
-65,
-65,
-66,
-67,
-67,
-68,
-69,
-69,
-69,
-70,
-70,
-71,
-71,
-71,
-74,
-72,
-74,
-74,
-74,
-76,
-76,
-76,
-78,
-76,
-78,
-78,
-78,
-79,
-79,
-79,
-80,
-80,
-80,
-80,
-81,
-80,
-82,
-82,
-82,
-83,
-83,
-83,
-84,
-84,
-84,
-84,
-85,
-85,
-86,
-85,
-86,
-86,
-86,
-86,
-87,
-86,
-87,
-87,
-87,
-88,
-87,
-88,
-88,
-88,
-88,
-88,
-88,
-89,
-89,
-89,
-89,
-89,
-88,
-88,
-88,
-89,
-89,
-89,
-88,
-89,
-89,
-89,
-89,
-88,
-89,
-88,
-88,
-89,
-88,
-88,
-87,
-88,
-87,
-88,
-88,
-87,
-87,
-86,
-86,
-87,
-86,
-85,
-86,
-85,
-86,
-86,
-85,
-85,
-85,
-84,
-84,
-84,
-82,
-83,
-83,
-81,
-82,
-81,
-81,
-82,
-80,
-81,
-80,
-78,
-79,
-78,
-78,
-78,
-77,
-76,
-77,
-76,
-76,
-76,
-75,
-74,
-73,
-72,
-72,
-71,
-71,
-71,
-70,
-69,
-69,
-69,
-68,
-67,
-67,
-65,
-65,
-65,
-64,
-64,
-63,
-62,
-62,
-60,
-61,
-61,
-59,
-59,
-58,
-57,
-56,
-56,
-55,
-54,
-53,
-53,
-52,
-51,
-50,
-50,
-49,
-48,
-48,
-47,
-46,
-46,
-44,
-45,
-44,
-41,
-41,
-41,
-40,
-40,
-39,
-37,
-37,
-36,
-35,
-35,
-34,
-32,
-32,
-30,
-30,
-30,
-27,
-27,
-26,
-25,
-25,
-23,
-22,
-22,
-21,
-19,
-20,
-17,
-18,
-16,
-15,
-15,
-14,
-12,
-13,
-10,
-10,
-9,
-9,
-7,
-7,
-5,
-5,
-4,
-3,
-2,
-2,
0,
0,
2,
2,
3,
3,
5,
6,
6,
7,
8,
9,
10,
11,
12,
13,
14,
14,
16,
16,
17,
18,
18,
20,
20,
20,
23,
23,
24,
25,
25,
26,
28,
27,
29,
29,
31,
32,
33,
32,
34,
34,
35,
36,
37,
38,
40,
38,
40,
41,
41,
42,
43,
43,
45,
45,
46,
46,
48,
47,
49,
49,
50,
51,
51,
51,
54,
52,
55,
54,
55,
56,
57,
57,
59,
58,
59,
60,
61,
61,
63,
61,
64,
64,
64,
65,
66,
65,
67,
66,
67,
68,
69,
69,
71,
71,
71,
71,
72,
73,
73,
73,
74,
74,
75,
75,
76,
76,
77,
76,
78,
78,
79,
78,
80,
80,
79,
80,
80,
80,
82,
81,
82,
82,
82,
83,
83,
82,
84,
82,
84,
85,
84,
84,
86,
84,
87,
85,
86,
86,
87,
86,
87,
86,
87,
87,
87,
86,
88,
86,
87,
87,
88,
88,
88,
87,
88,
86,
88,
87,
88,
86,
88,
87,
87,
88,
88,
86,
88,
86,
88,
86,
86,
87,
86,
85,
87,
85,
86,
86,
85,
84,
85,
83,
85,
84,
83,
84,
83,
82,
83,
82,
82,
82,
81,
81,
81,
80,
80,
79,
80,
79,
79,
78,
77,
77,
77,
76,
77,
75,
75,
74,
75,
73,
73,
73,
72,
72,
71,
71,
70,
68,
70,
67,
67,
67,
66,
66,
66,
64,
65,
63,
63,
63,
62,
61,
61,
58,
60,
59,
59,
58,
57,
55,
56,
54,
53,
53,
53,
51,
52,
50,
50,
48,
48,
47,
47,
45,
45,
45,
43,
42,
43,
41,
40,
41,
39,
38,
38,
36,
37,
34,
35,
33,
32,
32,
31,
28,
30,
28,
27,
26,
26,
25,
25,
23,
22,
21,
20,
19,
19,
17,
18,
16,
15,
14,
14,
13,
12,
10,
11,
8,
9,
7,
6,
5,
4,
4,
3,
1,
1,
0,
-1,
-1,
-3,
-4,
-3,
-6,
-5,
-7,
-8,
-7,
-10,
-11,
-10,
-13,
-14,
-14,
-15,
-17,
-16,
-19,
-17,
-20,
-21,
-21,
-22,
-23,
-23,
-24,
-25,
-26,
-26,
-29,
-29,
-30,
-30,
-31,
-32,
-32,
-35,
-36,
-36,
-36,
-38,
-38,
-39,
-40,
-40,
-41,
-42,
-42,
-44,
-45,
-45,
-47,
-47,
-46,
-48,
-49,
-49,
-51,
-51,
-52,
-53,
-52,
-55,
-55,
-56,
-57,
-57,
-58,
-59,
-59,
-60,
-61,
-61,
-62,
-63,
-62,
-64,
-64,
-64,
-66,
-66,
-67,
-68,
-68,
-69,
-70,
-69,
-69,
-70,
-72,
-71,
-72,
-73,
-72,
-74,
-75,
-75,
-77,
-76,
-77,
-77,
-77,
-78,
-79,
-78,
-80,
-80,
-80,
-81,
-81,
-81,
-83,
-81,
-83,
-83,
-82,
-84,
-84,
-84,
-85,
-84,
-85,
-86,
-85,
-86,
-86,
-86,
-86,
-87,
-87,
-87,
-88,
-88,
-88,
-88,
-88,
-89,
-89,
-88,
-89,
-89,
-88,
-89,
-89,
-89,
-89,
-89,
-89,
-90,
-89,
-90,
-90,
-90,
-90,
-90,
-89,
-90,
-90,
-89,
-90,
-89,
-90,
-90,
-89,
-89,
-89,
-89,
-89,
-89,
-88,
-89,
-88,
-88,
-88,
-88,
-88,
-88,
-87,
-87,
-87,
-86,
-86,
-86,
-86,
-86,
-86,
-85,
-85,
-85,
-85,
-84,
-84,
-83,
-83,
-84,
-82,
-82,
-82,
-80,
-82,
-80,
-80,
-80,
-79,
-80,
-79,
-77,
-78,
-77,
-77,
-77,
-76,
-74,
-75,
-74,
-73,
-74,
-72,
-71,
-72,
-70,
-71,
-69,
-69,
-69,
-68,
-68,
-68,
-66,
-67,
-65,
-65,
-64,
-64,
-63,
-62,
-62,
-61,
-59,
-59,
-59,
-59,
-58,
-57,
-56,
-55,
-55,
-54,
-53,
-52,
-52,
-51,
-49,
-50,
-48,
-48,
-48,
-46,
-46,
-46,
-44,
-44,
-43,
-43,
-41,
-41,
-40,
-39,
-37,
-37,
-36,
-35,
-36,
-34,
-32,
-32,
-32,
-30,
-29,
-29,
-27,
-26,
-26,
-26,
-24,
-23,
-23,
-22,
-21,
-20,
-20,
-19,
-17,
-17,
-15,
-15,
-14,
-13,
-12,
-12,
-9,
-10,
-9,
-7,
-7,
-6,
-5,
-5,
-3,
-3,
-1,
0,
1,
1,
3,
3,
3,
5,
6,
7,
8,
8,
10,
10,
10,
12,
13,
14,
15,
15,
17,
17,
18,
19,
20,
21,
22,
24,
24,
24,
26,
26,
27,
28,
28,
29,
31,
31,
32,
33,
34,
35,
35,
36,
38,
37,
39,
40,
40,
41,
41,
42,
44,
44,
45,
