5-grundlagen-opAmps/data/ALL0078/A0078CH1.CSV

Memory Length,4000,
Trigger Level,2.00000e+01,
Source,CH1,
Probe,1.0X,
Vertical Units,V,
Vertical Scale,2.00000e-01,
Vertical Position,0.00000e+00,
Horizontal Units,S,
Horizontal Scale,1.00000e-03,
Horizontal Position,0.0000000e+00,
Horizontal Mode,Main,
Sampling Period,4.00000e-06,
Firmware,V1.14,
Time, ,
Mode,Fast,
Waveform Data,
-64,
-64,
-64,
-64,
-64,
-64,
-64,
-64,
-64,
-64,
-64,
-64,
-64,
-63,
-63,
-64,
-64,
-63,
-63,
-64,
-64,
-63,
-63,
-64,
-64,
-63,
-63,
-64,
-64,
-64,
-64,
-64,
-64,
-63,
-63,
-64,
-64,
-64,
-64,
-63,
-63,
-64,
-64,
-64,
-64,
-64,
-64,
-64,
-64,
-64,
-64,
-64,
-64,
-64,
-64,
-64,
-64,
-64,
-64,
-64,
-64,
-63,
-63,
-64,
-64,
-64,
-64,
-64,
-64,
-64,
-64,
-64,
-64,
-64,
-64,
-63,
-63,
-63,
-63,
-64,
-64,
-64,
-64,
-64,
-64,
-64,
-64,
-63,
-63,
-64,
-64,
-64,
-64,
-64,
-64,
-64,
-64,
-64,
-64,
-63,
-63,
-63,
-63,
-63,
-63,
-64,
-64,
-64,
-64,
-64,
-64,
-63,
-63,
-64,
-64,
-64,
-64,
-64,
-64,
-64,
-64,
-63,
-63,
-64,
-64,
-64,
-64,
-63,
-63,
-64,
-64,
-63,
-63,
-64,
-64,
-63,
-63,
-64,
-64,
-64,
-64,
-64,
-64,
-64,
-64,
-64,
-64,
-64,
-64,
-64,
-64,
-63,
-63,
-63,
-63,
-64,
-64,
-64,
-64,
-64,
-64,
-64,
-64,
-64,
-64,
-64,
-64,
-63,
-63,
-64,
-64,
-64,
-64,
-64,
-64,
-63,
-63,
-64,
-64,
-63,
-63,
-63,
-63,
-63,
-63,
-63,
-63,
-63,
-63,
-63,
-63,
-64,
-64,
-63,
-63,
-64,
-64,
-64,
-64,
-63,
-63,
-64,
-64,
-64,
-64,
-63,
-63,
-63,
-63,
-64,
-64,
-63,
-63,
-64,
-64,
-63,
-63,
-63,
-63,
-64,
-64,
-63,
-63,
-64,
-64,
-63,
-63,
-64,
-64,
-64,
-64,
-63,
-63,
-63,
-63,
-63,
-63,
-64,
-64,
-63,
-63,
-63,
-63,
-63,
-63,
-63,
-63,
-63,
-63,
-63,
-63,
-63,
-63,
-63,
-63,
-63,
-63,
-63,
-63,
-64,
-64,
-64,
-64,
-64,
-64,
-63,
-63,
-64,
-64,
-64,
-64,
-63,
-63,
-64,
-64,
-64,
-64,
-64,
-64,
-62,
-62,
-63,
-63,
-63,
-63,
-64,
-64,
-63,
-63,
-63,
-63,
-63,
-63,
-64,
-64,
-64,
-64,
-63,
-63,
-64,
-64,
-63,
-63,
-64,
-64,
-63,
-63,
-62,
62,
60,
60,
61,
61,
60,
60,
61,
61,
60,
60,
60,
60,
61,
61,
60,
60,
61,
61,
60,
60,
61,
61,
61,
61,
61,
61,
60,
60,
61,
61,
61,
61,
61,
61,
61,
61,
61,
61,
61,
61,
61,
61,
61,
61,
61,
61,
61,
61,
61,
61,
61,
61,
61,
61,
61,
61,
61,
61,
60,
60,
61,
61,
60,
60,
61,
61,
61,
61,
61,
61,
61,
61,
61,
61,
61,
61,
60,
60,
60,
60,
60,
60,
61,
61,
60,
60,
61,
61,
61,
61,
60,
60,
60,
60,
60,
60,
61,
61,
60,
60,
61,
61,
61,
61,
60,
60,
61,
61,
60,
60,
61,
61,
60,
60,
60,
60,
61,
61,
60,
60,
61,
61,
60,
60,
61,
61,
61,
61,
61,
61,
61,
61,
60,
60,
61,
61,
61,
61,
61,
61,
60,
60,
61,
61,
61,
61,
60,
60,
61,
61,
60,
60,
61,
61,
60,
60,
60,
60,
61,
61,
60,
60,
61,
61,
60,
60,
60,
60,
61,
61,
61,
61,
60,
60,
61,
61,
61,
61,
60,
60,
60,
60,
60,
60,
61,
61,
61,
61,
60,
60,
60,
60,
60,
60,
61,
61,
60,
60,
60,
60,
60,
60,
60,
60,
60,
60,
61,
61,
60,
60,
61,
61,
60,
60,
60,
60,
60,
60,
60,
60,
61,
61,
60,
60,
60,
60,
60,
60,
61,
61,
60,
60,
60,
60,
60,
60,
60,
60,
60,
60,
61,
61,
61,
61,
60,
60,
59,
59,
61,
61,
60,
60,
61,
61,
60,
60,
60,
60,
60,
60,
60,
60,
60,
60,
60,
60,
60,
60,
60,
60,
61,
61,
60,
60,
60,
60,
61,
61,
60,
60,
60,
60,
61,
61,
60,
60,
60,
60,
61,
61,
60,
60,
61,
61,
60,
60,
60,
60,
60,
60,
60,
60,
60,
60,
60,
60,
60,
60,
60,
60,
60,
60,
60,
60,
60,
60,
60,
60,
60,
60,
60,
60,
60,
60,
61,
61,
60,
60,
60,
60,
60,
60,
60,
60,
60,
60,
60,
60,
60,
60,
60,
60,
60,
60,
60,
60,
60,
60,
61,
61,
61,
61,
60,
60,
60,
60,
60,
60,
60,
60,
60,
60,
60,
60,
60,
60,
60,
60,
61,
61,
60,
60,
60,
60,
60,
60,
60,
60,
60,
60,
60,
60,
60,
60,
61,
61,
60,
60,
60,
60,
60,
60,
60,
60,
60,
60,
60,
60,
60,
60,
60,
60,
60,
60,
60,
60,
60,
60,
60,
60,
61,
61,
60,
60,
60,
60,
60,
60,
60,
60,
60,
60,
60,
60,
60,
-64,
-64,
-64,
-63,
-63,
-63,
-63,
-63,
-63,
-64,
-64,
-63,
-63,
-64,
-64,
-64,
-64,
-63,
-63,
-64,
-64,
-64,
-64,
-64,
-64,
-64,
-64,
-64,
-64,
-64,
-64,
-64,
-64,
-64,
-64,
-64,
-64,
-64,
-64,
-65,
-65,
-64,
-64,
-64,
-64,
-64,
-64,
-64,
-64,
-64,
-64,
-64,
-64,
-64,
-64,
-64,
-64,
-64,
-64,
-64,
-64,
-64,
-64,
-64,
-64,
-64,
-64,
-64,
-64,
-64,
-64,
-63,
-63,
-64,
-64,
-64,
-64,
-64,
-64,
-64,
-64,
-64,
-64,
-63,
-63,
-64,
-64,
-64,
-64,
-64,
-64,
-64,
-64,
-64,
-64,
-64,
-64,
-63,
-63,
-64,
-64,
-63,
-63,
-64,
-64,
-63,
-63,
-63,
-63,
-64,
-64,
-63,
-63,
-64,
-64,
-64,
-64,
-64,
-64,
-64,
-64,
-63,
-63,
-64,
-64,
-63,
-63,
-64,
-64,
-63,
-63,
-64,
-64,
-63,
-63,
-64,
-64,
-63,
-63,
-64,
-64,
-63,
-63,
-64,
-64,
-63,
-63,
-63,
-63,
-63,
-63,
-64,
-64,
-64,
-64,
-64,
-64,
-64,
-64,
-64,
-64,
-63,
-63,
-63,
-63,
-64,
-64,
-64,
-64,
-64,
-64,
-64,
-64,
-64,
-64,
-64,
-64,
-64,
-64,
-64,
-64,
-64,
-64,
-64,
-64,
-64,
-64,
-64,
-64,
-63,
-63,
-64,
-64,
-64,
-64,
-64,
-64,
-63,
-63,
-63,
-63,
-64,
-64,
-64,
-64,
-64,
-64,
-64,
-64,
-63,
-63,
-64,
-64,
-63,
-63,
-63,
-63,
-64,
-64,
-64,
-64,
-63,
-63,
-63,
-63,
-63,
-63,
-64,
-64,
-63,
-63,
-64,
-64,
-63,
-63,
-63,
-63,
-63,
-63,
-63,
-63,
-63,
-63,
-64,
-64,
-64,
-64,
-64,
-64,
-64,
-64,
-64,
-64,
-63,
-63,
-63,
-63,
-64,
-64,
-63,
-63,
-64,
-64,
-64,
-64,
-63,
-63,
-64,
-64,
-63,
-63,
-63,
-63,
-64,
-64,
-64,
-64,
-64,
-64,
-64,
-64,
-64,
-64,
-64,
-64,
-63,
-63,
-64,
-64,
-64,
-64,
-63,
-63,
-64,
-64,
-64,
-64,
-64,
-64,
-64,
-64,
-63,
-63,
-63,
-63,
-63,
-63,
-63,
-63,
-63,
-63,
-63,
-63,
-64,
-64,
-64,
-64,
-64,
-64,
-64,
-64,
-63,
-63,
-64,
-64,
-64,
-64,
-64,
-64,
-64,
-64,
-63,
-63,
-63,
-63,
-63,
-63,
-64,
-64,
-63,
-63,
-63,
-63,
-64,
-64,
-63,
-63,
-63,
-63,
-63,
-63,
-63,
-63,
-64,
-64,
-63,
-63,
-63,
-63,
-63,
-63,
-63,
-63,
-63,
-63,
-64,
-64,
-63,
-63,
-64,
-64,
-63,
-63,
-63,
-63,
-63,
-63,
-64,
-64,
-63,
-63,
-63,
-63,
-63,
-63,
-63,
-63,
-64,
-64,
-64,
-64,
-63,
-63,
-63,
-63,
-64,
-64,
-63,
-63,
-63,
-63,
-63,
-63,
-63,
-63,
-63,
-63,
-64,
64,
60,
60,
60,
60,
60,
60,
61,
61,
61,
61,
60,
60,
61,
61,
61,
61,
61,
61,
61,
61,
61,
61,
61,
61,
60,
60,
61,
61,
60,
60,
61,
61,
60,
60,
60,
60,
61,
61,
61,
61,
60,
60,
60,
60,
61,
61,
61,
61,
61,
61,
61,
61,
61,
61,
60,
60,
61,
61,
60,
60,
61,
61,
60,
60,
60,
60,
60,
60,
60,
60,
60,
60,
60,
60,
61,
61,
60,
60,
60,
60,
61,
61,
61,
61,
61,
61,
61,
61,
61,
61,
60,
60,
60,
60,
60,
60,
60,
60,
61,
61,
60,
60,
60,
60,
60,
60,
60,
60,
60,
60,
61,
61,
61,
61,
60,
60,
60,
60,
61,
61,
60,
60,
61,
61,
61,
61,
60,
60,
60,
60,
61,
61,
60,
60,
60,
60,
60,
60,
61,
61,
60,
60,
60,
60,
61,
61,
60,
60,
60,
60,
61,
61,
60,
60,
61,
61,
60,
60,
61,
61,
60,
60,
60,
60,
61,
61,
60,
60,
61,
61,
60,
60,
61,
61,
60,
60,
60,
60,
60,
60,
60,
60,
60,
60,
61,
61,
60,
60,
60,
60,
61,
61,
60,
60,
60,
60,
60,
60,
60,
60,
60,
60,
60,
60,
61,
61,
60,
60,
60,
60,
60,
60,
60,
60,
60,
60,
60,
60,
60,
60,
60,
60,
60,
60,
60,
60,
60,
60,
60,
60,
60,
60,
61,
61,
61,
61,
60,
60,
61,
61,
60,
60,
60,
60,
60,
60,
60,
60,
60,
60,
60,
60,
60,
60,
60,
60,
60,
60,
60,
60,
60,
60,
60,
60,
60,
60,
60,
60,
60,
60,
60,
60,
60,
60,
60,
60,
60,
60,
60,
60,
60,
60,
60,
60,
60,
60,
60,
60,
60,
60,
60,
60,
60,
60,
60,
60,
60,
60,
60,
60,
60,
60,
60,
60,
60,
60,
60,
60,
60,
60,
60,
60,
60,
60,
60,
60,
61,
61,
60,
60,
60,
60,
60,
60,
60,
60,
60,
60,
61,
61,
59,
59,
60,
60,
60,
60,
60,
60,
60,
60,
60,
60,
61,
61,
60,
60,
60,
60,
60,
60,
60,
60,
60,
60,
59,
59,
61,
61,
60,
60,
60,
60,
60,
60,
60,
60,
60,
60,
60,
60,
60,
60,
60,
60,
60,
60,
60,
60,
60,
60,
60,
60,
61,
61,
59,
59,
60,
60,
60,
60,
60,
60,
60,
60,
60,
60,
60,
60,
60,
60,
60,
60,
60,
60,
60,
60,
60,
60,
60,
60,
60,
60,
60,
60,
60,
60,
60,
60,
60,
60,
60,
60,
60,
60,
60,
-67,
-63,
-63,
-64,
-64,
-64,
-64,
-64,
-64,
-64,
-64,
-63,
-63,
-64,
-64,
-63,
-63,
-64,
-64,
-64,
-64,
-64,
-64,
-64,
-64,
-64,
-64,
-64,
-64,
-64,
-64,
-63,
-63,
-64,
-64,
-63,
-63,
-64,
-64,
-64,
-64,
-64,
-64,
-64,
-64,
-64,
-64,
-64,
-64,
-64,
-64,
-64,
-64,
-64,
-64,
-64,
-64,
-64,
-64,
-64,
-64,
-64,
-64,
-64,
-64,
-64,
-64,
-64,
-64,
-64,
-64,
-64,
-64,
-64,
-64,
-63,
-63,
-64,
-64,
-64,
-64,
-64,
-64,
-65,
-65,
-64,
-64,
-64,
-64,
-64,
-64,
-63,
-63,
-64,
-64,
-63,
-63,
-63,
-63,
-64,
-64,
-63,
-63,
-64,
-64,
-64,
-64,
-63,
-63,
-63,
-63,
-64,
-64,
-64,
-64,
-63,
-63,
-64,
-64,
-64,
-64,
-63,
-63,
-64,
-64,
-63,
-63,
-64,
-64,
-64,
-64,
-64,
-64,
-64,
-64,
-64,
-64,
-64,
-64,
-64,
-64,
-64,
-64,
-64,
-64,
-64,
-64,
-64,
-64,
-63,
-63,
-64,
-64,
-64,
-64,
-64,
-64,
-63,
-63,
-63,
-63,
-63,
-63,
-64,
-64,
-64,
-64,
-64,
-64,
-64,
-64,
-63,
-63,
-64,
-64,
-64,
-64,
-64,
-64,
-64,
-64,
-63,
-63,
-64,
-64,
-64,
-64,
-63,
-63,
-64,
-64,
-63,
-63,
-64,
-64,
-64,
-64,
-64,
-64,
-64,
-64,
-64,
-64,
-64,
-64,
-64,
-64,
-63,
-63,
-64,
-64,
-64,
-64,
-64,
-64,
-64,
-64,
-63,
-63,
-63,
-63,
-63,
-63,
-64,
-64,
-64,
-64,
-64,
-64,
-64,
-64,
-63,
-63,
-63,
-63,
-63,
-63,
-64,
-64,
-64,
-64,
-64,
-64,
-64,
-64,
-63,
-63,
-63,
-63,
-64,
-64,
-64,
-64,
-63,
-63,
-64,
-64,
-64,
-64,
-64,
-64,
-64,
-64,
-64,
-64,
-64,
-64,
-63,
-63,
-63,
-63,
-64,
-64,
-63,
-63,
-63,
-63,
-63,
-63,
-63,
-63,
-63,
-63,
-64,
-64,
-64,
-64,
-64,
-64,
-63,
-63,
-64,
-64,
-63,
-63,
-63,
-63,
-63,
-63,
-63,
-63,
-64,
-64,
-63,
-63,
-63,
-63,
-64,
-64,
-64,
-64,
-64,
-64,
-64,
-64,
-63,
-63,
-64,
-64,
-64,
-64,
-63,
-63,
-64,
-64,
-63,
-63,
-63,
-63,
-63,
-63,
-64,
-64,
-63,
-63,
-64,
-64,
-63,
-63,
-63,
-63,
-64,
-64,
-63,
-63,
-63,
-63,
-63,
-63,
-63,
-63,
-63,
-63,
-63,
-63,
-64,
-64,
-63,
-63,
-63,
-63,
-64,
-64,
-63,
-63,
-63,
-63,
-64,
-64,
-64,
-64,
-64,
-64,
-64,
-64,
-64,
-64,
-63,
-63,
-64,
-64,
-63,
-63,
-63,
-63,
-64,
-64,
-64,
-64,
-64,
-64,
-63,
-63,
-63,
-63,
-64,
-64,
-64,
-64,
-63,
-63,
-63,
-63,
-63,
-63,
-64,
61,
60,
60,
61,
61,
60,
60,
60,
60,
61,
61,
61,
61,
61,
61,
60,
60,
60,
60,
60,
60,
60,
60,
61,
61,
61,
61,
60,
60,
61,
61,
61,
61,
61,
61,
61,
61,
60,
60,
61,
61,
60,
60,
61,
61,
60,
60,
61,
61,
61,
61,
60,
60,
60,
60,
60,
60,
60,
60,
60,
60,
61,
61,
61,
61,
60,
60,
61,
61,
61,
61,
60,
60,
61,
61,
60,
60,
60,
60,
61,
61,
61,
61,
60,
60,
60,
60,
61,
61,
61,
61,
60,
60,
61,
61,
60,
60,
61,
61,
60,
60,
61,
61,
61,
61,
60,
60,
61,
61,
60,
60,
60,
60,
61,
61,
60,
60,
60,
60,
60,
60,
60,
60,
61,
61,
60,
60,
60,
60,
60,
60,
60,
60,
61,
61,
60,
60,
61,
61,
60,
60,
60,
60,
61,
61,
61,
61,
60,
60,
60,
60,
60,
60,
61,
61,
60,
60,
61,
61,
60,
60,
61,
61,
60,
60,
60,
60,
60,
60,
60,
60,
60,
60,
60,
60,
60,
60,
61,
61,
60,
60,
60,
60,
60,
60,
60,
60,
60,
60,
60,
60,
60,
60,
60,
60,
60,
60,
61,
61,
60,
60,
60,
60,
60,
60,
60,
60,
60,
60,
60,
60,
60,
60,
60,
60,
60,
60,
60,
60,
60,
60,
60,
60,
60,
60,
61,
61,
60,
60,
60,
60,
61,
61,
60,
60,
60,
60,
60,
60,
60,
60,
60,
60,
60,
60,
61,
61,
60,
60,
60,
60,
60,
60,
60,
60,
60,
60,
60,
60,
61,
61,
61,
61,
60,
60,
60,
60,
61,
61,
60,
60,
60,
60,
60,
60,
60,
60,
60,
60,
60,
60,
60,
60,
60,
60,
60,
60,
60,
60,
60,
60,
60,
60,
60,
60,
60,
60,
61,
61,
61,
61,
60,
60,
60,
60,
60,
60,
60,
60,
60,
60,
60,
60,
60,
60,
60,
60,
60,
60,
60,
60,
60,
60,
60,
60,
60,
60,
60,
60,
61,
61,
60,
60,
60,
60,
60,
60,
60,
60,
60,
60,
60,
60,
60,
60,
60,
60,
60,
60,
60,
60,
60,
60,
60,
60,
60,
60,
61,
61,
60,
60,
60,
60,
60,
60,
60,
60,
60,
60,
60,
60,
60,
60,
61,
61,
60,
60,
60,
60,
60,
60,
60,
60,
60,
60,
60,
60,
59,
59,
60,
60,
60,
60,
60,
60,
60,
60,
60,
60,
60,
60,
60,
60,
60,
60,
60,
60,
60,
60,
60,
60,
60,
60,
61,
61,
60,
60,
60,
60,
60,
60,
60,
60,
60,
60,
60,
-65,
-64,
-64,
-63,
-63,
-63,
-63,
-64,
-64,
-64,
-64,
-64,
-64,
-64,
-64,
-64,
-64,
-65,
-65,
-64,
-64,
-64,
-64,
-64,
-64,
-64,
-64,
-64,
-64,
-64,
-64,
-64,
-64,
-63,
-63,
-64,
-64,
-64,
-64,
-64,
-64,
-63,
-63,
-64,
-64,
-64,
-64,
-64,
-64,
-64,
-64,
-64,
-64,
-63,
-63,
-64,
-64,
-64,
-64,
-64,
-64,
-64,
-64,
-64,
-64,
-64,
-64,
-64,
-64,
-64,
-64,
-64,
-64,
-63,
-63,
-64,
-64,
-64,
-64,
-64,
-64,
-64,
-64,
-64,
-64,
-64,
-64,
-64,
-64,
-64,
-64,
-64,
-64,
-64,
-64,
-64,
-64,
-64,
-64,
-64,
-64,
-64,
-64,
-64,
-64,
-64,
-64,
-64,
-64,
-64,
-64,
-64,
-64,
-63,
-63,
-64,
-64,
-64,
-64,
-64,
-64,
-64,
-64,
-64,
-64,
-64,
-64,
-63,
-63,
-64,
-64,
-63,
-63,
-64,
-64,
-64,
-64,
-64,
-64,
-64,
-64,
-64,
-64,
-64,
-64,
-63,
-63,
-64,
-64,
-63,
-63,
-64,
-64,
-64,
-64,
-64,
-64,
-64,
-64,
-64,
-64,
-63,
-63,
-64,
-64,
-64,
-64,
-64,
-64,
-64,
-64,
-64,
-64,
-64,
-64,
-64,
-64,
-63,
-63,
-63,
-63,
-64,
-64,
-64,
-64,
-63,
-63,
-64,
-64,
-63,
-63,
-64,
-64,
-64,
-64,
-64,
-64,
-63,
-63,
-64,
-64,
-63,
-63,
-64,
-64,
-64,
-64,
-64,
-64,
-64,
-64,
-64,
-64,
-64,
-64,
-64,
-64,
-63,
-63,
-63,
-63,
-63,
-63,
-64,
-64,
-63,
-63,
-63,
-63,
-63,
-63,
-63,
-63,
-63,
-63,
-64,
-64,
-64,
-64,
-64,
-64,
-63,
-63,
-63,
-63,
-63,
-63,
-63,
-63,
-64,
-64,
-64,
-64,
-64,
-64,
-63,
-63,
-64,
-64,
-64,
-64,
-64,
-64,
-63,
-63,
-63,
-63,
-63,
-63,
-64,
-64,
-63,
-63,
-64,
-64,
-63,
-63,
-63,
-63,
-64,
-64,
-64,
-64,
-64,
-64,
-64,
-64,
-64,
-64,
-64,
-64,
-63,
-63,
-64,
-64,
-63,
-63,
-63,
-63,
-63,
-63,
-63,
-63,
-63,
-63,
-63,
-63,
-64,
-64,
-64,
-64,
-63,
-63,
-63,
-63,
-63,
-63,
-64,
-64,
-64,
-64,
-64,
-64,
-64,
-64,
-63,
-63,
-64,
-64,
-63,
-63,
-64,
-64,
-63,
-63,
-63,
-63,
-64,
-64,
-63,
-63,
-63,
-63,
-63,
-63,
-64,
-64,
-64,
-64,
-63,
-63,
-63,
-63,
-63,
-63,
-63,
-63,
-63,
-63,
-63,
-63,
-63,
-63,
-64,
-64,
-63,
-63,
-63,
-63,
-63,
-63,
-63,
-63,
-63,
-63,
-63,
-63,
-63,
-63,
-64,
-64,
-64,
-64,
-64,
-64,
-64,
-64,
-63,
-63,
-64,
-64,
-64,
-64,
-63,
-63,
-64,
-64,
-63,
-63,
-63,
-63,
-64,
-64,
-63,
-63,
-64,
-64,
-63,
61,
60,
60,
61,
61,
61,
61,
60,
60,
61,
61,
60,
60,
61,
61,
60,
60,
60,
60,
60,
60,
61,
61,
61,
61,
61,
61,
61,
61,
60,
60,
61,
61,
61,
61,
61,
61,
61,
61,
61,
61,
61,
61,
61,
61,
61,
61,
61,
61,
60,
60,
60,
60,
61,
61,
61,
61,
61,
61,
61,
61,
61,
61,
60,
60,
60,
60,
61,
61,
60,
60,
61,
61,
61,
61,
61,
61,
61,
61,
60,
60,
60,
60,
61,
61,
60,
60,
60,
60,
60,
60,
61,
61,
61,
61,
60,
60,
61,
61,
61,
61,
61,
61,
61,
61,
60,
60,
60,
60,
60,
60,
60,
60,
60,
60,
60,
60,
60,
60,
60,
60,
60,
60,
60,
60,
60,
60,
60,
60,
60,
60,
60,
60,
60,
60,
61,
61,
60,
60,
60,
60,
60,
60,
60,
60,
61,
61,
60,
60,
60,
60,
60,
60,
60,
60,
60,
60,
60,
60,
60,
60,
61,
61,
60,
60,
61,
61,
61,
61,
61,
61,
60,
60,
60,
60,
60,
60,
60,
60,
60,
60,
61,
61,
60,
60,
61,
61,
60,
60,
60,
60,
60,
60,
60,
60,
61,
61,
60,
60,
60,
60,
60,
60,
60,
60,
60,
60,
60,
60,
60,
60,
60,
60,
60,
60,
60,
60,
60,
60,
60,
60,
60,
60,
61,
61,
60,
60,
61,
61,
60,
60,
60,
60,
60,
60,
60,
60,
60,
60,
60,
60,
60,
60,
60,
60,
61,
61,
60,
60,
60,
60,
60,
60,
60,
60,
60,
60,
60,
60,
60,
60,
60,
60,
60,
60,
61,
61,
60,
60,
60,
60,
60,
60,
60,
60,
60,
60,
60,
60,
61,
61,
60,
60,
60,
60,
60,
60,
60,
60,
60,
60,
60,
60,
60,
60,
61,
61,
60,
60,
60,
60,
61,
61,
60,
60,
61,
61,
61,
61,
60,
60,
60,
60,
60,
60,
60,
60,
60,
60,
60,
60,
60,
60,
60,
60,
60,
60,
61,
61,
60,
60,
60,
60,
60,
60,
60,
60,
60,
60,
60,
60,
60,
60,
60,
60,
60,
60,
60,
60,
60,
60,
60,
60,
60,
60,
60,
60,
60,
60,
60,
60,
60,
60,
60,
60,
60,
60,
60,
60,
60,
60,
60,
60,
60,
60,
60,
60,
60,
60,
60,
60,
60,
60,
60,
60,
60,
60,
60,
60,
60,
60,
60,
60,
60,
60,
60,
60,
60,
60,
60,
60,
60,
60,
60,
60,
60,
60,
60,
60,
60,
60,
60,
60,
60,
60,
60,
60,
60,
60,
60,
60,
60,
60,
59,
59,
60,
-67,
-63,
-63,
-64,
-64,
-64,
-64,
-63,
-63,
-64,
-64,
-64,
-64,
-64,
-64,
-64,
-64,
-64,
-64,
-64,
-64,
-64,
-64,
-64,
-64,
-64,
-64,
-64,
-64,
-64,
-64,
-64,
-64,
-63,
-63,
-64,
-64,
-64,
-64,
-64,
-64,
-64,
-64,
-64,
-64,
-64,
-64,
-64,
-64,
-63,
-63,
-64,
-64,
-64,
-64,
-64,
-64,
-64,
-64,
-64,
-64,
-64,
-64,
-64,
-64,
-64,
-64,
-64,
-64,
-64,
-64,
-64,
-64,
-63,
-63,
-64,
-64,
-64,
-64,
-64,
-64,
-64,
-64,
-64,
-64,
-64,
-64,
-64,
-64,
-63,
-63,
-64,
-64,
-64,
-64,
-64,
-64,
-64,
-64,
-64,
-64,
-64,
-64,
-64,
-64,
-64,
-64,
-64,
-64,
-63,
-63,
-64,
-64,
-64,
-64,
-64,
-64,
-64,
-64,
-64,
-64,
-64,
-64,
-64,
-64,
-64,
-64,
-64,
-64,
-64,
-64,
-64,
-64,
-64,
-64,
-64,
-64,
-64,
-64,
-64,
-64,
-64,
-64,
-64,
-64,
-63,
-63,
-64,
-64,
-64,
-64,
-64,
-64,
-63,
-63,
-63,
-63,
-64,
-64,
-64,
-64,
-64,
-64,
-64,
-64,
-63,
-63,
-64,
-64,
-64,
-64,
-64,
-64,
-64,
-64,
-64,
-64,
-64,
-64,
-64,
-64,
-63,
-63,
-64,
-64,
-64,
-64,
-64,
-64,
-64,
-64,
-64,
-64,
-64,
-64,
-64,
-64,
-64,
-64,
-64,
-64,
-64,
-64,
-63,
-63,
-64,
-64,
-63,
-63,
-64,
-64,
-63,
-63,
-64,
-64,
-64,
-64,
-63,
-63,
-64,
-64,
-64,
-64,
-64,
-64,
-64,
-64,
-63,
-63,
-63,
-63,
-64,
-64,
-64,
-64,
-63,
-63,
-63,
-63,
-64,
-64,
-63,
-63,
-63,
-63,
-63,
-63,
-64,
-64,
-63,
-63,
-63,
-63,
-64,
-64,
-64,
-64,
-63,
-63,
-64,
-64,
-63,
-63,
-64,
-64,
-64,
-64,
-64,
-64,
-63,
-63,
-64,
-64,
-63,
-63,
-63,
-63,
-64,
-64,
-64,
-64,
-63,
-63,
-63,
-63,
-63,
-63,
-64,
-64,
-64,
-64,
-63,
-63,
-64,
-64,
-63,
-63,
-63,
-63,
-63,
-63,
-64,
-64,
-63,
-63,
-64,
-64,
-63,
-63,
-64,
-64,
-63,
-63,
-64,
-64,
-64,
-64,
-63,
-63,
-64,
-64,
-64,
-64,
-63,
-63,
-63,
-63,
-63,
-63,
-63,
-63,
-63,
-63,
-63,
-63,
-63,
-63,
-63,
-63,
-64,
-64,
-64,
-64,
-63,
-63,
-64,
-64,
-63,
-63,
-63,
-63,
-63,
-63,
-63,
-63,
-63,
-63,
-63,
-63,
-63,
-63,
-63,
-63,
-63,
-63,
-63,
-63,
-63,
-63,
-64,
-64,
-63,
-63,
-64,
-64,
-63,
-63,
-64,
-64,
-63,
-63,
-63,
-63,
-64,
-64,
-64,
-64,
-63,
-63,
-63,
-63,
-64,
-64,
-64,
-64,
-63,
-63,
-64,
-64,
-63,
-63,
-63,
-63,
-63,
-63,
-63,
-63,
-63,
61,
60,
60,
60,
60,
60,
60,
61,
61,
60,
60,
61,
61,
61,
61,
61,
61,
61,
61,
60,
60,
60,
60,
61,
61,
60,
60,
61,
61,
61,
61,
61,
61,
61,
61,
60,
60,
61,
61,
60,
60,
61,
61,
60,
60,
61,
61,
61,
61,
61,
61,
61,
61,
61,
61,
61,
61,
60,
60,
61,
61,
61,
61,
60,
60,
61,
61,
61,
61,
60,
60,
60,
60,
61,
61,
61,
61,
61,
61,
61,
61,
60,
60,
61,
61,
61,
61,
61,
61,
60,
60,
60,
60,
60,
60,
60,
60,
61,
61,
61,
61,
61,
61,
61,
61,
61,
61,
61,
61,
61,
61,
61,
61,
60,
60,
60,
60,
61,
61,
61,
61,
61,
61,
61,
61,
60,
60,
60,
60,
61,
61,
60,
60,
61,
61,
60,
60,
60,
60,
61,
61,
61,
61,
60,
60,
61,
61,
61,
61,
61,
61,
60,
60,
61,
61,
60,
60,
61,
61,
61,
61,
60,
60,
60,
60,
60,
60,
61,
61,
60,
60,
60,
60,
61,
61,
60,
60,
61,
61,
60,
60,
61,
61,
60,
60,
60,
60,
60,
60,
60,
60,
60,
60,
61,
61,
61,
61,
60,
60,
60,
60,
61,
61,
61,
61,
60,
60,
60,
60,
60,
60,
60,
60,
61,
61,
60,
60,
60,
60,
61,
61,
61,
61,
61,
61,
60,
60,
59,
59,
60,
60,
60,
60,
61,
61,
60,
60,
61,
61,
60,
60,
60,
60,
61,
61,
60,
60,
60,
60,
60,
60,
61,
61,
60,
60,
61,
61,
61,
61,
60,
60,
60,
60,
60,
60,
61,
61,
60,
60,
60,
60,
61,
61,
61,
61,
60,
60,
60,
60,
60,
60,
60,
60,
60,
60,
61,
61,
60,
60,
60,
60,
60,
60,
60,
60,
60,
60,
60,
60,
60,
60,
60,
60,
60,
60,
60,
60,
59,
59,
60,
60,
60,
60,
60,
60,
61,
61,
60,
60,
60,
60,
61,
61,
60,
60,
60,
60,
60,
60,
60,
60,
60,
60,
60,
60,
60,
60,
60,
60,
60,
60,
60,
60,
60,
60,
60,
60,
60,
60,
60,
60,
60,
60,
60,
60,
60,
60,
60,
