3-eigenschaften-von-transistoren/daten/ALL0017/A0017CH2.CSV

Memory Length,4000,
Trigger Level,7.20000e+01,
Source,CH2,
Probe,1.0X,
Vertical Units,V,
Vertical Scale,2.00000e-01,
Vertical Position,-1.29600e+00,
Horizontal Units,S,
Horizontal Scale,5.00000e-04,
Horizontal Position,0.0000000e+00,
Horizontal Mode,Main,
Sampling Period,2.00000e-06,
Firmware,V1.14,
Time, ,
Mode,Fast,
Waveform Data,
198,
198,
198,
199,
199,
199,
199,
200,
200,
200,
200,
199,
199,
200,
200,
200,
200,
201,
201,
201,
201,
201,
201,
201,
201,
201,
201,
202,
202,
202,
202,
202,
202,
202,
202,
202,
202,
202,
202,
202,
202,
202,
202,
203,
203,
203,
203,
203,
203,
203,
203,
204,
204,
204,
204,
204,
204,
204,
204,
205,
205,
204,
204,
204,
204,
205,
205,
206,
206,
207,
207,
208,
208,
208,
208,
208,
208,
208,
208,
208,
208,
208,
208,
209,
209,
208,
208,
209,
209,
208,
208,
208,
208,
209,
209,
209,
209,
209,
209,
209,
209,
209,
209,
208,
208,
208,
208,
209,
209,
208,
208,
208,
208,
208,
208,
208,
208,
208,
208,
208,
208,
208,
208,
208,
208,
208,
208,
208,
208,
208,
208,
207,
207,
208,
208,
207,
207,
207,
207,
207,
207,
207,
207,
206,
206,
207,
207,
207,
207,
206,
206,
206,
206,
206,
206,
206,
206,
207,
207,
207,
207,
208,
208,
208,
208,
209,
209,
209,
209,
208,
208,
208,
208,
208,
208,
207,
207,
208,
208,
207,
207,
207,
207,
207,
207,
206,
206,
206,
206,
205,
205,
206,
206,
206,
206,
205,
205,
205,
205,
205,
205,
204,
204,
204,
204,
203,
203,
204,
204,
203,
203,
202,
202,
202,
202,
202,
202,
202,
202,
200,
200,
201,
201,
200,
200,
200,
200,
199,
199,
199,
199,
199,
199,
199,
199,
197,
197,
197,
197,
198,
198,
197,
197,
197,
197,
196,
196,
195,
195,
196,
196,
197,
197,
197,
197,
197,
197,
197,
197,
198,
198,
197,
197,
196,
196,
196,
196,
195,
195,
195,
195,
194,
194,
193,
193,
193,
193,
193,
193,
192,
192,
192,
192,
190,
190,
191,
191,
191,
191,
190,
190,
189,
189,
189,
189,
189,
189,
189,
189,
187,
187,
187,
187,
186,
186,
186,
186,
185,
185,
185,
185,
185,
185,
183,
183,
182,
182,
183,
183,
183,
183,
182,
182,
181,
181,
180,
180,
180,
180,
179,
179,
179,
179,
178,
178,
178,
178,
178,
178,
177,
177,
178,
178,
177,
177,
177,
177,
178,
178,
177,
177,
177,
177,
177,
177,
176,
176,
175,
175,
175,
175,
175,
175,
174,
174,
174,
174,
172,
172,
172,
172,
171,
171,
171,
171,
171,
171,
169,
169,
169,
169,
169,
169,
169,
169,
167,
167,
167,
167,
166,
166,
165,
165,
166,
166,
164,
164,
164,
164,
163,
163,
164,
164,
163,
163,
162,
162,
162,
162,
161,
161,
162,
162,
161,
161,
159,
159,
159,
159,
158,
158,
158,
158,
158,
158,
157,
157,
156,
156,
156,
156,
154,
154,
155,
155,
154,
154,
155,
155,
155,
155,
154,
154,
155,
155,
155,
155,
155,
155,
155,
155,
155,
155,
154,
154,
153,
153,
153,
153,
152,
152,
151,
151,
151,
151,
151,
151,
150,
150,
149,
149,
149,
149,
148,
148,
149,
149,
147,
147,
147,
147,
146,
146,
146,
146,
146,
146,
147,
147,
145,
145,
145,
145,
144,
144,
143,
143,
143,
143,
143,
143,
142,
142,
143,
143,
142,
142,
142,
142,
141,
141,
142,
142,
140,
140,
140,
140,
139,
139,
140,
140,
139,
139,
139,
139,
138,
138,
138,
138,
138,
138,
137,
137,
137,
137,
137,
137,
138,
138,
138,
138,
138,
138,
139,
139,
139,
139,
139,
139,
138,
138,
138,
138,
137,
137,
137,
137,
138,
138,
136,
136,
136,
136,
136,
136,
135,
135,
136,
136,
135,
135,
135,
135,
134,
134,
135,
135,
135,
135,
135,
135,
133,
133,
134,
134,
133,
133,
133,
133,
133,
133,
133,
133,
132,
132,
133,
133,
131,
131,
132,
132,
131,
131,
132,
132,
132,
132,
131,
131,
131,
131,
131,
131,
131,
131,
132,
132,
131,
131,
131,
131,
132,
132,
131,
131,
130,
130,
131,
131,
131,
131,
131,
131,
131,
131,
132,
132,
132,
132,
134,
134,
133,
133,
134,
134,
135,
135,
135,
135,
134,
134,
135,
135,
134,
134,
135,
135,
133,
133,
134,
134,
135,
135,
135,
135,
133,
133,
134,
134,
135,
135,
134,
134,
135,
135,
135,
135,
135,
135,
136,
136,
136,
136,
136,
136,
135,
135,
134,
134,
135,
135,
135,
135,
136,
136,
135,
135,
136,
136,
137,
137,
137,
137,
136,
136,
137,
137,
137,
137,
137,
137,
137,
137,
137,
137,
137,
137,
137,
137,
138,
138,
139,
139,
138,
138,
138,
138,
139,
139,
139,
139,
141,
141,
141,
141,
143,
143,
144,
144,
143,
143,
143,
143,
145,
145,
144,
144,
144,
144,
145,
145,
145,
145,
145,
145,
145,
145,
146,
146,
146,
146,
146,
146,
147,
147,
147,
147,
148,
148,
148,
148,
147,
147,
149,
149,
148,
148,
148,
148,
150,
150,
150,
150,
150,
150,
150,
150,
151,
151,
151,
151,
151,
151,
151,
151,
151,
151,
151,
151,
152,
152,
153,
153,
154,
154,
153,
153,
154,
154,
154,
154,
155,
155,
154,
154,
155,
155,
156,
156,
156,
156,
157,
157,
158,
158,
158,
158,
160,
160,
160,
160,
161,
161,
162,
162,
163,
163,
163,
163,
163,
163,
164,
164,
164,
164,
164,
164,
165,
165,
165,
165,
165,
165,
166,
166,
167,
167,
167,
167,
168,
168,
168,
168,
168,
168,
168,
168,
169,
169,
169,
169,
170,
170,
171,
171,
171,
171,
170,
170,
171,
171,
171,
171,
173,
173,
173,
173,
173,
173,
173,
173,
174,
174,
174,
174,
175,
175,
175,
175,
176,
176,
176,
176,
177,
177,
177,
177,
178,
178,
177,
177,
178,
178,
178,
178,
179,
179,
179,
179,
180,
180,
180,
180,
184,
184,
184,
184,
185,
185,
186,
186,
185,
185,
186,
186,
187,
187,
186,
186,
187,
187,
187,
187,
188,
188,
187,
187,
188,
188,
188,
188,
188,
188,
189,
189,
189,
189,
190,
190,
190,
190,
191,
191,
191,
191,
190,
190,
192,
192,
192,
192,
193,
193,
192,
192,
194,
194,
193,
193,
194,
194,
194,
194,
194,
194,
195,
195,
195,
195,
195,
195,
195,
195,
196,
196,
195,
195,
195,
195,
196,
196,
196,
196,
196,
196,
198,
198,
199,
199,
198,
198,
198,
198,
199,
199,
200,
200,
200,
200,
203,
203,
203,
203,
203,
203,
202,
202,
203,
203,
203,
203,
204,
204,
204,
204,
204,
204,
204,
204,
204,
204,
204,
204,
205,
205,
205,
205,
205,
205,
205,
205,
206,
206,
205,
205,
205,
205,
206,
206,
206,
206,
205,
205,
206,
206,
205,
205,
206,
206,
207,
207,
206,
206,
206,
206,
206,
206,
206,
206,
206,
206,
206,
206,
206,
206,
206,
206,
207,
207,
206,
206,
206,
206,
206,
206,
205,
205,
206,
206,
207,
207,
206,
206,
207,
207,
208,
208,
208,
208,
209,
209,
210,
210,
211,
211,
211,
211,
210,
210,
210,
210,
209,
209,
210,
210,
210,
210,
210,
210,
209,
209,
209,
209,
210,
210,
209,
209,
209,
209,
209,
209,
208,
208,
208,
208,
208,
208,
208,
208,
207,
207,
207,
207,
208,
208,
207,
207,
207,
207,
207,
207,
206,
206,
207,
207,
206,
206,
207,
207,
207,
207,
206,
206,
206,
206,
205,
205,
205,
205,
205,
205,
205,
205,
205,
205,
203,
203,
204,
204,
204,
204,
204,
204,
204,
204,
204,
204,
204,
204,
204,
204,
205,
205,
205,
205,
205,
205,
205,
205,
204,
204,
204,
204,
204,
204,
203,
203,
204,
204,
203,
203,
203,
203,
202,
202,
202,
202,
202,
202,
201,
201,
201,
201,
201,
201,
200,
200,
200,
200,
199,
199,
199,
199,
198,
198,
198,
198,
198,
198,
197,
197,
197,
197,
196,
196,
196,
196,
196,
196,
195,
195,
194,
194,
193,
193,
194,
194,
194,
194,
193,
193,
194,
194,
191,
191,
191,
191,
189,
189,
190,
190,
189,
189,
189,
189,
189,
189,
189,
189,
188,
188,
189,
189,
189,
189,
189,
189,
190,
190,
189,
189,
189,
189,
189,
189,
188,
188,
187,
187,
187,
187,
187,
187,
185,
185,
186,
186,
185,
185,
185,
185,
183,
183,
183,
183,
181,
181,
182,
182,
181,
181,
180,
180,
179,
179,
179,
179,
179,
179,
179,
179,
178,
178,
177,
177,
177,
177,
176,
176,
176,
176,
175,
175,
175,
175,
174,
174,
173,
173,
173,
173,
172,
172,
172,
172,
171,
171,
171,
171,
170,
170,
169,
169,
170,
170,
168,
168,
168,
168,
167,
167,
167,
167,
167,
167,
167,
167,
168,
168,
167,
167,
167,
167,
167,
167,
167,
167,
166,
166,
166,
166,
165,
165,
164,
164,
164,
164,
164,
164,
163,
163,
162,
162,
162,
162,
162,
162,
162,
162,
161,
161,
159,
159,
159,
159,
158,
158,
157,
157,
157,
157,
157,
157,
157,
157,
155,
155,
156,
156,
155,
155,
154,
154,
154,
154,
153,
153,
153,
153,
152,
152,
151,
151,
151,
151,
151,
151,
150,
150,
150,
150,
149,
149,
149,
149,
148,
148,
148,
148,
147,
147,
148,
148,
146,
146,
146,
146,
145,
145,
146,
146,
146,
146,
147,
147,
147,
147,
147,
147,
147,
147,
146,
146,
146,
146,
146,
146,
145,
145,
145,
145,
144,
144,
144,
144,
143,
143,
143,
143,
143,
143,
143,
143,
142,
142,
141,
141,
141,
141,
141,
141,
140,
140,
140,
140,
140,
140,
139,
139,
140,
140,
139,
139,
139,
139,
138,
138,
137,
137,
137,
137,
136,
136,
137,
137,
136,
136,
136,
136,
136,
136,
136,
136,
136,
136,
134,
134,
135,
135,
135,
135,
135,
135,
135,
135,
134,
134,
134,
134,
133,
133,
133,
133,
134,
134,
132,
132,
133,
133,
133,
133,
133,
133,
135,
135,
135,
135,
136,
136,
135,
135,
134,
134,
135,
135,
135,
135,
133,
133,
134,
134,
135,
135,
134,
134,
133,
133,
133,
133,
133,
133,
133,
133,
132,
132,
133,
133,
134,
134,
132,
132,
132,
132,
132,
132,
132,
132,
132,
132,
131,
131,
132,
132,
131,
131,
132,
132,
132,
132,
131,
131,
131,
131,
132,
132,
132,
132,
131,
131,
132,
132,
131,
131,
132,
132,
132,
132,
132,
132,
132,
132,
133,
133,
132,
132,
132,
132,
132,
132,
132,
132,
132,
132,
132,
132,
134,
134,
133,
133,
136,
136,
137,
137,
138,
138,
137,
137,
137,
137,
137,
137,
137,
137,
137,
137,
138,
138,
138,
138,
138,
138,
138,
138,
137,
137,
138,
138,
139,
139,
139,
139,
138,
138,
139,
139,
140,
140,
139,
139,
139,
139,
140,
140,
140,
140,
140,
140,
140,
140,
140,
140,
140,
140,
141,
141,
141,
141,
141,
141,
141,
141,
142,
142,
142,
142,
142,
142,
142,
142,
143,
143,
143,
143,
144,
144,
143,
143,
144,
144,
144,
144,
144,
144,
144,
144,
145,
145,
146,
146,
146,
146,
146,
146,
148,
148,
148,
148,
150,
150,
150,
150,
151,
151,
152,
152,
151,
151,
152,
152,
152,
152,
153,
153,
153,
153,
154,
154,
154,
154,
154,
154,
155,
155,
155,
155,
155,
155,
156,
156,
155,
155,
156,
156,
157,
157,
156,
156,
157,
157,
158,
158,
159,
159,
158,
158,
158,
158,
159,
159,
159,
159,
160,
160,
159,
159,
162,
162,
161,
161,
161,
161,
161,
161,
162,
162,
162,
162,
162,
162,
163,
163,
163,
163,
164,
164,
164,
164,
166,
166,
165,
165,
166,
166,
167,
167,
167,
167,
169,
169,
169,
169,
169,
169,
171,
171,
172,
172,
174,
174,
173,
173,
174,
174,
174,
174,
174,
174,
175,
175,
175,
175,
175,
175,
176,
176,
176,
176,
177,
177,
177,
177,
178,
178,
178,
178,
178,
178,
178,
178,
179,
179,
179,
179,
179,
179,
180,
180,
180,
180,
181,
181,
181,
181,
181,
181,
182,
182,
183,
183,
183,
183,
183,
183,
183,
183,
184,
184,
185,
185,
184,
184,
185,
185,
186,
186,
186,
186,
186,
186,
187,
187,
187,
187,
188,
188,
187,
187,
188,
188,
189,
189,
190,
190,
191,
191,
193,
193,
193,
193,
193,
193,
193,
193,
193,
193,
194,
194,
195,
195,
195,
195,
195,
195,
195,
195,
196,
196,
197,
197,
196,
196,
197,
197,
197,
197,
198,
198,
198,
198,
197,
197,
199,
199,
197,
197,
198,
198,
198,
198,
199,
199,
199,
199,
200,
200,
200,
200,
200,
200,
201,
201,
201,
201,
201,
201,
201,
201,
200,
200,
201,
201,
201,
201,
201,
201,
201,
201,
201,
201,
203,
203,
202,
202,
202,
202,
202,
202,
203,
203,
202,
202,
204,
204,
205,
205,
205,
205,
206,
206,
206,
206,
207,
207,
207,
207,
208,
208,
208,
208,
207,
207,
207,
207,
207,
207,
208,
208,
208,
208,
208,
208,
208,
208,
208,
208,
208,
208,
208,
208,
208,
208,
207,
207,
208,
208,
208,
208,
208,
208,
208,
208,
208,
208,
208,
208,
208,
208,
208,
208,
207,
207,
208,
208,
208,
208,
208,
208,
208,
208,
208,
208,
208,
208,
207,
207,
208,
208,
207,
207,
207,
207,
207,
207,
207,
207,
207,
207,
207,
207,
206,
206,
207,
207,
207,
207,
208,
208,
208,
208,
209,
209,
209,
209,
209,
209,
210,
210,
209,
209,
209,
209,
208,
208,
209,
209,
208,
208,
208,
208,
208,
208,
208,
208,
207,
207,
207,
207,
207,
207,
207,
207,
206,
206,
206,
206,
206,
206,
206,
206,
206,
206,
205,
205,
204,
204,
205,
205,
204,
204,
204,
204,
204,
204,
203,
203,
202,
202,
203,
203,
202,
202,
202,
202,
201,
201,
201,
201,
201,
201,
201,
201,
200,
200,
200,
200,
199,
199,
199,
199,
199,
199,
199,
199,
198,
198,
199,
199,
198,
198,
200,
200,
199,
199,
200,
200,
200,
200,
198,
198,
199,
199,
198,
198,
198,
198,
198,
198,
197,
197,
197,
197,
196,
196,
195,
195,
194,
194,
195,
195,
193,
193,
194,
194,
194,
194,
193,
193,
192,
192,
191,
191,
191,
191,
191,
191,
190,
190,
190,
190,
189,
189,
189,
189,
188,
188,
188,
188,
187,
187,
187,
187,
186,
186,
186,
186,
186,
186,
185,
185,
186,
186,
184,
184,
183,
183,
183,
183,
181,
181,
181,
181,
181,
181,
181,
181,
180,
180,
179,
179,
179,
179,
179,
179,
180,
180,
181,
181,
181,
181,
180,
180,
180,
180,
178,
178,
179,
179,
178,
178,
177,
177,
176,
176,
176,
176,
176,
176,
175,
175,
175,
175,
174,
174,
173,
173,
173,
173,
172,
172,
171,
171,
170,
170,
171,
171,
170,
170,
170,
170,
169,
169,
169,
169,
168,
168,
166,
166,
167,
167,
165,
165,
166,
166,
164,
164,
164,
164,
164,
164,
163,
163,
163,
163,
163,
163,
162,
162,
161,
161,
160,
160,
160,
160,
159,
159,
158,
158,
159,
159,
158,
158,
158,
158,
158,
158,
158,
158,
158,
158,
158,
158,
159,
159,
158,
158,
158,
158,
157,
157,
157,
157,
156,
156,
156,
156,
155,
155,
155,
155,
154,
154,
154,
154,
153,
153,
153,
153,
151,
151,
152,
152,
151,
151,
151,
151,
150,
150,
150,
150,
149,
149,
148,
148,
147,
147,
148,
148,
147,
147,
147,
147,
147,
147,
146,
146,
146,
146,
145,
145,
145,
145,
144,
144,
144,
144,
143,
143,
143,
143,
142,
142,
142,
142,
142,
142,
141,
141,
141,
141,
141,
141,
140,
140,
140,
140,
139,
139,
139,
139,
139,
139,
139,
139,
139,
139,
140,
140,
140,
140,
141,
141,
140,
140,
139,
139,
139,
139,
139,
139,
139,
139,
138,
138,
139,
139,
138,
138,
138,
138,
137,
137,
137,
137,
137,
137,
137,
137,
137,
137,
137,
137,
136,
136,
136,
136,
136,
136,
135,
135,
135,
135,
134,
134,
135,
135,
133,
133,
133,
133,
133,
133,
134,
134,
133,
133,
134,
134,
132,
132,
132,
132,
132,
132,
132,
132,
132,
132,
131,
131,
131,
131,
132,
132,
131,
131,
131,
131,
131,
131,
131,
131,
130,
130,
131,
131,
131,
131,
131,
131,
131,
131,
132,
132,
133,
133,
134,
134,
135,
135,
134,
134,
134,
134,
134,
134,
135,
135,
134,
134,
133,
133,
134,
134,
133,
133,
134,
134,
133,
133,
134,
134,
133,
133,
133,
133,
134,
134,
134,
134,
134,
134,
133,
133,
135,
135,
134,
134,
134,
134,
134,
134,
133,
133,
134,
134,
134,
134,
133,
133,
135,
135,
135,
135,
134,
134,
135,
135,
135,
135,
133,
133,
136,
136,
135,
135,
135,
135,
136,
136,
136,
136,
136,
136,
136,
136,
136,
136,
137,
137,
136,
136,
137,
137,
137,
137,
137,
137,
137,
137,
139,
139,
140,
140,
141,
141,
142,
142,
141,
141,
141,
141,
142,
142,
142,
142,
143,
143,
143,
143,
143,
143,
144,
144,
143,
143,
144,
144,
143,
143,
145,
145,
144,
144,
144,
144,
146,
146,
145,
145,
146,
146,
146,
146,
146,
146,
146,
146,
147,
147,
147,
147,
148,
148,
147,
147,
148,
148,
148,
148,
148,
148,
149,
149,
149,
149,
149,
149,
150,
150,
149,
149,
151,
151,
150,
150,
151,
151,
152,
152,
152,
152,
152,
152,
153,
153,
154,
154,
154,
154,
154,
154,
154,
154,
156,
156,
157,
157,
158,
158,
158,
158,
159,
159,
160,
160,
160,
160,
163,
163,
162,
162,
161,
161,
161,
161,
163,
163,
163,
163,
163,
163,
163,
163,
164,
164,
164,
164,
165,
165,
165,
165,
165,
165,
165,
165,
165,
165,
167,
167,
167,
167,
167,
167,
168,
168,
168,
168,
168,
168,
169,
169,
169,
169,
170,
170,
170,
170,
170,
170,
171,
171,
172,
172,
172,
172,
172,
172,
172,
172,
172,
172,
174,
174,
173,
173,
174,
174,
175,
175,
175,
175,
175,
175,
176,
176,
177,
177,
178,
178,
179,
179,
180,
180,
180,
180,
181,
181,
182,
182,
183,
183,
183,
183,
184,
184,
183,
183,
185,
185,
184,
184,
185,
185,
186,
186,
185,
185,
187,
187,
187,
187,
187,
187,
187,
187,
187,
187,
188,
188,
188,
188,
188,
188,
189,
189,
189,
189,
189,
189,
190,
190,
190,
190,
190,
190,
190,
190,
190,
190,
192,
192,
191,
191,
192,
192,
192,
192,
192,
192,
193,
193,
193,
193,
194,
194,
193,
193,
194,
194,
194,
194,
195,
195,
194,
194,
195,
195,
195,
195,
196,
196,
197,
197,
198,
198,
200,
200,
201,
201,
201,
201,
201,
201,
201,
201,
201,
201,
201,
201,
202,
202,
203,
203,
202,
202,
203,
203,
203,
203,
204,
204,
203,
203,
203,
203,
204,
204,
204,
204,
203,
203,
204,
204,
203,
203,
203,
203,
204,
204,
205,
205,
204,
204,
205,
205,
205,
205,
205,
205,
205,
205,
205,
205,
205,
205,
206,
206,
205,
205,
206,
206,
205,
205,
205,
205,
205,
205,
206,
206,
207,
207,
205,
205,
205,
205,
206,
206,
206,
206,
206,
206,
207,
207,
207,
207,
208,
208,
210,
210,
209,
209,
209,
209,
210,
210,
209,
209,
211,
211,
209,
209,
209,
209,
209,
209,
210,
210,
210,
210,
209,
209,
209,
209,
209,
209,
209,
209,
209,
209,
209,
209,
209,
209,
208,
208,
208,
208,
208,
208,
208,
208,
208,
208,
208,
208,
208,
208,
207,
207,
208,
208,
207,
207,
207,
207,
207,
207,
207,
207,
207,
207,
206,
206,
206,
206,
206,
206,
206,
206,
207,
207,
206,
206,
205,
205,
205,
205,
205,
205,
205,
205,
204,
204,
204,
204,
205,
205,
206,
206,
206,
206,
206,
206,
206,
206,
206,
206,
206,
206,
206,
206,
205,
205,
205,
205,
204,
204,
204,
204,
204,
204,
204,
204,
203,
203,
203,
203,
203,
203,
202,
202,
202,
202,
201,
201,
201,
201,
202,
202,
201,
201,
200,
200,
199,
199,
200,
200,
199,
199,
199,
199,
198,
198,
198,
198,
198,
198,
198,
198,
196,
196,
196,
196,
195,
195,
195,
195,
195,
195,
195,
195,
194,
194,
194,
194,
192,
192,
193,
193,
192,
192,
191,
191,
191,
191,
191,
191,
192,
192,
191,
191,
193,
193,
192,
192,
191,
191,
192,
192,
191,
191,
191,
191,
190,
190,
189,
189,
188,
188,
188,
188,
188,
188,
188,
188,
187,
187,
187,
187,
186,
186,
186,
186,
182,
182,
185,
185,
184,
184,
183,
183,
182,
182,
182,
182,
182,
182,
181,
181,
180,
180,
179,
179,
180,
180,
179,
179,
178,
178,
178,
178,
177,
177,
177,
177,
176,
176,
176,
176,
176,
176,
175,
175,
175,
175,
174,
174,
173,
173,
173,
173,
172,
172,
172,
172,
170,
170,
170,
170,
170,
170,
170,
170,
170,
170,
170,
170,
170,
170,
171,
171,
170,
170,
170,
170,
169,
169,
168,
168,
168,
168,
167,
167,
167,
167,
167,
167,
166,
166,
165,
165,
164,
164,
164,
164,
163,
163,
163,
163,
161,
161,
162,
162,
161,
161,
161,
161,
160,
160,
159,
159,
158,
158,
158,
158,
158,
158,
158,
158,
157,
157,
157,
157,
156,
156,
155,
155,
156,
156,
154,
154,
153,
153,
154,
154,
153,
153,
152,
152,
151,
151,
151,
151,
151,
151,
150,
150,
150,
150,
149,
149,
148,
148,
148,
148,
148,
148,
148,
148,
149,
149,
149,
149,
149,
149,
149,
149,
149,
149,
148,
148,
148,
148,
147,
147,
147,
147,
147,
147,
147,
147,
146,
146,
146,
146,
145,
145,
145,
145,
144,
144,
144,
144,
143,
143,
143,
143,
143,
143,
143,
143,
141,
141,
141,
141,
139,
139,
141,
141,
140,
140,
141,
141,
139,
139,
139,
139,
139,
139,
139,
139,
139,
139,
138,
138,
137,
137,
137,
137,
139,
139,
137,
137,
136,
136,
136,
136,
137,
137,
136,
136,
134,
134,
135,
135,
135,
135,
134,
134,
135,
135,
134,
134,
134,
134,
135,
135,
135,
135,
136,
136,
135,
135,
136,
136,
135,
135,
136,
136,
136,
136,
134,
134,
135,
135,
135,
135,
134,
134,
135,
135,
135,
135,
132,
132,
134,
134,
133,
133,
133,
133,
132,
132,
133,
133,
133,
133,
133,
133,
132,
132,
133,
133,
133,
133,
133,
133,
133,
133,
132,
132,
132,
132,
132,
132,
131,
131,
131,
131,
131,
131,
132,
132,
131,
131,
131,
131,
131,
131,
132,
132,
131,
131,
131,
131,
132,
132,
131,
131,
131,
131,
131,
131,
131,
131,
132,
132,
131,
131,
132,
132,
132,
132,
134,
134,
133,
133,
134,
134,
136,
136,
136,
136,
135,
135,
136,
136,
136,
136,
136,
136,
137,
137,
135,
135,
136,
136,
136,
136,
137,
137,
137,
137,
138,
138,
137,
137,
137,
137,
138,
138,
137,
137,
137,
137,
138,
138,
138,
138,
137,
137,
138,
138,
139,
139,
139,
139,
140,
140,
138,
138,
140,
140,
140,
140,
140,
140,
140,
140,
140,
140,
139,
139,
141,
141,
140,
140,
141,
141,
141,
141,
141,
141,
141,
141,
142,
142,
143,
143,
142,
142,
143,
143,
143,
143,
143,
143,
143,
143,
144,
144,
147,
147,
147,
147,
148,
148,
148,
148,
149,
149,
149,
149,
150,
150,
149,
149,
150,
150,
150,
150,
150,
150,
150,
150,
151,
151,
152,
152,
151,
151,
152,
152,
153,
153,
154,
154,
153,
153,
155,
155,
154,
154,
154,
154,
156,
156,
154,
154,
155,
155,
156,
156,
156,
156,
157,
157,
157,
157,
157,
157,
157,
157,
158,
158,
158,
158,
158,
158,
159,
159,
159,
159,
159,
159,
160,
160,
160,
160,
161,
161,
162,
162,
162,
162,
162,
162,
162,
162,
164,
164,
163,
163,
164,
164,
166,
166,
166,
166,
167,
167,
169,
169,
169,
169,
170,
170,
171,
171,
171,
171,
171,
171,
171,
171,
171,
171,
173,
173,
173,
173,
173,
173,
173,
173,
173,
173,
174,
174,
175,
175,
175,
175,
176,
176,
176,
176,
175,
175,
176,
176,
177,
177,
178,
178,
178,
178,
179,
179,
179,
179,
179,
179,
179,
179,
180,
180,
180,
180,
181,
181,
181,
181,
181,
181,
181,
181,
181,
181,
183,
183,
182,
182,
