5-grundlagen-opAmps/data/ALL0096/A0096CH1.CSV

Memory Length,4000,
Trigger Level,2.00000e+01,
Source,CH1,
Probe,1.0X,
Vertical Units,V,
Vertical Scale,2.00000e+00,
Vertical Position,0.00000e+00,
Horizontal Units,S,
Horizontal Scale,1.00000e-01,
Horizontal Position,0.0000000e+00,
Horizontal Mode,Roll Mode,
Waveform Last Dot Address,4000,
Sampling Period,4.00000e-04,
Firmware,V1.14,
Time, ,
Mode,Fast,
Waveform Data,
32,
32,
-5,
-5,
-40,
-40,
-52,
-50,
-32,
-32,
7,
7,
40,
40,
40,
48,
28,
28,
-11,
-11,
-44,
-43,
-43,
-50,
-27,
-28,
12,
12,
43,
43,
43,
48,
23,
23,
-16,
-16,
-46,
-45,
-45,
-49,
-22,
-22,
17,
16,
46,
46,
46,
46,
18,
18,
-21,
-21,
-48,
-48,
-48,
-47,
-17,
-17,
22,
22,
48,
47,
47,
44,
13,
13,
-27,
-27,
-50,
-50,
-50,
-44,
-12,
-12,
28,
27,
49,
48,
48,
40,
7,
7,
-31,
-31,
-51,
-51,
-51,
-41,
-6,
-6,
32,
32,
50,
49,
36,
36,
2,
2,
-35,
-35,
-52,
-51,
-37,
-37,
0,
0,
36,
35,
50,
50,
33,
33,
-4,
-4,
-39,
-39,
-52,
-51,
-33,
-33,
4,
4,
39,
39,
50,
50,
29,
29,
-9,
-9,
-43,
-43,
-43,
-51,
-28,
-29,
11,
11,
43,
43,
43,
49,
24,
24,
-14,
-14,
-45,
-45,
-45,
-49,
-24,
-24,
16,
16,
45,
45,
45,
47,
19,
19,
-20,
-20,
-48,
-48,
-48,
-47,
-18,
-19,
21,
20,
48,
48,
48,
44,
14,
15,
-25,
-25,
-50,
-50,
-50,
-45,
-13,
-13,
26,
26,
49,
48,
48,
40,
8,
9,
-30,
-29,
-51,
-50,
-50,
-42,
-8,
-8,
31,
31,
50,
49,
38,
38,
3,
3,
-34,
-34,
-52,
-52,
-37,
-38,
-2,
-2,
35,
34,
50,
50,
34,
35,
-2,
-2,
-38,
-38,
-52,
-52,
-34,
-34,
3,
3,
39,
38,
50,
50,
30,
30,
-8,
-8,
-42,
-42,
-42,
-51,
-29,
-29,
9,
9,
42,
42,
42,
48,
25,
25,
-13,
-13,
-45,
-45,
-45,
-49,
-25,
-25,
14,
14,
44,
44,
44,
47,
20,
20,
-18,
-18,
-48,
-48,
-48,
-48,
-20,
-20,
20,
20,
47,
46,
46,
44,
15,
16,
-24,
-24,
-50,
-49,
-49,
-45,
-14,
-14,
25,
24,
48,
48,
48,
43,
10,
10,
-29,
-29,
-51,
-50,
-50,
-43,
-9,
-9,
29,
29,
50,
49,
49,
39,
4,
4,
-33,
-33,
-52,
-51,
-38,
-38,
-3,
-4,
34,
33,
50,
50,
35,
35,
-1,
-1,
-37,
-37,
-52,
-51,
-35,
-35,
2,
2,
38,
37,
50,
50,
31,
31,
-7,
-6,
-41,
-40,
-52,
-51,
-30,
-31,
8,
8,
41,
40,
40,
48,
27,
27,
-12,
-12,
-45,
-44,
-44,
-50,
-26,
-26,
13,
13,
44,
44,
44,
47,
22,
22,
-17,
-17,
-47,
-47,
-47,
-48,
-20,
-21,
19,
19,
46,
46,
46,
46,
16,
17,
-23,
-23,
-49,
-48,
-48,
-46,
-16,
-16,
23,
23,
48,
48,
48,
44,
11,
11,
-28,
-28,
-50,
-50,
-50,
-43,
-10,
-10,
28,
28,
50,
49,
49,
40,
6,
6,
-33,
-33,
-52,
-51,
-40,
-40,
-5,
-5,
32,
31,
50,
49,
36,
36,
0,
1,
-36,
-36,
-52,
-51,
-36,
-36,
0,
0,
37,
37,
50,
50,
32,
32,
-5,
-5,
-41,
-40,
-52,
-51,
-32,
-32,
7,
7,
40,
40,
40,
50,
28,
28,
-11,
-10,
-44,
-43,
-43,
-50,
-27,
-28,
12,
12,
44,
43,
43,
48,
23,
23,
-16,
-16,
-46,
-46,
-46,
-49,
-13,
-13,
-45,
-45,
-45,
-50,
-24,
-25,
14,
14,
44,
44,
44,
47,
21,
21,
-18,
-18,
-48,
-48,
-48,
-47,
-20,
-20,
19,
19,
47,
46,
46,
45,
16,
16,
-24,
-24,
-50,
-49,
-49,
-45,
-14,
-14,
24,
24,
48,
48,
48,
43,
10,
10,
-29,
-29,
-51,
-50,
-50,
-42,
-9,
-10,
29,
29,
50,
50,
39,
39,
5,
5,
-33,
-33,
-52,
-51,
-39,
-39,
-4,
-4,
34,
33,
50,
50,
35,
35,
-1,
-1,
-37,
-37,
-52,
-51,
-35,
-35,
2,
2,
37,
36,
50,
50,
31,
31,
-6,
-6,
-41,
-41,
-52,
-51,
-30,
-31,
7,
7,
41,
41,
41,
48,
26,
26,
-12,
-12,
-44,
-44,
-44,
-49,
-26,
-27,
13,
13,
44,
43,
43,
48,
22,
22,
-17,
-17,
-47,
-46,
-46,
-48,
-21,
-21,
19,
19,
46,
46,
46,
46,
16,
16,
-23,
-22,
-49,
-49,
-49,
-45,
-16,
-16,
23,
23,
48,
47,
47,
44,
11,
12,
-28,
-28,
-50,
-50,
-50,
-43,
-10,
-11,
28,
28,
48,
48,
48,
40,
6,
7,
-33,
-33,
-52,
-51,
-40,
-41,
-4,
-4,
33,
32,
50,
50,
36,
37,
0,
1,
-36,
-36,
-52,
-51,
-36,
-36,
0,
0,
36,
36,
51,
50,
32,
32,
-5,
-5,
-41,
-41,
-52,
-51,
-32,
-32,
7,
7,
40,
39,
51,
49,
28,
28,
-11,
-11,
-43,
-43,
-43,
-50,
-28,
-28,
12,
12,
43,
43,
43,
48,
23,
23,
-16,
-16,
-46,
-46,
-46,
-49,
-21,
-22,
16,
16,
46,
46,
46,
46,
18,
18,
-21,
-21,
-48,
-48,
-48,
-47,
-17,
-18,
22,
22,
48,
48,
48,
43,
12,
12,
-26,
-26,
-50,
-50,
-50,
-44,
-12,
-12,
27,
27,
49,
49,
49,
41,
7,
7,
-31,
-31,
-51,
-51,
-40,
-41,
-6,
-6,
31,
31,
50,
50,
37,
37,
1,
1,
-36,
-36,
-52,
-52,
-37,
-37,
-1,
-1,
36,
36,
50,
50,
33,
34,
-4,
-4,
-40,
-39,
-52,
-50,
-33,
-33,
5,
4,
39,
39,
51,
50,
28,
29,
-9,
-9,
-43,
-42,
-42,
-51,
-28,
-28,
10,
10,
43,
42,
42,
48,
24,
25,
-14,
-14,
-46,
-45,
-45,
-49,
-24,
-24,
16,
15,
46,
44,
44,
47,
19,
20,
-20,
-20,
-49,
-48,
-48,
-48,
-18,
-18,
21,
20,
47,
47,
47,
44,
14,
15,
-25,
-25,
-50,
-49,
-49,
-45,
-13,
-13,
26,
26,
49,
48,
48,
41,
8,
8,
-30,
-30,
-52,
-51,
-51,
-42,
-8,
-8,
31,
30,
50,
50,
38,
38,
3,
3,
-34,
-34,
-52,
-51,
-37,
-37,
-2,
-3,
35,
35,
50,
50,
34,
35,
-2,
-2,
-38,
-37,
-52,
-51,
-34,
-34,
4,
4,
39,
38,
51,
49,
30,
30,
-9,
-8,
-42,
-42,
-42,
-50,
-29,
-30,
9,
9,
42,
42,
42,
48,
25,
26,
-13,
-13,
-45,
-45,
-45,
-50,
-25,
-25,
15,
14,
45,
44,
44,
47,
20,
20,
-19,
-18,
-48,
-47,
-47,
-48,
-20,
-20,
20,
20,
47,
47,
47,
44,
15,
16,
-24,
-24,
-49,
-49,
-49,
-45,
-14,
-15,
25,
24,
48,
48,
48,
42,
10,
11,
-29,
-29,
-51,
-50,
-50,
-42,
-9,
-9,
29,
29,
50,
48,
48,
39,
4,
4,
-33,
-33,
-52,
-52,
-38,
-39,
-4,
-4,
34,
34,
50,
50,
35,
35,
-1,
-1,
-37,
-36,
-52,
-51,
-35,
-35,
2,
2,
38,
37,
51,
49,
31,
31,
-6,
-6,
-41,
-40,
-52,
-51,
-30,
-31,
8,
7,
41,
41,
41,
49,
27,
27,
-12,
-12,
-45,
-45,
-45,
-50,
-26,
-26,
14,
13,
44,
43,
43,
47,
21,
22,
-17,
-17,
-47,
-47,
-47,
-48,
-21,
-21,
18,
18,
47,
46,
46,
46,
16,
17,
-23,
-23,
-49,
-49,
-49,
-46,
-16,
-16,
23,
23,
48,
48,
48,
43,
11,
11,
-28,
-28,
-50,
-50,
-50,
-44,
-10,
-11,
28,
28,
50,
49,
49,
40,
6,
7,
-32,
-32,
-51,
-50,
-50,
-40,
-5,
-5,
32,
32,
51,
49,
36,
36,
0,
0,
-37,
-37,
-52,
-51,
-36,
-36,
1,
1,
36,
36,
50,
49,
31,
32,
-6,
-6,
-40,
-40,
-52,
-52,
-32,
-32,
7,
6,
40,
40,
40,
50,
28,
28,
-12,
-11,
-44,
-44,
-44,
-50,
-27,
-28,
12,
12,
43,
43,
43,
48,
23,
23,
-16,
-16,
-46,
-46,
-46,
-49,
-22,
-22,
18,
16,
46,
46,
46,
46,
18,
18,
-21,
-21,
-49,
-49,
-49,
-47,
-17,
-17,
22,
22,
48,
47,
47,
44,
12,
14,
-26,
-26,
-50,
-50,
-50,
-44,
-12,
-12,
27,
27,
50,
49,
49,
41,
7,
7,
-32,
-32,
-52,
-50,
-50,
-41,
-5,
-5,
31,
31,
50,
50,
37,
37,
2,
2,
-35,
-35,
-52,
-52,
-37,
-37,
0,
-1,
36,
35,
51,
50,
33,
33,
-4,
-4,
-40,
-38,
-52,
-51,
-32,
-32,
5,
5,
39,
39,
50,
48,
29,
29,
-9,
-9,
-43,
-43,
-43,
-51,
-28,
-28,
11,
11,
43,
43,
43,
48,
23,
25,
-15,
-15,
-45,
-45,
-45,
-49,
-23,
-23,
16,
15,
45,
45,
45,
47,
19,
19,
-20,
-20,
-48,
-48,
-48,
-47,
-18,
-18,
21,
20,
48,
47,
47,
44,
14,
14,
-25,
-25,
-50,
-50,
-50,
-45,
-13,
-13,
26,
26,
49,
48,
48,
42,
8,
9,
-30,
-29,
-51,
-51,
-51,
-41,
-8,
-8,
31,
30,
50,
50,
38,
39,
3,
3,
-34,
-34,
-52,
-51,
-37,
-38,
-1,
-2,
35,
35,
50,
50,
34,
34,
-3,
-3,
-38,
-38,
-52,
-51,
-34,
-34,
4,
3,
39,
39,
51,
49,
30,
30,
-8,
-8,
-42,
-42,
-42,
-50,
-29,
-30,
10,
10,
42,
42,
42,
48,
25,
25,
-13,
-13,
-45,
-45,
-50,
-50,
-24,
-24,
15,
15,
45,
44,
44,
47,
20,
20,
-19,
-19,
-48,
-46,
-46,
-48,
-19,
-20,
20,
20,
47,
46,
46,
45,
15,
15,
-24,
-24,
-50,
-49,
-49,
-45,
-14,
-14,
25,
24,
48,
48,
48,
42,
10,
10,
-29,
-29,
-52,
-50,
-50,
-42,
-9,
-10,
30,
30,
50,
49,
49,
39,
4,
4,
-33,
-33,
-52,
-51,
-38,
-40,
-3,
-4,
34,
34,
50,
50,
34,
35,
-1,
-1,
-37,
-37,
-52,
-50,
-35,
-35,
3,
3,
38,
37,
51,
49,
31,
31,
-7,
-7,
-41,
-41,
-52,
-51,
-30,
-31,
8,
8,
41,
41,
41,
49,
27,
27,
-13,
-12,
-44,
-44,
-44,
-50,
-26,
-26,
14,
13,
44,
44,
44,
47,
21,
21,
-17,
-17,
-47,
-47,
-47,
-48,
-21,
-21,
19,
19,
47,
47,
47,
45,
16,
17,
-24,
-24,
-49,
-49,
-49,
-45,
-16,
-16,
23,
23,
48,
48,
48,
43,
11,
11,
-28,
-28,
-51,
-50,
-50,
-44,
-10,
-10,
28,
28,
50,
49,
49,
40,
5,
5,
-32,
-32,
-52,
-51,
-39,
-40,
-4,
-4,
33,
32,
50,
50,
35,
35,
0,
0,
-36,
-36,
-52,
-52,
-35,
-36,
2,
1,
37,
37,
50,
50,
32,
32,
-5,
-5,
-40,
-40,
-52,
-51,
-31,
-32,
7,
7,
41,
41,
41,
48,
28,
28,
-12,
-10,
-44,
-44,
-44,
-50,
-27,
-27,
12,
12,
44,
44,
44,
47,
23,
23,
-16,
-16,
-46,
-46,
-46,
-48,
-22,
-22,
18,
18,
46,
46,
46,
45,
18,
18,
-22,
-22,
-49,
-48,
-48,
-46,
-17,
-17,
22,
22,
48,
47,
44,
44,
12,
13,
-27,
-26,
-50,
-50,
-50,
-44,
-12,
-12,
27,
27,
50,
48,
48,
40,
7,
7,
-32,
-32,
-52,
-50,
-50,
-41,
-5,
-5,
32,
32,
50,
50,
37,
37,
1,
2,
-36,
-36,
-52,
-51,
-37,
-37,
-1,
-1,
36,
36,
50,
49,
33,
34,
-4,
-4,
-40,
-40,
-52,
-51,
-32,
-33,
5,
4,
40,
39,
50,
50,
28,
28,
-10,
-10,
-43,
-43,
-43,
-50,
-28,
-29,
11,
10,
43,
43,
43,
48,
24,
24,
-15,
-15,
-45,
-45,
-45,
-49,
-24,
-24,
17,
16,
46,
46,
46,
47,
18,
20,
-20,
-20,
-48,
-48,
-48,
-46,
-18,
-18,
22,
21,
48,
46,
46,
44,
14,
14,
-25,
-25,
-50,
-49,
-49,
-44,
-13,
-13,
27,
26,
49,
48,
48,
42,
8,
8,
-30,
-30,
-52,
-50,
-50,
-41,
-7,
-8,
31,
30,
50,
50,
37,
38,
3,
3,
-34,
-34,
-52,
-52,
-37,
-38,
-2,
-2,
35,
35,
50,
50,
34,
34,
-3,
-2,
-39,
-39,
-52,
-51,
-33,
-33,
4,
4,
39,
39,
51,
49,
30,
30,
-9,
-9,
-42,
-42,
-42,
-50,
-29,
-29,
10,
10,
42,
42,
42,
48,
26,
26,
-13,
-13,
-45,
-45,
-45,
-49,
-24,
-24,
15,
15,
45,
44,
44,
46,
20,
20,
-19,
-19,
-48,
-47,
-47,
-48,
-19,
-20,
20,
20,
47,
47,
47,
45,
15,
15,
-25,
-24,
-49,
-49,
-49,
-45,
-14,
-14,
25,
24,
49,
48,
48,
43,
10,
10,
-29,
-29,
-51,
-51,
-43,
-43,
-9,
-9,
30,
30,
50,
50,
39,
39,
4,
4,
-33,
-33,
-52,
-51,
-38,
-38,
-3,
-3,
34,
34,
50,
49,
35,
35,
-2,
-2,
-37,
-37,
-52,
-52,
-34,
-35,
3,
2,
38,
38,
50,
50,
30,
30,
-7,
-7,
-41,
-41,
-52,
-51,
-30,
-30,
8,
7,
41,
41,
41,
48,
26,
27,
-12,
-12,
-45,
-44,
-44,
-49,
-25,
-26,
13,
13,
44,
44,
44,
47,
21,
21,
-18,
-17,
-47,
-47,
-47,
-48,
-20,
-20,
19,
19,
46,
46,
46,
45,
16,
16,
-24,
-23,
-49,
-49,
-49,
-45,
-16,
-16,
24,
23,
48,
48,
48,
42,
11,
11,
-28,
-28,
-50,
-50,
-50,
-43,
-10,
-11,
28,
28,
50,
49,
49,
40,
5,
5,
-33,
-33,
-52,
-51,
-40,
-40,
-4,
-4,
34,
34,
50,
49,
36,
36,
0,
0,
-37,
-37,
-52,
-51,
-36,
-36,
1,
1,
37,
36,
51,
50,
31,
31,
-5,
-5,
-41,
-41,
-52,
-52,
-30,
-32,
7,
7,
40,
40,
51,
48,
27,
28,
-11,
-11,
-44,
-44,
-44,
-50,
-27,
-27,
12,
12,
44,
44,
44,
48,
22,
23,
-16,
-16,
-46,
-46,
-46,
-49,
-21,
-21,
18,
18,
46,
46,
46,
46,
17,
17,
-22,
-21,
-49,
-48,
-48,
-47,
-16,
-16,
23,
23,
48,
48,
48,
44,
12,
13,
-27,
-27,
-51,
-50,
-50,
-44,
-11,
-11,
28,
27,
50,
49,
49,
40,
7,
7,
-32,
-32,
-52,
-51,
-40,
-40,
-5,
-5,
32,
32,
50,
49,
36,
38,
1,
2,
-36,
-36,
-52,
-51,
-36,
-37,
0,
0,
36,
36,
50,
50,
32,
32,
-4,
-4,
-40,
-40,
-52,
-51,
-33,
-33,
6,
6,
39,
39,
50,
48,
28,
29,
-10,
-10,
-44,
-42,
-42,
-51,
-28,
-28,
11,
11,
43,
42,
42,
48,
24,
24,
-16,
-16,
-46,
-46,
-46,
-48,
-23,
-24,
16,
16,
46,
45,
45,
47,
19,
19,
-21,
-20,
-48,
-48,
-48,
-47,
-17,
-17,
21,
21,
48,
47,
47,
44,
13,
13,
-26,
-26,
-50,
-50,
-50,
-44,
-12,
-13,
27,
26,
49,
48,
48,
42,
8,
8,
-30,
-30,
-51,
-50,
-50,
-41,
-7,
-7,
31,
31,
50,
49,
38,
38,
3,
3,
-34,
-34,
-52,
-52,
-37,
-37,
-1,
-1,
35,
35,
50,
50,
34,
34,
-4,
-4,
-38,
-38,
-52,
-52,
-33,
-33,
4,
4,
39,
39,
50,
50,
30,
30,
-9,
-9,
-43,
-42,
-53,
-50,
-29,
-29,
10,
10,
42,
42,
42,
48,
25,
25,
-14,
-13,
-45,
-45,
-45,
-49,
-24,
-24,
15,
15,
45,
44,
44,
46,
20,
20,
-20,
-20,
-48,
-48,
-48,
-48,
-19,
-20,
20,
20,
48,
47,
47,
45,
15,
15,
-25,
-25,
-50,
-49,
-49,
-45,
-14,
-14,
26,
25,
48,
48,
48,
42,
10,
10,
-29,
-29,
-51,
-51,
-51,
-42,
-8,
-9,
30,
30,
50,
49,
49,
39,
3,
4,
-34,
-34,
-52,
-51,
-38,
-38,
-2,
-3,
35,
35,
50,
50,
35,
35,
-1,
-1,
-38,
-38,
-52,
-51,
-34,
-34,
3,
3,
38,
37,
50,
50,
30,
30,
-8,
-7,
-42,
-41,
-52,
-51,
-30,
-30,
8,
8,
42,
41,
41,
49,
27,
27,
-13,
-13,
-45,
-44,
-44,
-50,
-25,
-25,
14,
13,
44,
44,
44,
47,
21,
21,
-18,
-18,
-48,
-47,
-47,
-48,
-20,
-20,
19,
19,
47,
47,
47,
45,
16,
16,
-24,
-24,
-49,
-49,
-49,
-45,
-14,
-14,
24,
23,
48,
48,
48,
42,
11,
11,
-28,
-28,
-51,
-50,
-50,
-42,
-10,
-10,
29,
29,
50,
48,
48,
39,
5,
5,
-33,
-33,
-52,
-50,
-39,
-40,
-4,
-4,
34,
32,
50,
49,
36,
36,
0,
0,
-37,
-37,
-52,
-51,
-36,
-36,
3,
1,
37,
36,
50,
50,
31,
31,
-5,
-5,
-41,
-40,
-52,
-51,
-31,
-32,
8,
7,
41,
39,
51,
49,
27,
27,
-12,
-12,
-44,
-44,
-44,
-50,
-26,
-26,
12,
12,
44,
44,
44,
48,
22,
22,
-17,
-16,
-46,
-46,
-46,
-49,
-21,
-22,
18,
18,
46,
46,
46,
46,
17,
17,
-22,
-21,
-49,
-49,
-49,
-46,
-16,
-17,
23,
23,
48,
48,
48,
44,
12,
12,
-28,
-27,
-50,
-50,
-50,
-44,
-11,
-11,
28,
28,
50,
50,
50,
40,
7,
7,
-32,
-32,
-52,
-50,
-50,
-40,
-5,
-5,
32,
31,
50,
49,
36,
37,
1,
1,
-36,
-35,
-52,
-51,
-36,
-37,
0,
-1,
36,
36,
50,
50,
32,
32,
-5,
-5,
-40,
-39,
-52,
-52,
-32,
-32,
6,
6,
40,
40,
51,
49,
28,
28,
-10,
-10,
-44,
-44,
-44,
-50,
-28,
-28,
11,
11,
43,
43,
43,
48,
23,
24,
-16,
-16,
-46,
-46,
-46,
-49,
-22,
-22,
17,
17,
46,
45,
45,
46,
19,
19,
-20,
-20,
-48,
-48,
-48,
-47,
-17,
-17,
22,
21,
48,
47,
47,
44,
14,
14,
-26,
-25,
-50,
-49,
-49,
-45,
-12,
-12,
26,
26,
49,
48,
48,
40,
8,
8,
-30,
-30,
-51,
-50,
-50,
-41,
-6,
-7,
31,
31,
50,
50,
37,
37,
3,
3,
-35,
-35,
-52,
-51,
-37,
-38,
-1,
-2,
35,
35,
50,
50,
34,
34,
-3,
-3,
-39,
-38,
-52,
-51,
-33,
-34,
4,
4,
39,
39,
50,
50,
29,
30,
-9,
-9,
-42,
-42,
-42,
-51,
-29,
-29,
10,
10,
43,
42,
42,
48,
25,
25,
-14,
-14,
-45,
-45,
-45,
-49,
-24,
-25,
15,
15,
45,
44,
44,
47,
19,
20,
-20,
-19,
-48,
-48,
-48,
-48,
-19,
-19,
20,
20,
47,
47,
47,
44,
15,
15,
-25,
-25,
-50,
-49,
-49,
-45,
-13,
-14,
26,
26,
48,
48,
48,
42,
9,
9,
-30,
-30,
-51,
-50,
-50,
-42,
-9,
-9,
31,
31,
50,
49,
38,
39,
3,
3,
-34,
-33,
-52,
-51,
-38,
-38,
-3,
-3,
34,
34,
50,
48,
35,
35,
-2,
-1,
-38,
-37,
-52,
-51,
-34,
-35,
3,
3,
38,
38,
50,
50,
30,
30,
-8,
-7,
-41,
-41,
-52,
-51,
-30,
-30,
8,
8,
42,
40,
51,
48,
26,
26,
-13,
-12,
-45,
-44,
-44,
-49,
-25,
-25,
14,
14,
44,
44,
44,
47,
21,
21,
-18,
-17,
-47,
-47,
-47,
-48,
-20,
-20,
19,
19,
47,
46,
46,
45,
16,
16,
-24,
-24,
-49,
-48,
-48,
-45,
-15,
-15,
24,
24,
49,
48,
48,
43,
10,
10,
-28,
-28,
-51,
-50,
-50,
-43,
-9,
-9,
29,
28,
50,
50,
39,
40,
4,
5,
-33,
-33,
-52,
-51,
-38,
-38,
-4,
-4,
34,
33,
50,
49,
36,
36,
-1,
0,
-37,
-37,
-52,
-52,
-35,
-35,
3,
3,
38,
38,
50,
50,
31,
31,
-6,
-6,
-41,
-40,
-52,
-50,
-30,
-32,
8,
8,
41,
40,
51,
50,
27,
27,
-12,
-11,
-44,
-43,
-43,
-50,
-27,
-27,
13,
13,
44,
43,
43,
47,
22,
23,
-17,
-16,
-47,
-46,
-46,
-49,
-21,
-21,
18,
18,
46,
46,
46,
46,
17,
18,
-22,
-22,
-49,
-49,
-49,
-46,
-16,
-16,
23,
22,
48,
48,
48,
44,
12,
12,
-28,
-28,
-50,
-49,
-49,
-43,
-11,
-11,
28,
28,
50,
48,
48,
40,
7,
7,
-32,
-32,
-51,
-51,
-40,
-40,
-4,
-5,
33,
33,
50,
49,
36,
37,
0,
0,
-36,
-35,
-52,
-51,
-36,
-36,
0,
0,
36,
36,
50,
49,
32,
32,
-4,
-4,
-40,
-40,
-52,
-51,
-32,
-32,
6,
6,
40,
40,
40,
49,
28,
28,
-10,
-10,
-43,
-43,
-43,
-50,
-28,
-28,
11,
11,
43,
43,
43,
48,
23,
24,
-16,
-15,
-46,
-46,
-46,
-49,
-22,
-22,
18,
16,
46,
45,
45,
47,
18,
19,
-21,
-21,
-48,
-48,
-48,
-46,
-17,
-18,
22,
22,
48,
47,
47,
44,
14,
14,
-26,
-25,
-50,
-49,
-49,
-44,
-12,
-13,
27,
27,
49,
48,
48,
41,
8,
8,
-31,
-31,
-52,
-51,
-51,
-41,
-6,
-6,
31,
31,
50,
49,
38,
38,
2,
2,
-35,
-35,
-52,
-52,
-37,
-37,
-1,
-1,
36,
35,
50,
50,
33,
34,
-4,
-4,
-39,
-39,
-52,
-52,
-33,
-34,
4,
4,
40,
39,
51,
49,
29,
30,
-9,
-9,
-43,
-43,
-43,
-51,
-29,
-29,
11,
10,
43,
43,
43,
48,
24,
24,
-14,
-14,
-45,
-45,
-45,
-49,
-24,
-24,
16,
16,
45,
45,
45,
47,
19,
20,
-20,
-20,
-48,
-48,
-48,
-48,
-18,
-18,
21,
21,
47,
47,
47,
44,
15,
15,
-25,
-25,
-49,
-49,
-49,
-45,
-13,
-14,
25,
25,
48,
48,
48,
42,
9,
9,
-30,
-30,
-51,
-51,
-51,
-42,
-8,
-8,
30,
30,
50,
50,
39,
39,
3,
3,
-34,
-33,
-52,
-51,
-38,
-38,
-2,
-3,
35,
35,
51,
50,
35,
35,
-2,
-2,
-38,
-38,
-52,
-51,
-34,
-34,
3,
3,
39,
39,
50,
50,
30,
30,
-8,
-7,
-42,
-42,
-42,
-51,
-29,
-29,
9,
8,
42,
42,
42,
48,
26,
26,
-13,
-13,
-45,
-44,
-44,
-50,
-24,
-24,
15,
15,
44,
44,
44,
47,
21,
21,
-19,
-18,
-48,
-46,
-46,
-48,
-20,
-20,
20,
19,
47,
47,
47,
44,
16,
16,
-24,
-24,
-49,
-49,
-49,
-45,
-14,
-14,
24,
24,
49,
48,
48,
42,
10,
10,
-28,
-28,
-51,
-51,
-51,
-43,
-9,
-9,
30,
30,
50,
49,
49,
39,
5,
6,
-33,
-33,
-52,
-52,
-39,
-40,
-4,
-4,
34,
32,
50,
50,
35,
36,
-1,
-1,
-37,
-37,
-52,
-51,
-35,
-36,
2,
2,
37,
37,
51,
50,
31,
31,
-6,
-6,
-41,
-41,
-52,
-51,
-31,
-31,
8,
7,
40,
40,
40,
49,
27,
27,
-12,
-12,
-44,
-44,
-44,
-49,
-26,
-26,
13,
13,
44,
43,
43,
47,
22,
22,
-17,
-17,
-46,
-46,
-46,
-49,
-21,
-21,
18,
18,
46,
46,
46,
46,
17,
17,
-22,
-22,
-49,
-49,
-49,
-46,
-16,
-16,
23,
22,
48,
48,
48,
44,
11,
11,
-28,
-28,
-50,
-50,
-50,
-43,
-11,
-11,
28,
28,
50,
50,
50,
40,
6,
6,
-32,
-32,
-52,
-51,
-40,
-40,
-5,
-5,
32,
31,
50,
49,
36,
36,
0,
1,
-36,
-36,
-52,
-51,
-36,
-36,
1,
1,
36,
36,
50,
50,
32,
32,
-5,
-5,
-40,
-40,
-52,
-51,
-32,
-33,
7,
7,
40,
40,
40,
49,
28,
28,
-11,
-11,
-44,
-44,
-44,
-50,
-27,
-28,
12,
11,
44,
44,
44,
48,
23,
23,
-16,
-16,
-46,
-45,
-45,
-48,
-22,
-23,
17,
17,
46,
45,
45,
46,
18,
19,
-22,
-22,
-48,
-48,
-48,
-47,
-17,
-17,
22,
21,
48,
47,
47,
44,
13,
14,
-27,
-27,
-50,
-50,
-50,
-44,
-12,
-12,
27,
27,
50,
48,
48,
40,
7,
8,
-31,
-30,
-52,
-50,
-50,
-41,
-6,
-7,
32,
31,
50,
50,
36,
37,
2,
2,
-35,
-35,
-52,
-52,
-37,
-37,
-1,
-1,
36,
36,
51,
50,
34,
34,
-4,
-4,
-39,
-39,
-52,
-51,
-33,
-33,
5,
5,
40,
39,
50,
50,
29,
29,
-9,
-9,
-43,
-43,
-43,
-50,
-29,
-29,
10,
10,
43,
42,
42,
48,
24,
25,
-14,
-14,
-45,
-45,
-45,
-49,
-24,
-24,
15,
15,
45,
45,
45,
47,
19,
19,
-20,
-19,
-48,
-47,
-47,
-48,
-18,
-18,
20,
20,
47,
47,
47,
44,
14,
15,
-25,
-25,
-50,
-49,
-49,
-45,
-13,
-13,
26,
25,
49,
49,
49,
41,
9,
9,
-30,
-30,
-51,
-51,
-51,
-42,
-8,
-8,
30,
30,
50,
50,
38,
38,
3,
3,
-34,
-34,
-52,
-52,
-37,
-38,
-2,
-3,
35,
34,
50,
49,
34,
34,
-2,
-2,
-38,
-38,
-52,
-52,
-34,
-34,
3,
3,
38,
38,
50,
50,
30,
30,
-8,
-8,
-42,
-42,
-42,
-50,
-29,
-30,
9,
8,
42,
42,
42,
48,
26,
26,
-13,
-13,
-45,
-45,
-45,
-49,
-25,
-25,
15,
15,
44,
44,
44,
47,
20,
21,
-19,
-18,
-48,
-46,
-46,
-48,
-20,
-20,
20,
20,
47,
46,
46,
45,
15,
16,
-24,
-23,
-49,
-49,
-49,
-46,
-14,
-15,
25,
24,
48,
48,
48,
43,
10,
10,
-29,
-29,
-51,
-50,
-50,
-43,
-8,
-8,
29,
29,
50,
49,
49,
39,
5,
5,
-33,
-33,
-52,
-51,
-39,
-39,
-3,
-4,
34,
34,
50,
50,
36,
36,
-1,
-1,
-37,
-37,
-52,
-51,
-35,
-35,
2,
2,
37,
37,
50,
50,
31,
31,
-7,
-7,
-41,
-41,
-52,
-51,
-30,
-31,
8,
8,
42,
42,
42,
48,
27,
27,
-12,
-12,
-44,
-44,
-44,
-50,
-26,
-26,
14,
13,
44,
44,
44,
48,
22,
22,
-17,
-17,
-47,
-47,
-47,
-49,
-21,
-21,
19,
19,
47,
46,
46,
46,
16,
16,
-23,
-23,
-49,
-49,
-49,
-46,
-16,
-16,
23,
23,
49,
49,
49,
43,
11,
11,
-28,
-28,
-50,
-50,
-50,
-43,
-10,
-10,
28,
28,
50,
49,
49,
41,
6,
6,
-32,
-32,
-52,
-51,
-40,
-40,
-5,
-5,
32,
32,
50,
50,
36,
36,
0,
2,
-36,
-36,
-52,
-52,
-36,
-37,
2,
2,
37,
37,
51,
50,
