4-transistorverstaerker/data/ALL0022/A0022CH1.CSV

Memory Length,4000,
Trigger Level,8.10000e+02,
Source,CH1,
Probe,1.0X,
Vertical Units,V,
Vertical Scale,1.00000e-01,
Vertical Position,-4.00000e-03,
Horizontal Units,S,
Horizontal Scale,5.00000e-04,
Horizontal Position,-6.8000000e-04,
Horizontal Mode,Main,
Sampling Period,2.00000e-06,
Firmware,V1.14,
Time, ,
Mode,Fast,
Waveform Data,
13,
13,
13,
14,
14,
12,
12,
13,
13,
13,
13,
13,
13,
13,
13,
13,
13,
13,
13,
12,
12,
14,
14,
13,
13,
13,
13,
12,
12,
13,
13,
12,
12,
12,
12,
12,
12,
12,
12,
11,
11,
11,
11,
11,
11,
10,
10,
10,
10,
10,
10,
11,
11,
10,
10,
11,
11,
10,
10,
10,
10,
8,
8,
9,
9,
9,
9,
9,
9,
9,
9,
9,
9,
7,
7,
9,
9,
8,
8,
7,
7,
7,
7,
6,
6,
6,
6,
6,
6,
6,
6,
5,
5,
6,
6,
4,
4,
6,
6,
5,
5,
4,
4,
6,
6,
5,
5,
4,
4,
3,
3,
4,
4,
3,
3,
3,
3,
2,
2,
3,
3,
2,
2,
2,
2,
1,
1,
1,
1,
1,
1,
0,
0,
0,
0,
0,
0,
-1,
-1,
-1,
-1,
-1,
-1,
0,
0,
-3,
-3,
-3,
-3,
-3,
-3,
-2,
-2,
-4,
-4,
-2,
-2,
-3,
-3,
-4,
-4,
-4,
-4,
-4,
-4,
-5,
-5,
-6,
-6,
-6,
-6,
-7,
-7,
-6,
-6,
-6,
-6,
-7,
-7,
-7,
-7,
-8,
-8,
-7,
-7,
-8,
-8,
-8,
-8,
-8,
-8,
-8,
-8,
-9,
-9,
-9,
-9,
-10,
-10,
-10,
-10,
-10,
-10,
-10,
-10,
-12,
-12,
-11,
-11,
-11,
-11,
-10,
-10,
-12,
-12,
-12,
-12,
-12,
-12,
-13,
-13,
-12,
-12,
-12,
-12,
-12,
-12,
-12,
-12,
-14,
-14,
-13,
-13,
-14,
-14,
-14,
-14,
-13,
-13,
-14,
-14,
-14,
-14,
-15,
-15,
-14,
-14,
-15,
-15,
-15,
-15,
-15,
-15,
-15,
-15,
-15,
-15,
-15,
-15,
-15,
-15,
-15,
-15,
-15,
-15,
-16,
-16,
-16,
-16,
-16,
-16,
-16,
-16,
-16,
-16,
-16,
-16,
-16,
-16,
-16,
-16,
-16,
-16,
-16,
-16,
-17,
-17,
-16,
-16,
-16,
-16,
-17,
-17,
-16,
-16,
-16,
-16,
-17,
-17,
-17,
-17,
-17,
-17,
-16,
-16,
-15,
-15,
-16,
-16,
-16,
-16,
-15,
-15,
-16,
-16,
-16,
-16,
-15,
-15,
-16,
-16,
-16,
-16,
-16,
-16,
-15,
-15,
-16,
-16,
-14,
-14,
-15,
-15,
-15,
-15,
-15,
-15,
-15,
-15,
-15,
-15,
-15,
-15,
-15,
-15,
-14,
-14,
-15,
-15,
-14,
-14,
-14,
-14,
-14,
-14,
-14,
-14,
-13,
-13,
-14,
-14,
-14,
-14,
-14,
-14,
-12,
-12,
-13,
-13,
-12,
-12,
-12,
-12,
-12,
-12,
-11,
-11,
-12,
-12,
-11,
-11,
-11,
-11,
-12,
-12,
-12,
-12,
-10,
-10,
-10,
-10,
-11,
-11,
-10,
-10,
-9,
-9,
-10,
-10,
-9,
-9,
-10,
-10,
-8,
-8,
-8,
-8,
-9,
-9,
-7,
-7,
-7,
-7,
-7,
-7,
-7,
-7,
-6,
-6,
-6,
-6,
-6,
-6,
-6,
-6,
-4,
-4,
-6,
-6,
-3,
-3,
-3,
-3,
-5,
-5,
-4,
-4,
-3,
-3,
-3,
-3,
-3,
-3,
-3,
-3,
-3,
-3,
-1,
-1,
-1,
-1,
-2,
-2,
-1,
-1,
0,
0,
0,
0,
0,
0,
0,
0,
1,
1,
2,
2,
1,
1,
1,
1,
1,
1,
1,
1,
3,
3,
3,
3,
4,
4,
3,
3,
3,
3,
4,
4,
4,
4,
3,
3,
5,
5,
5,
5,
5,
5,
6,
6,
5,
5,
5,
5,
5,
5,
6,
6,
6,
6,
8,
8,
7,
7,
6,
6,
7,
7,
8,
8,
7,
7,
8,
8,
8,
8,
9,
9,
8,
8,
9,
9,
11,
11,
11,
11,
9,
9,
10,
10,
9,
9,
11,
11,
10,
10,
11,
11,
11,
11,
10,
10,
11,
11,
12,
12,
12,
12,
12,
12,
11,
11,
12,
12,
12,
12,
13,
13,
12,
12,
14,
14,
13,
13,
13,
13,
13,
13,
14,
14,
13,
13,
13,
13,
13,
13,
13,
13,
13,
13,
14,
14,
14,
14,
14,
14,
13,
13,
13,
13,
14,
14,
14,
14,
14,
14,
14,
14,
13,
13,
14,
14,
13,
13,
14,
14,
13,
13,
13,
13,
15,
15,
14,
14,
15,
15,
13,
13,
13,
13,
14,
14,
14,
14,
13,
13,
13,
13,
14,
14,
13,
13,
13,
13,
12,
12,
13,
13,
12,
12,
12,
12,
12,
12,
13,
13,
12,
12,
12,
12,
12,
12,
11,
11,
11,
11,
11,
11,
12,
12,
11,
11,
10,
10,
10,
10,
10,
10,
10,
10,
10,
10,
9,
9,
9,
9,
9,
9,
10,
10,
10,
10,
9,
9,
9,
9,
9,
9,
9,
9,
8,
8,
7,
7,
7,
7,
8,
8,
6,
6,
6,
6,
6,
6,
6,
6,
6,
6,
5,
5,
6,
6,
5,
5,
4,
4,
4,
4,
4,
4,
4,
4,
3,
3,
2,
2,
3,
3,
4,
4,
3,
3,
2,
2,
2,
2,
0,
0,
2,
2,
1,
1,
1,
1,
1,
1,
0,
0,
-1,
-1,
-1,
-1,
0,
0,
-1,
-1,
-1,
-1,
-2,
-2,
-2,
-2,
-3,
-3,
-2,
-2,
-2,
-2,
-3,
-3,
-4,
-4,
-3,
-3,
-4,
-4,
-4,
-4,
-6,
-6,
-4,
-4,
-4,
-4,
-5,
-5,
-6,
-6,
-5,
-5,
-7,
-7,
-6,
-6,
-7,
-7,
-8,
-8,
-8,
-8,
-8,
-8,
-7,
-7,
-8,
-8,
-9,
-9,
-9,
-9,
-9,
-9,
-10,
-10,
-10,
-10,
-10,
-10,
-10,
-10,
-10,
-10,
-11,
-11,
-11,
-11,
-10,
-10,
-11,
-11,
-12,
-12,
-12,
-12,
-12,
-12,
-13,
-13,
-13,
-13,
-12,
-12,
-13,
-13,
-12,
-12,
-12,
-12,
-12,
-12,
-13,
-13,
-12,
-12,
-14,
-14,
-14,
-14,
-13,
-13,
-14,
-14,
-14,
-14,
-15,
-15,
-15,
-15,
-15,
-15,
-14,
-14,
-15,
-15,
-17,
-17,
-15,
-15,
-15,
-15,
-15,
-15,
-16,
-16,
-15,
-15,
-15,
-15,
-16,
-16,
-16,
-16,
-15,
-15,
-16,
-16,
-18,
-18,
-16,
-16,
-16,
-16,
-15,
-15,
-15,
-15,
-17,
-17,
-17,
-17,
-16,
-16,
-16,
-16,
-16,
-16,
-17,
-17,
-15,
-15,
-16,
-16,
-17,
-17,
-16,
-16,
-16,
-16,
-16,
-16,
-15,
-15,
-17,
-17,
-16,
-16,
-16,
-16,
-16,
-16,
-15,
-15,
-16,
-16,
-15,
-15,
-16,
-16,
-15,
-15,
-14,
-14,
-15,
-15,
-15,
-15,
-15,
-15,
-15,
-15,
-15,
-15,
-15,
-15,
-13,
-13,
-15,
-15,
-14,
-14,
-15,
-15,
-14,
-14,
-13,
-13,
-13,
-13,
-13,
-13,
-13,
-13,
-14,
-14,
-13,
-13,
-12,
-12,
-13,
-13,
-12,
-12,
-12,
-12,
-11,
-11,
-11,
-11,
-11,
-11,
-11,
-11,
-11,
-11,
-10,
-10,
-10,
-10,
-10,
-10,
-9,
-9,
-10,
-10,
-8,
-8,
-9,
-9,
-8,
-8,
-9,
-9,
-8,
-8,
-8,
-8,
-8,
-8,
-7,
-7,
-7,
-7,
-6,
-6,
-7,
-7,
-6,
-6,
-5,
-5,
-6,
-6,
-5,
-5,
-5,
-5,
-5,
-5,
-4,
-4,
-3,
-3,
-3,
-3,
-4,
-4,
-3,
-3,
-2,
-2,
-2,
-2,
-2,
-2,
-1,
-1,
-1,
-1,
-2,
-2,
0,
0,
0,
0,
0,
0,
1,
1,
0,
0,
1,
1,
0,
0,
2,
2,
2,
2,
3,
3,
2,
2,
3,
3,
3,
3,
4,
4,
3,
3,
4,
4,
3,
3,
4,
4,
4,
4,
3,
3,
4,
4,
5,
5,
4,
4,
5,
5,
6,
6,
7,
7,
6,
6,
6,
6,
7,
7,
7,
7,
8,
8,
8,
8,
8,
8,
9,
9,
7,
7,
9,
9,
9,
9,
9,
9,
9,
9,
9,
9,
10,
10,
10,
10,
10,
10,
10,
10,
8,
8,
11,
11,
10,
10,
11,
11,
12,
12,
12,
12,
11,
11,
12,
12,
12,
12,
12,
12,
11,
11,
12,
12,
11,
11,
12,
12,
12,
12,
13,
13,
13,
13,
13,
13,
13,
13,
12,
12,
13,
13,
13,
13,
14,
14,
14,
14,
13,
13,
13,
13,
13,
13,
13,
13,
14,
14,
13,
13,
14,
14,
15,
15,
13,
13,
13,
13,
14,
14,
14,
14,
14,
14,
13,
13,
13,
13,
12,
12,
15,
15,
15,
15,
13,
13,
14,
14,
13,
13,
15,
15,
14,
14,
12,
12,
13,
13,
12,
12,
13,
13,
12,
12,
12,
12,
11,
11,
13,
13,
13,
13,
13,
13,
12,
12,
11,
11,
12,
12,
12,
12,
11,
11,
11,
11,
11,
11,
11,
11,
11,
11,
12,
12,
11,
11,
10,
10,
11,
11,
10,
10,
10,
10,
9,
9,
9,
9,
8,
8,
9,
9,
9,
9,
8,
8,
8,
8,
7,
7,
8,
8,
7,
7,
7,
7,
7,
7,
6,
6,
6,
6,
6,
6,
6,
6,
6,
6,
5,
5,
5,
5,
4,
4,
4,
4,
4,
4,
3,
3,
4,
4,
4,
4,
1,
1,
3,
3,
3,
3,
1,
1,
2,
2,
1,
1,
2,
2,
-1,
-1,
1,
1,
0,
0,
0,
0,
0,
0,
-1,
-1,
1,
1,
-1,
-1,
-3,
-3,
0,
0,
-2,
-2,
-2,
-2,
-2,
-2,
-4,
-4,
-2,
-2,
-3,
-3,
-3,
-3,
-4,
-4,
-3,
-3,
-4,
-4,
-4,
-4,
-5,
-5,
-5,
-5,
-6,
-6,
-6,
-6,
-7,
-7,
-7,
-7,
-7,
-7,
-8,
-8,
-7,
-7,
-8,
-8,
-8,
-8,
-9,
-9,
-9,
-9,
-10,
-10,
-10,
-10,
-10,
-10,
-9,
-9,
-10,
-10,
-11,
-11,
-11,
-11,
-11,
-11,
-11,
-11,
-11,
-11,
-11,
-11,
-12,
-12,
-12,
-12,
-12,
-12,
-11,
-11,
-12,
-12,
-12,
-12,
-12,
-12,
-12,
-12,
-12,
-12,
-14,
-14,
-14,
-14,
-13,
-13,
-13,
-13,
-14,
-14,
-14,
-14,
-15,
-15,
-15,
-15,
-15,
-15,
-16,
-16,
-16,
-16,
-15,
-15,
-15,
-15,
-15,
-15,
-14,
-14,
-15,
-15,
-15,
-15,
-16,
-16,
-15,
-15,
-16,
-16,
-16,
-16,
-16,
-16,
-16,
-16,
-16,
-16,
-16,
-16,
-16,
-16,
-15,
-15,
-16,
-16,
-16,
-16,
-16,
-16,
-16,
-16,
-15,
-15,
-16,
-16,
-17,
-17,
-15,
-15,
-15,
-15,
-16,
-16,
-16,
-16,
-17,
-17,
-16,
-16,
-16,
-16,
-16,
-16,
-16,
-16,
-16,
-16,
-15,
-15,
-16,
-16,
-15,
-15,
-15,
-15,
-15,
-15,
-16,
-16,
-16,
-16,
-15,
-15,
-15,
-15,
-15,
-15,
-15,
-15,
-14,
-14,
-14,
-14,
-14,
-14,
-13,
-13,
-14,
-14,
-13,
-13,
-14,
-14,
-13,
-13,
-13,
-13,
-13,
-13,
-13,
-13,
-12,
-12,
-12,
-12,
-13,
-13,
-12,
-12,
-12,
-12,
-12,
-12,
-12,
-12,
-11,
-11,
-11,
-11,
-11,
-11,
-12,
-12,
-11,
-11,
-10,
-10,
-10,
-10,
-10,
-10,
-10,
-10,
-9,
-9,
-9,
-9,
-9,
-9,
-8,
-8,
-8,
-8,
-7,
-7,
-7,
-7,
-8,
-8,
-7,
-7,
-6,
-6,
-7,
-7,
-6,
-6,
-5,
-5,
-5,
-5,
-4,
-4,
-5,
-5,
-7,
-7,
-4,
-4,
-3,
-3,
-4,
-4,
-3,
-3,
-3,
-3,
-4,
-4,
-2,
-2,
-3,
-3,
-2,
-2,
-1,
-1,
-2,
-2,
-1,
-1,
-1,
-1,
0,
0,
1,
1,
0,
0,
1,
1,
1,
1,
2,
2,
1,
1,
2,
2,
0,
0,
3,
3,
2,
2,
2,
2,
4,
4,
4,
4,
4,
4,
4,
4,
4,
4,
5,
5,
4,
4,
5,
5,
6,
6,
4,
4,
6,
6,
7,
7,
6,
6,
6,
6,
7,
7,
6,
6,
8,
8,
7,
7,
8,
8,
8,
8,
8,
8,
8,
8,
8,
8,
9,
9,
9,
9,
9,
9,
10,
10,
8,
8,
10,
10,
8,
8,
10,
10,
12,
12,
10,
10,
10,
10,
12,
12,
10,
10,
11,
11,
12,
12,
12,
12,
12,
12,
13,
13,
12,
12,
13,
13,
12,
12,
12,
12,
13,
13,
14,
14,
13,
13,
14,
14,
13,
13,
15,
15,
13,
13,
14,
14,
14,
14,
13,
13,
15,
15,
14,
14,
13,
13,
13,
13,
13,
13,
15,
15,
13,
13,
14,
14,
14,
14,
14,
14,
14,
14,
14,
14,
14,
14,
14,
14,
14,
14,
13,
13,
13,
13,
15,
15,
14,
14,
13,
13,
14,
14,
13,
13,
14,
14,
13,
13,
14,
14,
12,
12,
14,
14,
13,
13,
12,
12,
13,
13,
12,
12,
13,
13,
13,
13,
12,
12,
12,
12,
12,
12,
12,
12,
11,
11,
11,
11,
11,
11,
11,
11,
11,
11,
10,
10,
10,
10,
11,
11,
11,
11,
9,
9,
9,
9,
10,
10,
11,
11,
10,
10,
10,
10,
9,
9,
9,
9,
8,
8,
7,
7,
7,
7,
7,
7,
6,
6,
8,
8,
9,
9,
6,
6,
6,
6,
6,
6,
5,
5,
5,
5,
4,
4,
4,
4,
4,
4,
4,
4,
2,
2,
6,
6,
3,
3,
2,
2,
4,
4,
2,
2,
2,
2,
2,
2,
2,
2,
1,
1,
1,
1,
0,
0,
1,
1,
0,
0,
0,
0,
-1,
-1,
-1,
-1,
-1,
-1,
-2,
-2,
-2,
-2,
-2,
-2,
-3,
-3,
-2,
-2,
-3,
-3,
-4,
-4,
-4,
-4,
-3,
-3,
-3,
-3,
-4,
-4,
-5,
-5,
-4,
-4,
-5,
-5,
-6,
-6,
-5,
-5,
-6,
-6,
-8,
-8,
-7,
-7,
-7,
-7,
-7,
-7,
-7,
-7,
-8,
-8,
-8,
-8,
-8,
-8,
-9,
-9,
-10,
-10,
-10,
-10,
-9,
-9,
-10,
-10,
-9,
-9,
-10,
-10,
-11,
-11,
-11,
-11,
-11,
-11,
-12,
-12,
-11,
-11,
-11,
-11,
-12,
-12,
-13,
-13,
-12,
-12,
-14,
-14,
-13,
-13,
-13,
-13,
-14,
-14,
-14,
-14,
-13,
-13,
-14,
-14,
-14,
-14,
-14,
-14,
-14,
-14,
-14,
-14,
-14,
-14,
-14,
-14,
-14,
-14,
-16,
-16,
-15,
-15,
-14,
-14,
-15,
-15,
-15,
-15,
-15,
-15,
-15,
-15,
-15,
-15,
-15,
-15,
-16,
-16,
-16,
-16,
-16,
-16,
-15,
-15,
-16,
-16,
-16,
-16,
-15,
-15,
-16,
-16,
-16,
-16,
-17,
-17,
-16,
-16,
-16,
-16,
-16,
-16,
-17,
-17,
-17,
-17,
-16,
-16,
-16,
-16,
-16,
-16,
-16,
-16,
-17,
-17,
-17,
-17,
-15,
-15,
-17,
-17,
-16,
-16,
-15,
-15,
-15,
-15,
-17,
-17,
-16,
-16,
-16,
-16,
-15,
-15,
-16,
-16,
-15,
-15,
-14,
-14,
-16,
-16,
-14,
-14,
-15,
-15,
-15,
-15,
-14,
-14,
-14,
-14,
-14,
-14,
-14,
-14,
-13,
-13,
-15,
-15,
-13,
-13,
-14,
-14,
-13,
-13,
-13,
-13,
-12,
-12,
-12,
-12,
-13,
-13,
-12,
-12,
-12,
-12,
-13,
-13,
-12,
-12,
-11,
-11,
-11,
-11,
-11,
-11,
-11,
-11,
-11,
-11,
-11,
-11,
-10,
-10,
-11,
-11,
-10,
-10,
-10,
-10,
-9,
-9,
-8,
-8,
-8,
-8,
-8,
-8,
-8,
-8,
-8,
-8,
-7,
-7,
-7,
-7,
-7,
-7,
-6,
-6,
-5,
-5,
-6,
-6,
-6,
-6,
-6,
-6,
-4,
-4,
-4,
-4,
-4,
-4,
-4,
-4,
-5,
-5,
-3,
-3,
-4,
-4,
-3,
-3,
-3,
-3,
-2,
-2,
-2,
-2,
-1,
-1,
-1,
-1,
0,
0,
-1,
-1,
1,
1,
0,
0,
0,
0,
0,
0,
1,
1,
0,
0,
2,
2,
2,
2,
1,
1,
3,
3,
2,
2,
3,
3,
2,
2,
2,
2,
3,
3,
3,
3,
4,
4,
4,
4,
4,
4,
5,
5,
5,
5,
6,
6,
6,
6,
6,
6,
6,
6,
6,
6,
7,
7,
7,
7,
7,
7,
8,
8,
7,
7,
9,
9,
9,
9,
8,
8,
9,
9,
8,
8,
8,
8,
10,
10,
9,
9,
10,
10,
10,
10,
10,
10,
10,
10,
11,
11,
11,
11,
11,
11,
11,
11,
13,
13,
12,
12,
11,
11,
11,
11,
11,
11,
12,
12,
12,
12,
12,
12,
12,
12,
12,
12,
13,
13,
13,
13,
13,
13,
13,
13,
14,
14,
12,
12,
14,
14,
14,
14,
14,
14,
13,
13,
13,
13,
14,
14,
15,
15,
14,
14,
12,
12,
14,
14,
14,
14,
14,
14,
14,
14,
14,
14,
15,
15,
13,
13,
13,
13,
14,
14,
12,
12,
14,
14,
14,
14,
14,
14,
14,
14,
13,
13,
14,
14,
14,
14,
14,
14,
13,
13,
12,
12,
15,
15,
13,
13,
12,
12,
13,
13,
12,
12,
13,
13,
11,
11,
13,
13,
11,
11,
12,
12,
12,
12,
12,
12,
11,
11,
11,
11,
13,
13,
10,
10,
11,
11,
11,
11,
10,
10,
10,
10,
10,
10,
10,
10,
11,
11,
10,
10,
9,
9,
9,
9,
9,
9,
9,
9,
8,
8,
8,
8,
8,
8,
8,
8,
7,
7,
7,
7,
7,
7,
6,
6,
7,
7,
6,
6,
6,
6,
5,
5,
4,
4,
5,
5,
4,
4,
4,
4,
4,
4,
4,
4,
4,
4,
3,
3,
2,
2,
4,
4,
4,
4,
3,
3,
3,
3,
3,
3,
2,
2,
1,
1,
1,
1,
1,
1,
1,
1,
0,
0,
-1,
-1,
0,
0,
-1,
-1,
-2,
-2,
-1,
-1,
-2,
-2,
-2,
-2,
-3,
-3,
-3,
-3,
-3,
-3,
-4,
-4,
-3,
-3,
-3,
-3,
-4,
-4,
-5,
-5,
-4,
-4,
-6,
-6,
-5,
-5,
-6,
-6,
-6,
-6,
-6,
-6,
-7,
-7,
-7,
-7,
-8,
-8,
-8,
-8,
-8,
-8,
-9,
-9,
-8,
-8,
-9,
-9,
-9,
-9,
-8,
-8,
-9,
-9,
-10,
-10,
-11,
-11,
-11,
-11,
-10,
-10,
-11,
-11,
-10,
-10,
-11,
-11,
-11,
-11,
-12,
-12,
-12,
-12,
-10,
-10,
-13,
-13,
-13,
-13,
-13,
-13,
-13,
-13,
-13,
-13,
-12,
-12,
-13,
-13,
-13,
-13,
-14,
-14,
-13,
-13,
-16,
-16,
-15,
-15,
-15,
-15,
-15,
-15,
-15,
-15,
-14,
-14,
-15,
-15,
-14,
-14,
-15,
-15,
-16,
-16,
-14,
-14,
-17,
-17,
-16,
-16,
-16,
-16,
-15,
-15,
-16,
-16,
-16,
-16,
-15,
-15,
-16,
-16,
-16,
-16,
-16,
-16,
-17,
-17,
-16,
-16,
-16,
-16,
-17,
-17,
-16,
-16,
-16,
-16,
-16,
-16,
-16,
-16,
-15,
-15,
-16,
-16,
-16,
-16,
-16,
-16,
-16,
-16,
-16,
-16,
-16,
-16,
-16,
-16,
-15,
-15,
-16,
-16,
-15,
-15,
-15,
-15,
-15,
-15,
-15,
-15,
-15,
-15,
-15,
-15,
-15,
-15,
-15,
-15,
-15,
-15,
-14,
-14,
-15,
-15,
-14,
-14,
-15,
-15,
-15,
-15,
-14,
-14,
-14,
-14,
-14,
-14,
-14,
-14,
-14,
-14,
-14,
-14,
-13,
-13,
-13,
-13,
-12,
-12,
-13,
-13,
-12,
-12,
-12,
-12,
-12,
-12,
-11,
-11,
-12,
-12,
-12,
-12,
-11,
-11,
-11,
-11,
-11,
-11,
-11,
-11,
-11,
-11,
-10,
-10,
-10,
-10,
-10,
-10,
-9,
-9,
-9,
-9,
-9,
-9,
-9,
-9,
-9,
-9,
-7,
-7,
-7,
-7,
-7,
-7,
-7,
-7,
-6,
-6,
-6,
-6,
-6,
-6,
-7,
-7,
-5,
-5,
-6,
-6,
-4,
-4,
-5,
-5,
-6,
-6,
-4,
-4,
-4,
-4,
-3,
-3,
-4,
-4,
-4,
-4,
-4,
-4,
-2,
-2,
-3,
-3,
-3,
-3,
-2,
-2,
0,
0,
-1,
-1,
-1,
-1,
0,
0,
1,
1,
0,
0,
1,
1,
1,
1,
3,
3,
1,
1,
2,
2,
2,
2,
1,
1,
3,
3,
1,
1,
2,
2,
4,
4,
3,
3,
4,
4,
3,
3,
4,
4,
5,
5,
4,
4,
5,
5,
5,
5,
6,
6,
6,
6,
6,
6,
8,
8,
7,
7,
8,
8,
7,
7,
7,
7,
7,
7,
7,
7,
8,
8,
8,
8,
9,
9,
9,
9,
8,
8,
9,
9,
9,
9,
9,
9,
10,
10,
11,
11,
10,
10,
11,
11,
11,
11,
12,
12,
11,
11,
12,
12,
12,
12,
12,
12,
13,
13,
12,
12,
12,
12,
13,
13,
11,
11,
12,
12,
13,
13,
14,
14,
13,
13,
14,
14,
13,
13,
12,
12,
13,
13,
13,
13,
14,
14,
13,
13,
14,
14,
14,
14,
13,
13,
14,
14,
13,
13,
14,
14,
14,
14,
14,
14,
13,
13,
14,
14,
14,
14,
15,
15,
13,
13,
13,
13,
13,
13,
14,
14,
13,
13,
13,
13,
14,
14,
15,
15,
14,
14,
15,
15,
12,
12,
13,
13,
13,
13,
14,
14,
13,
13,
13,
13,
12,
12,
12,
12,
13,
13,
13,
13,
13,
13,
13,
13,
12,
12,
11,
11,
12,
12,
12,
12,
11,
11,
11,
11,
10,
10,
11,
11,
11,
11,
10,
10,
10,
10,
10,
10,
10,
10,
10,
10,
10,
10,
9,
9,
9,
9,
9,
9,
10,
10,
10,
10,
8,
8,
9,
9,
8,
8,
7,
7,
7,
7,
7,
7,
8,
8,
6,
6,
7,
7,
6,
6,
6,
6,
6,
6,
5,
5,
5,
5,
4,
4,
4,
4,
4,
4,
3,
3,
2,
2,
3,
3,
3,
3,
3,
3,
4,
4,
2,
2,
2,
2,
1,
1,
0,
0,
1,
1,
0,
0,
1,
1,
0,
0,
0,
0,
0,
0,
-1,
-1,
0,
0,
-1,
-1,
-2,
-2,
-2,
-2,
-1,
-1,
-1,
-1,
-3,
-3,
-3,
-3,
-3,
-3,
-3,
-3,
-4,
-4,
-4,
-4,
-5,
-5,
-5,
-5,
-7,
-7,
-4,
-4,
-6,
-6,
-5,
-5,
-8,
-8,
-7,
-7,
-6,
-6,
-7,
-7,
-8,
-8,
-8,
-8,
-7,
-7,
-9,
-9,
-9,
-9,
-9,
-9,
-10,
-10,
-9,
-9,
-11,
-11,
-11,
-11,
-10,
-10,
-11,
-11,
-11,
-11,
-11,
-11,
-11,
-11,
-12,
-12,
-11,
-11,
-12,
-12,
-12,
-12,
-12,
-12,
-13,
-13,
-13,
-13,
-12,
-12,
-12,
-12,
-13,
-13,
-13,
-13,
-13,
-13,
-14,
-14,
-14,
-14,
-15,
-15,
-14,
-14,
-14,
-14,
-13,
-13,
-15,
-15,
-14,
-14,
-16,
-16,
-14,
-14,
-15,
-15,
-15,
-15,
-15,
-15,
-16,
-16,
-15,
-15,
-16,
-16,
-16,
-16,
-15,
-15,
-15,
-15,
-15,
-15,
-16,
-16,
-16,
-16,
-16,
-16,
-15,
-15,
-16,
-16,
-17,
-17,
-16,
-16,
-16,
-16,
-16,
-16,
-16,
-16,
-16,
-16,
-16,
-16,
-16,
-16,
-17,
-17,
-15,
-15,
-16,
-16,
-16,
-16,
-16,
-16,
-17,
-17,
-16,
-16,
-16,
-16,
-16,
-16,
-15,
-15,
-15,
-15,
-16,
-16,
-15,
-15,
-16,
-16,
-15,
-15,
-15,
-15,
-14,
-14,
-15,
-15,
-15,
-15,
-15,
-15,
-14,
-14,
-15,
-15,
-15,
-15,
-14,
-14,
-13,
-13,
-15,
-15,
-13,
-13,
-13,
-13,
-15,
-15,
-13,
-13,
-12,
-12,
-12,
-12,
-12,
-12,
-11,
-11,
-12,
-12,
-11,
-11,
-12,
-12,
-10,
-10,
-11,
-11,
-11,
-11,
-10,
-10,
-11,
-11,
-11,
-11,
-10,
-10,
-10,
-10,
-9,
-9,
-9,
-9,
-9,
-9,
-9,
-9,
-9,
-9,
-9,
-9,
-7,
-7,
-7,
-7,
-8,
-8,
-5,
-5,
-7,
-7,
-6,
-6,
-7,
-7,
-6,
-6,
-5,
-5,
-5,
-5,
-5,
-5,
-4,
-4,
-4,
-4,
-2,
-2,
-1,
-1,
-3,
-3,
-2,
-2,
-3,
-3,
-3,
-3,
-3,
-3,
-2,
-2,
-1,
-1,
-1,
-1,
-1,
-1,
0,
0,
2,
2,
1,
1,
-1,
-1,
1,
1,
1,
1,
0,
0,
1,
1,
2,
2,
2,
2,
1,
1,
2,
2,
1,
1,
3,
3,
3,
3,
5,
5,
3,
3,
4,
4,
4,
4,
5,
5,
5,
5,
5,
5,
6,
6,
7,
7,
6,
6,
6,
6,
6,
6,
6,
6,
8,
8,
8,
8,
6,
6,
6,
6,
8,
8,
9,
9,
9,
9,
8,
8,
9,
9,
10,
10,
11,
11,
10,
10,
9,
9,
10,
10,
10,
10,
11,
11,
10,
10,
10,
10,
11,
11,
11,
11,
12,
12,
11,
11,
11,
11,
12,
12,
12,
12,
12,
12,
12,
12,
12,
12,
13,
13,
13,
13,
13,
13,
12,
12,
13,
13,
13,
13,
13,
13,
13,
13,
13,
13,
13,
13,
13,
13,
13,
13,
14,
14,
15,
15,
15,
15,
13,
13,
15,
15,
15,
15,
13,
13,
15,
15,
14,
14,
14,
14,
13,
13,
15,
15,
14,
14,
14,
14,
14,
14,
13,
13,
13,
13,
14,
14,
12,
12,
15,
15,
13,
13,
14,
14,
14,
14,
14,
14,
12,
12,
14,
14,
13,
13,
12,
12,
12,
12,
13,
13,
12,
12,
13,
13,
12,
12,
13,
13,
13,
13,
13,
13,
12,
12,
11,
11,
11,
11,
11,
11,
11,
11,
11,
11,
10,
10,
10,
10,
10,
10,
10,
10,
10,
10,
9,
9,
9,
9,
10,
10,
9,
9,
8,
8,
8,
8,
8,
8,
8,
8,
8,
8,
8,
8,
7,
7,
8,
8,
7,
7,
7,
7,
7,
7,
5,
5,
5,
5,
5,
5,
5,
5,
5,
5,
5,
5,
4,
4,
4,
4,
5,
5,
4,
4,
2,
2,
4,
4,
3,
3,
2,
2,
3,
3,
2,
2,
1,
1,
2,
2,
2,
2,
2,
2,
1,
1,
0,
0,
-1,
-1,
1,
1,
-1,
-1,
-1,
-1,
-1,
-1,
-2,
-2,
-2,
-2,
-2,
-2,
-2,
-2,
-3,
-3,
-3,
-3,
-3,
-3,
-4,
-4,
-4,
-4,
-4,
-4,
-5,
-5,
-5,
-5,
-5,
-5,
-5,
-5,
-5,
-5,
-6,
-6,
-5,
-5,
-7,
-7,
-7,
-7,
-7,
-7,
-7,
-7,
-8,
-8,
-8,
-8,
-7,
-7,
-9,
-9,
-8,
-8,
-9,
-9,
-10,
-10,
-10,
-10,
-10,
-10,
-10,
-10,
-11,
-11,
-10,
-10,
-11,
-11,
-11,
-11,
-11,
-11,
-12,
-12,
-11,
-11,
-11,
-11,
-12,
-12,
-12,
-12,
-12,
-12,
-13,
-13,
-12,
-12,
-12,
-12,
-14,
-14,
-14,
-14,
-13,
-13,
-13,
-13,
-14,
-14,
-14,
-14,
-15,
-15,
-14,
-14,
-16,
