5-grundlagen-opAmps/data/ALL0030/A0030CH2.CSV

Memory Length,4000,
Trigger Level,0.00000e+00,
Source,CH2,
Probe,1.0X,
Vertical Units,V,
Vertical Scale,5.00000e-02,
Vertical Position,0.00000e+00,
Horizontal Units,S,
Horizontal Scale,1.00000e-07,
Horizontal Position,1.0000000e-07,
Horizontal Mode,Main,
Sampling Period,2.00000e-09,
Firmware,V1.14,
Time, ,
Mode,Fast,
Waveform Data,
27,
27,
29,
28,
25,
26,
24,
25,
26,
24,
22,
20,
20,
20,
19,
18,
16,
15,
14,
12,
11,
11,
8,
4,
1,
3,
3,
-1,
-7,
-11,
-8,
-7,
-9,
-15,
-20,
-18,
-15,
-15,
-21,
-27,
-27,
-21,
-21,
-27,
-37,
-35,
-30,
-28,
-33,
-37,
-39,
-33,
-31,
-33,
-37,
-35,
-33,
-30,
-29,
-32,
-34,
-29,
-26,
-26,
-27,
-27,
-23,
-20,
-21,
-21,
-21,
-16,
-12,
-12,
-14,
-10,
-5,
-1,
-1,
-3,
1,
5,
8,
7,
6,
9,
12,
15,
15,
15,
16,
18,
20,
21,
23,
25,
27,
28,
27,
26,
29,
30,
27,
24,
27,
31,
31,
24,
20,
21,
26,
28,
24,
18,
15,
21,
24,
19,
11,
10,
13,
17,
15,
5,
-1,
2,
6,
6,
-4,
-9,
-10,
-6,
-5,
-8,
-15,
-18,
-17,
-15,
-14,
-19,
-23,
-23,
-24,
-23,
-25,
-29,
-29,
-31,
-30,
-26,
-27,
-30,
-35,
-33,
-29,
-26,
-28,
-31,
-31,
-28,
-23,
-22,
-25,
-28,
-25,
-19,
-16,
-20,
-23,
-21,
-14,
-11,
-12,
-14,
-12,
-6,
-3,
-1,
-1,
1,
6,
8,
8,
6,
7,
12,
15,
13,
12,
15,
19,
21,
23,
20,
22,
24,
28,
29,
27,
25,
27,
29,
31,
28,
25,
25,
26,
25,
25,
24,
20,
21,
21,
20,
18,
15,
14,
16,
16,
14,
12,
8,
6,
6,
3,
3,
0,
-6,
-7,
-6,
-6,
-10,
-15,
-17,
-14,
-13,
-14,
-19,
-26,
-24,
-21,
-21,
-26,
-32,
-35,
-30,
-26,
-30,
-36,
-38,
-34,
-30,
-33,
-35,
-37,
-33,
-31,
-30,
-30,
-32,
-32,
-26,
-25,
-27,
-27,
-25,
-22,
-21,
-23,
-21,
-17,
-16,
-15,
-14,
-13,
-7,
-4,
-3,
-3,
-1,
3,
7,
8,
4,
5,
9,
14,
15,
13,
13,
16,
19,
20,
23,
22,
23,
25,
27,
28,
27,
27,
27,
26,
26,
28,
29,
25,
21,
23,
27,
28,
23,
17,
17,
20,
23,
19,
13,
10,
12,
17,
15,
5,
-1,
1,
7,
7,
-1,
-11,
-11,
-5,
-3,
-11,
-16,
-19,
-15,
-12,
-15,
-22,
-25,
-23,
-20,
-22,
-26,
-31,
-30,
-28,
-28,
-31,
-31,
-32,
-32,
-33,
-30,
-28,
-30,
-34,
-32,
-28,
-25,
-25,
-26,
-28,
-26,
-21,
-18,
-21,
-23,
-22,
-15,
-12,
-13,
-15,
-14,
-7,
-4,
-3,
-4,
-3,
3,
7,
7,
4,
6,
11,
16,
15,
12,
12,
16,
22,
21,
16,
19,
25,
28,
30,
26,
23,
25,
31,
31,
27,
23,
25,
29,
28,
24,
20,
22,
25,
24,
21,
19,
18,
17,
18,
17,
15,
13,
9,
9,
9,
9,
6,
2,
-1,
-2,
-3,
-3,
-6,
-12,
-13,
-10,
-8,
-12,
-20,
-23,
-19,
-16,
-20,
-24,
-29,
-29,
-25,
-26,
-27,
-34,
-36,
-31,
-27,
-29,
-35,
-36,
-34,
-28,
-29,
-31,
-32,
-31,
-27,
-25,
-26,
-26,
-25,
-23,
-20,
-22,
-21,
-18,
-15,
-14,
-15,
-13,
-9,
-6,
-6,
-3,
-2,
2,
6,
5,
5,
6,
9,
12,
15,
13,
12,
15,
19,
21,
21,
22,
22,
25,
28,
29,
28,
25,
27,
29,
28,
28,
26,
27,
25,
24,
27,
27,
24,
20,
18,
22,
23,
18,
14,
13,
15,
18,
14,
8,
3,
4,
7,
7,
1,
-7,
-7,
-3,
-2,
-8,
-17,
-18,
-12,
-10,
-15,
-19,
-26,
-22,
-19,
-19,
-25,
-31,
-32,
-26,
-26,
-30,
-34,
-36,
-32,
-30,
-33,
-34,
-32,
-32,
-33,
-31,
-29,
-28,
-31,
-27,
-27,
-25,
-23,
-23,
-24,
-23,
-21,
-17,
-16,
-18,
-17,
-12,
-7,
-7,
-8,
-7,
-1,
4,
3,
3,
3,
8,
12,
13,
9,
9,
14,
19,
19,
16,
14,
21,
27,
26,
23,
20,
25,
31,
30,
28,
23,
23,
30,
32,
27,
21,
20,
26,
27,
22,
17,
16,
18,
22,
17,
17,
13,
11,
13,
11,
8,
6,
2,
1,
0,
0,
-2,
-5,
-8,
-13,
-11,
-8,
-12,
-17,
-21,
-18,
-15,
-16,
-23,
-28,
-28,
-22,
-23,
-30,
-34,
-34,
-29,
-26,
-29,
-35,
-38,
-33,
-28,
-28,
-34,
-34,
-31,
-26,
-26,
-29,
-29,
-26,
-23,
-22,
-23,
-22,
-20,
-17,
-16,
-17,
-14,
-11,
-7,
-7,
-8,
-4,
0,
4,
5,
3,
4,
10,
12,
13,
11,
11,
14,
18,
19,
19,
17,
20,
24,
27,
28,
27,
25,
26,
30,
31,
31,
26,
25,
27,
27,
27,
26,
23,
23,
23,
24,
25,
20,
16,
17,
18,
18,
16,
11,
8,
8,
12,
8,
3,
-4,
-3,
0,
-1,
-6,
-14,
-15,
-10,
-8,
-13,
-20,
-22,
-19,
-16,
-19,
-24,
-29,
-29,
-23,
-24,
-29,
-32,
-34,
-31,
-27,
-30,
-36,
-33,
-30,
-30,
-31,
-32,
-29,
-28,
-27,
-26,
-27,
-24,
-23,
-23,
-22,
-22,
-21,
-19,
-16,
-15,
-14,
-10,
-8,
-7,
-7,
-4,
0,
2,
2,
2,
5,
10,
11,
10,
10,
13,
17,
18,
16,
16,
20,
26,
28,
24,
21,
25,
31,
32,
28,
24,
25,
29,
31,
29,
23,
19,
27,
31,
26,
19,
16,
19,
25,
22,
13,
12,
12,
16,
15,
11,
6,
4,
5,
4,
3,
-3,
-7,
-7,
-7,
-7,
-9,
-11,
-14,
-16,
-17,
-13,
-16,
-22,
-25,
-25,
-21,
-21,
-29,
-33,
-34,
-29,
-24,
-30,
-37,
-38,
-34,
-27,
-28,
-33,
-36,
-33,
-26,
-26,
-31,
-33,
-29,
-23,
-23,
-24,
-25,
-23,
-20,
-18,
-17,
-18,
-15,
-10,
-9,
-10,
-7,
-3,
2,
3,
0,
3,
5,
10,
12,
8,
8,
12,
15,
17,
18,
15,
18,
25,
25,
24,
25,
26,
27,
28,
29,
28,
26,
25,
28,
28,
25,
24,
24,
23,
24,
23,
24,
19,
17,
17,
17,
19,
16,
10,
7,
11,
12,
9,
1,
-2,
-1,
2,
-1,
-6,
-13,
-12,
-7,
-7,
-13,
-20,
-21,
-16,
-13,
-18,
-26,
-27,
-26,
-23,
-25,
-33,
-35,
-31,
-31,
-29,
-31,
-35,
-35,
-32,
-29,
-30,
-35,
-32,
-29,
-28,
-29,
-29,
-28,
-25,
-25,
-23,
-22,
-22,
-21,
-18,
-15,
-15,
-14,
-13,
-9,
-7,
-7,
-3,
-1,
1,
3,
5,
6,
7,
7,
9,
14,
16,
15,
15,
16,
20,
25,
24,
22,
22,
25,
31,
31,
26,
23,
26,
32,
32,
26,
21,
22,
27,
31,
27,
19,
18,
21,
26,
24,
16,
11,
14,
19,
18,
11,
6,
5,
8,
10,
5,
-1,
-4,
-4,
-3,
-4,
-10,
-13,
-13,
-13,
-13,
-15,
-17,
-20,
-21,
-23,
-20,
-22,
-26,
-31,
-32,
-28,
-26,
-30,
-33,
-37,
-31,
-31,
-29,
-31,
-36,
-33,
-26,
-25,
-29,
-33,
-31,
-25,
-21,
-23,
-25,
-25,
-21,
-19,
-17,
-19,
-15,
-12,
-10,
-9,
-10,
-6,
-3,
0,
0,
1,
5,
9,
9,
8,
8,
10,
16,
17,
16,
15,
17,
23,
25,
24,
22,
24,
30,
32,
28,
27,
27,
29,
29,
28,
27,
25,
24,
25,
25,
24,
22,
20,
17,
18,
19,
18,
18,
15,
11,
13,
14,
11,
5,
0,
1,
3,
3,
-5,
-10,
-9,
-6,
-5,
-10,
-18,
-18,
-14,
-13,
-15,
-24,
-27,
-23,
-22,
-24,
-33,
-35,
-31,
-27,
-31,
-34,
-35,
-33,
-31,
-31,
-32,
-34,
-34,
-30,
-28,
-30,
-31,
-26,
-25,
-25,
-25,
-26,
-23,
-20,
-19,
-19,
-19,
-16,
-13,
-11,
-8,
-7,
-6,
-3,
0,
2,
3,
6,
5,
6,
7,
11,
14,
13,
13,
15,
18,
21,
18,
18,
19,
25,
30,
29,
25,
22,
28,
33,
32,
26,
20,
25,
31,
29,
26,
19,
18,
23,
27,
24,
16,
11,
15,
20,
19,
12,
5,
6,
11,
12,
5,
-1,
-3,
-3,
-1,
-4,
-9,
-12,
-13,
-11,
-11,
-15,
-19,
-19,
-20,
-19,
-21,
-22,
-26,
-29,
-27,
-28,
-29,
-30,
-35,
-35,
-30,
-29,
-33,
-33,
-35,
-33,
-31,
-27,
-30,
-32,
-33,
-27,
-23,
-25,
-27,
-26,
-22,
-19,
-20,
-21,
-19,
-15,
-12,
-12,
-12,
-10,
-6,
-2,
0,
-1,
1,
6,
10,
7,
5,
8,
13,
17,
15,
13,
14,
19,
23,
23,
20,
21,
25,
31,
31,
24,
25,
27,
31,
30,
25,
25,
24,
25,
26,
24,
22,
20,
21,
22,
19,
18,
17,
16,
14,
12,
13,
13,
9,
5,
2,
5,
4,
0,
-7,
-9,
-6,
-5,
-9,
-16,
-19,
-14,
-13,
-14,
-21,
-26,
-23,
-18,
-21,
-28,
-35,
-32,
-25,
-27,
-31,
-36,
-34,
-29,
-31,
-35,
-36,
-32,
-31,
-29,
-30,
-32,
-29,
-24,
-24,
-27,
-30,
-24,
-19,
-19,
-20,
-22,
-20,
-14,
-13,
-13,
-12,
-8,
-5,
-1,
0,
1,
1,
4,
8,
8,
9,
10,
11,
12,
15,
16,
18,
19,
17,
20,
25,
26,
27,
26,
23,
26,
33,
31,
27,
22,
27,
32,
31,
24,
18,
19,
26,
28,
21,
16,
15,
20,
24,
20,
12,
6,
9,
14,
15,
6,
1,
0,
3,
3,
-4,
-9,
-12,
-10,
-7,
-8,
-14,
-17,
-20,
-17,
-16,
-19,
-23,
-25,
-26,
-24,
-25,
-26,
-29,
-32,
-31,
-30,
-28,
-31,
-35,
-34,
-30,
-28,
-29,
-32,
-33,
-30,
-26,
-24,
-26,
-27,
-26,
-22,
-19,
-19,
-22,
-19,
-16,
-14,
-13,
-14,
-10,
-7,
-3,
-4,
-1,
-1,
2,
7,
5,
6,
7,
11,
15,
13,
12,
14,
18,
22,
23,
19,
20,
25,
29,
29,
26,
22,
27,
31,
33,
27,
24,
25,
27,
26,
25,
23,
22,
23,
24,
24,
19,
18,
17,
18,
17,
15,
13,
11,
9,
7,
5,
5,
1,
-3,
-5,
-4,
-4,
-7,
-12,
-15,
-12,
-11,
-13,
-17,
-22,
-21,
-19,
-19,
-25,
-30,
-31,
-26,
-26,
-30,
-34,
-34,
-29,
-30,
-34,
-36,
-35,
-29,
-27,
-31,
-35,
-31,
-26,
-24,
-27,
-30,
-27,
-21,
-18,
-22,
-24,
-21,
-16,
-11,
-13,
-14,
-13,
-7,
-3,
-2,
-4,
-2,
1,
6,
7,
6,
5,
9,
14,
15,
14,
15,
15,
17,
20,
24,
24,
24,
25,
25,
27,
28,
29,
26,
24,
25,
29,
31,
24,
20,
21,
27,
29,
23,
14,
13,
20,
24,
19,
11,
8,
12,
17,
16,
6,
0,
1,
5,
5,
-1,
-11,
-10,
-7,
-7,
-11,
-15,
-18,
-15,
-15,
-16,
-20,
-22,
-24,
-24,
-25,
-26,
-30,
-31,
-30,
-31,
-31,
-31,
-32,
-33,
-35,
-33,
-29,
-30,
-33,
-33,
-30,
-26,
-26,
-27,
-29,
-28,
-25,
-21,
-22,
-23,
-22,
-17,
-14,
-16,
-17,
-15,
-9,
-7,
-8,
-5,
-2,
2,
5,
5,
4,
6,
11,
13,
11,
10,
12,
17,
20,
20,
17,
19,
24,
28,
28,
25,
24,
26,
29,
32,
27,
24,
25,
28,
28,
26,
23,
22,
24,
24,
23,
20,
18,
18,
17,
17,
16,
13,
11,
11,
10,
10,
5,
2,
0,
-3,
-4,
-3,
-7,
-10,
-12,
-12,
-10,
-12,
-18,
-18,
-18,
-18,
-19,
-23,
-26,
-27,
-26,
-25,
-27,
-32,
-32,
-32,
-28,
-30,
-35,
-35,
-31,
-29,
-32,
-31,
-30,
-28,
-27,
-27,
-29,
-26,
-23,
-20,
-21,
-25,
-23,
-18,
-13,
-15,
-18,
-16,
-9,
-2,
-3,
-5,
-5,
1,
7,
9,
5,
3,
6,
14,
16,
13,
12,
14,
18,
22,
24,
21,
22,
24,
27,
29,
31,
26,
27,
26,
29,
29,
28,
27,
23,
24,
28,
28,
24,
18,
17,
24,
25,
22,
12,
11,
15,
21,
15,
9,
2,
3,
11,
9,
0,
-8,
-9,
-3,
0,
-8,
-17,
-16,
-13,
-11,
-15,
-21,
-24,
-20,
-19,
-21,
-25,
-28,
-27,
-29,
-28,
-31,
-34,
-31,
-30,
-31,
-33,
-32,
-30,
-31,
-34,
-32,
-28,
-27,
-28,
-30,
-27,
-25,
-24,
-22,
-23,
-23,
-20,
-16,
-16,
-17,
-16,
-11,
-7,
-9,
-7,
-5,
1,
4,
2,
2,
4,
9,
12,
11,
7,
10,
15,
20,
17,
15,
16,
22,
27,
27,
25,
24,
25,
31,
30,
27,
23,
24,
29,
30,
25,
20,
21,
27,
25,
22,
18,
18,
19,
19,
17,
17,
15,
12,
12,
10,
9,
7,
2,
1,
0,
0,
-3,
-5,
-10,
-12,
-10,
-9,
-12,
-17,
-19,
-18,
-16,
-18,
-23,
-26,
-27,
-25,
-26,
-29,
-30,
-32,
-31,
-31,
-30,
-34,
-35,
-32,
-29,
-31,
-33,
-31,
-28,
-27,
-30,
-30,
-27,
-23,
-24,
-24,
-26,
-22,
-19,
-16,
-16,
-18,
-17,
-10,
-7,
-6,
-8,
-7,
-1,
5,
5,
4,
2,
6,
12,
14,
12,
10,
12,
17,
20,
20,
18,
19,
23,
26,
30,
28,
26,
25,
27,
31,
31,
26,
25,
26,
27,
28,
27,
25,
22,
22,
25,
26,
22,
16,
13,
18,
20,
18,
10,
6,
7,
12,
9,
3,
-4,
-6,
-2,
0,
-5,
-14,
-17,
-11,
-7,
-12,
-21,
-23,
-20,
-15,
-19,
-24,
-29,
-26,
-24,
-26,
-29,
-35,
-33,
-30,
-30,
-31,
-35,
-33,
-28,
-28,
-33,
-30,
-30,
-27,
-27,
-29,
-27,
-23,
-23,
-23,
-22,
-21,
-20,
-17,
-16,
-16,
-14,
-13,
-9,
-8,
-6,
-2,
1,
2,
1,
2,
7,
11,
9,
7,
9,
13,
17,
18,
14,
15,
20,
27,
26,
22,
20,
26,
32,
32,
26,
23,
24,
29,
30,
27,
22,
22,
27,
29,
25,
19,
17,
19,
22,
18,
15,
15,
15,
15,
13,
10,
7,
6,
4,
2,
1,
-1,
-5,
-7,
-8,
-8,
-8,
-10,
-14,
-18,
-17,
-15,
-16,
-20,
-25,
-25,
-22,
-23,
-29,
-32,
-32,
-30,
-27,
-31,
-32,
-35,
-33,
-31,
-30,
-32,
-33,
-31,
-29,
-30,
-31,
-29,
-26,
-24,
-25,
-26,
-24,
-19,
-19,
-19,
-20,
-18,
-12,
-10,
-10,
-12,
-9,
-4,
3,
4,
0,
1,
6,
11,
11,
9,
7,
10,
17,
19,
18,
17,
17,
23,
26,
27,
25,
24,
25,
27,
30,
29,
26,
24,
27,
29,
31,
25,
20,
24,
24,
26,
25,
19,
17,
18,
18,
21,
17,
12,
11,
11,
14,
10,
3,
0,
-1,
2,
0,
-5,
-10,
-12,
-9,
-7,
-12,
-17,
-20,
-17,
-14,
-18,
-23,
-26,
-25,
-22,
-25,
-32,
-35,
-30,
-30,
-29,
-32,
-34,
-35,
-31,
-28,
-31,
-33,
-30,
-28,
-27,
-30,
-31,
-27,
-24,
-23,
-23,
-25,
-22,
-20,
-17,
-16,
-16,
-15,
-12,
-9,
-8,
-5,
-3,
-1,
0,
1,
5,
7,
7,
7,
8,
14,
17,
15,
13,
14,
19,
25,
26,
21,
19,
25,
32,
33,
25,
21,
25,
32,
33,
26,
22,
20,
27,
30,
27,
19,
18,
21,
26,
22,
15,
12,
16,
18,
16,
10,
7,
7,
9,
7,
1,
-1,
-2,
-5,
-6,
-7,
-8,
-10,
-11,
-15,
-17,
-17,
-14,
-18,
-22,
-24,
-22,
-21,
-23,
-31,
-34,
-29,
-26,
-31,
-33,
-35,
-32,
-31,
-30,
-32,
-32,
-33,
-30,
-28,
-30,
-33,
-27,
-26,
-25,
-26,
-26,
-22,
-19,
-21,
-22,
-20,
-14,
-12,
-13,
-14,
-12,
-4,
0,
0,
-3,
-2,
5,
10,
11,
5,
5,
11,
17,
17,
15,
13,
15,
20,
26,
24,
21,
23,
27,
31,
28,
27,
25,
26,
27,
28,
28,
24,
22,
25,
26,
26,
25,
18,
17,
18,
20,
20,
17,
12,
11,
12,
15,
11,
6,
1,
2,
4,
1,
-7,
-9,
-9,
-6,
-7,
-12,
-16,
-17,
-13,
-13,
-16,
-22,
-25,
-22,
-20,
-25,
-32,
-32,
-29,
-27,
-27,
-34,
-35,
-32,
-31,
-30,
-31,
-33,
-33,
-30,
-28,
-30,
-33,
-30,
-25,
-23,
-25,
-25,
-24,
-20,
-18,
-18,
-17,
-17,
-14,
-10,
-7,
-7,
-7,
-6,
-1,
2,
5,
6,
5,
6,
9,
12,
14,
12,
12,
14,
19,
22,
20,
19,
20,
25,
31,
30,
26,
22,
26,
32,
33,
27,
20,
22,
27,
28,
25,
19,
18,
23,
25,
24,
17,
12,
15,
19,
19,
13,
7,
7,
11,
10,
5,
-1,
-1,
0,
-3,
-5,
-10,
-11,
-12,
-12,
-13,
-15,
-15,
-15,
-19,
-22,
-22,
-22,
-22,
-28,
-31,
-31,
-27,
-27,
-32,
-34,
-33,
-30,
-29,
-32,
-36,
-34,
-31,
-29,
-29,
-31,
-32,
-26,
-25,
-25,
-25,
-24,
-21,
-20,
-23,
-22,
-17,
-14,
-14,
-15,
-13,
-7,
-3,
0,
-3,
-4,
1,
7,
8,
4,
3,
7,
15,
17,
13,
11,
14,
20,
25,
24,
19,
20,
26,
31,
28,
23,
25,
27,
31,
28,
26,
25,
24,
26,
25,
24,
23,
22,
20,
20,
19,
19,
17,
15,
13,
15,
14,
12,
7,
4,
4,
6,
4,
-3,
-7,
-7,
-4,
-5,
-12,
-15,
-16,
-13,
-12,
-14,
-21,
-22,
-19,
-19,
-24,
-30,
-32,
-27,
-25,
-28,
-33,
-36,
-32,
-28,
-33,
-35,
-36,
-31,
-27,
-29,
-31,
-34,
-31,
-24,
-23,
-28,
-28,
-25,
-21,
-18,
-21,
-22,
-21,
-16,
-12,
-10,
-10,
-10,
-7,
-3,
0,
2,
1,
2,
4,
8,
11,
11,
10,
10,
14,
18,
20,
18,
16,
18,
25,
29,
28,
25,
23,
26,
32,
33,
27,
22,
25,
30,
32,
25,
19,
19,
25,
28,
24,
18,
15,
18,
21,
20,
15,
9,
9,
14,
14,
6,
1,
0,
2,
2,
-3,
-7,
-9,
-10,
-7,
-10,
-13,
-15,
-17,
-16,
-18,
-20,
-20,
-22,
-24,
-26,
-27,
-26,
-27,
-30,
-33,
-33,
-30,
-28,
-32,
-33,
-35,
-30,
-29,
-27,
-29,
-31,
-29,
-25,
-25,
-25,
-26,
-24,
-21,
-21,
-21,
-18,
-16,
-15,
-14,
-13,
-9,
-7,
-5,
-4,
-3,
1,
7,
7,
5,
5,
7,
13,
15,
13,
9,
13,
18,
23,
20,
18,
20,
26,
30,
30,
24,
21,
28,
31,
32,
26,
24,
27,
28,
27,
24,
21,
23,
23,
24,
20,
19,
18,
17,
18,
16,
15,
13,
10,
7,
6,
7,
5,
1,
-4,
-5,
-4,
-5,
-7,
-13,
-15,
-12,
-12,
-17,
-19,
-21,
-19,
-18,
-21,
-27,
-30,
-29,
-25,
-27,
-32,
-34,
-32,
-29,
-31,
-37,
-37,
-32,
-28,
-29,
-33,
-34,
-30,
-25,
-24,
-29,
-30,
-27,
-21,
-17,
-23,
-25,
-22,
-17,
-12,
-15,
-16,
-15,
-9,
-2,
-2,
-2,
-1,
1,
5,
7,
7,
8,
9,
10,
13,
16,
16,
16,
16,
17,
24,
26,
24,
23,
25,
31,
32,
31,
26,
23,
26,
31,
33,
26,
19,
20,
27,
31,
24,
15,
14,
19,
24,
20,
15,
10,
12,
15,
15,
6,
2,
2,
5,
4,
0,
-7,
-8,
-7,
-7,
-11,
-14,
-15,
-16,
-16,
-15,
-19,
-20,
-22,
-24,
-24,
-26,
-27,
-27,
-29,
-30,
-32,
-31,
-30,
-32,
-35,
-35,
-31,
-30,
-31,
-32,
-31,
-30,
-28,
-26,
-25,
-27,
-26,
-23,
-22,
-21,
-21,
-19,
-16,
-17,
-15,
-13,
-9,
-7,
-8,
-6,
-1,
3,
4,
3,
2,
6,
11,
13,
11,
9,
12,
18,
20,
20,
17,
18,
24,
28,
27,
25,
23,
25,
30,
32,
27,
24,
25,
29,
28,
24,
20,
21,
25,
25,
20,
19,
18,
19,
17,
17,
14,
13,
11,
11,
10,
6,
5,
5,
2,
-1,
-5,
-5,
-6,
-9,
-12,
-14,
-12,
-13,
-17,
-17,
-19,
-19,
-22,
-24,
-25,
-26,
-26,
-26,
-29,
-32,
-31,
-31,
-30,
-34,
-36,
-34,
-29,
-29,
-35,
-34,
-30,
-24,
-25,
-31,
-32,
-28,
-22,
-19,
-24,
-28,
-25,
-16,
-11,
-14,
-19,
-18,
-8,
-3,
-4,
-6,
-6,
0,
6,
7,
5,
3,
7,
13,
15,
14,
12,
14,
16,
19,
23,
24,
23,
23,
25,
28,
31,
28,
25,
24,
27,
32,
30,
27,
22,
22,
27,
30,
25,
18,
17,
22,
26,
22,
13,
11,
15,
19,
16,
9,
3,
5,
9,
8,
1,
-6,
-6,
-3,
-4,
-8,
-13,
-13,
-11,
-12,
-17,
-19,
-19,
-19,
-21,
-23,
-25,
-25,
-26,
-29,
-29,
-31,
-31,
-31,
-31,
-32,
-35,
-32,
-29,
-30,
-33,
-32,
-29,
-28,
-31,
-28,
-27,
-26,
-25,
-21,
-22,
-21,
-21,
-19,
-17,
-16,
-13,
-12,
-9,
-9,
-7,
-3,
1,
3,
1,
2,
5,
10,
11,
9,
8,
12,
17,
19,
17,
15,
17,
23,
27,
26,
23,
24,
27,
32,
31,
27,
25,
26,
29,
31,
26,
22,
23,
25,
25,
22,
19,
18,
19,
20,
17,
16,
15,
14,
12,
11,
9,
6,
5,
3,
1,
0,
-4,
-5,
-7,
-10,
-11,
-12,
-12,
-14,
-17,
-19,
-17,
-18,
-22,
-23,
-24,
-25,
-29,
-30,
-29,
-30,
-31,
-32,
-32,
-32,
-32,
-31,
-31,
-33,
-35,
-31,
-26,
-28,
-33,
-32,
-27,
-22,
-21,
-25,
-27,
-25,
-19,
-13,
-17,
-21,
-20,
-13,
-4,
-6,
-11,
-11,
-3,
5,
6,
3,
0,
4,
12,
15,
13,
9,
11,
16,
20,
21,
18,
19,
23,
26,
27,
28,
27,
25,
27,
30,
31,
27,
25,
25,
24,
26,
28,
26,
20,
19,
24,
25,
22,
16,
11,
15,
19,
17,
9,
5,
6,
10,
7,
2,
-4,
-5,
-1,
-1,
-6,
-14,
-15,
-10,
-9,
-14,
-20,
-20,
-17,
-16,
-21,
-26,
-26,
-24,
-24,
-27,
-32,
-32,
-31,
-30,
-32,
-36,
-35,
-31,
-29,
-31,
-35,
-33,
-29,
-27,
-31,
-30,
-27,
-24,
-24,
-23,
-24,
-22,
-20,
-17,
-15,
-16,
-14,
-10,
-11,
-9,
-6,
-2,
0,
1,
0,
3,
9,
10,
9,
7,
10,
15,
18,
17,
15,
16,
24,
26,
24,
21,
20,
28,
32,
28,
25,
23,
27,
31,
29,
27,
23,
23,
27,
27,
24,
20,
19,
20,
21,
19,
16,
17,
16,
13,
12,
10,
9,
9,
5,
3,
1,
0,
-4,
-5,
-8,
-10,
-9,
-10,
-12,
-16,
-18,
-15,
-16,
-18,
-23,
-23,
-25,
-26,
-31,
-30,
-29,
-30,
-31,
-33,
-32,
-31,
-33,
-33,
-34,
-32,
-31,
-27,
-29,
-31,
-32,
-26,
-22,
-22,
-28,
-29,
-24,
-19,
-18,
-18,
-21,
-19,
-11,
-7,
-9,
-13,
-12,
-5,
3,
5,
0,
-3,
2,
10,
12,
11,
7,
9,
15,
19,
20,
16,
16,
19,
26,
26,
25,
24,
24,
27,
30,
30,
27,
26,
27,
29,
28,
26,
24,
22,
24,
24,
24,
21,
18,
16,
18,
21,
18,
12,
8,
9,
14,
11,
4,
0,
-2,
2,
0,
-5,
-12,
-14,
-10,
-8,
-12,
-17,
-20,
-16,
-14,
-18,
-24,
-26,
-22,
-21,
-26,
-32,
-34,
-29,
-28,
-31,
-35,
-36,
-32,
-29,
-29,
-33,
-35,
-31,
-27,
-28,
-32,
-31,
-27,
-22,
-23,
-24,
-24,
-22,
-20,
-18,
-18,
-17,
-15,
-12,
-9,
-8,
-6,
-3,
-1,
-1,
1,
5,
7,
7,
6,
8,
14,
16,
15,
14,
14,
20,
25,
25,
20,
20,
25,
31,
32,
24,
23,
26,
33,
33,
25,
23,
24,
26,
28,
25,
20,
20,
24,
24,
19,
16,
15,
18,
16,
13,
9,
10,
11,
8,
3,
0,
0,
1,
-3,
-7,
-9,
-8,
-8,
-9,
-15,
-18,
-16,
-14,
-15,
-21,
-23,
-24,
-22,
-24,
-28,
-30,
-30,
-30,
-31,
-33,
-31,
-32,
-34,
-33,
-33,
-31,
-31,
-31,
-31,
-30,
-28,
-24,
-25,
-28,
-27,
-24,
-19,
-19,
-24,
-24,
-18,
-12,
-8,
-11,
-15,
-12,
-4,
1,
2,
-3,
-3,
3,
10,
11,
6,
5,
9,
16,
17,
15,
12,
13,
20,
26,
24,
23,
23,
26,
27,
29,
27,
26,
26,
27,
29,
29,
27,
22,
24,
26,
26,
24,
20,
18,
19,
21,
20,
18,
14,
11,
12,
13,
10,
6,
1,
1,
4,
2,
-5,
-8,
-9,
-7,
-8,
-12,
-16,
-17,
-15,
-13,
-17,
-23,
-25,
-23,
-21,
-23,
-31,
-32,
-28,
-27,
-31,
-34,
-35,
-31,
-31,
-31,
-32,
-36,
-31,
-29,
-27,
-30,
-34,
-31,
-25,
-21,
-25,
-28,
-25,
-21,
-19,
-18,
-20,
-18,
-15,
-12,
-9,
-8,
-7,
-5,
-1,
1,
3,
5,
5,
6,
8,
12,
14,
13,
12,
14,
19,
22,
21,
19,
20,
24,
29,
30,
26,
22,
26,
30,
32,
27,
20,
25,
28,
28,
25,
20,
21,
23,
25,
24,
16,
16,
17,
19,
17,
12,
11,
13,
12,
8,
3,
0,
3,
2,
-4,
-7,
-6,
-6,
-7,
-13,
-16,
-16,
-14,
-14,
-18,
-23,
-24,
-21,
-21,
-25,
-32,
-33,
-28,
-27,
-31,
-34,
-35,
-32,
-32,
-32,
-31,
-31,
-33,
-30,
-29,
-28,
-27,
-26,
-29,
-27,
-25,
-21,
-20,
-23,
-25,
-22,
-15,
-11,
-15,
-17,
-14,
-6,
0,
-2,
-6,
-5,
3,
11,
10,
5,
2,
9,
16,
18,
13,
10,
15,
21,
25,
24,
20,
20,
26,
30,
30,
26,
25,
27,
30,
28,
27,
25,
24,
25,
26,
26,
23,
21,
19,
20,
20,
20,
17,
17,
14,
16,
14,
12,
8,
5,
5,
6,
3,
-1,
-6,
-7,
-3,
-6,
-12,
-13,
-13,
-14,
-13,
-17,
-20,
-21,
-20,
-20,
-24,
-29,
-31,
-27,
-26,
-30,
-35,
-36,
-29,
-29,
-33,
-35,
-36,
-32,
-28,
-28,
-31,
-33,
-31,
-24,
-22,
-26,
-28,
-28,
-21,
-18,
-20,
-21,
-21,
-17,
-12,
-11,
-10,
-10,
-8,
-3,
0,
0,
1,
2,
4,
9,
9,
10,
10,
10,
13,
16,
18,
19,
17,
19,
24,
26,
27,
27,
25,
25,
