5-grundlagen-opAmps/data/ALL0030/A0030CH1.CSV

Memory Length,4000,
Trigger Level,0.00000e+00,
Source,CH1,
Probe,1.0X,
Vertical Units,V,
Vertical Scale,5.00000e-02,
Vertical Position,0.00000e+00,
Horizontal Units,S,
Horizontal Scale,1.00000e-07,
Horizontal Position,1.0000000e-07,
Horizontal Mode,Main,
Sampling Period,2.00000e-09,
Firmware,V1.14,
Time, ,
Mode,Fast,
Waveform Data,
-15,
-15,
-15,
-14,
-16,
-19,
-23,
-22,
-19,
-18,
-24,
-29,
-27,
-27,
-25,
-26,
-32,
-31,
-30,
-31,
-28,
-29,
-28,
-32,
-33,
-28,
-23,
-24,
-28,
-30,
-26,
-21,
-16,
-20,
-26,
-24,
-16,
-8,
-12,
-20,
-20,
-11,
0,
-1,
-8,
-13,
-6,
4,
8,
3,
-4,
-1,
10,
14,
11,
7,
7,
13,
17,
16,
14,
15,
18,
18,
19,
18,
21,
22,
23,
21,
19,
21,
23,
20,
18,
17,
21,
22,
18,
14,
12,
16,
19,
16,
11,
6,
7,
8,
9,
7,
1,
0,
0,
1,
-2,
-4,
-5,
-9,
-12,
-13,
-8,
-7,
-15,
-23,
-21,
-16,
-13,
-19,
-27,
-31,
-23,
-17,
-24,
-29,
-36,
-32,
-21,
-19,
-30,
-40,
-36,
-25,
-19,
-26,
-36,
-36,
-27,
-20,
-19,
-27,
-31,
-29,
-20,
-13,
-18,
-23,
-25,
-18,
-11,
-10,
-10,
-15,
-14,
-8,
-1,
1,
-4,
-7,
-2,
5,
11,
7,
0,
2,
9,
16,
19,
12,
6,
10,
20,
25,
18,
12,
14,
21,
27,
25,
18,
16,
19,
25,
24,
19,
15,
17,
21,
21,
17,
13,
15,
17,
16,
14,
12,
9,
9,
8,
8,
4,
2,
3,
4,
0,
-3,
-6,
-4,
-5,
-7,
-13,
-15,
-13,
-12,
-13,
-19,
-23,
-22,
-20,
-19,
-20,
-27,
-29,
-25,
-24,
-23,
-28,
-34,
-32,
-27,
-26,
-27,
-31,
-34,
-31,
-27,
-25,
-27,
-30,
-29,
-24,
-19,
-20,
-24,
-27,
-23,
-16,
-12,
-13,
-19,
-20,
-12,
-3,
-3,
-10,
-12,
-9,
3,
6,
4,
-3,
-3,
5,
13,
13,
5,
4,
11,
18,
18,
13,
11,
15,
21,
22,
17,
17,
18,
22,
24,
20,
21,
19,
21,
20,
18,
19,
23,
21,
14,
12,
16,
17,
18,
13,
7,
8,
12,
12,
9,
1,
-1,
1,
4,
3,
-4,
-8,
-5,
-5,
-7,
-11,
-13,
-13,
-17,
-17,
-14,
-15,
-19,
-25,
-26,
-23,
-17,
-20,
-32,
-35,
-28,
-20,
-20,
-31,
-39,
-38,
-27,
-18,
-25,
-37,
-40,
-28,
-17,
-20,
-32,
-36,
-28,
-17,
-14,
-20,
-29,
-25,
-13,
-9,
-11,
-18,
-19,
-11,
-3,
-3,
-6,
-8,
-6,
0,
4,
8,
2,
0,
3,
8,
14,
14,
11,
7,
11,
18,
21,
19,
13,
11,
20,
27,
21,
15,
13,
20,
28,
25,
18,
14,
19,
24,
24,
18,
13,
14,
19,
19,
13,
8,
11,
14,
12,
6,
4,
4,
7,
4,
-2,
-4,
-3,
-1,
0,
-6,
-13,
-16,
-10,
-8,
-13,
-19,
-24,
-19,
-17,
-18,
-22,
-27,
-26,
-24,
-22,
-24,
-29,
-32,
-32,
-27,
-23,
-27,
-33,
-34,
-29,
-24,
-24,
-28,
-32,
-31,
-25,
-17,
-21,
-28,
-30,
-23,
-15,
-13,
-19,
-24,
-20,
-12,
-5,
-7,
-13,
-14,
-6,
1,
2,
-1,
-5,
-1,
6,
10,
11,
4,
5,
9,
16,
19,
13,
9,
13,
19,
22,
19,
16,
17,
18,
24,
24,
20,
19,
18,
21,
21,
21,
19,
20,
19,
15,
17,
18,
17,
15,
9,
10,
12,
12,
8,
4,
2,
3,
6,
3,
-1,
-6,
-7,
-3,
-3,
-8,
-14,
-16,
-12,
-11,
-14,
-18,
-23,
-24,
-22,
-19,
-19,
-25,
-29,
-30,
-27,
-23,
-24,
-31,
-36,
-31,
-27,
-24,
-27,
-38,
-36,
-28,
-19,
-22,
-32,
-36,
-29,
-15,
-15,
-25,
-31,
-27,
-14,
-7,
-12,
-22,
-23,
-13,
-2,
-2,
-10,
-13,
-6,
1,
3,
1,
-2,
1,
5,
9,
10,
9,
8,
11,
15,
15,
17,
17,
15,
17,
18,
23,
21,
18,
16,
19,
25,
25,
19,
15,
17,
23,
24,
19,
13,
14,
19,
21,
16,
10,
10,
13,
16,
8,
1,
5,
9,
10,
2,
-8,
-6,
1,
3,
-3,
-13,
-15,
-9,
-4,
-9,
-19,
-23,
-18,
-11,
-15,
-24,
-29,
-27,
-17,
-20,
-26,
-33,
-31,
-27,
-26,
-24,
-31,
-35,
-33,
-28,
-25,
-26,
-31,
-33,
-29,
-25,
-20,
-20,
-28,
-32,
-25,
-15,
-15,
-21,
-27,
-19,
-10,
-6,
-9,
-17,
-15,
-8,
2,
1,
-8,
-9,
-3,
8,
11,
4,
0,
2,
12,
16,
14,
12,
10,
12,
19,
20,
18,
15,
17,
20,
21,
23,
21,
19,
19,
19,
22,
21,
20,
17,
17,
18,
19,
19,
16,
12,
12,
13,
16,
13,
10,
5,
5,
8,
6,
4,
-1,
-3,
-4,
-3,
0,
-4,
-11,
-15,
-13,
-8,
-11,
-16,
-24,
-24,
-19,
-18,
-20,
-24,
-29,
-27,
-24,
-21,
-27,
-34,
-33,
-30,
-22,
-26,
-32,
-35,
-34,
-26,
-22,
-26,
-32,
-34,
-28,
-18,
-18,
-26,
-31,
-27,
-17,
-12,
-15,
-22,
-21,
-14,
-4,
-5,
-11,
-15,
-9,
1,
1,
-1,
-4,
-1,
7,
6,
9,
5,
6,
10,
14,
16,
11,
13,
16,
19,
19,
17,
20,
20,
19,
18,
18,
21,
22,
19,
19,
20,
21,
20,
20,
19,
17,
18,
16,
15,
14,
14,
14,
9,
6,
5,
9,
10,
2,
-2,
-3,
1,
3,
-4,
-11,
-12,
-7,
-2,
-8,
-16,
-22,
-16,
-9,
-11,
-23,
-32,
-27,
-15,
-16,
-25,
-36,
-34,
-24,
-19,
-24,
-36,
-36,
-32,
-25,
-24,
-30,
-34,
-32,
-28,
-23,
-25,
-27,
-31,
-27,
-21,
-19,
-17,
-22,
-25,
-20,
-12,
-7,
-14,
-20,
-16,
-7,
1,
1,
-8,
-11,
-5,
7,
11,
3,
-4,
0,
11,
17,
13,
7,
5,
15,
19,
20,
16,
14,
17,
22,
23,
18,
18,
19,
23,
22,
19,
22,
20,
20,
17,
17,
20,
20,
18,
13,
12,
13,
17,
16,
8,
5,
6,
11,
12,
4,
-2,
-3,
0,
2,
-2,
-5,
-11,
-11,
-11,
-9,
-10,
-16,
-19,
-20,
-17,
-15,
-20,
-25,
-27,
-26,
-22,
-21,
-27,
-32,
-35,
-27,
-23,
-25,
-33,
-38,
-32,
-23,
-22,
-29,
-35,
-31,
-25,
-20,
-20,
-28,
-31,
-24,
-15,
-15,
-20,
-25,
-19,
-12,
-9,
-10,
-15,
-13,
-7,
0,
0,
-4,
-6,
-4,
5,
8,
5,
5,
4,
9,
12,
13,
14,
11,
12,
16,
19,
17,
16,
19,
20,
20,
19,
19,
21,
23,
21,
21,
19,
19,
20,
21,
19,
15,
16,
17,
17,
14,
11,
11,
11,
12,
9,
7,
4,
0,
2,
4,
1,
-6,
-10,
-6,
-4,
-3,
-11,
-19,
-17,
-13,
-9,
-12,
-23,
-28,
-25,
-13,
-15,
-24,
-34,
-35,
-23,
-17,
-24,
-35,
-37,
-27,
-20,
-24,
-31,
-39,
-33,
-24,
-18,
-26,
-36,
-32,
-24,
-19,
-20,
-25,
-27,
-23,
-17,
-12,
-12,
-16,
-20,
-14,
-8,
-4,
-4,
-9,
-9,
-3,
2,
8,
3,
-2,
0,
11,
17,
11,
4,
4,
14,
21,
19,
12,
9,
15,
23,
24,
17,
14,
17,
23,
27,
21,
17,
19,
20,
21,
19,
18,
20,
19,
18,
15,
13,
15,
16,
14,
9,
6,
9,
12,
8,
0,
-2,
3,
4,
0,
-8,
-10,
-7,
-4,
-6,
-12,
-16,
-17,
-16,
-14,
-17,
-21,
-24,
-24,
-23,
-22,
-24,
-27,
-30,
-30,
-29,
-25,
-24,
-30,
-36,
-33,
-27,
-22,
-28,
-34,
-34,
-25,
-20,
-24,
-29,
-31,
-24,
-16,
-15,
-23,
-27,
-21,
-11,
-9,
-14,
-19,
-15,
-7,
-2,
-4,
-8,
-6,
-2,
4,
4,
3,
2,
5,
11,
11,
8,
11,
12,
15,
14,
16,
17,
17,
18,
18,
20,
19,
20,
20,
20,
21,
20,
20,
20,
20,
20,
19,
17,
15,
18,
19,
16,
12,
9,
12,
15,
12,
6,
3,
4,
8,
7,
3,
-4,
-8,
-5,
3,
-1,
-11,
-18,
-16,
-8,
-7,
-15,
-25,
-27,
-18,
-14,
-18,
-26,
-32,
-29,
-20,
-17,
-27,
-38,
-36,
-28,
-18,
-22,
-35,
-39,
-31,
-24,
-20,
-28,
-35,
-34,
-25,
-16,
-20,
-28,
-32,
-24,
-15,
-13,
-16,
-23,
-19,
-13,
-7,
-7,
-11,
-13,
-9,
-1,
2,
1,
-3,
-3,
3,
8,
12,
9,
5,
5,
12,
19,
18,
11,
10,
15,
21,
24,
17,
16,
15,
22,
24,
21,
18,
17,
22,
24,
20,
17,
17,
20,
20,
17,
15,
15,
16,
16,
12,
7,
8,
11,
10,
4,
-1,
0,
5,
4,
-5,
-12,
-8,
-2,
-3,
-11,
-16,
-18,
-13,
-11,
-15,
-20,
-23,
-22,
-16,
-19,
-23,
-28,
-28,
-28,
-26,
-28,
-29,
-28,
-31,
-32,
-29,
-27,
-28,
-33,
-33,
-28,
-22,
-24,
-29,
-32,
-25,
-18,
-16,
-21,
-27,
-24,
-12,
-8,
-14,
-20,
-20,
-8,
-3,
-5,
-10,
-9,
-2,
3,
4,
0,
0,
4,
10,
11,
6,
6,
12,
16,
14,
12,
15,
17,
19,
17,
16,
17,
22,
23,
21,
17,
18,
22,
23,
23,
15,
16,
20,
22,
18,
16,
14,
14,
14,
14,
16,
11,
7,
4,
5,
9,
7,
2,
-3,
-5,
-1,
1,
-3,
-11,
-16,
-12,
-6,
-5,
-16,
-26,
-24,
-15,
-10,
-18,
-31,
-32,
-25,
-16,
-17,
-30,
-38,
-34,
-24,
-18,
-25,
-37,
-37,
-30,
-22,
-22,
-32,
-35,
-30,
-23,
-19,
-20,
-29,
-30,
-24,
-16,
-15,
-21,
-25,
-20,
-10,
-7,
-8,
-14,
-17,
-8,
-1,
2,
-3,
-8,
-4,
4,
9,
6,
5,
3,
8,
14,
16,
14,
10,
11,
17,
20,
19,
17,
16,
19,
21,
23,
19,
18,
20,
21,
23,
22,
18,
18,
18,
20,
18,
16,
17,
16,
14,
13,
12,
11,
11,
10,
7,
3,
2,
4,
4,
-1,
-7,
-8,
-4,
-1,
-7,
-15,
-15,
-12,
-9,
-13,
-20,
-24,
-22,
-18,
-17,
-23,
-28,
-29,
-23,
-23,
-26,
-32,
-32,
-29,
-26,
-26,
-29,
-32,
-31,
-30,
-28,
-24,
-25,
-29,
-32,
-27,
-21,
-19,
-24,
-26,
-24,
-19,
-12,
-13,
-19,
-20,
-12,
-5,
-4,
-11,
-12,
-4,
2,
2,
-2,
-2,
2,
8,
11,
8,
5,
7,
15,
15,
13,
10,
16,
20,
19,
15,
13,
19,
26,
23,
17,
16,
21,
27,
27,
17,
12,
17,
24,
24,
17,
10,
13,
19,
18,
14,
9,
8,
9,
11,
11,
5,
1,
0,
3,
3,
-1,
-5,
-9,
-11,
-8,
-6,
-8,
-14,
-22,
-21,
-11,
-10,
-18,
-28,
-29,
-22,
-13,
-18,
-32,
-38,
-30,
-21,
-20,
-28,
-40,
-37,
-27,
-18,
-26,
-36,
-37,
-29,
-18,
-20,
-28,
-32,
-28,
-19,
-16,
-19,
-26,
-26,
-18,
-12,
-10,
-14,
-16,
-14,
-8,
-4,
-1,
-5,
-6,
-6,
1,
8,
5,
2,
0,
6,
13,
13,
11,
7,
12,
18,
19,
17,
13,
15,
20,
23,
21,
18,
19,
20,
22,
23,
19,
20,
19,
20,
20,
16,
17,
17,
19,
16,
11,
12,
14,
15,
11,
4,
4,
5,
8,
5,
-1,
-4,
-6,
-1,
-1,
-6,
-11,
-16,
-10,
-9,
-12,
-18,
-24,
-19,
-17,
-16,
-24,
-28,
-28,
-25,
-20,
-23,
-30,
-35,
-32,
-24,
-23,
-29,
-33,
-35,
-28,
-25,
-25,
-28,
-31,
-29,
-27,
-23,
-24,
-26,
-26,
-24,
-17,
-16,
-15,
-18,
-19,
-13,
-10,
-7,
-11,
-14,
-7,
-2,
2,
0,
-4,
0,
3,
8,
8,
5,
6,
9,
14,
15,
13,
13,
14,
19,
17,
16,
17,
23,
21,
18,
18,
20,
26,
26,
19,
16,
17,
24,
27,
18,
11,
11,
20,
23,
15,
6,
5,
11,
18,
14,
4,
-2,
0,
5,
7,
1,
-7,
-10,
-7,
-3,
-4,
-11,
-16,
-18,
-15,
-12,
-13,
-18,
-27,
-27,
-19,
-16,
-20,
-30,
-36,
-29,
-19,
-20,
-31,
-39,
-36,
-25,
-19,
-27,
-39,
-40,
-28,
-15,
-21,
-33,
-38,
-30,
-17,
-15,
-22,
-30,
-26,
-16,
-11,
-13,
-20,
-19,
-10,
-7,
-6,
-10,
-8,
-4,
-1,
1,
1,
2,
2,
2,
5,
9,
11,
8,
9,
11,
17,
19,
17,
14,
13,
17,
23,
22,
19,
16,
19,
23,
24,
20,
19,
20,
22,
19,
18,
16,
19,
23,
16,
13,
9,
14,
18,
14,
5,
2,
9,
11,
7,
0,
-7,
-1,
2,
0,
-7,
-13,
-11,
-7,
-5,
-10,
-19,
-21,
-19,
-13,
-16,
-24,
-27,
-27,
-21,
-21,
-25,
-28,
-31,
-30,
-25,
-27,
-27,
-33,
-34,
-31,
-25,
-25,
-29,
-31,
-30,
-26,
-21,
-23,
-28,
-29,
-24,
-17,
-17,
-20,
-24,
-17,
-12,
-9,
-10,
-14,
-13,
-9,
-4,
0,
-3,
-4,
-1,
3,
6,
6,
6,
6,
8,
10,
12,
15,
14,
13,
16,
17,
17,
17,
20,
20,
19,
20,
20,
21,
22,
18,
19,
20,
24,
24,
18,
15,
14,
19,
23,
16,
9,
7,
13,
18,
14,
5,
-2,
1,
8,
9,
3,
-7,
-8,
-4,
0,
-2,
-12,
-17,
-14,
-9,
-9,
-15,
-22,
-23,
-19,
-16,
-19,
-23,
-31,
-29,
-24,
-19,
-22,
-33,
-38,
-32,
-22,
-22,
-28,
-36,
-37,
-27,
-19,
-23,
-30,
-36,
-29,
-19,
-17,
-24,
-32,
-27,
-15,
-12,
-16,
-24,
-20,
-12,
-7,
-7,
-15,
-14,
-8,
0,
2,
-3,
-3,
0,
5,
7,
7,
7,
9,
10,
11,
12,
13,
15,
17,
16,
15,
18,
18,
22,
20,
18,
21,
20,
21,
19,
21,
21,
21,
18,
17,
19,
20,
18,
16,
11,
15,
17,
16,
9,
3,
6,
12,
9,
1,
-7,
-3,
5,
5,
-6,
-15,
-12,
-6,
-2,
-8,
-19,
-22,
-17,
-9,
-13,
-23,
-28,
-24,
-17,
-18,
-25,
-33,
-31,
-24,
-24,
-27,
-31,
-31,
-31,
-28,
-27,
-27,
-32,
-31,
-31,
-23,
-22,
-26,
-28,
-30,
-25,
-18,
-16,
-20,
-26,
-21,
-14,
-9,
-12,
-16,
-15,
-10,
-3,
-1,
-7,
-7,
-3,
3,
7,
3,
2,
5,
9,
11,
8,
12,
13,
14,
14,
15,
19,
18,
19,
16,
17,
21,
23,
24,
18,
17,
18,
24,
26,
21,
14,
14,
18,
24,
22,
16,
9,
9,
16,
18,
14,
5,
2,
6,
9,
9,
0,
-5,
-4,
-1,
2,
-3,
-10,
-16,
-12,
-7,
-7,
-16,
-23,
-25,
-16,
-11,
-18,
-26,
-29,
-26,
-20,
-18,
-28,
-33,
-35,
-29,
-23,
-24,
-32,
-36,
-34,
-26,
-24,
-27,
-33,
-32,
-27,
-20,
-19,
-27,
-30,
-26,
-18,
-14,
-19,
-24,
-23,
-14,
-7,
-8,
-13,
-16,
-10,
0,
0,
-4,
-5,
-2,
4,
7,
4,
4,
8,
10,
10,
11,
11,
13,
16,
18,
16,
14,
17,
20,
22,
20,
18,
18,
21,
23,
20,
19,
19,
20,
22,
21,
17,
15,
15,
16,
17,
13,
12,
10,
8,
11,
12,
10,
3,
-1,
1,
6,
7,
-3,
-12,
-11,
-4,
1,
-7,
-20,
-22,
-15,
-8,
-12,
-23,
-30,
-24,
-13,
-14,
-25,
-35,
-33,
-24,
-19,
-26,
-37,
-35,
-28,
-23,
-25,
-31,
-35,
-32,
-27,
-24,
-25,
-28,
-30,
-28,
-25,
-21,
-20,
-24,
-23,
-23,
-18,
-11,
-13,
-16,
-16,
-11,
-6,
-3,
-8,
-11,
-6,
2,
6,
3,
-2,
1,
9,
12,
11,
7,
7,
13,
17,
16,
16,
16,
18,
18,
17,
17,
21,
23,
21,
18,
18,
24,
26,
22,
15,
13,
19,
24,
24,
14,
7,
11,
19,
19,
12,
4,
4,
10,
14,
8,
-2,
-5,
1,
4,
1,
-6,
-11,
-11,
-7,
-5,
-8,
-16,
-21,
-20,
-16,
-12,
-18,
-25,
-27,
-24,
-19,
-21,
-27,
-33,
-30,
-25,
-24,
-25,
-35,
-36,
-32,
-24,
-23,
-32,
-36,
-33,
-22,
-19,
-25,
-31,
-30,
-24,
-16,
-16,
-22,
-24,
-17,
-13,
-11,
-13,
-15,
-13,
-7,
-6,
-4,
-5,
-5,
-1,
1,
3,
2,
2,
7,
9,
11,
8,
10,
12,
17,
16,
15,
14,
17,
19,
21,
20,
17,
18,
22,
24,
22,
17,
18,
20,
25,
22,
17,
13,
17,
20,
20,
16,
10,
7,
12,
16,
13,
6,
0,
3,
5,
7,
5,
-4,
-9,
-7,
0,
-1,
-9,
-16,
-19,
-11,
-8,
-12,
-23,
-28,
-21,
-15,
-14,
-23,
-35,
-30,
-21,
-16,
-24,
-36,
-38,
-31,
-21,
-22,
-33,
-36,
-31,
-25,
-24,
-28,
-31,
-32,
-26,
-23,
-22,
-26,
-26,
-20,
-19,
-18,
-16,
-17,
-17,
-16,
-13,
-8,
-6,
-9,
-11,
-7,
-1,
3,
3,
-2,
-2,
4,
12,
12,
6,
4,
9,
16,
18,
14,
13,
16,
18,
19,
19,
17,
21,
22,
20,
19,
19,
23,
23,
19,
15,
18,
23,
22,
14,
9,
13,
19,
20,
13,
5,
5,
13,
16,
11,
0,
-4,
1,
9,
5,
-6,
-12,
-10,
-3,
-3,
-11,
-16,
-17,
-14,
-13,
-15,
-20,
-23,
-22,
-20,
-19,
-22,
-27,
-31,
-29,
-25,
-23,
-27,
-32,
-34,
-31,
-27,
-24,
-30,
-36,
-32,
-27,
-19,
-23,
-32,
-32,
-23,
-18,
-19,
-24,
-26,
-22,
-13,
-12,
-18,
-19,
-14,
-5,
-6,
-9,
-10,
-6,
1,
2,
0,
-2,
2,
6,
9,
8,
5,
8,
13,
17,
13,
10,
13,
19,
21,
18,
16,
13,
20,
25,
23,
20,
15,
16,
24,
25,
22,
18,
16,
17,
21,
23,
18,
11,
9,
13,
18,
16,
6,
1,
4,
9,
10,
2,
-7,
-8,
1,
3,
0,
-9,
-17,
-14,
-6,
-4,
-15,
-24,
-27,
-16,
-11,
-16,
-27,
-33,
-27,
-20,
-16,
-27,
-35,
-35,
-29,
-20,
-22,
-34,
-39,
-33,
-23,
-22,
-32,
-34,
-32,
-24,
-19,
-23,
-28,
-31,
-24,
-16,
-17,
-19,
-21,
-19,
-15,
-12,
-8,
-11,
-11,
-9,
-7,
-3,
-1,
0,
-2,
0,
3,
5,
11,
8,
6,
8,
12,
16,
14,
12,
12,
17,
21,
20,
18,
17,
19,
22,
21,
21,
20,
19,
21,
20,
21,
20,
20,
17,
14,
16,
19,
19,
14,
7,
7,
12,
17,
12,
4,
-1,
2,
8,
9,
-2,
-11,
-8,
0,
1,
-8,
-16,
-19,
-10,
-8,
-14,
-24,
-27,
-19,
-16,
-19,
-24,
-29,
-27,
-24,
-23,
-27,
-30,
-31,
-31,
-28,
-27,
-28,
-28,
-31,
-32,
-29,
-24,
-25,
-31,
-32,
-28,
-21,
-19,
-24,
-27,
-22,
-17,
-14,
-16,
-21,
-18,
-8,
-6,
-10,
-12,
-11,
-1,
1,
-1,
-4,
-1,
6,
8,
5,
4,
7,
14,
16,
12,
7,
10,
20,
23,
18,
10,
13,
22,
26,
25,
15,
12,
20,
26,
26,
19,
15,
16,
21,
24,
17,
13,
13,
14,
17,
17,
15,
8,
3,
7,
12,
12,
2,
-6,
-4,
1,
6,
0,
-9,
-16,
-11,
-2,
-3,
-12,
-24,
-23,
-14,
-9,
-16,
-28,
-33,
-24,
-17,
-18,
-29,
-35,
-30,
-22,
-19,
-29,
-37,
-37,
-29,
-19,
-25,
-33,
-35,
-32,
-22,
-22,
-25,
-29,
-29,
-24,
-20,
-16,
-21,
-24,
-20,
-15,
-11,
-13,
-14,
-12,
-11,
-7,
-4,
-3,
-4,
-3,
0,
3,
5,
2,
5,
6,
9,
13,
13,
13,
13,
13,
16,
18,
19,
18,
16,
18,
20,
22,
23,
19,
20,
18,
22,
23,
22,
19,
16,
16,
17,
18,
18,
13,
11,
10,
14,
16,
11,
5,
2,
5,
7,
5,
-1,
-5,
-5,
0,
2,
-6,
-16,
-17,
-10,
-5,
-11,
-21,
-25,
-20,
-14,
-15,
-24,
-27,
-28,
-23,
-20,
-26,
-30,
-32,
-28,
-27,
-27,
-32,
-32,
-29,
-28,
-28,
-29,
-28,
-27,
-27,
-27,
-25,
-23,
-23,
-25,
-24,
-19,
-18,
-15,
-17,
-17,
-15,
-9,
-8,
-10,
-11,
-6,
-1,
-2,
-2,
0,
3,
5,
3,
4,
7,
12,
15,
12,
8,
11,
18,
23,
19,
10,
10,
21,
27,
22,
14,
12,
18,
30,
27,
18,
11,
18,
27,
28,
18,
9,
10,
19,
24,
18,
8,
4,
9,
14,
15,
9,
3,
-1,
1,
4,
4,
-4,
-8,
-9,
-8,
-3,
-7,
-13,
-19,
-19,
-13,
-9,
-16,
-28,
-30,
-20,
-13,
-16,
-29,
-38,
-31,
-18,
-19,
-29,
-39,
-36,
-26,
-20,
-26,
-36,
-37,
-30,
-20,
-21,
-28,
-32,
-29,
-21,
-21,
-22,
-23,
-22,
-19,
-16,
-15,
-16,
-15,
-13,
-11,
-7,
-6,
-4,
-6,
-6,
-1,
3,
5,
3,
1,
4,
9,
12,
11,
11,
12,
12,
15,
18,
17,
18,
18,
18,
20,
20,
22,
21,
22,
18,
19,
23,
21,
21,
16,
16,
20,
21,
20,
14,
11,
13,
16,
17,
11,
5,
4,
9,
12,
6,
-1,
-5,
-2,
4,
0,
-7,
-12,
-13,
-9,
-8,
-10,
-19,
-22,
-20,
-15,
-15,
-22,
-27,
-26,
-22,
-21,
-27,
-28,
-31,
-29,
-25,
-27,
-29,
-33,
-32,
-28,
-27,
-27,
-31,
-30,
-27,
-27,
-26,
-25,
-25,
-24,
-24,
-21,
-19,
-18,
-19,
-17,
-17,
-15,
-11,
-9,
-9,
-10,
-8,
-3,
-2,
0,
0,
0,
3,
3,
8,
10,
10,
8,
8,
12,
15,
17,
16,
12,
15,
19,
24,
22,
13,
14,
20,
27,
26,
17,
12,
16,
29,
30,
19,
9,
9,
20,
27,
20,
6,
3,
12,
19,
15,
5,
-3,
2,
7,
10,
3,
-7,
-9,
-5,
0,
-2,
-11,
-16,
-16,
-11,
-10,
-12,
-19,
-26,
-23,
-19,
-15,
-17,
-29,
-33,
-28,
-18,
-20,
-28,
-37,
-36,
-25,
-22,
-27,
-36,
-38,
-28,
-21,
-23,
-31,
-37,
-29,
-18,
-18,
-24,
-29,
-24,
-16,
-13,
-16,
-19,
-18,
-14,
-8,
-11,
-11,
-9,
-4,
-3,
-6,
-2,
2,
3,
3,
0,
5,
9,
12,
11,
7,
11,
13,
15,
17,
16,
17,
17,
19,
21,
19,
19,
19,
22,
20,
18,
23,
20,
19,
17,
19,
22,
19,
16,
11,
13,
17,
17,
13,
4,
5,
10,
13,
11,
-1,
-5,
0,
6,
2,
-7,
-11,
-10,
-6,
-4,
-11,
-16,
-19,
-16,
-13,
-17,
-22,
-26,
-23,
-19,
-22,
-24,
-31,
-28,
-26,
-27,
-26,
-31,
-30,
-31,
-29,
-27,
-27,
-28,
-32,
-31,
-25,
-25,
-26,
-27,
-27,
-25,
-25,
-19,
-20,
-20,
-20,
-16,
-13,
-13,
-12,
-11,
-10,
-9,
-7,
-2,
-1,
-2,
-1,
0,
4,
6,
7,
9,
5,
9,
14,
16,
15,
10,
12,
17,
25,
23,
17,
14,
15,
22,
27,
22,
16,
14,
20,
27,
26,
18,
12,
13,
21,
25,
19,
9,
6,
12,
20,
17,
4,
-3,
3,
12,
12,
2,
-8,
-9,
-1,
4,
0,
-10,
-17,
-14,
-6,
-4,
-15,
-22,
-25,
-18,
-15,
-17,
-24,
-29,
-27,
-24,
-20,
-24,
-30,
-34,
-32,
-24,
-21,
-29,
-36,
-35,
-27,
-22,
-25,
-32,
-35,
-30,
-20,
-17,
-26,
-31,
-28,
-17,
-14,
-19,
-22,
-19,
-13,
-10,
-12,
-12,
-12,
-7,
-3,
-4,
-7,
-4,
3,
6,
3,
1,
4,
11,
13,
10,
7,
11,
16,
18,
16,
15,
15,
19,
23,
21,
17,
18,
21,
24,
22,
19,
19,
17,
20,
20,
21,
20,
17,
13,
14,
17,
18,
14,
9,
5,
10,
15,
11,
3,
-4,
-1,
6,
5,
-3,
-13,
-9,
-3,
-2,
-10,
-20,
-18,
-11,
-10,
-14,
-24,
-26,
-22,
-17,
-17,
-25,
-30,
-28,
-24,
-23,
-28,
-31,
-30,
-29,
-29,
-31,
-29,
-27,
-30,
-32,
-31,
-25,
-24,
-26,
-28,
-27,
-23,
-19,
-18,
-22,
-23,
-19,
-14,
-12,
-14,
-15,
-12,
-8,
-6,
-5,
-6,
-4,
-2,
1,
5,
5,
5,
4,
6,
8,
13,
16,
13,
9,
8,
18,
23,
20,
14,
12,
17,
26,
27,
21,
14,
15,
24,
29,
24,
13,
11,
19,
26,
25,
13,
7,
10,
18,
22,
14,
5,
1,
6,
16,
13,
2,
-6,
-5,
2,
5,
-1,
-11,
-14,
-11,
-6,
-5,
-13,
-21,
-21,
-13,
-13,
-16,
-25,
-29,
-23,
-18,
-21,
-28,
-32,
-31,
-27,
-24,
-26,
-31,
-36,
-32,
-27,
-24,
-28,
-33,
-32,
-27,
-24,
-24,
-27,
-28,
-26,
-21,
-17,
-20,
-23,
-21,
-15,
-12,
-14,
-15,
-13,
-7,
-5,
-5,
-6,
-6,
0,
4,
3,
0,
1,
7,
12,
10,
7,
7,
14,
18,
16,
12,
12,
18,
24,
22,
17,
13,
18,
25,
26,
20,
15,
16,
20,
25,
23,
17,
15,
16,
18,
20,
16,
12,
9,
12,
11,
13,
10,
4,
3,
4,
5,
5,
-3,
-8,
-8,
-1,
0,
-7,
-16,
-20,
-11,
-7,
-12,
-24,
-28,
-21,
-15,
-16,
-23,
-30,
-30,
-21,
-23,
-27,
-32,
-32,
-28,
-25,
-28,
-33,
-32,
-28,
-28,
-30,
-30,
-27,
-25,
-28,
-28,
-25,
-23,
-19,
-20,
-25,
-23,
-15,
-11,
-14,
-18,
-18,
-9,
-3,
-5,
-9,
-9,
-2,
2,
4,
3,
0,
2,
6,
9,
10,
8,
11,
11,
12,
14,
18,
19,
15,
14,
17,
23,
25,
18,
14,
16,
26,
29,
22,
14,
11,
19,
28,
26,
13,
6,
12,
21,
24,
14,
3,
4,
12,
17,
12,
1,
-4,
0,
6,
4,
-3,
-11,
-9,
-4,
-3,
-8,
-15,
-18,
-15,
-13,
-12,
-16,
-25,
-26,
-21,
-17,
-19,
-26,
-32,
-31,
-25,
-23,
-27,
-32,
-35,
-31,
-26,
-26,
-30,
-34,
-32,
-26,
-24,
-28,
-29,
-28,
-23,
-21,
-24,
-24,
-22,
-19,
-14,
-14,
-16,
-16,
-13,
-8,
-8,
-9,
-8,
-4,
-1,
0,
-1,
0,
3,
6,
9,
6,
5,
8,
14,
16,
14,
9,
11,
17,
25,
21,
17,
14,
17,
24,
24,
21,
17,
15,
22,
25,
21,
15,
14,
16,
22,
23,
16,
9,
10,
15,
17,
15,
6,
2,
4,
8,
8,
3,
-3,
-5,
-4,
0,
0,
-6,
-15,
-16,
