6-anwendungen-opAmps/daten/ALL0006/A0006CH1.CSV

Memory Length,4000,
Trigger Level,2.00000e+02,
Source,CH1,
Probe,1.0X,
Vertical Units,V,
Vertical Scale,5.00000e+00,
Vertical Position,-2.00000e-01,
Horizontal Units,S,
Horizontal Scale,5.00000e-02,
Horizontal Position,0.0000000e+00,
Horizontal Mode,Roll Mode,
Waveform Last Dot Address,4000,
Sampling Period,2.00000e-04,
Firmware,V1.14,
Time, ,
Mode,Fast,
Waveform Data,
-76,
-76,
-74,
-74,
-76,
-76,
-75,
-75,
-68,
-68,
-70,
-70,
-71,
-71,
-71,
-71,
-71,
-71,
-69,
-69,
-71,
-71,
-71,
-71,
-71,
-71,
-71,
-71,
-71,
-71,
-72,
-72,
-72,
-72,
-72,
-72,
-73,
-73,
-72,
-72,
-72,
-72,
-72,
-72,
-72,
-72,
-73,
-73,
-73,
-73,
-73,
-73,
-74,
-74,
-73,
-73,
-72,
-72,
-73,
-73,
-73,
-73,
-73,
-73,
-73,
-73,
-73,
-73,
-73,
-73,
-74,
-74,
-74,
-74,
-74,
-74,
-75,
-75,
-75,
-75,
-75,
-75,
-75,
-75,
-76,
-76,
-76,
-76,
-75,
-75,
-75,
-75,
-76,
-76,
-76,
-76,
-76,
-76,
-76,
-76,
-76,
-76,
-76,
-76,
-77,
-77,
-76,
-76,
-77,
-77,
-77,
-77,
-76,
-76,
-76,
-76,
-77,
-77,
-75,
-75,
-75,
-75,
-76,
-76,
-75,
-75,
-76,
-76,
-75,
-75,
-76,
-76,
-76,
-76,
-76,
-76,
-75,
-75,
-75,
-75,
-75,
-75,
-75,
-75,
-76,
-76,
-76,
-76,
-76,
-76,
-76,
-76,
-76,
-76,
-75,
-75,
-75,
-75,
-76,
-76,
-76,
-76,
-76,
-76,
-75,
-75,
-75,
-75,
-75,
-75,
-75,
-75,
-76,
-76,
-75,
-75,
-75,
-75,
-76,
-76,
-76,
-76,
-75,
-75,
-76,
-76,
-76,
-76,
-76,
-76,
-76,
-76,
-76,
-76,
-75,
-75,
-75,
-75,
-75,
-75,
-76,
-76,
-76,
-76,
-76,
-76,
-76,
-76,
-75,
-75,
-76,
-76,
-76,
-76,
-75,
-75,
-75,
-75,
-75,
-75,
-76,
-76,
-76,
-76,
-75,
-75,
-74,
-74,
-75,
-75,
-76,
-76,
-75,
-75,
-75,
-75,
-76,
-76,
-76,
-76,
-75,
-75,
-75,
-75,
-76,
-76,
-76,
-76,
-75,
-75,
-75,
-75,
-76,
-76,
-75,
-75,
-75,
-75,
-75,
-75,
-76,
-76,
-75,
-75,
-75,
-75,
-76,
-76,
-76,
-76,
-75,
-75,
-75,
-75,
-75,
-75,
-75,
-75,
-76,
-76,
-76,
-76,
-76,
-76,
-75,
-75,
-75,
-75,
-75,
-75,
-76,
-76,
-76,
-76,
-76,
-76,
-75,
-75,
-76,
-76,
-76,
-76,
-76,
-76,
-76,
-76,
-75,
-75,
-75,
-75,
-76,
-76,
-76,
-76,
-76,
-76,
-76,
-76,
-75,
-75,
-75,
-75,
-76,
-76,
-76,
-76,
-75,
-75,
-75,
-75,
-75,
-75,
-75,
-75,
-76,
-76,
-75,
-75,
-75,
-75,
-75,
-75,
-75,
-75,
-75,
-75,
-75,
-75,
-75,
-75,
-76,
-76,
-75,
-75,
-76,
-76,
-75,
-75,
-75,
-75,
-75,
-75,
-75,
-75,
-75,
-75,
-75,
-75,
-76,
-76,
-75,
-75,
-75,
-75,
-75,
-75,
-75,
-75,
-75,
-75,
-76,
-76,
-75,
-75,
-76,
-76,
-76,
-76,
-76,
-76,
-76,
-76,
-75,
-75,
-76,
-76,
-75,
-75,
-76,
-76,
-76,
-76,
-75,
-75,
-76,
-76,
-76,
-76,
-75,
-75,
-76,
-76,
-76,
-76,
-76,
-76,
-75,
-75,
-76,
-76,
-76,
-76,
-75,
-75,
-75,
-75,
-76,
-76,
-75,
-75,
-75,
-75,
-75,
-75,
-76,
-76,
-75,
-75,
-75,
-75,
-75,
-75,
-76,
-76,
-75,
-75,
-75,
-75,
-75,
-75,
-76,
-76,
-75,
-75,
-76,
-76,
-76,
-76,
-76,
-76,
-75,
-75,
-75,
-75,
-75,
-75,
-76,
-76,
-75,
-75,
-76,
-76,
-75,
-75,
-76,
-76,
-75,
-75,
-76,
-76,
-75,
-75,
-76,
-76,
-76,
-76,
-76,
-76,
-75,
-75,
-75,
-75,
-75,
-75,
-76,
-76,
-76,
-76,
-75,
-75,
-76,
-76,
-75,
-75,
-75,
-75,
-75,
-75,
-76,
-76,
-76,
-76,
-75,
-75,
-76,
-76,
-76,
-76,
-76,
-76,
-75,
-75,
-75,
-75,
-75,
-75,
-75,
-75,
-75,
-75,
-75,
-75,
-76,
-76,
-76,
-76,
-75,
-75,
-75,
-75,
-75,
-75,
-75,
-75,
-75,
-75,
-75,
-75,
-76,
-76,
-75,
-75,
-75,
-75,
-76,
-76,
-76,
-76,
-75,
-75,
-75,
-75,
-75,
-75,
-76,
-76,
-76,
-76,
-75,
-75,
-75,
-75,
-76,
-76,
-76,
-76,
-75,
-75,
-75,
-75,
-75,
-75,
-76,
-76,
-75,
-75,
-75,
-75,
-75,
-75,
-75,
-75,
-75,
-75,
-75,
-75,
-75,
-75,
-75,
-75,
-75,
-75,
-76,
-76,
-76,
-76,
-75,
-75,
-76,
-76,
-75,
-75,
-75,
-75,
-75,
-75,
-75,
-75,
-76,
-76,
-75,
-75,
-76,
-76,
-76,
-76,
-76,
-76,
-76,
-76,
-75,
-75,
-75,
-75,
-76,
-76,
-76,
-76,
-75,
-75,
-76,
-76,
-75,
-75,
-76,
-76,
-75,
-75,
-75,
-75,
-76,
-76,
-75,
-75,
-75,
-75,
-75,
-75,
-75,
-75,
-75,
-75,
-75,
-75,
-75,
-75,
-76,
-76,
-75,
-75,
-76,
-76,
-76,
-76,
-75,
-75,
-75,
-75,
-75,
-75,
-76,
-76,
-75,
-75,
-75,
-75,
-76,
-76,
-76,
-76,
-75,
-75,
-75,
-75,
-75,
-75,
-75,
-75,
-76,
-76,
-76,
-76,
-75,
-75,
-76,
-76,
-75,
-75,
-75,
-75,
-75,
-75,
-76,
-76,
-75,
-75,
-75,
-75,
-76,
-76,
-75,
-75,
-75,
-75,
-75,
-75,
-75,
-75,
-75,
-75,
-75,
-75,
-76,
-76,
-75,
-75,
-76,
-76,
-76,
-76,
-75,
-75,
-75,
-75,
-75,
-75,
-75,
-75,
-76,
-76,
-75,
-75,
-75,
-75,
-76,
-76,
-76,
-76,
-76,
-76,
-76,
-76,
-75,
-75,
-75,
-75,
-75,
-75,
-76,
-76,
-75,
-75,
-75,
-75,
-76,
-76,
-75,
-75,
-75,
-75,
-75,
-75,
-76,
-76,
-74,
-74,
-75,
-75,
-76,
-76,
-75,
-75,
-75,
-75,
-75,
-75,
-75,
-75,
-76,
-76,
-76,
-76,
-76,
-76,
-74,
-74,
-75,
-75,
-75,
-75,
-75,
-75,
-75,
-75,
-76,
-76,
-76,
-76,
-76,
-76,
-77,
-77,
-75,
-75,
-75,
-75,
-75,
-75,
-75,
-75,
-75,
-75,
-75,
-75,
-76,
-76,
-76,
-76,
-75,
-75,
-75,
-75,
-77,
-77,
-74,
-74,
-75,
-75,
-75,
-75,
-75,
-75,
-75,
-75,
-76,
-76,
-75,
-75,
-75,
-75,
-76,
-76,
-76,
-76,
-75,
-75,
-75,
-75,
-75,
-75,
-75,
-75,
-75,
-75,
-75,
-75,
-76,
-76,
-75,
-75,
-76,
-76,
-75,
-75,
-75,
-75,
-73,
-73,
-76,
-76,
-76,
-76,
-75,
-75,
-76,
-76,
-76,
-76,
-75,
-75,
-76,
-76,
-76,
-76,
-76,
-76,
-75,
-75,
-75,
-75,
-76,
-76,
-76,
-76,
-75,
-75,
-76,
-76,
-76,
-76,
-75,
-75,
-75,
-75,
-75,
-75,
-76,
-76,
-75,
-75,
-75,
-75,
-76,
-76,
-75,
-75,
-75,
-75,
-76,
-76,
-75,
-75,
-76,
-76,
-76,
-76,
-76,
-76,
-75,
-75,
-74,
-74,
-75,
-75,
-75,
-75,
-75,
-75,
-75,
-75,
-75,
-75,
-75,
-75,
-76,
-76,
-76,
-76,
-75,
-75,
-76,
-76,
-76,
-76,
-75,
-75,
-76,
-76,
-75,
-75,
-75,
-75,
-77,
-77,
-75,
-75,
-75,
-75,
-76,
-76,
-75,
-75,
-76,
-76,
-76,
-76,
-75,
-75,
-75,
-75,
-75,
-75,
-76,
-76,
-75,
-75,
-76,
-76,
-75,
-75,
-75,
-75,
-76,
-76,
-75,
-75,
-76,
-76,
-75,
-75,
-76,
-76,
-75,
-75,
-75,
-75,
-76,
-76,
-75,
-75,
-75,
-75,
-75,
-75,
-75,
-75,
-76,
-76,
-75,
-75,
-76,
-76,
-75,
-75,
-75,
-75,
-76,
-76,
-75,
-75,
-75,
-75,
-75,
-75,
-76,
-76,
-75,
-75,
-76,
-76,
-75,
-75,
-75,
-75,
-76,
-76,
-76,
-76,
-76,
-76,
-76,
-76,
-75,
-75,
-75,
-75,
-74,
-74,
-75,
-75,
-75,
-75,
-75,
-75,
-76,
-76,
-75,
-75,
-75,
-75,
-76,
-76,
-75,
-75,
-75,
-75,
-75,
-75,
-76,
-76,
-76,
-76,
-76,
-76,
-76,
-76,
-75,
-75,
-75,
-75,
-75,
-75,
-75,
-75,
-76,
-76,
-76,
-76,
-76,
-76,
-75,
-75,
-75,
-75,
-75,
-75,
-76,
-76,
-75,
-75,
-75,
-75,
-76,
-76,
-75,
-75,
-76,
-76,
-75,
-75,
-76,
-76,
-75,
-75,
-76,
-76,
-76,
-76,
-75,
-75,
-74,
-74,
-75,
-75,
-75,
-75,
-76,
-76,
-75,
-75,
-76,
-76,
-75,
-75,
-77,
-77,
-76,
-76,
-76,
-76,
-75,
-75,
-76,
-76,
-75,
-75,
-76,
-76,
-76,
-76,
-75,
-75,
-76,
-76,
-75,
-75,
-76,
-76,
-76,
-76,
-75,
-75,
-75,
-75,
-75,
-75,
-76,
-76,
-75,
-75,
-75,
-75,
-75,
-75,
-76,
-76,
-75,
-75,
-75,
-75,
-75,
-75,
-75,
-75,
-75,
-75,
-76,
-76,
-76,
-76,
-76,
-76,
-75,
-75,
-76,
-76,
-74,
-74,
-76,
-76,
-75,
-75,
-75,
-75,
-76,
-76,
-76,
-76,
-75,
-75,
-75,
-75,
-75,
-75,
-75,
-75,
-75,
-75,
-76,
-76,
-75,
-75,
-76,
-76,
-75,
-75,
-75,
-75,
-76,
-76,
-75,
-75,
-75,
-75,
-75,
-75,
-76,
-76,
-75,
-75,
-74,
-74,
-75,
-75,
-75,
-75,
-76,
-76,
-76,
-76,
-76,
-76,
-75,
-75,
-75,
-75,
-75,
-75,
-74,
-74,
-75,
-75,
-75,
-75,
-76,
-76,
-76,
-76,
-75,
-75,
-76,
-76,
-76,
-76,
-75,
-75,
-75,
-75,
-76,
-76,
-76,
-76,
-75,
-75,
-75,
-75,
-75,
-75,
-75,
-75,
-75,
-75,
-75,
-75,
-75,
-75,
-75,
-75,
-75,
-75,
-75,
-75,
-76,
-76,
-75,
-75,
-76,
-76,
-76,
-76,
-75,
-75,
-75,
-75,
-75,
-75,
-75,
-75,
-76,
-76,
-75,
-75,
-76,
-76,
-76,
-76,
-75,
-75,
-76,
-76,
-75,
-75,
-76,
-76,
-75,
-75,
-76,
-76,
-76,
-76,
-75,
-75,
-75,
-75,
-76,
-76,
-75,
-75,
-76,
-76,
-75,
-75,
-75,
-75,
-76,
-76,
-76,
-76,
-75,
-75,
-76,
-76,
-75,
-75,
-75,
-75,
-76,
-76,
-75,
-75,
-77,
-77,
-76,
-76,
-76,
-76,
-76,
-76,
-75,
-75,
-75,
-75,
-76,
-76,
-75,
-75,
-75,
-75,
-76,
-76,
-75,
-75,
-75,
-75,
-75,
-75,
-75,
-75,
-75,
-75,
-76,
-76,
-75,
-75,
-75,
-75,
-75,
-75,
-76,
-76,
-75,
-75,
-76,
-76,
-75,
-75,
-76,
-76,
-76,
-76,
-75,
-75,
-76,
-76,
-75,
-75,
-76,
-76,
-75,
-75,
-75,
-75,
-75,
-75,
-75,
-75,
-75,
-75,
-76,
-76,
-75,
-75,
-75,
-75,
-76,
-76,
-75,
-75,
-76,
-76,
-76,
-76,
-75,
-75,
-75,
-75,
-76,
-76,
-76,
-76,
-75,
-75,
-75,
-75,
-75,
-75,
-76,
-76,
-75,
-75,
-76,
-76,
-75,
-75,
-75,
-75,
-75,
-75,
-76,
-76,
-75,
-75,
-75,
-75,
-76,
-76,
-75,
-75,
-75,
-75,
-75,
-75,
-76,
-76,
-75,
-75,
-75,
-75,
-76,
-76,
-75,
-75,
-75,
-75,
-75,
-75,
-75,
-75,
-76,
-76,
-75,
-75,
-75,
-75,
-76,
-76,
-75,
-75,
-76,
-76,
-75,
-75,
-75,
-75,
-75,
-75,
-75,
-75,
-76,
-76,
-75,
-75,
-75,
-75,
-76,
-76,
-75,
-75,
-76,
-76,
-76,
-76,
-75,
-75,
-76,
-76,
-75,
-75,
-75,
-75,
-76,
-76,
-76,
-76,
-75,
-75,
-75,
-75,
-76,
-76,
-77,
-77,
-77,
-77,
-75,
-75,
-75,
-75,
-75,
-75,
-76,
-76,
-75,
-75,
-76,
-76,
-75,
-75,
-75,
-75,
-75,
-75,
-75,
-75,
-76,
-76,
-76,
-76,
-75,
-75,
-76,
-76,
-76,
-76,
-75,
-75,
-74,
-74,
-76,
-76,
-76,
-76,
-75,
-75,
-75,
-75,
-75,
-75,
-76,
-76,
-75,
-75,
-75,
-75,
-76,
-76,
-75,
-75,
-76,
-76,
-76,
-76,
-75,
-75,
-75,
-75,
-75,
-75,
-76,
-76,
-75,
-75,
-76,
-76,
-75,
-75,
-76,
-76,
-76,
-76,
-75,
-75,
-75,
-75,
-75,
-75,
-75,
-75,
-77,
-77,
-76,
-76,
-75,
-75,
-76,
-76,
-75,
-75,
-76,
-76,
-76,
-76,
-76,
-76,
-76,
-76,
-76,
-76,
-75,
-75,
-75,
-75,
-75,
-75,
-76,
-76,
-75,
-75,
-75,
-75,
-76,
-76,
-75,
-75,
-75,
-75,
-75,
-75,
-76,
-76,
-76,
-76,
-76,
-76,
-75,
-75,
-76,
-76,
-75,
-75,
-75,
-75,
-74,
-74,
-76,
-76,
-76,
-76,
-75,
-75,
-76,
-76,
-76,
-76,
-76,
-76,
-75,
-75,
-75,
-75,
-75,
-75,
-75,
-75,
-76,
-76,
-76,
-76,
-76,
-76,
-75,
-75,
-76,
-76,
-75,
-75,
-75,
-75,
-75,
-75,
-76,
-76,
-76,
-76,
-76,
-76,
-75,
-75,
-75,
-75,
-76,
-76,
-75,
-75,
-75,
-75,
-76,
-76,
-76,
-76,
-75,
-75,
-74,
-74,
-76,
-76,
-75,
-75,
-75,
-75,
-75,
-75,
-76,
-76,
-76,
-76,
-76,
-76,
-75,
-75,
-76,
-76,
-76,
-76,
-75,
-75,
-76,
-76,
-75,
-75,
-76,
-76,
-75,
-75,
-76,
-76,
-76,
-76,
-76,
-76,
-76,
-76,
-75,
-75,
-76,
-76,
-75,
-75,
-75,
-75,
-75,
-75,
-77,
-77,
-76,
-76,
-76,
-76,
-76,
-76,
-76,
-76,
-76,
-76,
-76,
-76,
-75,
-75,
-76,
-76,
-75,
-75,
-75,
-75,
-76,
-76,
-75,
-75,
-75,
-75,
-76,
-76,
-76,
-76,
-75,
-75,
-76,
-76,
-75,
-75,
-76,
-76,
-74,
-74,
-75,
-75,
-75,
-75,
-76,
-76,
-76,
-76,
-75,
-75,
-76,
-76,
-75,
-75,
-75,
-75,
-76,
-76,
-75,
-75,
-75,
-75,
-75,
-75,
-75,
-75,
-75,
-75,
-76,
-76,
-75,
-75,
-75,
-75,
-76,
-76,
-75,
-75,
-76,
-76,
-75,
-75,
-76,
-76,
-75,
-75,
-75,
-75,
-76,
-76,
-76,
-76,
-75,
-75,
-75,
-75,
-75,
-75,
-75,
-75,
-75,
-75,
-76,
-76,
-75,
-75,
-76,
-76,
-75,
-75,
-75,
-75,
-75,
-75,
-76,
-76,
-75,
-75,
-76,
-76,
-76,
-76,
-75,
-75,
-76,
-76,
-76,
-76,
-76,
-76,
-76,
-76,
-75,
-75,
-76,
-76,
-76,
-76,
-76,
-76,
-75,
-75,
-75,
-75,
-75,
-75,
-76,
-76,
-75,
-75,
-76,
-76,
-75,
-75,
-76,
-76,
-75,
-75,
-75,
-75,
-75,
-75,
-75,
-75,
-75,
-75,
-76,
-76,
-75,
-75,
-76,
-76,
-76,
-76,
-75,
-75,
-75,
-75,
-76,
-76,
-75,
-75,
-75,
-75,
-75,
-75,
-76,
-76,
-75,
-75,
-76,
-76,
-76,
-76,
-75,
-75,
-76,
-76,
-75,
-75,
-74,
-74,
-75,
-75,
-76,
-76,
-75,
-75,
-76,
-76,
-76,
-76,
-75,
-75,
-75,
-75,
-77,
-77,
-75,
-75,
-75,
-75,
-76,
-76,
-76,
-76,
-75,
-75,
-75,
-75,
-76,
-76,
-76,
-76,
-75,
-75,
-75,
-75,
-76,
-76,
-76,
-76,
-75,
-75,
-75,
-75,
-76,
-76,
-75,
-75,
-76,
-76,
-75,
-75,
-75,
-75,
-75,
-75,
-75,
-75,
-75,
-75,
-75,
-75,
-75,
-75,
-75,
-75,
-76,
-76,
-75,
-75,
-76,
-76,
-76,
-76,
-76,
-76,
-75,
-75,
-75,
-75,
-76,
-76,
-75,
-75,
-76,
-76,
-76,
-76,
-75,
-75,
-76,
-76,
-75,
-75,
-76,
-76,
-75,
-75,
-75,
-75,
-75,
-75,
-76,
-76,
-75,
-75,
-75,
-75,
-76,
-76,
-75,
-75,
-76,
-76,
-76,
-76,
-76,
-76,
-76,
-76,
-75,
-75,
-75,
-75,
-76,
-76,
-75,
-75,
-75,
-75,
-76,
-76,
-76,
-76,
-75,
-75,
-76,
-76,
-76,
-76,
-75,
-75,
-76,
-76,
-75,
-75,
-76,
-76,
-76,
-76,
-75,
-75,
-76,
-76,
-76,
-76,
-76,
-76,
-75,
-75,
-75,
-75,
-75,
-75,
-76,
-76,
-75,
-75,
-75,
-75,
-76,
-76,
-75,
-75,
-76,
-76,
-76,
-76,
-76,
-76,
-75,
-75,
-76,
-76,
-75,
-75,
-75,
-75,
-75,
-75,
-75,
-75,
-76,
-76,
-76,
-76,
-75,
-75,
-75,
-75,
-75,
-75,
-76,
-76,
-76,
-76,
-75,
-75,
-76,
-76,
-75,
-75,
-75,
-75,
-75,
-75,
-75,
-75,
-76,
-76,
-75,
-75,
-75,
-75,
-76,
-76,
-74,
-74,
-76,
-76,
-76,
-76,
-76,
-76,
-75,
-75,
-75,
-75,
-76,
-76,
-75,
-75,
-75,
-75,
-75,
-75,
-75,
-75,
-76,
-76,
-76,
-76,
-75,
-75,
-75,
-75,
-75,
-75,
-75,
-75,
-75,
-75,
-75,
-75,
-75,
-75,
-77,
-77,
-75,
-75,
-75,
-75,
-76,
-76,
-75,
-75,
-75,
-75,
-75,
-75,
-75,
-75,
-75,
-75,
-76,
-76,
-75,
-75,
-76,
-76,
-75,
-75,
-75,
-75,
-76,
-76,
-75,
-75,
-75,
-75,
-75,
-75,
-75,
-75,
-75,
-75,
-75,
-75,
-75,
-75,
-75,
-75,
-75,
-75,
-76,
-76,
-76,
-76,
-75,
-75,
-76,
-76,
-76,
-76,
-76,
-76,
-75,
-75,
-75,
-75,
-76,
-76,
-76,
-76,
-75,
-75,
-76,
-76,
-75,
-75,
-75,
-75,
-76,
-76,
-75,
-75,
-75,
-75,
-76,
-76,
-76,
-76,
-76,
-76,
-75,
-75,
-76,
-76,
-75,
-75,
-75,
-75,
-76,
-76,
-75,
-75,
-75,
-75,
-75,
-75,
-75,
-75,
-76,
-76,
-75,
-75,
-75,
-75,
-76,
-76,
-75,
-75,
-75,
-75,
-76,
-76,
-76,
-76,
-76,
-76,
-76,
-76,
-76,
-76,
-76,
-76,
-75,
-75,
-76,
-76,
-75,
-75,
-76,
-76,
-76,
-76,
-75,
-75,
-75,
-75,
-76,
-76,
-76,
-76,
-76,
-76,
-76,
-76,
-76,
-76,
-75,
-75,
-75,
-75,
-76,
-76,
-75,
-75,
-75,
-75,
-75,
-75,
-75,
-75,
-75,
-75,
-76,
-76,
-76,
-76,
-75,
-75,
-76,
-76,
-75,
-75,
-76,
-76,
-76,
-76,
-76,
-76,
-75,
-75,
-75,
-75,
-75,
-75,
-75,
-75,
-75,
-75,
-75,
-75,
-76,
-76,
-75,
-75,
-75,
-75,
-75,
-75,
-76,
-76,
-75,
-75,
-76,
-76,
-76,
-76,
-75,
-75,
-75,
-75,
-76,
-76,
-76,
-76,
-76,
-76,
-76,
-76,
-76,
-76,
-76,
-76,
-76,
-76,
-75,
-75,
-75,
-75,
-75,
-75,
-75,
-75,
-76,
-76,
-75,
-75,
-75,
-75,
-76,
-76,
-76,
-76,
-76,
-76,
-76,
-76,
-76,
-76,
-75,
-75,
-76,
-76,
-75,
-75,
-76,
-76,
-76,
-76,
-76,
-76,
-75,
-75,
-75,
-75,
-75,
-75,
-76,
-76,
-76,
-76,
-76,
-76,
-76,
-76,
-75,
-75,
-75,
-75,
-75,
-75,
-75,
-75,
-75,
-75,
-75,
-75,
-75,
-75,
-76,
-76,
-75,
-75,
-76,
-76,
-76,
-76,
-76,
-76,
-76,
-76,
-75,
-75,
-75,
-75,
-75,
-75,
-75,
-75,
-75,
-75,
-76,
-76,
-76,
-76,
-75,
-75,
-75,
-75,
-76,
-76,
-75,
-75,
-75,
-75,
-76,
-76,
-75,
-75,
-75,
-75,
-75,
-75,
-76,
-76,
-76,
-76,
-76,
-76,
-75,
-75,
-75,
-75,
-75,
-75,
-75,
-75,
-76,
-76,
-75,
-75,
-75,
-75,
-76,
-76,
-75,
-75,
-75,
-75,
-75,
-75,
-75,
-75,
-75,
-75,
-76,
-76,
-76,
-76,
-76,
-76,
-75,
-75,
-74,
-74,
-75,
-75,
-76,
-76,
-75,
-75,
-76,
-76,
-75,
-75,
-75,
-75,
-76,
-76,
-75,
-75,
-76,
-76,
-75,
-75,
-75,
-75,
-76,
-76,
-75,
-75,
-75,
-75,
-75,
-75,
-75,
-75,
-76,
-76,
-76,
-76,
-75,
-75,
-76,
-76,
-75,
-75,
-75,
-75,
-75,
-75,
-76,
-76,
-75,
-75,
-75,
-75,
-76,
-76,
-76,
-76,
-75,
-75,
-76,
-76,
-76,
-76,
-76,
-76,
-75,
-75,
-75,
-75,
-75,
-75,
-75,
-75,
-75,
-75,
-76,
-76,
-75,
-75,
-75,
-75,
-76,
-76,
-76,
-76,
-76,
-76,
-76,
-76,
-76,
-76,
-75,
-75,
-76,
-76,
-75,
-75,
-75,
-75,
-75,
-75,
-75,
-75,
-76,
-76,
-75,
-75,
-76,
-76,
-75,
-75,
-75,
-75,
-76,
-76,
-76,
-76,
-76,
-76,
-75,
-75,
-75,
-75,
-76,
-76,
-76,
-76,
-76,
-76,
-75,
-75,
-75,
-75,
-76,
-76,
-75,
-75,
-75,
-75,
-76,
-76,
-76,
-76,
-75,
-75,
-76,
-76,
-75,
-75,
-75,
-75,
-76,
-76,
-76,
-76,
-75,
-75,
-75,
-75,
-76,
-76,
-76,
-76,
-76,
-76,
-75,
-75,
-75,
-75,
-75,
-75,
-75,
-75,
-75,
-75,
-75,
-75,
-75,
-75,
-76,
-76,
-75,
-75,
-76,
-76,
-75,
-75,
-75,
-75,
-76,
-76,
-75,
-75,
-76,
-76,
-76,
-76,
-76,
-76,
-75,
-75,
-75,
-75,
-76,
-76,
-75,
-75,
-75,
-75,
-75,
-75,
-76,
-76,
-75,
-75,
-76,
-76,
-76,
-76,
-75,
-75,
-75,
-75,
-76,
-76,
-75,
-75,
-76,
-76,
-75,
-75,
-76,
-76,
-76,
-76,
-75,
-75,
-75,
-75,
-76,
-76,
-76,
-76,
-76,
-76,
-75,
-75,
-75,
-75,
-76,
-76,
-76,
-76,
-75,
-75,
-76,
-76,
-75,
-75,
-75,
-75,
-76,
-76,
-75,
-75,
-76,
-76,
-76,
-76,
-76,
-76,
-76,
-76,
-76,
-76,
-75,
-75,
-75,
-75,
-75,
-75,
-75,
-75,
-75,
-75,
-75,
-75,
-75,
-75,
-75,
-75,
-75,
-75,
-76,
-76,
-75,
-75,
-75,
-75,
-76,
-76,
-75,
-75,
-76,
-76,
-75,
-75,
-75,
-75,
-75,
-75,
-75,
-75,
-75,
-75,
-75,
-75,
-76,
-76,
-76,
-76,
-76,
-76,
-75,
-75,
-75,
-75,
-76,
-76,
-75,
-75,
-75,
-75,
-75,
-75,
-75,
-75,
-75,
-75,
-75,
-75,
-75,
-75,
-75,
-75,
-75,
-75,
-76,
-76,
-75,
-75,
-75,
-75,
-75,
-75,
-75,
-75,
-76,
-76,
-75,
-75,
-76,
-76,
-76,
-76,
-75,
-75,
-76,
-76,
-75,
-75,
-75,
-75,
-74,
-74,
-75,
-75,
-76,
-76,
-75,
-75,
-75,
-75,
-76,
-76,
-76,
-76,
-76,
-76,
-76,
-76,
-75,
-75,
-75,
-75,
-76,
-76,
-76,
-76,
-75,
-75,
-76,
-76,
-75,
-75,
-75,
-75,
-75,
-75,
-76,
-76,
-76,
-76,
-75,
-75,
-76,
-76,
-75,
-75,
-76,
-76,
-75,
-75,
-74,
-74,
-75,
-75,
-75,
-75,
-76,
-76,
-76,
-76,
-76,
-76,
-75,
-75,
-75,
-75,
-76,
-76,
-77,
-77,
-76,
-76,
-76,
-76,
-76,
-76,
-76,
-76,
-76,
-76,
-76,
-76,
-75,
-75,
-76,
-76,
-75,
-75,
-75,
-75,
-76,
-76,
-75,
-75,
-75,
-75,
-76,
-76,
-76,
-76,
-75,
-75,
-76,
-76,
-76,
-76,
-75,
-75,
-75,
-75,
-75,
-75,
-75,
-75,
-75,
-75,
-75,
-75,
-76,
-76,
-75,
-75,
-75,
-75,
-75,
-75,
-75,
-75,
-76,
-76,
-76,
-76,
-76,
-76,
-75,
-75,
-75,
-75,
-76,
-76,
-75,
-75,
-76,
-76,
-75,
-75,
-76,
-76,
-76,
-76,
-75,
-75,
-76,
-76,
-76,
-76,
-75,
-75,
-75,
-75,
-76,
-76,
-75,
-75,
-75,
-75,
-77,
-77,
-75,
-75,
-75,
-75,
-75,
-75,
-76,
-76,
-75,
-75,
-76,
-76,
-75,
-75,
-76,
-76,
-76,
-76,
-75,
-75,
-75,
-75,
-75,
-75,
-76,
-76,
-76,
-76,
-75,
-75,
-76,
-76,
-75,
-75,
-76,
-76,
-75,
-75,
-75,
-75,
-75,
-75,
-75,
-75,
-75,
-75,
-76,
-76,
-76,
-76,
-76,
-76,
-76,
-76,
-76,
-76,
-75,
-75,
-75,
-75,
-74,
-74,
-75,
-75,
-75,
-75,
-75,
-75,
-75,
-75,
-75,
-75,
-75,
-75,
-75,
-75,
-76,
-76,
-75,
-75,
-76,
-76,
-75,
-75,
-75,
-75,
-76,
-76,
-75,
-75,
-76,
-76,
-76,
-76,
-76,
-76,
-76,
-76,
-76,
-76,
-76,
-76,
-76,
-76,
-75,
-75,
-76,
-76,
-76,
-76,
-75,
-75,
-75,
-75,
-75,
-75,
-75,
-75,
-76,
-76,
-75,
-75,
-76,
-76,
-75,
-75,
-76,
-76,
-75,
-75,
-75,
-75,
-75,
-75,
-75,
-75,
-75,
-75,
-76,
-76,
-75,
-75,
-75,
-75,
-75,
-75,
-75,
-75,
-75,
-75,
-75,
-75,
-76,
-76,
-75,
-75,
-75,
-75,
-75,
-75,
-76,
-76,
-75,
-75,
-75,
-75,
-75,
-75,
-73,
-73,
-75,
-75,
-76,
-76,
-75,
-75,
-76,
-76,
-75,
-75,
-76,
-76,
-76,
-76,
-76,
-76,
-76,
-76,
-76,
-76,
-75,
-75,
-75,
-75,
-75,
-75,
-76,
-76,
-75,
-75,
-76,
-76,
-75,
-75,
-74,
-74,
-75,
-75,
-75,
-75,
-76,
-76,
-76,
-76,
-75,
-75,
-75,
-75,
-76,
-76,
-76,
-76,
-75,
-75,
-75,
-75,
-76,
-76,
-75,
-75,
-75,
-75,
-75,
-75,
-75,
-75,
-75,
-75,
-76,
-76,
-75,
-75,
-75,
-75,
-75,
-75,
-76,
-76,
-76,
-76,
-76,
-76,
-75,
-75,
-75,
-75,
-75,
-75,
-75,
-75,
-75,
-75,
-76,
-76,
-76,
-76,
-75,
-75,
-75,
-75,
-75,
-75,
-76,
-76,
-75,
-75,
-76,
-76,
-76,
-76,
-75,
-75,
-75,
-75,
-75,
-75,
-75,
-75,
-75,
-75,
-76,
-76,
-75,
-75,
-75,
-75,
-75,
-75,
-76,
-76,
-74,
-74,
-75,
-75,
-75,
-75,
-75,
-75,
-75,
-75,
-76,
-76,
-75,
-75,
-76,
-76,
-76,
-76,
-75,
-75,
-75,
-75,
-76,
-76,
-75,
-75,
-76,
-76,
-76,
-76,
-76,
-76,
-75,
-75,
-75,
-75,
-75,
-75,
-76,
-76,
-75,
-75,
-76,
-76,
-74,
-74,
-75,
-75,
-75,
-75,
-76,
-76,
-75,
-75,
-76,
-76,
-76,
-76,
-75,
-75,
-76,
-76,
-76,
-76,
-76,
-76,
-75,
-75,
-75,
-75,
-74,
-74,
-75,
-75,
-76,
-76,
-76,
-76,
-75,
-75,
-77,
-77,
-75,
-75,
-76,
-76,
-76,
-76,
-75,
-75,
-75,
-75,
-75,
-75,
-75,
-75,
-76,
-76,
-76,
-76,
-75,
-75,
-75,
-75,
-75,
-75,
-75,
-75,
-76,
-76,
-76,
-76,
-75,
-75,
-75,
-75,
-75,
-75,
-75,
-75,
-76,
-76,
-74,
-74,
-76,
-76,
-75,
-75,
-76,
-76,
-76,
-76,
-76,
-76,
-76,
-76,
-75,
-75,
-76,
-76,
-75,
-75,
-76,
-76,
-76,
-76,
-75,
-75,
-76,
-76,
-75,
-75,
-76,
-76,
-75,
-75,
-75,
-75,
-76,
-76,
-76,
-76,
-76,
-76,
-76,
-76,
-76,
-76,
-75,
-75,
-75,
-75,
-75,
-75,
-75,
-75,
-76,
-76,
-76,
-76,
-75,
-75,
-76,
-76,
-75,
-75,
-76,
-76,
-75,
-75,
-76,
-76,
-76,
-76,
-75,
-75,
-76,
-76,
-75,
-75,
-75,
-75,
-76,
-76,
-75,
-75,
-75,
-75,
-76,
-76,
-76,
-76,
-75,
-75,
-75,
-75,
-76,
-76,
-76,
-76,
-75,
-75,
-76,
-76,
-75,
-75,
-76,
-76,
-76,
-76,
-75,
-75,
-76,
-76,
-75,
-75,
-76,
-76,
-75,
-75,
-75,
-75,
-76,
-76,
-75,
-75,
-74,
-74,
-76,
-76,
-75,
-75,
-75,
-75,
-75,
-75,
-76,
-76,
-75,
-75,
-75,
-75,
-75,
-75,
-77,
-77,
-75,
-75,
-76,
-76,
-75,
-75,
-75,
-75,
-75,
-75,
-75,
-75,
-76,
-76,
-75,
-75,
-76,
-76,
-75,
-75,
-75,
-75,
-76,
-76,
-75,
-75,
-76,
-76,
-75,
-75,
-75,
-75,
-76,
-76,
-76,
-76,
-76,
-76,
-76,
-76,
-76,
-76,
-76,
-76,
-75,
-75,
-76,
-76,
-75,
-75,
-76,
-76,
-76,
-76,
-76,
-76,
-76,
-76,
-76,
-76,
-75,
-75,
-75,
-75,
-75,
-75,
-75,
-75,
-76,
-76,
-76,
-76,
-75,
-75,
-75,
-75,
-75,
-75,
-76,
-76,
-75,
-75,
-76,
-76,
-75,
-75,
-74,
-74,
-75,
-75,
-75,
-75,
-75,
-75,
-75,
-75,
-75,
-75,
-75,
-75,
-75,
-75,
-75,
-75,
-76,
-76,
-76,
-76,
-75,
-75,
-75,
-75,
-75,
-75,
-75,
-75,
-76,
-76,
-75,
-75,
-75,
-75,
-76,
-76,
-76,
