6-anwendungen-opAmps/daten/ALL0039/A0039CH2.CSV

Memory Length,4000,
Trigger Level,6.18000e+02,
Source,CH2,
Probe,1.0X,
Vertical Units,V,
Vertical Scale,2.00000e-01,
Vertical Position,0.00000e+00,
Horizontal Units,S,
Horizontal Scale,5.00000e-04,
Horizontal Position,-7.0000000e-04,
Horizontal Mode,Main,
Sampling Period,2.00000e-06,
Firmware,V1.14,
Time, ,
Mode,Fast,
Waveform Data,
-3,
-3,
-3,
-1,
-1,
0,
0,
-1,
-1,
-2,
-2,
-2,
-2,
0,
0,
0,
0,
0,
0,
-2,
-2,
-1,
-1,
0,
0,
1,
1,
1,
1,
-3,
-3,
1,
1,
1,
1,
-1,
-1,
1,
1,
0,
0,
2,
2,
-2,
-2,
0,
0,
-1,
-1,
-1,
-1,
0,
0,
-1,
-1,
0,
0,
0,
0,
0,
0,
-1,
-1,
0,
0,
1,
1,
-1,
-1,
-1,
-1,
2,
2,
-2,
-2,
-2,
-2,
0,
0,
-1,
-1,
-1,
-1,
-1,
-1,
-2,
-2,
0,
0,
0,
0,
-1,
-1,
1,
1,
1,
1,
-2,
-2,
1,
1,
-2,
-2,
-1,
-1,
0,
0,
0,
0,
-1,
-1,
0,
0,
-1,
-1,
-2,
-2,
1,
1,
1,
1,
0,
0,
-1,
-1,
-3,
-3,
-3,
-3,
-2,
-2,
0,
0,
-1,
-1,
-1,
-1,
-1,
-1,
0,
0,
-1,
-1,
0,
0,
-1,
-1,
-2,
-2,
0,
0,
-1,
-1,
-1,
-1,
-1,
-1,
1,
1,
-3,
-3,
2,
2,
0,
0,
0,
0,
-1,
-1,
0,
0,
-1,
-1,
0,
0,
-3,
-3,
-1,
-1,
-3,
-3,
0,
0,
0,
0,
-2,
-2,
1,
1,
1,
1,
-1,
-1,
2,
2,
0,
0,
-1,
-1,
-1,
-1,
-1,
-1,
0,
0,
-1,
-1,
-2,
-2,
1,
1,
0,
0,
1,
1,
0,
0,
0,
0,
-2,
-2,
0,
0,
1,
1,
0,
0,
1,
1,
0,
0,
0,
0,
1,
1,
0,
0,
-2,
-2,
0,
0,
0,
0,
-1,
-1,
-1,
-1,
-1,
-1,
1,
1,
0,
0,
-2,
-2,
1,
1,
-2,
-2,
0,
0,
0,
0,
-1,
-1,
1,
1,
1,
1,
0,
0,
0,
0,
-1,
-1,
1,
1,
-2,
-2,
-1,
-1,
-2,
-2,
0,
0,
0,
0,
-1,
-1,
-1,
-1,
0,
0,
-1,
-1,
2,
2,
0,
0,
0,
0,
0,
0,
-2,
-2,
1,
1,
-2,
-2,
1,
1,
-1,
-1,
-2,
-2,
-3,
-3,
0,
0,
0,
0,
1,
1,
-2,
-2,
0,
0,
-2,
-2,
-2,
-2,
0,
0,
1,
1,
0,
0,
-1,
-1,
0,
0,
-2,
-2,
0,
0,
1,
1,
1,
1,
-1,
-1,
-1,
-1,
-2,
-2,
0,
0,
-1,
-1,
-1,
-1,
1,
1,
-2,
-2,
-1,
-1,
2,
2,
0,
0,
-1,
-1,
-2,
-2,
0,
0,
2,
2,
1,
1,
1,
1,
0,
0,
1,
1,
0,
0,
-1,
-1,
-1,
-1,
-1,
-1,
-1,
-1,
1,
1,
0,
0,
-1,
-1,
-2,
-2,
-1,
-1,
1,
1,
-1,
-1,
0,
0,
-1,
-1,
0,
0,
1,
1,
-1,
-1,
-2,
-2,
-1,
-1,
-1,
-1,
2,
2,
-2,
-2,
0,
0,
-2,
-2,
-2,
-2,
-2,
-2,
1,
1,
-1,
-1,
0,
0,
1,
1,
1,
1,
0,
0,
0,
0,
-1,
-1,
-2,
-2,
2,
2,
-1,
-1,
-1,
-1,
0,
0,
-1,
-1,
1,
1,
-3,
-3,
0,
0,
-1,
-1,
-2,
-2,
0,
0,
0,
0,
0,
0,
2,
2,
-2,
-2,
-3,
-3,
0,
0,
0,
0,
-1,
-1,
-1,
-1,
-1,
-1,
0,
0,
-3,
-3,
-1,
-1,
-1,
-1,
-1,
-1,
1,
1,
0,
0,
-2,
-2,
1,
1,
1,
1,
0,
0,
0,
0,
0,
0,
-3,
-3,
-1,
-1,
0,
0,
-1,
-1,
-1,
-1,
-2,
-2,
-1,
-1,
0,
0,
0,
0,
-1,
-1,
0,
0,
1,
1,
-2,
-2,
-1,
-1,
-1,
-1,
0,
0,
0,
0,
-1,
-1,
0,
0,
0,
0,
-1,
-1,
0,
0,
-2,
-2,
-1,
-1,
-1,
-1,
0,
0,
-2,
-2,
-1,
-1,
-2,
-2,
2,
2,
-1,
-1,
-1,
-1,
-3,
-3,
1,
1,
-2,
-2,
0,
0,
0,
0,
0,
0,
1,
1,
0,
0,
0,
0,
-1,
-1,
0,
0,
-1,
-1,
-1,
-1,
-1,
-1,
-3,
-3,
0,
0,
-1,
-1,
1,
1,
-1,
-1,
-2,
-2,
1,
1,
-1,
-1,
-2,
-2,
-2,
-2,
-2,
-2,
-1,
-1,
-2,
-2,
-3,
-3,
-3,
-3,
-1,
-1,
0,
0,
-1,
-1,
-2,
-2,
0,
0,
0,
0,
-2,
-2,
-1,
-1,
-3,
-3,
-1,
-1,
-2,
-2,
1,
1,
-3,
-3,
-1,
-1,
-3,
-3,
-2,
-2,
-2,
-2,
-1,
-1,
-1,
-1,
1,
1,
-1,
-1,
-1,
-1,
0,
0,
-3,
-3,
-3,
-3,
-1,
-1,
-1,
-1,
-1,
-1,
-3,
-3,
-4,
-4,
-3,
-3,
-1,
-1,
-2,
-2,
-1,
-1,
-4,
-4,
0,
0,
-3,
-3,
-3,
-3,
-1,
-1,
-2,
-2,
-2,
-2,
-2,
-2,
-3,
-3,
-4,
-4,
-2,
-2,
-3,
-3,
-2,
-2,
-3,
-3,
-4,
-4,
-3,
-3,
-2,
-2,
-2,
-2,
-2,
-2,
-3,
-3,
-3,
-3,
-2,
-2,
-2,
-2,
-2,
-2,
-3,
-3,
-2,
-2,
-2,
-2,
-4,
-4,
-3,
-3,
-2,
-2,
-3,
-3,
-3,
-3,
-3,
-3,
-1,
-1,
-2,
-2,
-4,
-4,
-2,
-2,
-3,
-3,
-3,
-3,
-2,
-2,
-1,
-1,
-2,
-2,
-2,
-2,
-2,
-2,
-3,
-3,
-3,
-3,
-2,
-2,
-3,
-3,
-4,
-4,
-4,
-4,
-5,
-5,
-4,
-4,
-3,
-3,
-4,
-4,
-3,
-3,
-4,
-4,
-5,
-5,
-4,
-4,
-5,
-5,
-5,
-5,
-5,
-5,
-4,
-4,
-4,
-4,
-5,
-5,
-4,
-4,
-5,
-5,
-4,
-4,
-4,
-4,
-3,
-3,
-4,
-4,
-3,
-3,
-6,
-6,
-4,
-4,
-4,
-4,
-5,
-5,
-5,
-5,
-6,
-6,
-6,
-6,
-4,
-4,
-6,
-6,
-7,
-7,
-5,
-5,
-4,
-4,
-5,
-5,
-4,
-4,
-5,
-5,
-5,
-5,
-6,
-6,
-8,
-8,
-5,
-5,
-6,
-6,
-7,
-7,
-4,
-4,
-8,
-8,
-6,
-6,
-6,
-6,
-5,
-5,
-7,
-7,
-6,
-6,
-7,
-7,
-6,
-6,
-7,
-7,
-8,
-8,
-8,
-8,
-6,
-6,
-8,
-8,
-9,
-9,
-9,
-9,
-7,
-7,
-9,
-9,
-10,
-10,
-10,
-10,
-8,
-8,
-10,
-10,
-9,
-9,
-9,
-9,
-11,
-11,
-11,
-11,
-12,
-12,
-11,
-11,
-13,
-13,
-13,
-13,
-11,
-11,
-12,
-12,
-12,
-12,
-13,
-13,
-14,
-14,
-15,
-15,
-17,
-17,
-18,
-18,
-16,
-16,
-18,
-18,
-20,
-20,
-18,
-18,
-24,
-24,
-27,
-27,
-28,
-28,
-32,
-32,
-34,
-34,
-41,
-41,
-46,
-46,
-51,
-51,
-54,
-54,
-60,
-60,
-67,
-67,
-70,
-70,
-77,
-77,
-78,
-78,
-75,
-75,
-75,
-75,
-71,
-71,
-68,
-68,
-66,
-66,
-62,
-62,
-57,
-57,
-55,
-55,
-55,
-55,
-56,
-56,
-59,
-59,
-64,
-64,
-65,
-65,
-71,
-71,
-72,
-72,
-78,
-78,
-81,
-81,
-89,
-89,
-87,
-87,
-86,
-86,
-84,
-84,
-77,
-77,
-73,
-73,
-70,
-70,
-68,
-68,
-61,
-61,
-57,
-57,
-56,
-56,
-55,
-55,
-58,
-58,
-59,
-59,
-62,
-62,
-63,
-63,
-70,
-70,
-75,
-75,
-80,
-80,
-77,
-77,
-73,
-73,
-70,
-70,
-66,
-66,
-62,
-62,
-57,
-57,
-53,
-53,
-44,
-44,
-43,
-43,
-40,
-40,
-41,
-41,
-40,
-40,
-44,
-44,
-45,
-45,
-50,
-50,
-54,
-54,
-62,
-62,
-55,
-55,
-54,
-54,
-48,
-48,
-45,
-45,
-43,
-43,
-37,
-37,
-29,
-29,
-23,
-23,
-19,
-19,
-19,
-19,
-18,
-18,
-20,
-20,
-22,
-22,
-23,
-23,
-27,
-38,
-38,
-38,
-36,
-36,
-34,
-34,
-29,
-29,
-25,
-25,
-22,
-22,
-17,
-17,
-9,
-9,
-1,
-1,
0,
0,
3,
3,
2,
2,
0,
0,
-4,
-4,
-6,
-6,
-13,
-13,
-20,
-20,
-18,
-18,
-16,
-16,
-9,
-9,
-7,
-7,
-4,
-4,
1,
1,
10,
10,
15,
15,
14,
14,
15,
15,
13,
13,
10,
10,
4,
4,
5,
-12,
-9,
-9,
-7,
-7,
-4,
-4,
-1,
-1,
1,
1,
6,
6,
10,
25,
24,
24,
23,
23,
22,
22,
20,
20,
20,
20,
15,
15,
11,
11,
4,
4,
-3,
-3,
-1,
-1,
1,
1,
5,
5,
9,
9,
14,
14,
21,
21,
30,
30,
26,
26,
25,
25,
24,
24,
18,
18,
12,
12,
6,
6,
-3,
-3,
0,
0,
3,
3,
7,
7,
11,
11,
17,
28,
27,
27,
28,
28,
26,
26,
24,
24,
22,
22,
17,
17,
16,
1,
4,
4,
-2,
-2,
4,
4,
5,
5,
10,
10,
14,
14,
20,
31,
26,
26,
23,
23,
23,
23,
19,
19,
17,
17,
11,
11,
6,
-5,
-3,
-3,
0,
0,
0,
0,
4,
4,
9,
9,
15,
28,
26,
26,
21,
21,
19,
19,
16,
16,
11,
11,
7,
-4,
-4,
-4,
-5,
-5,
-3,
-3,
-2,
-2,
4,
4,
8,
22,
21,
21,
17,
17,
18,
18,
13,
13,
12,
12,
5,
5,
2,
-11,
-9,
-9,
-7,
-7,
-5,
-5,
-2,
-2,
2,
2,
8,
21,
17,
17,
15,
15,
11,
11,
6,
6,
5,
5,
-2,
-14,
-13,
-13,
-10,
-10,
-8,
-8,
-5,
-5,
-1,
-1,
7,
18,
12,
12,
13,
13,
5,
5,
5,
5,
2,
2,
-4,
-16,
-15,
-15,
-14,
-14,
-12,
-12,
-7,
-7,
-4,
8,
8,
8,
6,
6,
7,
7,
3,
3,
3,
3,
-3,
-16,
-17,
-17,
-16,
-16,
-12,
-12,
-11,
-11,
-5,
-5,
0,
13,
6,
6,
8,
8,
5,
5,
2,
2,
0,
-11,
-8,
-21,
-18,
-18,
-16,
-16,
-11,
-11,
-8,
-8,
-3,
11,
8,
8,
6,
6,
2,
2,
3,
3,
-1,
-12,
-8,
-22,
-18,
-18,
-17,
-17,
-13,
-13,
-7,
-7,
-3,
11,
9,
-2,
3,
3,
2,
2,
0,
0,
-4,
-16,
-14,
-14,
-21,
-21,
-14,
-14,
-13,
-13,
-10,
3,
-1,
11,
0,
0,
5,
5,
2,
2,
-1,
-1,
-5,
-19,
-18,
-18,
-18,
-18,
-14,
-14,
-11,
1,
-2,
11,
4,
4,
4,
4,
4,
4,
2,
2,
-4,
-18,
-15,
-15,
-16,
-16,
-16,
-16,
-12,
-12,
-6,
9,
7,
7,
4,
4,
3,
3,
3,
3,
-3,
-3,
-12,
-12,
-18,
-18,
-14,
-14,
-12,
-12,
-2,
12,
8,
8,
2,
2,
7,
7,
0,
0,
-2,
-13,
-12,
-12,
-17,
-17,
-14,
-14,
-6,
-6,
-2,
13,
11,
0,
6,
6,
4,
4,
5,
5,
-2,
-17,
-16,
-16,
-14,
-14,
-10,
-10,
-7,
-7,
-3,
14,
1,
1,
8,
8,
3,
3,
2,
2,
-6,
-18,
-15,
-15,
-11,
-11,
-10,
-10,
-5,
10,
9,
9,
3,
3,
7,
7,
1,
1,
0,
-15,
-13,
-13,
-14,
-14,
-11,
-11,
-5,
-5,
3,
15,
11,
11,
9,
9,
4,
4,
1,
1,
-5,
-17,
-14,
-14,
-11,
-11,
-6,
-6,
-1,
14,
13,
2,
7,
7,
6,
6,
2,
2,
-1,
-17,
-14,
-14,
-10,
-10,
-7,
-7,
-4,
16,
15,
2,
8,
8,
6,
6,
1,
1,
-4,
-16,
-15,
-15,
-9,
-9,
-4,
-4,
0,
16,
15,
1,
9,
9,
6,
6,
4,
-10,
-7,
-7,
-14,
-14,
-11,
-11,
-6,
5,
2,
16,
8,
8,
10,
10,
2,
2,
0,
-14,
-13,
-13,
-8,
-8,
-9,
-9,
-3,
10,
7,
7,
3,
3,
6,
6,
3,
3,
0,
-16,
-15,
-15,
-10,
-10,
-7,
-7,
-1,
16,
15,
1,
9,
9,
5,
5,
3,
-9,
-6,
-17,
-10,
-10,
-8,
-8,
-5,
16,
14,
1,
4,
4,
5,
5,
0,
0,
-8,
-8,
-10,
-10,
-11,
-11,
-3,
10,
8,
8,
5,
5,
7,
7,
3,
3,
1,
-16,
-15,
-15,
-9,
-9,
-8,
3,
0,
16,
3,
3,
9,
9,
4,
4,
-1,
-17,
-13,
-13,
-10,
-10,
-5,
-5,
-1,
15,
11,
0,
8,
8,
1,
1,
0,
-17,
-15,
-15,
-11,
-11,
-7,
6,
3,
16,
11,
-1,
6,
6,
2,
2,
-4,
-18,
-14,
-14,
-12,
-12,
-6,
6,
5,
16,
2,
2,
7,
7,
1,
1,
-8,
-8,
-13,
-13,
-9,
-9,
-3,
15,
12,
-1,
7,
7,
2,
2,
1,
-13,
-14,
-14,
-9,
-9,
-8,
-8,
-3,
15,
11,
-1,
5,
5,
4,
4,
-2,
-17,
-14,
-14,
-11,
-11,
-8,
8,
8,
8,
3,
3,
5,
5,
-1,
-12,
-9,
-9,
-12,
-12,
-10,
-10,
0,
16,
7,
7,
6,
6,
1,
1,
-1,
-16,
-13,
-13,
-12,
-12,
-7,
9,
6,
6,
2,
2,
6,
6,
0,
-15,
-14,
-14,
-11,
-11,
-7,
10,
11,
-2,
1,
1,
6,
6,
2,
2,
-5,
-17,
-13,
-13,
-11,
2,
0,
16,
15,
-2,
9,
9,
0,
0,
-1,
-17,
-14,
-14,
-10,
-10,
-4,
15,
4,
4,
6,
6,
2,
2,
-4,
-17,
-11,
-11,
-9,
-9,
-1,
16,
11,
-1,
6,
6,
1,
1,
-6,
-18,
-13,
-13,
-8,
-8,
-4,
16,
12,
-2,
5,
5,
3,
3,
-4,
-17,
-11,
-11,
-9,
-9,
-4,
16,
5,
5,
4,
4,
0,
0,
-8,
-8,
-11,
-11,
-8,
-8,
1,
16,
1,
1,
9,
9,
2,
-15,
-15,
-15,
-10,
-10,
-6,
16,
14,
-2,
5,
5,
3,
3,
-1,
-17,
-14,
-14,
-8,
-8,
-6,
15,
14,
-2,
5,
5,
3,
-12,
-10,
-10,
-11,
-11,
-7,
10,
5,
16,
1,
1,
4,
4,
1,
-17,
-16,
-16,
-11,
-11,
-8,
17,
11,
-3,
4,
4,
5,
5,
-2,
-17,
-13,
-13,
-7,
4,
3,
15,
0,
0,
7,
-4,
-2,
-17,
-15,
-15,
-10,
-10,
-3,
16,
7,
7,
5,
5,
1,
-14,
-14,
-14,
-11,
-11,
-7,
11,
10,
-3,
0,
0,
3,
-10,
-6,
-17,
-14,
-14,
-8,
7,
4,
15,
1,
1,
5,
5,
-1,
-16,
-13,
-13,
-9,
-9,
-8,
15,
3,
3,
5,
5,
-2,
-17,
-14,
-14,
-11,
-11,
-7,
15,
14,
-2,
6,
6,
2,
-9,
-8,
-8,
-12,
-12,
-6,
14,
11,
-2,
3,
3,
1,
-13,
-14,
-14,
-10,
-10,
-10,
10,
8,
-3,
0,
0,
1,
1,
-3,
-17,
-11,
-11,
-8,
7,
6,
6,
3,
3,
2,
-16,
-12,
-12,
-10,
-10,
-8,
16,
13,
-2,
3,
3,
1,
-16,
-16,
-16,
-8,
-8,
-8,
15,
14,
-2,
2,
2,
5,
-17,
-14,
-14,
-10,
-10,
-4,
16,
9,
-3,
3,
3,
3,
-17,
-17,
-6,
-9,
4,
2,
16,
0,
0,
3,
3,
-1,
-17,
-15,
-15,
-9,
3,
0,
16,
3,
3,
4,
4,
-5,
-18,
-12,
-12,
-10,
12,
10,
-3,
3,
3,
4,
-10,
-10,
-10,
-10,
-10,
-7,
16,
11,
-3,
2,
2,
-2,
-17,
-17,
-6,
-9,
-9,
-3,
16,
2,
2,
5,
-13,
-11,
-11,
-13,
-13,
-6,
16,
6,
6,
6,
6,
3,
-16,
-15,
-15,
-9,
-9,
-4,
16,
2,
2,
5,
5,
-2,
-18,
-9,
-9,
-6,
16,
11,
-3,
2,
2,
-2,
-17,
-15,
-15,
-9,
2,
1,
16,
-1,
-1,
4,
-8,
-5,
-18,
-10,
-10,
-7,
16,
11,
-3,
3,
3,
0,
-18,
-13,
-13,
-9,
14,
12,
-3,
1,
1,
2,
-18,
-16,
-16,
-8,
5,
5,
16,
0,
0,
4,
-14,
-12,
-12,
-9,
-9,
-6,
16,
15,
-3,
2,
2,
0,
-18,
-9,
-9,
-8,
16,
11,
-3,
4,
4,
-1,
-18,
-11,
-11,
-9,
9,
10,
-2,
0,
0,
4,
-15,
-14,
-14,
-7,
10,
10,
-3,
1,
1,
2,
-15,
-12,
-12,
-10,
-10,
-6,
16,
10,
-3,
4,
-10,
-9,
-9,
-11,
-11,
-6,
16,
4,
4,
5,
-10,
-9,
-9,
-11,
-11,
-8,
16,
15,
-3,
4,
4,
1,
-18,
-14,
-14,
-9,
16,
9,
-3,
4,
4,
2,
-18,
-11,
-11,
-6,
16,
7,
7,
3,
3,
-5,
-18,
-12,
-12,
-6,
16,
11,
-3,
3,
3,
0,
-18,
-13,
-13,
-4,
16,
14,
-3,
4,
-8,
-8,
-8,
-11,
-11,
-2,
16,
7,
-4,
5,
-13,
-9,
-9,
-10,
-10,
-5,
15,
-1,
-1,
4,
-13,
-12,
-12,
-9,
7,
5,
16,
-1,
-1,
4,
-12,
-10,
-10,
-11,
2,
0,
15,
1,
1,
3,
-19,
-12,
-12,
-6,
13,
10,
-3,
4,
4,
0,
-18,
-15,
-15,
-8,
16,
8,
-4,
3,
3,
-6,
-18,
-11,
-11,
-3,
15,
1,
1,
1,
-18,
-16,
-16,
-8,
16,
13,
-3,
2,
2,
-1,
-19,
-15,
-4,
-6,
16,
8,
-3,
3,
3,
-6,
-18,
-12,
-12,
-5,
16,
1,
1,
1,
-18,
-16,
-5,
-7,
16,
13,
-3,
2,
2,
-2,
-18,
-12,
-12,
-7,
16,
10,
-3,
2,
-18,
-15,
-15,
-9,
-9,
-4,
16,
2,
2,
-1,
-18,
-13,
-13,
-7,
15,
9,
-3,
4,
-17,
-15,
-15,
-7,
6,
5,
16,
0,
0,
2,
-18,
-14,
-14,
-5,
16,
10,
-3,
2,
-13,
-12,
-12,
-7,
16,
14,
-3,
2,
2,
0,
-18,
-14,
-3,
-5,
17,
9,
-3,
1,
-18,
-15,
-15,
-6,
14,
13,
-3,
-2,
-2,
-5,
-18,
-11,
6,
4,
16,
0,
0,
3,
-16,
-17,
-6,
-7,
16,
13,
-3,
4,
4,
-2,
-18,
-9,
12,
10,
-3,
-1,
-1,
4,
-18,
-9,
-9,
-4,
16,
7,
7,
4,
-10,
-8,
-8,
-8,
14,
14,
-3,
0,
0,
1,
-18,
-13,
-13,
-5,
16,
0,
0,
5,
-18,
-15,
-15,
-8,
16,
7,
7,
3,
3,
-4,
-18,
-9,
13,
12,
-2,
0,
0,
3,
-18,
-15,
-4,
-6,
16,
14,
-3,
6,
-10,
-5,
-18,
-6,
16,
11,
-3,
4,
4,
1,
-18,
-10,
1,
-2,
16,
2,
2,
3,
-17,
-16,
-4,
-8,
16,
12,
-3,
2,
2,
-2,
-17,
-8,
-8,
-4,
16,
-1,
-1,
5,
-18,
-12,
-12,
-8,
17,
9,
-3,
2,
2,
-8,
-8,
-7,
-7,
2,
17,
1,
1,
-1,
-18,
-8,
-8,
-7,
17,
1,
1,
5,
-18,
-15,
-4,
-8,
16,
13,
-2,
4,
-8,
-8,
-8,
-5,
9,
7,
7,
6,
6,
5,
-16,
-14,
-2,
-4,
9,
10,
10,
3,
3,
6,
-15,
-14,
-2,
-6,
16,
12,
12,
6,
6,
6,
-8,
-9,
-9,
-5,
-5,
-1,
21,
18,
4,
9,
9,
7,
-12,
-7,
-7,
-3,
-3,
1,
19,
17,
5,
12,
12,
6,
6,
2,
-10,
-4,
-4,
-1,
10,
8,
22,
11,
11,
13,
13,
8,
8,
2,
-10,
-6,
-6,
-1,
-1,
2,
13,
11,
23,
18,
18,
16,
16,
13,
13,
6,
-10,
-8,
-8,
-3,
-3,
1,
1,
3,
3,
12,
23,
19,
19,
15,
15,
14,
14,
12,
12,
7,
-8,
-6,
-6,
-4,
-4,
-1,
-1,
1,
1,
3,
3,
9,
9,
15,
15,
23,
23,
20,
20,
15,
15,
14,
14,
11,
11,
4,
4,
-2,
-13,
-10,
-10,
-6,
-6,
-5,
-5,
-2,
-2,
1,
1,
6,
6,
6,
6,
12,
12,
17,
17,
23,
23,
28,
28,
27,
27,
28,
28,
27,
27,
22,
22,
17,
17,
16,
16,
13,
13,
9,
9,
3,
3,
1,
1,
-4,
-4,
-9,
-9,
-13,
-13,
-16,
-16,
-23,
-23,
-30,
-30,
-35,
-35,
-40,
-40,
-45,
-45,
-41,
-41,
-38,
-38,
-37,
-37,
-32,
-32,
-30,
-30,
-25,
-25,
-21,
-21,
-18,
-18,
-12,
-12,
-9,
-9,
-6,
-6,
1,
1,
3,
3,
8,
8,
15,
15,
22,
22,
24,
24,
28,
28,
33,
33,
39,
39,
42,
42,
46,
46,
51,
51,
58,
58,
61,
61,
66,
66,
68,
68,
74,
74,
76,
76,
79,
79,
83,
83,
87,
87,
89,
89,
90,
90,
89,
89,
89,
89,
91,
91,
93,
93,
92,
92,
92,
92,
92,
92,
91,
91,
90,
90,
90,
90,
89,
89,
88,
88,
86,
86,
84,
84,
82,
82,
80,
80,
78,
78,
77,
77,
73,
73,
72,
72,
72,
72,
66,
66,
65,
65,
64,
64,
61,
61,
59,
59,
55,
55,
53,
53,
51,
51,
47,
47,
49,
49,
45,
45,
44,
44,
41,
41,
38,
38,
40,
40,
35,
35,
31,
31,
29,
29,
29,
29,
26,
26,
25,
25,
21,
21,
22,
22,
22,
22,
18,
18,
20,
20,
16,
16,
16,
16,
13,
13,
13,
13,
11,
11,
10,
10,
11,
11,
10,
10,
8,
8,
8,
8,
6,
6,
8,
8,
5,
5,
5,
5,
5,
5,
4,
4,
1,
1,
3,
3,
3,
3,
1,
1,
3,
3,
2,
2,
0,
0,
1,
1,
0,
0,
4,
4,
2,
2,
3,
3,
1,
1,
-1,
-1,
1,
1,
3,
3,
3,
3,
3,
3,
2,
2,
0,
0,
1,
1,
1,
1,
0,
0,
-1,
-1,
2,
2,
0,
0,
1,
1,
0,
0,
4,
4,
0,
0,
3,
3,
0,
0,
-1,
-1,
1,
1,
-1,
-1,
3,
3,
1,
1,
2,
2,
1,
1,
0,
0,
1,
1,
1,
1,
1,
1,
1,
1,
1,
1,
-2,
-2,
1,
1,
0,
0,
1,
1,
-1,
-1,
0,
0,
1,
1,
2,
2,
-1,
-1,
2,
2,
0,
0,
-1,
-1,
0,
0,
1,
1,
2,
2,
-2,
-2,
1,
1,
-2,
-2,
1,
1,
-1,
-1,
-2,
-2,
-1,
-1,
-3,
-3,
-1,
-1,
-1,
-1,
-3,
-3,
-1,
-1,
-1,
-1,
1,
1,
0,
0,
0,
0,
0,
0,
0,
0,
0,
0,
1,
1,
-1,
-1,
0,
0,
-1,
-1,
0,
0,
2,
2,
0,
0,
-1,
-1,
0,
0,
1,
1,
-2,
-2,
0,
0,
-2,
-2,
0,
0,
0,
0,
-2,
-2,
-1,
-1,
0,
0,
0,
0,
-2,
-2,
1,
1,
-1,
-1,
-1,
-1,
-3,
-3,
-1,
-1,
-2,
-2,
1,
1,
-1,
-1,
1,
1,
-2,
-2,
1,
1,
-1,
-1,
1,
1,
-2,
-2,
-1,
-1,
-2,
-2,
-1,
-1,
-1,
-1,
-1,
-1,
0,
0,
1,
1,
-2,
-2,
-2,
-2,
1,
1,
-1,
-1,
-3,
-3,
1,
1,
-3,
-3,
0,
0,
0,
0,
0,
0,
-1,
-1,
-1,
-1,
-1,
-1,
0,
0,
-2,
-2,
1,
1,
-2,
-2,
-1,
-1,
-1,
-1,
0,
0,
-1,
-1,
-3,
-3,
0,
0,
-1,
-1,
-2,
-2,
-1,
-1,
-1,
-1,
1,
1,
0,
0,
-1,
-1,
-2,
-2,
0,
0,
0,
0,
2,
2,
2,
2,
-1,
-1,
0,
0,
1,
1,
-2,
-2,
2,
2,
0,
0,
-1,
-1,
-1,
-1,
-1,
-1,
-1,
-1,
2,
2,
0,
0,
0,
0,
-1,
-1,
0,
0,
1,
1,
-1,
-1,
0,
0,
0,
0,
1,
1,
-1,
-1,
1,
1,
0,
0,
0,
0,
1,
1,
-1,
-1,
0,
0,
0,
0,
-2,
-2,
-1,
-1,
0,
0,
-1,
-1,
-2,
-2,
-2,
-2,
-2,
-2,
-1,
-1,
-2,
-2,
1,
1,
0,
0,
-1,
-1,
1,
1,
0,
0,
-2,
-2,
-2,
-2,
0,
0,
1,
1,
1,
1,
-1,
-1,
0,
0,
-1,
-1,
-1,
-1,
-2,
-2,
0,
0,
-2,
-2,
2,
2,
-2,
-2,
-1,
-1,
1,
1,
-1,
-1,
0,
0,
0,
0,
-2,
-2,
0,
0,
0,
0,
0,
0,
-2,
-2,
-1,
-1,
-2,
-2,
2,
2,
0,
0,
-1,
-1,
-2,
-2,
0,
0,
0,
0,
-1,
-1,
-1,
-1,
-1,
-1,
-1,
-1,
0,
0,
0,
0,
-2,
-2,
1,
1,
0,
0,
-2,
-2,
1,
1,
-1,
-1,
-1,
-1,
0,
0,
-1,
-1,
-1,
-1,
0,
0,
1,
1,
0,
0,
0,
0,
0,
0,
1,
1,
0,
0,
0,
0,
0,
0,
1,
1,
-2,
-2,
-1,
-1,
-2,
-2,
-3,
-3,
-1,
-1,
1,
1,
0,
0,
1,
1,
3,
3,
-3,
-3,
-2,
-2,
-1,
-1,
0,
0,
0,
0,
1,
1,
-2,
-2,
-2,
-2,
1,
1,
0,
0,
-3,
-3,
0,
0,
0,
0,
0,
0,
0,
0,
2,
2,
-2,
-2,
1,
1,
-3,
-3,
-1,
-1,
-1,
-1,
0,
0,
-1,
-1,
-2,
-2,
0,
0,
-3,
-3,
1,
1,
0,
0,
0,
0,
0,
0,
-2,
-2,
0,
0,
-1,
-1,
-2,
-2,
1,
1,
0,
0,
-1,
-1,
-2,
-2,
-3,
-3,
-3,
-3,
0,
0,
0,
0,
0,
0,
-1,
-1,
-1,
-1,
-1,
-1,
1,
1,
1,
1,
0,
0,
-2,
-2,
0,
0,
0,
0,
0,
0,
-2,
-2,
-1,
-1,
-3,
-3,
0,
0,
1,
1,
-2,
-2,
0,
0,
-3,
-3,
-2,
-2,
-1,
-1,
0,
0,
1,
1,
1,
1,
1,
1,
1,
1,
0,
0,
1,
1,
1,
1,
-2,
-2,
1,
1,
-2,
-2,
0,
0,
0,
0,
-1,
-1,
0,
0,
-2,
-2,
0,
0,
-2,
-2,
1,
1,
1,
1,
-1,
-1,
0,
0,
1,
1,
1,
1,
-1,
-1,
-2,
-2,
0,
0,
-3,
-3,
0,
0,
0,
0,
0,
0,
0,
0,
1,
1,
-2,
-2,
-1,
-1,
0,
0,
0,
0,
1,
1,
0,
0,
-1,
-1,
0,
0,
0,
0,
0,
0,
0,
0,
-1,
-1,
-3,
-3,
0,
0,
1,
1,
0,
0,
0,
0,
1,
1,
-2,
-2,
1,
1,
0,
0,
-1,
-1,
-2,
-2,
-3,
-3,
-1,
-1,
1,
1,
0,
0,
0,
0,
-1,
-1,
-3,
-3,
0,
0,
-1,
-1,
-2,
-2,
-1,
-1,
0,
0,
1,
1,
-2,
-2,
1,
1,
1,
1,
1,
1,
-2,
