6-anwendungen-opAmps/daten/ALL0039/A0039CH1.CSV

Memory Length,4000,
Trigger Level,6.18000e+02,
Source,CH1,
Probe,1.0X,
Vertical Units,V,
Vertical Scale,5.00000e-02,
Vertical Position,-4.54000e-01,
Horizontal Units,S,
Horizontal Scale,5.00000e-04,
Horizontal Position,-7.0000000e-04,
Horizontal Mode,Main,
Sampling Period,2.00000e-06,
Firmware,V1.14,
Time, ,
Mode,Fast,
Waveform Data,
241,
241,
241,
243,
243,
242,
242,
243,
243,
241,
241,
242,
242,
242,
242,
242,
242,
243,
243,
242,
242,
244,
244,
243,
243,
243,
243,
243,
243,
242,
242,
244,
244,
243,
243,
245,
245,
243,
243,
244,
244,
244,
244,
244,
244,
243,
243,
245,
245,
245,
245,
243,
243,
244,
244,
244,
244,
243,
243,
243,
243,
244,
244,
243,
243,
243,
243,
243,
243,
244,
244,
246,
246,
243,
243,
244,
244,
244,
244,
244,
244,
244,
244,
242,
242,
243,
243,
246,
246,
246,
246,
244,
244,
246,
246,
245,
245,
245,
245,
246,
246,
244,
244,
245,
245,
245,
245,
247,
247,
244,
244,
244,
244,
244,
244,
246,
246,
245,
245,
245,
245,
244,
244,
245,
245,
245,
245,
245,
245,
246,
246,
244,
244,
245,
245,
244,
244,
246,
246,
247,
247,
246,
246,
245,
245,
245,
245,
246,
246,
246,
246,
246,
246,
246,
246,
246,
246,
246,
246,
245,
245,
246,
246,
246,
246,
245,
245,
245,
245,
247,
247,
247,
247,
248,
248,
246,
246,
245,
245,
247,
247,
247,
247,
247,
247,
248,
248,
248,
248,
249,
249,
246,
246,
249,
249,
247,
247,
246,
246,
248,
248,
249,
249,
247,
247,
248,
248,
247,
247,
247,
247,
248,
248,
246,
246,
248,
248,
246,
246,
247,
247,
247,
247,
248,
248,
247,
247,
248,
248,
248,
248,
247,
247,
250,
250,
250,
250,
249,
249,
246,
246,
247,
247,
248,
248,
247,
247,
251,
251,
251,
251,
250,
250,
249,
249,
249,
249,
248,
248,
248,
248,
249,
249,
248,
248,
247,
247,
249,
249,
250,
250,
250,
250,
249,
249,
249,
249,
250,
250,
248,
248,
249,
249,
249,
249,
251,
251,
249,
249,
251,
251,
249,
249,
249,
249,
251,
251,
250,
250,
249,
249,
250,
250,
249,
249,
251,
251,
251,
251,
251,
251,
249,
249,
253,
253,
250,
250,
251,
251,
251,
251,
251,
251,
252,
252,
252,
252,
252,
252,
250,
250,
252,
252,
251,
251,
251,
251,
251,
251,
249,
249,
251,
251,
251,
251,
251,
251,
251,
251,
251,
251,
251,
251,
249,
249,
252,
252,
253,
253,
252,
252,
253,
253,
251,
251,
251,
251,
253,
253,
252,
252,
253,
253,
252,
252,
253,
253,
254,
254,
253,
253,
251,
251,
252,
252,
254,
254,
251,
251,
252,
252,
253,
253,
253,
253,
254,
254,
253,
253,
253,
253,
254,
254,
254,
254,
253,
253,
253,
253,
254,
254,
252,
252,
254,
254,
253,
253,
253,
253,
255,
255,
253,
253,
253,
253,
253,
253,
255,
255,
253,
253,
254,
254,
254,
254,
253,
253,
252,
252,
255,
255,
254,
254,
254,
254,
253,
253,
254,
254,
255,
255,
254,
254,
256,
256,
255,
255,
255,
255,
254,
254,
255,
255,
256,
256,
255,
255,
254,
254,
255,
255,
253,
253,
256,
256,
254,
254,
254,
254,
255,
255,
254,
254,
255,
255,
255,
255,
255,
255,
256,
256,
256,
256,
254,
254,
254,
254,
255,
255,
256,
256,
256,
256,
255,
255,
255,
255,
255,
255,
256,
256,
256,
256,
256,
256,
255,
255,
255,
255,
255,
255,
255,
255,
254,
254,
256,
256,
257,
257,
256,
256,
256,
256,
255,
255,
258,
258,
255,
255,
257,
257,
256,
256,
256,
256,
256,
256,
257,
257,
257,
257,
258,
258,
258,
258,
256,
256,
258,
258,
257,
257,
256,
256,
258,
258,
258,
258,
258,
258,
258,
258,
257,
257,
258,
258,
257,
257,
258,
258,
257,
257,
256,
256,
259,
259,
258,
258,
257,
257,
259,
259,
258,
258,
257,
257,
257,
257,
257,
257,
259,
259,
258,
258,
259,
259,
258,
258,
260,
260,
259,
259,
258,
258,
260,
260,
259,
259,
258,
258,
258,
258,
260,
260,
258,
258,
257,
257,
258,
258,
260,
260,
258,
258,
257,
257,
257,
257,
260,
260,
258,
258,
260,
260,
259,
259,
258,
258,
259,
259,
259,
259,
258,
258,
260,
260,
259,
259,
261,
261,
258,
258,
261,
261,
260,
260,
260,
260,
261,
261,
260,
260,
260,
260,
259,
259,
260,
260,
260,
260,
260,
260,
260,
260,
260,
260,
262,
262,
262,
262,
261,
261,
260,
260,
260,
260,
260,
260,
261,
261,
261,
261,
262,
262,
261,
261,
261,
261,
262,
262,
261,
261,
261,
261,
261,
261,
261,
261,
262,
262,
261,
261,
262,
262,
262,
262,
262,
262,
260,
260,
262,
262,
260,
260,
263,
263,
260,
260,
262,
262,
261,
261,
264,
264,
262,
262,
261,
261,
263,
263,
261,
261,
261,
261,
261,
261,
262,
262,
262,
262,
263,
263,
263,
263,
261,
261,
262,
262,
263,
263,
262,
262,
261,
261,
263,
263,
263,
263,
263,
263,
262,
262,
262,
262,
263,
263,
263,
263,
263,
263,
264,
264,
264,
264,
263,
263,
263,
263,
265,
265,
264,
264,
264,
264,
265,
265,
263,
263,
264,
264,
265,
265,
265,
265,
263,
263,
264,
264,
264,
264,
264,
264,
263,
263,
266,
266,
264,
264,
264,
264,
264,
264,
263,
263,
263,
263,
263,
263,
263,
263,
264,
264,
263,
263,
264,
264,
262,
262,
264,
264,
265,
265,
264,
264,
264,
264,
265,
265,
264,
264,
264,
264,
266,
266,
264,
264,
266,
266,
266,
266,
264,
264,
264,
264,
266,
266,
267,
267,
266,
266,
266,
266,
266,
266,
268,
268,
265,
265,
265,
265,
265,
265,
264,
264,
265,
265,
267,
267,
264,
264,
267,
267,
265,
265,
265,
265,
266,
266,
267,
267,
265,
265,
264,
264,
265,
265,
266,
266,
267,
267,
267,
267,
266,
266,
267,
267,
266,
266,
266,
266,
266,
266,
267,
267,
267,
267,
267,
267,
267,
267,
266,
266,
267,
267,
268,
268,
267,
267,
267,
267,
267,
267,
266,
266,
267,
267,
265,
265,
266,
266,
268,
268,
268,
268,
267,
267,
268,
268,
266,
266,
268,
268,
267,
267,
266,
266,
267,
267,
267,
267,
268,
268,
269,
269,
268,
268,
268,
268,
269,
269,
268,
268,
269,
269,
268,
268,
270,
270,
268,
268,
268,
268,
268,
268,
268,
268,
268,
268,
268,
268,
269,
269,
269,
269,
268,
268,
269,
269,
268,
268,
270,
270,
267,
267,
268,
268,
270,
270,
268,
268,
271,
271,
270,
270,
269,
269,
271,
271,
269,
269,
270,
270,
267,
267,
269,
269,
270,
270,
272,
272,
270,
270,
268,
268,
272,
272,
271,
271,
270,
270,
269,
269,
270,
270,
271,
271,
271,
271,
270,
270,
271,
271,
269,
269,
269,
269,
272,
272,
271,
271,
270,
270,
271,
271,
270,
270,
270,
270,
270,
270,
271,
271,
272,
272,
272,
272,
272,
272,
272,
272,
270,
270,
271,
271,
271,
271,
272,
272,
271,
271,
272,
272,
270,
270,
273,
273,
271,
271,
271,
271,
273,
273,
272,
272,
272,
272,
273,
273,
271,
271,
274,
274,
272,
272,
270,
270,
272,
272,
273,
273,
272,
272,
273,
273,
273,
273,
274,
274,
273,
273,
273,
273,
272,
272,
272,
272,
273,
273,
272,
272,
274,
274,
274,
274,
273,
273,
274,
274,
273,
273,
273,
273,
273,
273,
273,
273,
272,
272,
274,
274,
273,
273,
275,
275,
273,
273,
276,
276,
274,
274,
274,
274,
274,
274,
275,
275,
273,
273,
273,
273,
274,
274,
274,
274,
273,
273,
272,
272,
274,
274,
275,
275,
274,
274,
274,
274,
275,
275,
274,
274,
274,
274,
274,
274,
276,
276,
275,
275,
275,
275,
274,
274,
273,
273,
274,
274,
272,
272,
275,
275,
275,
275,
274,
274,
275,
275,
275,
275,
274,
274,
276,
276,
274,
274,
275,
275,
274,
274,
275,
275,
275,
275,
274,
274,
275,
275,
276,
276,
275,
275,
275,
275,
274,
274,
274,
274,
275,
275,
275,
275,
276,
276,
275,
275,
275,
275,
274,
274,
276,
276,
276,
276,
275,
275,
278,
278,
275,
275,
277,
277,
278,
278,
276,
276,
275,
275,
274,
274,
276,
276,
276,
276,
277,
277,
276,
276,
278,
278,
276,
276,
276,
276,
277,
277,
276,
276,
275,
275,
277,
277,
277,
277,
277,
277,
279,
279,
278,
278,
276,
276,
277,
277,
277,
277,
277,
277,
277,
277,
277,
277,
278,
278,
278,
278,
277,
277,
277,
277,
277,
277,
277,
277,
277,
277,
279,
279,
278,
278,
276,
276,
277,
277,
278,
278,
278,
278,
278,
278,
279,
279,
278,
278,
277,
288,
278,
278,
278,
278,
280,
280,
279,
279,
280,
280,
278,
278,
279,
279,
281,
281,
278,
278,
278,
278,
280,
280,
279,
279,
280,
280,
281,
281,
278,
278,
278,
278,
279,
279,
280,
280,
279,
279,
278,
278,
279,
279,
280,
280,
280,
280,
278,
278,
281,
281,
281,
281,
279,
279,
281,
281,
278,
278,
278,
278,
279,
279,
279,
279,
279,
279,
280,
280,
281,
281,
280,
280,
279,
279,
281,
281,
280,
280,
281,
281,
282,
282,
281,
281,
281,
281,
281,
281,
281,
281,
280,
280,
281,
281,
281,
281,
279,
279,
281,
281,
280,
280,
283,
283,
281,
281,
281,
281,
282,
282,
281,
281,
282,
282,
283,
283,
283,
283,
281,
281,
282,
282,
281,
281,
282,
282,
280,
280,
283,
283,
281,
281,
282,
282,
281,
281,
280,
280,
282,
282,
283,
283,
280,
280,
282,
282,
281,
281,
282,
282,
282,
282,
283,
283,
283,
283,
282,
282,
282,
282,
285,
285,
284,
284,
282,
282,
283,
283,
283,
283,
282,
282,
282,
282,
282,
282,
284,
284,
282,
282,
284,
284,
284,
284,
284,
284,
282,
282,
283,
283,
283,
283,
283,
283,
284,
284,
283,
283,
283,
283,
283,
283,
284,
284,
283,
283,
283,
283,
284,
284,
284,
284,
284,
284,
283,
283,
285,
285,
283,
283,
285,
285,
286,
286,
283,
283,
284,
284,
283,
283,
286,
286,
285,
285,
285,
285,
283,
283,
286,
286,
286,
286,
287,
287,
285,
285,
286,
286,
285,
285,
285,
285,
285,
285,
286,
286,
286,
286,
285,
285,
284,
284,
285,
285,
286,
286,
286,
286,
285,
285,
287,
287,
287,
287,
285,
285,
287,
287,
286,
286,
288,
288,
285,
285,
287,
287,
285,
285,
287,
287,
289,
289,
286,
286,
287,
287,
285,
285,
286,
286,
285,
285,
288,
288,
287,
287,
287,
287,
285,
285,
286,
286,
287,
287,
286,
286,
286,
286,
287,
287,
288,
288,
287,
287,
287,
287,
288,
288,
288,
288,
288,
288,
287,
287,
288,
288,
287,
287,
288,
288,
286,
286,
287,
287,
289,
289,
287,
287,
288,
288,
286,
286,
288,
288,
287,
287,
289,
289,
288,
288,
290,
290,
287,
287,
286,
286,
289,
289,
288,
288,
289,
289,
287,
287,
287,
287,
290,
290,
288,
288,
289,
289,
289,
289,
289,
289,
288,
288,
289,
289,
289,
289,
289,
289,
290,
290,
289,
289,
289,
289,
287,
287,
288,
288,
289,
289,
291,
291,
289,
289,
289,
289,
291,
291,
289,
289,
288,
288,
289,
289,
290,
290,
288,
288,
289,
289,
290,
290,
292,
292,
291,
291,
291,
291,
290,
290,
292,
292,
290,
290,
290,
290,
290,
290,
290,
290,
291,
291,
293,
293,
289,
289,
290,
290,
290,
290,
290,
290,
292,
292,
289,
289,
290,
290,
290,
290,
289,
289,
289,
289,
289,
289,
290,
290,
291,
291,
291,
291,
291,
291,
290,
290,
290,
290,
291,
291,
292,
292,
291,
291,
293,
293,
291,
291,
291,
291,
291,
291,
291,
291,
291,
291,
292,
292,
292,
292,
292,
292,
291,
291,
290,
290,
290,
290,
291,
291,
291,
291,
290,
290,
291,
291,
293,
293,
293,
293,
291,
291,
292,
292,
293,
293,
293,
293,
292,
292,
294,
294,
291,
291,
293,
293,
293,
293,
293,
293,
292,
292,
292,
292,
292,
292,
293,
293,
293,
293,
294,
294,
294,
294,
294,
294,
292,
292,
293,
293,
294,
294,
293,
293,
293,
293,
293,
293,
293,
293,
293,
293,
293,
293,
293,
293,
294,
294,
293,
293,
293,
293,
292,
292,
293,
293,
292,
292,
293,
293,
294,
294,
293,
293,
293,
293,
294,
294,
295,
295,
295,
295,
296,
296,
295,
295,
294,
294,
293,
293,
295,
295,
294,
294,
295,
295,
295,
295,
295,
295,
295,
295,
295,
295,
293,
293,
294,
294,
295,
295,
295,
295,
297,
297,
293,
293,
294,
294,
295,
295,
293,
293,
294,
294,
295,
295,
294,
294,
296,
296,
295,
295,
294,
294,
296,
296,
296,
296,
295,
295,
295,
295,
295,
295,
296,
296,
295,
295,
296,
296,
295,
295,
297,
297,
295,
295,
297,
297,
296,
296,
295,
295,
298,
298,
296,
296,
297,
297,
297,
297,
298,
298,
297,
297,
296,
296,
298,
298,
297,
297,
296,
296,
298,
298,
295,
295,
297,
297,
297,
297,
299,
299,
295,
295,
297,
297,
296,
296,
296,
296,
297,
297,
298,
298,
296,
296,
297,
297,
297,
297,
297,
297,
298,
298,
298,
298,
297,
297,
297,
297,
297,
297,
298,
298,
298,
298,
300,
300,
299,
299,
299,
299,
298,
298,
297,
297,
297,
297,
299,
299,
297,
297,
299,
299,
299,
299,
300,
300,
300,
300,
298,
298,
300,
300,
298,
298,
300,
300,
298,
298,
300,
300,
299,
299,
300,
300,
299,
299,
298,
298,
297,
297,
298,
298,
298,
298,
298,
298,
299,
299,
299,
299,
298,
298,
299,
299,
300,
300,
300,
300,
299,
299,
300,
300,
299,
299,
302,
302,
302,
302,
301,
301,
301,
301,
301,
301,
300,
300,
298,
298,
302,
302,
300,
300,
300,
300,
299,
299,
300,
300,
299,
299,
299,
299,
300,
300,
303,
303,
300,
300,
301,
301,
299,
299,
302,
302,
300,
300,
303,
303,
301,
301,
301,
301,
300,
300,
300,
300,
303,
303,
302,
302,
302,
302,
300,
300,
302,
302,
301,
301,
302,
302,
302,
302,
302,
302,
301,
301,
302,
302,
302,
302,
301,
301,
301,
301,
303,
303,
302,
302,
302,
302,
300,
300,
301,
301,
304,
304,
304,
304,
301,
301,
301,
301,
303,
303,
304,
304,
303,
303,
303,
303,
302,
302,
302,
302,
302,
302,
302,
302,
303,
303,
304,
304,
301,
301,
301,
301,
303,
303,
301,
301,
304,
304,
303,
303,
304,
304,
303,
303,
303,
303,
305,
305,
303,
303,
303,
303,
305,
305,
304,
304,
303,
303,
304,
304,
303,
303,
305,
305,
303,
303,
304,
304,
304,
304,
305,
305,
305,
305,
304,
304,
304,
304,
305,
305,
305,
305,
306,
306,
305,
305,
304,
304,
303,
303,
305,
305,
305,
305,
304,
304,
305,
305,
304,
304,
305,
305,
305,
305,
306,
306,
304,
304,
304,
304,
304,
304,
306,
306,
308,
308,
305,
305,
305,
305,
307,
307,
305,
305,
306,
306,
305,
305,
307,
307,
304,
304,
306,
306,
305,
305,
306,
306,
306,
306,
306,
306,
305,
305,
306,
306,
307,
307,
307,
307,
306,
306,
306,
306,
307,
307,
306,
306,
306,
306,
306,
306,
307,
307,
306,
306,
307,
307,
308,
308,
308,
308,
307,
307,
308,
308,
307,
307,
308,
308,
307,
307,
307,
307,
306,
306,
307,
307,
306,
306,
307,
307,
306,
306,
306,
306,
306,
306,
307,
307,
309,
309,
307,
307,
308,
308,
308,
308,
309,
309,
309,
309,
309,
309,
307,
307,
307,
307,
308,
308,
308,
308,
306,
306,
309,
309,
309,
309,
310,
310,
309,
309,
310,
310,
309,
309,
309,
309,
307,
307,
307,
307,
308,
308,
309,
309,
307,
307,
309,
309,
307,
307,
308,
308,
306,
306,
308,
308,
310,
310,
309,
309,
309,
309,
309,
309,
306,
306,
310,
310,
311,
311,
308,
308,
309,
309,
309,
309,
309,
309,
309,
309,
310,
310,
309,
309,
311,
311,
309,
309,
310,
310,
308,
308,
310,
310,
309,
309,
310,
310,
309,
309,
309,
309,
311,
311,
309,
309,
310,
310,
310,
310,
311,
311,
310,
310,
310,
310,
310,
310,
311,
311,
313,
313,
312,
312,
309,
309,
311,
311,
310,
310,
311,
311,
310,
310,
311,
311,
311,
311,
311,
311,
312,
312,
311,
311,
313,
313,
310,
310,
312,
312,
312,
312,
312,
312,
310,
310,
313,
313,
312,
312,
312,
312,
312,
312,
312,
312,
312,
312,
311,
311,
313,
313,
310,
310,
312,
312,
313,
313,
311,
311,
311,
311,
310,
310,
312,
312,
312,
312,
312,
312,
313,
313,
314,
314,
312,
312,
313,
313,
314,
314,
313,
313,
312,
312,
314,
314,
312,
312,
311,
311,
314,
314,
314,
314,
314,
314,
313,
313,
311,
311,
314,
314,
313,
313,
314,
314,
314,
314,
314,
314,
313,
313,
315,
315,
312,
312,
312,
312,
314,
314,
313,
313,
317,
317,
314,
314,
313,
313,
312,
312,
315,
315,
313,
313,
314,
314,
313,
313,
314,
314,
314,
314,
315,
315,
313,
313,
318,
318,
314,
314,
317,
317,
315,
315,
316,
316,
314,
314,
314,
314,
315,
315,
314,
314,
316,
316,
313,
313,
315,
315,
312,
312,
315,
315,
314,
314,
313,
313,
313,
313,
312,
312,
311,
311,
310,
310,
310,
310,
310,
310,
311,
311,
309,
309,
309,
309,
309,
309,
309,
309,
306,
306,
306,
306,
305,
305,
305,
305,
306,
306,
303,
303,
303,
303,
302,
302,
302,
302,
302,
302,
301,
301,
301,
301,
300,
300,
299,
299,
300,
300,
298,
298,
298,
298,
298,
298,
296,
296,
296,
296,
296,
296,
294,
294,
295,
295,
292,
292,
292,
292,
294,
294,
292,
292,
292,
292,
292,
292,
292,
292,
291,
291,
290,
290,
291,
291,
288,
288,
288,
288,
287,
287,
289,
289,
288,
288,
288,
288,
286,
286,
287,
287,
285,
285,
285,
285,
284,
284,
284,
284,
282,
282,
284,
284,
281,
281,
281,
281,
282,
282,
279,
279,
280,
280,
279,
279,
280,
280,
275,
275,
276,
276,
278,
278,
278,
278,
276,
276,
276,
276,
276,
276,
273,
273,
274,
274,
272,
272,
271,
271,
272,
272,
272,
272,
270,
270,
270,
270,
271,
271,
269,
269,
268,
268,
267,
267,
267,
267,
268,
268,
268,
268,
266,
266,
267,
267,
266,
266,
265,
265,
265,
265,
264,
264,
264,
264,
260,
260,
261,
261,
263,
263,
262,
262,
261,
261,
262,
262,
260,
260,
258,
258,
257,
257,
258,
258,
257,
257,
257,
257,
255,
255,
255,
255,
257,
257,
254,
254,
255,
255,
255,
255,
252,
252,
254,
254,
252,
252,
252,
252,
250,
250,
249,
249,
250,
250,
252,
252,
250,
250,
251,
251,
250,
250,
247,
247,
247,
247,
247,
247,
245,
245,
245,
245,
244,
244,
245,
245,
244,
244,
244,
244,
245,
245,
242,
242,
241,
241,
242,
242,
241,
241,
240,
240,
240,
240,
237,
237,
237,
237,
239,
239,
238,
238,
237,
237,
236,
236,
235,
235,
236,
236,
234,
234,
235,
235,
234,
234,
232,
232,
233,
233,
232,
232,
232,
232,
230,
230,
233,
233,
231,
231,
229,
229,
229,
229,
230,
230,
228,
228,
227,
227,
227,
227,
227,
227,
228,
228,
226,
226,
224,
224,
223,
223,
225,
225,
225,
225,
223,
223,
225,
225,
221,
221,
221,
221,
221,
221,
222,
222,
221,
221,
218,
218,
219,
219,
219,
219,
219,
219,
217,
217,
215,
215,
216,
216,
217,
217,
216,
216,
216,
216,
215,
215,
214,
214,
213,
213,
214,
214,
213,
213,
214,
214,
212,
212,
211,
211,
212,
212,
211,
211,
211,
211,
210,
210,
208,
208,
209,
209,
209,
209,
206,
206,
207,
207,
205,
205,
207,
207,
207,
207,
204,
204,
205,
205,
203,
203,
201,
201,
202,
202,
201,
201,
201,
201,
201,
201,
198,
198,
199,
199,
198,
198,
199,
199,
200,
200,
197,
197,
196,
196,
196,
196,
198,
198,
196,
196,
194,
194,
195,
195,
194,
194,
193,
193,
192,
192,
193,
193,
192,
192,
191,
191,
192,
192,
190,
190,
191,
191,
189,
189,
190,
190,
187,
187,
188,
188,
187,
187,
186,
186,
187,
187,
185,
185,
184,
184,
185,
185,
185,
185,
183,
183,
184,
184,
183,
183,
184,
184,
181,
181,
181,
181,
182,
182,
181,
181,
180,
180,
179,
179,
179,
179,
180,
180,
180,
180,
179,
179,
177,
177,
174,
174,
175,
175,
176,
176,
175,
175,
176,
176,
175,
175,
173,
173,
172,
172,
173,
173,
172,
172,
172,
172,
171,
171,
170,
170,
171,
171,
169,
169,
170,
170,
167,
167,
168,
168,
167,
167,
167,
167,
168,
168,
167,
167,
165,
165,
166,
166,
166,
166,
164,
164,
165,
165,
162,
162,
162,
162,
161,
161,
163,
163,
160,
160,
160,
160,
161,
161,
160,
160,
159,
159,
159,
159,
158,
158,
157,
157,
157,
157,
156,
156,
155,
155,
156,
156,
156,
156,
153,
153,
154,
154,
153,
153,
152,
152,
151,
151,
152,
152,
151,
151,
152,
152,
149,
149,
151,
151,
149,
149,
148,
148,
150,
150,
148,
148,
148,
148,
147,
147,
146,
146,
147,
147,
146,
146,
146,
146,
145,
145,
144,
144,
143,
143,
143,
143,
144,
144,
142,
142,
141,
141,
141,
141,
140,
140,
139,
139,
140,
140,
139,
139,
139,
139,
138,
138,
136,
136,
137,
137,
137,
137,
136,
136,
136,
136,
135,
135,
135,
135,
133,
133,
132,
132,
133,
133,
134,
134,
133,
133,
132,
132,
133,
133,
130,
130,
131,
131,
130,
130,
130,
130,
131,
131,
129,
129,
129,
129,
128,
128,
126,
126,
124,
124,
125,
125,
127,
127,
125,
125,
126,
126,
123,
123,
124,
124,
122,
122,
121,
121,
123,
123,
122,
122,
121,
121,
122,
122,
120,
120,
120,
120,
120,
120,
119,
119,
117,
117,
118,
118,
118,
118,
117,
117,
117,
117,
116,
116,
117,
117,
114,
114,
114,
114,
114,
114,
113,
113,
114,
114,
111,
111,
111,
111,
113,
113,
112,
112,
110,
110,
111,
111,
110,
110,
110,
110,
108,
108,
109,
109,
108,
108,
107,
107,
108,
108,
104,
104,
107,
107,
105,
105,
105,
105,
105,
105,
105,
105,
104,
104,
102,
102,
103,
103,
104,
104,
103,
103,
102,
102,
102,
102,
101,
101,
101,
101,
101,
101,
100,
100,
101,
101,
101,
101,
100,
100,
100,
100,
100,
100,
100,
100,
100,
100,
100,
100,
100,
100,
100,
100,
100,
100,
100,
100,
100,
100,
100,
100,
100,
100,
100,
100,
100,
100,
100,
100,
100,
100,
100,
100,
100,
100,
100,
100,
100,
100,
100,
100,
100,
100,
100,
100,
100,
100,
100,
100,
100,
100,
100,
100,
100,
100,
100,
100,
100,
100,
100,
100,
100,
100,
100,
100,
100,
100,
100,
100,
100,
100,
100,
100,
100,
100,
100,
100,
100,
100,
100,
100,
100,
100,
100,
100,
100,
100,
100,
100,
100,
100,
100,
100,
100,
100,
100,
100,
100,
100,
100,
100,
100,
100,
100,
100,
100,
100,
100,
100,
100,
100,
100,
100,
100,
100,
100,
100,
100,
100,
100,
100,
100,
100,
100,
100,
100,
100,
100,
100,
100,
100,
100,
100,
100,
100,
100,
100,
100,
100,
100,
100,
100,
100,
100,
100,
100,
100,
100,
100,
100,
100,
100,
100,
100,
100,
100,
100,
100,
100,
100,
100,
100,
100,
100,
100,
100,
100,
100,
100,
100,
100,
100,
100,
100,
100,
100,
100,
100,
100,
100,
100,
100,
100,
100,
100,
100,
100,
100,
100,
100,
100,
100,
100,
100,
100,
100,
100,
100,
100,
100,
100,
100,
100,
100,
100,
100,
100,
100,
100,
100,
100,
100,
100,
100,
100,
100,
100,
100,
100,
100,
100,
100,
100,
100,
100,
100,
100,
100,
100,
100,
100,
100,
100,
100,
100,
100,
100,
100,
100,
100,
100,
100,
100,
100,
100,
100,
100,
100,
100,
100,
100,
100,
100,
100,
100,
100,
100,
100,
100,
100,
100,
100,
100,
100,
100,
100,
100,
100,
100,
100,
100,
100,
100,
100,
100,
100,
100,
100,
100,
100,
100,
100,
100,
100,
100,
100,
