4-transistorverstaerker/data/ALL0018/A0018CH1.CSV

Memory Length,4000,
Trigger Level,8.10000e+02,
Source,CH1,
Probe,1.0X,
Vertical Units,V,
Vertical Scale,2.00000e-02,
Vertical Position,-8.00000e-04,
Horizontal Units,S,
Horizontal Scale,5.00000e-04,
Horizontal Position,-6.8000000e-04,
Horizontal Mode,Main,
Sampling Period,2.00000e-06,
Firmware,V1.14,
Time, ,
Mode,Fast,
Waveform Data,
71,
71,
71,
72,
72,
73,
73,
68,
68,
71,
71,
71,
71,
71,
71,
69,
69,
72,
72,
70,
70,
67,
67,
66,
66,
66,
66,
62,
62,
65,
65,
63,
74,
62,
62,
68,
68,
63,
63,
62,
62,
63,
63,
62,
62,
59,
59,
59,
59,
58,
58,
57,
57,
58,
58,
56,
56,
55,
55,
53,
53,
53,
53,
50,
50,
50,
50,
49,
49,
47,
47,
49,
49,
44,
44,
48,
48,
43,
43,
41,
41,
41,
41,
37,
37,
37,
37,
36,
36,
34,
34,
32,
32,
37,
19,
26,
38,
29,
29,
29,
29,
28,
28,
24,
24,
23,
23,
24,
13,
20,
20,
23,
23,
21,
10,
17,
17,
14,
14,
12,
12,
12,
12,
11,
11,
9,
9,
7,
7,
7,
7,
3,
3,
2,
2,
0,
0,
2,
2,
-4,
-4,
-1,
-1,
-4,
-4,
-6,
-6,
-4,
-4,
-22,
2,
-14,
-14,
-13,
-13,
-11,
-11,
-16,
-16,
-19,
-19,
-17,
-17,
-16,
-16,
-21,
-21,
-21,
-21,
-25,
-25,
-24,
-36,
-23,
-34,
-29,
-29,
-30,
-30,
-31,
-31,
-33,
-33,
-36,
-36,
-36,
-36,
-37,
-37,
-34,
-34,
-42,
-42,
-42,
-42,
-44,
-44,
-46,
-46,
-47,
-47,
-45,
-45,
-45,
-45,
-47,
-47,
-50,
-50,
-47,
-59,
-53,
-53,
-55,
-55,
-54,
-54,
-55,
-55,
-56,
-56,
-55,
-66,
-56,
-56,
-59,
-59,
-62,
-62,
-61,
-61,
-61,
-61,
-65,
-65,
-64,
-64,
-64,
-64,
-67,
-67,
-65,
-65,
-64,
-64,
-68,
-68,
-75,
-63,
-70,
-70,
-70,
-70,
-68,
-68,
-70,
-70,
-70,
-70,
-73,
-73,
-73,
-73,
-71,
-71,
-75,
-75,
-74,
-74,
-74,
-74,
-76,
-76,
-75,
-75,
-75,
-75,
-76,
-76,
-77,
-77,
-76,
-76,
-78,
-78,
-79,
-68,
-77,
-77,
-78,
-78,
-77,
-77,
-78,
-78,
-78,
-78,
-79,
-79,
-77,
-77,
-77,
-77,
-77,
-77,
-76,
-76,
-78,
-78,
-79,
-79,
-77,
-77,
-76,
-76,
-73,
-73,
-77,
-77,
-75,
-75,
-74,
-74,
-73,
-73,
-74,
-74,
-73,
-73,
-70,
-70,
-71,
-71,
-70,
-70,
-71,
-71,
-72,
-72,
-68,
-68,
-69,
-69,
-69,
-69,
-64,
-64,
-66,
-66,
-65,
-76,
-66,
-66,
-63,
-63,
-62,
-62,
-63,
-63,
-62,
-62,
-61,
-61,
-54,
-67,
-53,
-64,
-56,
-56,
-57,
-57,
-50,
-64,
-53,
-53,
-53,
-53,
-52,
-52,
-48,
-48,
-49,
-49,
-45,
-45,
-43,
-55,
-47,
-47,
-45,
-45,
-44,
-44,
-42,
-42,
-41,
-41,
-43,
-32,
-40,
-40,
-38,
-38,
-36,
-36,
-35,
-35,
-35,
-35,
-34,
-34,
-31,
-19,
-28,
-28,
-29,
-29,
-27,
-27,
-28,
-28,
-22,
-22,
-22,
-22,
-23,
-23,
-17,
-17,
-14,
-14,
-15,
-15,
-12,
-12,
-9,
-9,
-10,
-10,
-8,
-8,
-5,
-5,
-3,
-3,
-5,
-5,
-5,
-5,
-3,
-3,
2,
2,
1,
1,
4,
4,
0,
0,
7,
7,
6,
20,
10,
10,
11,
11,
14,
14,
16,
16,
15,
15,
16,
16,
19,
19,
20,
20,
20,
20,
22,
22,
23,
23,
26,
26,
29,
29,
25,
36,
33,
33,
29,
29,
30,
42,
36,
36,
35,
35,
37,
26,
40,
40,
39,
39,
40,
40,
41,
41,
41,
41,
43,
43,
43,
43,
44,
44,
47,
47,
50,
50,
50,
50,
49,
49,
52,
52,
50,
50,
54,
54,
55,
55,
55,
55,
56,
56,
58,
58,
58,
58,
63,
63,
62,
62,
59,
59,
63,
63,
64,
64,
64,
64,
64,
64,
63,
63,
66,
66,
68,
68,
68,
68,
70,
70,
68,
68,
68,
68,
70,
70,
70,
70,
72,
72,
70,
70,
70,
70,
72,
72,
73,
73,
74,
74,
75,
75,
74,
74,
73,
73,
72,
72,
74,
74,
75,
75,
74,
74,
75,
75,
76,
65,
74,
74,
74,
74,
77,
77,
74,
74,
73,
73,
74,
74,
74,
74,
72,
85,
74,
74,
73,
73,
72,
72,
73,
73,
68,
79,
72,
72,
72,
72,
70,
70,
71,
71,
71,
71,
69,
69,
67,
67,
70,
70,
69,
69,
66,
66,
67,
67,
65,
65,
64,
64,
65,
65,
66,
66,
63,
63,
64,
64,
63,
63,
56,
68,
61,
61,
64,
64,
58,
58,
59,
59,
59,
59,
57,
57,
56,
56,
49,
62,
54,
54,
54,
54,
52,
52,
50,
50,
49,
49,
46,
46,
48,
48,
46,
46,
46,
46,
42,
42,
42,
42,
39,
39,
37,
37,
35,
35,
33,
33,
34,
34,
34,
34,
30,
30,
32,
32,
29,
29,
27,
27,
27,
27,
24,
24,
20,
32,
22,
22,
18,
18,
20,
9,
14,
14,
17,
17,
12,
12,
16,
16,
13,
2,
7,
7,
7,
7,
5,
5,
4,
4,
3,
3,
-1,
-1,
1,
1,
0,
-12,
1,
-11,
-3,
-3,
-6,
-6,
-7,
-7,
3,
-20,
-8,
-8,
-13,
-13,
-14,
-14,
-15,
-15,
-17,
-17,
-21,
-21,
-20,
-20,
-22,
-22,
-22,
-22,
-25,
-25,
-24,
-24,
-29,
-29,
-28,
-28,
-28,
-28,
-32,
-32,
-30,
-30,
-32,
-32,
-31,
-43,
-37,
-37,
-37,
-37,
-42,
-42,
-42,
-42,
-43,
-43,
-42,
-42,
-45,
-45,
-47,
-47,
-46,
-46,
-47,
-47,
-51,
-51,
-50,
-50,
-50,
-50,
-55,
-55,
-52,
-52,
-54,
-54,
-54,
-54,
-58,
-58,
-59,
-59,
-58,
-58,
-61,
-61,
-61,
-61,
-63,
-63,
-65,
-65,
-62,
-62,
-65,
-65,
-64,
-75,
-66,
-66,
-69,
-69,
-69,
-69,
-67,
-67,
-71,
-71,
-67,
-67,
-70,
-70,
-72,
-72,
-71,
-71,
-74,
-74,
-71,
-71,
-70,
-70,
-73,
-73,
-74,
-74,
-76,
-76,
-71,
-71,
-75,
-75,
-75,
-75,
-76,
-76,
-77,
-66,
-74,
-74,
-77,
-77,
-77,
-77,
-77,
-77,
-78,
-78,
-76,
-76,
-76,
-76,
-78,
-78,
-75,
-75,
-78,
-78,
-75,
-75,
-76,
-76,
-76,
-76,
-74,
-74,
-75,
-75,
-72,
-72,
-74,
-74,
-75,
-75,
-68,
-82,
-77,
-77,
-74,
-74,
-71,
-71,
-72,
-72,
-74,
-74,
-74,
-74,
-71,
-71,
-72,
-72,
-71,
-71,
-71,
-71,
-73,
-73,
-69,
-69,
-64,
-75,
-70,
-70,
-68,
-68,
-67,
-67,
-63,
-63,
-66,
-66,
-60,
-60,
-63,
-63,
-62,
-62,
-59,
-59,
-59,
-59,
-61,
-50,
-60,
-60,
-58,
-58,
-55,
-55,
-53,
-53,
-54,
-54,
-53,
-53,
-56,
-45,
-48,
-48,
-50,
-50,
-49,
-49,
-47,
-47,
-45,
-45,
-44,
-44,
-43,
-43,
-41,
-41,
-41,
-41,
-40,
-40,
-40,
-28,
-40,
-40,
-35,
-35,
-31,
-31,
-35,
-23,
-32,
-20,
-32,
-32,
-28,
-28,
-25,
-25,
-28,
-28,
-26,
-26,
-22,
-22,
-20,
-20,
-19,
-19,
-22,
-10,
-19,
-19,
-13,
-13,
-11,
-11,
-10,
-10,
-12,
-12,
-7,
-7,
-6,
-6,
-10,
2,
-2,
-2,
-3,
-3,
0,
0,
-1,
-1,
2,
2,
2,
2,
6,
6,
19,
-3,
8,
8,
9,
9,
10,
10,
15,
15,
14,
14,
17,
17,
17,
17,
17,
17,
20,
20,
22,
22,
24,
24,
22,
22,
28,
28,
32,
32,
26,
26,
29,
29,
33,
33,
32,
32,
35,
35,
33,
33,
39,
39,
37,
37,
43,
43,
39,
50,
40,
40,
44,
44,
46,
46,
46,
46,
46,
46,
53,
53,
51,
51,
49,
49,
52,
52,
52,
63,
53,
53,
54,
54,
58,
58,
54,
65,
60,
60,
58,
58,
58,
58,
57,
57,
62,
62,
63,
63,
63,
63,
66,
66,
66,
66,
64,
64,
66,
66,
63,
63,
68,
68,
68,
68,
69,
69,
69,
69,
71,
71,
67,
80,
75,
63,
72,
72,
71,
71,
72,
72,
72,
72,
74,
74,
72,
72,
72,
72,
75,
75,
72,
72,
75,
75,
76,
76,
75,
75,
74,
74,
74,
74,
77,
77,
75,
75,
71,
71,
76,
76,
75,
75,
74,
74,
72,
72,
75,
75,
74,
74,
73,
73,
72,
72,
75,
75,
72,
72,
72,
72,
70,
70,
72,
72,
71,
71,
74,
62,
73,
73,
69,
69,
71,
71,
70,
70,
69,
69,
67,
67,
66,
66,
67,
67,
65,
65,
64,
64,
63,
52,
63,
63,
67,
56,
62,
62,
59,
59,
60,
60,
58,
58,
57,
57,
57,
57,
54,
54,
55,
55,
54,
54,
51,
51,
52,
41,
49,
49,
51,
51,
48,
48,
50,
50,
46,
46,
46,
35,
43,
43,
45,
33,
40,
40,
39,
39,
40,
40,
38,
38,
36,
36,
35,
35,
32,
32,
32,
32,
30,
30,
30,
30,
28,
28,
27,
27,
26,
26,
24,
24,
23,
23,
22,
22,
18,
18,
16,
16,
16,
16,
15,
15,
12,
12,
13,
13,
9,
9,
10,
10,
11,
-2,
8,
8,
1,
1,
-2,
-2,
3,
3,
1,
1,
-6,
5,
-4,
-4,
-6,
-6,
-7,
-7,
-8,
-8,
-8,
-22,
-11,
-11,
-14,
-14,
-13,
-13,
-16,
-16,
-17,
-17,
-18,
-18,
-20,
-20,
-22,
-22,
-23,
-23,
-27,
-27,
-23,
-23,
-30,
-30,
-27,
-27,
-35,
-35,
-35,
-35,
-36,
-36,
-32,
-32,
-37,
-37,
-37,
-37,
-40,
-40,
-36,
-48,
-39,
-39,
-43,
-43,
-42,
-42,
-45,
-45,
-44,
-44,
-46,
-46,
-48,
-59,
-51,
-51,
-54,
-54,
-54,
-54,
-56,
-56,
-53,
-53,
-56,
-56,
-59,
-59,
-59,
-59,
-59,
-59,
-60,
-60,
-59,
-59,
-62,
-62,
-62,
-62,
-63,
-63,
-65,
-65,
-66,
-66,
-69,
-69,
-68,
-68,
-69,
-69,
-67,
-67,
-66,
-66,
-70,
-70,
-70,
-70,
-70,
-70,
-68,
-68,
-72,
-72,
-70,
-70,
-74,
-74,
-72,
-72,
-75,
-75,
-75,
-75,
-75,
-75,
-78,
-78,
-74,
-74,
-74,
-74,
-75,
-75,
-73,
-73,
-80,
-80,
-78,
-78,
-82,
-82,
-78,
-78,
-76,
-76,
-79,
-79,
-77,
-77,
-74,
-74,
-73,
-73,
-80,
-80,
-75,
-75,
-77,
-77,
-76,
-76,
-77,
-77,
-77,
-77,
-73,
-73,
-74,
-74,
-74,
-74,
-73,
-73,
-64,
-87,
-73,
-73,
-76,
-76,
-73,
-73,
-71,
-71,
-73,
-73,
-74,
-62,
-70,
-70,
-71,
-71,
-72,
-72,
-69,
-69,
-67,
-67,
-65,
-65,
-63,
-63,
-67,
-67,
-64,
-64,
-64,
-64,
-64,
-64,
-62,
-62,
-60,
-60,
-61,
-61,
-61,
-61,
-58,
-58,
-57,
-57,
-57,
-57,
-55,
-55,
-55,
-55,
-53,
-53,
-53,
-53,
-52,
-52,
-51,
-51,
-49,
-49,
-44,
-58,
-48,
-48,
-45,
-45,
-45,
-45,
-44,
-44,
-44,
-33,
-42,
-42,
-40,
-40,
-39,
-39,
-36,
-36,
-37,
-37,
-36,
-36,
-35,
-35,
-30,
-30,
-28,
-28,
-28,
-28,
-26,
-26,
-24,
-24,
-24,
-24,
-25,
-25,
-23,
-23,
-18,
-18,
-18,
-18,
-22,
-10,
-17,
-17,
-15,
-15,
-12,
-12,
-11,
-11,
-10,
-10,
-10,
-10,
-7,
-7,
-6,
7,
0,
-12,
-2,
-2,
-1,
-1,
3,
3,
2,
2,
3,
3,
5,
5,
8,
19,
10,
10,
10,
10,
13,
13,
11,
11,
16,
16,
14,
14,
18,
18,
20,
20,
20,
20,
23,
23,
26,
26,
25,
25,
29,
29,
28,
28,
31,
31,
30,
30,
33,
33,
33,
33,
35,
35,
38,
38,
39,
39,
40,
40,
37,
37,
43,
43,
39,
39,
46,
46,
45,
45,
45,
45,
46,
46,
50,
50,
51,
51,
50,
50,
52,
52,
53,
53,
56,
56,
54,
54,
55,
55,
55,
55,
58,
58,
58,
58,
57,
72,
62,
62,
64,
64,
61,
61,
64,
64,
64,
64,
65,
65,
65,
65,
66,
66,
68,
68,
67,
67,
70,
59,
67,
78,
67,
67,
68,
68,
71,
71,
67,
67,
72,
72,
72,
72,
76,
76,
72,
72,
69,
81,
74,
74,
75,
60,
78,
59,
75,
64,
71,
82,
71,
71,
74,
74,
73,
73,
77,
77,
75,
75,
75,
75,
72,
72,
76,
76,
74,
74,
75,
75,
76,
76,
72,
72,
72,
72,
72,
72,
72,
72,
72,
72,
71,
71,
71,
71,
68,
68,
72,
72,
75,
64,
71,
71,
68,
68,
72,
72,
68,
68,
70,
70,
68,
68,
66,
66,
65,
65,
65,
65,
62,
62,
65,
65,
64,
64,
63,
63,
64,
64,
64,
64,
61,
61,
59,
59,
58,
58,
56,
56,
57,
57,
54,
54,
54,
54,
54,
54,
53,
53,
51,
51,
49,
49,
50,
50,
46,
46,
50,
50,
48,
48,
44,
44,
46,
35,
41,
41,
41,
41,
39,
39,
39,
39,
34,
34,
35,
35,
37,
37,
33,
33,
31,
31,
27,
27,
26,
26,
29,
29,
28,
28,
23,
23,
23,
23,
23,
23,
20,
20,
18,
18,
18,
18,
18,
18,
17,
17,
11,
11,
7,
7,
8,
8,
7,
7,
7,
7,
5,
5,
3,
3,
1,
1,
-2,
-2,
-5,
-5,
-4,
-4,
-3,
-3,
-6,
-6,
-4,
-4,
-7,
-21,
-10,
-10,
-11,
-11,
-14,
-14,
-12,
-12,
-13,
-24,
-20,
-20,
-20,
-20,
-21,
-21,
-22,
-22,
-24,
-24,
-21,
-21,
-28,
-28,
-29,
-29,
-29,
-29,
-31,
-31,
-16,
-53,
-28,
-46,
-35,
-35,
-37,
-37,
-36,
-50,
-37,
-37,
-40,
-40,
-44,
-44,
-42,
-42,
-46,
-46,
-43,
-43,
-59,
-31,
-70,
-30,
-37,
-60,
-47,
-47,
-51,
-51,
-52,
-39,
-43,
-69,
-58,
-46,
-51,
-62,
-56,
-56,
-56,
-56,
-59,
-59,
-61,
-61,
-95,
-37,
-57,
-70,
-64,
-64,
-64,
-64,
-64,
-64,
-54,
-80,
-61,
-74,
-63,
-75,
-68,
-68,
-70,
-70,
-70,
-70,
-70,
-70,
-68,
-68,
-72,
-72,
-72,
-72,
-72,
-72,
-75,
-75,
-74,
-74,
-73,
-73,
-74,
-74,
-73,
-73,
-74,
-74,
-73,
-73,
-74,
-74,
-74,
-74,
-76,
-76,
-76,
-76,
-80,
-80,
-77,
-77,
-78,
-78,
-77,
-77,
-77,
-77,
-79,
-79,
-77,
-77,
-77,
-77,
-73,
-84,
-79,
-79,
-78,
-78,
-75,
-75,
-77,
-77,
-76,
-76,
-77,
-77,
-78,
-78,
-75,
-75,
-76,
-76,
-73,
-73,
-73,
-73,
-74,
-74,
-77,
-77,
-75,
-75,
-72,
-72,
-67,
-79,
-72,
-72,
-70,
-70,
-70,
-70,
-71,
-71,
-66,
-66,
-67,
-78,
-66,
-77,
-68,
-68,
-65,
-65,
-63,
-63,
-66,
-66,
-63,
-63,
-63,
-63,
-60,
-60,
-61,
-61,
-58,
-58,
-62,
-62,
-59,
-59,
-60,
-60,
-59,
-59,
-53,
-53,
-55,
-55,
-51,
-51,
-53,
-53,
-48,
-48,
-51,
-51,
-47,
-47,
-47,
-47,
-47,
-47,
-44,
-44,
-43,
-43,
-41,
-41,
-41,
-41,
-40,
-40,
-41,
-41,
-35,
-35,
-35,
-35,
-32,
-32,
-32,
-32,
-32,
-32,
-28,
-28,
-29,
-29,
-26,
-26,
-27,
-27,
-24,
-24,
-27,
-27,
-22,
-22,
-18,
-18,
-18,
-18,
-4,
-33,
-20,
-7,
-17,
-17,
-11,
-11,
-9,
-9,
-7,
-7,
-8,
-8,
-5,
-5,
-16,
9,
12,
-24,
-21,
23,
-1,
-1,
15,
-15,
6,
-6,
5,
5,
7,
7,
4,
21,
11,
11,
12,
12,
16,
5,
-2,
34,
-12,
37,
27,
8,
24,
12,
23,
9,
37,
4,
28,
14,
23,
23,
26,
26,
28,
28,
30,
30,
32,
32,
30,
19,
55,
4,
16,
59,
38,
38,
39,
39,
40,
40,
41,
41,
42,
42,
41,
41,
43,
43,
46,
46,
50,
50,
48,
48,
45,
45,
51,
51,
49,
49,
52,
52,
52,
52,
56,
56,
54,
54,
55,
55,
53,
53,
59,
59,
59,
59,
57,
57,
65,
65,
59,
59,
61,
61,
60,
60,
65,
65,
66,
66,
64,
64,
68,
68,
69,
69,
69,
69,
70,
70,
67,
67,
70,
70,
68,
68,
69,
69,
68,
68,
70,
70,
70,
70,
72,
72,
74,
74,
71,
71,
74,
74,
75,
75,
71,
71,
72,
72,
75,
75,
72,
72,
75,
75,
73,
73,
75,
75,
74,
74,
77,
66,
75,
75,
73,
73,
72,
72,
76,
65,
71,
82,
77,
77,
73,
73,
73,
73,
72,
72,
74,
74,
71,
71,
71,
71,
73,
73,
74,
74,
72,
72,
69,
69,
71,
71,
72,
72,
69,
69,
68,
68,
69,
69,
70,
70,
66,
66,
66,
66,
66,
66,
67,
67,
62,
62,
64,
64,
64,
64,
61,
61,
64,
64,
64,
52,
58,
58,
56,
56,
57,
57,
56,
56,
55,
55,
52,
52,
52,
52,
50,
50,
48,
48,
52,
52,
51,
51,
47,
47,
48,
48,
47,
47,
45,
45,
41,
41,
42,
42,
52,
25,
44,
29,
53,
21,
1,
60,
37,
24,
33,
33,
33,
22,
30,
30,
30,
30,
31,
31,
25,
25,
31,
16,
36,
7,
36,
6,
19,
19,
-9,
42,
30,
6,
13,
13,
13,
13,
14,
14,
13,
13,
8,
8,
12,
1,
7,
7,
8,
-4,
17,
-13,
24,
-17,
-26,
21,
-8,
7,
-1,
-1,
-7,
-7,
-6,
-6,
-5,
-5,
-8,
-8,
2,
-23,
-12,
-12,
-15,
-15,
-13,
-28,
-29,
-4,
-18,
-18,
-21,
-21,
-19,
-19,
-20,
-20,
-23,
-23,
-28,
-28,
-26,
-26,
-28,
-28,
-26,
-26,
-33,
-33,
-31,
-31,
-34,
-34,
-34,
-34,
-34,
-34,
-38,
-38,
-39,
-39,
-41,
-41,
-45,
-45,
-42,
-42,
-44,
-44,
-44,
-44,
-47,
-47,
-44,
-44,
-50,
-50,
-50,
-50,
-50,
-50,
-54,
-54,
-55,
-55,
-53,
-53,
-55,
-55,
-57,
-57,
-58,
-58,
-60,
-60,
-61,
-61,
-61,
-61,
-61,
-61,
-60,
-72,
-65,
-65,
-63,
-63,
-65,
-65,
-64,
-64,
-65,
-65,
-65,
-65,
-67,
-67,
-68,
-68,
-68,
-68,
-65,
-79,
-70,
-70,
-70,
-70,
-70,
-70,
-72,
-72,
-73,
-73,
-71,
-71,
-71,
-71,
-76,
-76,
-76,
-76,
-79,
-79,
-74,
-74,
-77,
-77,
-74,
-74,
-75,
-75,
-76,
-65,
-76,
-76,
-79,
-79,
-78,
-78,
-76,
-76,
-78,
-78,
-76,
-76,
-78,
-78,
-74,
-74,
-77,
-77,
-75,
-75,
-76,
-76,
-77,
-77,
-76,
-76,
-75,
-75,
-76,
-76,
-75,
-75,
-74,
-74,
-73,
-73,
-74,
-74,
-74,
-74,
-77,
-77,
-72,
-72,
-72,
-72,
-71,
-71,
-72,
-72,
-70,
-70,
-71,
-71,
-70,
-70,
-69,
-69,
-70,
-70,
-68,
-68,
-65,
-65,
-69,
-58,
-63,
-63,
-48,
-79,
-59,
-77,
-65,
-65,
-65,
-65,
-74,
-51,
-58,
-58,
-62,
-62,
-59,
-59,
-59,
-59,
-58,
-58,
-55,
-55,
-56,
-45,
-55,
-38,
-58,
-40,
-52,
-52,
-47,
-47,
-47,
-47,
-48,
-48,
-45,
-45,
-44,
-44,
-40,
-40,
-44,
-44,
-42,
-42,
-37,
-37,
-60,
-13,
-35,
-46,
-37,
-37,
-34,
-34,
-37,
-37,
-29,
-29,
-25,
-37,
-27,
-27,
-29,
-29,
-29,
-29,
-23,
-23,
-23,
-23,
-20,
-20,
-24,
-12,
-16,
-16,
-15,
-15,
-14,
-14,
-16,
-16,
-12,
-12,
-12,
-12,
-10,
-10,
8,
-21,
-5,
-5,
-3,
-3,
-4,
-4,
-2,
-2,
-3,
-3,
2,
2,
4,
4,
1,
1,
0,
11,
5,
19,
6,
6,
10,
29,
5,
25,
10,
10,
15,
15,
14,
14,
21,
9,
20,
20,
20,
20,
22,
22,
25,
25,
27,
27,
29,
17,
23,
42,
24,
43,
30,
30,
32,
32,
34,
34,
36,
36,
37,
37,
37,
37,
36,
50,
41,
41,
46,
34,
44,
44,
45,
45,
60,
34,
46,
46,
48,
48,
46,
46,
52,
52,
49,
49,
51,
51,
53,
53,
56,
56,
55,
55,
54,
54,
55,
55,
59,
59,
59,
59,
61,
61,
61,
61,
62,
62,
61,
61,
63,
63,
65,
65,
66,
66,
63,
63,
68,
68,
68,
68,
70,
70,
70,
70,
69,
69,
71,
71,
69,
69,
70,
70,
71,
71,
69,
69,
72,
72,
72,
72,
71,
71,
73,
73,
75,
75,
74,
74,
72,
72,
72,
72,
73,
73,
75,
75,
75,
75,
72,
72,
76,
76,
77,
77,
75,
75,
77,
77,
74,
74,
74,
74,
55,
92,
72,
83,
76,
76,
75,
75,
73,
73,
72,
72,
74,
74,
71,
71,
69,
69,
73,
73,
72,
83,
70,
70,
54,
84,
67,
67,
72,
72,
68,
68,
67,
67,
68,
68,
67,
67,
66,
66,
64,
64,
65,
65,
64,
64,
64,
64,
49,
75,
61,
61,
61,
61,
60,
60,
60,
60,
58,
58,
57,
57,
57,
57,
56,
56,
57,
57,
52,
52,
54,
54,
52,
52,
49,
49,
49,
49,
47,
47,
49,
49,
44,
44,
47,
47,
45,
45,
45,
34,
40,
40,
39,
39,
37,
37,
40,
40,
37,
37,
39,
26,
32,
32,
33,
33,
31,
31,
28,
28,
31,
31,
27,
27,
21,
21,
22,
22,
23,
23,
22,
22,
19,
19,
19,
19,
14,
14,
13,
13,
9,
20,
11,
11,
11,
11,
7,
7,
7,
7,
5,
5,
2,
2,
2,
2,
0,
0,
-2,
-2,
13,
-18,
-5,
-5,
-6,
-6,
-10,
-10,
-10,
3,
-14,
-14,
-12,
-12,
-11,
-11,
-14,
-14,
-13,
-13,
-20,
-20,
-22,
-22,
-23,
-23,
-22,
-22,
-23,
-23,
-26,
-26,
-24,
-24,
-30,
-30,
-29,
-29,
-31,
-31,
-35,
-35,
-34,
-34,
-34,
-34,
-41,
-30,
-38,
-38,
-39,
-39,
-39,
-39,
-43,
-43,
-43,
-43,
-45,
-45,
-46,
-46,
-47,
-47,
-46,
-46,
-51,
-51,
-47,
-47,
-52,
-52,
-52,
-52,
-53,
-53,
-54,
-54,
-56,
-56,
-55,
-55,
-55,
-55,
-59,
-59,
-59,
-59,
-60,
-60,
-63,
-63,
-63,
-63,
-68,
-53,
-65,
-65,
-67,
-67,
-65,
-65,
-66,
-66,
-69,
-69,
-66,
-77,
-75,
-60,
-64,
-75,
-70,
-70,
-69,
-81,
-72,
-72,
-72,
-72,
-74,
-74,
-72,
-72,
-73,
-73,
-72,
-72,
-74,
-74,
-75,
-75,
-75,
-75,
-74,
-74,
-77,
-77,
-75,
-75,
-74,
-74,
-74,
-74,
-78,
-78,
-78,
-78,
-80,
-80,
-78,
-78,
-76,
-76,
-78,
-78,
-79,
-79,
-77,
-77,
-79,
-79,
-76,
-76,
-78,
-78,
-75,
-75,
-75,
-75,
-74,
-74,
-77,
-77,
-74,
-74,
-74,
-74,
-73,
-73,
-71,
-71,
-73,
-73,
-72,
-72,
-73,
-73,
-71,
-71,
-73,
-73,
-71,
-71,
-71,
-71,
-67,
-67,
-70,
-70,
-67,
-67,
-72,
-72,
-66,
-66,
-66,
-66,
-65,
-65,
-64,
-64,
-63,
-63,
-63,
-63,
-65,
-65,
-61,
-61,
-60,
-60,
-57,
-69,
-61,
-61,
-59,
-59,
-58,
-58,
-56,
-56,
-53,
-53,
-57,
-45,
-54,
-54,
-53,
-53,
-53,
-53,
-50,
-50,
-47,
-47,
-47,
-47,
-48,
-48,
-46,
-46,
-45,
-45,
-39,
-39,
-42,
-42,
-39,
-39,
-39,
-39,
-32,
-45,
-35,
-35,
-33,
-33,
-32,
-32,
-31,
-31,
-31,
-31,
-31,
-31,
-27,
-27,
-27,
-27,
-24,
-24,
-21,
-21,
-21,
-21,
-20,
-20,
-17,
-31,
-17,
-17,
-15,
-15,
-17,
-17,
-10,
-10,
-8,
-8,
-7,
-7,
-10,
-10,
-6,
-6,
-4,
-4,
-4,
-4,
0,
0,
0,
0,
1,
1,
6,
6,
7,
7,
7,
7,
19,
-3,
6,
6,
12,
12,
14,
14,
12,
12,
16,
16,
16,
16,
18,
18,
22,
22,
25,
25,
22,
22,
22,
22,
24,
24,
25,
25,
30,
41,
34,
34,
32,
32,
32,
32,
36,
36,
36,
36,
38,
38,
30,
47,
37,
37,
41,
41,
45,
45,
46,
46,
46,
46,
45,
45,
51,
51,
49,
49,
50,
50,
50,
50,
51,
51,
51,
63,
51,
51,
56,
56,
54,
54,
56,
56,
57,
57,
60,
60,
61,
61,
60,
60,
58,
58,
57,
68,
62,
62,
59,
71,
64,
64,
62,
62,
61,
75,
65,
65,
67,
67,
67,
67,
67,
67,
68,
79,
73,
73,
70,
70,
70,
70,
74,
74,
71,
71,
70,
70,
72,
72,
74,
74,
72,
72,
71,
71,
72,
72,
74,
74,
75,
75,
74,
74,
77,
77,
74,
74,
74,
74,
73,
73,
75,
75,
75,
75,
72,
72,
78,
78,
75,
75,
77,
77,
73,
73,
73,
73,
73,
73,
74,
74,
75,
75,
74,
74,
72,
72,
72,
72,
75,
75,
72,
72,
72,
72,
71,
71,
69,
69,
69,
69,
68,
68,
66,
66,
73,
73,
66,
66,
69,
57,
65,
65,
64,
64,
62,
62,
61,
61,
62,
62,
61,
61,
61,
61,
60,
60,
60,
60,
58,
58,
58,
58,
57,
57,
57,
46,
57,
57,
52,
52,
51,
51,
51,
51,
51,
51,
50,
50,
46,
46,
45,
45,
45,
45,
48,
48,
45,
45,
41,
41,
41,
41,
40,
40,
38,
38,
37,
37,
36,
36,
32,
32,
32,
32,
30,
30,
28,
28,
28,
28,
24,
24,
28,
28,
24,
24,
20,
20,
21,
21,
18,
18,
18,
18,
10,
22,
15,
15,
13,
13,
10,
10,
11,
11,
11,
11,
7,
7,
8,
8,
3,
3,
1,
1,
0,
0,
-1,
-1,
1,
1,
-2,
-2,
-7,
-7,
-5,
-5,
-7,
-7,
-12,
1,
-12,
-12,
-15,
-15,
-14,
-14,
-24,
-12,
-17,
-17,
-19,
-19,
-23,
-12,
-21,
-21,
-22,
-22,
-26,
-26,
-25,
-25,
-28,
-28,
-28,
-28,
-28,
-28,
-31,
-31,
-34,
-34,
-36,
-36,
-35,
-35,
-38,
-38,
-37,
-48,
-40,
-40,
-41,
-41,
-40,
-40,
-42,
-42,
-44,
-44,
-44,
-56,
-44,
-44,
-50,
-50,
-51,
-51,
-51,
-51,
-50,
-50,
-53,
-53,
-57,
-57,
-53,
-53,
-56,
-56,
-59,
-59,
-57,
-57,
-58,
-58,
-62,
-62,
-60,
-60,
-60,
-60,
-60,
-60,
-66,
-66,
-65,
-65,
-65,
-65,
-65,
-65,
-67,
-67,
-66,
-66,
-65,
-76,
-66,
