4-transistorverstaerker/data/ALL0018/A0018CH2.CSV

Memory Length,4000,
Trigger Level,8.10000e+02,
Source,CH2,
Probe,1.0X,
Vertical Units,V,
Vertical Scale,2.00000e-02,
Vertical Position,0.00000e+00,
Horizontal Units,S,
Horizontal Scale,5.00000e-04,
Horizontal Position,-6.8000000e-04,
Horizontal Mode,Main,
Sampling Period,2.00000e-06,
Firmware,V1.14,
Time, ,
Mode,Fast,
Waveform Data,
-70,
-70,
-70,
-70,
-70,
-70,
-70,
-67,
-67,
-67,
-67,
-69,
-69,
-66,
-66,
-65,
-65,
-69,
-69,
-66,
-66,
-64,
-64,
-67,
-67,
-64,
-64,
-64,
-64,
-63,
-63,
-60,
-60,
-58,
-58,
-63,
-63,
-58,
-58,
-58,
-58,
-58,
-58,
-57,
-57,
-58,
-58,
-57,
-57,
-54,
-54,
-52,
-52,
-52,
-52,
-52,
-52,
-49,
-49,
-50,
-50,
-52,
-52,
-46,
-46,
-44,
-44,
-45,
-45,
-44,
-44,
-43,
-43,
-39,
-39,
-38,
-38,
-39,
-39,
-35,
-35,
-36,
-36,
-37,
-37,
-30,
-30,
-30,
-30,
-28,
-28,
-29,
-29,
-30,
-18,
-24,
-24,
-23,
-23,
-25,
-25,
-22,
-22,
-20,
-20,
-20,
-20,
-16,
-16,
-14,
-14,
-13,
-13,
-15,
-15,
-14,
-14,
-12,
-12,
-9,
-9,
-4,
-4,
-5,
-5,
-3,
-3,
-4,
-4,
2,
2,
1,
1,
1,
1,
6,
6,
0,
0,
8,
8,
4,
15,
11,
11,
12,
12,
11,
11,
13,
13,
16,
16,
17,
17,
16,
16,
21,
21,
20,
20,
22,
22,
23,
23,
25,
25,
24,
24,
27,
27,
30,
30,
30,
30,
35,
35,
32,
32,
36,
36,
37,
37,
35,
35,
36,
36,
37,
37,
38,
38,
43,
43,
43,
43,
47,
47,
48,
48,
45,
45,
49,
49,
49,
49,
51,
51,
52,
52,
52,
52,
55,
55,
57,
57,
54,
54,
59,
59,
57,
57,
54,
66,
61,
61,
57,
57,
61,
61,
59,
59,
63,
63,
63,
63,
63,
63,
62,
62,
65,
65,
66,
66,
67,
67,
70,
70,
72,
72,
69,
69,
71,
71,
66,
66,
71,
71,
71,
71,
69,
69,
71,
71,
72,
72,
72,
72,
72,
72,
71,
71,
73,
73,
73,
73,
72,
72,
73,
73,
75,
75,
71,
71,
72,
72,
73,
73,
71,
71,
73,
73,
74,
74,
71,
71,
75,
75,
74,
74,
75,
75,
73,
73,
72,
72,
70,
70,
70,
70,
75,
75,
70,
70,
71,
71,
69,
69,
69,
69,
70,
70,
68,
68,
67,
67,
69,
69,
64,
64,
68,
68,
64,
64,
65,
65,
66,
66,
62,
62,
62,
62,
60,
60,
61,
61,
60,
60,
61,
61,
59,
59,
62,
62,
59,
59,
55,
55,
56,
56,
58,
58,
54,
54,
51,
51,
46,
46,
50,
50,
50,
50,
43,
57,
46,
46,
49,
49,
45,
45,
44,
44,
42,
42,
43,
43,
38,
38,
44,
32,
37,
37,
38,
38,
36,
36,
38,
38,
32,
32,
32,
32,
30,
30,
30,
30,
28,
28,
28,
28,
24,
24,
22,
22,
21,
21,
21,
21,
18,
18,
17,
17,
14,
14,
14,
14,
14,
14,
10,
10,
5,
5,
6,
6,
6,
6,
5,
5,
3,
3,
-1,
-1,
0,
0,
0,
0,
0,
0,
-1,
-1,
-4,
-4,
-3,
-3,
-5,
-5,
-10,
-10,
-8,
-8,
-13,
-13,
-15,
-15,
-14,
-14,
-15,
-15,
-18,
-18,
-20,
-20,
-20,
-20,
-21,
-21,
-25,
-25,
-24,
-24,
-28,
-28,
-28,
-28,
-30,
-30,
-31,
-31,
-33,
-33,
-32,
-32,
-40,
-27,
-35,
-35,
-36,
-36,
-36,
-36,
-40,
-40,
-44,
-33,
-45,
-45,
-45,
-45,
-46,
-46,
-42,
-42,
-50,
-50,
-49,
-49,
-51,
-51,
-47,
-47,
-54,
-54,
-56,
-56,
-55,
-55,
-56,
-56,
-52,
-52,
-53,
-53,
-55,
-55,
-57,
-57,
-59,
-59,
-62,
-62,
-63,
-63,
-61,
-61,
-62,
-62,
-63,
-63,
-64,
-64,
-62,
-62,
-62,
-62,
-64,
-64,
-63,
-63,
-64,
-64,
-67,
-67,
-69,
-69,
-70,
-70,
-73,
-73,
-71,
-71,
-71,
-71,
-70,
-70,
-69,
-69,
-70,
-70,
-72,
-72,
-74,
-74,
-73,
-73,
-75,
-75,
-74,
-74,
-73,
-73,
-73,
-73,
-70,
-70,
-75,
-75,
-73,
-73,
-71,
-71,
-75,
-75,
-70,
-70,
-76,
-76,
-70,
-70,
-74,
-74,
-74,
-74,
-74,
-74,
-74,
-74,
-71,
-71,
-70,
-70,
-74,
-74,
-70,
-70,
-74,
-74,
-70,
-70,
-72,
-72,
-68,
-68,
-73,
-73,
-70,
-70,
-67,
-67,
-70,
-70,
-67,
-67,
-66,
-66,
-65,
-65,
-65,
-65,
-69,
-69,
-65,
-65,
-61,
-61,
-59,
-59,
-61,
-61,
-60,
-60,
-61,
-61,
-62,
-62,
-58,
-58,
-59,
-59,
-54,
-54,
-56,
-56,
-57,
-57,
-54,
-54,
-53,
-53,
-56,
-56,
-51,
-51,
-53,
-53,
-48,
-48,
-44,
-44,
-49,
-49,
-46,
-46,
-47,
-47,
-44,
-44,
-43,
-43,
-42,
-42,
-40,
-40,
-40,
-40,
-39,
-39,
-36,
-36,
-37,
-37,
-30,
-30,
-31,
-31,
-27,
-27,
-30,
-30,
-30,
-30,
-25,
-25,
-25,
-25,
-23,
-23,
-22,
-22,
-23,
-23,
-17,
-17,
-17,
-17,
-17,
-17,
-15,
-15,
-17,
-6,
-10,
-10,
-10,
-10,
-9,
-9,
-10,
-10,
-8,
-8,
-4,
-4,
0,
0,
-2,
-2,
-1,
-1,
2,
2,
3,
3,
1,
1,
4,
15,
6,
6,
7,
7,
11,
11,
12,
12,
16,
16,
11,
22,
18,
18,
17,
17,
20,
20,
20,
20,
24,
24,
22,
22,
26,
26,
27,
27,
27,
27,
28,
28,
31,
31,
29,
29,
32,
32,
34,
34,
35,
35,
38,
38,
38,
38,
40,
40,
43,
43,
40,
40,
42,
42,
47,
47,
43,
43,
47,
47,
47,
47,
48,
48,
53,
53,
53,
53,
55,
55,
51,
51,
56,
56,
54,
54,
55,
55,
58,
58,
56,
56,
61,
61,
57,
57,
59,
59,
61,
61,
64,
64,
61,
61,
65,
65,
64,
64,
63,
63,
67,
67,
68,
68,
65,
65,
66,
66,
68,
68,
66,
66,
67,
67,
70,
70,
68,
68,
71,
71,
74,
74,
69,
69,
72,
72,
71,
71,
73,
73,
70,
70,
75,
75,
71,
71,
75,
75,
73,
73,
77,
77,
73,
73,
72,
72,
75,
75,
75,
75,
72,
72,
75,
75,
72,
72,
71,
71,
75,
75,
73,
73,
71,
71,
73,
73,
73,
73,
74,
74,
71,
71,
71,
71,
74,
61,
66,
77,
71,
71,
68,
68,
66,
66,
66,
66,
64,
64,
66,
66,
64,
64,
65,
65,
65,
65,
66,
66,
63,
63,
64,
64,
62,
62,
64,
64,
60,
60,
58,
58,
58,
58,
59,
59,
57,
57,
59,
59,
59,
59,
53,
53,
53,
53,
52,
52,
52,
52,
49,
49,
49,
49,
47,
47,
48,
48,
46,
46,
44,
44,
42,
42,
40,
40,
41,
41,
41,
41,
41,
41,
36,
36,
36,
36,
35,
35,
33,
33,
31,
31,
34,
22,
31,
31,
29,
29,
28,
17,
28,
17,
24,
24,
27,
27,
22,
22,
16,
16,
18,
18,
18,
18,
16,
16,
16,
16,
14,
14,
9,
9,
12,
12,
6,
6,
4,
4,
6,
6,
5,
5,
2,
2,
2,
2,
1,
1,
-2,
-2,
-5,
-5,
-7,
-7,
-8,
-8,
-9,
-9,
-6,
-6,
-12,
-12,
-15,
-15,
-12,
-12,
-16,
-16,
-18,
-18,
-18,
-18,
-21,
-21,
-22,
-22,
-23,
-23,
-23,
-23,
-25,
-25,
-26,
-26,
-29,
-29,
-31,
-31,
-31,
-31,
-31,
-31,
-35,
-35,
-33,
-33,
-37,
-37,
-37,
-37,
-37,
-37,
-39,
-39,
-43,
-43,
-41,
-41,
-42,
-42,
-44,
-44,
-46,
-46,
-48,
-48,
-47,
-47,
-49,
-49,
-49,
-49,
-53,
-53,
-53,
-53,
-54,
-54,
-53,
-53,
-56,
-56,
-60,
-60,
-58,
-58,
-57,
-57,
-61,
-61,
-62,
-62,
-61,
-61,
-63,
-63,
-61,
-61,
-64,
-64,
-63,
-63,
-65,
-65,
-65,
-65,
-68,
-68,
-66,
-66,
-66,
-66,
-65,
-65,
-69,
-69,
-68,
-68,
-71,
-71,
-70,
-70,
-71,
-71,
-71,
-71,
-73,
-73,
-73,
-73,
-74,
-74,
-73,
-73,
-73,
-73,
-74,
-74,
-72,
-72,
-76,
-76,
-76,
-76,
-76,
-76,
-73,
-73,
-74,
-74,
-74,
-74,
-73,
-73,
-71,
-71,
-73,
-73,
-71,
-71,
-70,
-70,
-73,
-73,
-73,
-73,
-75,
-75,
-71,
-71,
-72,
-72,
-69,
-69,
-73,
-73,
-66,
-66,
-73,
-73,
-69,
-69,
-70,
-70,
-70,
-70,
-70,
-70,
-66,
-66,
-73,
-61,
-68,
-68,
-63,
-63,
-67,
-67,
-66,
-66,
-65,
-65,
-65,
-65,
-63,
-63,
-61,
-61,
-60,
-60,
-62,
-62,
-60,
-60,
-60,
-60,
-62,
-62,
-57,
-57,
-59,
-59,
-54,
-54,
-53,
-53,
-56,
-56,
-53,
-53,
-51,
-51,
-52,
-52,
-51,
-51,
-48,
-48,
-50,
-50,
-42,
-42,
-48,
-48,
-44,
-44,
-45,
-45,
-43,
-43,
-40,
-40,
-41,
-41,
-39,
-39,
-38,
-38,
-35,
-35,
-35,
-35,
-33,
-33,
-27,
-27,
-29,
-29,
-27,
-27,
-28,
-28,
-24,
-24,
-26,
-26,
-25,
-25,
-19,
-19,
-20,
-20,
-21,
-21,
-15,
-15,
-16,
-16,
-15,
-15,
-12,
-12,
-13,
-13,
-8,
-8,
-9,
-9,
-6,
-6,
-4,
-4,
-4,
-4,
-4,
-4,
-4,
-4,
-1,
-1,
3,
3,
1,
1,
5,
5,
9,
9,
8,
8,
8,
8,
14,
14,
10,
10,
15,
15,
11,
11,
15,
15,
20,
20,
20,
20,
23,
23,
23,
23,
21,
21,
23,
23,
28,
28,
29,
29,
29,
29,
31,
31,
33,
33,
31,
31,
37,
37,
34,
34,
34,
34,
34,
34,
41,
41,
42,
42,
37,
48,
45,
45,
44,
44,
43,
43,
47,
47,
49,
49,
49,
49,
48,
60,
50,
50,
55,
55,
54,
54,
56,
56,
56,
56,
55,
55,
56,
56,
59,
59,
60,
60,
61,
61,
61,
61,
64,
64,
61,
61,
62,
62,
64,
64,
65,
65,
67,
67,
64,
64,
64,
64,
67,
67,
67,
67,
68,
68,
68,
68,
71,
71,
69,
69,
65,
65,
71,
71,
73,
73,
72,
72,
71,
71,
74,
74,
73,
73,
72,
72,
72,
72,
73,
73,
72,
72,
71,
71,
75,
75,
74,
74,
75,
75,
70,
70,
75,
75,
73,
73,
75,
75,
68,
79,
71,
71,
75,
75,
73,
73,
71,
71,
69,
69,
73,
73,
74,
74,
68,
68,
71,
71,
70,
70,
72,
72,
71,
71,
71,
71,
69,
69,
68,
68,
68,
68,
65,
65,
65,
65,
64,
64,
65,
65,
59,
71,
61,
61,
63,
63,
64,
64,
60,
60,
60,
60,
60,
60,
58,
58,
56,
56,
55,
55,
55,
55,
56,
56,
55,
55,
56,
56,
50,
50,
51,
51,
50,
50,
48,
48,
48,
48,
46,
46,
45,
45,
43,
43,
44,
44,
42,
42,
38,
38,
39,
39,
38,
38,
36,
36,
33,
33,
32,
32,
34,
34,
33,
33,
29,
29,
28,
28,
28,
28,
25,
25,
23,
23,
22,
22,
22,
22,
19,
19,
20,
20,
17,
17,
17,
17,
14,
14,
11,
11,
12,
12,
12,
12,
11,
11,
8,
8,
6,
6,
2,
2,
2,
2,
2,
2,
0,
0,
-2,
-2,
-7,
5,
-3,
-3,
-7,
-7,
-9,
-9,
-11,
-11,
-11,
-11,
-7,
-18,
-15,
-15,
-15,
-15,
-18,
-18,
-19,
-19,
-19,
-19,
-22,
-22,
-21,
-21,
-22,
-22,
-25,
-25,
-27,
-27,
-25,
-25,
-29,
-29,
-30,
-30,
-34,
-34,
-33,
-33,
-34,
-34,
-36,
-36,
-37,
-37,
-38,
-38,
-39,
-39,
-42,
-42,
-45,
-45,
-43,
-43,
-43,
-43,
-44,
-55,
-48,
-48,
-47,
-47,
-48,
-48,
-48,
-48,
-50,
-50,
-53,
-53,
-52,
-52,
-57,
-57,
-54,
-54,
-59,
-59,
-59,
-59,
-59,
-59,
-61,
-61,
-59,
-59,
-59,
-59,
-62,
-62,
-57,
-73,
-65,
-65,
-66,
-66,
-64,
-64,
-68,
-68,
-65,
-65,
-66,
-66,
-66,
-66,
-65,
-65,
-69,
-69,
-69,
-69,
-69,
-69,
-63,
-78,
-71,
-71,
-70,
-70,
-70,
-81,
-69,
-69,
-69,
-69,
-70,
-70,
-72,
-72,
-74,
-74,
-74,
-63,
-73,
-73,
-73,
-61,
-81,
-59,
-71,
-71,
-72,
-72,
-71,
-71,
-73,
-73,
-75,
-75,
-75,
-75,
-74,
-74,
-72,
-72,
-72,
-72,
-73,
-73,
-72,
-72,
-71,
-71,
-73,
-73,
-72,
-72,
-69,
-69,
-69,
-69,
-70,
-70,
-70,
-70,
-70,
-70,
-71,
-71,
-69,
-69,
-71,
-71,
-71,
-71,
-69,
-69,
-67,
-67,
-65,
-65,
-67,
-67,
-64,
-64,
-65,
-65,
-64,
-64,
-60,
-60,
-65,
-65,
-59,
-59,
-63,
-63,
-57,
-57,
-59,
-59,
-60,
-60,
-57,
-57,
-54,
-54,
-56,
-56,
-54,
-54,
-53,
-53,
-53,
-53,
-51,
-51,
-52,
-52,
-51,
-51,
-48,
-48,
-51,
-51,
-44,
-44,
-44,
-44,
-41,
-41,
-41,
-41,
-42,
-42,
-40,
-40,
-43,
-32,
-37,
-37,
-35,
-35,
-38,
-38,
-34,
-34,
-27,
-27,
-33,
-21,
-28,
-28,
-28,
-28,
-29,
-29,
-26,
-26,
-25,
-25,
-24,
-24,
-23,
-23,
-20,
-20,
-17,
-17,
-15,
-15,
-16,
-16,
-15,
-15,
-12,
-12,
-8,
-8,
-8,
-8,
-8,
-8,
-7,
-7,
-5,
-5,
-5,
-5,
-2,
-2,
-1,
-1,
0,
0,
2,
2,
7,
7,
5,
5,
9,
9,
8,
8,
9,
9,
10,
10,
11,
11,
12,
12,
14,
14,
15,
15,
19,
19,
21,
21,
21,
21,
19,
19,
26,
26,
26,
26,
29,
29,
29,
29,
30,
30,
31,
31,
32,
32,
31,
31,
21,
53,
25,
46,
34,
34,
37,
37,
39,
51,
39,
39,
45,
45,
44,
44,
45,
45,
49,
49,
49,
49,
46,
58,
33,
69,
41,
60,
47,
47,
51,
51,
53,
53,
53,
67,
60,
47,
55,
55,
54,
54,
57,
57,
58,
58,
59,
59,
89,
40,
62,
62,
64,
64,
66,
66,
63,
63,
78,
54,
57,
73,
64,
64,
64,
64,
66,
66,
67,
67,
68,
68,
70,
70,
68,
68,
70,
70,
68,
68,
69,
69,
74,
74,
72,
72,
68,
68,
72,
72,
70,
70,
70,
70,
69,
69,
74,
74,
74,
74,
71,
71,
76,
76,
72,
72,
73,
73,
73,
73,
75,
75,
73,
73,
71,
71,
72,
72,
72,
72,
72,
72,
74,
74,
71,
71,
70,
70,
72,
72,
72,
72,
73,
73,
71,
71,
73,
73,
70,
70,
70,
70,
69,
69,
68,
68,
69,
69,
69,
69,
65,
65,
63,
63,
65,
65,
64,
64,
64,
64,
61,
61,
64,
64,
59,
59,
67,
53,
61,
61,
61,
61,
59,
59,
55,
55,
60,
48,
51,
62,
54,
54,
52,
52,
52,
52,
51,
51,
51,
51,
51,
51,
49,
49,
49,
49,
47,
47,
47,
47,
41,
41,
45,
45,
40,
40,
38,
38,
41,
41,
34,
34,
37,
37,
37,
37,
34,
34,
31,
31,
33,
33,
28,
28,
30,
30,
27,
27,
25,
25,
21,
21,
21,
21,
19,
19,
20,
20,
17,
17,
20,
20,
15,
15,
12,
12,
9,
9,
9,
20,
16,
-2,
13,
-1,
8,
8,
3,
3,
3,
3,
2,
2,
1,
1,
-2,
-2,
-2,
-2,
15,
-22,
19,
-25,
-8,
-8,
7,
-20,
-7,
-21,
-12,
-12,
-11,
-11,
-12,
-12,
-16,
-16,
-18,
-18,
-19,
-19,
-38,
-7,
-41,
2,
-29,
-15,
-30,
-18,
-25,
-38,
-31,
-12,
-34,
-21,
-25,
-36,
-32,
-32,
-32,
-32,
-31,
-31,
-38,
-38,
-33,
-33,
-59,
-13,
-12,
-58,
-46,
-46,
-43,
-43,
-45,
-45,
-45,
-45,
-49,
-49,
-48,
-48,
-49,
-49,
-49,
-49,
-52,
-52,
-50,
-50,
-50,
-50,
-53,
-53,
-52,
-52,
-56,
-56,
-54,
-54,
-59,
-59,
-59,
-59,
-58,
-58,
-61,
-61,
-59,
-59,
-63,
-63,
-61,
-61,
-64,
-64,
-62,
-62,
-63,
-63,
-64,
-64,
-65,
-65,
-64,
-64,
-65,
-65,
-69,
-69,
-68,
-68,
-68,
-68,
-72,
-72,
-69,
-69,
-68,
-68,
-69,
-69,
-71,
-71,
-70,
-70,
-73,
-73,
-73,
-73,
-73,
-73,
-71,
-71,
-74,
-74,
-76,
-76,
-75,
-75,
-72,
-72,
-74,
-74,
-74,
-74,
-72,
-72,
-75,
-75,
-72,
-72,
-77,
-77,
-73,
-73,
-75,
-75,
-75,
-75,
-74,
-74,
-72,
-72,
-75,
-75,
-68,
-80,
-77,
-77,
-75,
-75,
-69,
-69,
-71,
-71,
-68,
-68,
-70,
-70,
-69,
-69,
-71,
-71,
-72,
-72,
-68,
-68,
-65,
-65,
-68,
-68,
-65,
-65,
-64,
-64,
-64,
-64,
-63,
-63,
-68,
-68,
-62,
-62,
-64,
-64,
-60,
-60,
-62,
-62,
-62,
-62,
-60,
-60,
-58,
-58,
-56,
-56,
-58,
-58,
-57,
-57,
-57,
-57,
-50,
-50,
-51,
-51,
-50,
-50,
-49,
-49,
-49,
-49,
-47,
-47,
-51,
-51,
-45,
-45,
-47,
-47,
-47,
-47,
-43,
-43,
-44,
-44,
-41,
-41,
-39,
-39,
-39,
-39,
-39,
-39,
-36,
-21,
-35,
-35,
-46,
-19,
-2,
-52,
-31,
-31,
-30,
-30,
-27,
-27,
-27,
-27,
-25,
-25,
-23,
-23,
-22,
-22,
-22,
-22,
-31,
-5,
-11,
-30,
-13,
-13,
-34,
11,
-15,
-3,
-10,
-10,
-7,
-7,
-9,
-9,
-9,
-9,
-5,
-5,
-4,
-4,
-2,
-2,
-1,
-1,
14,
-12,
-18,
21,
18,
-16,
10,
-1,
5,
5,
10,
10,
7,
7,
12,
12,
14,
14,
16,
16,
13,
13,
18,
18,
21,
9,
29,
11,
22,
22,
28,
17,
22,
22,
24,
24,
24,
35,
32,
32,
30,
30,
29,
29,
32,
32,
33,
33,
33,
33,
35,
35,
38,
38,
36,
36,
42,
42,
40,
40,
43,
43,
44,
44,
41,
41,
48,
48,
46,
46,
48,
48,
45,
45,
52,
52,
52,
52,
54,
54,
55,
55,
56,
56,
56,
56,
55,
55,
59,
59,
58,
58,
62,
62,
59,
59,
60,
60,
62,
62,
59,
71,
64,
64,
64,
64,
66,
66,
66,
66,
67,
67,
67,
67,
65,
65,
66,
66,
69,
69,
65,
65,
69,
69,
70,
70,
69,
69,
69,
69,
70,
70,
69,
69,
69,
69,
70,
70,
73,
73,
74,
74,
72,
72,
73,
73,
70,
70,
75,
75,
72,
72,
75,
75,
74,
74,
74,
74,
72,
72,
74,
74,
72,
72,
73,
73,
69,
69,
72,
72,
70,
70,
72,
72,
71,
71,
71,
71,
71,
71,
72,
72,
69,
69,
72,
72,
72,
72,
71,
71,
69,
69,
69,
69,
68,
68,
68,
68,
64,
64,
66,
66,
66,
66,
66,
66,
66,
66,
66,
66,
65,
65,
61,
61,
61,
61,
64,
53,
59,
59,
71,
44,
50,
68,
59,
59,
57,
57,
56,
56,
48,
59,
55,
55,
51,
51,
53,
53,
50,
50,
47,
47,
48,
48,
48,
33,
45,
45,
47,
36,
41,
41,
40,
40,
42,
42,
40,
40,
38,
38,
34,
34,
34,
34,
35,
35,
33,
33,
31,
18,
32,
32,
30,
30,
28,
28,
28,
28,
26,
26,
20,
20,
18,
18,
23,
23,
21,
21,
18,
18,
17,
17,
13,
13,
18,
5,
11,
11,
10,
10,
6,
6,
8,
8,
5,
5,
4,
4,
5,
5,
1,
-10,
-3,
-3,
-2,
-2,
-4,
-4,
-4,
-4,
-5,
-5,
-7,
-7,
-8,
-8,
-9,
-9,
-8,
-8,
-10,
-10,
-13,
-13,
-15,
-15,
-26,
-10,
-18,
-18,
-22,
-22,
-23,
-23,
-26,
-14,
-25,
-25,
-25,
-25,
-30,
-30,
-29,
-29,
-31,
-31,
-31,
-31,
-29,
-42,
-32,
-32,
-36,
-36,
-38,
-38,
-38,
-38,
-39,
-39,
-41,
-41,
-41,
-41,
-42,
-53,
-44,
-44,
-47,
-47,
-47,
-47,
-48,
-48,
-47,
-61,
-50,
-50,
-51,
-51,
-50,
-50,
-54,
-54,
-52,
-52,
-54,
-54,
-56,
-56,
-55,
-55,
-57,
-57,
-58,
-58,
-60,
-60,
-64,
-64,
-60,
-60,
-62,
-62,
-64,
-64,
-64,
-64,
-64,
-64,
-63,
-63,
-67,
-67,
-67,
-67,
-67,
-67,
-68,
-68,
-68,
-68,
-71,
-71,
-69,
-69,
-69,
-69,
-72,
-72,
-69,
-69,
-74,
-74,
-71,
-71,
-70,
-70,
-71,
-71,
-73,
-73,
-72,
-72,
-76,
-76,
-72,
-72,
-71,
-71,
-74,
-74,
-74,
-74,
-73,
-73,
-75,
-75,
-74,
-74,
-74,
-74,
-75,
-75,
-75,
-75,
-76,
-76,
-71,
-71,
-73,
-73,
-71,
-71,
-72,
-83,
-71,
-71,
-76,
-76,
-73,
-73,
-71,
-71,
-71,
-71,
-72,
-72,
-71,
-71,
-68,
-68,
-71,
-71,
-70,
-70,
-65,
-76,
-71,
-59,
-64,
-64,
-66,
-66,
-67,
-67,
-65,
-65,
-64,
-64,
-65,
-65,
-66,
-66,
-59,
-59,
-61,
-61,
-59,
-59,
-62,
-62,
-58,
-58,
-59,
-59,
-63,
-51,
-58,
-58,
-57,
-57,
-55,
-55,
-56,
-56,
-53,
-53,
-49,
-49,
-54,
-43,
-49,
-49,
-48,
-48,
-46,
-46,
-43,
-43,
-42,
-42,
-43,
-43,
-43,
-43,
-41,
-41,
-38,
-38,
-41,
-41,
-37,
-37,
-34,
-34,
-33,
-33,
-34,
-34,
-34,
-34,
-30,
-30,
-32,
-32,
-26,
-26,
-26,
-26,
-24,
-24,
-23,
-23,
-25,
-25,
-19,
-19,
-18,
-18,
-19,
-19,
-18,
-18,
-13,
-13,
-15,
-15,
-11,
-11,
-12,
-12,
-6,
-17,
-2,
-15,
-7,
-7,
-4,
-4,
-2,
-2,
-2,
-2,
1,
1,
4,
4,
-1,
-1,
2,
2,
7,
7,
4,
19,
4,
4,
14,
14,
13,
13,
14,
14,
15,
15,
18,
18,
16,
16,
19,
19,
17,
17,
23,
23,
23,
23,
25,
25,
26,
26,
26,
26,
28,
28,
32,
32,
32,
32,
30,
30,
35,
35,
38,
38,
36,
36,
40,
40,
41,
41,
41,
41,
40,
40,
44,
44,
44,
44,
44,
44,
47,
47,
49,
49,
49,
49,
51,
51,
52,
52,
49,
49,
54,
54,
54,
54,
51,
51,
54,
54,
53,
53,
56,
56,
57,
57,
59,
59,
62,
62,
61,
61,
63,
63,
64,
64,
64,
64,
66,
66,
65,
65,
65,
65,
65,
65,
68,
68,
68,
68,
71,
60,
65,
65,
68,
68,
69,
69,
68,
68,
70,
70,
72,
72,
70,
70,
72,
72,
72,
72,
73,
73,
73,
73,
72,
72,
74,
74,
76,
76,
73,
73,
71,
71,
70,
70,
73,
73,
73,
73,
72,
72,
74,
74,
72,
72,
73,
73,
75,
75,
71,
71,
71,
71,
71,
71,
74,
74,
69,
69,
73,
73,
72,
72,
72,
72,
70,
70,
70,
70,
71,
71,
68,
68,
71,
71,
68,
68,
68,
68,
65,
65,
67,
67,
68,
68,
68,
68,
63,
63,
63,
63,
65,
65,
61,
61,
60,
60,
59,
59,
61,
61,
61,
61,
59,
59,
59,
59,
57,
57,
55,
55,
56,
56,
53,
53,
53,
53,
50,
50,
53,
53,
48,
48,
48,
48,
50,
50,
47,
47,
45,
45,
46,
46,
42,
42,
41,
41,
41,
41,
38,
38,
37,
37,
34,
34,
36,
36,
33,
33,
34,
34,
29,
29,
24,
37,
28,
28,
25,
25,
24,
24,
22,
22,
23,
23,
18,
18,
17,
17,
17,
17,
15,
15,
16,
16,
14,
14,
11,
11,
8,
22,
9,
9,
8,
8,
8,
8,
4,
4,
0,
0,
0,
0,
1,
1,
0,
0,
-2,
-2,
-5,
-5,
-3,
-3,
-5,
-5,
-8,
-8,
-11,
-11,
-14,
-14,
-10,
-10,
-15,
-15,
-13,
-13,
-18,
-18,
-18,
-18,
-19,
-19,
-22,
-22,
-23,
-23,
-21,
-21,
-25,
-25,
-26,
-26,
-28,
-28,
-26,
-26,
-29,
-29,
-32,
-32,
-32,
-45,
-31,
-31,
-38,
-38,
-36,
-36,
-38,
-38,
-41,
-41,
-41,
-41,
-39,
-51,
-42,
-42,
-46,
-46,
-47,
-47,
-52,
-52,
-50,
-50,
-51,
-51,
-51,
-51,
-51,
-51,
-52,
-52,
-53,
-53,
-57,
-57,
-56,
-56,
-56,
-56,
-61,
-61,
-56,
-56,
-60,
-60,
-60,
-60,
-59,
-59,
-63,
-63,
-65,
-65,
-62,
-62,
-62,
-62,
-61,
-61,
-65,
-65,
-66,
-66,
-67,
-67,
-61,
-76,
-67,
-67,
-71,
-71,
-68,
-68,
-71,
-71,
-72,
-72,
-74,
-74,
-71,
-71,
-72,
-72,
-72,
-72,
-72,
-72,
-72,
-72,
-73,
-73,
-72,
-72,
-74,
-74,
-72,
-72,
-73,
-73,
-75,
-75,
-74,
-74,
-74,
-74,
-74,
-74,
-76,
-76,
-73,
-73,
-71,
-71,
-72,
-72,
-72,
-72,
-72,
-72,
-73,
-73,
-73,
-73,
-71,
-71,
-70,
-82,
-72,
-72,
-72,
-72,
-72,
-72,
-71,
-71,
-71,
-71,
-71,
-71,
-71,
-71,
-70,
-70,
-70,
-70,
-67,
-67,
-66,
-66,
-65,
-65,
-67,
-67,
-66,
-66,
-64,
-64,
-66,
-66,
-63,
-63,
-67,
-67,
-59,
-59,
-59,
-59,
-63,
-63,
-57,
-57,
-61,
-61,
-57,
-57,
-58,
-58,
-54,
-54,
-55,
-55,
-51,
-51,
-56,
-56,
-50,
-50,
-49,
-49,
-52,
-52,
-47,
-47,
-49,
-49,
-45,
-45,
-47,
-47,
-45,
-45,
-44,
-44,
-41,
-41,
-39,
-39,
-42,
-42,
-36,
-36,
-38,
-38,
-36,
-36,
-32,
-32,
-33,
-33,
-32,
-32,
-31,
-31,
-27,
-27,
-25,
-25,
-26,
-26,
-24,
-24,
-23,
-23,
-21,
-21,
-20,
-20,
-18,
-18,
-17,
-17,
-13,
-13,
-15,
-15,
-12,
-12,
-11,
-11,
-12,
-12,
-8,
-8,
-7,
-7,
-4,
-4,
-5,
-5,
-3,
-3,
0,
0,
1,
1,
5,
5,
5,
5,
4,
4,
4,
4,
9,
9,
12,
12,
11,
11,
11,
11,
13,
13,
17,
17,
13,
13,
19,
19,
23,
23,
24,
24,
26,
26,
24,
24,
28,
28,
26,
26,
29,
29,
28,
28,
31,
31,
31,
31,
31,
31,
30,
30,
34,
45,
38,
38,
40,
40,
38,
38,
42,
42,
38,
49,
47,
47,
44,
44,
45,
45,
45,
45,
50,
50,
46,
46,
53,
53,
54,
54,
53,
53,
52,
52,
56,
56,
56,
56,
56,
56,
57,
57,
58,
58,
59,
59,
58,
58,
59,
59,
64,
64,
61,
61,
63,
63,
64,
64,
64,
64,
68,
68,
66,
66,
69,
69,
65,
65,
64,
64,
65,
