1-signale-auf-leitern/tag_1_daten/daten_versuch1/ALL0007/A0007CH2.CSV

Memory Length,4000,
Trigger Level,3.80000e+01,
Source,CH2,
Probe,1.0X,
Vertical Units,V,
Vertical Scale,5.00000e-02,
Vertical Position,0.00000e+00,
Horizontal Units,S,
Horizontal Scale,1.00000e-07,
Horizontal Position,3.8400000e-07,
Horizontal Mode,Main,
Sampling Period,2.00000e-09,
Firmware,V1.14,
Time, ,
Mode,Fast,
Waveform Data,
7,
7,
7,
7,
7,
7,
8,
9,
9,
9,
9,
8,
7,
9,
9,
9,
8,
10,
9,
9,
7,
8,
7,
8,
6,
6,
6,
7,
6,
6,
5,
5,
5,
6,
7,
8,
6,
8,
9,
9,
8,
9,
8,
10,
9,
9,
9,
9,
9,
9,
9,
9,
8,
8,
8,
8,
6,
7,
7,
7,
6,
7,
7,
7,
6,
6,
6,
7,
5,
7,
7,
8,
7,
8,
9,
9,
7,
8,
9,
9,
8,
8,
8,
9,
7,
7,
7,
7,
6,
7,
7,
8,
5,
6,
7,
8,
7,
7,
7,
6,
7,
7,
8,
8,
7,
8,
9,
8,
8,
9,
8,
8,
8,
9,
8,
8,
7,
9,
8,
9,
7,
7,
8,
9,
7,
6,
7,
8,
6,
6,
6,
7,
6,
7,
7,
7,
6,
8,
8,
8,
7,
9,
8,
8,
6,
8,
7,
9,
7,
8,
8,
9,
7,
7,
7,
9,
6,
8,
7,
6,
5,
6,
6,
6,
6,
7,
7,
7,
6,
8,
7,
8,
7,
8,
7,
9,
7,
9,
8,
8,
7,
7,
7,
8,
7,
8,
8,
7,
5,
6,
7,
7,
5,
6,
6,
7,
6,
8,
7,
8,
6,
7,
7,
8,
6,
8,
8,
8,
6,
8,
7,
8,
6,
7,
7,
8,
7,
6,
7,
9,
6,
7,
7,
7,
6,
6,
6,
7,
6,
6,
7,
8,
6,
7,
8,
8,
6,
6,
7,
7,
7,
7,
8,
7,
7,
7,
8,
9,
7,
8,
8,
7,
6,
7,
6,
7,
6,
7,
7,
8,
6,
6,
6,
6,
5,
6,
6,
7,
5,
7,
8,
8,
6,
8,
8,
7,
6,
7,
8,
7,
5,
7,
6,
7,
5,
5,
7,
8,
6,
7,
6,
7,
5,
6,
7,
8,
6,
7,
7,
8,
7,
8,
7,
7,
6,
6,
6,
7,
6,
7,
7,
7,
7,
8,
7,
7,
6,
6,
7,
8,
6,
6,
6,
8,
5,
6,
5,
6,
6,
7,
7,
8,
5,
7,
7,
7,
6,
7,
6,
6,
6,
6,
8,
7,
5,
6,
6,
7,
5,
5,
7,
6,
6,
6,
6,
7,
6,
6,
6,
7,
6,
6,
7,
6,
6,
6,
7,
8,
6,
8,
7,
8,
6,
6,
7,
6,
6,
6,
8,
8,
6,
7,
6,
7,
6,
5,
6,
7,
4,
5,
5,
7,
5,
8,
8,
7,
5,
6,
6,
7,
6,
6,
7,
8,
6,
7,
7,
5,
6,
6,
7,
7,
5,
7,
6,
7,
6,
5,
6,
6,
5,
6,
5,
5,
6,
6,
7,
7,
5,
6,
6,
7,
6,
6,
6,
7,
6,
7,
7,
6,
5,
6,
6,
7,
6,
6,
6,
6,
5,
6,
6,
6,
6,
6,
7,
8,
6,
6,
5,
5,
5,
6,
7,
7,
5,
6,
7,
7,
5,
6,
5,
7,
5,
6,
7,
7,
5,
6,
6,
5,
6,
5,
5,
5,
4,
6,
6,
5,
4,
7,
5,
5,
5,
6,
7,
6,
6,
6,
7,
7,
5,
6,
6,
7,
6,
6,
6,
6,
6,
6,
6,
6,
5,
6,
5,
5,
4,
5,
6,
7,
6,
5,
5,
6,
5,
7,
6,
5,
5,
6,
6,
5,
5,
6,
5,
7,
5,
6,
7,
5,
5,
7,
7,
6,
5,
6,
7,
7,
4,
5,
5,
5,
5,
6,
6,
5,
5,
6,
6,
7,
4,
6,
5,
7,
5,
6,
7,
5,
4,
6,
5,
7,
5,
6,
6,
5,
5,
5,
6,
5,
5,
6,
5,
5,
4,
5,
4,
5,
4,
6,
7,
5,
4,
6,
5,
6,
5,
6,
6,
4,
-2,
-11,
-25,
-36,
-43,
-44,
-40,
-34,
-30,
-25,
-21,
-15,
-12,
-9,
-8,
-5,
-4,
-3,
-1,
2,
1,
2,
3,
4,
3,
4,
4,
5,
4,
4,
2,
-2,
-12,
-20,
-27,
-32,
-34,
-36,
-33,
-31,
-26,
-22,
-18,
-14,
-13,
-10,
-8,
-5,
-5,
-3,
-3,
-1,
0,
0,
1,
2,
2,
3,
3,
4,
3,
5,
6,
6,
2,
-4,
-15,
-23,
-30,
-34,
-33,
-31,
-28,
-25,
-21,
-17,
-16,
-12,
-10,
-8,
-7,
-6,
-5,
-1,
-2,
-1,
-1,
0,
0,
0,
3,
1,
1,
0,
-1,
-1,
-6,
-9,
-15,
-17,
-23,
-26,
-27,
-27,
-26,
-23,
-20,
-17,
-16,
-12,
-11,
-8,
-8,
-8,
-5,
-3,
-4,
-1,
-3,
-1,
1,
0,
1,
4,
3,
4,
5,
5,
2,
-2,
-10,
-13,
-21,
-24,
-26,
-26,
-26,
-24,
-20,
-17,
-16,
-13,
-12,
-9,
-9,
-8,
-7,
-3,
-4,
-3,
-3,
-2,
-1,
-1,
-1,
0,
-1,
-3,
-2,
-2,
-4,
-4,
-7,
-9,
-15,
-17,
-21,
-21,
-23,
-19,
-19,
-17,
-16,
-15,
-13,
-10,
-10,
-8,
-10,
-6,
-6,
-5,
-3,
-3,
-2,
0,
-1,
0,
0,
3,
3,
3,
0,
-2,
-5,
-7,
-13,
-16,
-19,
-19,
-21,
-21,
-19,
-17,
-16,
-15,
-13,
-10,
-10,
-9,
-8,
-5,
-6,
-5,
-5,
-4,
-3,
-3,
-5,
-2,
-3,
-3,
-2,
-2,
-3,
-3,
-5,
-6,
-9,
-12,
-16,
-15,
-18,
-17,
-19,
-16,
-16,
-13,
-13,
-11,
-10,
-10,
-10,
-7,
-7,
-6,
-5,
-3,
-3,
-3,
-1,
0,
0,
0,
0,
0,
-1,
-1,
-4,
-5,
-9,
-11,
-14,
-13,
-16,
-17,
-18,
-16,
-16,
-15,
-13,
-10,
-13,
-11,
-8,
-7,
-9,
-6,
-7,
-5,
-5,
-5,
-5,
-3,
-4,
-3,
-3,
-2,
-2,
-2,
-4,
-3,
-6,
-8,
-11,
-11,
-13,
-13,
-15,
-14,
-15,
-12,
-13,
-11,
-13,
-11,
-11,
-8,
-9,
-8,
-6,
-4,
-3,
-3,
-2,
-1,
-3,
-2,
-2,
-1,
-2,
-2,
-3,
-4,
-6,
-8,
-10,
-10,
-13,
-13,
-15,
-13,
-15,
-14,
-13,
-11,
-13,
-11,
-11,
-9,
-9,
-7,
-8,
-6,
-6,
-6,
-7,
-5,
-5,
-5,
-4,
-3,
-2,
-2,
-3,
-3,
-5,
-6,
-7,
-9,
-12,
-11,
-14,
-12,
-13,
-12,
-12,
-11,
-12,
-10,
-11,
-8,
-9,
-8,
-7,
-5,
-6,
-5,
-5,
-3,
-3,
-4,
-4,
-2,
-2,
-2,
-4,
-3,
-4,
-6,
-7,
-7,
-10,
-11,
-13,
-11,
-13,
-12,
-13,
-10,
-12,
-10,
-10,
-9,
-9,
-9,
-9,
-8,
-8,
-7,
-7,
-5,
-5,
-5,
-4,
-3,
-3,
-3,
-4,
-3,
-4,
-5,
-7,
-7,
-9,
-9,
-12,
-9,
-12,
-11,
-11,
-11,
-12,
-10,
-11,
-8,
-9,
-8,
-9,
-6,
-5,
-5,
-5,
-4,
-4,
-3,
-5,
-3,
-3,
-2,
-5,
-3,
-5,
-5,
-6,
-6,
-8,
-9,
-11,
-9,
-10,
-10,
-11,
-9,
-12,
-10,
-11,
-9,
-10,
-9,
-10,
-8,
-8,
-8,
-8,
-6,
-5,
-6,
-5,
-4,
-4,
-4,
-5,
-3,
-4,
-5,
-6,
-7,
-7,
-8,
-10,
-8,
-10,
-10,
-10,
-9,
-9,
-9,
-10,
-8,
-9,
-8,
-8,
-6,
-6,
-5,
-6,
-5,
-5,
-5,
-5,
-4,
-4,
-4,
-4,
-3,
-4,
-3,
-5,
-4,
-6,
-8,
-9,
-8,
-9,
-9,
-10,
-9,
-9,
-9,
-10,
-8,
-9,
-8,
-8,
-7,
-8,
-8,
-8,
-6,
-6,
-6,
-3,
-4,
-6,
-3,
-5,
-4,
-5,
-4,
-5,
-3,
-6,
-8,
-9,
-8,
-9,
-8,
-8,
-8,
-9,
-8,
-8,
-7,
-9,
-8,
-7,
-7,
-7,
-7,
-7,
-6,
-6,
-6,
-5,
-6,
-6,
-5,
-5,
-4,
-4,
-4,
-5,
-4,
-5,
-5,
-7,
-6,
-9,
-8,
-8,
-8,
-8,
-8,
-10,
-8,
-9,
-8,
-8,
-7,
-9,
-8,
-7,
-5,
-6,
-6,
-6,
-4,
-5,
-5,
-4,
-4,
-4,
-4,
-4,
-5,
-5,
-5,
-6,
-6,
-7,
-8,
-9,
-7,
-8,
-8,
-7,
-7,
-8,
-7,
-8,
-6,
-7,
-7,
-7,
-6,
-6,
-6,
-7,
-5,
-5,
-5,
-5,
-4,
-5,
-5,
-4,
-4,
-5,
-4,
-5,
-6,
-7,
-8,
-8,
-7,
-8,
-8,
-8,
-8,
-9,
-8,
-7,
-7,
-8,
-7,
-7,
-6,
-6,
-6,
-7,
-4,
-5,
-4,
-4,
-4,
-5,
-4,
-5,
-4,
-4,
-5,
-7,
-5,
-7,
-6,
-7,
-5,
-6,
-7,
-8,
-7,
-7,
-6,
-6,
-5,
-6,
-6,
-7,
-5,
-6,
-6,
-6,
-5,
-6,
-5,
-5,
-4,
-4,
-4,
-5,
-4,
-5,
-5,
-6,
-5,
-6,
-5,
-7,
-6,
-6,
-6,
-7,
-7,
-6,
-7,
-7,
-7,
-8,
-8,
-7,
-5,
-6,
-6,
-7,
-6,
-6,
-4,
-5,
-4,
-5,
-5,
-5,
-3,
-5,
-5,
-6,
-4,
-5,
-4,
-7,
-6,
-7,
-6,
-8,
-6,
-6,
-7,
-7,
-6,
-7,
-6,
-7,
-6,
-6,
-6,
-5,
-4,
-6,
-6,
-6,
-5,
-4,
-5,
-5,
-4,
-4,
-5,
-5,
-4,
-6,
-5,
-7,
-6,
-6,
-6,
-6,
-6,
-7,
-8,
-7,
-7,
-6,
-6,
-6,
-6,
-7,
-7,
-7,
-6,
-5,
-5,
-6,
-3,
-5,
-5,
-5,
-4,
-4,
-5,
-5,
-4,
-6,
-4,
-5,
-4,
-6,
-5,
-6,
-5,
-6,
-6,
-6,
-5,
-6,
-6,
-7,
-7,
-7,
-5,
-6,
-4,
-6,
-5,
-6,
-4,
-5,
-4,
-4,
-3,
-4,
-4,
-5,
-4,
-6,
-5,
-6,
-5,
-6,
-5,
-6,
-6,
-6,
-6,
-7,
-5,
-6,
-6,
-6,
-5,
-6,
-6,
-6,
-4,
-6,
-5,
-5,
-5,
-5,
-3,
-5,
-4,
-5,
-5,
-5,
-4,
-5,
-4,
-5,
-5,
-4,
-5,
-6,
-5,
-5,
-5,
-5,
-5,
-6,
-5,
-7,
-6,
-6,
-5,
-6,
-4,
-5,
-5,
-5,
-4,
-5,
-5,
-5,
-4,
-4,
-4,
-5,
-4,
-4,
-5,
-5,
-5,
-5,
-6,
-6,
-6,
-5,
-5,
-5,
-5,
-5,
-6,
-6,
-5,
-6,
-6,
-7,
-4,
-6,
-4,
-5,
-4,
-5,
-4,
-5,
-5,
-4,
-4,
-5,
-4,
-4,
-4,
-5,
-4,
-5,
-4,
-4,
-3,
-5,
-5,
-5,
-6,
-6,
-6,
-5,
-6,
-6,
-4,
-6,
-5,
-5,
-4,
-5,
-4,
-4,
-4,
-5,
-4,
-5,
-4,
-6,
-3,
-4,
-4,
-5,
-5,
-5,
-5,
-6,
-5,
-4,
-5,
-5,
-6,
-6,
-5,
-6,
-5,
-5,
-4,
-5,
-5,
-5,
-4,
-5,
-4,
-4,
-4,
-5,
-4,
-3,
-4,
-6,
-4,
-4,
-3,
-5,
-4,
-3,
-4,
-5,
-5,
-5,
-5,
-6,
-5,
-6,
-6,
-5,
-4,
-4,
-4,
-5,
-5,
-5,
-4,
-5,
-5,
-5,
-4,
-5,
-4,
-5,
-4,
-5,
-3,
-4,
-3,
-3,
-4,
-4,
-4,
-5,
-5,
-6,
-5,
-5,
-5,
-6,
-4,
-5,
-5,
-5,
-5,
-6,
-5,
-5,
-4,
-5,
-4,
-5,
-5,
-6,
-4,
-5,
-3,
-5,
-4,
-4,
-4,
-5,
-4,
-5,
-3,
-4,
-2,
-3,
-4,
-5,
-4,
-5,
-4,
-5,
-5,
-6,
-5,
-5,
-4,
-5,
-4,
-5,
-4,
-5,
-3,
-5,
-4,
-4,
-4,
-4,
-3,
-4,
-4,
-5,
-4,
-5,
-4,
-5,
-3,
-4,
-3,
-5,
-4,
-6,
-4,
-5,
-4,
-5,
-5,
-5,
-4,
-5,
-4,
-5,
-4,
-5,
-4,
-5,
-4,
-5,
-5,
-5,
-3,
-4,
-3,
-4,
-3,
-5,
-3,
-5,
-3,
-4,
-4,
-5,
-4,
-5,
-4,
-5,
-4,
-5,
-5,
-5,
-3,
-5,
-4,
-5,
-4,
-4,
-5,
-5,
-4,
-5,
-4,
-5,
-4,
-4,
-3,
-4,
-3,
-5,
-4,
-5,
-3,
-4,
-4,
-5,
-3,
-4,
-3,
-5,
-4,
-5,
-5,
-4,
-4,
-4,
-4,
-5,
-3,
-4,
-4,
-5,
-4,
-4,
-4,
-5,
-3,
-3,
-3,
-4,
-3,
-4,
-4,
-4,
-3,
-4,
-3,
-5,
-3,
-4,
-4,
-4,
-4,
-4,
-4,
-4,
-4,
-4,
-3,
-4,
-3,
-1,
6,
17,
28,
39,
48,
47,
43,
35,
29,
24,
19,
16,
14,
11,
9,
7,
5,
4,
3,
2,
0,
-1,
0,
-1,
-2,
-4,
-1,
-3,
-2,
-1,
3,
7,
15,
25,
31,
35,
38,
37,
33,
31,
25,
24,
20,
15,
13,
11,
9,
6,
6,
4,
4,
3,
2,
1,
1,
-1,
-1,
-2,
-1,
-2,
-2,
-5,
-4,
-3,
0,
9,
19,
27,
35,
38,
38,
34,
30,
26,
23,
18,
16,
15,
14,
11,
10,
6,
5,
3,
3,
3,
3,
2,
0,
-1,
1,
-1,
0,
3,
4,
5,
9,
13,
17,
21,
25,
30,
30,
30,
28,
24,
21,
18,
14,
15,
13,
12,
9,
8,
8,
5,
5,
4,
3,
1,
1,
-1,
0,
-1,
-3,
-3,
-1,
-2,
0,
7,
13,
16,
24,
28,
29,
28,
27,
25,
23,
20,
18,
17,
15,
11,
11,
9,
9,
7,
7,
5,
5,
3,
3,
3,
3,
2,
3,
4,
5,
3,
4,
7,
11,
13,
17,
22,
24,
24,
24,
23,
21,
18,
17,
15,
15,
12,
12,
11,
9,
7,
6,
6,
5,
4,
4,
2,
1,
-1,
-1,
-1,
0,
0,
1,
5,
8,
11,
18,
21,
23,
22,
23,
23,
22,
19,
18,
17,
16,
14,
11,
11,
10,
8,
8,
8,
7,
4,
4,
4,
5,
4,
5,
4,
4,
3,
4,
4,
6,
7,
12,
15,
19,
19,
21,
22,
20,
17,
17,
15,
15,
13,
13,
11,
11,
8,
8,
9,
7,
6,
5,
3,
4,
3,
2,
0,
2,
2,
2,
4,
6,
8,
12,
13,
16,
17,
19,
21,
19,
18,
19,
17,
17,
14,
12,
12,
11,
11,
9,
9,
9,
7,
7,
7,
7,
6,
5,
3,
5,
4,
4,
4,
6,
6,
9,
11,
14,
13,
16,
19,
17,
17,
16,
15,
15,
12,
12,
11,
10,
10,
10,
8,
8,
6,
6,
7,
5,
3,
3,
3,
3,
3,
4,
4,
5,
6,
10,
10,
13,
14,
15,
17,
16,
16,
16,
15,
16,
13,
12,
12,
11,
10,
11,
9,
10,
8,
9,
8,
8,
6,
6,
6,
5,
3,
4,
4,
5,
5,
7,
9,
11,
11,
13,
14,
15,
16,
14,
14,
15,
12,
13,
11,
13,
10,
10,
10,
9,
7,
7,
6,
5,
4,
4,
5,
5,
3,
4,
5,
5,
5,
6,
8,
9,
10,
12,
14,
15,
14,
14,
13,
15,
13,
13,
12,
13,
10,
11,
11,
11,
8,
10,
9,
9,
7,
6,
7,
5,
4,
5,
5,
6,
6,
7,
5,
9,
9,
10,
12,
11,
13,
14,
14,
14,
12,
12,
11,
13,
10,
11,
10,
9,
7,
7,
7,
8,
6,
6,
6,
5,
5,
5,
5,
5,
5,
5,
7,
9,
8,
10,
12,
13,
13,
12,
12,
14,
12,
12,
11,
11,
10,
11,
10,
9,
9,
9,
9,
10,
7,
8,
8,
6,
4,
6,
5,
5,
5,
5,
7,
9,
7,
10,
11,
11,
12,
12,
12,
13,
11,
12,
11,
13,
10,
11,
11,
10,
8,
9,
9,
9,
6,
6,
6,
7,
4,
6,
5,
5,
5,
7,
7,
7,
6,
8,
9,
10,
9,
10,
12,
11,
10,
10,
11,
11,
11,
11,
10,
10,
9,
9,
9,
10,
8,
8,
6,
7,
6,
6,
7,
6,
6,
7,
7,
7,
6,
8,
8,
9,
9,
10,
10,
11,
10,
10,
11,
11,
10,
10,
10,
9,
8,
9,
10,
10,
7,
8,
6,
6,
5,
6,
6,
8,
7,
6,
6,
6,
6,
7,
8,
9,
9,
10,
10,
11,
10,
11,
11,
11,
9,
10,
10,
11,
8,
9,
8,
9,
7,
8,
8,
8,
6,
6,
7,
6,
6,
6,
5,
5,
7,
8,
7,
9,
9,
9,
9,
10,
9,
10,
10,
9,
9,
10,
9,
9,
7,
8,
9,
9,
7,
8,
7,
8,
7,
8,
7,
7,
5,
6,
5,
6,
6,
7,
7,
8,
7,
8,
9,
9,
9,
9,
9,
9,
8,
9,
9,
10,
7,
10,
9,
9,
8,
8,
9,
9,
7,
6,
7,
7,
6,
7,
6,
7,
6,
7,
8,
9,
7,
7,
8,
9,
9,
9,
10,
10,
8,
9,
9,
9,
9,
9,
8,
8,
7,
8,
8,
9,
6,
7,
7,
7,
6,
6,
6,
7,
6,
6,
7,
7,
7,
7,
8,
8,
7,
9,
8,
10,
9,
9,
9,
9,
7,
9,
8,
9,
7,
8,
8,
8,
7,
8,
6,
7,
6,
7,
6,
8,
7,
6,
8,
8,
7,
7,
8,
8,
7,
7,
8,
8,
7,
8,
8,
9,
7,
8,
8,
8,
8,
8,
7,
8,
7,
8,
8,
7,
6,
7,
7,
7,
6,
7,
6,
7,
6,
7,
7,
8,
7,
8,
9,
9,
7,
9,
8,
9,
8,
9,
9,
8,
7,
8,
8,
8,
7,
7,
7,
6,
5,
6,
6,
7,
5,
5,
5,
7,
6,
6,
7,
8,
7,
7,
7,
9,
7,
8,
8,
9,
7,
8,
8,
9,
7,
7,
7,
8,
7,
8,
7,
8,
6,
7,
7,
6,
4,
6,
6,
6,
5,
7,
7,
8,
6,
8,
8,
9,
6,
7,
7,
9,
7,
8,
8,
9,
7,
8,
9,
8,
7,
7,
6,
7,
6,
6,
7,
7,
5,
5,
6,
7,
5,
6,
6,
7,
6,
7,
7,
9,
7,
7,
7,
8,
7,
7,
6,
8,
6,
7,
7,
8,
7,
7,
7,
7,
6,
7,
7,
7,
5,
5,
6,
6,
6,
6,
6,
7,
6,
7,
7,
7,
6,
7,
7,
8,
6,
7,
8,
7,
6,
8,
8,
8,
6,
7,
8,
7,
5,
6,
5,
6,
5,
7,
6,
6,
6,
5,
7,
7,
5,
8,
7,
8,
5,
7,
8,
7,
7,
8,
8,
8,
6,
6,
7,
7,
7,
7,
8,
7,
6,
7,
7,
8,
5,
5,
6,
7,
6,
6,
5,
7,
6,
6,
7,
7,
6,
8,
8,
7,
6,
7,
8,
6,
6,
5,
7,
7,
6,
6,
6,
7,
6,
6,
7,
7,
5,
6,
6,
8,
5,
6,
5,
7,
5,
6,
7,
8,
5,
6,
7,
8,
6,
6,
7,
7,
6,
7,
7,
7,
6,
7,
8,
7,
6,
6,
6,
6,
5,
6,
5,
6,
6,
6,
7,
7,
5,
6,
6,
7,
6,
8,
8,
7,
6,
6,
7,
7,
5,
6,
5,
5,
6,
7,
7,
7,
5,
5,
7,
7,
5,
6,
7,
7,
5,
6,
6,
7,
5,
6,
7,
7,
5,
6,
6,
6,
6,
7,
7,
7,
6,
7,
7,
7,
5,
6,
5,
6,
6,
5,
6,
6,
6,
6,
5,
7,
6,
6,
7,
6,
6,
7,
6,
5,
4,
6,
5,
7,
6,
6,
6,
7,
6,
6,
7,
7,
6,
6,
7,
7,
5,
6,
6,
5,
4,
5,
6,
5,
5,
5,
5,
5,
5,
5,
7,
5,
5,
6,
7,
6,
5,
6,
7,
7,
4,
6,
5,
5,
5,
5,
6,
6,
5,
6,
7,
7,
5,
6,
5,
5,
6,
6,
6,
6,
5,
6,
7,
7,
5,
6,
5,
5,
5,
7,
7,
7,
5,
7,
6,
7,
5,
6,
7,
5,
6,
6,
7,
6,
4,
6,
6,
7,
5,
6,
7,
5,
6,
6,
5,
5,
5,
5,
5,
5,
5,
6,
6,
5,
6,
6,
6,
6,
5,
7,
6,
7,
6,
6,
6,
6,
4,
6,
7,
7,
4,
6,
5,
5,
5,
6,
5,
5,
4,
6,
7,
6,
4,
6,
5,
5,
5,
5,
7,
6,
5,
6,
7,
6,
6,
6,
6,
6,
5,
6,
6,
5,
5,
5,
5,
5,
4,
6,
5,
5,
5,
6,
6,
5,
4,
5,
5,
5,
5,
6,
5,
4,
-4,
-15,
-30,
-38,
-45,
-44,
-38,
-33,
-29,
-23,
-19,
-13,
-12,
-9,
-6,
-4,
-4,
-2,
1,
1,
1,
2,
2,
4,
3,
3,
3,
5,
4,
4,
-1,
-5,
-15,
-22,
-29,
-32,
-34,
-35,
-32,
-28,
-26,
-20,
-16,
-13,
-12,
-9,
-8,
-5,
-4,
-3,
-2,
0,
0,
0,
1,
3,
2,
3,
3,
4,
4,
5,
7,
6,
1,
-8,
-18,
-25,
-32,
-36,
-32,
-31,
-28,
-24,
-21,
-16,
-15,
-12,
-10,
-8,
-7,
-6,
-4,
-1,
-2,
-1,
0,
1,
0,
1,
2,
1,
1,
0,
-2,
-4,
-7,
-10,
-15,
-19,
-25,
-28,
-28,
-27,
-25,
-22,
-19,
-15,
-14,
-11,
-11,
-8,
-6,
-6,
-5,
-3,
-3,
-2,
-2,
0,
0,
1,
2,
3,
3,
4,
4,
4,
1,
-4,
-11,
-15,
-22,
-25,
-28,
-25,
-26,
-23,
-20,
-15,
-16,
-13,
-12,
-9,
-9,
-8,
-7,
-4,
-4,
-3,
-2,
-1,
-1,
-1,
-2,
-1,
-2,
-2,
-3,
-2,
-4,
-6,
-10,
-10,
-16,
-19,
-21,
-21,
-23,
-21,
-18,
-16,
-16,
-13,
-13,
-9,
-9,
-8,
-10,
-6,
-5,
-4,
-4,
-2,
-2,
-1,
0,
2,
2,
2,
3,
3,
0,
-2,
-6,
-9,
-14,
-16,
-20,
-20,
-22,
-21,
-19,
-17,
-17,
-14,
-12,
-11,
-9,
-9,
-8,
-5,
-6,
-5,
-5,
-4,
-4,
-2,
-3,
-1,
-2,
-2,
-2,
-1,
-2,
-2,
-5,
-7,
-11,
-13,
-17,
-16,
-19,
-18,
-18,
-15,
-16,
-14,
-12,
-13,
-12,
-9,
-8,
-8,
-7,
-4,
-7,
-3,
-3,
-2,
0,
1,
-1,
0,
0,
1,
-1,
-3,
-5,
-6,
-9,
-11,
-15,
-15,
-18,
-16,
-17,
-15,
-17,
-15,
-13,
-11,
-13,
-10,
-9,
-7,
-8,
-6,
-7,
-6,
-5,
-6,
-5,
-3,
-4,
-4,
-2,
-1,
-3,
-2,
-5,
-4,
-8,
-9,
-12,
-13,
-15,
-14,
-16,
-15,
-15,
-13,
-13,
-12,
-12,
-10,
-8,
-8,
-8,
-7,
-9,
-4,
-4,
-5,
-3,
-1,
-1,
-1,
-1,
-1,
-2,
-2,
-5,
-4,
-7,
-9,
-11,
-10,
-14,
-14,
-14,
-14,
-14,
-13,
-13,
-12,
-10,
-10,
-11,
-9,
-9,
-7,
-10,
-6,
-7,
-6,
-6,
-3,
-5,
-5,
-3,
-3,
-2,
-3,
-3,
-3,
-5,
-7,
-8,
-8,
-10,
-11,
-14,
-12,
-13,
-12,
-13,
-10,
-10,
-11,
-10,
-8,
-9,
-8,
-7,
-5,
-5,
-4,
-3,
-2,
-3,
-3,
-4,
-2,
-3,
-3,
-3,
-4,
-5,
-6,
-7,
-7,
-10,
-11,
-13,
-11,
-14,
-12,
-12,
-11,
-12,
-10,
-11,
-9,
-9,
-9,
-8,
-6,
-7,
-7,
-7,
-4,
-6,
-5,
-5,
-3,
-3,
-3,
-4,
-3,
-4,
-5,
-5,
-6,
-9,
-9,
-12,
-9,
-12,
-11,
-12,
-10,
-10,
-10,
-9,
-8,
-10,
-8,
-8,
-6,
-6,
-5,
-6,
-5,
-5,
-4,
-4,
-3,
-4,
-2,
-4,
-3,
-4,
-5,
-7,
-6,
-9,
-8,
-11,
-9,
-12,
-10,
-11,
-9,
-11,
-10,
-11,
-9,
-10,
-8,
-9,
-8,
-8,
-8,
-7,
-5,
-6,
-5,
-5,
-4,
-4,
-3,
-4,
-3,
-5,
-5,
-6,
-6,
-8,
-8,
-10,
-8,
-9,
-10,
-11,
-9,
-10,
-9,
-10,
-8,
-9,
-8,
-8,
-7,
-6,
-6,
-7,
-4,
-6,
-6,
-5,
-3,
-4,
-5,
-5,
-4,
-4,
-4,
-6,
-5,
-6,
-7,
-9,
-8,
-10,
-9,
-11,
-9,
-10,
-9,
-8,
-8,
-9,
-8,
-8,
-6,
-7,
-8,
-7,
-7,
-6,
-6,
-5,
-4,
-5,
-5,
-5,
-4,
-5,
-4,
-6,
-4,
-6,
-6,
-8,
-8,
-8,
-8,
-9,
-8,
-9,
-9,
-9,
-8,
-9,
-8,
-8,
-6,
-6,
-6,
-7,
-5,
-5,
-6,
-5,
-4,
-5,
-4,
-4,
-4,
-4,
-3,
-4,
-3,
-6,
-5,
-7,
-6,
-7,
-8,
-8,
-9,
-9,
-8,
-10,
-8,
-10,
-8,
-8,
-7,
-8,
-8,
-8,
-7,
-6,
-5,
-6,
-3,
-4,
-5,
-4,
-4,
-4,
-4,
-5,
-5,
-6,
-5,
-7,
-7,
-7,
-8,
-8,
-7,
-8,
-8,
-9,
-8,
-8,
-8,
-8,
-7,
-6,
-6,
-6,
-5,
-6,
-5,
-6,
-5,
-5,
-5,
-6,
-5,
-5,
-4,
-5,
-4,
-5,
-4,
-6,
-6,
-6,
-7,
-8,
-7,
-9,
-8,
-8,
-8,
-8,
-8,
-7,
-7,
-8,
-8,
-7,
-6,
-6,
-6,
-7,
-5,
-5,
-5,
-5,
-4,
-5,
-4,
-5,
-4,
-5,
-4,
-6,
-5,
-6,
-6,
-7,
-7,
-8,
-6,
-7,
-7,
-9,
-7,
-7,
-5,
-7,
-6,
-7,
-6,
-6,
-6,
-6,
-5,
-6,
-5,
-6,
-5,
-6,
-5,
-5,
-5,
-5,
-4,
-6,
-5,
-6,
-5,
-7,
-7,
-7,
-8,
-7,
-7,
-8,
-8,
-8,
-7,
-7,
-6,
-7,
-5,
-6,
-6,
-7,
-5,
-6,
-6,
-5,
-4,
-5,
-5,
-5,
-4,
-5,
-6,
-5,
-5,
-5,
-5,
-7,
-6,
-6,
-5,
-7,
-6,
-7,
-6,
-7,
-7,
-6,
-6,
-6,
-6,
-6,
-6,
-6,
-5,
-6,
-6,
-6,
-4,
-5,
-4,
-5,
-4,
-5,
-5,
-6,
-5,
-6,
-5,
-6,
-6,
-6,
-6,
-7,
-6,
-8,
-8,
-7,
-6,
-6,
-7,
-5,
-5,
-6,
-6,
-6,
-5,
-6,
-5,
-6,
-4,
-5,
-5,
-4,
-3,
-4,
-4,
-4,
-4,
-5,
-5,
-5,
-5,
-6,
-5,
-6,
-6,
-7,
-6,
-6,
-5,
-6,
-6,
-5,
-5,
-6,
-6,
-6,
-4,
-5,
-5,
-5,
-5,
-5,
-4,
-5,
-3,
-5,
-5,
-5,
-4,
-5,
-5,
-6,
-6,
-6,
-5,
-5,
-5,
-7,
-6,
-6,
-5,
-6,
-6,
-5,
-5,
-6,
-5,
-6,
-5,
-6,
-5,
-6,
-5,
-5,
-4,
-5,
-3,
-4,
-4,
-5,
-5,
-5,
-5,
-5,
-4,
-5,
-5,
-6,
-6,
-6,
-4,
-5,
-6,
-6,
-5,
-6,
-5,
-5,
-5,
-5,
-4,
-5,
-3,
-5,
9,
