4-transistorverstaerker/data/ALL0086/A0086CH1.CSV

Memory Length,4000,
Trigger Level,1.11989e+01,
Source,CH1,
Probe,1.0X,
Vertical Units,V,
Vertical Scale,2.00000e-02,
Vertical Position,2.40000e-03,
Horizontal Units,S,
Horizontal Scale,5.00000e-04,
Horizontal Position,-7.0000000e-04,
Horizontal Mode,Main,
Sampling Period,2.00000e-06,
Firmware,V1.14,
Time, ,
Mode,Fast,
Waveform Data,
3,
3,
3,
-4,
-4,
-3,
-3,
-3,
-3,
0,
0,
1,
-11,
-2,
-2,
-3,
-3,
-5,
-5,
-8,
3,
-2,
-2,
-4,
-4,
-5,
-5,
-8,
-8,
-4,
-4,
-6,
-6,
-5,
-5,
-5,
-5,
-4,
-4,
-4,
-4,
-5,
-5,
-7,
-7,
-10,
-10,
-5,
-5,
-6,
-6,
-7,
-7,
-2,
-13,
-9,
-9,
-11,
-11,
-4,
-4,
-8,
-8,
-11,
-11,
-10,
-10,
-10,
-10,
-3,
-14,
-7,
-7,
-11,
-11,
-4,
-16,
-5,
-5,
-9,
-9,
-12,
-12,
-8,
-8,
-8,
-8,
-6,
-6,
-10,
-10,
-12,
-12,
-11,
-11,
-13,
-13,
-9,
-9,
-10,
-10,
-13,
-13,
-5,
-16,
-8,
-8,
-7,
-7,
-9,
-9,
-7,
-7,
-10,
-10,
-15,
-3,
-7,
-7,
-11,
-11,
-13,
-13,
-12,
-12,
-12,
-12,
-13,
-13,
-8,
-8,
-13,
-13,
-11,
-11,
-8,
-8,
-10,
-10,
-14,
-2,
-3,
-18,
-12,
-12,
-9,
-9,
-9,
-9,
-11,
-11,
-7,
-7,
-13,
2,
-6,
-18,
-11,
-11,
-10,
-10,
-7,
-7,
-6,
-6,
-7,
-7,
-10,
-10,
-7,
-7,
-10,
-10,
-5,
-5,
-9,
-9,
-6,
-6,
-9,
-9,
-6,
-6,
-10,
-10,
-5,
-5,
-8,
-8,
-8,
-8,
-11,
-11,
-8,
-8,
-9,
-9,
-8,
-8,
-5,
-5,
-4,
-4,
-4,
-4,
-5,
-5,
-9,
-9,
-8,
-8,
-4,
-4,
-6,
-6,
-2,
-2,
-1,
-1,
-5,
-5,
0,
-11,
-5,
-5,
-7,
-7,
-8,
-8,
-2,
-2,
-5,
-5,
1,
-10,
-4,
-4,
-6,
-6,
3,
-9,
0,
0,
-2,
-2,
-1,
-1,
0,
0,
-4,
-4,
-2,
-2,
-2,
-2,
2,
2,
3,
3,
2,
2,
0,
0,
3,
3,
-1,
-1,
2,
2,
3,
3,
-4,
-4,
0,
0,
1,
1,
-1,
-1,
4,
4,
-2,
9,
0,
0,
6,
6,
-1,
-1,
7,
7,
3,
3,
6,
6,
3,
3,
5,
5,
3,
3,
3,
3,
6,
6,
4,
4,
3,
3,
5,
5,
7,
7,
7,
7,
5,
5,
6,
6,
9,
9,
3,
3,
1,
13,
7,
7,
9,
9,
5,
5,
8,
8,
12,
0,
6,
6,
8,
8,
7,
7,
6,
6,
11,
11,
8,
8,
4,
4,
7,
7,
9,
9,
8,
8,
4,
4,
7,
7,
7,
7,
10,
10,
4,
4,
8,
8,
8,
8,
6,
6,
8,
8,
6,
6,
11,
11,
9,
9,
5,
5,
6,
6,
10,
10,
7,
7,
10,
10,
3,
3,
9,
9,
6,
6,
8,
8,
6,
6,
7,
7,
5,
5,
5,
5,
6,
6,
8,
8,
8,
8,
4,
4,
9,
9,
9,
9,
7,
7,
3,
3,
10,
10,
5,
5,
4,
4,
5,
5,
6,
6,
4,
4,
2,
2,
5,
5,
8,
8,
5,
5,
6,
6,
7,
7,
7,
7,
7,
7,
3,
3,
7,
-4,
4,
4,
4,
4,
4,
4,
4,
4,
1,
1,
4,
4,
0,
0,
4,
4,
0,
0,
2,
2,
0,
0,
2,
2,
2,
2,
3,
3,
0,
0,
3,
3,
0,
0,
-2,
9,
-4,
-4,
4,
-7,
-2,
-2,
-2,
-2,
4,
-8,
1,
1,
-3,
-3,
-3,
-3,
-5,
-5,
1,
1,
-7,
4,
-6,
-6,
1,
1,
-8,
3,
0,
0,
-4,
-4,
-3,
-3,
-1,
-1,
-7,
-7,
-1,
-12,
-8,
3,
-4,
-4,
-5,
-5,
-7,
-7,
-6,
-6,
-1,
-12,
-4,
-4,
-3,
-3,
-7,
-7,
-3,
-3,
-8,
-8,
-10,
-10,
-8,
-8,
-11,
-11,
-7,
-7,
-5,
-5,
-6,
-6,
-10,
1,
-9,
-9,
-7,
-7,
-6,
-6,
-6,
-6,
-10,
-10,
-9,
-9,
-7,
-7,
-8,
-8,
-11,
-11,
-12,
-12,
-10,
-10,
-10,
-10,
-10,
-10,
-6,
-6,
-10,
-10,
-10,
-10,
-13,
-13,
-5,
-16,
-11,
-11,
-10,
-10,
-12,
-12,
-12,
-12,
-11,
-11,
-11,
-11,
-9,
-9,
-11,
-11,
-10,
-10,
-13,
-13,
-9,
-9,
-10,
-10,
-12,
-12,
-9,
-9,
-10,
-10,
-9,
-9,
-10,
-10,
-11,
-11,
-11,
-11,
-10,
-10,
-9,
-9,
-11,
-11,
-7,
-7,
-9,
-9,
-8,
-8,
-8,
-8,
-10,
-21,
-13,
-13,
-11,
-11,
-6,
-6,
-9,
-9,
-8,
-8,
-11,
-11,
-6,
-6,
-5,
-5,
-12,
-12,
-10,
-10,
-6,
-6,
-9,
-9,
-11,
-11,
-8,
-8,
-5,
-5,
-10,
-10,
-6,
-6,
-7,
-7,
-9,
-9,
-8,
-8,
-9,
-9,
-6,
-6,
-7,
-7,
-3,
-3,
-7,
-7,
-12,
0,
-5,
-5,
-2,
-2,
-5,
-5,
-8,
-8,
-5,
-5,
-6,
-6,
-4,
-4,
-6,
-6,
-8,
-8,
-4,
-4,
0,
0,
-5,
-5,
2,
-9,
-6,
-6,
-3,
-3,
-4,
-4,
1,
1,
-5,
-5,
1,
1,
-4,
-4,
-4,
-4,
1,
1,
3,
3,
-4,
-4,
-1,
-1,
-1,
-1,
-1,
-1,
5,
-6,
0,
0,
-3,
-3,
5,
-6,
4,
4,
4,
4,
0,
0,
-1,
-1,
4,
4,
3,
3,
-1,
-1,
1,
1,
-1,
-1,
0,
0,
3,
3,
4,
4,
4,
4,
5,
5,
2,
2,
3,
3,
6,
6,
7,
7,
6,
6,
3,
3,
7,
7,
4,
4,
10,
-1,
8,
8,
4,
4,
8,
8,
6,
6,
8,
8,
8,
8,
8,
8,
5,
5,
5,
5,
5,
5,
11,
11,
9,
9,
7,
7,
8,
8,
9,
9,
8,
8,
4,
4,
7,
7,
8,
8,
2,
15,
8,
8,
10,
10,
10,
10,
7,
7,
9,
9,
6,
6,
2,
13,
7,
7,
8,
8,
8,
8,
4,
4,
5,
5,
6,
6,
9,
9,
8,
8,
8,
8,
5,
5,
9,
9,
10,
10,
6,
6,
10,
10,
6,
6,
7,
7,
10,
10,
6,
18,
5,
5,
8,
8,
7,
7,
8,
8,
10,
10,
5,
5,
5,
5,
4,
4,
10,
10,
7,
7,
1,
12,
7,
7,
6,
6,
6,
6,
5,
5,
5,
5,
6,
6,
6,
6,
3,
3,
8,
8,
5,
5,
4,
4,
1,
1,
3,
3,
-2,
11,
-1,
10,
2,
2,
3,
3,
5,
5,
3,
3,
-2,
-2,
-1,
-1,
3,
-9,
2,
2,
1,
1,
1,
1,
-1,
-1,
3,
-9,
1,
1,
3,
3,
-1,
-1,
-1,
-1,
-1,
-1,
4,
-7,
2,
2,
-5,
7,
-2,
-2,
2,
2,
-3,
-3,
-2,
-2,
1,
1,
2,
2,
-1,
-1,
-8,
3,
-5,
-5,
-7,
4,
-1,
-1,
-3,
-3,
-3,
-3,
-7,
6,
-4,
-4,
-5,
-5,
-6,
6,
-3,
-3,
-8,
-8,
-5,
-5,
-5,
-5,
-7,
-7,
-8,
-8,
-4,
-4,
-5,
-5,
-4,
-4,
-8,
-8,
-2,
-13,
-5,
-5,
-8,
-8,
-10,
-10,
-6,
-6,
-12,
0,
-7,
-7,
-5,
-5,
-9,
-9,
-10,
-10,
-12,
-12,
-10,
-10,
-6,
-6,
-10,
-10,
-10,
-10,
-8,
-8,
-6,
-6,
-6,
-6,
-9,
-9,
-11,
-11,
-11,
-11,
-9,
-9,
-5,
-5,
-6,
-6,
-9,
-9,
-12,
-12,
-8,
-8,
-7,
-7,
-10,
-10,
-8,
-8,
-13,
-13,
-9,
-9,
-14,
-14,
-11,
-11,
-8,
-8,
-11,
-11,
-8,
-8,
-9,
-9,
-15,
-3,
-13,
-13,
-15,
-4,
-6,
-6,
-12,
-12,
-12,
-12,
-14,
-14,
-7,
-7,
-9,
-9,
-11,
-11,
-9,
-9,
-13,
-13,
-5,
-16,
2,
-21,
-10,
-10,
-12,
-12,
-11,
-11,
-7,
-7,
-12,
-12,
-5,
-5,
-8,
-8,
-8,
-8,
-6,
-6,
-7,
-7,
-4,
-15,
-7,
-7,
-11,
-11,
-7,
-7,
-7,
-7,
-5,
-5,
-7,
-7,
-5,
-5,
-4,
-16,
-5,
-5,
-9,
-9,
-4,
-4,
-8,
-8,
-6,
-6,
-9,
-9,
-7,
-7,
-7,
-7,
-7,
-7,
-9,
-9,
-6,
-6,
-5,
-5,
-3,
-3,
0,
0,
-5,
-5,
-6,
9,
-6,
-6,
-2,
-2,
-2,
-2,
-8,
3,
-1,
-1,
0,
0,
-2,
-2,
-5,
-5,
-2,
-2,
0,
0,
-2,
-2,
-4,
-4,
-1,
10,
-3,
-3,
-1,
-1,
1,
1,
1,
1,
-3,
-3,
0,
0,
2,
2,
-2,
12,
0,
0,
-2,
-2,
2,
2,
5,
5,
1,
12,
-1,
-1,
-3,
9,
1,
1,
0,
0,
5,
5,
2,
2,
1,
1,
7,
-7,
7,
7,
7,
-4,
3,
3,
2,
2,
8,
-3,
5,
5,
1,
12,
8,
8,
3,
3,
8,
8,
3,
3,
6,
6,
-2,
18,
4,
4,
5,
5,
5,
5,
7,
7,
4,
4,
6,
6,
2,
13,
6,
6,
4,
4,
8,
8,
7,
7,
12,
1,
6,
6,
9,
9,
5,
5,
4,
4,
5,
5,
6,
6,
3,
3,
10,
10,
9,
9,
7,
7,
10,
10,
13,
1,
6,
6,
5,
5,
9,
9,
8,
8,
8,
8,
7,
7,
6,
6,
9,
9,
6,
6,
9,
9,
6,
6,
2,
14,
9,
9,
9,
9,
8,
8,
8,
8,
7,
7,
6,
6,
19,
-4,
6,
6,
8,
8,
10,
10,
5,
5,
8,
8,
2,
2,
7,
7,
9,
9,
7,
7,
7,
7,
9,
9,
0,
11,
4,
4,
7,
7,
6,
6,
5,
5,
5,
5,
8,
8,
5,
5,
7,
7,
7,
7,
5,
5,
5,
5,
7,
7,
5,
5,
6,
6,
5,
5,
3,
3,
3,
3,
2,
2,
6,
6,
5,
5,
2,
2,
-1,
-1,
1,
1,
4,
4,
4,
-9,
1,
1,
0,
0,
1,
1,
0,
0,
2,
2,
-6,
7,
-4,
8,
-3,
-3,
-3,
-3,
-2,
-2,
2,
2,
-2,
-2,
-1,
-1,
-5,
7,
2,
2,
-1,
-1,
-2,
-2,
-2,
-2,
-1,
-1,
-3,
-3,
-5,
-5,
-1,
-1,
-4,
-4,
-5,
-5,
-1,
-1,
-8,
3,
-9,
5,
-4,
-4,
-6,
-6,
-8,
-8,
-1,
-12,
-4,
-17,
-8,
-8,
-3,
-3,
-8,
-8,
-3,
-3,
-6,
-6,
-5,
-5,
-8,
-8,
-6,
-6,
-7,
-7,
-4,
-4,
-6,
-6,
-11,
-11,
-9,
-9,
-6,
-6,
-11,
-11,
-6,
-6,
-7,
-7,
-11,
-11,
-10,
-10,
-6,
-6,
-8,
-8,
-8,
-8,
-5,
-5,
-10,
-10,
-11,
-11,
-9,
-9,
-9,
-9,
-9,
-9,
-8,
-8,
-10,
-10,
-13,
-13,
-12,
-12,
-9,
-9,
-10,
-10,
-11,
-11,
-12,
-12,
-9,
-9,
-12,
-12,
-6,
-6,
-12,
-12,
-11,
-11,
-12,
-12,
-11,
-11,
-12,
-12,
-15,
-4,
-5,
-5,
-10,
-10,
-8,
-20,
-10,
-10,
-10,
-10,
-11,
-11,
-7,
-7,
-14,
-1,
-9,
-9,
-8,
-8,
-10,
-10,
-11,
-11,
-11,
-11,
-10,
-10,
-8,
-8,
-10,
-10,
-10,
-10,
-9,
-9,
-11,
-11,
-4,
-15,
-8,
-8,
-9,
-9,
-14,
-2,
-5,
-5,
-10,
-10,
-9,
-9,
-9,
-9,
-9,
-9,
-8,
-8,
-12,
-1,
-5,
-5,
-8,
-8,
-9,
-9,
-4,
-4,
-10,
-10,
-2,
-2,
-4,
-4,
-2,
-2,
-1,
-12,
-11,
2,
-7,
-7,
-5,
-5,
-7,
-7,
-5,
-5,
-6,
-6,
-7,
-7,
-2,
-2,
-3,
-3,
-6,
-6,
-4,
-4,
2,
-11,
1,
1,
-4,
-4,
-2,
-2,
0,
0,
0,
0,
-2,
-2,
2,
2,
-3,
-3,
4,
-7,
0,
0,
-2,
-2,
2,
2,
-3,
-3,
-2,
-2,
-1,
-1,
4,
4,
5,
5,
-2,
-2,
0,
0,
3,
3,
0,
0,
4,
4,
6,
6,
6,
6,
2,
2,
3,
3,
7,
7,
8,
8,
5,
5,
5,
5,
1,
1,
1,
1,
22,
-14,
1,
1,
4,
4,
6,
6,
-1,
13,
5,
5,
2,
2,
0,
13,
10,
10,
5,
5,
8,
8,
7,
7,
5,
5,
6,
6,
6,
6,
5,
5,
5,
5,
5,
5,
9,
9,
8,
8,
8,
8,
6,
6,
3,
3,
5,
5,
6,
6,
11,
11,
7,
7,
8,
8,
3,
15,
2,
14,
7,
7,
7,
7,
11,
11,
9,
9,
8,
8,
8,
8,
6,
6,
4,
4,
9,
9,
11,
11,
9,
9,
5,
5,
6,
6,
6,
6,
7,
7,
6,
6,
10,
10,
4,
4,
9,
9,
7,
7,
5,
5,
8,
8,
10,
-1,
10,
10,
7,
7,
12,
1,
8,
8,
8,
8,
7,
7,
11,
11,
4,
4,
10,
10,
6,
6,
9,
-2,
5,
5,
4,
4,
8,
8,
6,
6,
6,
6,
8,
8,
3,
3,
5,
5,
3,
3,
1,
14,
5,
5,
3,
3,
6,
6,
3,
3,
4,
4,
8,
-3,
4,
4,
4,
4,
3,
3,
2,
2,
4,
4,
4,
4,
2,
2,
5,
5,
4,
4,
2,
2,
0,
0,
-3,
8,
1,
1,
15,
-11,
4,
-7,
-1,
-1,
-3,
-3,
1,
1,
-3,
-3,
-3,
8,
-1,
-1,
-3,
-3,
-1,
-1,
-3,
-3,
-2,
-2,
-2,
-2,
-4,
-4,
-4,
-4,
-5,
-5,
-3,
-3,
-2,
-2,
-5,
-5,
-5,
-5,
-5,
-5,
-10,
1,
-5,
-5,
-2,
-2,
-3,
-3,
-6,
-6,
-5,
-5,
-4,
-4,
-8,
-8,
-3,
-3,
-9,
-9,
-5,
-5,
-4,
-4,
-5,
-5,
-7,
-7,
-4,
-4,
-10,
-10,
-7,
-7,
-9,
-9,
-5,
-19,
-10,
-10,
-9,
-9,
-11,
-11,
-11,
-11,
-7,
-7,
-7,
-7,
-8,
-8,
-9,
-9,
-7,
-7,
-9,
-9,
-14,
-3,
-8,
-8,
-12,
-1,
-15,
-4,
-5,
-16,
-9,
-9,
-14,
-2,
-8,
-8,
-8,
-8,
-9,
-9,
-8,
-8,
-14,
-14,
-12,
-12,
-11,
-11,
-6,
-24,
-9,
-9,
-12,
-12,
-14,
-14,
-4,
-17,
-11,
-11,
-13,
-2,
-14,
-3,
-8,
-8,
-13,
-13,
-11,
-11,
-11,
-11,
-7,
-7,
-12,
-12,
-12,
-12,
-13,
-13,
-7,
-7,
-7,
-7,
-8,
-8,
-9,
-9,
-11,
-11,
-8,
-8,
-10,
-10,
-15,
-3,
-6,
-6,
-6,
-6,
-8,
-8,
-8,
-8,
-11,
-11,
-10,
-10,
-8,
-8,
-8,
-8,
-9,
-9,
-7,
-7,
-6,
-6,
-8,
-8,
-5,
-5,
-8,
-8,
-8,
-8,
-8,
-8,
-12,
0,
-9,
-9,
-8,
-8,
-4,
-4,
-9,
-9,
-8,
-8,
-1,
-1,
-6,
-6,
-4,
-4,
-5,
-5,
-3,
-3,
-9,
-9,
-4,
-4,
-10,
3,
-5,
-5,
-4,
-4,
-8,
3,
-4,
-4,
2,
-9,
-2,
-2,
-1,
-1,
-3,
-3,
0,
0,
1,
1,
-2,
-13,
-7,
5,
-3,
-3,
-2,
-2,
-2,
-2,
0,
0,
-7,
6,
-1,
-1,
4,
-8,
-1,
-1,
3,
3,
1,
1,
-3,
-3,
0,
0,
-2,
-2,
-3,
-3,
-1,
-1,
2,
2,
2,
2,
0,
0,
0,
0,
5,
5,
1,
1,
6,
6,
3,
3,
6,
6,
4,
4,
4,
4,
8,
8,
8,
8,
7,
7,
6,
6,
3,
3,
2,
2,
4,
4,
6,
6,
7,
7,
7,
7,
6,
6,
1,
12,
10,
-1,
9,
9,
2,
13,
10,
10,
4,
4,
6,
6,
8,
8,
9,
9,
7,
7,
8,
8,
9,
9,
4,
4,
3,
3,
8,
8,
3,
15,
9,
9,
12,
-1,
8,
8,
3,
14,
5,
5,
6,
6,
8,
8,
7,
7,
8,
8,
5,
5,
4,
4,
7,
7,
4,
4,
10,
10,
9,
9,
5,
17,
9,
9,
6,
6,
7,
7,
7,
7,
5,
5,
10,
10,
2,
14,
5,
5,
6,
6,
9,
9,
8,
8,
5,
5,
4,
4,
6,
6,
7,
7,
7,
7,
9,
9,
2,
13,
6,
6,
8,
8,
6,
6,
10,
-1,
2,
2,
7,
7,
7,
7,
8,
8,
5,
5,
1,
1,
5,
5,
6,
6,
3,
3,
3,
3,
8,
-3,
7,
7,
5,
5,
6,
6,
2,
2,
2,
2,
5,
5,
-1,
-1,
5,
5,
2,
2,
1,
1,
1,
1,
3,
3,
4,
4,
3,
3,
-4,
7,
-4,
7,
-1,
-1,
-1,
-1,
-2,
-2,
-1,
-1,
-1,
-1,
0,
0,
0,
0,
-4,
7,
-3,
-3,
-1,
-1,
-2,
-2,
-5,
-5,
-2,
-2,
-1,
-1,
1,
1,
-4,
-4,
0,
0,
-7,
-7,
-3,
-3,
-5,
-5,
-3,
-3,
0,
0,
-7,
-7,
-6,
-6,
-5,
-5,
-7,
-7,
-7,
-7,
-8,
-8,
-8,
-8,
-8,
-8,
-1,
-13,
-1,
-12,
-4,
-4,
-10,
-10,
-4,
-4,
-8,
-8,
-9,
-9,
-6,
-6,
-8,
-8,
-8,
-8,
-9,
-9,
-7,
-7,
-7,
-7,
-9,
-9,
-9,
-9,
-14,
-2,
-5,
-5,
-10,
-10,
-4,
-15,
-10,
-10,
-8,
-8,
-11,
-11,
-10,
-10,
-11,
-11,
-10,
-10,
-9,
-9,
-9,
-9,
-12,
-12,
-7,
-7,
-12,
-12,
-10,
-10,
-7,
-7,
-8,
-8,
-14,
-14,
-9,
-9,
-9,
-9,
-11,
-11,
-11,
-11,
-11,
-11,
-14,
-14,
-11,
-11,
-6,
-6,
-11,
-11,
-11,
-11,
-7,
-7,
-9,
-9,
-10,
-10,
-11,
-11,
-10,
-10,
-5,
-17,
-13,
0,
-7,
-18,
-10,
-10,
-10,
-10,
-11,
-11,
-10,
-10,
-9,
-20,
-12,
-12,
-9,
-9,
-8,
-8,
-11,
-11,
-13,
-13,
-12,
-12,
-10,
-10,
-10,
-10,
-12,
-12,
-12,
-12,
-9,
-9,
-10,
-10,
-7,
-7,
-8,
-8,
-9,
-9,
-8,
-8,
-8,
-8,
-7,
-7,
-5,
-5,
-8,
-8,
-11,
-11,
-11,
0,
-5,
-5,
-8,
-8,
-2,
-13,
-6,
-6,
-5,
-5,
-7,
-7,
-5,
-5,
-3,
-3,
-7,
-7,
-3,
-3,
-5,
-5,
-3,
-3,
-6,
-6,
-3,
-3,
-2,
-2,
-5,
-5,
-1,
-1,
-7,
-7,
-1,
-1,
-3,
-3,
-4,
7,
-1,
-1,
-2,
-2,
-3,
-3,
-4,
8,
-3,
-3,
-1,
-1,
0,
0,
-1,
-1,
-3,
-3,
0,
0,
-2,
-2,
-3,
-3,
0,
0,
2,
2,
2,
2,
4,
4,
1,
1,
-1,
-1,
-3,
9,
-1,
-1,
2,
2,
4,
4,
1,
1,
1,
1,
4,
4,
7,
7,
0,
0,
1,
1,
0,
11,
3,
3,
6,
6,
8,
8,
6,
6,
0,
13,
1,
1,
4,
4,
6,
6,
4,
4,
9,
9,
5,
5,
8,
8,
4,
4,
2,
2,
7,
7,
8,
8,
8,
8,
9,
9,
7,
-4,
4,
4,
7,
7,
8,
8,
8,
8,
8,
8,
8,
8,
6,
6,
6,
6,
9,
9,
7,
7,
12,
1,
8,
8,
7,
7,
4,
4,
5,
5,
8,
8,
8,
8,
6,
6,
14,
2,
5,
5,
6,
6,
13,
2,
9,
9,
6,
6,
8,
-3,
6,
6,
2,
14,
9,
9,
9,
9,
7,
7,
2,
13,
6,
6,
8,
8,
7,
7,
10,
10,
9,
9,
7,
7,
8,
8,
6,
6,
5,
5,
4,
4,
5,
5,
5,
5,
5,
5,
8,
8,
3,
3,
6,
6,
2,
2,
5,
5,
4,
4,
5,
5,
0,
12,
3,
3,
0,
0,
0,
0,
6,
6,
8,
8,
5,
5,
6,
6,
5,
5,
0,
0,
0,
11,
6,
6,
4,
4,
2,
2,
2,
2,
6,
6,
3,
3,
6,
-5,
5,
-6,
3,
3,
-3,
8,
7,
-5,
0,
0,
4,
-7,
-2,
-2,
-1,
-1,
1,
1,
0,
0,
2,
2,
-3,
-3,
3,
-9,
-1,
-1,
0,
-11,
1,
1,
-2,
-2,
-4,
-4,
-7,
4,
-3,
-3,
-3,
-3,
-7,
-7,
-3,
-3,
-4,
-4,
-8,
-8,
-4,
-4,
-3,
-3,
-12,
5,
-1,
-1,
-6,
-6,
-6,
-6,
-8,
-8,
-4,
-4,
-3,
-3,
-6,
-6,
-6,
-6,
-1,
-12,
-5,
-5,
-6,
-6,
-8,
-8,
4,
-18,
-7,
-7,
-9,
-9,
-9,
-9,
-6,
-6,
-10,
-10,
-9,
-9,
-7,
-7,
-6,
-6,
-12,
-12,
-6,
-6,
-9,
-9,
-12,
-12,
-9,
-9,
-8,
-8,
-14,
-2,
-10,
-10,
-12,
-12,
-7,
-7,
-8,
-8,
-11,
-11,
-12,
-12,
-8,
-8,
-9,
-9,
-12,
-12,
-12,
-12,
-8,
-8,
-7,
-7,
-12,
-12,
-8,
-8,
-7,
-7,
-9,
-9,
-13,
-13,
-8,
-8,
-10,
-10,
-23,
2,
-10,
-10,
-8,
-8,
-10,
-10,
-14,
-14,
-8,
-8,
-11,
-11,
-13,
-13,
-12,
-12,
-9,
-9,
-8,
-8,
-9,
-9,
-10,
1,
-9,
-20,
-15,
2,
-8,
-8,
-12,
-12,
-6,
-6,
-9,
-9,
-12,
-12,
-14,
-2,
-15,
-2,
-10,
-10,
-12,
-12,
-6,
-6,
-11,
3,
-1,
-18,
-9,
-9,
-7,
-7,
-5,
-5,
-8,
-8,
-5,
-5,
-4,
-4,
-10,
-10,
-7,
-7,
-5,
-5,
-1,
-12,
-6,
-6,
-8,
-8,
-8,
-8,
-7,
-7,
-5,
-5,
-6,
-6,
-4,
-4,
-9,
2,
-9,
2,
-2,
-2,
-2,
-2,
-8,
-8,
-1,
-1,
-4,
-4,
-7,
-7,
-4,
-4,
-2,
-2,
-4,
-4,
-3,
-3,
-2,
-2,
-4,
-4,
-3,
-3,
-3,
-3,
-5,
-5,
-2,
-2,
-1,
-1,
1,
1,
0,
0,
3,
3,
2,
2,
1,
1,
-5,
7,
2,
2,
1,
1,
-3,
8,
4,
4,
0,
0,
-1,
-1,
5,
5,
5,
5,
-1,
-1,
2,
2,
7,
-6,
5,
5,
5,
5,
0,
0,
1,
1,
4,
4,
3,
3,
2,
2,
0,
11,
5,
5,
4,
4,
6,
6,
5,
5,
9,
-4,
6,
6,
8,
8,
1,
14,
6,
6,
4,
4,
6,
6,
3,
3,
5,
5,
4,
4,
4,
4,
5,
5,
4,
4,
4,
4,
9,
9,
8,
8,
8,
8,
8,
8,
6,
6,
8,
8,
4,
4,
10,
10,
7,
7,
8,
8,
6,
6,
7,
7,
10,
10,
8,
8,
10,
10,
5,
19,
9,
9,
8,
8,
9,
9,
8,
8,
8,
8,
8,
8,
7,
7,
7,
7,
8,
8,
9,
9,
8,
8,
7,
18,
8,
-6,
4,
4,
8,
8,
7,
7,
8,
8,
5,
18,
8,
8,
11,
11,
8,
8,
5,
5,
6,
6,
3,
3,
18,
-8,
4,
4,
10,
10,
3,
14,
4,
4,
3,
3,
6,
6,
7,
7,
8,
8,
2,
2,
2,
2,
3,
3,
1,
12,
6,
6,
6,
6,
3,
3,
3,
3,
6,
6,
4,
4,
5,
5,
3,
3,
0,
0,
3,
3,
3,
3,
5,
5,
3,
3,
0,
0,
0,
0,
4,
4,
-1,
-1,
1,
1,
1,
1,
3,
3,
1,
1,
-3,
-3,
-4,
-4,
-1,
-1,
-3,
-3,
-2,
-2,
0,
0,
1,
1,
0,
0,
2,
-9,
0,
0,
-1,
-1,
-3,
-3,
-5,
-5,
-2,
-2,
-3,
-3,
-2,
-2,
-4,
-4,
-2,
-2,
-1,
-1,
-7,
-7,
-1,
-1,
-1,
-1,
-3,
-3,
-4,
-4,
-4,
-4,
1,
-12,
-7,
-7,
-5,
-5,
-6,
-6,
-1,
-13,
-5,
-5,
-5,
-5,
-5,
-5,
-6,
-6,
-2,
-15,
0,
-14,
-8,
-8,
-11,
-11,
-3,
-3,
-6,
-6,
-4,
-4,
-8,
-8,
-9,
-9,
-6,
-6,
-12,
-12,
-7,
-7,
-9,
-9,
-11,
-11,
-12,
-12,
-5,
-5,
-13,
-13,
-8,
-8,
-10,
-10,
-12,
-12,
-9,
-9,
-7,
-7,
-10,
-10,
-9,
-9,
-12,
-12,
-14,
-14,
-9,
-9,
-9,
-9,
-12,
-12,
-8,
-8,
-11,
-11,
-13,
-13,
-12,
-12,
-12,
-12,
-12,
-12,
-11,
-11,
-7,
-7,
-11,
-11,
-14,
-14,
-10,
-10,
-8,
-8,
-7,
-7,
-8,
-8,
-13,
-13,
-11,
-11,
-11,
-11,
-5,
-16,
-7,
-7,
-7,
-7,
-12,
-12,
2,
-22,
-4,
-20,
-2,
-21,
-11,
-11,
-10,
-10,
-12,
-12,
-8,
-8,
-7,
-7,
-10,
-10,
-5,
-5,
-12,
-12,
-8,
-8,
-9,
-9,
-20,
3,
-10,
3,
-7,
-7,
-10,
-10,
-4,
-4,
-6,
-6,
-7,
-7,
-8,
-8,
-3,
-14,
-5,
-5,
-5,
-5,
-9,
-9,
-6,
-6,
4,
-18,
-3,
-14,
-10,
2,
-1,
-14,
-7,
-7,
-3,
-3,
-8,
-8,
-6,
-6,
-3,
-3,
-3,
-3,
-6,
-6,
-7,
-7,
-4,
-4,
-2,
-2,
-6,
-6,
0,
0,
-2,
-2,
-4,
-4,
0,
0,
-1,
-1,
-4,
-4,
4,
-8,
1,
1,
-3,
-3,
0,
0,
1,
1,
-1,
-1,
1,
1,
4,
4,
4,
4,
-1,
-1,
5,
5,
1,
1,
0,
0,
1,
1,
3,
3,
2,
2,
2,
2,
1,
1,
4,
4,
1,
1,
-2,
-2,
5,
5,
2,
2,
1,
1,
3,
3,
0,
0,
5,
5,
4,
4,
6,
6,
2,
2,
0,
11,
7,
7,
9,
-2,
5,
5,
5,
5,
5,
5,
7,
7,
9,
9,
9,
9,
9,
9,
6,
6,
5,
5,
5,
5,
2,
13,
7,
7,
8,
8,
7,
7,
6,
6,
9,
9,
6,
6,
7,
7,
9,
9,
2,
15,
4,
4,
9,
9,
7,
7,
6,
6,
7,
7,
7,
7,
9,
9,
6,
6,
10,
10,
5,
5,
11,
11,
11,
11,
8,
8,
8,
8,
7,
7,
5,
5,
5,
5,
8,
8,
10,
10,
7,
7,
9,
9,
2,
13,
5,
5,
7,
7,
12,
12,
7,
-4,
10,
10,
5,
5,
4,
4,
6,
6,
3,
3,
4,
4,
6,
6,
10,
-1,
6,
17,
9,
-4,
-15,
24,
5,
5,
5,
5,
6,
6,
4,
4,
2,
14,
6,
6,
6,
6,
3,
3,
6,
6,
4,
4,
6,
-6,
21,
-12,
6,
6,
6,
6,
0,
11,
5,
5,
5,
5,
-1,
-1,
5,
5,
4,
4,
1,
1,
1,
1,
-1,
-1,
21,
-19,
-5,
11,
1,
1,
4,
4,
0,
0,
0,
0,
0,
0,
2,
2,
-3,
-3,
4,
4,
0,
0,
3,
3,
0,
0,
1,
