4-transistorverstaerker/data/ALL0086/A0086CH2.CSV

Memory Length,4000,
Trigger Level,1.11989e+01,
Source,CH2,
Probe,1.0X,
Vertical Units,V,
Vertical Scale,2.00000e-01,
Vertical Position,0.00000e+00,
Horizontal Units,S,
Horizontal Scale,5.00000e-04,
Horizontal Position,-7.0000000e-04,
Horizontal Mode,Main,
Sampling Period,2.00000e-06,
Firmware,V1.14,
Time, ,
Mode,Fast,
Waveform Data,
18,
18,
18,
19,
19,
21,
7,
15,
15,
20,
20,
11,
34,
16,
31,
16,
16,
22,
22,
22,
22,
20,
20,
19,
19,
5,
33,
18,
18,
18,
18,
18,
18,
14,
30,
18,
18,
16,
16,
18,
18,
17,
17,
16,
16,
17,
17,
13,
30,
19,
19,
16,
16,
15,
15,
14,
14,
15,
15,
15,
15,
14,
14,
14,
14,
15,
15,
12,
12,
14,
14,
13,
13,
11,
11,
13,
26,
4,
23,
4,
16,
10,
10,
11,
11,
9,
9,
9,
9,
7,
7,
8,
8,
7,
7,
5,
5,
9,
9,
8,
8,
5,
5,
5,
5,
5,
5,
4,
4,
5,
-8,
12,
-5,
0,
0,
3,
3,
4,
4,
3,
3,
2,
2,
2,
2,
0,
0,
1,
1,
2,
2,
1,
1,
0,
0,
7,
-15,
3,
-10,
-3,
-3,
-7,
9,
-5,
-5,
-6,
-6,
-6,
-6,
-6,
-6,
-5,
-5,
-7,
-7,
-13,
5,
-9,
-9,
-7,
-7,
-7,
-21,
-16,
-3,
-8,
-8,
-10,
-10,
-8,
-8,
-10,
-10,
-10,
-10,
-5,
-24,
-14,
-2,
-12,
-12,
-9,
-9,
-14,
-14,
-11,
-11,
-11,
-11,
-15,
-15,
-14,
-14,
-14,
-14,
-14,
-14,
-15,
-15,
-15,
-15,
-16,
-16,
-15,
-2,
-21,
-6,
-16,
-16,
-15,
-15,
-19,
-19,
-18,
-18,
-20,
-20,
-17,
-17,
-19,
-19,
-16,
-16,
-16,
-16,
-22,
-10,
-16,
-16,
-18,
-18,
-19,
-19,
-21,
-21,
-20,
-20,
-21,
-21,
-19,
-31,
-21,
-21,
-25,
-25,
-21,
-21,
-19,
-19,
-18,
-18,
-19,
-19,
-19,
-19,
-21,
-21,
-22,
-22,
-20,
-20,
-20,
-20,
-21,
-21,
-21,
-21,
-19,
-37,
-23,
-3,
-26,
-14,
-20,
-20,
-19,
-19,
-18,
-18,
-19,
-19,
-20,
-20,
-33,
-6,
-27,
-5,
-16,
-16,
-18,
-18,
-19,
-19,
-18,
-18,
-17,
-17,
-15,
-15,
-17,
-17,
-16,
-16,
-19,
-7,
-1,
-28,
-16,
-16,
-18,
-7,
-14,
-14,
-15,
-15,
-14,
-14,
-12,
-12,
-15,
-15,
-13,
-13,
-12,
-12,
-12,
-12,
-13,
-13,
-12,
-12,
-13,
-13,
-12,
2,
-9,
-9,
-13,
-13,
-11,
-11,
-8,
-8,
-9,
-9,
-6,
-6,
-8,
-8,
-6,
-6,
-4,
-4,
-7,
-7,
-4,
-4,
-4,
-4,
-4,
-4,
-4,
-4,
-6,
-6,
-5,
-5,
-2,
-17,
-5,
-5,
1,
1,
-2,
-2,
0,
0,
-2,
-2,
0,
0,
1,
1,
1,
1,
1,
1,
4,
4,
1,
1,
3,
3,
4,
4,
4,
4,
-19,
27,
18,
-14,
-1,
-1,
6,
6,
3,
14,
8,
8,
7,
7,
8,
8,
-6,
23,
15,
-2,
2,
20,
3,
14,
10,
10,
10,
10,
13,
13,
13,
13,
9,
9,
9,
20,
9,
27,
12,
12,
12,
12,
14,
14,
13,
13,
14,
14,
13,
13,
13,
13,
15,
15,
16,
16,
17,
17,
15,
15,
16,
16,
20,
20,
3,
32,
20,
20,
18,
18,
16,
16,
17,
17,
16,
16,
18,
18,
21,
21,
17,
17,
20,
9,
22,
22,
20,
20,
18,
18,
19,
19,
19,
19,
19,
19,
23,
23,
19,
19,
5,
32,
13,
33,
22,
22,
20,
20,
18,
18,
17,
17,
17,
17,
19,
19,
17,
17,
18,
18,
19,
19,
15,
15,
18,
18,
18,
18,
3,
33,
33,
2,
29,
4,
21,
21,
22,
10,
16,
16,
18,
18,
22,
10,
19,
19,
38,
-4,
15,
29,
13,
13,
18,
18,
17,
17,
19,
8,
15,
15,
18,
18,
14,
14,
9,
27,
6,
28,
15,
15,
16,
5,
13,
13,
14,
14,
15,
15,
13,
13,
12,
12,
11,
11,
14,
14,
10,
10,
9,
9,
11,
11,
7,
24,
16,
-4,
11,
0,
9,
9,
7,
7,
7,
7,
5,
5,
4,
4,
5,
5,
5,
5,
1,
1,
4,
4,
4,
4,
3,
3,
1,
1,
1,
1,
8,
-6,
1,
1,
-13,
11,
6,
-9,
1,
1,
0,
0,
-2,
-2,
1,
1,
-4,
-4,
-4,
-4,
-1,
-1,
-2,
-2,
-3,
-3,
-6,
-6,
-5,
-5,
-5,
-5,
-18,
8,
-21,
5,
-4,
-4,
-24,
3,
-6,
-6,
-9,
-9,
-11,
-11,
-9,
-9,
-8,
-20,
-28,
2,
-3,
-22,
-12,
-12,
-9,
-9,
-12,
-12,
-13,
-13,
-8,
-8,
-16,
-5,
-12,
-12,
-15,
-1,
-7,
-26,
-10,
-21,
-11,
-11,
-15,
-15,
-16,
-16,
-12,
-12,
-12,
-12,
-19,
-19,
-17,
-17,
-15,
-15,
-16,
-16,
-17,
-17,
-15,
-15,
-6,
-29,
-21,
-8,
-19,
-19,
-26,
-11,
-18,
-18,
-19,
-19,
-20,
-20,
-17,
-17,
-20,
-20,
-18,
-18,
-20,
-20,
-19,
-19,
-20,
-20,
-22,
-22,
-18,
-18,
-19,
-19,
-21,
-21,
-20,
-20,
-21,
-21,
-23,
-7,
-21,
-21,
-20,
-20,
-20,
-20,
-18,
-18,
-21,
-21,
-19,
-19,
-17,
-17,
-20,
-20,
-18,
-18,
-19,
-19,
-22,
-22,
-17,
-17,
-19,
-36,
-28,
-2,
-19,
-19,
-19,
-19,
-24,
-6,
-18,
-18,
-17,
-17,
-16,
-16,
-18,
-18,
-16,
-16,
-30,
-4,
-18,
-6,
-15,
-15,
-15,
-15,
-12,
-12,
-21,
-8,
-14,
-14,
-15,
-15,
-13,
-13,
2,
-25,
-9,
-20,
-15,
-15,
-13,
-13,
-14,
-14,
-11,
-11,
-17,
-6,
-14,
-14,
-10,
-10,
-8,
-8,
-8,
-8,
-9,
-9,
-9,
-9,
6,
-18,
-10,
3,
-12,
-12,
-8,
-8,
-6,
-6,
-7,
-7,
-5,
-5,
-5,
-5,
-4,
-4,
-3,
-3,
0,
0,
-2,
-2,
-2,
-2,
0,
0,
-3,
-3,
-1,
-1,
-2,
-2,
3,
3,
1,
1,
1,
-16,
-2,
9,
1,
1,
0,
0,
5,
5,
2,
2,
3,
3,
4,
4,
3,
3,
5,
5,
4,
4,
11,
-1,
6,
6,
6,
6,
-7,
22,
9,
9,
7,
7,
8,
8,
21,
-5,
8,
8,
12,
12,
-5,
24,
14,
3,
-3,
23,
2,
30,
7,
18,
13,
13,
11,
11,
9,
21,
12,
12,
16,
16,
17,
17,
15,
27,
25,
2,
14,
14,
18,
18,
14,
14,
14,
14,
21,
10,
18,
18,
16,
16,
16,
16,
15,
15,
16,
16,
17,
17,
18,
33,
34,
6,
18,
18,
22,
22,
16,
27,
19,
19,
21,
21,
16,
16,
17,
30,
17,
17,
23,
10,
17,
17,
19,
19,
17,
17,
16,
16,
18,
18,
21,
7,
21,
21,
16,
16,
8,
32,
27,
2,
17,
17,
19,
19,
23,
11,
16,
16,
21,
21,
16,
16,
23,
23,
15,
15,
18,
18,
18,
18,
18,
18,
18,
18,
12,
30,
12,
28,
16,
16,
17,
17,
18,
18,
17,
1,
19,
8,
15,
15,
22,
11,
16,
16,
15,
-4,
-4,
33,
18,
18,
13,
13,
15,
15,
10,
10,
13,
13,
11,
11,
11,
11,
28,
-6,
6,
17,
14,
14,
10,
10,
10,
10,
11,
11,
12,
12,
9,
9,
9,
9,
5,
5,
9,
9,
6,
6,
7,
7,
20,
-6,
10,
-2,
2,
2,
7,
7,
4,
4,
3,
3,
0,
11,
5,
5,
1,
1,
3,
3,
4,
4,
1,
1,
0,
0,
0,
0,
-2,
-2,
1,
1,
-3,
-3,
-1,
-1,
-4,
-4,
-19,
10,
2,
2,
-5,
-5,
-4,
-4,
-6,
-6,
-6,
-6,
-5,
-5,
-8,
-8,
-7,
-7,
-8,
-8,
-9,
-9,
-4,
-4,
-8,
-8,
-22,
5,
-7,
-18,
-9,
-9,
-10,
-10,
-14,
-14,
-11,
-11,
1,
-26,
-19,
-4,
-9,
-9,
-12,
-12,
-13,
-13,
1,
-28,
-14,
-14,
-14,
-14,
-13,
-24,
-15,
-15,
-14,
-14,
-16,
-16,
-19,
1,
-23,
-3,
-21,
0,
-18,
-18,
-17,
-17,
-16,
-16,
-16,
-16,
-17,
-17,
-18,
-18,
-17,
-17,
-19,
-19,
-18,
-18,
-18,
-18,
-20,
-6,
-28,
-6,
-16,
-16,
-18,
-18,
-16,
-16,
-23,
-23,
-19,
-19,
-19,
-19,
-18,
-18,
-18,
-18,
-21,
-21,
-24,
-13,
-20,
-20,
-21,
-21,
-18,
-18,
-19,
-19,
-17,
-17,
-20,
-20,
-21,
-21,
-19,
-30,
-25,
-12,
-18,
-18,
-22,
-22,
-18,
-18,
-21,
-21,
-18,
-18,
-18,
-18,
-15,
-15,
-21,
-21,
-19,
-19,
-18,
-18,
-22,
-8,
-14,
-14,
-15,
-32,
-24,
-7,
-19,
-19,
-17,
-17,
-17,
-17,
-18,
-6,
-14,
-14,
-16,
-16,
-19,
-8,
-15,
-15,
-15,
-15,
-34,
-1,
-26,
0,
-9,
-20,
-14,
-14,
-17,
-4,
-14,
-14,
-12,
0,
-15,
4,
-15,
-15,
5,
-24,
-20,
-2,
-7,
-7,
-9,
-9,
-8,
-8,
-10,
-10,
-6,
-6,
-7,
-7,
-9,
-9,
-6,
-6,
-8,
-8,
-5,
-5,
-7,
8,
-8,
-8,
-3,
-3,
-6,
-6,
-3,
-3,
-4,
-4,
-4,
-4,
-2,
-2,
4,
-7,
2,
2,
3,
3,
2,
2,
1,
1,
2,
2,
-1,
-1,
2,
2,
1,
1,
4,
4,
14,
-11,
4,
4,
6,
6,
7,
7,
5,
5,
6,
6,
5,
5,
7,
7,
6,
6,
8,
8,
8,
8,
9,
9,
9,
9,
10,
10,
-3,
22,
16,
3,
12,
12,
12,
12,
9,
9,
10,
10,
15,
15,
14,
14,
17,
17,
15,
15,
16,
16,
14,
14,
17,
-1,
12,
28,
21,
10,
13,
25,
19,
19,
6,
30,
12,
25,
18,
18,
17,
17,
15,
15,
6,
33,
13,
13,
19,
19,
18,
18,
16,
16,
17,
17,
17,
17,
17,
17,
19,
19,
17,
17,
15,
32,
18,
18,
17,
17,
17,
17,
17,
17,
18,
18,
19,
19,
21,
21,
18,
18,
21,
21,
18,
18,
19,
19,
19,
19,
21,
21,
21,
21,
15,
15,
21,
21,
28,
3,
17,
17,
18,
18,
18,
18,
17,
17,
19,
19,
19,
19,
16,
16,
15,
15,
18,
18,
17,
17,
20,
20,
16,
16,
19,
19,
16,
16,
3,
28,
18,
18,
19,
19,
14,
14,
19,
19,
14,
14,
13,
13,
14,
14,
16,
3,
14,
14,
12,
12,
15,
15,
9,
9,
-2,
22,
18,
1,
5,
19,
-1,
23,
17,
2,
10,
10,
11,
11,
7,
7,
6,
6,
6,
6,
5,
20,
2,
2,
4,
4,
6,
6,
4,
4,
5,
5,
7,
7,
5,
5,
4,
17,
17,
-10,
3,
3,
3,
3,
1,
1,
-1,
-1,
1,
1,
1,
1,
0,
0,
-2,
-2,
0,
0,
-3,
-3,
0,
0,
-2,
-2,
-4,
-4,
-3,
-3,
-3,
-3,
-18,
5,
-7,
-18,
-6,
-6,
-6,
-6,
-9,
-9,
-6,
-6,
-6,
-6,
-5,
-5,
-10,
-10,
-9,
-9,
-8,
-8,
-9,
-9,
-8,
-8,
-11,
-11,
-10,
-10,
-9,
-9,
-10,
-23,
-8,
-8,
-11,
-23,
-8,
-8,
-13,
-13,
-15,
-15,
-15,
-15,
-14,
-14,
-14,
-14,
-18,
-18,
-14,
-14,
-15,
-15,
-15,
-15,
-18,
-18,
-16,
-30,
-3,
-29,
-29,
-4,
-20,
-20,
-18,
-18,
-20,
-20,
-19,
-19,
-18,
-18,
-19,
-19,
-16,
-16,
-7,
-32,
-23,
-11,
-14,
-14,
-15,
-15,
-18,
-18,
-19,
-19,
-20,
-20,
-19,
-6,
-13,
-34,
-17,
-17,
-20,
-20,
-18,
-18,
-19,
-19,
-19,
-19,
-21,
-21,
-19,
-19,
-18,
-18,
-20,
-20,
-13,
-27,
-22,
-22,
-19,
-19,
-20,
-20,
-18,
-18,
-16,
-16,
-9,
-31,
-17,
-17,
-18,
-18,
-18,
-18,
-19,
-19,
-17,
-17,
-16,
-16,
-17,
-17,
-16,
-16,
-17,
-17,
-16,
-16,
-15,
-15,
-19,
-5,
-29,
-4,
-13,
-13,
-18,
-18,
-15,
-28,
-17,
-6,
-12,
-12,
-15,
-15,
-14,
-14,
-14,
-14,
-13,
-13,
-13,
-13,
-13,
-13,
-13,
-13,
-6,
-19,
-13,
-13,
-13,
-13,
-14,
-14,
-10,
-10,
-8,
-24,
-9,
2,
-3,
-16,
-8,
-8,
-9,
-9,
-6,
-6,
-7,
-7,
-7,
-7,
-6,
-6,
-6,
-6,
-6,
7,
-12,
11,
-3,
-3,
-2,
-2,
-4,
-4,
-1,
-1,
-4,
13,
-12,
14,
-3,
-3,
-2,
-2,
-1,
-1,
-1,
-1,
-1,
-1,
1,
1,
-1,
-1,
-1,
-1,
3,
3,
-4,
9,
6,
6,
4,
4,
5,
5,
4,
4,
9,
-2,
-8,
17,
8,
8,
9,
9,
8,
8,
6,
6,
7,
7,
7,
7,
8,
8,
9,
9,
13,
13,
9,
9,
10,
10,
9,
9,
11,
11,
13,
13,
14,
14,
28,
-4,
17,
6,
12,
12,
16,
16,
15,
15,
13,
13,
11,
11,
13,
13,
15,
15,
16,
16,
15,
15,
15,
15,
17,
17,
18,
18,
17,
6,
18,
7,
7,
32,
14,
27,
19,
19,
19,
19,
19,
19,
19,
19,
17,
17,
18,
18,
22,
22,
19,
19,
21,
21,
16,
35,
11,
27,
15,
15,
18,
18,
19,
19,
32,
6,
36,
3,
25,
9,
17,
17,
19,
19,
21,
21,
19,
19,
18,
18,
17,
17,
18,
29,
17,
17,
16,
16,
16,
16,
19,
19,
18,
18,
17,
17,
18,
4,
15,
15,
18,
18,
18,
18,
18,
18,
17,
17,
19,
19,
16,
16,
17,
17,
17,
17,
14,
14,
16,
16,
14,
14,
16,
16,
15,
15,
10,
10,
-6,
27,
12,
25,
13,
13,
18,
6,
12,
12,
12,
12,
7,
7,
12,
12,
10,
10,
10,
10,
16,
16,
12,
12,
11,
11,
14,
1,
2,
18,
7,
7,
1,
12,
-5,
22,
8,
8,
7,
7,
4,
4,
6,
6,
6,
6,
3,
3,
5,
5,
4,
-10,
-3,
13,
5,
5,
-3,
16,
7,
-13,
-5,
7,
-2,
17,
13,
-14,
17,
-12,
-1,
11,
-6,
5,
-2,
-2,
1,
1,
-2,
-2,
-4,
-4,
-5,
-5,
2,
-14,
-3,
-3,
-4,
-4,
-4,
-4,
-7,
-7,
-6,
-6,
-6,
-6,
-7,
-7,
-7,
-22,
-9,
-9,
-9,
-9,
-9,
-9,
-10,
-10,
-11,
-11,
-10,
-10,
-11,
-11,
-14,
-14,
-13,
-13,
-13,
-13,
-12,
-12,
-16,
-16,
-17,
-17,
-15,
-15,
-26,
-3,
-12,
-12,
-14,
-14,
-16,
-16,
-15,
-15,
-16,
-16,
-18,
-18,
-17,
-17,
-15,
-15,
-14,
-14,
-17,
-17,
-15,
-15,
-18,
-18,
-17,
-17,
-20,
-20,
-20,
-20,
-19,
-19,
-29,
-4,
-18,
-18,
-18,
-18,
-19,
-19,
-18,
-18,
-19,
-19,
-20,
-20,
-19,
-19,
-19,
-19,
-17,
-17,
-17,
-17,
-21,
-21,
-21,
-21,
-32,
-4,
-18,
-18,
-4,
-32,
-20,
-35,
-6,
-32,
-8,
-31,
-24,
-24,
-21,
-21,
-18,
-18,
-19,
-19,
-20,
-20,
-23,
-12,
-19,
-19,
-18,
-18,
-18,
-18,
-18,
-18,
-17,
-17,
-14,
-14,
-17,
-17,
-16,
-31,
-10,
-26,
-20,
-20,
-18,
-18,
-16,
-16,
-16,
-16,
-13,
-13,
-17,
-17,
-15,
-15,
-18,
-18,
-19,
-19,
-17,
-17,
-17,
-17,
-15,
-15,
-13,
-13,
-17,
-1,
-16,
-4,
-15,
-15,
-11,
-11,
-13,
-13,
-11,
-11,
-10,
-10,
-15,
-3,
-9,
-9,
-7,
-7,
-10,
-10,
-6,
-6,
-6,
-6,
-7,
-7,
-7,
-7,
-9,
-9,
-7,
-7,
7,
-17,
-10,
2,
-6,
-6,
-5,
-5,
-4,
-4,
-7,
-7,
-4,
-4,
-3,
-3,
-3,
-3,
-3,
-3,
-4,
-4,
-3,
-3,
-1,
-1,
-1,
-1,
15,
-12,
-6,
22,
2,
2,
2,
2,
18,
-9,
6,
-8,
3,
3,
3,
3,
4,
4,
3,
15,
6,
6,
7,
7,
5,
5,
7,
7,
6,
6,
6,
6,
14,
2,
11,
11,
11,
-5,
15,
2,
11,
11,
9,
9,
9,
9,
9,
9,
11,
11,
12,
12,
11,
11,
12,
12,
14,
14,
12,
12,
12,
12,
15,
15,
13,
13,
28,
1,
23,
8,
16,
16,
16,
16,
16,
16,
16,
16,
17,
17,
16,
16,
18,
18,
18,
18,
15,
15,
19,
19,
18,
18,
17,
17,
18,
18,
17,
17,
19,
19,
18,
30,
15,
33,
17,
17,
18,
18,
16,
16,
19,
19,
19,
19,
19,
19,
21,
21,
20,
20,
19,
19,
18,
18,
23,
23,
18,
18,
17,
17,
36,
6,
24,
10,
19,
19,
35,
7,
10,
34,
12,
27,
25,
13,
20,
20,
18,
18,
16,
16,
18,
18,
19,
19,
17,
17,
18,
18,
14,
14,
20,
20,
18,
18,
27,
0,
14,
14,
19,
19,
19,
19,
18,
18,
15,
15,
17,
17,
13,
13,
14,
14,
17,
17,
13,
13,
13,
13,
13,
13,
13,
13,
15,
1,
15,
-1,
11,
11,
11,
11,
10,
10,
11,
11,
9,
9,
9,
9,
6,
6,
10,
-1,
4,
17,
5,
5,
8,
8,
7,
7,
7,
7,
8,
8,
7,
7,
5,
5,
17,
-8,
7,
7,
3,
3,
3,
3,
5,
5,
3,
3,
2,
2,
3,
3,
0,
0,
1,
1,
0,
0,
1,
1,
-3,
-3,
-1,
-1,
-3,
14,
-15,
9,
3,
-16,
9,
-20,
-7,
-7,
-17,
8,
-11,
5,
-5,
-5,
-6,
-6,
-6,
-6,
-5,
-5,
-7,
-7,
-10,
-10,
-8,
-8,
-9,
-9,
-8,
-8,
-12,
-12,
-11,
-11,
-10,
-25,
-10,
-10,
-10,
-10,
-10,
-10,
-13,
-13,
-12,
-12,
-12,
-12,
-14,
-14,
-15,
-15,
-15,
-15,
-12,
-12,
-14,
-14,
-14,
-14,
-15,
-15,
-14,
-28,
-15,
-26,
-21,
-21,
-17,
-17,
-17,
-17,
-17,
-17,
-16,
-16,
-19,
-19,
-19,
-19,
-21,
-10,
-19,
-19,
-16,
-16,
-19,
-19,
-18,
-18,
-17,
-17,
-19,
-19,
-18,
-18,
-18,
-18,
-17,
-17,
-11,
-30,
-20,
-20,
-19,
-19,
-18,
-18,
-21,
-21,
-21,
-21,
-21,
-21,
-18,
-18,
-20,
-20,
-18,
-18,
-20,
-20,
-21,
-21,
-19,
-19,
-20,
-20,
-2,
-32,
-15,
-26,
-19,
-19,
-31,
-3,
-16,
-29,
-23,
-5,
-24,
-13,
-19,
-19,
-21,
-21,
-18,
-18,
-18,
-18,
-18,
-18,
-17,
-17,
-17,
-17,
-16,
-16,
-19,
-19,
-18,
-18,
-16,
-27,
-8,
-30,
-17,
-17,
-15,
-15,
-16,
-16,
-15,
-15,
-14,
-14,
-15,
-15,
-13,
-13,
-15,
-15,
-15,
-15,
-14,
-14,
-13,
-13,
-12,
-12,
-10,
-23,
-19,
-1,
-14,
0,
-28,
7,
-9,
-9,
-9,
-9,
-7,
-7,
-11,
-11,
-8,
-8,
-3,
-15,
-4,
-4,
-7,
-7,
-6,
-6,
-6,
-6,
-7,
5,
14,
-20,
1,
-16,
-5,
-5,
-5,
10,
-10,
8,
-2,
-2,
-3,
-3,
-2,
-2,
-4,
-4,
-1,
-1,
-1,
-1,
3,
3,
15,
-11,
-11,
27,
-2,
-2,
-1,
-1,
2,
2,
18,
-9,
17,
-9,
-1,
11,
3,
3,
5,
5,
-6,
22,
0,
15,
4,
19,
9,
9,
9,
-3,
11,
11,
7,
7,
10,
10,
10,
10,
10,
10,
10,
10,
10,
10,
10,
10,
11,
11,
22,
-4,
15,
15,
13,
13,
10,
10,
12,
12,
14,
14,
15,
15,
15,
15,
14,
14,
17,
17,
13,
13,
16,
16,
16,
16,
26,
3,
12,
27,
21,
21,
17,
17,
16,
16,
16,
16,
17,
17,
20,
20,
19,
19,
24,
11,
17,
17,
19,
19,
20,
20,
17,
17,
22,
22,
18,
18,
20,
20,
21,
21,
18,
32,
18,
33,
21,
21,
21,
21,
19,
19,
5,
37,
17,
17,
15,
15,
17,
17,
23,
23,
18,
18,
19,
19,
19,
19,
19,
19,
6,
35,
22,
6,
15,
15,
18,
18,
-5,
47,
26,
7,
15,
15,
13,
36,
10,
30,
23,
12,
13,
13,
18,
18,
17,
17,
16,
16,
16,
16,
15,
15,
14,
14,
-5,
38,
25,
-1,
0,
25,
9,
21,
16,
16,
14,
14,
14,
14,
12,
12,
12,
12,
11,
11,
12,
12,
12,
12,
10,
10,
10,
10,
10,
10,
7,
20,
11,
11,
11,
11,
9,
9,
8,
8,
7,
7,
6,
6,
7,
7,
7,
-4,
0,
12,
5,
5,
5,
5,
5,
5,
4,
4,
4,
4,
4,
4,
5,
5,
2,
2,
2,
2,
-4,
12,
-29,
29,
38,
-30,
-3,
-3,
0,
0,
1,
1,
-2,
-2,
-4,
-4,
-5,
-5,
-3,
-3,
-4,
-4,
-4,
-4,
-3,
-3,
-40,
23,
46,
-40,
-20,
10,
-3,
-3,
-4,
-4,
-7,
-7,
-9,
-9,
-9,
-9,
8,
-29,
-2,
-18,
-11,
-11,
-10,
-10,
-12,
-12,
-42,
33,
-42,
26,
-15,
-4,
-13,
-13,
-15,
-15,
-14,
-14,
0,
-38,
-11,
-25,
-16,
-16,
-16,
-16,
-15,
-15,
-15,
-15,
-15,
-15,
-16,
-16,
-16,
-16,
-15,
-15,
-16,
-16,
-14,
-14,
-17,
-17,
-30,
-7,
-19,
-19,
-21,
-21,
-17,
-17,
-18,
-18,
-22,
-22,
-18,
-18,
-18,
-18,
-18,
-18,
-19,
-19,
-20,
-20,
-21,
-21,
-17,
-17,
-18,
-18,
-20,
-20,
-17,
-17,
-18,
-18,
-21,
-21,
-19,
-19,
-19,
-19,
-18,
-18,
-20,
-20,
-42,
7,
-35,
-9,
-19,
-19,
-19,
-19,
-22,
-22,
-24,
-24,
-20,
-20,
-17,
-17,
-18,
-18,
-19,
-19,
-6,
-30,
-23,
-23,
-16,
-16,
-44,
15,
-1,
-38,
-23,
-11,
-17,
-17,
-17,
-17,
-10,
-24,
-11,
-29,
-11,
-22,
-17,
-17,
-16,
-16,
-16,
-16,
-16,
-16,
-14,
-14,
-37,
17,
-6,
-33,
-4,
-33,
-16,
-5,
-13,
-29,
-13,
-13,
-16,
-16,
-14,
-14,
-13,
-13,
-13,
-13,
-11,
-11,
-12,
-12,
-11,
-11,
-10,
-10,
-9,
-9,
-10,
-22,
-1,
-21,
-7,
-7,
-8,
-8,
-6,
-6,
-6,
-6,
-5,
-5,
-7,
-7,
-7,
-7,
-10,
-10,
0,
-12,
-1,
-1,
-4,
-4,
-2,
-2,
-38,
46,
-18,
8,
-2,
-2,
-6,
-6,
-3,
12,
-3,
-3,
0,
0,
-1,
-1,
0,
0,
1,
1,
2,
2,
1,
1,
37,
-33,
58,
-36,
11,
-3,
6,
6,
8,
8,
5,
5,
21,
-3,
17,
-6,
5,
5,
7,
7,
6,
6,
7,
7,
6,
6,
-33,
68,
-7,
21,
3,
18,
-4,
24,
23,
-3,
7,
7,
11,
11,
10,
10,
11,
11,
11,
11,
11,
11,
16,
0,
4,
27,
13,
13,
14,
14,
15,
-1,
9,
21,
17,
17,
16,
16,
16,
16,
16,
16,
17,
17,
19,
19,
16,
16,
17,
17,
4,
27,
25,
6,
17,
17,
15,
15,
17,
17,
20,
20,
18,
18,
18,
18,
17,
17,
18,
18,
18,
18,
13,
25,
19,
19,
21,
21,
19,
19,
20,
20,
24,
24,
20,
20,
33,
6,
17,
29,
20,
20,
19,
19,
19,
19,
19,
19,
18,
18,
18,
18,
17,
17,
18,
18,
17,
17,
19,
19,
16,
16,
19,
19,
18,
18,
35,
3,
23,
23,
-5,
39,
-4,
49,
20,
20,
20,
7,
16,
16,
17,
17,
19,
19,
15,
15,
21,
5,
14,
14,
12,
12,
15,
15,
16,
16,
-12,
48,
26,
-5,
-5,
27,
11,
11,
16,
16,
12,
12,
11,
11,
22,
-4,
8,
8,
11,
11,
13,
13,
11,
11,
11,
11,
-15,
42,
39,
-10,
1,
18,
3,
14,
-7,
17,
7,
7,
9,
9,
8,
8,
5,
5,
2,
2,
5,
5,
2,
2,
3,
3,
-23,
39,
6,
-19,
0,
0,
-2,
-2,
-1,
-1,
3,
3,
4,
4,
-1,
-1,
1,
12,
-4,
12,
0,
0,
-1,
-1,
-1,
-1,
-2,
-2,
-5,
-5,
-5,
-5,
-7,
-7,
-3,
-3,
-8,
-8,
-7,
-7,
25,
-41,
42,
-47,
0,
-14,
12,
-22,
-17,
1,
-9,
-9,
-10,
-10,
-14,
-2,
-7,
-7,
-11,
-11,
-7,
-7,
-11,
-11,
20,
-47,
-45,
41,
-21,
9,
-15,
-15,
-14,
-14,
-15,
-15,
-14,
-14,
-12,
-12,
-16,
-16,
-9,
-30,
-14,
-25,
-14,
-14,
-13,
-13,
34,
-52,
-44,
2,
-14,
-35,
-12,
-28,
-17,
-17,
-18,
-18,
-20,
-20,
-19,
-19,
-19,
-19,
-16,
-16,
-30,
-6,
-19,
-31,
-17,
-17,
-20,
-20,
-19,
-19,
-17,
-17,
-20,
-20,
-20,
-20,
-18,
-18,
-20,
-20,
-19,
-19,
-18,
-18,
-20,
-20,
-19,
-19,
-20,
-20,
-19,
-19,
-17,
-17,
-19,
-19,
-18,
-6,
-16,
-29,
-20,
-20,
-20,
-20,
-16,
-16,
-18,
-18,
-20,
-20,
-19,
-19,
-17,
-17,
-19,
-19,
-18,
-18,
-18,
-18,
-19,
-19,
-19,
-19,
-4,
-29,
-26,
-5,
-13,
-26,
-15,
-15,
-18,
-18,
-15,
-15,
-17,
-17,
-16,
-16,
-16,
-16,
-14,
-14,
-17,
-17,
-16,
0,
-19,
-3,
-14,
-14,
-16,
-16,
-15,
-15,
-11,
-11,
-11,
-11,
-28,
1,
-14,
-2,
-11,
-11,
-12,
-12,
-10,
-10,
-10,
-10,
-10,
-10,
2,
-24,
0,
-17,
-8,
-8,
-5,
-5,
-9,
-9,
-8,
-8,
-4,
-4,
4,
-20,
-9,
6,
-8,
-8,
-3,
-3,
-5,
-5,
-5,
-5,
-2,
-2,
-5,
-5,
-3,
-3,
-3,
-3,
-5,
-5,
-2,
-2,
0,
0,
0,
0,
0,
0,
2,
2,
-2,
10,
2,
2,
5,
-7,
5,
5,
4,
4,
3,
14,
23,
-15,
4,
4,
9,
-2,
7,
7,
7,
7,
6,
6,
7,
7,
6,
6,
6,
6,
8,
8,
-4,
25,
1,
26,
0,
26,
39,
-22,
-11,
41,
-6,
20,
13,
13,
14,
14,
13,
13,
11,
11,
16,
16,
15,
15,
28,
0,
17,
6,
16,
16,
32,
-10,
-12,
36,
8,
24,
-3,
32,
11,
24,
18,
18,
14,
14,
16,
16,
18,
18,
19,
19,
19,
19,
16,
16,
1,
29,
1,
36,
12,
34,
17,
17,
18,
18,
16,
16,
6,
30,
16,
16,
18,
18,
19,
19,
17,
17,
19,
19,
18,
18,
19,
19,
19,
