5-grundlagen-opAmps/data/ALL0036/A0036CH2.CSV

Memory Length,4000,
Trigger Level,0.00000e+00,
Source,CH2,
Probe,1.0X,
Vertical Units,V,
Vertical Scale,5.00000e-02,
Vertical Position,0.00000e+00,
Horizontal Units,S,
Horizontal Scale,1.00000e-06,
Horizontal Position,1.0000000e-06,
Horizontal Mode,Main,
Sampling Period,4.00000e-09,
Firmware,V1.14,
Time, ,
Mode,Fast,
Waveform Data,
49,
49,
43,
46,
49,
40,
51,
43,
43,
51,
42,
47,
50,
44,
49,
46,
46,
48,
48,
44,
49,
48,
47,
50,
47,
48,
53,
44,
51,
48,
45,
51,
46,
48,
50,
46,
50,
45,
49,
46,
47,
49,
46,
49,
47,
45,
51,
45,
48,
48,
45,
47,
46,
45,
48,
46,
47,
46,
46,
44,
48,
44,
45,
47,
42,
45,
47,
40,
46,
43,
43,
46,
41,
43,
44,
41,
44,
41,
42,
42,
40,
42,
40,
41,
42,
39,
42,
39,
40,
41,
38,
40,
40,
36,
39,
38,
36,
38,
38,
33,
38,
35,
33,
39,
31,
33,
38,
28,
36,
32,
28,
37,
29,
30,
34,
26,
32,
30,
27,
31,
29,
27,
28,
28,
26,
28,
27,
25,
29,
22,
25,
27,
19,
25,
22,
22,
25,
20,
24,
19,
21,
21,
17,
22,
16,
18,
20,
13,
19,
14,
15,
17,
12,
14,
13,
12,
13,
11,
11,
10,
11,
8,
10,
9,
6,
10,
6,
7,
9,
1,
7,
4,
2,
6,
1,
3,
3,
0,
3,
-1,
1,
0,
-3,
1,
-4,
-2,
-1,
-6,
-1,
-5,
-6,
-4,
-7,
-9,
-4,
-8,
-6,
-5,
-10,
-9,
-9,
-15,
-8,
-11,
-14,
-6,
-15,
-16,
-10,
-20,
-13,
-16,
-20,
-13,
-19,
-19,
-14,
-23,
-18,
-19,
-22,
-19,
-19,
-22,
-21,
-22,
-23,
-22,
-22,
-24,
-21,
-25,
-25,
-24,
-29,
-25,
-27,
-27,
-26,
-31,
-26,
-32,
-30,
-29,
-34,
-27,
-32,
-34,
-29,
-37,
-32,
-34,
-37,
-31,
-36,
-35,
-35,
-37,
-35,
-36,
-37,
-38,
-36,
-38,
-39,
-36,
-41,
-38,
-38,
-41,
-37,
-43,
-41,
-41,
-44,
-40,
-44,
-41,
-43,
-45,
-40,
-47,
-43,
-45,
-47,
-41,
-48,
-45,
-43,
-50,
-44,
-48,
-49,
-45,
-49,
-48,
-46,
-48,
-50,
-47,
-50,
-50,
-44,
-53,
-47,
-47,
-55,
-45,
-52,
-52,
-46,
-55,
-49,
-50,
-56,
-48,
-53,
-53,
-48,
-53,
-52,
-50,
-54,
-52,
-51,
-53,
-51,
-51,
-53,
-51,
-52,
-53,
-51,
-52,
-52,
-52,
-53,
-52,
-53,
-52,
-51,
-54,
-50,
-54,
-54,
-50,
-56,
-51,
-53,
-55,
-49,
-56,
-53,
-50,
-57,
-51,
-52,
-53,
-50,
-54,
-52,
-52,
-52,
-52,
-52,
-52,
-53,
-49,
-53,
-51,
-50,
-54,
-49,
-50,
-52,
-49,
-52,
-48,
-50,
-49,
-49,
-51,
-47,
-50,
-48,
-47,
-52,
-44,
-50,
-49,
-44,
-52,
-45,
-46,
-50,
-44,
-47,
-47,
-45,
-46,
-46,
-44,
-45,
-46,
-40,
-46,
-43,
-39,
-48,
-38,
-42,
-46,
-36,
-45,
-42,
-38,
-44,
-37,
-40,
-40,
-37,
-40,
-38,
-38,
-37,
-36,
-37,
-35,
-36,
-34,
-34,
-35,
-34,
-33,
-31,
-33,
-30,
-31,
-32,
-28,
-32,
-29,
-28,
-31,
-24,
-30,
-29,
-24,
-29,
-25,
-25,
-28,
-22,
-25,
-25,
-21,
-25,
-22,
-21,
-23,
-20,
-20,
-21,
-20,
-18,
-20,
-17,
-18,
-18,
-14,
-15,
-17,
-13,
-17,
-13,
-14,
-14,
-12,
-12,
-11,
-11,
-11,
-8,
-12,
-6,
-11,
-9,
-6,
-11,
-4,
-6,
-9,
0,
-8,
-4,
-2,
-7,
-1,
-2,
-5,
2,
-2,
-1,
3,
2,
-1,
5,
0,
1,
6,
-1,
6,
8,
1,
10,
3,
4,
9,
3,
11,
8,
7,
13,
7,
12,
9,
10,
13,
10,
15,
14,
14,
16,
13,
15,
15,
17,
17,
19,
19,
17,
22,
17,
20,
24,
17,
25,
20,
19,
25,
19,
24,
25,
20,
27,
23,
22,
26,
24,
26,
28,
27,
28,
29,
29,
28,
32,
28,
31,
32,
30,
34,
33,
31,
34,
32,
34,
33,
34,
35,
35,
35,
34,
37,
37,
35,
40,
35,
37,
40,
34,
40,
39,
35,
43,
37,
38,
42,
37,
40,
43,
39,
43,
42,
41,
43,
43,
40,
45,
43,
42,
46,
41,
43,
46,
41,
48,
44,
43,
47,
42,
47,
46,
43,
49,
43,
48,
46,
44,
49,
44,
47,
49,
44,
48,
46,
47,
48,
47,
46,
48,
48,
46,
50,
48,
46,
53,
42,
51,
48,
44,
53,
46,
47,
52,
44,
51,
47,
46,
50,
47,
47,
49,
48,
48,
47,
49,
45,
50,
47,
47,
49,
45,
48,
48,
45,
50,
46,
47,
45,
47,
46,
46,
49,
44,
45,
47,
42,
49,
43,
44,
48,
41,
44,
45,
40,
46,
42,
41,
44,
42,
42,
44,
41,
42,
43,
40,
41,
43,
39,
43,
41,
39,
41,
37,
39,
41,
36,
40,
36,
36,
39,
35,
38,
37,
35,
39,
32,
35,
35,
33,
36,
32,
31,
36,
29,
33,
32,
29,
33,
32,
28,
31,
30,
28,
32,
28,
25,
33,
23,
28,
29,
20,
29,
23,
22,
29,
18,
25,
23,
19,
24,
20,
20,
20,
19,
20,
18,
20,
16,
19,
18,
15,
19,
14,
15,
17,
12,
15,
12,
11,
12,
11,
12,
9,
13,
9,
8,
12,
4,
11,
7,
3,
11,
2,
5,
7,
0,
6,
2,
1,
4,
0,
1,
1,
-2,
0,
0,
-2,
-2,
0,
-4,
-2,
-3,
-5,
-3,
-6,
-5,
-5,
-9,
-3,
-7,
-8,
-8,
-13,
-9,
-12,
-13,
-8,
-14,
-9,
-12,
-17,
-13,
-17,
-17,
-11,
-19,
-16,
-15,
-20,
-18,
-17,
-21,
-16,
-18,
-20,
-17,
-21,
-22,
-19,
-25,
-23,
-20,
-27,
-20,
-24,
-29,
-22,
-29,
-27,
-25,
-29,
-26,
-29,
-29,
-29,
-31,
-30,
-31,
-29,
-31,
-33,
-31,
-36,
-32,
-34,
-36,
-32,
-36,
-35,
-36,
-37,
-36,
-38,
-36,
-38,
-36,
-37,
-40,
-36,
-43,
-39,
-38,
-46,
-37,
-42,
-43,
-38,
-45,
-40,
-43,
-45,
-41,
-45,
-43,
-45,
-44,
-44,
-46,
-44,
-47,
-44,
-46,
-47,
-45,
-48,
-46,
-48,
-48,
-46,
-51,
-46,
-49,
-48,
-45,
-53,
-46,
-50,
-52,
-45,
-55,
-50,
-48,
-55,
-47,
-51,
-53,
-49,
-54,
-52,
-50,
-54,
-52,
-49,
-54,
-50,
-50,
-56,
-48,
-53,
-55,
-48,
-55,
-53,
-50,
-57,
-50,
-52,
-55,
-49,
-54,
-54,
-51,
-54,
-52,
-53,
-53,
-51,
-52,
-52,
-55,
-51,
-52,
-54,
-51,
-54,
-52,
-51,
-53,
-53,
-53,
-52,
-52,
-52,
-52,
-52,
-51,
-53,
-50,
-51,
-53,
-49,
-53,
-52,
-48,
-56,
-49,
-51,
-53,
-47,
-53,
-50,
-48,
-52,
-47,
-50,
-48,
-48,
-50,
-47,
-49,
-47,
-48,
-48,
-46,
-48,
-46,
-47,
-46,
-45,
-46,
-45,
-47,
-43,
-45,
-46,
-41,
-48,
-40,
-42,
-47,
-37,
-46,
-43,
-40,
-47,
-38,
-41,
-44,
-37,
-42,
-41,
-37,
-40,
-40,
-36,
-38,
-38,
-33,
-39,
-35,
-34,
-39,
-30,
-35,
-35,
-29,
-37,
-30,
-33,
-35,
-27,
-33,
-30,
-29,
-32,
-28,
-30,
-27,
-27,
-28,
-24,
-28,
-26,
-25,
-26,
-24,
-25,
-24,
-23,
-23,
-23,
-22,
-21,
-22,
-20,
-21,
-20,
-18,
-21,
-18,
-16,
-20,
-14,
-17,
-18,
-13,
-18,
-14,
-12,
-17,
-11,
-14,
-11,
-11,
-13,
-10,
-11,
-9,
-8,
-10,
-6,
-9,
-7,
-6,
-6,
-4,
-4,
-5,
-2,
-4,
-3,
-2,
-2,
-4,
1,
-1,
0,
5,
-2,
3,
3,
-5,
8,
0,
2,
11,
1,
8,
8,
1,
10,
5,
6,
11,
9,
10,
11,
8,
8,
12,
9,
11,
16,
9,
17,
15,
12,
17,
13,
18,
20,
15,
22,
16,
18,
19,
17,
21,
19,
22,
23,
20,
25,
20,
22,
25,
24,
26,
25,
25,
26,
26,
26,
27,
29,
25,
31,
30,
27,
33,
27,
30,
34,
27,
33,
32,
30,
35,
31,
33,
34,
32,
35,
33,
36,
34,
36,
37,
36,
37,
38,
36,
39,
37,
38,
40,
38,
40,
40,
38,
41,
41,
38,
42,
42,
38,
44,
41,
41,
46,
39,
43,
46,
38,
48,
43,
40,
48,
41,
43,
48,
39,
48,
45,
44,
47,
45,
44,
47,
45,
45,
47,
46,
45,
49,
44,
49,
47,
45,
50,
46,
47,
49,
43,
51,
46,
47,
49,
44,
50,
47,
46,
52,
44,
50,
46,
46,
50,
46,
48,
49,
47,
49,
47,
49,
46,
50,
46,
48,
49,
44,
50,
47,
44,
51,
43,
49,
48,
45,
47,
45,
47,
48,
44,
48,
44,
47,
44,
44,
46,
44,
46,
45,
42,
48,
42,
44,
45,
43,
43,
44,
41,
43,
43,
41,
43,
44,
39,
44,
41,
37,
45,
39,
40,
44,
36,
42,
40,
35,
42,
37,
37,
40,
34,
38,
38,
35,
38,
37,
34,
38,
34,
34,
36,
34,
33,
35,
32,
34,
32,
30,
33,
30,
30,
32,
27,
32,
27,
27,
31,
25,
29,
27,
24,
31,
21,
26,
26,
21,
27,
22,
23,
26,
20,
22,
23,
20,
20,
22,
18,
18,
21,
16,
18,
18,
13,
20,
14,
16,
17,
11,
16,
13,
12,
13,
10,
14,
8,
12,
10,
8,
12,
6,
8,
9,
4,
10,
6,
5,
7,
3,
4,
4,
2,
2,
1,
0,
0,
2,
-5,
0,
0,
-6,
1,
-3,
-5,
1,
-9,
-2,
-6,
-11,
-2,
-8,
-8,
-5,
-10,
-7,
-10,
-12,
-12,
-11,
-12,
-9,
-10,
-13,
-13,
-13,
-14,
-14,
-16,
-13,
-15,
-16,
-15,
-19,
-18,
-18,
-22,
-17,
-22,
-21,
-19,
-26,
-20,
-22,
-27,
-20,
-26,
-24,
-23,
-30,
-24,
-26,
-30,
-25,
-28,
-29,
-27,
-30,
-31,
-29,
-32,
-32,
-27,
-33,
-32,
-30,
-36,
-31,
-33,
-35,
-32,
-37,
-33,
-35,
-37,
-34,
-39,
-37,
-38,
-38,
-36,
-42,
-37,
-42,
-42,
-37,
-43,
-38,
-40,
-44,
-39,
-44,
-43,
-40,
-44,
-43,
-43,
-45,
-46,
-42,
-47,
-45,
-44,
-50,
-42,
-46,
-49,
-41,
-51,
-45,
-45,
-52,
-44,
-50,
-49,
-47,
-52,
-47,
-50,
-50,
-48,
-51,
-49,
-50,
-50,
-50,
-51,
-49,
-51,
-49,
-51,
-49,
-50,
-53,
-49,
-53,
-50,
-50,
-55,
-47,
-54,
-55,
-49,
-57,
-50,
-52,
-57,
-48,
-56,
-55,
-50,
-56,
-52,
-51,
-55,
-52,
-51,
-55,
-52,
-53,
-53,
-52,
-53,
-54,
-51,
-54,
-53,
-50,
-55,
-51,
-52,
-54,
-51,
-53,
-52,
-52,
-52,
-52,
-52,
-51,
-54,
-52,
-50,
-54,
-49,
-51,
-54,
-48,
-53,
-50,
-49,
-53,
-48,
-50,
-51,
-48,
-50,
-50,
-48,
-49,
-50,
-47,
-49,
-50,
-44,
-51,
-46,
-45,
-50,
-43,
-48,
-47,
-43,
-50,
-42,
-45,
-46,
-42,
-47,
-43,
-46,
-44,
-40,
-45,
-40,
-43,
-44,
-41,
-43,
-40,
-41,
-40,
-42,
-39,
-39,
-40,
-36,
-40,
-37,
-34,
-42,
-32,
-39,
-39,
-31,
-39,
-33,
-33,
-40,
-30,
-34,
-35,
-30,
-35,
-31,
-30,
-34,
-30,
-30,
-31,
-28,
-27,
-30,
-27,
-27,
-29,
-23,
-28,
-26,
-22,
-27,
-23,
-24,
-24,
-22,
-22,
-21,
-22,
-20,
-20,
-22,
-17,
-20,
-18,
-17,
-20,
-16,
-17,
-19,
-13,
-17,
-16,
-13,
-16,
-12,
-12,
-14,
-11,
-11,
-11,
-9,
-9,
-11,
-7,
-8,
-8,
-5,
-7,
-7,
-2,
-7,
-2,
-5,
-5,
-1,
-5,
-2,
-3,
-3,
2,
-2,
3,
3,
-1,
4,
-1,
2,
4,
2,
9,
5,
5,
8,
5,
5,
7,
7,
8,
12,
8,
10,
15,
5,
13,
12,
8,
18,
10,
13,
18,
8,
17,
15,
14,
20,
16,
18,
19,
17,
18,
20,
19,
20,
23,
20,
21,
24,
19,
25,
23,
23,
28,
24,
27,
25,
25,
27,
26,
29,
28,
28,
32,
26,
32,
29,
29,
33,
29,
32,
34,
30,
35,
32,
33,
35,
33,
34,
36,
34,
35,
37,
36,
36,
39,
34,
38,
38,
36,
40,
37,
39,
42,
38,
41,
39,
40,
41,
39,
41,
41,
40,
44,
39,
44,
43,
40,
45,
41,
42,
46,
40,
46,
44,
41,
47,
44,
43,
48,
44,
44,
48,
44,
44,
50,
42,
47,
48,
41,
51,
46,
44,
52,
42,
48,
48,
43,
50,
47,
45,
50,
46,
49,
47,
49,
47,
50,
47,
47,
50,
48,
49,
49,
45,
51,
46,
50,
47,
46,
49,
46,
49,
49,
46,
51,
44,
49,
47,
44,
50,
45,
47,
50,
44,
49,
46,
45,
47,
46,
45,
46,
46,
46,
45,
47,
43,
47,
43,
45,
45,
43,
45,
43,
43,
46,
41,
46,
43,
43,
44,
40,
44,
42,
41,
45,
38,
43,
41,
37,
43,
39,
38,
42,
37,
38,
40,
36,
39,
40,
33,
40,
37,
34,
39,
36,
34,
40,
31,
35,
36,
29,
36,
33,
29,
37,
28,
32,
33,
27,
32,
29,
27,
32,
27,
31,
27,
27,
27,
27,
26,
26,
26,
25,
24,
25,
24,
25,
21,
23,
21,
20,
23,
18,
21,
21,
16,
22,
15,
16,
19,
12,
19,
16,
13,
18,
12,
15,
13,
11,
13,
11,
11,
10,
11,
9,
8,
11,
6,
9,
8,
5,
9,
4,
6,
6,
2,
5,
2,
4,
1,
1,
3,
-3,
3,
-1,
-4,
2,
-6,
-1,
-2,
-7,
0,
-6,
-7,
-2,
-9,
-5,
-5,
-8,
-6,
-5,
-11,
-9,
-10,
-14,
-7,
-10,
-14,
-5,
-15,
-13,
-12,
-20,
-13,
-15,
-18,
-12,
-19,
-17,
-17,
-21,
-17,
-20,
-20,
-18,
-21,
-21,
-22,
-23,
-22,
-22,
-23,
-22,
-24,
-24,
-25,
-26,
-26,
-27,
-27,
-26,
-29,
-30,
-27,
-32,
-28,
-28,
-34,
-27,
-32,
-35,
-29,
-37,
-32,
-32,
-38,
-31,
-36,
-36,
-34,
-38,
-36,
-37,
-38,
-37,
-38,
-37,
-39,
-37,
-42,
-40,
-37,
-42,
-38,
-40,
-42,
-40,
-44,
-42,
-43,
-41,
-43,
-44,
-42,
-48,
-41,
-43,
-47,
-41,
-49,
-45,
-43,
-51,
-44,
-47,
-50,
-43,
-49,
-47,
-46,
-49,
-48,
-48,
-50,
-49,
-47,
-51,
-48,
-48,
-53,
-46,
-52,
-51,
-46,
-55,
-48,
-50,
-53,
-48,
-54,
-50,
-50,
-55,
-50,
-54,
-52,
-50,
-53,
-50,
-53,
-53,
-52,
-53,
-52,
-53,
-52,
-53,
-51,
-53,
-53,
-52,
-55,
-51,
-54,
-56,
-50,
-56,
-52,
-51,
-58,
-51,
-53,
-56,
-50,
-56,
-53,
-52,
-55,
-51,
-52,
-55,
-52,
-53,
-52,
-51,
-51,
-52,
-51,
-52,
-53,
-49,
-50,
-53,
-49,
-52,
-50,
-49,
-51,
-49,
-50,
-49,
-49,
-49,
-49,
-50,
-46,
-51,
-48,
-47,
-53,
-44,
-50,
-50,
-43,
-52,
-46,
-45,
-51,
-42,
-47,
-47,
-43,
-48,
-45,
-44,
-45,
-43,
-43,
-45,
-43,
-39,
-45,
-40,
-43,
-44,
-37,
-43,
-39,
-39,
-43,
-36,
-42,
-39,
-36,
-41,
-36,
-39,
-36,
-35,
-39,
-33,
-37,
-36,
-33,
-36,
-33,
-34,
-34,
-32,
-31,
-33,
-31,
-28,
-34,
-28,
-29,
-32,
-24,
-31,
-28,
-23,
-32,
-23,
-24,
-29,
-23,
-27,
-26,
-21,
-26,
-23,
-23,
-23,
-21,
-21,
-21,
-20,
-19,
-20,
-18,
-16,
-19,
-15,
-16,
-16,
-13,
-15,
-15,
-13,
-14,
-13,
-13,
-12,
-13,
-10,
-11,
-11,
-7,
-12,
-9,
-5,
-12,
-4,
-8,
-9,
-3,
-7,
-5,
-2,
-7,
-1,
-3,
-5,
-1,
-3,
-1,
1,
1,
2,
2,
1,
2,
3,
1,
6,
6,
3,
9,
5,
5,
8,
3,
11,
8,
9,
12,
6,
14,
8,
8,
16,
8,
16,
14,
11,
17,
13,
15,
18,
15,
17,
18,
17,
17,
22,
15,
20,
23,
16,
25,
21,
19,
28,
18,
25,
26,
20,
27,
24,
24,
28,
24,
27,
28,
28,
27,
28,
30,
28,
31,
29,
30,
33,
28,
33,
32,
31,
33,
33,
32,
35,
34,
35,
35,
37,
33,
38,
36,
34,
39,
36,
37,
40,
34,
41,
39,
36,
41,
38,
38,
42,
37,
41,
41,
39,
42,
42,
41,
43,
42,
43,
43,
43,
43,
45,
43,
44,
45,
43,
45,
43,
44,
46,
42,
48,
43,
45,
47,
43,
49,
46,
43,
51,
42,
46,
48,
43,
49,
47,
45,
51,
46,
46,
48,
47,
45,
50,
46,
47,
51,
45,
49,
50,
43,
54,
44,
47,
51,
44,
50,
49,
45,
51,
45,
50,
46,
48,
48,
47,
48,
46,
48,
49,
46,
51,
45,
47,
48,
45,
47,
46,
47,
47,
47,
47,
44,
49,
44,
46,
47,
41,
49,
45,
43,
49,
41,
46,
44,
41,
45,
42,
42,
45,
41,
43,
42,
42,
42,
42,
41,
41,
41,
41,
41,
41,
39,
40,
38,
39,
38,
39,
40,
36,
39,
38,
34,
40,
34,
36,
38,
31,
37,
34,
30,
38,
30,
32,
35,
29,
34,
33,
27,
33,
30,
28,
33,
29,
27,
32,
27,
27,
31,
24,
28,
28,
21,
29,
23,
22,
28,
20,
24,
24,
19,
25,
19,
21,
20,
18,
21,
17,
20,
18,
16,
19,
14,
18,
16,
15,
16,
13,
14,
14,
13,
12,
11,
13,
9,
13,
10,
8,
12,
5,
9,
9,
3,
11,
3,
5,
6,
1,
6,
3,
2,
4,
-1,
1,
-2,
0,
0,
-2,
0,
-2,
0,
-2,
-4,
-1,
-4,
-4,
-6,
-7,
-7,
-7,
-4,
-9,
-6,
-7,
-13,
-7,
-14,
-12,
-7,
-15,
-9,
-11,
-18,
-9,
-20,
-18,
-13,
-18,
-15,
-14,
-21,
-16,
-19,
-21,
-17,
-19,
-21,
-17,
-22,
-23,
-20,
-26,
-22,
-20,
-26,
-21,
-25,
-29,
-23,
-30,
-27,
-25,
-29,
-25,
-30,
-29,
-28,
-31,
-30,
-32,
-30,
-29,
-33,
-30,
-34,
-33,
-32,
-36,
-33,
-35,
-36,
-35,
-35,
-37,
-36,
-36,
-39,
-36,
-37,
-41,
-36,
-42,
-40,
-37,
-45,
-37,
-42,
-43,
-39,
-46,
-41,
-44,
-44,
-40,
-46,
-41,
-46,
-45,
-43,
-48,
-42,
-46,
-45,
-45,
-48,
-46,
-47,
-47,
-47,
-47,
-48,
-49,
-46,
-50,
-48,
-47,
-54,
-45,
-50,
-52,
-45,
-55,
-48,
-48,
-56,
-46,
-52,
-53,
-47,
-55,
-52,
-51,
-54,
-51,
-51,
-54,
-51,
-51,
-55,
-50,
-53,
-54,
-49,
-55,
-52,
-50,
-56,
-49,
-53,
-54,
-50,
-56,
-51,
-52,
-54,
-51,
-55,
-52,
-52,
-54,
-51,
-55,
-53,
-51,
-55,
-52,
-51,
-55,
-51,
-54,
-53,
-52,
-52,
-53,
-51,
-53,
-52,
-51,
-53,
-51,
-50,
-54,
-50,
-53,
-53,
-48,
-54,
-50,
-50,
-54,
-48,
-53,
-50,
-49,
-51,
-47,
-50,
-47,
-49,
-50,
-46,
-51,
-46,
-47,
-50,
-44,
-49,
-46,
-46,
-47,
-45,
-45,
-45,
-46,
-44,
-46,
-46,
-41,
-48,
-42,
-42,
-47,
-37,
-45,
-43,
-38,
-47,
-37,
-42,
-45,
-36,
-42,
-39,
-38,
-42,
-38,
-38,
-38,
-38,
-36,
-38,
-35,
-34,
-38,
-32,
-36,
-36,
-30,
-36,
-31,
-33,
-34,
-29,
-35,
-28,
-30,
-32,
-26,
-32,
-28,
-29,
-30,
-24,
-29,
-27,
-24,
-27,
-24,
-24,
-25,
-23,
-22,
-23,
-22,
-21,
-23,
-19,
-21,
-21,
-15,
-22,
-19,
-16,
-21,
-16,
-17,
-18,
-13,
-17,
-15,
-14,
-15,
-12,
-13,
-12,
-11,
-12,
-9,
-12,
-8,
-9,
-10,
-6,
-10,
-7,
-4,
-9,
-3,
-6,
-6,
-3,
-5,
-4,
-1,
-3,
-3,
1,
-2,
-1,
4,
-2,
2,
3,
-3,
6,
2,
2,
11,
1,
8,
7,
0,
10,
3,
6,
12,
9,
10,
10,
10,
9,
11,
11,
12,
14,
13,
14,
14,
12,
17,
13,
18,
17,
16,
20,
16,
20,
20,
16,
24,
18,
21,
22,
18,
25,
21,
22,
27,
21,
25,
26,
24,
25,
27,
26,
27,
30,
27,
30,
31,
26,
33,
29,
30,
34,
28,
33,
33,
30,
35,
30,
34,
34,
34,
35,
34,
36,
35,
36,
38,
34,
39,
36,
37,
40,
37,
38,
40,
36,
40,
40,
39,
41,
41,
39,
42,
42,
40,
44,
42,
41,
46,
39,
42,
44,
39,
45,
43,
39,
47,
40,
44,
46,
41,
47,
45,
43,
48,
43,
46,
46,
45,
46,
45,
47,
46,
46,
48,
47,
48,
45,
47,
45,
49,
47,
46,
49,
45,
48,
49,
44,
52,
45,
46,
51,
43,
49,
50,
43,
51,
46,
47,
49,
47,
48,
49,
47,
48,
50,
47,
47,
50,
43,
50,
47,
45,
50,
45,
47,
48,
44,
49,
45,
47,
47,
46,
46,
44,
48,
46,
43,
48,
42,
47,
46,
42,
47,
44,
44,
45,
41,
44,
43,
43,
42,
45,
42,
43,
43,
39,
43,
43,
39,
45,
38,
40,
42,
37,
41,
39,
36,
42,
36,
38,
39,
35,
38,
37,
35,
38,
34,
37,
34,
34,
35,
34,
34,
34,
32,
34,
33,
32,
32,
32,
29,
32,
29,
28,
32,
26,
28,
30,
22,
32,
25,
22,
32,
21,
24,
27,
19,
28,
22,
21,
25,
21,
22,
23,
19,
19,
21,
19,
18,
22,
15,
18,
19,
13,
19,
14,
14,
18,
11,
16,
13,
13,
14,
10,
12,
9,
12,
12,
6,
12,
6,
8,
9,
2,
9,
4,
3,
7,
1,
4,
3,
2,
2,
2,
0,
0,
2,
-2,
0,
0,
-5,
1,
-4,
-4,
0,
-7,
-3,
-6,
-9,
-3,
-10,
-6,
-4,
-9,
-7,
-11,
-12,
-9,
-13,
-8,
-12,
-12,
-11,
-15,
-15,
-14,
-17,
-15,
-15,
-18,
-15,
-16,
-21,
-16,
-21,
-22,
-16,
-23,
-20,
-18,
-26,
-19,
-23,
-27,
-20,
-26,
-24,
-22,
-31,
-24,
-26,
-30,
-24,
-27,
-29,
-26,
-30,
-30,
-29,
-30,
-31,
-27,
-33,
-32,
-31,
-37,
-31,
-34,
-35,
-32,
-36,
-32,
-36,
-37,
-34,
-39,
-35,
-38,
-39,
-35,
-43,
-37,
-41,
-43,
-37,
-43,
-39,
-39,
-45,
-40,
-44,
-43,
-42,
-44,
-43,
-43,
-43,
-46,
-44,
-45,
-46,
-42,
-48,
-44,
-46,
-49,
-43,
-49,
-47,
-45,
-50,
-46,
-50,
-48,
-48,
-52,
-45,
-51,
-49,
-48,
-52,
-46,
-51,
-52,
-48,
-52,
-51,
-50,
-52,
-51,
-49,
-52,
-51,
-50,
-55,
-49,
-51,
-55,
-46,
-55,
-52,
-47,
-58,
-50,
-51,
-57,
-49,
-56,
-54,
-48,
-56,
-52,
-51,
-55,
-52,
-53,
-54,
-51,
-52,
-54,
-51,
-52,
-54,
-50,
-54,
-53,
-52,
-54,
-51,
-52,
-53,
-52,
-53,
-51,
-53,
-52,
-51,
-54,
-50,
-53,
-53,
-49,
-54,
-51,
-50,
-54,
-48,
-53,
-52,
-48,
-53,
-49,
-50,
-51,
-48,
-49,
-49,
-49,
-48,
-49,
-48,
-48,
-49,
-46,
-49,
-47,
-46,
-49,
-45,
-47,
-47,
-44,
-48,
-43,
-47,
-46,
-43,
-48,
-41,
-45,
-46,
-40,
-47,
-41,
-43,
-46,
-39,
-44,
-42,
-38,
-42,
-41,
-39,
-40,
-40,
-36,
-42,
-37,
-36,
-42,
-32,
-38,
-39,
-29,
-42,
-33,
-32,
-39,
-29,
-36,
-35,
-29,
-36,
-31,
-31,
-33,
-29,
-30,
-31,
-30,
-27,
-27,
-26,
-27,
-28,
-24,
-26,
-25,
-24,
-25,
-22,
-24,
-23,
-22,
-23,
-20,
-23,
-21,
-18,
-22,
-18,
-19,
-21,
-15,
-20,
-17,
-16,
-18,
-14,
-15,
-16,
-13,
-15,
-13,
-13,
-13,
-12,
-10,
-11,
-10,
-8,
-9,
-9,
-6,
-9,
-6,
-7,
-6,
-4,
-6,
-5,
-4,
-6,
-2,
-4,
-1,
-2,
-2,
1,
-3,
5,
1,
-2,
5,
-2,
2,
4,
0,
10,
6,
4,
9,
3,
7,
7,
6,
8,
13,
8,
11,
13,
6,
13,
12,
9,
18,
11,
13,
18,
9,
18,
15,
14,
22,
15,
19,
18,
17,
20,
19,
19,
20,
21,
24,
21,
24,
21,
24,
24,
25,
26,
24,
27,
25,
26,
29,
24,
31,
27,
26,
32,
25,
30,
30,
26,
34,
28,
30,
34,
29,
33,
33,
32,
35,
34,
34,
36,
36,
34,
36,
35,
36,
39,
36,
37,
40,
37,
40,
38,
38,
39,
40,
40,
40,
41,
40,
39,
43,
40,
42,
44,
39,
44,
43,
39,
46,
40,
43,
46,
39,
45,
45,
41,
49,
43,
44,
47,
46,
45,
47,
44,
45,
48,
43,
47,
49,
41,
51,
44,
45,
49,
43,
49,
48,
45,
51,
44,
49,
48,
46,
49,
46,
48,
48,
45,
50,
47,
49,
48,
49,
47,
47,
48,
48,
48,
48,
46,
51,
44,
50,
49,
44,
52,
44,
48,
50,
42,
51,
45,
45,
49,
44,
46,
48,
45,
46,
46,
46,
45,
47,
45,
46,
46,
45,
46,
45,
43,
48,
43,
45,
44,
44,
44,
43,
44,
42,
43,
43,
40,
46,
40,
41,
44,
38,
42,
41,
37,
44,
37,
37,
42,
36,
38,
40,
34,
40,
38,
35,
38,
37,
34,
39,
34,
35,
36,
33,
36,
37,
30,
36,
31,
31,
34,
29,
31,
32,
27,
33,
27,
30,
30,
26,
29,
26,
27,
29,
24,
28,
25,
25,
27,
23,
24,
24,
23,
23,
24,
21,
19,
24,
17,
21,
20,
15,
23,
16,
16,
22,
12,
19,
16,
12,
18,
12,
13,
15,
11,
14,
11,
11,
9,
11,
9,
9,
11,
7,
9,
9,
4,
10,
5,
6,
7,
4,
5,
2,
4,
1,
1,
3,
-1,
4,
-2,
-2,
3,
-5,
-1,
1,
-7,
0,
-6,
-5,
-3,
-9,
-7,
-6,
-9,
-6,
-7,
-9,
-8,
-10,
-13,
-9,
-10,
-12,
-9,
-13,
-13,
-13,
-19,
-13,
-17,
-17,
-13,
-18,
-16,
-17,
-21,
-16,
-22,
-19,
-18,
-23,
-19,
-24,
-24,
-20,
-26,
-23,
-22,
-26,
-23,
-25,
-27,
-25,
-29,
-28,
-25,
-28,
-29,
-26,
-32,
-30,
-29,
-35,
-27,
-31,
-35,
-29,
-37,
