5-grundlagen-opAmps/data/ALL0036/A0036CH1.CSV

Memory Length,4000,
Trigger Level,0.00000e+00,
Source,CH1,
Probe,1.0X,
Vertical Units,V,
Vertical Scale,5.00000e-02,
Vertical Position,0.00000e+00,
Horizontal Units,S,
Horizontal Scale,1.00000e-06,
Horizontal Position,1.0000000e-06,
Horizontal Mode,Main,
Sampling Period,4.00000e-09,
Firmware,V1.14,
Time, ,
Mode,Fast,
Waveform Data,
27,
27,
17,
17,
28,
12,
24,
23,
12,
29,
17,
16,
28,
15,
22,
25,
17,
22,
23,
15,
23,
24,
15,
24,
18,
17,
27,
15,
22,
24,
13,
25,
19,
17,
24,
17,
19,
21,
20,
20,
18,
21,
17,
20,
22,
16,
22,
17,
18,
21,
18,
19,
20,
16,
18,
21,
15,
19,
19,
13,
22,
18,
14,
21,
15,
15,
20,
13,
18,
17,
13,
19,
15,
15,
18,
13,
16,
17,
13,
16,
15,
15,
14,
12,
15,
12,
13,
15,
9,
16,
13,
10,
18,
10,
12,
16,
9,
13,
14,
7,
13,
13,
4,
17,
9,
6,
19,
2,
10,
17,
0,
15,
9,
1,
17,
4,
6,
13,
3,
9,
9,
3,
9,
9,
1,
9,
8,
0,
11,
3,
3,
9,
-1,
6,
4,
0,
8,
0,
3,
3,
1,
5,
-1,
3,
0,
-1,
4,
-4,
3,
0,
-3,
4,
-3,
-2,
1,
-4,
-2,
1,
-4,
-4,
1,
-5,
-2,
0,
-8,
0,
-5,
-7,
0,
-8,
-4,
-3,
-9,
-4,
-6,
-7,
-5,
-8,
-6,
-9,
-7,
-8,
-10,
-7,
-9,
-10,
-7,
-12,
-10,
-8,
-13,
-10,
-8,
-16,
-6,
-12,
-15,
-6,
-15,
-13,
-7,
-19,
-11,
-10,
-20,
-8,
-14,
-20,
-7,
-19,
-17,
-8,
-24,
-13,
-12,
-25,
-9,
-19,
-21,
-12,
-21,
-18,
-14,
-21,
-16,
-18,
-20,
-18,
-17,
-22,
-17,
-19,
-22,
-16,
-22,
-21,
-18,
-24,
-17,
-23,
-21,
-22,
-24,
-17,
-26,
-20,
-20,
-29,
-17,
-25,
-24,
-21,
-28,
-21,
-22,
-27,
-20,
-26,
-25,
-24,
-24,
-28,
-22,
-26,
-28,
-21,
-29,
-27,
-22,
-32,
-22,
-27,
-28,
-23,
-29,
-25,
-27,
-29,
-26,
-29,
-26,
-31,
-26,
-27,
-32,
-24,
-31,
-31,
-24,
-32,
-27,
-26,
-32,
-28,
-27,
-33,
-26,
-28,
-33,
-24,
-30,
-33,
-21,
-36,
-28,
-24,
-38,
-24,
-28,
-37,
-21,
-32,
-33,
-23,
-36,
-29,
-26,
-36,
-26,
-29,
-33,
-25,
-32,
-31,
-26,
-35,
-29,
-28,
-32,
-29,
-29,
-31,
-28,
-31,
-29,
-29,
-29,
-29,
-30,
-31,
-28,
-30,
-28,
-30,
-31,
-26,
-31,
-30,
-26,
-35,
-24,
-29,
-32,
-22,
-33,
-29,
-23,
-33,
-25,
-26,
-31,
-27,
-28,
-29,
-26,
-27,
-30,
-26,
-28,
-30,
-23,
-31,
-25,
-24,
-30,
-25,
-28,
-28,
-25,
-26,
-25,
-29,
-22,
-28,
-27,
-21,
-31,
-21,
-23,
-30,
-16,
-28,
-24,
-20,
-28,
-21,
-21,
-28,
-19,
-22,
-28,
-20,
-20,
-28,
-15,
-24,
-25,
-13,
-28,
-19,
-16,
-30,
-12,
-24,
-24,
-13,
-25,
-18,
-16,
-24,
-16,
-18,
-21,
-17,
-17,
-20,
-15,
-16,
-17,
-16,
-18,
-15,
-16,
-17,
-13,
-19,
-13,
-15,
-16,
-12,
-17,
-14,
-12,
-20,
-10,
-14,
-16,
-8,
-15,
-15,
-7,
-17,
-10,
-9,
-16,
-7,
-10,
-14,
-5,
-13,
-10,
-6,
-13,
-7,
-7,
-13,
-5,
-6,
-11,
-5,
-5,
-10,
-3,
-7,
-7,
-3,
-7,
-5,
-3,
-6,
-3,
-5,
-3,
-6,
-2,
-4,
-5,
2,
-8,
-1,
2,
-10,
5,
-3,
-5,
8,
-6,
-1,
4,
-5,
3,
2,
-3,
4,
2,
-4,
6,
2,
-2,
9,
-2,
3,
9,
-5,
8,
4,
-1,
12,
0,
4,
9,
1,
9,
4,
5,
8,
5,
9,
7,
6,
8,
8,
8,
8,
8,
9,
10,
7,
11,
10,
6,
14,
7,
8,
15,
4,
14,
13,
5,
18,
9,
9,
18,
7,
14,
15,
8,
16,
15,
9,
16,
15,
10,
18,
12,
13,
19,
11,
16,
16,
13,
17,
16,
13,
17,
16,
15,
18,
16,
15,
19,
17,
15,
19,
17,
15,
20,
17,
15,
22,
15,
18,
23,
13,
21,
21,
12,
26,
17,
15,
24,
13,
20,
23,
14,
21,
21,
15,
22,
21,
16,
23,
18,
16,
26,
14,
21,
23,
14,
25,
18,
19,
24,
15,
23,
19,
19,
24,
15,
24,
20,
18,
26,
17,
22,
23,
19,
21,
21,
18,
22,
22,
16,
24,
20,
16,
28,
14,
21,
27,
11,
27,
20,
13,
28,
15,
20,
24,
15,
22,
21,
17,
21,
21,
16,
21,
20,
16,
24,
18,
17,
24,
15,
19,
20,
16,
20,
18,
18,
17,
20,
19,
17,
20,
15,
18,
20,
12,
22,
17,
13,
22,
14,
15,
20,
12,
17,
20,
11,
19,
16,
11,
20,
15,
13,
19,
12,
15,
17,
11,
17,
15,
11,
17,
13,
11,
16,
11,
12,
15,
10,
14,
11,
11,
13,
8,
14,
10,
9,
15,
6,
12,
11,
4,
15,
6,
8,
14,
5,
9,
10,
3,
10,
9,
2,
11,
7,
1,
13,
2,
4,
14,
-3,
8,
9,
-4,
12,
1,
0,
11,
-1,
5,
5,
-1,
4,
4,
0,
2,
4,
0,
2,
3,
-2,
4,
-1,
-1,
2,
-5,
1,
1,
-3,
0,
-2,
0,
-5,
0,
-3,
-5,
1,
-9,
0,
0,
-11,
0,
-7,
-8,
0,
-12,
-5,
-3,
-11,
-4,
-5,
-10,
-5,
-7,
-11,
-5,
-9,
-12,
-5,
-12,
-9,
-8,
-12,
-8,
-12,
-11,
-8,
-14,
-9,
-13,
-12,
-11,
-15,
-12,
-12,
-16,
-10,
-16,
-15,
-10,
-18,
-12,
-12,
-22,
-10,
-16,
-20,
-9,
-19,
-18,
-10,
-24,
-15,
-14,
-23,
-13,
-16,
-24,
-12,
-22,
-23,
-11,
-24,
-18,
-13,
-27,
-15,
-21,
-26,
-15,
-22,
-22,
-17,
-26,
-19,
-21,
-23,
-23,
-20,
-24,
-24,
-20,
-26,
-22,
-20,
-28,
-21,
-25,
-24,
-23,
-25,
-24,
-26,
-22,
-26,
-25,
-22,
-31,
-21,
-28,
-27,
-19,
-33,
-23,
-23,
-32,
-20,
-30,
-28,
-24,
-30,
-26,
-27,
-28,
-27,
-27,
-28,
-28,
-26,
-31,
-26,
-28,
-30,
-26,
-30,
-27,
-28,
-31,
-27,
-31,
-25,
-31,
-30,
-24,
-35,
-26,
-25,
-35,
-24,
-32,
-31,
-24,
-34,
-28,
-25,
-36,
-25,
-28,
-35,
-23,
-31,
-35,
-21,
-35,
-30,
-24,
-37,
-27,
-27,
-38,
-24,
-31,
-33,
-22,
-34,
-31,
-24,
-36,
-27,
-27,
-33,
-27,
-30,
-32,
-25,
-32,
-29,
-28,
-30,
-29,
-29,
-29,
-29,
-28,
-28,
-32,
-27,
-31,
-29,
-26,
-30,
-28,
-27,
-30,
-28,
-27,
-29,
-28,
-26,
-33,
-24,
-26,
-32,
-22,
-31,
-29,
-21,
-33,
-23,
-27,
-28,
-22,
-29,
-25,
-23,
-27,
-25,
-26,
-24,
-27,
-23,
-25,
-26,
-21,
-26,
-23,
-23,
-25,
-24,
-25,
-20,
-25,
-21,
-23,
-25,
-17,
-27,
-20,
-18,
-31,
-13,
-23,
-26,
-13,
-26,
-21,
-15,
-27,
-16,
-18,
-25,
-15,
-19,
-25,
-12,
-20,
-21,
-11,
-22,
-18,
-11,
-27,
-11,
-16,
-23,
-9,
-20,
-17,
-10,
-20,
-14,
-15,
-15,
-12,
-15,
-14,
-12,
-13,
-12,
-12,
-12,
-13,
-10,
-11,
-12,
-13,
-10,
-13,
-10,
-9,
-12,
-10,
-9,
-12,
-6,
-11,
-11,
-6,
-10,
-9,
-5,
-12,
-6,
-5,
-11,
-3,
-7,
-8,
-1,
-10,
-6,
-2,
-8,
-3,
-4,
-5,
-3,
-5,
-1,
-5,
-1,
-2,
-3,
1,
-4,
0,
2,
-4,
3,
-1,
-2,
2,
0,
-2,
3,
1,
-2,
6,
-3,
1,
9,
-5,
8,
5,
-4,
13,
-1,
1,
12,
-5,
8,
8,
-2,
10,
4,
1,
10,
6,
3,
12,
5,
5,
12,
1,
10,
11,
2,
14,
6,
6,
14,
4,
12,
11,
8,
12,
9,
14,
9,
10,
14,
8,
14,
12,
10,
14,
11,
11,
14,
12,
12,
16,
12,
13,
18,
10,
16,
16,
10,
20,
13,
11,
20,
12,
15,
18,
11,
18,
17,
13,
18,
16,
16,
19,
16,
17,
18,
16,
17,
18,
17,
17,
19,
17,
17,
22,
17,
17,
22,
15,
18,
21,
14,
21,
20,
15,
23,
20,
16,
25,
16,
17,
26,
12,
22,
25,
11,
27,
19,
14,
29,
15,
20,
26,
14,
24,
21,
16,
24,
20,
17,
23,
20,
18,
24,
18,
19,
26,
16,
23,
22,
17,
26,
17,
23,
21,
18,
25,
17,
23,
21,
17,
24,
16,
22,
23,
17,
24,
19,
18,
23,
19,
18,
21,
20,
17,
24,
18,
18,
25,
14,
22,
21,
13,
25,
16,
18,
24,
14,
20,
20,
17,
19,
18,
18,
17,
20,
16,
18,
19,
15,
19,
18,
15,
20,
16,
16,
18,
15,
15,
19,
15,
14,
20,
12,
16,
19,
9,
18,
16,
9,
21,
12,
10,
20,
10,
13,
18,
6,
17,
15,
7,
19,
10,
10,
19,
7,
12,
14,
7,
14,
12,
9,
12,
10,
9,
11,
8,
9,
11,
7,
10,
8,
7,
11,
4,
9,
8,
4,
13,
3,
7,
9,
-1,
12,
3,
2,
12,
-1,
7,
7,
-1,
8,
4,
1,
6,
2,
1,
6,
1,
0,
7,
-4,
0,
6,
-6,
4,
0,
-5,
7,
-4,
-2,
2,
-5,
1,
-2,
-2,
-3,
-1,
-2,
-4,
1,
-6,
-4,
-1,
-9,
-1,
-5,
-9,
-1,
-5,
-8,
-3,
-7,
-9,
-4,
-8,
-11,
-1,
-13,
-7,
-2,
-16,
-4,
-9,
-16,
-1,
-15,
-11,
-5,
-16,
-9,
-9,
-16,
-9,
-12,
-14,
-8,
-14,
-14,
-10,
-16,
-13,
-13,
-16,
-13,
-14,
-15,
-12,
-17,
-14,
-16,
-16,
-14,
-18,
-15,
-15,
-21,
-14,
-17,
-19,
-13,
-21,
-19,
-14,
-25,
-14,
-19,
-25,
-13,
-23,
-22,
-13,
-27,
-19,
-18,
-26,
-18,
-20,
-26,
-18,
-22,
-24,
-19,
-23,
-25,
-18,
-28,
-22,
-21,
-28,
-19,
-24,
-27,
-19,
-28,
-24,
-25,
-25,
-26,
-25,
-24,
-28,
-23,
-24,
-30,
-20,
-30,
-25,
-24,
-31,
-23,
-27,
-29,
-22,
-28,
-29,
-26,
-27,
-32,
-22,
-30,
-30,
-21,
-34,
-26,
-23,
-37,
-21,
-31,
-31,
-23,
-35,
-25,
-27,
-34,
-25,
-30,
-29,
-28,
-29,
-31,
-29,
-31,
-29,
-28,
-30,
-30,
-29,
-30,
-28,
-33,
-28,
-31,
-32,
-26,
-33,
-31,
-27,
-35,
-25,
-30,
-33,
-24,
-35,
-31,
-23,
-38,
-26,
-26,
-37,
-24,
-29,
-35,
-23,
-33,
-30,
-23,
-35,
-28,
-26,
-35,
-25,
-29,
-32,
-25,
-30,
-32,
-24,
-32,
-30,
-25,
-32,
-28,
-26,
-31,
-26,
-30,
-28,
-28,
-28,
-27,
-28,
-26,
-29,
-27,
-25,
-32,
-22,
-28,
-30,
-21,
-30,
-27,
-22,
-30,
-24,
-25,
-28,
-25,
-25,
-28,
-23,
-25,
-28,
-20,
-26,
-25,
-17,
-31,
-21,
-22,
-30,
-17,
-27,
-24,
-19,
-27,
-18,
-25,
-21,
-22,
-24,
-19,
-22,
-20,
-19,
-23,
-19,
-21,
-20,
-19,
-20,
-22,
-17,
-18,
-22,
-14,
-21,
-20,
-12,
-26,
-13,
-17,
-25,
-10,
-20,
-20,
-9,
-24,
-14,
-12,
-22,
-12,
-15,
-21,
-9,
-15,
-17,
-9,
-16,
-15,
-8,
-19,
-11,
-9,
-17,
-9,
-12,
-14,
-7,
-14,
-11,
-9,
-12,
-11,
-8,
-11,
-9,
-8,
-10,
-10,
-6,
-9,
-9,
-5,
-8,
-8,
-4,
-10,
-5,
-5,
-10,
-2,
-6,
-8,
0,
-8,
-4,
-2,
-8,
-3,
-2,
-6,
-1,
-1,
-5,
1,
-2,
-6,
3,
-4,
-1,
0,
-4,
4,
-2,
0,
4,
-4,
4,
0,
1,
5,
-2,
6,
2,
0,
8,
-1,
5,
5,
0,
8,
4,
2,
8,
5,
2,
9,
5,
4,
12,
0,
8,
13,
-2,
14,
7,
1,
18,
2,
8,
15,
2,
14,
10,
5,
15,
9,
7,
14,
9,
7,
15,
8,
10,
17,
6,
14,
14,
8,
16,
10,
13,
14,
12,
15,
12,
15,
13,
13,
16,
11,
17,
15,
13,
18,
13,
14,
19,
13,
16,
18,
13,
17,
19,
13,
19,
18,
14,
21,
15,
16,
20,
15,
18,
18,
14,
20,
18,
16,
21,
18,
18,
19,
17,
19,
19,
19,
19,
17,
21,
17,
20,
23,
16,
22,
19,
16,
26,
16,
20,
25,
14,
24,
22,
14,
24,
20,
16,
26,
18,
16,
28,
16,
20,
29,
12,
24,
24,
13,
29,
17,
18,
28,
13,
23,
23,
15,
24,
21,
18,
23,
20,
18,
22,
21,
18,
24,
17,
19,
22,
17,
24,
19,
18,
23,
17,
23,
17,
20,
21,
16,
25,
17,
19,
24,
13,
22,
19,
14,
24,
17,
18,
21,
16,
19,
19,
16,
19,
20,
14,
18,
20,
13,
21,
15,
15,
21,
14,
18,
17,
15,
17,
15,
16,
15,
16,
17,
13,
17,
14,
14,
18,
12,
15,
17,
10,
17,
15,
8,
18,
12,
8,
20,
8,
12,
17,
5,
15,
14,
5,
17,
10,
7,
17,
7,
9,
16,
3,
11,
14,
1,
15,
9,
3,
16,
3,
7,
12,
3,
11,
7,
4,
10,
5,
7,
5,
4,
5,
5,
5,
3,
7,
4,
4,
4,
3,
4,
1,
6,
1,
1,
6,
-3,
5,
1,
-3,
9,
-4,
1,
4,
-7,
4,
-1,
-3,
3,
-4,
-2,
0,
-2,
-3,
-2,
-4,
-5,
1,
-7,
-2,
-1,
-9,
-1,
-7,
-7,
-2,
-9,
-4,
-7,
-6,
-8,
-7,
-4,
-11,
-4,
-7,
-12,
-2,
-12,
-9,
-4,
-15,
-7,
-8,
-15,
-5,
-10,
-14,
-6,
-13,
-15,
-6,
-18,
-11,
-7,
-19,
-9,
-11,
-20,
-8,
-17,
-16,
-8,
-19,
-13,
-11,
-21,
-12,
-16,
-21,
-12,
-17,
-19,
-13,
-22,
-16,
-15,
-20,
-17,
-19,
-18,
-17,
-21,
-17,
-20,
-19,
-19,
-20,
-20,
-20,
-23,
-19,
-21,
-22,
-19,
-22,
-23,
-17,
-27,
-19,
-20,
-28,
-16,
-25,
-26,
-17,
-30,
-22,
-21,
-29,
-21,
-24,
-26,
-21,
-24,
-26,
-25,
-25,
-29,
-22,
-27,
-28,
-23,
-29,
-25,
-23,
-31,
-23,
-28,
-26,
-26,
-26,
-27,
-29,
-24,
-31,
-27,
-24,
-34,
-22,
-31,
-31,
-22,
-35,
-26,
-24,
-35,
-24,
-29,
-32,
-25,
-29,
-33,
-25,
-31,
-31,
-23,
-34,
-29,
-24,
-37,
-23,
-30,
-34,
-23,
-34,
-31,
-25,
-36,
-27,
-30,
-32,
-28,
-30,
-29,
-29,
-32,
-29,
-30,
-31,
-28,
-29,
-31,
-29,
-31,
-28,
-31,
-30,
-28,
-31,
-29,
-26,
-34,
-26,
-30,
-33,
-25,
-31,
-31,
-24,
-35,
-28,
-25,
-35,
-24,
-28,
-34,
-21,
-32,
-30,
-24,
-33,
-26,
-26,
-32,
-26,
-29,
-30,
-27,
-27,
-30,
-27,
-27,
-30,
-25,
-28,
-29,
-22,
-30,
-26,
-25,
-28,
-27,
-24,
-26,
-27,
-23,
-27,
-27,
-19,
-33,
-22,
-23,
-31,
-17,
-27,
-26,
-16,
-31,
-21,
-21,
-29,
-18,
-22,
-26,
-19,
-23,
-25,
-18,
-23,
-24,
-16,
-26,
-20,
-18,
-26,
-15,
-22,
-21,
-14,
-26,
-16,
-20,
-21,
-15,
-21,
-16,
-19,
-19,
-14,
-21,
-15,
-15,
-19,
-14,
-17,
-20,
-14,
-15,
-17,
-12,
-16,
-16,
-10,
-21,
-11,
-11,
-20,
-8,
-14,
-17,
-5,
-20,
-12,
-6,
-17,
-10,
-9,
-17,
-6,
-11,
-13,
-6,
-12,
-11,
-5,
-13,
-8,
-6,
-11,
-7,
-6,
-10,
-5,
-7,
-8,
-6,
-5,
-9,
-3,
-5,
-8,
-3,
-6,
-7,
-2,
-4,
-4,
-2,
-5,
-5,
1,
-7,
-2,
1,
-7,
5,
-2,
-6,
7,
-5,
0,
4,
-6,
4,
1,
-3,
3,
-1,
1,
5,
2,
1,
6,
1,
2,
7,
0,
6,
5,
3,
9,
1,
7,
6,
3,
12,
1,
8,
9,
1,
12,
5,
7,
13,
2,
12,
8,
4,
13,
8,
6,
12,
9,
7,
16,
7,
9,
17,
3,
15,
14,
3,
19,
8,
9,
19,
6,
15,
14,
7,
18,
13,
11,
16,
13,
11,
17,
14,
12,
17,
13,
13,
16,
12,
16,
16,
14,
17,
16,
15,
17,
17,
15,
16,
18,
13,
19,
18,
13,
21,
16,
15,
21,
15,
18,
23,
14,
20,
20,
14,
23,
18,
16,
24,
15,
19,
21,
16,
20,
20,
18,
20,
20,
19,
20,
19,
19,
21,
19,
20,
20,
19,
21,
18,
22,
21,
18,
25,
17,
21,
24,
14,
27,
19,
16,
28,
15,
22,
25,
15,
24,
22,
15,
25,
20,
17,
26,
20,
17,
27,
15,
20,
25,
11,
27,
21,
13,
29,
15,
19,
24,
14,
23,
19,
18,
23,
19,
19,
19,
21,
17,
21,
19,
16,
23,
17,
17,
22,
16,
18,
19,
18,
16,
20,
18,
15,
21,
15,
17,
22,
12,
20,
18,
13,
23,
14,
17,
21,
12,
17,
18,
12,
17,
16,
13,
16,
15,
13,
17,
14,
13,
16,
11,
15,
14,
13,
15,
12,
14,
12,
12,
14,
10,
15,
13,
10,
15,
10,
9,
16,
7,
10,
14,
4,
14,
11,
4,
16,
4,
7,
16,
1,
12,
11,
0,
12,
8,
3,
11,
4,
2,
12,
3,
5,
12,
-1,
8,
8,
-2,
11,
2,
2,
10,
-3,
6,
5,
-1,
6,
0,
2,
2,
1,
2,
-1,
3,
0,
0,
1,
-1,
2,
-1,
-1,
0,
-3,
-1,
-2,
0,
-5,
0,
-2,
-7,
3,
-7,
-4,
1,
-11,
0,
-6,
-8,
0,
-10,
-6,
-4,
-9,
-5,
-8,
-7,
-8,
-7,
-9,
-8,
-7,
-11,
-7,
-9,
-11,
-8,
-10,
-10,
-12,
-8,
-12,
-13,
-8,
-15,
-11,
-9,
-18,
-8,
-14,
-16,
-7,
-18,
-13,
-8,
-22,
-10,
-12,
-21,
-9,
-17,
-20,
-8,
-22,
-16,
-10,
-24,
-13,
-15,
-24,
-12,
-20,
-21,
-12,
-20,
-20,
-13,
-24,
-19,
-16,
-25,
-17,
-20,
-26,
-15,
-24,
-21,
-19,
-24,
-19,
-22,
-22,
-20,
-25,
-19,
-25,
-22,
-23,
-25,
-19,
-26,
-25,
-20,
-26,
-24,
-24,
-26,
-26,
-21,
-27,
-25,
-22,
-29,
-22,
-25,
-31,
-18,
-32,
-24,
-23,
-32,
-22,
-27,
-29,
-23,
-29,
-26,
-29,
-26,
-29,
-28,
-26,
-30,
-26,
-28,
-31,
-25,
-31,
-27,
-28,
-29,
-29,
-28,
-30,
-29,
-26,
-32,
-30,
-24,
-36,
-25,
-27,
-35,
-21,
-34,
-32,
-21,
-38,
-26,
-27,
-37,
-24,
-30,
-35,
-23,
-33,
-31,
-24,
-35,
-30,
-24,
-37,
-26,
-29,
-35,
-25,
-32,
-33,
-25,
-34,
-28,
-27,
-33,
-27,
-30,
-32,
-27,
-31,
-29,
-29,
-30,
-28,
-30,
-29,
-28,
-33,
-26,
-31,
-30,
-26,
-32,
-27,
-27,
-32,
-25,
-29,
-29,
-25,
-30,
-29,
-25,
-32,
-27,
-24,
-31,
-26,
-24,
-33,
-23,
-28,
-30,
-23,
-30,
-24,
-25,
-30,
-23,
-28,
-26,
-27,
-25,
-25,
-28,
-23,
-28,
-24,
-21,
-30,
-21,
-25,
-26,
-20,
-25,
-25,
-20,
-24,
-24,
-20,
-23,
-26,
-16,
-27,
-21,
-18,
-29,
-14,
-22,
-26,
-12,
-28,
-20,
-15,
-27,
-16,
-19,
-24,
-15,
-22,
-21,
-15,
-20,
-21,
-13,
-20,
-17,
-14,
-23,
-14,
-16,
-20,
-11,
-20,
-15,
-14,
-18,
-13,
-17,
-14,
-13,
-17,
-10,
-15,
-14,
-9,
-17,
-12,
-11,
-16,
-9,
-13,
-13,
-8,
-13,
-12,
-7,
-15,
-8,
-7,
-15,
-6,
-8,
-13,
-4,
-11,
-9,
-3,
-11,
-8,
-5,
-11,
-3,
-6,
-10,
-3,
-7,
-8,
-2,
-8,
-4,
-4,
-4,
-4,
-3,
-2,
-5,
0,
-3,
-5,
3,
-6,
0,
1,
-6,
3,
-1,
-4,
4,
-2,
-2,
4,
-1,
-1,
7,
-2,
2,
9,
-5,
8,
4,
-6,
13,
-2,
3,
12,
-5,
9,
6,
0,
10,
3,
4,
9,
5,
5,
7,
5,
6,
10,
4,
8,
9,
5,
11,
7,
9,
11,
5,
13,
8,
9,
13,
4,
15,
9,
8,
17,
6,
13,
13,
6,
16,
13,
9,
16,
12,
10,
17,
12,
11,
18,
9,
16,
18,
7,
20,
14,
10,
22,
10,
15,
20,
11,
17,
17,
13,
18,
17,
15,
18,
17,
15,
18,
17,
16,
19,
18,
16,
19,
17,
16,
21,
16,
16,
23,
14,
19,
21,
13,
22,
20,
15,
23,
18,
17,
24,
17,
18,
26,
14,
21,
25,
12,
26,
20,
14,
28,
15,
21,
24,
15,
24,
19,
19,
24,
18,
21,
20,
19,
20,
20,
21,
20,
21,
20,
21,
20,
20,
22,
18,
24,
18,
19,
26,
14,
25,
22,
14,
27,
16,
20,
25,
13,
24,
22,
16,
25,
18,
17,
24,
18,
17,
25,
16,
18,
25,
14,
21,
23,
12,
24,
16,
16,
23,
14,
21,
20,
16,
19,
18,
18,
18,
20,
16,
16,
20,
15,
18,
19,
13,
20,
17,
15,
19,
16,
15,
18,
15,
14,
19,
12,
16,
18,
10,
19,
17,
9,
19,
13,
10,
20,
11,
13,
17,
9,
15,
14,
9,
17,
9,
11,
15,
8,
13,
12,
9,
13,
9,
11,
9,
9,
12,
7,
10,
11,
7,
11,
9,
6,
10,
8,
5,
11,
6,
6,
12,
1,
8,
10,
-2,
13,
3,
0,
14,
-2,
5,
9,
-3,
9,
4,
0,
7,
1,
1,
5,
1,
0,
7,
-2,
1,
6,
-6,
4,
1,
-4,
5,
-4,
0,
2,
-4,
1,
-3,
-1,
-4,
-3,
0,
-7,
0,
-5,
-6,
1,
-9,
-3,
-3,
-9,
-1,
-6,
-9,
-3,
-8,
-9,
-4,
-7,
-10,
-4,
-11,
-9,
-4,
-15,
-5,
-9,
-13,
-4,
-13,
-11,
-6,
-14,
-9,
-10,
-13,
-10,
-12,
-13,
-11,
-14,
-12,
-13,
-12,
-13,
-15,
-13,
-13,
-17,
-11,
-17,
-16,
-13,
-19,
-14,
-14,
-24,
-11,
-17,
-21,
-12,
-19,
-20,
-12,
-24,
-17,
-14,
-26,
-14,
-18,
-27,
-11,
-24,
-22,
-13,
-26,
-18,
-17,
-28,
-17,
-22,
-24,
-18,
-21,
-25,
-18,
-25,
-25,
-18,
-27,
-23,
-20,
-28,
-20,
-25,
-25,
-22,
-27,
-22,
-25,
-26,
-23,
-28,
-22,
-30,
-24,
-23,
-31,
-21,
-28,
-29,
-21,
-31,
-24,
-26,
-29,
-25,
-27,
-29,
-26,
-26,
-30,
-26,
-27,
-31,
-23,
-33,
-29,
-24,
-34,
-25,
-28,
-32,
-25,
-33,
-27,
-30,
-30,
-26,
-32,
-27,
-30,
-30,
-26,
-33,
-28,
-30,
-31,
-26,
-30,
-33,
-26,
-31,
-31,
-25,
-34,
-32,
-23,
-36,
-27,
-27,
-37,
-24,
-31,
-34,
-21,
-37,
-28,
-24,
-38,
-25,
-26,
-38,
-24,
-32,
-33,
-23,
-34,
-31,
-24,
-35,
-28,
-28,
-33,
-27,
-30,
-32,
-27,
-30,
-30,
-27,
-30,
-29,
-27,
-31,
-27,
-28,
-30,
-28,
-28,
-27,
-29,
-29,
-25,
-32,
-25,
-29,
-29,
-24,
-32,
-26,
-26,
-31,
-21,
-29,
-28,
-24,
-29,
-26,
-25,
-28,
-26,
-24,
-28,
-27,
-22,
-30,
-22,
-25,
-28,
-20,
-28,
-24,
-22,
-28,
-20,
-26,
-22,
-24,
-24,
-20,
-25,
-19,
-22,
-27,
-16,
-26,
-20,
-18,
-26,
-17,
-20,
-23,
-17,
-22,
-22,
-17,
-20,
-22,
-13,
-24,
-20,
-11,
-27,
-13,
-15,
-27,
-8,
-22,
-19,
-9,
-24,
-13,
-13,
-22,
-10,
-17,
-18,
-10,
-17,
-16,
-9,
-17,
-14,
-10,
-17,
-11,
-12,
-16,
-9,
-14,
-11,
-11,
-13,
-10,
-11,
-11,
-9,
-13,
-9,
-10,
-10,
-8,
-11,
-7,
-7,
-11,
-5,
-8,
-11,
-3,
-10,
-8,
-2,
-12,
-4,
-4,
-9,
-1,
-6,
-8,
-2,
-6,
-3,
-2,
-5,
-4,
0,
-5,
-3,
1,
-5,
1,
0,
-4,
2,
-2,
0,
0,
2,
1,
-1,
3,
-2,
3,
3,
-3,
8,
-1,
1,
11,
-4,
6,
7,
-2,
9,
2,
1,
9,
4,
3,
9,
4,
3,
12,
0,
8,
12,
-1,
14,
7,
2,
17,
1,
10,
13,
0,
13,
9,
6,
13,
7,
10,
11,
10,
11,
12,
10,
10,
14,
9,
13,
13,
11,
14,
12,
15,
11,
12,
16,
10,
17,
14,
10,
19,
10,
15,
18,
10,
19,
16,
11,
20,
14,
14,
20,
12,
16,
20,
12,
19,
19,
12,
20,
18,
16,
20,
17,
17,
19,
16,
17,
19,
17,
18,
19,
17,
19,
19,
17,
19,
20,
18,
18,
22,
17,
20,
22,
14,
25,
20,
15,
27,
15,
19,
24,
13,
24,
23,
15,
25,
19,
17,
25,
19,
18,
26,
16,
19,
27,
13,
24,
23,
14,
28,
17,
19,
27,
13,
25,
21,
17,
25,
17,
21,
20,
20,
21,
18,
21,
19,
20,
21,
19,
20,
20,
22,
18,
21,
20,
18,
24,
15,
21,
23,
13,
26,
17,
17,
26,
13,
21,
23,
13,
22,
18,
15,
21,
18,
16,
22,
17,
17,
21,
14,
19,
21,
13,
19,
16,
14,
20,
16,
16,
17,
16,
16,
17,
17,
13,
17,
16,
12,
18,
14,
13,
18,
12,
15,
17,
9,
17,
15,
8,
20,
11,
8,
19,
8,
13,
17,
6,
16,
13,
7,
15,
10,
7,
16,
8,
10,
14,
6,
10,
13,
4,
13,
8,
5,
12,
4,
11,
8,
5,
12,
3,
9,
8,
3,
10,
4,
6,
7,
2,
8,
3,
2,
7,
2,
3,
5,
2,
-1,
8,
0,
1,
7,
-6,
7,
3,
-5,
9,
-5,
-2,
6,
-7,
4,
-1,
-4,
3,
-3,
-3,
1,
-2,
-6,
0,
-3,
-6,
0,
-6,
-4,
-1,
-8,
-2,
-5,
-6,
-4,
-7,
-6,
-5,
-5,
-7,
-6,
-4,
-13,
-4,
-9,
-12,
-2,
-12,
-10,
-5,
-15,
-6,
-9,
-14,
-7,
-10,
-15,
-7,
-14,
-13,
-7,
-15,
-12,
-8,
-19,
-10,
-12,
-18,
-10,
-15,
-16,
-11,
-17,
-14,
-14,
-17,
-13,
-16,
-17,
-13,
-20,
-14,
-18,
-21,
-14,
-20,
-17,
-16,
-23,
-14,
-21,
-21,
-14,
-25,
-19,
-16,
-26,
-14,
-20,
-25,
-16,
-22,
-25,
-15,
-25,
-23,
-17,
-28,
-20,
-18,
-31,
-15,
-25,
