5-grundlagen-opAmps/data/ALL0061/A0061CH2.CSV

Memory Length,4000,
Trigger Level,-1.00000e+01,
Source,CH2,
Probe,1.0X,
Vertical Units,V,
Vertical Scale,2.00000e-01,
Vertical Position,0.00000e+00,
Horizontal Units,S,
Horizontal Scale,5.00000e-07,
Horizontal Position,0.0000000e+00,
Horizontal Mode,Main,
Sampling Period,2.00000e-09,
Firmware,V1.14,
Time, ,
Mode,Fast,
Waveform Data,
50,
50,
48,
47,
48,
50,
49,
48,
49,
49,
48,
49,
49,
50,
47,
48,
48,
50,
48,
48,
48,
51,
47,
48,
48,
49,
47,
48,
47,
49,
47,
47,
48,
47,
46,
46,
47,
48,
45,
45,
46,
47,
46,
45,
46,
45,
45,
45,
45,
45,
43,
44,
43,
45,
42,
42,
42,
43,
42,
42,
40,
41,
40,
40,
40,
40,
38,
39,
39,
40,
38,
38,
37,
38,
37,
36,
35,
36,
34,
34,
34,
35,
33,
33,
32,
34,
31,
32,
31,
30,
29,
30,
30,
28,
27,
28,
27,
28,
25,
26,
26,
26,
24,
25,
23,
24,
23,
25,
22,
22,
20,
20,
19,
19,
19,
18,
17,
18,
16,
16,
14,
16,
14,
14,
13,
13,
12,
12,
11,
11,
9,
10,
10,
10,
8,
6,
6,
7,
6,
6,
4,
5,
2,
2,
3,
2,
1,
0,
0,
1,
0,
-2,
-3,
-2,
-4,
-2,
-5,
-5,
-6,
-6,
-5,
-5,
-8,
-11,
-9,
-8,
-10,
-10,
-12,
-11,
-13,
-10,
-13,
-13,
-15,
-16,
-15,
-13,
-16,
-18,
-19,
-17,
-18,
-19,
-20,
-20,
-21,
-20,
-21,
-21,
-23,
-24,
-23,
-23,
-24,
-24,
-26,
-24,
-26,
-25,
-27,
-27,
-28,
-30,
-30,
-28,
-30,
-32,
-32,
-30,
-31,
-32,
-33,
-33,
-33,
-34,
-35,
-34,
-35,
-36,
-37,
-36,
-36,
-37,
-38,
-37,
-39,
-39,
-39,
-39,
-40,
-38,
-41,
-39,
-41,
-42,
-42,
-41,
-42,
-43,
-43,
-42,
-44,
-45,
-45,
-44,
-44,
-45,
-47,
-45,
-45,
-45,
-45,
-46,
-47,
-46,
-47,
-45,
-47,
-47,
-48,
-47,
-47,
-48,
-49,
-48,
-48,
-48,
-49,
-48,
-50,
-49,
-49,
-48,
-48,
-49,
-50,
-48,
-49,
-48,
-50,
-49,
-51,
-49,
-50,
-48,
-49,
-50,
-51,
-48,
-50,
-50,
-50,
-50,
-50,
-49,
-50,
-49,
-51,
-50,
-50,
-48,
-50,
-49,
-50,
-48,
-48,
-48,
-50,
-48,
-48,
-48,
-48,
-48,
-48,
-48,
-47,
-47,
-48,
-46,
-48,
-46,
-47,
-47,
-47,
-45,
-46,
-46,
-47,
-45,
-45,
-45,
-44,
-44,
-45,
-44,
-44,
-41,
-42,
-42,
-42,
-41,
-42,
-40,
-42,
-40,
-41,
-40,
-39,
-38,
-40,
-40,
-39,
-36,
-36,
-37,
-38,
-37,
-36,
-34,
-34,
-34,
-35,
-34,
-34,
-32,
-32,
-34,
-34,
-30,
-30,
-30,
-30,
-29,
-29,
-29,
-27,
-27,
-28,
-26,
-26,
-25,
-25,
-24,
-25,
-24,
-23,
-22,
-23,
-21,
-22,
-21,
-19,
-19,
-19,
-19,
-19,
-16,
-17,
-17,
-17,
-15,
-16,
-15,
-14,
-13,
-14,
-13,
-13,
-10,
-11,
-10,
-9,
-8,
-8,
-7,
-8,
-7,
-7,
-6,
-5,
-4,
-4,
-3,
-4,
-1,
-3,
-2,
-1,
1,
0,
0,
1,
3,
2,
2,
3,
4,
4,
6,
5,
7,
7,
7,
8,
9,
8,
10,
10,
12,
12,
13,
11,
13,
13,
14,
15,
16,
15,
16,
16,
18,
18,
18,
18,
20,
20,
21,
20,
21,
20,
21,
24,
24,
23,
26,
24,
25,
25,
27,
26,
28,
26,
29,
29,
30,
28,
29,
30,
32,
32,
32,
32,
34,
31,
33,
34,
35,
34,
35,
34,
37,
35,
36,
37,
37,
36,
38,
39,
40,
38,
38,
40,
40,
41,
41,
40,
41,
41,
42,
42,
43,
41,
42,
43,
44,
43,
42,
43,
45,
45,
44,
45,
45,
44,
45,
46,
48,
45,
46,
46,
48,
46,
47,
46,
48,
47,
48,
48,
48,
47,
47,
49,
49,
47,
47,
47,
50,
49,
49,
47,
48,
47,
49,
50,
50,
47,
47,
49,
51,
48,
47,
48,
50,
49,
49,
49,
49,
47,
48,
48,
49,
46,
46,
47,
49,
47,
46,
46,
48,
47,
46,
47,
47,
45,
46,
46,
48,
45,
45,
45,
46,
44,
45,
45,
45,
43,
44,
43,
44,
42,
42,
43,
43,
42,
42,
41,
43,
41,
40,
39,
41,
39,
39,
39,
39,
38,
38,
37,
39,
36,
36,
37,
37,
35,
34,
34,
35,
34,
34,
32,
33,
30,
32,
31,
32,
28,
29,
29,
30,
28,
28,
27,
28,
26,
27,
26,
25,
24,
25,
25,
24,
21,
22,
20,
23,
20,
20,
19,
20,
19,
18,
18,
18,
16,
16,
16,
16,
14,
14,
13,
14,
12,
12,
11,
11,
10,
10,
9,
9,
7,
7,
7,
7,
5,
6,
4,
5,
3,
3,
3,
3,
1,
1,
0,
1,
-2,
-2,
-3,
-2,
-4,
-4,
-5,
-4,
-5,
-6,
-7,
-5,
-8,
-9,
-9,
-9,
-10,
-10,
-11,
-9,
-14,
-12,
-14,
-12,
-13,
-16,
-16,
-15,
-16,
-16,
-18,
-18,
-19,
-18,
-19,
-19,
-22,
-22,
-22,
-20,
-22,
-24,
-24,
-24,
-25,
-24,
-24,
-26,
-28,
-27,
-29,
-26,
-29,
-30,
-31,
-29,
-29,
-30,
-32,
-31,
-32,
-32,
-34,
-33,
-35,
-36,
-35,
-34,
-35,
-37,
-38,
-37,
-36,
-37,
-38,
-39,
-40,
-38,
-38,
-39,
-41,
-40,
-41,
-39,
-42,
-42,
-42,
-41,
-42,
-43,
-44,
-43,
-44,
-44,
-45,
-44,
-45,
-45,
-46,
-45,
-46,
-46,
-47,
-45,
-47,
-46,
-47,
-47,
-47,
-47,
-48,
-48,
-48,
-48,
-49,
-47,
-48,
-49,
-50,
-48,
-49,
-50,
-50,
-49,
-50,
-49,
-49,
-49,
-51,
-50,
-51,
-49,
-50,
-50,
-51,
-49,
-51,
-48,
-51,
-50,
-52,
-50,
-50,
-49,
-51,
-51,
-51,
-49,
-50,
-50,
-51,
-49,
-49,
-49,
-49,
-49,
-50,
-48,
-49,
-47,
-48,
-49,
-49,
-48,
-48,
-48,
-49,
-47,
-47,
-47,
-47,
-47,
-47,
-46,
-47,
-45,
-46,
-45,
-46,
-44,
-46,
-43,
-45,
-44,
-44,
-44,
-43,
-43,
-43,
-42,
-43,
-41,
-42,
-40,
-41,
-40,
-41,
-40,
-40,
-38,
-39,
-38,
-39,
-38,
-38,
-37,
-37,
-36,
-36,
-36,
-36,
-34,
-33,
-34,
-34,
-31,
-31,
-32,
-32,
-31,
-31,
-31,
-31,
-28,
-29,
-30,
-28,
-25,
-26,
-26,
-26,
-25,
-25,
-22,
-23,
-23,
-24,
-22,
-21,
-21,
-22,
-21,
-22,
-18,
-18,
-19,
-19,
-16,
-17,
-16,
-15,
-14,
-16,
-15,
-14,
-12,
-12,
-12,
-13,
-11,
-10,
-8,
-9,
-8,
-8,
-6,
-6,
-4,
-6,
-6,
-5,
-3,
-4,
-3,
-4,
-2,
-1,
0,
-1,
1,
0,
2,
2,
3,
3,
3,
4,
5,
5,
6,
6,
8,
7,
8,
8,
9,
9,
11,
11,
12,
11,
13,
11,
15,
14,
14,
16,
16,
16,
17,
17,
19,
18,
18,
19,
20,
20,
20,
20,
24,
22,
24,
23,
24,
24,
26,
27,
26,
25,
26,
27,
28,
27,
28,
29,
32,
29,
30,
29,
30,
32,
32,
33,
33,
31,
33,
34,
36,
34,
34,
34,
36,
37,
38,
37,
38,
37,
38,
38,
40,
38,
39,
39,
41,
40,
42,
40,
43,
41,
42,
43,
44,
42,
43,
43,
45,
44,
44,
44,
45,
44,
44,
45,
46,
45,
45,
46,
46,
45,
46,
46,
48,
47,
46,
47,
49,
47,
48,
48,
48,
47,
47,
48,
49,
48,
48,
49,
49,
48,
49,
49,
50,
47,
48,
49,
51,
49,
48,
48,
50,
48,
48,
48,
49,
47,
48,
49,
49,
47,
47,
48,
49,
48,
47,
47,
48,
47,
48,
47,
47,
46,
46,
47,
48,
46,
45,
46,
48,
45,
45,
44,
45,
44,
45,
45,
46,
43,
44,
43,
45,
43,
42,
43,
43,
42,
42,
42,
41,
41,
40,
40,
40,
38,
39,
38,
40,
38,
38,
37,
38,
37,
36,
35,
36,
34,
34,
35,
35,
33,
34,
32,
35,
31,
31,
31,
31,
30,
30,
29,
28,
27,
28,
27,
27,
24,
26,
27,
25,
23,
23,
22,
24,
22,
24,
20,
21,
19,
20,
19,
19,
18,
17,
16,
17,
16,
15,
14,
15,
13,
15,
13,
13,
11,
12,
11,
11,
9,
8,
7,
8,
7,
6,
5,
5,
4,
6,
5,
3,
1,
2,
2,
3,
1,
-1,
-2,
0,
-1,
-2,
-4,
-3,
-5,
-4,
-5,
-5,
-7,
-8,
-7,
-7,
-8,
-10,
-9,
-8,
-12,
-10,
-13,
-11,
-12,
-14,
-14,
-13,
-15,
-16,
-16,
-15,
-17,
-17,
-18,
-17,
-20,
-19,
-21,
-20,
-21,
-22,
-23,
-23,
-23,
-23,
-24,
-24,
-25,
-25,
-28,
-25,
-28,
-27,
-30,
-28,
-28,
-30,
-31,
-30,
-31,
-32,
-32,
-30,
-32,
-34,
-34,
-33,
-33,
-36,
-37,
-36,
-35,
-35,
-37,
-37,
-39,
-38,
-38,
-38,
-40,
-40,
-41,
-39,
-41,
-40,
-43,
-41,
-41,
-42,
-42,
-43,
-43,
-44,
-43,
-42,
-44,
-45,
-46,
-44,
-45,
-44,
-46,
-46,
-46,
-46,
-46,
-46,
-47,
-48,
-48,
-47,
-47,
-47,
-48,
-48,
-48,
-48,
-49,
-48,
-50,
-48,
-49,
-48,
-49,
-50,
-49,
-48,
-49,
-50,
-50,
-48,
-50,
-48,
-51,
-49,
-51,
-49,
-50,
-50,
-51,
-50,
-50,
-48,
-51,
-51,
-51,
-49,
-50,
-50,
-51,
-51,
-51,
-49,
-48,
-48,
-51,
-50,
-49,
-47,
-49,
-49,
-49,
-48,
-48,
-48,
-49,
-48,
-48,
-48,
-48,
-47,
-47,
-47,
-47,
-45,
-46,
-46,
-47,
-46,
-46,
-44,
-46,
-44,
-46,
-46,
-44,
-44,
-44,
-44,
-45,
-41,
-41,
-42,
-43,
-40,
-42,
-40,
-40,
-40,
-40,
-40,
-39,
-38,
-39,
-38,
-39,
-37,
-37,
-36,
-36,
-36,
-36,
-35,
-34,
-32,
-33,
-34,
-34,
-33,
-32,
-33,
-32,
-30,
-30,
-30,
-30,
-28,
-28,
-27,
-27,
-26,
-26,
-25,
-25,
-24,
-25,
-24,
-23,
-21,
-23,
-22,
-23,
-20,
-20,
-20,
-20,
-19,
-18,
-18,
-18,
-16,
-17,
-16,
-15,
-14,
-14,
-15,
-14,
-12,
-13,
-11,
-12,
-9,
-11,
-10,
-9,
-7,
-9,
-8,
-7,
-5,
-5,
-4,
-5,
-3,
-4,
-2,
-2,
-1,
-2,
0,
1,
2,
1,
0,
1,
4,
4,
4,
4,
5,
5,
7,
7,
7,
7,
8,
9,
11,
9,
12,
11,
12,
12,
14,
11,
15,
13,
15,
16,
17,
16,
17,
17,
19,
18,
18,
19,
20,
20,
21,
20,
24,
22,
24,
25,
25,
23,
26,
26,
27,
26,
27,
27,
28,
28,
30,
29,
32,
29,
32,
31,
33,
29,
32,
34,
35,
33,
34,
33,
36,
35,
36,
35,
36,
36,
38,
38,
38,
36,
38,
39,
40,
40,
39,
39,
40,
41,
42,
40,
41,
41,
42,
43,
44,
42,
42,
43,
44,
44,
45,
44,
44,
44,
45,
46,
46,
44,
44,
46,
47,
46,
46,
45,
48,
47,
47,
47,
48,
46,
47,
49,
49,
47,
47,
48,
49,
48,
47,
47,
49,
48,
48,
49,
49,
48,
49,
48,
49,
48,
48,
49,
49,
48,
48,
49,
49,
48,
48,
49,
49,
48,
48,
49,
48,
48,
48,
48,
48,
47,
47,
47,
48,
46,
46,
46,
47,
46,
46,
46,
46,
45,
46,
45,
46,
45,
44,
44,
46,
43,
44,
42,
43,
42,
42,
42,
43,
40,
40,
41,
43,
41,
40,
40,
40,
41,
40,
38,
38,
38,
38,
37,
38,
34,
35,
35,
36,
34,
34,
34,
34,
33,
34,
32,
33,
30,
32,
31,
30,
28,
29,
29,
29,
27,
27,
27,
27,
25,
26,
26,
25,
24,
25,
23,
24,
22,
22,
20,
21,
19,
20,
19,
20,
18,
17,
17,
18,
16,
16,
14,
16,
13,
13,
13,
15,
12,
10,
9,
11,
10,
10,
8,
7,
6,
7,
8,
6,
4,
4,
4,
6,
2,
0,
0,
1,
1,
1,
-1,
-2,
-3,
-2,
-2,
-2,
-6,
-6,
-6,
-4,
-6,
-6,
-9,
-8,
-8,
-9,
-8,
-9,
-12,
-9,
-12,
-9,
-14,
-14,
-15,
-13,
-14,
-15,
-16,
-17,
-17,
-17,
-18,
-17,
-19,
-21,
-21,
-19,
-21,
-22,
-23,
-22,
-23,
-23,
-24,
-25,
-26,
-25,
-25,
-25,
-28,
-27,
-30,
-28,
-28,
-30,
-31,
-30,
-31,
-32,
-32,
-31,
-32,
-33,
-35,
-34,
-34,
-35,
-36,
-35,
-36,
-38,
-37,
-36,
-37,
-38,
-38,
-38,
-39,
-38,
-40,
-39,
-41,
-38,
-42,
-40,
-42,
-42,
-43,
-41,
-43,
-43,
-45,
-43,
-44,
-44,
-45,
-45,
-45,
-45,
-45,
-45,
-46,
-46,
-47,
-45,
-46,
-46,
-47,
-47,
-47,
-47,
-48,
-47,
-48,
-49,
-49,
-47,
-48,
-49,
-51,
-48,
-48,
-48,
-50,
-49,
-51,
-49,
-49,
-48,
-51,
-50,
-51,
-48,
-51,
-50,
-50,
-50,
-50,
-49,
-51,
-49,
-50,
-50,
-51,
-49,
-51,
-50,
-50,
-49,
-51,
-50,
-50,
-49,
-50,
-50,
-50,
-48,
-49,
-48,
-49,
-48,
-49,
-48,
-48,
-47,
-48,
-48,
-48,
-47,
-47,
-46,
-48,
-47,
-46,
-46,
-46,
-45,
-46,
-46,
-45,
-44,
-45,
-44,
-46,
-44,
-43,
-43,
-43,
-44,
-44,
-42,
-43,
-40,
-43,
-42,
-41,
-39,
-40,
-40,
-40,
-39,
-38,
-37,
-38,
-39,
-39,
-38,
-37,
-35,
-36,
-36,
-35,
-34,
-32,
-34,
-34,
-31,
-32,
-32,
-32,
-31,
-31,
-32,
-30,
-27,
-28,
-27,
-29,
-27,
-26,
-25,
-25,
-25,
-25,
-24,
-23,
-21,
-23,
-22,
-23,
-21,
-20,
-20,
-22,
-19,
-20,
-18,
-18,
-16,
-18,
-16,
-15,
-14,
-15,
-15,
-13,
-12,
-13,
-11,
-13,
-9,
-11,
-10,
-9,
-8,
-8,
-6,
-7,
-5,
-6,
-6,
-5,
-3,
-4,
-3,
-3,
-1,
-2,
-1,
0,
1,
1,
2,
2,
3,
2,
3,
3,
5,
5,
6,
6,
7,
7,
9,
9,
9,
9,
11,
12,
12,
11,
13,
11,
16,
15,
15,
15,
16,
16,
17,
17,
19,
17,
18,
19,
20,
20,
21,
19,
23,
22,
24,
24,
24,
23,
26,
26,
27,
25,
27,
28,
28,
27,
29,
28,
32,
29,
30,
30,
33,
32,
33,
33,
35,
33,
34,
34,
35,
35,
36,
35,
38,
36,
37,
38,
38,
37,
38,
38,
40,
39,
40,
40,
41,
41,
41,
41,
43,
42,
42,
41,
44,
43,
43,
43,
44,
44,
44,
44,
45,
44,
44,
45,
46,
45,
46,
45,
46,
46,
46,
47,
47,
46,
46,
48,
49,
47,
46,
47,
49,
49,
48,
47,
48,
48,
49,
49,
48,
47,
48,
50,
50,
48,
47,
49,
50,
49,
48,
49,
49,
48,
50,
48,
49,
47,
48,
48,
50,
48,
48,
48,
50,
47,
48,
48,
49,
47,
47,
47,
48,
47,
46,
46,
48,
46,
46,
46,
46,
45,
45,
45,
45,
44,
44,
45,
46,
43,
44,
43,
44,
43,
42,
42,
43,
42,
41,
41,
41,
39,
40,
39,
40,
38,
39,
39,
38,
37,
36,
38,
38,
36,
35,
35,
36,
34,
34,
33,
34,
31,
33,
32,
34,
30,
30,
30,
32,
29,
30,
29,
28,
27,
28,
27,
27,
25,
25,
25,
25,
24,
25,
22,
24,
22,
22,
21,
20,
19,
19,
19,
20,
18,
16,
16,
17,
16,
16,
14,
14,
13,
14,
13,
12,
11,
10,
11,
10,
9,
9,
8,
8,
6,
6,
6,
6,
4,
4,
3,
4,
2,
2,
1,
1,
1,
0,
1,
0,
-3,
-2,
-4,
-2,
-4,
-5,
-6,
-5,
-6,
-6,
-7,
-7,
-10,
-10,
-9,
-8,
-12,
-10,
-13,
-10,
-13,
-14,
-15,
-14,
-15,
-15,
-16,
-15,
-18,
-19,
-18,
-17,
-19,
-20,
-21,
-20,
-21,
-21,
-21,
-23,
-25,
-24,
-23,
-24,
-26,
-26,
-29,
-25,
-26,
-27,
-30,
-29,
-29,
-30,
-31,
-30,
-32,
-32,
-32,
-30,
-33,
-33,
-35,
-34,
-34,
-35,
-36,
-36,
-36,
-36,
-37,
-36,
-39,
-38,
-39,
-38,
-39,
-40,
-40,
-39,
-41,
-40,
-42,
-41,
-42,
-42,
-42,
-42,
-43,
-43,
-44,
-44,
-44,
-44,
-45,
-45,
-45,
-46,
-46,
-46,
-47,
-46,
-47,
-46,
-47,
-48,
-48,
-47,
-47,
-48,
-49,
-47,
-48,
-48,
-49,
-49,
-49,
-48,
-48,
-48,
-51,
-50,
-49,
-48,
-49,
-50,
-51,
-49,
-50,
-50,
-52,
-51,
-51,
-49,
-51,
-51,
-51,
-50,
-51,
-48,
-51,
-50,
-52,
-51,
-51,
-49,
-51,
-50,
-49,
-50,
-50,
-49,
-49,
-49,
-50,
-48,
-48,
-48,
-49,
-48,
-48,
-48,
-48,
-48,
-49,
-48,
-48,
-46,
-47,
-47,
-47,
-47,
-46,
-46,
-47,
-45,
-46,
-46,
-45,
-45,
-44,
-44,
-45,
-44,
-44,
-43,
-43,
-41,
-43,
-43,
-43,
-40,
-41,
-42,
-42,
-40,
-40,
-38,
-39,
-39,
-40,
-38,
-37,
-37,
-37,
-37,
-36,
-36,
-35,
-35,
-35,
-34,
-32,
-33,
-33,
-31,
-32,
-33,
-32,
-29,
-29,
-30,
-30,
-28,
-27,
-26,
-26,
-26,
-27,
-25,
-25,
-24,
-25,
-24,
-24,
-22,
-22,
-22,
-23,
-20,
-20,
-19,
-19,
-18,
-19,
-18,
-17,
-15,
-16,
-16,
-16,
-13,
-14,
-14,
-13,
-12,
-12,
-11,
-10,
-8,
-10,
-9,
-8,
-6,
-7,
-7,
-7,
-5,
-4,
-4,
-5,
-3,
-4,
-3,
-2,
0,
-1,
0,
0,
2,
1,
1,
2,
4,
3,
4,
4,
6,
6,
7,
7,
8,
8,
9,
10,
11,
10,
11,
13,
14,
12,
14,
12,
16,
15,
16,
15,
17,
16,
18,
19,
20,
18,
19,
19,
21,
21,
22,
23,
23,
23,
25,
25,
25,
24,
26,
27,
28,
26,
28,
27,
29,
29,
30,
30,
30,
29,
32,
32,
33,
32,
32,
33,
35,
35,
34,
34,
36,
35,
36,
38,
37,
36,
38,
38,
40,
38,
39,
38,
40,
39,
42,
40,
41,
40,
41,
42,
44,
42,
42,
42,
44,
44,
43,
43,
45,
44,
45,
45,
46,
45,
45,
46,
47,
46,
46,
46,
48,
46,
47,
48,
49,
47,
47,
47,
49,
48,
48,
47,
49,
49,
48,
48,
49,
47,
48,
49,
50,
48,
48,
48,
50,
49,
48,
48,
49,
49,
48,
49,
49,
48,
48,
48,
50,
48,
48,
48,
49,
48,
48,
49,
49,
47,
48,
49,
49,
47,
46,
47,
48,
47,
46,
46,
46,
46,
47,
47,
46,
44,
45,
45,
46,
45,
44,
43,
45,
44,
44,
43,
43,
42,
42,
42,
41,
40,
41,
41,
42,
41,
40,
40,
40,
39,
39,
38,
39,
38,
38,
37,
37,
35,
35,
35,
36,
34,
34,
33,
35,
33,
34,
32,
33,
30,
31,
30,
30,
28,
29,
29,
28,
27,
27,
26,
27,
25,
26,
25,
25,
24,
25,
22,
24,
20,
21,
20,
21,
20,
18,
18,
18,
18,
17,
17,
16,
14,
16,
15,
15,
12,
13,
12,
13,
11,
10,
9,
10,
9,
10,
8,
8,
6,
7,
6,
6,
4,
3,
3,
4,
2,
1,
0,
1,
0,
0,
-1,
-1,
-3,
-2,
-4,
-2,
-5,
-6,
-6,
-6,
-7,
-6,
-8,
-7,
-10,
-10,
-9,
-9,
-12,
-11,
-13,
-12,
-13,
-14,
-15,
-14,
-16,
-16,
-16,
-17,
-18,
-18,
-19,
-18,
-20,
-20,
-21,
-20,
-22,
-22,
-22,
-21,
-24,
-24,
-25,
-24,
-25,
-25,
-29,
-27,
-28,
-27,
-27,
-28,
-30,
-32,
-31,
-29,
-31,
-34,
-34,
-33,
-32,
-33,
-35,
-35,
-36,
-35,
-36,
-36,
-38,
-38,
-38,
-37,
-38,
-39,
-39,
-38,
-40,
-38,
-41,
-40,
-42,
-42,
-41,
-41,
-42,
-43,
-45,
-43,
-43,
-43,
-45,
-44,
-45,
-45,
-45,
-45,
-46,
-46,
-47,
-45,
-46,
-48,
-48,
-46,
-47,
-47,
-48,
-48,
-48,
-48,
-49,
-48,
-49,
-49,
-49,
-48,
-49,
-49,
-50,
-49,
-49,
-50,
-50,
-49,
-50,
-49,
-51,
-49,
-51,
-50,
-50,
-48,
-52,
-50,
-50,
-51,
-51,
-51,
-51,
-50,
-51,
-50,
-50,
-51,
-51,
-50,
-50,
-48,
-50,
-50,
-51,
-50,
-49,
-49,
-49,
-49,
-51,
-48,
-48,
-48,
-50,
-50,
-48,
-47,
-48,
-48,
-50,
-48,
-47,
-46,
-47,
-47,
-48,
-47,
-47,
-45,
-46,
-46,
-47,
-44,
-44,
-45,
-45,
-44,
-44,
-43,
-43,
-43,
-44,
-42,
-43,
-40,
-41,
-41,
-41,
-39,
-40,
-39,
-39,
-39,
-38,
-38,
-37,
-37,
-38,
-38,
-37,
-36,
-35,
-35,
-35,
-34,
-33,
-34,
-33,
-31,
-32,
-32,
-32,
-29,
-29,
-30,
-30,
-28,
-28,
-27,
-27,
-26,
-26,
-25,
-25,
-23,
-23,
-24,
-23,
-22,
-22,
-22,
-23,
-20,
-21,
-20,
-19,
-18,
-19,
-19,
-18,
-15,
-15,
-15,
-15,
-14,
-14,
-12,
-13,
-11,
-13,
-12,
-10,
-8,
-9,
-10,
-9,
-7,
-8,
-6,
-6,
-5,
-6,
-4,
-4,
-2,
-4,
-3,
-2,
-2,
0,
0,
0,
1,
1,
2,
3,
4,
3,
4,
4,
7,
6,
7,
7,
7,
8,
10,
10,
11,
10,
12,
13,
13,
12,
14,
12,
16,
15,
15,
15,
17,
16,
18,
18,
19,
19,
19,
19,
20,
20,
21,
24,
24,
23,
24,
24,
25,
24,
26,
26,
27,
26,
28,
27,
28,
28,
30,
30,
32,
31,
30,
31,
34,
33,
32,
33,
34,
33,
34,
35,
36,
35,
36,
37,
37,
37,
38,
38,
38,
38,
40,
39,
39,
39,
40,
41,
42,
40,
41,
40,
43,
42,
42,
41,
43,
43,
44,
44,
44,
43,
44,
46,
45,
45,
44,
44,
46,
45,
45,
45,
46,
45,
46,
47,
48,
46,
46,
47,
48,
47,
47,
48,
49,
49,
48,
49,
49,
47,
48,
49,
50,
48,
48,
48,
49,
48,
48,
49,
49,
48,
48,
49,
50,
48,
48,
48,
49,
47,
48,
48,
49,
47,
47,
47,
48,
47,
47,
48,
49,
47,
47,
47,
47,
46,
46,
47,
47,
45,
45,
46,
48,
44,
45,
43,
45,
45,
44,
43,
44,
42,
43,
43,
44,
42,
42,
42,
43,
42,
40,
39,
41,
40,
40,
39,
39,
38,
39,
38,
39,
37,
36,
37,
38,
36,
35,
35,
35,
34,
34,
33,
35,
32,
33,
31,
34,
31,
30,
30,
31,
28,
30,
29,
28,
26,
27,
27,
27,
25,
26,
25,
25,
22,
22,
22,
24,
22,
21,
19,
20,
20,
19,
18,
18,
18,
16,
17,
17,
14,
14,
13,
15,
13,
13,
11,
12,
11,
12,
11,
9,
7,
8,
8,
8,
6,
5,
6,
7,
4,
4,
2,
3,
2,
2,
1,
1,
-1,
-1,
-1,
0,
-3,
-3,
-5,
-3,
-5,
-5,
-5,
-5,
-8,
-7,
-7,
-7,
-10,
-11,
-10,
-8,
-12,
-10,
-14,
-13,
-13,
-14,
-14,
-14,
-17,
-16,
-15,
-15,
-18,
-19,
-20,
-18,
-19,
-20,
-22,
-21,
-22,
-22,
-22,
-23,
-24,
-24,
-24,
-24,
-26,
-26,
-26,
-26,
-28,
-26,
-29,
-28,
-29,
-31,
-32,
-29,
-31,
-32,
-32,
-31,
-32,
-32,
-35,
-34,
-35,
-35,
-35,
-36,
-36,
-37,
-38,
-37,
-37,
-38,
-39,
-38,
-40,
-39,
-41,
-40,
-41,
-40,
-41,
-40,
-42,
-42,
-43,
-43,
-43,
-44,
-44,
-43,
-44,
-46,
-46,
-44,
-45,
-46,
-48,
-46,
-46,
-46,
-46,
-46,
-48,
-47,
-47,
-47,
-47,
-48,
-49,
-47,
-48,
-48,
-50,
-48,
-49,
-48,
-49,
-48,
-49,
-49,
-50,
-49,
-50,
-50,
-49,
-48,
-50,
-49,
-51,
-50,
-50,
-50,
-51,
-49,
-50,
-50,
-50,
-48,
-51,
-50,
-51,
-49,
-49,
-49,
-50,
-49,
-49,
-50,
-50,
-49,
-50,
-48,
-49,
-48,
-49,
-49,
-49,
-48,
-48,
-48,
-49,
-47,
-47,
-47,
-48,
-47,
-48,
-46,
-47,
-46,
-47,
-47,
-46,
-44,
-46,
-45,
-46,
-45,
-45,
-44,
-44,
-44,
-45,
-43,
-43,
-40,
-42,
-43,
-42,
-40,
-40,
-40,
-42,
-40,
-41,
-39,
-39,
-37,
-39,
-38,
-38,
-36,
-36,
-36,
-37,
-36,
-35,
-34,
-34,
-32,
-34,
-34,
-33,
-31,
-32,
-33,
-32,
-29,
-29,
-30,
-31,
-28,
-28,
-26,
-26,
-26,
-27,
-25,
-26,
-24,
-24,
-24,
-24,
-23,
-22,
-21,
-23,
-20,
-21,
-19,
-19,
-18,
-18,
-18,
-16,
-15,
-16,
-16,
-15,
-13,
-14,
-14,
-14,
-11,
-12,
-11,
-11,
-9,
-9,
-8,
-9,
-7,
-8,
-7,
-5,
-5,
-6,
-5,
-5,
-2,
-3,
-3,
-2,
0,
0,
0,
0,
2,
1,
1,
2,
4,
4,
5,
4,
6,
6,
8,
7,
8,
7,
10,
10,
12,
10,
10,
11,
12,
12,
14,
12,
15,
15,
15,
16,
17,
16,
17,
19,
20,
18,
19,
18,
20,
20,
21,
22,
24,
23,
24,
24,
25,
24,
26,
27,
27,
26,
28,
27,
28,
27,
30,
30,
32,
29,
31,
31,
34,
32,
32,
33,
35,
34,
34,
34,
36,
35,
35,
35,
37,
36,
38,
38,
38,
37,
38,
40,
40,
40,
40,
39,
43,
42,
42,
41,
42,
42,
43,
42,
44,
42,
43,
45,
45,
44,
43,
43,
46,
45,
45,
45,
45,
45,
46,
47,
46,
45,
45,
47,
49,
47,
46,
46,
48,
48,
48,
48,
49,
47,
47,
49,
50,
48,
48,
49,
50,
49,
48,
48,
49,
48,
50,
49,
49,
47,
48,
49,
51,
48,
48,
48,
49,
49,
48,
48,
48,
48,
48,
48,
49,
47,
47,
47,
49,
47,
46,
46,
48,
47,
46,
46,
47,
45,
46,
45,
46,
45,
45,
45,
46,
44,
45,
44,
45,
43,
43,
43,
44,
43,
42,
41,
41,
40,
41,
41,
41,
39,
40,
40,
40,
39,
38,
38,
39,
38,
38,
36,
36,
35,
35,
34,
36,
34,
34,
33,
34,
33,
33,
32,
33,
30,
32,
31,
29,
28,
28,
28,
29,
26,
26,
26,
27,
25,
26,
25,
24,
23,
25,
47,
49,
47,
47,
