5-grundlagen-opAmps/data/ALL0061/A0061CH1.CSV

Memory Length,4000,
Trigger Level,-1.00000e+01,
Source,CH1,
Probe,1.0X,
Vertical Units,V,
Vertical Scale,5.00000e-02,
Vertical Position,0.00000e+00,
Horizontal Units,S,
Horizontal Scale,5.00000e-07,
Horizontal Position,0.0000000e+00,
Horizontal Mode,Main,
Sampling Period,2.00000e-09,
Firmware,V1.14,
Time, ,
Mode,Fast,
Waveform Data,
19,
19,
18,
12,
8,
9,
14,
16,
12,
6,
5,
9,
14,
11,
5,
4,
5,
8,
8,
4,
1,
0,
2,
4,
3,
1,
-2,
-3,
0,
1,
1,
-2,
-3,
-6,
-6,
-4,
-3,
-4,
-7,
-8,
-10,
-7,
-6,
-8,
-10,
-13,
-14,
-9,
-8,
-13,
-15,
-16,
-12,
-11,
-14,
-16,
-18,
-17,
-16,
-15,
-18,
-23,
-24,
-20,
-15,
-19,
-26,
-28,
-25,
-19,
-19,
-25,
-29,
-28,
-26,
-23,
-23,
-28,
-32,
-32,
-29,
-27,
-29,
-32,
-32,
-31,
-30,
-31,
-32,
-36,
-39,
-35,
-31,
-32,
-36,
-40,
-38,
-34,
-34,
-37,
-42,
-42,
-38,
-35,
-36,
-42,
-45,
-43,
-37,
-40,
-44,
-45,
-43,
-41,
-43,
-45,
-44,
-43,
-43,
-45,
-48,
-49,
-45,
-44,
-44,
-50,
-51,
-48,
-42,
-45,
-51,
-52,
-48,
-44,
-46,
-52,
-53,
-50,
-46,
-46,
-52,
-55,
-55,
-50,
-45,
-50,
-54,
-57,
-52,
-49,
-50,
-52,
-55,
-55,
-55,
-51,
-48,
-51,
-57,
-59,
-54,
-49,
-49,
-53,
-59,
-58,
-52,
-46,
-50,
-60,
-62,
-54,
-45,
-47,
-58,
-64,
-58,
-46,
-46,
-54,
-61,
-59,
-52,
-46,
-48,
-57,
-61,
-54,
-48,
-48,
-55,
-57,
-56,
-52,
-50,
-52,
-53,
-54,
-54,
-51,
-49,
-50,
-53,
-55,
-53,
-49,
-47,
-48,
-52,
-53,
-50,
-45,
-44,
-51,
-55,
-52,
-45,
-43,
-46,
-51,
-50,
-45,
-44,
-45,
-46,
-47,
-46,
-45,
-43,
-44,
-45,
-43,
-42,
-45,
-45,
-43,
-40,
-40,
-42,
-44,
-40,
-38,
-38,
-40,
-43,
-39,
-36,
-36,
-37,
-41,
-39,
-34,
-30,
-33,
-38,
-37,
-34,
-28,
-30,
-35,
-36,
-34,
-29,
-26,
-28,
-31,
-33,
-32,
-26,
-23,
-26,
-28,
-28,
-24,
-21,
-21,
-23,
-26,
-26,
-21,
-17,
-19,
-23,
-24,
-19,
-15,
-16,
-19,
-20,
-18,
-14,
-12,
-13,
-16,
-17,
-15,
-11,
-8,
-12,
-13,
-12,
-10,
-8,
-8,
-7,
-8,
-8,
-7,
-4,
-5,
-5,
-4,
-2,
-2,
-3,
-1,
0,
0,
0,
-1,
1,
2,
3,
3,
1,
2,
3,
9,
8,
2,
3,
7,
13,
12,
6,
4,
7,
14,
17,
11,
5,
9,
14,
20,
19,
11,
9,
14,
20,
21,
17,
13,
13,
20,
24,
23,
20,
17,
19,
24,
26,
25,
20,
19,
22,
30,
31,
26,
21,
21,
29,
36,
33,
25,
19,
27,
35,
38,
31,
23,
25,
35,
39,
37,
29,
26,
32,
40,
40,
32,
29,
35,
40,
42,
35,
31,
35,
38,
41,
40,
37,
37,
37,
41,
41,
41,
40,
39,
40,
41,
42,
44,
43,
40,
39,
42,
46,
45,
41,
40,
43,
46,
46,
44,
42,
44,
45,
45,
44,
43,
44,
48,
48,
45,
43,
48,
48,
46,
43,
44,
49,
48,
45,
42,
45,
49,
50,
48,
42,
42,
48,
53,
50,
41,
40,
45,
52,
50,
45,
41,
44,
49,
51,
47,
43,
43,
45,
48,
48,
44,
41,
45,
45,
45,
46,
44,
44,
43,
44,
48,
45,
42,
39,
41,
47,
45,
43,
40,
39,
42,
46,
46,
40,
37,
38,
42,
45,
40,
37,
38,
41,
41,
38,
38,
36,
37,
38,
36,
36,
36,
35,
36,
35,
35,
35,
36,
35,
32,
32,
32,
34,
33,
28,
27,
32,
34,
33,
26,
24,
26,
31,
32,
28,
21,
19,
25,
28,
30,
24,
18,
18,
25,
28,
24,
19,
15,
18,
24,
24,
16,
11,
14,
20,
23,
18,
12,
9,
12,
18,
19,
12,
5,
6,
12,
17,
13,
6,
3,
5,
11,
12,
9,
3,
0,
4,
9,
9,
2,
-4,
-2,
4,
7,
2,
-5,
-6,
-1,
3,
3,
-5,
-11,
-8,
0,
0,
-4,
-13,
-14,
-5,
-3,
-6,
-9,
-15,
-10,
-10,
-8,
-12,
-14,
-14,
-14,
-13,
-17,
-16,
-15,
-15,
-17,
-20,
-20,
-16,
-17,
-21,
-24,
-20,
-20,
-21,
-24,
-26,
-24,
-23,
-24,
-27,
-27,
-27,
-27,
-26,
-27,
-29,
-29,
-30,
-30,
-31,
-29,
-28,
-34,
-36,
-36,
-31,
-28,
-32,
-37,
-40,
-35,
-30,
-34,
-37,
-42,
-40,
-35,
-31,
-39,
-46,
-43,
-37,
-35,
-38,
-47,
-46,
-40,
-37,
-39,
-47,
-48,
-45,
-41,
-40,
-46,
-48,
-47,
-46,
-44,
-45,
-47,
-46,
-48,
-48,
-48,
-44,
-46,
-49,
-52,
-51,
-47,
-46,
-50,
-51,
-52,
-49,
-47,
-48,
-53,
-56,
-51,
-48,
-50,
-54,
-57,
-52,
-50,
-49,
-52,
-56,
-52,
-52,
-52,
-52,
-53,
-53,
-53,
-55,
-54,
-53,
-50,
-52,
-57,
-59,
-54,
-47,
-49,
-56,
-60,
-56,
-50,
-48,
-53,
-59,
-57,
-53,
-48,
-49,
-58,
-60,
-55,
-48,
-47,
-55,
-59,
-56,
-51,
-46,
-50,
-53,
-58,
-56,
-50,
-47,
-51,
-56,
-58,
-53,
-46,
-46,
-51,
-55,
-54,
-49,
-45,
-45,
-52,
-55,
-51,
-44,
-44,
-50,
-53,
-52,
-45,
-42,
-46,
-49,
-51,
-47,
-41,
-40,
-46,
-51,
-48,
-42,
-40,
-41,
-47,
-47,
-43,
-41,
-39,
-41,
-43,
-45,
-41,
-37,
-39,
-41,
-41,
-38,
-36,
-36,
-37,
-38,
-37,
-36,
-36,
-35,
-36,
-36,
-33,
-32,
-32,
-34,
-32,
-30,
-29,
-30,
-32,
-28,
-26,
-27,
-28,
-29,
-27,
-24,
-24,
-26,
-28,
-26,
-25,
-20,
-21,
-25,
-26,
-23,
-18,
-18,
-20,
-19,
-21,
-20,
-14,
-13,
-15,
-19,
-19,
-15,
-9,
-11,
-16,
-16,
-14,
-7,
-5,
-9,
-15,
-15,
-5,
0,
-4,
-11,
-13,
-5,
2,
2,
-5,
-10,
-4,
0,
4,
2,
-3,
-3,
3,
4,
3,
0,
1,
3,
5,
6,
3,
5,
6,
6,
9,
8,
9,
8,
8,
8,
11,
14,
14,
12,
8,
11,
18,
18,
14,
10,
13,
19,
21,
18,
16,
15,
19,
23,
22,
22,
20,
19,
22,
21,
25,
25,
24,
23,
21,
24,
29,
29,
28,
23,
25,
31,
33,
29,
24,
24,
33,
37,
36,
26,
23,
30,
39,
41,
32,
27,
28,
39,
43,
37,
32,
29,
37,
42,
41,
37,
33,
34,
39,
43,
41,
37,
37,
37,
42,
43,
41,
39,
37,
41,
47,
47,
42,
36,
40,
45,
49,
46,
39,
38,
42,
48,
49,
43,
39,
40,
48,
51,
45,
42,
41,
47,
48,
46,
44,
44,
48,
48,
47,
46,
44,
47,
49,
48,
46,
44,
48,
48,
48,
46,
45,
49,
46,
46,
44,
46,
47,
46,
48,
45,
43,
44,
48,
49,
46,
43,
44,
44,
47,
47,
45,
43,
40,
45,
48,
47,
42,
39,
41,
47,
48,
42,
39,
41,
43,
47,
44,
40,
37,
39,
46,
47,
41,
35,
36,
41,
45,
43,
38,
33,
36,
40,
43,
42,
33,
30,
35,
41,
41,
34,
29,
31,
38,
38,
36,
30,
29,
33,
37,
36,
29,
27,
29,
31,
34,
30,
25,
26,
29,
29,
28,
28,
26,
25,
25,
24,
26,
25,
23,
20,
20,
21,
24,
23,
18,
16,
20,
22,
21,
17,
13,
16,
18,
18,
17,
13,
12,
14,
16,
15,
12,
9,
9,
10,
10,
9,
9,
7,
5,
6,
10,
9,
4,
0,
0,
5,
9,
5,
-2,
-5,
-1,
6,
6,
0,
-9,
-7,
3,
5,
-1,
-10,
-10,
-4,
1,
-3,
-10,
-14,
-11,
-5,
-4,
-11,
-16,
-15,
-9,
-8,
-11,
-15,
-17,
-16,
-13,
-13,
-14,
-15,
-19,
-20,
-19,
-15,
-17,
-22,
-25,
-22,
-19,
-20,
-24,
-28,
-25,
-23,
-21,
-25,
-29,
-29,
-27,
-23,
-27,
-33,
-33,
-29,
-26,
-29,
-34,
-33,
-31,
-29,
-34,
-36,
-36,
-34,
-32,
-35,
-38,
-39,
-36,
-32,
-38,
-42,
-43,
-37,
-32,
-37,
-42,
-45,
-41,
-36,
-37,
-40,
-45,
-45,
-42,
-40,
-43,
-46,
-47,
-44,
-43,
-43,
-45,
-47,
-47,
-46,
-44,
-43,
-47,
-53,
-52,
-46,
-42,
-45,
-52,
-55,
-51,
-45,
-42,
-48,
-56,
-56,
-48,
-44,
-45,
-55,
-59,
-52,
-46,
-46,
-52,
-57,
-55,
-50,
-46,
-49,
-55,
-58,
-54,
-48,
-49,
-54,
-57,
-56,
-51,
-49,
-52,
-55,
-57,
-57,
-52,
-51,
-52,
-57,
-58,
-55,
-51,
-51,
-53,
-55,
-55,
-56,
-53,
-52,
-52,
-55,
-56,
-53,
-53,
-52,
-52,
-53,
-53,
-55,
-52,
-50,
-52,
-55,
-54,
-50,
-49,
-50,
-53,
-54,
-51,
-48,
-48,
-51,
-54,
-53,
-49,
-45,
-46,
-50,
-52,
-51,
-47,
-46,
-45,
-49,
-51,
-49,
-45,
-42,
-45,
-50,
-51,
-47,
-41,
-42,
-45,
-48,
-47,
-40,
-36,
-41,
-47,
-49,
-42,
-35,
-38,
-44,
-47,
-42,
-35,
-33,
-37,
-44,
-42,
-37,
-31,
-34,
-40,
-40,
-37,
-32,
-32,
-36,
-36,
-34,
-30,
-32,
-31,
-31,
-30,
-30,
-29,
-28,
-28,
-28,
-28,
-28,
-25,
-24,
-24,
-26,
-27,
-23,
-22,
-18,
-22,
-25,
-22,
-19,
-17,
-20,
-21,
-17,
-17,
-17,
-19,
-18,
-15,
-13,
-14,
-17,
-16,
-13,
-8,
-9,
-15,
-17,
-9,
-2,
-3,
-13,
-15,
-9,
-2,
0,
-8,
-11,
-9,
-2,
4,
0,
-8,
-9,
-1,
5,
3,
-1,
-5,
-1,
5,
6,
5,
1,
1,
2,
8,
11,
7,
3,
3,
6,
12,
14,
11,
6,
6,
11,
18,
17,
10,
7,
14,
19,
21,
13,
8,
13,
22,
27,
21,
14,
13,
20,
27,
27,
20,
16,
21,
26,
29,
25,
22,
22,
26,
28,
28,
26,
26,
26,
28,
29,
30,
31,
28,
28,
29,
32,
35,
33,
31,
30,
34,
36,
35,
33,
31,
33,
37,
37,
38,
36,
34,
37,
40,
40,
38,
36,
36,
37,
42,
42,
40,
38,
37,
40,
44,
44,
41,
37,
38,
43,
46,
43,
40,
38,
42,
47,
48,
45,
40,
40,
47,
49,
46,
40,
40,
45,
49,
49,
45,
43,
42,
46,
52,
50,
43,
40,
43,
51,
50,
46,
43,
44,
48,
49,
49,
45,
43,
46,
49,
49,
45,
42,
47,
49,
49,
45,
44,
46,
46,
48,
48,
46,
44,
45,
47,
45,
45,
45,
45,
45,
45,
44,
47,
47,
44,
43,
42,
45,
45,
45,
44,
42,
40,
41,
43,
44,
43,
40,
39,
41,
42,
42,
42,
40,
36,
39,
44,
43,
35,
33,
36,
44,
44,
36,
28,
29,
41,
43,
39,
28,
26,
33,
42,
41,
29,
24,
28,
37,
38,
32,
25,
24,
31,
34,
32,
26,
24,
25,
29,
31,
28,
24,
23,
22,
26,
28,
24,
20,
17,
19,
28,
25,
19,
13,
14,
21,
26,
19,
12,
9,
15,
21,
20,
14,
7,
9,
17,
17,
11,
5,
7,
13,
12,
8,
7,
5,
8,
8,
7,
4,
4,
5,
4,
3,
2,
2,
3,
1,
-2,
-2,
1,
1,
-2,
-6,
-6,
-1,
0,
-2,
-8,
-9,
-8,
-5,
-4,
-7,
-11,
-13,
-7,
-8,
-9,
-12,
-14,
-13,
-12,
-13,
-13,
-14,
-17,
-18,
-16,
-13,
-16,
-20,
-24,
-20,
-16,
-17,
-20,
-27,
-26,
-21,
-16,
-19,
-27,
-32,
-26,
-19,
-20,
-27,
-32,
-32,
-25,
-24,
-28,
-33,
-35,
-32,
-29,
-29,
-33,
-36,
-34,
-31,
-31,
-35,
-37,
-36,
-35,
-35,
-36,
-36,
-38,
-40,
-38,
-37,
-38,
-40,
-41,
-41,
-41,
-41,
-41,
-40,
-42,
-44,
-44,
-42,
-41,
-43,
-44,
-45,
-45,
-46,
-44,
-44,
-46,
-48,
-48,
-46,
-45,
-46,
-50,
-51,
-47,
-46,
-46,
-48,
-52,
-53,
-49,
-46,
-48,
-53,
-56,
-51,
-46,
-47,
-51,
-56,
-56,
-51,
-46,
-47,
-54,
-60,
-56,
-48,
-46,
-51,
-60,
-60,
-52,
-46,
-48,
-56,
-61,
-58,
-48,
-46,
-53,
-61,
-60,
-52,
-46,
-50,
-57,
-59,
-55,
-48,
-48,
-53,
-59,
-59,
-53,
-48,
-51,
-56,
-57,
-56,
-51,
-49,
-51,
-55,
-58,
-57,
-50,
-48,
-50,
-57,
-58,
-53,
-47,
-47,
-52,
-55,
-54,
-48,
-46,
-49,
-54,
-54,
-49,
-44,
-48,
-53,
-53,
-48,
-45,
-45,
-48,
-49,
-47,
-46,
-47,
-46,
-46,
-44,
-44,
-47,
-46,
-45,
-40,
-40,
-45,
-49,
-45,
-39,
-39,
-43,
-46,
-45,
-38,
-36,
-41,
-43,
-43,
-39,
-35,
-36,
-41,
-41,
-37,
-34,
-32,
-37,
-37,
-36,
-32,
-32,
-32,
-31,
-33,
-35,
-32,
-28,
-26,
-30,
-34,
-33,
-27,
-23,
-23,
-29,
-30,
-28,
-21,
-19,
-24,
-29,
-28,
-20,
-17,
-20,
-27,
-26,
-18,
-15,
-16,
-20,
-20,
-18,
-14,
-12,
-16,
-19,
-15,
-11,
-12,
-14,
-14,
-11,
-10,
-12,
-12,
-9,
-7,
-8,
-9,
-10,
-7,
-4,
-3,
-4,
-8,
-8,
-3,
0,
0,
-3,
-3,
0,
1,
2,
2,
1,
2,
3,
4,
6,
5,
3,
4,
6,
9,
9,
7,
4,
7,
11,
16,
13,
9,
4,
9,
19,
18,
13,
9,
9,
18,
24,
20,
14,
11,
16,
24,
24,
18,
14,
18,
25,
30,
24,
18,
19,
25,
31,
30,
23,
18,
20,
29,
35,
30,
24,
22,
27,
34,
35,
30,
26,
26,
33,
38,
36,
30,
27,
30,
37,
39,
35,
33,
32,
37,
38,
39,
37,
34,
36,
40,
41,
38,
36,
37,
39,
42,
42,
40,
37,
38,
40,
44,
45,
41,
39,
40,
44,
45,
42,
43,
43,
43,
43,
44,
45,
45,
46,
44,
44,
43,
45,
48,
45,
43,
42,
48,
50,
46,
42,
43,
48,
49,
48,
42,
41,
46,
51,
51,
46,
41,
43,
50,
52,
47,
41,
41,
48,
50,
48,
45,
44,
45,
46,
48,
48,
45,
44,
45,
46,
48,
46,
45,
44,
44,
46,
49,
47,
41,
41,
47,
49,
47,
40,
39,
44,
48,
48,
42,
38,
39,
44,
47,
44,
38,
38,
42,
44,
41,
38,
39,
41,
40,
37,
39,
40,
42,
38,
35,
35,
38,
40,
39,
35,
32,
34,
40,
38,
32,
29,
32,
39,
36,
31,
27,
28,
34,
35,
30,
27,
26,
27,
33,
31,
29,
24,
23,
24,
29,
30,
26,
21,
20,
22,
25,
27,
21,
15,
17,
23,
29,
21,
13,
11,
18,
26,
23,
14,
6,
11,
21,
24,
14,
4,
5,
15,
20,
16,
7,
1,
6,
14,
13,
9,
2,
2,
7,
11,
8,
2,
0,
1,
5,
5,
3,
-1,
-3,
0,
3,
1,
-2,
-7,
-6,
-2,
0,
-3,
-7,
-9,
-8,
-5,
-4,
-8,
-12,
-12,
-8,
-8,
-9,
-12,
-12,
-12,
-12,
-12,
-14,
-14,
-15,
-18,
-19,
-17,
-17,
-17,
-20,
-19,
-19,
-21,
-20,
-19,
-22,
-24,
-26,
-23,
-22,
-23,
-27,
-28,
-26,
-25,
-28,
-28,
-31,
-30,
-28,
-26,
-29,
-34,
-37,
-32,
-27,
-29,
-35,
-37,
-39,
-33,
-29,
-32,
-39,
-41,
-38,
-35,
-32,
-39,
-44,
-41,
-36,
-37,
-40,
-44,
-44,
-41,
-40,
-38,
-42,
-46,
-47,
-43,
-41,
-41,
-46,
-47,
-47,
-45,
-43,
-43,
-47,
-52,
-49,
-44,
-43,
-47,
-52,
-51,
-49,
-46,
-47,
-50,
-51,
-50,
-48,
-48,
-50,
-53,
-52,
-49,
-50,
-52,
-52,
-49,
-51,
-52,
-54,
-53,
-49,
-51,
-55,
-56,
-52,
-48,
-50,
-55,
-60,
-56,
-48,
-46,
-53,
-60,
-59,
-51,
-46,
-50,
-58,
-60,
-54,
-48,
-49,
-53,
-59,
-57,
-52,
-50,
-52,
-57,
-56,
-54,
-51,
-50,
-52,
-55,
-55,
-54,
-50,
-48,
-52,
-58,
-58,
-52,
-46,
-46,
-56,
-60,
-54,
-48,
-43,
-48,
-58,
-59,
-50,
-42,
-46,
-56,
-58,
-50,
-43,
-42,
-51,
-54,
-50,
-44,
-41,
-46,
-52,
-52,
-46,
-42,
-44,
-48,
-49,
-46,
-43,
-44,
-44,
-44,
-44,
-45,
-44,
-41,
-41,
-43,
-44,
-43,
-40,
-39,
-39,
-40,
-40,
-40,
-36,
-37,
-38,
-40,
-37,
-34,
-36,
-37,
-36,
-34,
-31,
-34,
-35,
-33,
-30,
-29,
-32,
-32,
-30,
-29,
-28,
-28,
-31,
-30,
-26,
-20,
-25,
-30,
-31,
-26,
-19,
-20,
-27,
-29,
-23,
-18,
-16,
-17,
-24,
-24,
-16,
-15,
-15,
-19,
-20,
-17,
-13,
-12,
-13,
-15,
-16,
-13,
-8,
-8,
-11,
-14,
-12,
-8,
-4,
-6,
-9,
-10,
-8,
-4,
-2,
-4,
-7,
-8,
-2,
2,
1,
-3,
-4,
-2,
2,
4,
4,
1,
1,
2,
6,
8,
5,
3,
4,
5,
9,
9,
7,
7,
8,
12,
11,
10,
9,
9,
16,
12,
15,
14,
12,
15,
14,
17,
19,
19,
18,
16,
17,
20,
23,
24,
19,
16,
21,
26,
28,
23,
17,
18,
26,
33,
30,
22,
19,
24,
33,
34,
28,
22,
26,
33,
37,
33,
26,
24,
32,
38,
38,
31,
26,
30,
37,
39,
39,
33,
32,
33,
37,
44,
39,
34,
34,
35,
42,
42,
39,
35,
35,
40,
47,
44,
36,
34,
41,
48,
47,
40,
35,
37,
47,
48,
43,
38,
38,
44,
49,
47,
41,
39,
44,
48,
46,
43,
43,
46,
46,
46,
44,
45,
46,
46,
45,
45,
45,
46,
49,
46,
45,
44,
48,
49,
46,
44,
45,
49,
47,
45,
44,
47,
48,
46,
48,
47,
45,
46,
44,
47,
47,
48,
47,
43,
42,
46,
51,
48,
42,
39,
44,
51,
49,
42,
37,
41,
48,
49,
44,
40,
37,
44,
49,
47,
37,
36,
42,
48,
46,
40,
37,
36,
43,
44,
41,
37,
36,
37,
40,
43,
39,
35,
35,
36,
40,
39,
37,
34,
32,
33,
38,
40,
33,
30,
29,
35,
36,
33,
28,
27,
32,
33,
31,
28,
26,
28,
30,
33,
28,
24,
24,
25,
28,
27,
24,
24,
21,
21,
23,
24,
25,
20,
17,
18,
21,
21,
21,
17,
14,
14,
19,
21,
14,
10,
12,
15,
17,
15,
12,
7,
10,
13,
15,
11,
3,
2,
9,
13,
11,
3,
-1,
1,
8,
10,
5,
-2,
-3,
2,
6,
5,
-1,
-7,
-5,
0,
2,
-2,
-8,
-9,
-5,
-1,
-2,
-6,
-11,
-10,
-4,
-5,
-8,
-13,
-14,
-11,
-8,
-8,
-13,
-17,
-19,
-14,
-8,
-11,
-17,
-22,
-20,
-14,
-13,
-17,
-24,
-24,
-19,
-17,
-19,
-24,
-25,
-24,
-20,
-22,
-25,
-28,
-27,
-21,
-23,
-28,
-32,
-27,
-26,
-27,
-31,
-32,
-30,
-29,
-32,
-33,
-35,
-33,
-30,
-32,
-38,
-39,
-36,
-32,
-32,
-38,
-42,
-38,
-35,
-35,
-39,
-40,
-42,
-40,
-37,
-39,
-41,
-43,
-45,
-42,
-41,
-40,
-41,
-45,
-47,
-44,
-41,
-39,
-46,
-51,
-49,
-43,
-39,
-46,
-52,
-53,
-46,
-40,
-45,
-52,
-55,
-51,
-41,
-42,
-51,
-58,
-56,
-46,
-43,
-48,
-55,
-58,
-50,
-47,
-49,
-52,
-54,
-53,
-51,
-50,
-51,
-54,
-54,
-54,
-52,
-52,
-52,
-52,
-56,
-56,
-52,
-49,
-52,
-56,
-59,
-55,
-49,
-50,
-55,
-59,
-56,
-52,
-50,
-52,
-57,
-58,
-54,
-50,
-52,
-55,
-57,
-54,
-53,
-54,
-52,
-52,
-52,
-54,
-55,
-53,
-51,
-50,
-52,
-55,
-53,
-50,
-47,
-49,
-55,
-55,
-49,
-46,
-49,
-55,
-57,
-50,
-43,
-45,
-50,
-55,
-53,
-46,
-44,
-45,
-51,
-55,
-50,
-43,
-42,
-46,
-51,
-49,
-45,
-42,
-42,
-46,
-49,
-47,
-41,
-39,
-43,
-47,
-47,
-41,
-38,
-38,
-41,
-45,
-43,
-39,
-35,
-36,
-42,
-44,
-40,
-33,
-32,
-38,
-40,
-38,
-32,
-33,
-33,
-35,
-38,
-35,
-30,
-29,
-31,
-33,
-32,
-29,
-28,
-30,
-31,
-29,
-27,
-26,
-27,
-28,
-27,
-26,
-25,
-21,
-24,
-25,
-24,
-23,
-20,
-22,
-24,
-18,
-17,
-19,
-21,
-20,
-15,
-14,
-14,
-17,
-20,
-17,
-10,
-8,
-12,
-17,
-16,
-9,
-6,
-8,
-13,
-14,
-9,
-5,
-3,
-6,
-10,
-8,
-4,
1,
-1,
-5,
-7,
-3,
1,
3,
0,
-2,
-3,
1,
7,
6,
2,
-3,
-1,
7,
12,
8,
3,
-1,
5,
14,
17,
8,
3,
4,
13,
20,
13,
5,
4,
13,
19,
18,
13,
9,
14,
20,
21,
18,
14,
17,
20,
22,
21,
19,
19,
21,
21,
24,
24,
24,
22,
19,
24,
28,
31,
28,
24,
23,
29,
33,
33,
27,
26,
27,
34,
35,
32,
29,
29,
34,
35,
33,
33,
32,
35,
36,
36,
36,
34,
34,
36,
37,
38,
40,
40,
35,
33,
38,
43,
45,
37,
32,
37,
44,
48,
41,
35,
37,
44,
48,
45,
40,
36,
42,
50,
47,
42,
37,
41,
50,
48,
44,
41,
41,
46,
48,
48,
45,
42,
42,
47,
50,
48,
45,
43,
45,
47,
48,
48,
44,
42,
43,
48,
51,
47,
43,
43,
48,
49,
47,
45,
44,
46,
49,
48,
46,
43,
46,
48,
48,
45,
43,
47,
48,
47,
45,
44,
46,
46,
44,
44,
45,
46,
47,
44,
43,
42,
43,
47,
47,
42,
38,
40,
45,
46,
43,
38,
38,
41,
43,
44,
41,
36,
36,
41,
45,
40,
34,
35,
37,
43,
41,
36,
31,
33,
38,
43,
40,
32,
28,
32,
40,
39,
32,
25,
28,
35,
38,
36,
28,
26,
27,
35,
36,
31,
24,
23,
29,
33,
31,
24,
19,
23,
28,
29,
24,
17,
18,
24,
28,
26,
16,
14,
16,
23,
24,
20,
13,
13,
16,
19,
20,
13,
11,
14,
15,
15,
13,
11,
12,
10,
10,
11,
9,
9,
8,
6,
6,
9,
8,
5,
3,
2,
5,
7,
4,
0,
-2,
1,
4,
2,
-3,
-4,
-4,
1,
1,
-3,
-5,
-6,
-6,
-6,
-5,
-7,
-9,
-7,
-12,
-10,
-8,
-9,
-10,
-16,
-15,
-8,
-9,
-12,
-20,
-21,
-14,
-9,
-15,
-21,
-24,
-18,
-14,
-14,
-22,
-27,
-25,
-16,
-14,
-21,
-29,
-29,
-24,
-19,
-23,
-28,
-31,
-27,
-25,
-27,
-28,
-29,
-29,
-29,
-29,
-31,
-32,
-32,
-33,
-32,
-33,
-33,
-32,
-35,
-37,
-37,
-34,
-34,
-38,
-41,
-40,
-35,
-37,
-37,
-41,
-41,
-39,
-39,
-40,
-42,
-43,
-41,
-41,
-43,
-44,
-44,
-42,
-44,
-47,
-47,
-44,
-39,
-44,
-50,
-49,
-46,
-41,
-43,
-48,
-53,
-50,
-44,
-43,
-49,
-54,
-53,
-46,
-44,
-48,
-53,
-56,
-51,
-46,
-47,
-51,
-55,
-56,
-48,
-47,
-49,
-55,
-58,
-54,
-48,
-48,
-51,
-56,
-58,
-54,
-48,
-48,
-53,
-58,
-59,
-51,
-47,
-50,
-58,
-60,
-54,
-48,
-48,
-55,
-61,
-58,
-52,
-47,
-52,
-60,
-61,
-54,
-47,
-48,
-55,
-60,
-57,
-51,
-49,
-50,
-57,
-58,
-53,
-49,
-49,
-53,
-55,
-54,
-51,
-50,
-50,
-52,
-53,
-53,
-52,
-49,
-52,
-52,
-52,
-51,
-49,
-50,
-49,
-49,
-50,
-48,
-50,
-48,
-47,
-49,
-50,
-49,
-46,
-45,
-44,
-48,
-49,
-47,
-42,
-40,
-44,
-47,
-47,
-43,
-39,
-41,
-45,
-44,
-43,
-40,
-40,
-39,
-41,
-42,
-40,
-37,
-37,
-38,
-40,
-38,
-38,
-36,
-34,
-36,
-39,
-39,
-34,
-29,
-31,
-37,
-39,
-34,
-27,
-25,
-32,
-37,
-35,
-27,
-21,
-26,
-32,
-33,
-27,
-20,
-22,
-28,
-30,
-27,
-19,
-21,
-26,
-24,
-23,
-19,
-19,
-19,
-20,
-21,
-16,
-16,
-17,
-17,
-18,
-14,
-15,
-16,
-13,
-12,
-11,
-14,
-14,
-11,
-8,
-7,
-10,
-11,
-11,
-8,
-4,
-5,
-6,
-7,
-4,
-2,
-4,
-3,
-2,
-2,
-3,
-2,
0,
4,
3,
-2,
-2,
3,
6,
7,
1,
0,
3,
11,
14,
7,
1,
2,
12,
17,
11,
3,
1,
12,
21,
18,
12,
4,
11,
18,
23,
18,
10,
10,
21,
21,
23,
17,
14,
18,
21,
24,
23,
20,
18,
22,
27,
29,
25,
19,
20,
27,
33,
32,
26,
20,
22,
32,
38,
33,
25,
21,
29,
38,
37,
30,
26,
29,
37,
38,
35,
29,
32,
36,
40,
38,
33,
33,
38,
40,
39,
36,
36,
39,
40,
38,
40,
39,
39,
39,
41,
41,
41,
41,
43,
41,
41,
41,
43,
44,
42,
39,
41,
45,
46,
44,
41,
42,
43,
46,
48,
45,
43,
42,
44,
48,
47,
45,
43,
45,
46,
47,
49,
44,
43,
45,
49,
50,
46,
43,
43,
48,
51,
49,
44,
42,
45,
48,
51,
49,
42,
41,
47,
51,
48,
45,
43,
44,
48,
49,
48,
44,
41,
45,
49,
48,
44,
40,
42,
48,
48,
45,
41,
42,
45,
46,
45,
42,
41,
41,
44,
45,
42,
41,
42,
43,
41,
40,
43,
43,
41,
37,
37,
40,
42,
40,
37,
36,
36,
40,
40,
38,
35,
33,
37,
38,
36,
33,
32,
34,
36,
35,
34,
31,
31,
32,
35,
35,
32,
26,
25,
30,
34,
32,
25,
21,
21,
29,
35,
28,
18,
16,
24,
32,
30,
20,
12,
16,
26,
29,
20,
12,
13,
19,
27,
22,
12,
8,
16,
21,
19,
12,
9,
9,
14,
17,
13,
11,
6,
8,
12,
13,
11,
5,
4,
5,
9,
10,
8,
3,
0,
2,
9,
8,
0,
-4,
-3,
3,
4,
0,
-5,
-5,
0,
1,
-1,
-9,
-9,
-5,
0,
-3,
-9,
-13,
-9,
-4,
-7,
-12,
-14,
-10,
-9,
-14,
-15,
-15,
-12,
-13,
-15,
-19,
-19,
-15,
-13,
-16,
-22,
-22,
-19,
-16,
-19,
-24,
-26,
-23,
-20,
-22,
-26,
-27,
-26,
-24,
-24,
-26,
-28,
-29,
-29,
-27,
-26,
-29,
-32,
-33,
-31,
-29,
-28,
-32,
-38,
-38,
-34,
-29,
-30,
-37,
-41,
-38,
-32,
-30,
-36,
-41,
-43,
-39,
-35,
-36,
-41,
-46,
-44,
17,
25,
26,
22,
