5-grundlagen-opAmps/data/ALL0022/A0022CH1.CSV

Memory Length,4000,
Trigger Level,0.00000e+00,
Source,CH1,
Probe,1.0X,
Vertical Units,V,
Vertical Scale,5.00000e-02,
Vertical Position,0.00000e+00,
Horizontal Units,S,
Horizontal Scale,1.00000e-02,
Horizontal Position,1.0000000e-02,
Horizontal Mode,Main,
Sampling Period,4.00000e-05,
Firmware,V1.14,
Time, ,
Mode,Fast,
Waveform Data,
-12,
-12,
-1,
-2,
-19,
-14,
-1,
-15,
-3,
-8,
-23,
-19,
-3,
-19,
-4,
-18,
-5,
-8,
-23,
-18,
-4,
-8,
-24,
-18,
-7,
-15,
-26,
-11,
-27,
-15,
-27,
-16,
-28,
-24,
-9,
-11,
-29,
-20,
-20,
-17,
-29,
-16,
-29,
-20,
-31,
-21,
-21,
-21,
-32,
-26,
-12,
-24,
-13,
-19,
-31,
-23,
-23,
-17,
-32,
-30,
-14,
-23,
-23,
-23,
-35,
-31,
-17,
-32,
-16,
-29,
-17,
-32,
-17,
-32,
-17,
-27,
-27,
-24,
-37,
-32,
-19,
-24,
-36,
-26,
-37,
-28,
-28,
-23,
-37,
-31,
-19,
-24,
-39,
-29,
-29,
-30,
-18,
-34,
-19,
-32,
-18,
-29,
-29,
-26,
-38,
-24,
-37,
-33,
-19,
-28,
-39,
-25,
-38,
-36,
-19,
-35,
-19,
-28,
-28,
-28,
-28,
-26,
-38,
-26,
-37,
-35,
-20,
-29,
-29,
-24,
-37,
-31,
-20,
-24,
-39,
-25,
-37,
-31,
-18,
-29,
-17,
-24,
-35,
-26,
-26,
-28,
-17,
-28,
-16,
-24,
-35,
-25,
-25,
-23,
-34,
-20,
-34,
-31,
-16,
-20,
-32,
-27,
-15,
-29,
-14,
-23,
-23,
-18,
-32,
-20,
-31,
-28,
-11,
-23,
-12,
-15,
-30,
-22,
-11,
-16,
-29,
-19,
-19,
-18,
-18,
-24,
-9,
-15,
-26,
-17,
-17,
-19,
-7,
-19,
-6,
-17,
-17,
-19,
-7,
-13,
-24,
-12,
-24,
-11,
-24,
-17,
-3,
-11,
-11,
-11,
-11,
-13,
-2,
-6,
-20,
-11,
-11,
-14,
-1,
-11,
1,
-3,
-16,
-12,
1,
-1,
-16,
-11,
3,
-4,
-4,
-5,
-5,
-7,
6,
-5,
-5,
-6,
7,
5,
-12,
-6,
7,
-4,
8,
-8,
9,
2,
2,
-1,
10,
-4,
11,
5,
-7,
4,
4,
1,
12,
4,
4,
3,
14,
7,
-4,
1,
16,
3,
15,
4,
16,
5,
16,
10,
10,
11,
-1,
4,
17,
7,
18,
8,
20,
9,
9,
8,
20,
3,
21,
15,
3,
16,
3,
13,
13,
10,
24,
11,
23,
11,
24,
23,
6,
15,
15,
17,
6,
11,
25,
13,
24,
15,
15,
13,
25,
13,
27,
21,
9,
20,
9,
22,
9,
16,
28,
16,
27,
20,
9,
21,
10,
21,
21,
20,
20,
12,
31,
18,
29,
17,
31,
19,
19,
24,
12,
14,
30,
16,
29,
20,
20,
16,
29,
19,
30,
16,
31,
18,
30,
19,
30,
21,
21,
19,
19,
20,
20,
22,
22,
24,
11,
24,
12,
25,
11,
20,
20,
17,
30,
23,
11,
22,
11,
19,
19,
25,
11,
22,
10,
19,
19,
20,
20,
17,
17,
17,
17,
17,
17,
14,
26,
15,
27,
26,
8,
16,
16,
16,
16,
15,
26,
13,
26,
19,
6,
21,
6,
17,
6,
11,
24,
13,
13,
13,
13,
9,
21,
17,
4,
11,
11,
8,
21,
7,
20,
8,
19,
14,
0,
8,
20,
13,
0,
3,
18,
5,
17,
14,
-1,
-1,
15,
0,
16,
8,
-4,
4,
15,
12,
-5,
0,
13,
5,
-6,
4,
-8,
3,
-8,
4,
-8,
1,
1,
-2,
9,
-1,
-1,
-5,
8,
-4,
7,
2,
-11,
-8,
6,
-3,
-3,
-9,
5,
-2,
-14,
-6,
-6,
-5,
-5,
-7,
-7,
-11,
0,
-4,
-16,
-15,
1,
-16,
-1,
-8,
-19,
-10,
-10,
-14,
0,
-13,
-13,
-19,
-3,
-9,
-21,
-11,
-22,
-15,
-15,
-17,
-6,
-17,
-17,
-19,
-7,
-16,
-16,
-12,
-27,
-23,
-8,
-19,
-8,
-23,
-10,
-19,
-19,
-13,
-28,
-26,
-11,
-18,
-29,
-20,
-20,
-16,
-31,
-13,
-30,
-26,
-12,
-22,
-22,
-23,
-23,
-17,
-33,
-19,
-33,
-16,
-33,
-25,
-25,
-22,
-33,
-30,
-16,
-30,
-17,
-22,
-34,
-32,
-16,
-27,
-16,
-25,
-36,
-19,
-36,
-29,
-29,
-23,
-37,
-28,
-28,
-24,
-37,
-23,
-39,
-24,
-38,
-24,
-37,
-35,
-20,
-22,
-38,
-33,
-20,
-32,
-19,
-30,
-19,
-35,
-19,
-29,
-29,
-26,
-38,
-30,
-30,
-27,
-38,
-22,
-37,
-27,
-27,
-25,
-37,
-24,
-38,
-25,
-38,
-31,
-20,
-28,
-39,
-27,
-27,
-27,
-38,
-30,
-18,
-23,
-36,
-24,
-35,
-33,
-19,
-31,
-16,
-28,
-28,
-28,
-16,
-29,
-18,
-34,
-16,
-21,
-35,
-29,
-16,
-21,
-33,
-26,
-26,
-28,
-15,
-29,
-16,
-19,
-33,
-26,
-15,
-29,
-14,
-27,
-13,
-16,
-31,
-17,
-30,
-13,
-31,
-20,
-31,
-26,
-12,
-25,
-11,
-27,
-11,
-16,
-27,
-19,
-8,
-16,
-27,
-15,
-15,
-15,
-26,
-13,
-24,
-19,
-7,
-11,
-23,
-15,
-15,
-20,
-5,
-17,
-4,
-14,
-14,
-10,
-10,
-12,
-12,
-8,
-19,
-12,
-1,
-19,
0,
-3,
-19,
-8,
-8,
-9,
-9,
-11,
2,
-8,
-8,
-14,
3,
-5,
-5,
-9,
5,
-8,
5,
-8,
6,
1,
-12,
-3,
-3,
1,
-11,
-2,
9,
-8,
9,
-3,
9,
0,
0,
3,
-8,
5,
-7,
2,
2,
9,
-5,
9,
-6,
4,
4,
3,
3,
6,
6,
12,
-3,
8,
8,
9,
-3,
8,
8,
8,
8,
5,
18,
5,
19,
15,
2,
14,
0,
7,
20,
11,
11,
14,
3,
9,
21,
15,
15,
15,
4,
18,
4,
15,
15,
14,
14,
17,
6,
14,
14,
16,
16,
16,
16,
12,
25,
16,
16,
15,
15,
15,
27,
23,
9,
18,
18,
18,
18,
25,
9,
23,
10,
21,
9,
25,
11,
20,
20,
16,
29,
20,
20,
21,
21,
20,
20,
25,
12,
24,
11,
17,
29,
21,
21,
25,
12,
21,
9,
23,
12,
23,
12,
24,
12,
26,
12,
20,
20,
17,
29,
22,
11,
20,
20,
16,
30,
25,
12,
18,
29,
21,
21,
25,
10,
27,
11,
28,
12,
24,
10,
24,
9,
17,
28,
20,
9,
23,
9,
19,
19,
23,
9,
17,
28,
19,
19,
16,
16,
17,
17,
22,
7,
15,
15,
14,
14,
10,
24,
16,
5,
11,
24,
18,
4,
12,
12,
18,
3,
15,
4,
15,
4,
5,
21,
17,
2,
11,
11,
11,
11,
15,
1,
6,
18,
14,
-1,
8,
8,
13,
-1,
8,
-3,
1,
15,
1,
15,
8,
-5,
8,
-3,
3,
15,
4,
4,
1,
13,
-3,
12,
8,
-7,
-2,
10,
9,
-8,
-1,
-1,
-4,
9,
-4,
7,
-8,
7,
1,
-11,
-1,
-12,
-1,
-12,
-2,
-14,
-7,
4,
-2,
-14,
-8,
-8,
-5,
-16,
-10,
2,
-11,
1,
-7,
-18,
-9,
-9,
-17,
-2,
-16,
-1,
-13,
-2,
-14,
-14,
-15,
-4,
-13,
-13,
-16,
-4,
-9,
-23,
-10,
-24,
-17,
-6,
-15,
-15,
-18,
-7,
-10,
-26,
-24,
-9,
-12,
-27,
-21,
-10,
-21,
-8,
-25,
-10,
-15,
-29,
-27,
-11,
-29,
-12,
-28,
-11,
-26,
-12,
-29,
-12,
-15,
-31,
-19,
-32,
-19,
-33,
-25,
-13,
-21,
-33,
-24,
-24,
-31,
-16,
-19,
-34,
-24,
-35,
-27,
-27,
-32,
-16,
-33,
-18,
-24,
-35,
-32,
-17,
-35,
-19,
-21,
-37,
-27,
-27,
-23,
-36,
-22,
-36,
-27,
-38,
-30,
-19,
-29,
-29,
-23,
-37,
-28,
-28,
-21,
-37,
-32,
-20,
-32,
-21,
-24,
-38,
-26,
-37,
-24,
-38,
-34,
-18,
-21,
-39,
-25,
-38,
-33,
-19,
-23,
-38,
-27,
-27,
-29,
-29,
-31,
-19,
-33,
-19,
-27,
-27,
-31,
-19,
-23,
-36,
-32,
-19,
-30,
-19,
-23,
-36,
-28,
-28,
-27,
-27,
-22,
-35,
-28,
-17,
-27,
-27,
-24,
-35,
-26,
-26,
-30,
-16,
-21,
-33,
-25,
-25,
-17,
-32,
-17,
-31,
-23,
-23,
-26,
-12,
-16,
-31,
-23,
-12,
-17,
-30,
-20,
-20,
-24,
-11,
-20,
-9,
-18,
-18,
-19,
-19,
-24,
-10,
-14,
-27,
-13,
-26,
-24,
-8,
-14,
-26,
-14,
-14,
-22,
-6,
-10,
-24,
-15,
-15,
-9,
-23,
-18,
-4,
-12,
-12,
-15,
-2,
-4,
-21,
-10,
-10,
-12,
0,
-5,
-18,
-12,
0,
-12,
1,
-7,
-7,
-5,
-5,
-11,
4,
-6,
-6,
0,
-13,
-5,
-5,
-5,
8,
-6,
6,
-3,
8,
4,
-9,
1,
1,
4,
-8,
0,
0,
4,
-8,
4,
-8,
-5,
12,
2,
2,
4,
4,
-1,
12,
4,
4,
-1,
15,
6,
6,
4,
16,
3,
16,
14,
-2,
11,
-1,
12,
-1,
10,
10,
8,
19,
8,
8,
5,
20,
15,
3,
10,
21,
11,
11,
15,
15,
9,
22,
10,
22,
13,
13,
14,
14,
11,
23,
13,
24,
13,
24,
17,
6,
16,
16,
20,
7,
24,
7,
20,
9,
24,
9,
17,
17,
13,
28,
17,
17,
21,
21,
17,
29,
20,
20,
17,
28,
22,
11,
17,
29,
21,
10,
26,
11,
23,
12,
21,
9,
24,
12,
16,
30,
23,
23,
22,
22,
18,
29,
23,
12,
19,
30,
24,
11,
21,
21,
23,
23,
17,
30,
21,
32,
20,
20,
24,
11,
26,
11,
21,
21,
13,
29,
20,
20,
16,
29,
21,
21,
19,
19,
21,
10,
16,
28,
17,
17,
14,
27,
19,
19,
17,
28,
23,
10,
17,
17,
22,
9,
20,
8,
13,
25,
23,
6,
18,
7,
20,
6,
9,
24,
6,
24,
17,
5,
11,
22,
11,
22,
14,
14,
15,
3,
12,
12,
12,
12,
12,
1,
9,
9,
13,
1,
6,
18,
5,
18,
2,
17,
8,
8,
12,
-1,
5,
17,
3,
14,
6,
6,
2,
16,
4,
4,
3,
3,
2,
2,
-1,
11,
3,
-8,
3,
-8,
-3,
9,
1,
1,
-3,
9,
-3,
8,
1,
-11,
-8,
6,
-5,
6,
-9,
5,
-5,
-5,
-3,
-15,
-7,
4,
0,
-15,
-8,
-8,
-2,
-16,
-8,
-8,
-11,
0,
-8,
-8,
-12,
-1,
-3,
-19,
-10,
-10,
-8,
-21,
-13,
-13,
-12,
-12,
-13,
-13,
-10,
-23,
-13,
-25,
-7,
-26,
-16,
-16,
-17,
-17,
-15,
-15,
-20,
-9,
-15,
-27,
-19,
-19,
-15,
-28,
-24,
-11,
-16,
-29,
-19,
-30,
-13,
-31,
-17,
-30,
-22,
-22,
-16,
-32,
-18,
-32,
-21,
-33,
-28,
-14,
-18,
-33,
-29,
-15,
-19,
-33,
-19,
-34,
-28,
-15,
-20,
-35,
-27,
-27,
-32,
-16,
-32,
-16,
-29,
-17,
-21,
-36,
-35,
-18,
-29,
-17,
-27,
-38,
-24,
-36,
-28,
-28,
-24,
-36,
-31,
-19,
-23,
-39,
-31,
-19,
-25,
-40,
-24,
-39,
-27,
-38,
-33,
-19,
-33,
-20,
-28,
-28,
-28,
-40,
-25,
-39,
-30,
-30,
-35,
-19,
-28,
-28,
-23,
-37,
-22,
-38,
-29,
-29,
-24,
-37,
-30,
-19,
-21,
-37,
-23,
-37,
-27,
-27,
-26,
-37,
-27,
-27,
-34,
-18,
-28,
-17,
-25,
-25,
-24,
-36,
-30,
-17,
-31,
-17,
-24,
-35,
-29,
-16,
-23,
-23,
-23,
-35,
-27,
-16,
-26,
-15,
-20,
-33,
-26,
-12,
-17,
-32,
-15,
-32,
-23,
-12,
-23,
-12,
-27,
-11,
-24,
-10,
-24,
-9,
-13,
-28,
-17,
-28,
-23,
-9,
-17,
-17,
-16,
-28,
-20,
-9,
-15,
-27,
-17,
-6,
-9,
-24,
-13,
-13,
-15,
-15,
-14,
-14,
-17,
-4,
-8,
-21,
-7,
-23,
-16,
-2,
-13,
-1,
-7,
-20,
-8,
-8,
-12,
3,
-11,
1,
-2,
-16,
-3,
-16,
-1,
-15,
-14,
3,
-1,
-15,
-3,
-3,
-6,
5,
-4,
-4,
-9,
7,
0,
-11,
-3,
9,
6,
-9,
5,
-9,
-5,
10,
-1,
11,
2,
2,
5,
-7,
7,
-5,
9,
-5,
9,
-4,
8,
-5,
1,
15,
8,
-3,
-2,
15,
6,
17,
4,
17,
12,
-1,
8,
8,
14,
0,
17,
1,
15,
1,
14,
3,
16,
1,
8,
22,
16,
3,
15,
4,
6,
24,
14,
14,
17,
5,
8,
26,
15,
15,
17,
6,
8,
25,
19,
19,
14,
25,
18,
18,
19,
8,
21,
9,
15,
27,
20,
9,
20,
20,
18,
18,
19,
19,
22,
22,
23,
9,
21,
21,
17,
28,
20,
20,
16,
28,
16,
29,
22,
22,
21,
21,
24,
12,
18,
30,
24,
12,
19,
30,
21,
21,
21,
21,
16,
30,
20,
20,
29,
12,
22,
22,
19,
30,
27,
11,
23,
11,
22,
22,
25,
11,
18,
29,
16,
29,
21,
21,
17,
28,
17,
29,
19,
19,
12,
29,
23,
10,
19,
19,
17,
28,
20,
9,
21,
9,
22,
9,
20,
9,
15,
27,
15,
15,
21,
7,
16,
16,
11,
24,
19,
5,
12,
23,
16,
5,
12,
12,
11,
23,
9,
21,
13,
13,
14,
2,
12,
12,
8,
20,
7,
19,
9,
20,
11,
11,
3,
20,
10,
10,
4,
17,
8,
8,
3,
16,
7,
7,
5,
16,
0,
14,
5,
5,
4,
4,
-2,
11,
0,
11,
4,
4,
1,
1,
3,
-8,
-3,
9,
2,
-9,
4,
-10,
3,
-11,
-4,
7,
3,
-12,
-8,
5,
1,
-14,
-11,
4,
-2,
-15,
-10,
3,
-9,
2,
-8,
-8,
-10,
-10,
-12,
1,
-8,
-19,
-15,
0,
-11,
-11,
-15,
-2,
-8,
-21,
-10,
-21,
-16,
-4,
-12,
-23,
-7,
-23,
-10,
-24,
-10,
-24,
-9,
-24,
-16,
-16,
-12,
-26,
-14,
-26,
-20,
-9,
-13,
-27,
-10,
-28,
-16,
-28,
-23,
-11,
-19,
-30,
-20,
-20,
-15,
-31,
-21,
-21,
-25,
-25,
-31,
-14,
-25,
-14,
-15,
-33,
-20,
-33,
-27,
-15,
-25,
-25,
-26,
-26,
-28,
-16,
-19,
-35,
-23,
-35,
-29,
-16,
-22,
-37,
-31,
-17,
-23,
-36,
-24,
-36,
-26,
-26,
-27,
-27,
-26,
-26,
-28,
-28,
-23,
-36,
-29,
-18,
-27,
-27,
-36,
-20,
-34,
-19,
-24,
-37,
-31,
-20,
-35,
-19,
-27,
-40,
-32,
-19,
-24,
-38,
-25,
-38,
-31,
-19,
-32,
-19,
-22,
-39,
-33,
-19,
-29,
-29,
-29,
-29,
-24,
-38,
-31,
-19,
-30,
-19,
-33,
-19,
-26,
-26,
-26,
-26,
-25,
-36,
-19,
-35,
-26,
-26,
-27,
-27,
-27,
-27,
-28,
-17,
-19,
-36,
-25,
-25,
-20,
-33,
-21,
-33,
-16,
-35,
-23,
-23,
-27,
-14,
-27,
-14,
-21,
-32,
-25,
-13,
-27,
-12,
-23,
-23,
-19,
-31,
-21,
-21,
-14,
-29,
-19,
-19,
-17,
-29,
-20,
-20,
-23,
-9,
-20,
-9,
-15,
-26,
-13,
-25,
-11,
-25,
-9,
-24,
-15,
-15,
-13,
-24,
-15,
-4,
-16,
-4,
-15,
-4,
-7,
-21,
-17,
-2,
-15,
-3,
-8,
-19,
-12,
-1,
-10,
-10,
-8,
-8,
0,
-17,
-8,
-8,
-11,
2,
-9,
4,
-9,
4,
1,
-15,
4,
-14,
-11,
5,
4,
-11,
1,
-11,
1,
-11,
-4,
8,
-4,
9,
-8,
9,
-1,
-1,
1,
1,
4,
4,
7,
-7,
10,
-5,
0,
12,
9,
-5,
2,
13,
7,
7,
3,
14,
11,
-4,
6,
18,
4,
17,
5,
18,
8,
19,
14,
0,
15,
1,
5,
19,
9,
9,
9,
22,
14,
3,
8,
21,
11,
22,
5,
22,
15,
15,
14,
14,
11,
24,
16,
16,
15,
15,
17,
17,
8,
25,
17,
17,
23,
9,
20,
9,
17,
17,
19,
19,
19,
19,
16,
28,
23,
10,
24,
10,
15,
28,
19,
19,
24,
11,
15,
28,
27,
12,
22,
22,
14,
29,
29,
12,
19,
19,
20,
20,
21,
21,
18,
29,
26,
12,
15,
31,
25,
12,
27,
12,
26,
11,
21,
21,
21,
10,
28,
12,
21,
21,
27,
12,
18,
30,
16,
29,
21,
21,
21,
21,
21,
10,
20,
20,
27,
10,
17,
28,
25,
9,
16,
28,
17,
17,
27,
10,
19,
19,
16,
28,
16,
27,
15,
26,
22,
8,
13,
26,
21,
7,
13,
24,
21,
7,
13,
24,
18,
5,
20,
4,
16,
4,
21,
3,
8,
22,
8,
21,
19,
2,
10,
21,
11,
11,
13,
0,
6,
19,
9,
9,
9,
9,
10,
10,
12,
-2,
8,
8,
6,
6,
0,
17,
7,
-4,
7,
7,
4,
4,
2,
2,
0,
13,
5,
5,
4,
-7,
-1,
-1,
-2,
9,
3,
-8,
5,
-9,
0,
0,
2,
-11,
-4,
7,
-3,
-3,
-6,
5,
-3,
-3,
1,
-15,
-5,
-5,
-6,
-6,
-8,
-8,
-8,
-8,
-11,
0,
-9,
-9,
-7,
-19,
-9,
-9,
-12,
-12,
-4,
-20,
-14,
-3,
-16,
-3,
-13,
-13,
-13,
-13,
-14,
-14,
-16,
-16,
-14,
-14,
-15,
-15,
-16,
-16,
-17,
-17,
-21,
-7,
-11,
-26,
-17,
-28,
-11,
-28,
-18,
-18,
-19,
-19,
-18,
-30,
-19,
-19,
-26,
-12,
-23,
-12,
-17,
-31,
-22,
-33,
-27,
-14,
-28,
-14,
-19,
-32,
-22,
-22,
-21,
-34,
-24,
-24,
-23,
-23,
-21,
-33,
-26,
-26,
-31,
-18,
-29,
-18,
-27,
-27,
-28,
-28,
-26,
-26,
-29,
-18,
-27,
-27,
-27,
-27,
-33,
-19,
-23,
-37,
-30,
-19,
-28,
-28,
-30,
-19,
-34,
-20,
-31,
-19,
-29,
-29,
-27,
-27,
-30,
-19,
-27,
-27,
-29,
-29,
-33,
-21,
-26,
-26,
-30,
-30,
-28,
-28,
-24,
-37,
-32,
-20,
-27,
-27,
-33,
-20,
-33,
-19,
-35,
-19,
-29,
-29,
-26,
-37,
-31,
-19,
-35,
-17,
-20,
-36,
-27,
-27,
-28,
-17,
-32,
-17,
-25,
-36,
-32,
-16,
-30,
-16,
-19,
-34,
-28,
-16,
-25,
-25,
-28,
-14,
-24,
-13,
-22,
-22,
-23,
-23,
-23,
-23,
-21,
-21,
-17,
-31,
-20,
-31,
-16,
-30,
-26,
-12,
-25,
-10,
-16,
-29,
-22,
-10,
-20,
-20,
-17,
-17,
-23,
-10,
-22,
-8,
-17,
-17,
-16,
-16,
-14,
-14,
-11,
-23,
-16,
-5,
-16,
-3,
-14,
-3,
-12,
-12,
-16,
-2,
-15,
-2,
-7,
-21,
-17,
1,
-9,
-9,
-9,
-9,
-7,
-7,
-8,
3,
-8,
3,
-11,
3,
-4,
-4,
-4,
-4,
-9,
5,
-5,
7,
-4,
-4,
4,
-12,
0,
0,
4,
-10,
5,
-9,
2,
-9,
0,
0,
8,
-8,
-1,
10,
0,
11,
6,
-6,
1,
12,
-2,
12,
4,
15,
5,
5,
11,
-3,
4,
16,
12,
0,
8,
19,
9,
9,
11,
0,
13,
0,
11,
11,
9,
9,
8,
20,
11,
11,
11,
11,
13,
13,
11,
11,
19,
5,
10,
23,
18,
5,
17,
5,
20,
5,
15,
15,
17,
17,
19,
8,
15,
15,
13,
25,
18,
18,
17,
17,
18,
18,
15,
27,
18,
18,
21,
10,
18,
18,
18,
18,
17,
28,
18,
29,
15,
28,
18,
29,
19,
30,
22,
11,
26,
11,
22,
22,
16,
30,
20,
20,
26,
11,
21,
21,
21,
21,
23,
12,
27,
12,
14,
29,
21,
21,
20,
20,
24,
12,
26,
12,
22,
22,
20,
20,
19,
19,
23,
11,
17,
29,
17,
29,
26,
9,
13,
27,
14,
28,
19,
19,
19,
19,
24,
9,
21,
9,
23,
9,
19,
19,
16,
16,
22,
8,
17,
17,
14,
25,
19,
8,
21,
7,
18,
6,
17,
5,
15,
15,
17,
5,
19,
5,
16,
3,
7,
22,
14,
3,
14,
3,
7,
21,
12,
12,
9,
20,
12,
1,
15,
0,
11,
0,
14,
-1,
9,
-2,
3,
16,
9,
-3,
13,
-2,
4,
15,
7,
7,
4,
4,
7,
-5,
1,
12,
-2,
12,
2,
2,
3,
3,
5,
-9,
-5,
9,
2,
-10,
-3,
8,
1,
-11,
-9,
6,
-3,
-3,
1,
-12,
-1,
-13,
-8,
3,
-7,
4,
-7,
-7,
-7,
-7,
-8,
-8,
0,
-17,
-4,
-18,
-6,
-19,
-8,
-19,
-12,
-1,
-10,
-10,
-5,
-20,
-17,
-3,
-15,
-4,
-10,
-22,
-19,
-5,
-14,
-14,
-19,
-6,
-19,
-5,
-15,
-15,
-22,
-8,
-10,
-27,
-19,
-7,
-22,
-8,
-27,
-10,
-23,
-11,
-18,
-30,
-19,
-19,
-23,
-11,
-21,
-21,
-16,
-32,
-23,
-23,
-23,
-23,
-16,
-32,
-28,
-15,
-26,
-14,
-25,
-25,
-30,
-16,
-30,
-15,
-16,
-33,
-29,
-16,
-26,
-26,
-30,
-16,
-28,
-28,
-22,
-36,
-28,
-17,
-26,
-26,
-27,
-27,
-33,
-18,
-31,
-18,
-29,
-17,
-27,
-27,
-26,
-39,
-30,
-19,
-30,
-18,
-24,
-37,
-30,
-30,
-33,
-21,
-23,
-40,
-28,
-28,
-31,
-19,
-27,
-38,
-30,
-19,
-23,
-37,
-29,
-29,
-33,
-19,
-31,
-19,
-33,
-20,
-27,
-27,
-26,
-38,
-32,
-19,
-29,
-29,
-28,
-28,
-28,
-28,
-29,
-29,
-31,
-17,
-27,
-27,
-27,
-27,
-31,
-17,
-27,
-27,
-32,
-16,
-23,
-35,
-29,
-17,
-23,
-35,
-28,
-16,
-31,
-15,
-28,
-13,
-26,
-13,
-28,
-13,
-27,
-13,
-27,
-13,
-23,
-12,
-25,
-12,
-23,
-12,
-22,
-11,
-14,
-29,
-22,
-11,
-25,
-10,
-16,
-28,
-18,
-18,
-20,
-8,
-18,
-18,
-17,
-17,
-11,
-26,
-15,
-15,
-19,
-6,
-19,
-6,
-12,
-24,
-13,
-13,
-9,
-21,
-11,
-11,
-8,
-20,
-14,
-3,
-4,
-19,
-12,
-1,
-12,
1,
-7,
-19,
-4,
-17,
-5,
-16,
-5,
-5,
-6,
-6,
-8,
4,
-4,
-4,
-3,
-14,
0,
-14,
-4,
9,
-1,
-12,
-9,
8,
1,
-10,
1,
-10,
4,
-8,
-5,
9,
2,
2,
8,
-7,
-2,
11,
5,
-7,
8,
-4,
11,
-4,
5,
5,
4,
16,
-1,
15,
5,
5,
8,
-3,
4,
17,
9,
9,
4,
18,
5,
18,
11,
11,
12,
12,
8,
20,
17,
3,
18,
2,
19,
4,
10,
21,
19,
4,
13,
13,
13,
13,
11,
23,
12,
25,
16,
16,
13,
25,
13,
25,
10,
28,
18,
18,
13,
25,
20,
8,
21,
9,
18,
18,
11,
28,
20,
20,
17,
17,
23,
11,
20,
20,
20,
20,
24,
9,
22,
11,
27,
12,
20,
20,
23,
11,
25,
12,
20,
20,
20,
20,
16,
29,
19,
19,
24,
12,
21,
21,
16,
30,
21,
21,
27,
12,
19,
30,
17,
30,
15,
30,
20,
32,
22,
22,
22,
22,
24,
12,
21,
10,
25,
12,
16,
29,
20,
20,
22,
11,
24,
9,
13,
27,
15,
27,
18,
18,
19,
19,
13,
26,
23,
8,
18,
18,
16,
16,
18,
18,
19,
8,
13,
24,
7,
24,
17,
4,
9,
24,
13,
24,
17,
5,
14,
14,
16,
4,
8,
21,
4,
21,
13,
2,
5,
20,
5,
19,
13,
0,
8,
8,
3,
18,
-1,
17,
0,
18,
8,
8,
3,
15,
9,
-3,
3,
14,
3,
14,
1,
14,
3,
3,
3,
3,
1,
12,
2,
2,
7,
-8,
5,
-8,
3,
-8,
-4,
8,
0,
0,
-2,
-2,
2,
-11,
-3,
-3,
-6,
5,
-8,
5,
-8,
4,
-4,
-4,
-1,
-16,
-11,
1,
-9,
-9,
-8,
-8,
-12,
2,
-11,
0,
-11,
0,
-11,
-11,
-11,
-11,
-10,
-10,
-15,
-4,
-18,
-3,
-13,
-13,
-16,
-16,
-15,
-15,
-14,
-14,
-10,
-25,
-11,
-25,
-16,
-16,
-19,
-8,
-22,
-9,
-13,
-27,
-14,
-28,
-28,
-10,
-16,
-30,
-18,
-29,
-21,
-21,
-19,
-30,
-19,
-30,
-23,
-12,
-25,
-13,
-25,
-13,
-29,
-15,
-27,
-14,
-23,
-23,
-22,
-34,
-21,
-33,
-29,
-15,
-23,
-36,
-32,
-16,
-28,
-28,
-33,
-16,
-22,
-35,
-28,
-17,
-26,
-26,
-34,
-17,
-24,
-35,
-23,
-36,
-23,
-36,
-34,
-19,
-23,
-39,
-23,
-37,
-27,
-27,
-26,
-38,
-22,
-36,
-24,
-38,
-22,
-38,
-28,
-28,
-28,
-28,
-25,
-38,
-26,
-38,
-29,
-29,
-27,
-38,
-34,
-19,
-33,
-19,
-30,
-19,
-32,
-19,
-23,
-37,
-20,
-37,
-31,
-19,
-19,
-37,
-31,
-19,
-29,
-18,
-27,
-27,
-32,
-18,
-33,
-17,
-33,
-17,
-31,
-17,
-28,
-16,
-23,
-34,
-23,
-35,
-28,
-16,
-22,
-33,
-23,
-23,
-24,
-24,
-19,
-33,
-28,
-14,
-28,
-14,
-18,
-31,
-19,
-31,
-24,
-13,
-24,
-13,
-20,
-20,
-22,
-11,
-23,
-11,
-23,
-11,
-12,
-27,
-22,
-10,
-15,
-27,
-16,
-16,
-20,
-8,
-15,
-27,
-19,
-7,
-19,
-5,
-15,
-15,
-16,
-5,
-17,
-4,
-14,
-3,
-7,
-20,
-11,
-11,
-9,
-9,
-5,
-19,
-7,
-18,
-13,
0,
-8,
-8,
-1,
-16,
-16,
1,
-5,
-5,
-9,
3,
-8,
3,
-4,
-4,
-3,
-3,
-5,
-5,
-3,
-3,
-3,
8,
-8,
7,
-3,
8,
-9,
9,
2,
-10,
-3,
11,
1,
1,
-7,
12,
2,
2,
3,
3,
7,
-5,
4,
4,
-3,
14,
10,
-3,
6,
6,
0,
16,
12,
-1,
3,
16,
2,
18,
4,
19,
8,
19,
5,
20,
10,
10,
9,
20,
14,
3,
15,
3,
12,
12,
6,
21,
11,
23,
12,
24,
13,
13,
13,
13,
19,
7,
12,
25,
19,
7,
19,
8,
15,
15,
21,
9,
17,
17,
12,
28,
20,
9,
19,
19,
17,
17,
17,
28,
17,
28,
16,
28,
12,
28,
16,
29,
24,
11,
19,
19,
21,
21,
16,
29,
14,
29,
21,
21,
21,
21,
24,
11,
22,
22,
23,
12,
18,
30,
23,
12,
14,
29,
19,
19,
21,
21,
21,
21,
28,
11,
17,
31,
15,
30,
25,
13,
14,
30,
20,
32,
17,
29,
18,
29,
17,
29,
23,
11,
23,
11,
17,
28,
20,
20,
18,
18,
19,
19,
11,
28,
23,
9,
23,
8,
22,
8,
18,
18,
14,
25,
9,
25,
18,
6,
18,
5,
14,
14,
9,
23,
16,
4,
12,
12,
11,
22,
9,
23,
8,
23,
11,
11,
13,
2,
10,
10,
11,
0,
11,
11,
4,
17,
12,
0,
6,
17,
9,
9,
5,
17,
9,
-3,
3,
15,
8,
-3,
11,
-4,
0,
15,
1,
13,
5,
-7,
5,
-7,
5,
-8,
9,
-8,
-2,
10,
-4,
8,
1,
-10,
-2,
-2,
-8,
6,
-4,
-4,
-1,
-1,
-1,
-12,
-6,
5,
-4,
-4,
-8,
4,
-1,
-14,
-6,
-6,
-4,
-17,
-5,
-17,
-13,
