1-signale-auf-leitern/tag_1_daten/daten_versuch1/ALL0010/A0010CH1.CSV

Memory Length,4000,
Trigger Level,3.76000e+01,
Source,CH1,
Probe,1.0X,
Vertical Units,V,
Vertical Scale,2.00000e-02,
Vertical Position,0.00000e+00,
Horizontal Units,S,
Horizontal Scale,1.00000e-07,
Horizontal Position,2.7600000e-07,
Horizontal Mode,Main,
Sampling Period,1.00000e-09,
Firmware,V1.14,
Time, ,
Mode,Fast,
Waveform Data,
1,
0,
1,
0,
1,
1,
0,
-1,
-1,
-1,
0,
-1,
-1,
-1,
0,
0,
0,
-1,
0,
0,
1,
0,
0,
-1,
-1,
-1,
-1,
0,
0,
-1,
0,
0,
0,
-1,
-1,
-1,
0,
0,
0,
-1,
-1,
-1,
-1,
0,
0,
-1,
0,
0,
0,
-1,
-1,
-1,
0,
-1,
-1,
-1,
-1,
0,
1,
-1,
0,
-1,
0,
0,
0,
-1,
0,
-1,
-1,
0,
0,
-1,
-1,
-1,
0,
0,
0,
0,
0,
0,
0,
-1,
0,
-1,
-1,
-1,
-1,
-1,
-1,
-1,
-1,
-1,
-1,
-1,
-1,
-1,
-1,
-1,
0,
0,
0,
0,
0,
0,
1,
-2,
-3,
-1,
0,
0,
0,
-1,
-1,
0,
1,
-1,
0,
-1,
0,
0,
1,
-2,
-2,
-1,
0,
0,
0,
0,
0,
-1,
0,
-2,
-1,
-1,
-1,
-1,
-1,
0,
1,
-2,
-2,
-1,
0,
-1,
-1,
-1,
0,
0,
1,
0,
0,
-1,
0,
-1,
0,
-1,
-1,
-1,
0,
-1,
-1,
-1,
0,
-1,
1,
0,
-1,
0,
1,
-1,
-2,
-1,
0,
-1,
0,
-1,
-1,
0,
0,
-1,
-1,
0,
0,
-1,
-1,
0,
1,
0,
0,
-1,
-1,
0,
0,
-1,
-1,
-1,
0,
0,
0,
-1,
-1,
0,
1,
-1,
-2,
-1,
0,
0,
0,
-1,
0,
0,
0,
0,
-1,
0,
1,
-1,
-2,
-1,
0,
0,
0,
-2,
-2,
0,
1,
-2,
-2,
-1,
-1,
-1,
-1,
-2,
-2,
-1,
0,
-1,
0,
0,
1,
-1,
-1,
-1,
0,
0,
0,
-1,
-1,
0,
1,
-2,
-2,
-1,
0,
0,
0,
-1,
0,
0,
1,
0,
0,
0,
1,
-1,
-1,
-1,
0,
0,
0,
-1,
-1,
0,
1,
-1,
-1,
-1,
0,
-1,
-1,
-1,
0,
0,
1,
-1,
-1,
0,
1,
-1,
-1,
-1,
0,
-1,
-1,
-1,
-1,
0,
1,
-1,
-1,
-1,
0,
0,
0,
0,
0,
0,
0,
0,
-1,
-1,
0,
-1,
-1,
-1,
0,
0,
0,
-1,
-1,
-1,
0,
-1,
-1,
-1,
0,
-1,
-1,
-1,
0,
0,
1,
-1,
-1,
0,
1,
-1,
-2,
-1,
-1,
-1,
0,
-1,
-1,
0,
1,
0,
-1,
0,
0,
-1,
-1,
-1,
-1,
-1,
-1,
-1,
0,
0,
1,
-2,
-2,
-1,
-1,
0,
0,
-1,
-1,
-1,
0,
-1,
-1,
-1,
0,
1,
1,
-1,
-1,
0,
1,
0,
0,
-1,
-1,
-1,
0,
-1,
-1,
0,
0,
0,
0,
-1,
0,
0,
0,
0,
1,
-1,
-1,
0,
0,
0,
1,
-1,
-1,
0,
0,
-1,
0,
-2,
-2,
-1,
0,
-1,
-2,
0,
1,
1,
1,
-1,
-1,
0,
0,
-1,
-1,
-1,
0,
-1,
-1,
-1,
-1,
0,
1,
-1,
-1,
-1,
-1,
0,
0,
-1,
0,
-1,
-1,
0,
0,
-1,
0,
-2,
-2,
-2,
-1,
-1,
0,
-1,
-1,
-1,
0,
-1,
-1,
0,
0,
0,
0,
-1,
0,
0,
0,
0,
0,
-1,
0,
-2,
-2,
-1,
0,
0,
0,
-1,
-1,
-1,
0,
-2,
-2,
-1,
0,
-1,
-1,
-1,
0,
-1,
0,
-1,
-1,
-1,
-1,
-1,
0,
-1,
-1,
0,
0,
-1,
-1,
0,
1,
-1,
-1,
-1,
0,
0,
0,
-1,
0,
-1,
0,
-1,
-1,
0,
1,
-1,
-1,
-1,
0,
-1,
-1,
-1,
-1,
-1,
0,
-1,
-1,
-1,
0,
0,
0,
-2,
-3,
-1,
0,
-1,
0,
-1,
-1,
-1,
0,
-1,
-1,
0,
0,
-1,
-1,
0,
1,
0,
-1,
-1,
0,
0,
0,
0,
1,
0,
1,
-1,
-1,
0,
1,
-1,
-1,
-1,
-1,
-1,
0,
-1,
-1,
0,
1,
-1,
0,
-1,
0,
0,
1,
-2,
-3,
-2,
-1,
-1,
0,
0,
0,
-1,
0,
-1,
-1,
0,
0,
-1,
-1,
0,
0,
-1,
-1,
-1,
-1,
0,
1,
-1,
-1,
0,
0,
0,
0,
-1,
-1,
0,
1,
-1,
-1,
-1,
-1,
0,
1,
-1,
-1,
0,
1,
0,
0,
-1,
-1,
-1,
0,
0,
0,
0,
0,
0,
0,
-1,
0,
-1,
-1,
1,
1,
-1,
-1,
-1,
0,
0,
1,
-1,
-1,
0,
0,
-1,
-1,
-1,
-1,
-1,
0,
-1,
-1,
0,
1,
0,
1,
-1,
-1,
-1,
-1,
0,
0,
-1,
0,
0,
0,
0,
1,
-1,
-1,
0,
0,
-2,
-1,
-1,
-1,
-1,
0,
-1,
0,
0,
0,
0,
0,
-1,
-2,
-1,
0,
-1,
0,
-1,
-1,
-1,
0,
-2,
-2,
-1,
-1,
-1,
-1,
-2,
-1,
-1,
-1,
-1,
0,
-1,
-1,
-1,
0,
0,
0,
0,
0,
-1,
-1,
-1,
-1,
-1,
-1,
-1,
-1,
0,
0,
-1,
0,
0,
0,
1,
1,
0,
1,
-1,
-2,
-2,
-1,
0,
0,
-1,
-1,
-1,
-1,
-1,
-1,
-1,
-1,
-1,
-2,
0,
1,
-1,
-1,
-1,
0,
1,
1,
-1,
-2,
-1,
0,
0,
0,
-1,
-1,
0,
1,
0,
0,
-1,
0,
0,
1,
-1,
-2,
0,
1,
0,
0,
-1,
0,
-1,
0,
0,
0,
-1,
0,
0,
0,
-1,
-1,
-2,
-2,
-1,
0,
-1,
-1,
0,
1,
1,
1,
-1,
0,
-1,
-1,
0,
1,
-1,
-1,
0,
0,
0,
0,
0,
1,
0,
1,
1,
0,
-1,
-1,
-1,
0,
-1,
-1,
-1,
0,
0,
1,
-1,
-1,
0,
0,
-1,
-1,
-1,
-1,
0,
1,
-1,
-1,
0,
0,
0,
0,
-1,
-2,
-1,
0,
-1,
-1,
-1,
-1,
1,
2,
0,
0,
-1,
0,
1,
1,
0,
0,
-1,
-1,
0,
0,
-1,
-1,
-1,
0,
1,
2,
0,
0,
0,
1,
-1,
-2,
-1,
-1,
-1,
0,
-1,
-1,
-1,
0,
0,
0,
-1,
-1,
0,
0,
-1,
0,
0,
0,
-1,
0,
0,
0,
-1,
-1,
1,
1,
0,
-1,
-1,
-1,
0,
1,
-1,
0,
-1,
0,
1,
1,
-1,
-1,
0,
1,
0,
0,
-1,
-1,
-1,
0,
-1,
-1,
0,
0,
-1,
-1,
0,
0,
-1,
-2,
-1,
-1,
0,
0,
-1,
0,
0,
0,
0,
0,
-1,
-1,
0,
0,
-1,
-1,
-1,
0,
0,
0,
0,
1,
1,
1,
-1,
-1,
0,
1,
-1,
-2,
-1,
-1,
-1,
-1,
-1,
-1,
-1,
0,
-1,
-1,
0,
0,
-1,
-1,
0,
1,
-1,
-1,
-1,
-1,
0,
1,
-1,
-1,
-1,
0,
0,
0,
-1,
-1,
-1,
0,
-1,
-1,
-1,
0,
0,
0,
-1,
-1,
0,
1,
0,
0,
-1,
-1,
0,
0,
-1,
-1,
-1,
0,
-1,
-1,
-1,
0,
-2,
-2,
-1,
0,
-1,
-1,
-1,
0,
0,
1,
0,
0,
0,
1,
-1,
-2,
-1,
0,
-1,
0,
-1,
-1,
0,
1,
0,
0,
-1,
0,
0,
0,
-1,
-1,
0,
0,
0,
0,
-1,
-1,
-1,
0,
0,
0,
-1,
-1,
0,
0,
0,
1,
-1,
-1,
-1,
0,
-1,
-1,
0,
1,
0,
1,
-1,
-1,
-1,
-1,
-1,
0,
0,
0,
0,
0,
-1,
-1,
-1,
-1,
-1,
0,
-1,
0,
-1,
-1,
0,
0,
-1,
-1,
-1,
0,
0,
1,
-2,
-3,
-1,
0,
-1,
0,
-1,
-1,
-1,
0,
-1,
-1,
0,
0,
-1,
-1,
-1,
0,
-1,
-1,
0,
0,
-1,
-1,
-1,
0,
-1,
-1,
-1,
0,
0,
1,
-1,
-1,
0,
0,
1,
1,
-1,
-1,
0,
1,
0,
1,
-1,
-1,
0,
0,
-2,
-2,
-2,
-1,
-1,
0,
-1,
-1,
-1,
0,
-1,
-1,
-1,
-1,
0,
0,
-1,
0,
-1,
0,
-1,
0,
-1,
-1,
0,
1,
0,
0,
-1,
-1,
-1,
-1,
-1,
-1,
-1,
-1,
0,
0,
0,
1,
-2,
-2,
-1,
0,
-1,
0,
-1,
-1,
-1,
-1,
-2,
-2,
-1,
0,
-1,
-1,
0,
1,
0,
0,
0,
0,
0,
0,
-1,
-1,
-1,
-1,
0,
0,
1,
1,
-2,
-2,
-1,
-1,
-1,
0,
-1,
-1,
0,
2,
0,
0,
-1,
-1,
0,
0,
-1,
-1,
-1,
0,
0,
0,
-1,
-1,
-1,
0,
-1,
0,
-1,
0,
0,
1,
-1,
-1,
0,
0,
-1,
0,
-1,
-1,
0,
1,
1,
2,
-1,
-1,
-1,
-1,
0,
1,
-1,
0,
-1,
0,
0,
0,
-1,
-1,
-2,
-1,
-1,
-1,
0,
0,
0,
1,
-1,
-1,
-1,
0,
0,
0,
-1,
0,
0,
1,
0,
-1,
-1,
-1,
-1,
-1,
-1,
-1,
1,
1,
-1,
-1,
0,
0,
-1,
-1,
-1,
0,
0,
1,
-1,
-2,
-2,
-1,
-1,
0,
-1,
-1,
-1,
0,
-1,
-2,
0,
0,
-1,
-1,
0,
0,
-1,
0,
-1,
0,
0,
1,
-2,
-2,
-1,
-1,
0,
0,
-1,
-1,
-1,
0,
-1,
-1,
-1,
0,
0,
0,
0,
1,
0,
1,
1,
0,
-1,
-1,
0,
0,
-2,
-2,
-1,
-1,
-1,
-1,
0,
1,
-1,
-1,
0,
1,
0,
1,
-1,
-1,
0,
1,
0,
-1,
0,
0,
-1,
0,
-1,
0,
-1,
0,
-2,
-2,
0,
0,
0,
0,
0,
0,
0,
1,
-2,
-2,
-1,
-1,
1,
1,
-1,
0,
0,
0,
-1,
-1,
-1,
0,
0,
-1,
-1,
0,
0,
0,
0,
-1,
-1,
-1,
-1,
-1,
-1,
-1,
-1,
-1,
-1,
-1,
-1,
0,
0,
0,
1,
1,
0,
1,
-1,
-1,
0,
1,
-1,
-1,
0,
0,
-1,
-1,
-1,
-1,
1,
1,
-1,
-1,
0,
0,
-1,
-1,
-1,
0,
0,
1,
-1,
-1,
-1,
0,
-1,
-1,
-1,
-1,
0,
1,
-1,
-1,
-1,
0,
-1,
-1,
-1,
0,
0,
1,
1,
0,
0,
1,
-1,
-1,
0,
0,
-1,
-1,
-1,
-1,
-1,
-1,
-1,
-1,
-1,
0,
-1,
-1,
-1,
0,
0,
0,
0,
0,
0,
1,
-1,
-2,
-1,
0,
-1,
-1,
-1,
-1,
0,
1,
-1,
-1,
-1,
0,
0,
0,
-1,
0,
0,
0,
0,
0,
0,
1,
-1,
-2,
-1,
0,
-1,
-1,
-1,
-2,
0,
2,
-1,
-1,
-1,
0,
0,
0,
-1,
0,
-1,
0,
0,
0,
0,
1,
-2,
-3,
0,
0,
0,
0,
-1,
-1,
0,
1,
-1,
0,
-1,
0,
0,
0,
-1,
0,
0,
1,
0,
0,
0,
1,
-2,
-3,
-1,
0,
-1,
0,
0,
0,
0,
1,
-1,
-1,
-1,
0,
0,
0,
0,
1,
0,
1,
0,
0,
-1,
-1,
-1,
-1,
-1,
0,
0,
0,
0,
0,
-1,
0,
-1,
-1,
-1,
0,
0,
-1,
-1,
0,
0,
0,
-1,
-1,
0,
1,
0,
-1,
1,
0,
-1,
0,
-1,
-1,
0,
1,
0,
0,
0,
0,
0,
0,
-1,
0,
-1,
0,
-1,
-1,
0,
1,
-2,
-2,
0,
0,
-1,
0,
-1,
-1,
0,
1,
-1,
-1,
-1,
0,
0,
0,
-1,
0,
0,
1,
-1,
-1,
-1,
-1,
-1,
0,
-1,
-2,
0,
0,
-1,
-1,
0,
0,
0,
0,
2,
4,
16,
20,
36,
43,
58,
64,
72,
74,
77,
78,
69,
66,
57,
54,
46,
44,
36,
34,
29,
28,
26,
24,
21,
21,
21,
21,
16,
15,
13,
12,
11,
9,
8,
7,
7,
8,
6,
5,
4,
5,
3,
2,
3,
3,
2,
2,
1,
1,
1,
1,
1,
2,
0,
0,
1,
1,
0,
0,
2,
3,
6,
8,
17,
20,
33,
37,
49,
55,
61,
64,
66,
66,
63,
62,
54,
52,
46,
44,
36,
35,
30,
28,
26,
27,
23,
22,
21,
21,
17,
15,
15,
15,
12,
12,
10,
9,
8,
8,
7,
6,
6,
6,
5,
5,
5,
4,
3,
3,
2,
2,
1,
1,
1,
1,
1,
1,
0,
0,
0,
1,
-1,
-1,
-3,
-3,
-5,
-6,
-8,
-8,
-9,
-8,
-4,
-3,
-1,
0,
3,
4,
5,
5,
4,
5,
3,
3,
2,
2,
1,
1,
1,
2,
0,
0,
1,
2,
0,
0,
2,
3,
2,
2,
0,
-1,
0,
1,
0,
-1,
-1,
0,
0,
0,
-1,
-1,
0,
1,
-1,
-1,
-1,
0,
0,
0,
0,
1,
-1,
0,
0,
1,
1,
0,
1,
2,
1,
2,
-2,
-2,
-3,
-3,
-2,
-1,
-1,
-2,
-1,
0,
-1,
-1,
0,
1,
0,
1,
0,
0,
0,
1,
-1,
-2,
-1,
-1,
-1,
-1,
0,
-1,
0,
1,
-1,
-1,
-1,
0,
0,
0,
-1,
-1,
0,
0,
-1,
0,
0,
1,
0,
0,
0,
0,
-1,
-1,
-1,
-1,
0,
1,
-2,
-2,
-1,
0,
0,
1,
-1,
-1,
0,
1,
0,
0,
-1,
0,
-1,
-1,
-1,
-1,
-2,
-1,
-1,
-1,
0,
1,
-1,
-1,
-1,
-1,
-1,
-1,
-1,
-1,
0,
0,
0,
0,
0,
1,
-1,
-1,
-1,
-1,
-1,
0,
-1,
-1,
0,
1,
0,
1,
-1,
-1,
0,
1,
-1,
-2,
0,
0,
1,
1,
0,
0,
0,
0,
-2,
-2,
-1,
-1,
-1,
-1,
0,
1,
-1,
-1,
-1,
-1,
0,
1,
-1,
-1,
0,
1,
0,
-1,
-1,
-1,
0,
1,
-1,
-1,
-1,
0,
0,
0,
0,
1,
0,
1,
0,
-1,
0,
1,
-1,
-2,
0,
0,
1,
1,
-1,
0,
-1,
0,
-1,
-1,
-1,
0,
-1,
-1,
0,
1,
0,
1,
-1,
-1,
1,
1,
-1,
-1,
-1,
-1,
-1,
0,
-1,
-1,
-1,
0,
-1,
-1,
-1,
0,
0,
0,
0,
1,
0,
0,
0,
0,
0,
1,
-2,
-3,
-1,
0,
-1,
0,
-1,
-1,
0,
1,
-1,
-2,
-1,
0,
0,
0,
-1,
-2,
1,
0,
-1,
-1,
-1,
-1,
-1,
0,
-2,
-1,
-1,
0,
-1,
-1,
0,
1,
-1,
-1,
-1,
0,
0,
0,
-1,
0,
0,
1,
-1,
-1,
0,
1,
-1,
-1,
-1,
0,
-1,
-1,
-1,
-1,
0,
0,
-1,
-2,
0,
0,
0,
1,
-2,
-3,
-1,
0,
-1,
0,
0,
0,
-1,
0,
-1,
-1,
0,
1,
-1,
-1,
0,
0,
0,
0,
-1,
0,
0,
-1,
0,
1,
0,
1,
-1,
-1,
0,
1,
-1,
-1,
0,
0,
-1,
0,
-1,
-1,
0,
2,
0,
1,
0,
0,
-1,
0,
-1,
-2,
-1,
0,
-1,
0,
-1,
-1,
-1,
0,
-1,
-2,
1,
1,
-1,
-1,
-1,
-1,
0,
-1,
-2,
-1,
-1,
-1,
-1,
0,
0,
0,
0,
0,
-1,
0,
0,
0,
-1,
-1,
-1,
0,
0,
0,
-1,
0,
-1,
-1,
0,
0,
0,
1,
-1,
-1,
-1,
-1,
-1,
0,
0,
0,
-1,
-1,
-1,
-1,
0,
0,
-1,
-1,
0,
1,
0,
0,
-1,
0,
0,
1,
-2,
-2,
0,
0,
0,
0,
-1,
-1,
0,
0,
-1,
-1,
-1,
0,
1,
1,
-1,
0,
0,
0,
0,
-1,
-2,
-1,
0,
0,
0,
0,
0,
0,
-1,
-2,
0,
1,
-1,
-1,
0,
1,
-1,
-1,
-1,
-1,
-1,
0,
-1,
-1,
0,
1,
-2,
-2,
0,
0,
0,
0,
-1,
-1,
0,
0,
0,
1,
-2,
-2,
-1,
-1,
-1,
-1,
0,
0,
0,
0,
-1,
0,
-1,
-2,
-1,
0,
0,
0,
-1,
-1,
0,
1,
-1,
-1,
-1,
0,
-1,
-1,
0,
1,
0,
0,
-1,
-1,
0,
0,
-1,
-1,
0,
0,
0,
0,
-1,
-1,
0,
0,
-2,
-2,
-1,
-1,
-1,
-1,
-1,
-1,
-1,
-1,
0,
1,
0,
1,
-2,
-2,
-1,
0,
-1,
-1,
-1,
-1,
0,
1,
0,
0,
-1,
-1,
0,
0,
-1,
0,
0,
0,
-1,
-1,
0,
1,
0,
0,
0,
0,
0,
0,
-1,
-1,
-1,
-1,
-1,
-1,
0,
0,
0,
-1,
-1,
0,
-1,
0,
-1,
-1,
0,
0,
-1,
0,
-1,
-1,
1,
1,
-1,
-1,
-1,
0,
-1,
-1,
-1,
-1,
-1,
-1,
-1,
0,
0,
0,
-1,
-1,
0,
1,
-2,
-3,
-1,
-1,
0,
0,
-1,
-2,
0,
0,
1,
0,
-2,
-1,
0,
0,
-1,
-1,
0,
0,
0,
0,
-1,
-1,
-1,
-1,
-2,
-2,
-1,
0,
-1,
-1,
0,
1,
-1,
-1,
-1,
0,
0,
1,
-2,
-2,
0,
1,
-1,
-1,
-1,
-1,
-1,
0,
0,
0,
-1,
0,
-1,
-1,
-1,
0,
-1,
-1,
0,
0,
0,
1,
-1,
-1,
-1,
0,
-1,
-1,
0,
0,
-1,
0,
-2,
-2,
-1,
0,
-1,
-1,
-1,
0,
0,
0,
-1,
-1,
-1,
-1,
-1,
0,
-1,
-1,
0,
0,
0,
1,
-1,
-1,
-1,
0,
0,
0,
-1,
-1,
0,
1,
0,
0,
-1,
-1,
0,
1,
-2,
-2,
-1,
0,
-1,
-1,
-1,
-1,
-1,
0,
-1,
-1,
-1,
0,
0,
1,
-2,
-2,
-1,
-1,
-1,
0,
-1,
-1,
0,
1,
0,
1,
0,
0,
-1,
-1,
-1,
0,
-1,
-1,
-1,
0,
0,
0,
0,
1,
0,
1,
-1,
-1,
0,
1,
-1,
-2,
-1,
0,
-1,
0,
0,
0,
-1,
0,
0,
1,
0,
-1,
-1,
-1,
0,
1,
-1,
0,
0,
0,
0,
0,
-1,
-2,
-1,
-1,
-1,
0,
-1,
-1,
0,
1,
0,
0,
-2,
-1,
-1,
-1,
-1,
0,
0,
1,
0,
0,
-1,
-1,
-1,
-1,
-1,
0,
0,
0,
-1,
-1,
0,
0,
-1,
-1,
0,
0,
0,
1,
-2,
-2,
-1,
0,
0,
0,
-1,
-1,
-1,
0,
-1,
-1,
1,
1,
-1,
-1,
-1,
-1,
-1,
0,
-1,
0,
-1,
-1,
-1,
0,
-1,
-1,
0,
0,
0,
1,
-1,
-1,
-1,
-1,
0,
0,
-2,
-2,
0,
1,
0,
1,
-1,
-1,
0,
1,
-1,
-1,
-1,
-1,
-1,
0,
-1,
-1,
-1,
0,
-1,
-1,
0,
0,
0,
0,
-1,
-2,
-1,
0,
-1,
-1,
-1,
-1,
0,
1,
0,
0,
-1,
-1,
-1,
-1,
0,
1,
-1,
-1,
-1,
-1,
0,
1,
-1,
-1,
0,
1,
0,
0,
-1,
-1,
-1,
0,
-1,
0,
-1,
-1,
-1,
-1,
0,
1,
0,
0,
1,
1,
-1,
-1,
-1,
-1,
-1,
0,
-1,
-1,
0,
0,
-1,
0,
-1,
0,
-1,
0,
-1,
-1,
0,
1,
0,
0,
-1,
-1,
-1,
-1,
-1,
0,
-1,
-1,
-1,
0,
-1,
-1,
-1,
-1,
-1,
-1,
-1,
0,
-1,
-1,
-1,
-1,
-1,
0,
0,
0,
-1,
-1,
-1,
0,
-1,
0,
-1,
0,
0,
0,
0,
0,
-1,
-1,
-1,
0,
0,
0,
-2,
-2,
-2,
-1,
-1,
0,
0,
0,
-1,
0,
-1,
-1,
-1,
-1,
-1,
-1,
0,
1,
-1,
0,
-1,
-1,
-1,
-1,
0,
0,
-1,
-1,
0,
0,
0,
1,
-1,
-1,
-1,
-1,
0,
0,
-1,
-1,
-1,
-1,
-2,
-1,
0,
0,
-1,
-1,
-1,
0,
1,
0,
-1,
0,
-1,
-1,
0,
1,
-1,
0,
-1,
0,
0,
0,
-2,
-2,
-1,
-1,
0,
0,
-1,
-1,
-1,
0,
0,
1,
-1,
-1,
0,
1,
-1,
0,
-1,
-2,
0,
0,
-1,
-1,
0,
1,
-1,
0,
-1,
0,
-1,
-1,
-1,
-1,
-1,
0,
0,
0,
0,
1,
-2,
-2,
-1,
0,
0,
0,
0,
-1,
0,
1,
-1,
-1,
-1,
0,
0,
1,
-1,
-1,
0,
1,
0,
0,
-1,
-1,
0,
1,
-1,
-1,
-1,
-1,
0,
0,
-1,
-1,
-2,
-1,
-1,
0,
0,
0,
-1,
0,
0,
1,
-1,
-1,
0,
1,
-1,
-1,
0,
0,
-1,
0,
-1,
-1,
0,
1,
-1,
0,
-1,
-1,
0,
1,
-1,
-2,
-2,
-1,
0,
0,
0,
0,
-1,
-1,
-1,
-1,
-1,
0,
-1,
-1,
0,
1,
-2,
-2,
-1,
0,
0,
-1,
-1,
0,
0,
1,
0,
0,
-1,
-1,
0,
0,
-2,
-2,
-1,
-1,
0,
0,
-2,
-2,
0,
1,
0,
0,
-1,
-1,
-1,
0,
-1,
0,
0,
0,
-1,
-1,
-1,
0,
-1,
-1,
-1,
-1,
-1,
-1,
0,
0,
0,
0,
-1,
-1,
1,
1,
-1,
-1,
-1,
-1,
0,
0,
-1,
-1,
-1,
0,
0,
0,
0,
0,
-1,
-1,
-1,
-1,
-1,
-1,
-1,
-1,
0,
0,
-2,
-2,
-1,
0,
-1,
0,
-1,
-1,
0,
1,
-1,
-1,
0,
1,
0,
0,
-1,
-2,
0,
1,
-1,
-1,
-1,
-1,
0,
1,
-1,
-1,
-1,
0,
0,
1,
-1,
-1,
-1,
0,
0,
0,
-1,
-1,
0,
1,
-1,
-1,
-1,
0,
0,
1,
-1,
-1,
-1,
0,
0,
0,
-1,
-1,
-1,
0,
-1,
-1,
0,
0,
0,
0,
-1,
-2,
0,
0,
-1,
0,
-1,
-1,
0,
2,
0,
1,
-1,
-1,
0,
1,
-1,
-1,
-1,
0,
-1,
0,
0,
-1,
0,
1,
0,
1,
1,
0,
0,
1,
0,
-1,
-1,
0,
-1,
0,
-1,
-1,
0,
1,
-1,
-1,
0,
0,
-1,
-1,
0,
0,
-1,
0,
-1,
0,
-1,
-1,
-1,
0,
0,
1,
0,
0,
-1,
0,
0,
0,
0,
-1,
-2,
-1,
-1,
-1,
0,
1,
0,
0,
0,
0,
0,
1,
-1,
-2,
-1,
0,
-1,
0,
0,
0,
0,
1,
-1,
-1,
0,
0,
-1,
0,
0,
0,
0,
0,
-1,
0,
0,
1,
-2,
-2,
-1,
-1,
1,
1,
-1,
-1,
0,
0,
-1,
-1,
-1,
0,
0,
0,
-1,
0,
0,
1,
0,
0,
0,
1,
-1,
-2,
0,
0,
-2,
-1,
-1,
-1,
0,
2,
0,
0,
0,
0,
-1,
0,
-1,
-1,
0,
1,
-1,
-1,
0,
0,
-1,
0,
-1,
-2,
0,
0,
-1,
-1,
0,
1,
0,
0,
-1,
0,
0,
0,
-1,
0,
0,
0,
0,
0,
-1,
-1,
-1,
-1,
-1,
-1,
-1,
0,
0,
0,
-1,
-1,
-1,
-1,
0,
0,
0,
1,
-1,
-1,
0,
0,
-1,
-1,
-1,
-1,
0,
1,
-1,
-1,
0,
0,
-1,
-1,
0,
0,
0,
0,
-1,
0,
1,
1,
-1,
-1,
-1,
0,
-1,
-1,
0,
0,
0,
1,
-1,
-1,
-1,
-1,
-1,
-2,
-1,
0,
0,
0,
0,
0,
0,
1,
-1,
-2,
-1,
-1,
-1,
0,
-1,
-1,
0,
1,
-1,
-2,
-1,
0,
-1,
-1,
-1,
-1,
1,
1,
0,
-1,
0,
1,
-1,
-2,
-1,
0,
-1,
0,
-1,
-1,
0,
1,
-1,
-2,
-1,
0,
1,
1,
-1,
-1,
0,
1,
0,
-1,
-1,
-1,
0,
0,
-1,
-1,
-1,
0,
-1,
-1,
0,
1,
-1,
-2,
-1,
-1,
-1,
-1,
0,
1,
0,
1,
0,
0,
-1,
0,
-1,
-1,
-1,
-1,
-1,
-1,
-1,
-1,
-1,
0,
1,
0,
-1,
-1,
0,
0,
-1,
-1,
0,
0,
1,
1,
-1,
-1,
-1,
0,
-1,
-1,
-1,
0,
-1,
-1,
-1,
0,
0,
0,
-1,
0,
0,
1,
-1,
-2,
-1,
-1,
-1,
-1,
-1,
-1,
0,
1,
-1,
0,
0,
0,
0,
0,
-1,
0,
0,
0,
1,
1,
0,
0,
-1,
-2,
-1,
-1,
-1,
-1,
-1,
-1,
0,
1,
-1,
-1,
0,
0,
0,
1,
-1,
-1,
0,
0,
0,
0,
-1,
-1,
0,
1,
-1,
-1,
-1,
0,
0,
0,
-1,
0,
-1,
-1,
-1,
0,
0,
1,
-2,
-3,
-1,
0,
1,
1,
-1,
-1,
0,
0,
-1,
-1,
-1,
0,
-1,
-1,
0,
1,
0,
0,
-1,
-1,
0,
1,
-2,
-2,
0,
0,
1,
1,
-1,
-1,
0,
1,
0,
0,
-1,
0,
-1,
-1,
1,
2,
0,
0,
0,
0,
0,
1,
-2,
-3,
0,
0,
1,
1,
-1,
-1,
0,
1,
-1,
-1,
-1,
0,
0,
0,
-1,
0,
0,
1,
-1,
-1,
-1,
-1,
-1,
-1,
-1,
-1,
0,
0,
0,
0,
-1,
0,
-1,
-1,
1,
1,
-1,
-1,
0,
1,
0,
1,
-1,
-1,
0,
1,
-2,
-2,
-1,
0,
-1,
0,
-1,
-1,
-1,
0,
-1,
-1,
-1,
-1,
0,
1,
-2,
-2,
-1,
0,
0,
0,
0,
0,
0,
1,
-1,
-1,
-1,
0,
-1,
-1,
0,
1,
-1,
-1,
0,
0,
0,
0,
-1,
0,
0,
0,
-1,
-1,
0,
1,
-1,
-1,
-1,
-1,
-1,
0,
0,
-1,
0,
1,
0,
1,
0,
0,
0,
1,
-2,
-2,
-1,
0,
-1,
0,
0,
0,
-1,
0,
-1,
-1,
-1,
0,
-1,
-1,
0,
1,
-2,
-2,
-1,
0,
1,
1,
-1,
-2,
0,
1,
-1,
-1,
-1,
-1,
0,
1,
0,
0,
-1,
0,
0,
0,
-1,
1,
-1,
0,
0,
-1,
0,
1,
-2,
-2,
-1,
0,
-1,
0,
-1,
-1,
-1,
0,
-1,
-1,
-1,
0,
0,
0,
0,
0,
1,
1,
-1,
-1,
-1,
-1,
-1,
-1,
-1,
-1,
0,
0,
-1,
-1,
-1,
0,
0,
0,
-1,
0,
-1,
-1,
-1,
0,
-1,
0,
-1,
-1,
0,
1,
-1,
-1,
0,
0,
-1,
-1,
-1,
-1,
0,
1,
0,
0,
1,
1,
-1,
0,
-1,
-2,
-1,
0,
0,
0,
-1,
-2,
0,
1,
-1,
-1,
-1,
0,
-1,
-1,
-1,
0,
-1,
-1,
0,
0,
0,
0,
-1,
0,
0,
1,
0,
0,
-1,
-1,
0,
0,
-1,
-1,
0,
0,
0,
0,
-1,
-1,
-1,
-1,
1,
1,
0,
1,
-1,
-2,
-1,
0,
-1,
0,
-1,
-1,
-1,
0,
-1,
0,
0,
0,
-1,
-1,
0,
1,
0,
0,
-1,
-1,
1,
1,
-1,
-1,
0,
0,
0,
0,
-1,
-1,
0,
1,
0,
0,
-1,
0,
0,
-1,
-1,
0,
0,
1,
0,
0,
-1,
