5-grundlagen-opAmps/data/ALL0035/A0035CH2.CSV

Memory Length,4000,
Trigger Level,0.00000e+00,
Source,CH2,
Probe,1.0X,
Vertical Units,V,
Vertical Scale,5.00000e-02,
Vertical Position,0.00000e+00,
Horizontal Units,S,
Horizontal Scale,5.00000e-07,
Horizontal Position,5.0000000e-07,
Horizontal Mode,Main,
Sampling Period,2.00000e-09,
Firmware,V1.14,
Time, ,
Mode,Fast,
Waveform Data,
44,
44,
44,
44,
45,
45,
44,
46,
46,
45,
43,
45,
47,
48,
45,
45,
45,
47,
49,
49,
44,
43,
46,
51,
51,
46,
41,
46,
51,
51,
47,
43,
44,
49,
52,
50,
43,
42,
45,
51,
51,
44,
41,
43,
48,
50,
45,
41,
41,
46,
49,
49,
45,
41,
43,
46,
50,
46,
41,
41,
44,
47,
45,
44,
42,
41,
44,
47,
46,
43,
41,
41,
44,
45,
42,
39,
39,
41,
44,
46,
40,
36,
37,
42,
44,
41,
37,
35,
40,
44,
40,
37,
35,
38,
41,
42,
37,
34,
37,
41,
41,
37,
35,
38,
39,
38,
35,
35,
37,
39,
37,
35,
35,
37,
39,
37,
34,
33,
34,
37,
35,
33,
31,
33,
36,
34,
31,
31,
32,
34,
33,
31,
30,
29,
30,
31,
28,
28,
29,
29,
26,
25,
26,
28,
26,
22,
21,
27,
27,
25,
19,
19,
24,
25,
24,
18,
15,
18,
21,
22,
15,
12,
15,
18,
19,
13,
10,
13,
16,
17,
12,
9,
9,
12,
13,
9,
7,
6,
9,
9,
8,
6,
5,
8,
6,
2,
1,
6,
7,
5,
1,
0,
3,
4,
1,
-2,
-3,
-1,
1,
0,
-3,
-5,
-4,
-2,
-3,
-4,
-5,
-4,
-4,
-6,
-6,
-5,
-6,
-10,
-11,
-12,
-9,
-8,
-11,
-13,
-13,
-12,
-7,
-8,
-14,
-16,
-15,
-8,
-8,
-17,
-22,
-21,
-14,
-14,
-19,
-24,
-25,
-20,
-17,
-18,
-25,
-27,
-23,
-18,
-19,
-25,
-31,
-30,
-25,
-23,
-27,
-32,
-34,
-30,
-27,
-29,
-30,
-35,
-35,
-31,
-29,
-30,
-36,
-39,
-38,
-34,
-34,
-36,
-39,
-40,
-37,
-36,
-33,
-38,
-43,
-40,
-38,
-37,
-39,
-45,
-45,
-42,
-39,
-39,
-42,
-44,
-44,
-40,
-40,
-42,
-46,
-45,
-42,
-42,
-45,
-45,
-48,
-45,
-43,
-45,
-48,
-48,
-47,
-44,
-43,
-48,
-49,
-47,
-45,
-44,
-48,
-49,
-48,
-45,
-46,
-49,
-50,
-48,
-47,
-46,
-48,
-51,
-50,
-46,
-46,
-48,
-51,
-51,
-48,
-46,
-49,
-51,
-53,
-51,
-49,
-50,
-50,
-51,
-51,
-50,
-49,
-51,
-51,
-51,
-53,
-53,
-51,
-51,
-49,
-54,
-55,
-53,
-49,
-48,
-53,
-56,
-53,
-48,
-48,
-51,
-57,
-55,
-50,
-48,
-52,
-55,
-55,
-51,
-48,
-49,
-55,
-55,
-52,
-47,
-51,
-54,
-56,
-51,
-49,
-51,
-53,
-52,
-51,
-49,
-50,
-53,
-51,
-48,
-48,
-51,
-52,
-51,
-48,
-46,
-49,
-53,
-52,
-45,
-44,
-47,
-50,
-49,
-45,
-42,
-45,
-48,
-49,
-44,
-42,
-43,
-47,
-47,
-44,
-42,
-43,
-42,
-43,
-42,
-44,
-43,
-41,
-40,
-41,
-42,
-44,
-41,
-37,
-37,
-40,
-44,
-42,
-36,
-32,
-36,
-44,
-43,
-35,
-29,
-35,
-38,
-41,
-36,
-29,
-30,
-36,
-40,
-37,
-30,
-27,
-30,
-37,
-35,
-29,
-25,
-29,
-34,
-31,
-29,
-26,
-24,
-28,
-29,
-27,
-25,
-24,
-22,
-24,
-26,
-26,
-22,
-21,
-19,
-21,
-23,
-23,
-19,
-16,
-18,
-21,
-21,
-17,
-14,
-15,
-17,
-17,
-15,
-12,
-11,
-15,
-16,
-15,
-10,
-9,
-12,
-13,
-12,
-8,
-6,
-7,
-11,
-9,
-7,
-6,
-5,
-8,
-8,
-4,
-2,
-2,
-4,
-3,
-1,
1,
1,
-3,
-2,
0,
2,
2,
0,
-1,
1,
3,
6,
3,
2,
3,
7,
10,
10,
7,
7,
7,
10,
11,
8,
9,
8,
9,
11,
14,
12,
11,
13,
15,
18,
17,
16,
15,
17,
19,
20,
19,
16,
14,
17,
21,
22,
19,
17,
19,
23,
27,
25,
22,
21,
25,
29,
27,
23,
22,
25,
28,
27,
27,
26,
27,
31,
31,
31,
28,
29,
32,
32,
31,
29,
31,
33,
33,
29,
31,
34,
36,
35,
32,
34,
36,
38,
35,
34,
33,
36,
38,
39,
34,
33,
36,
41,
42,
38,
36,
36,
42,
42,
41,
39,
39,
40,
41,
41,
41,
41,
40,
41,
42,
43,
43,
42,
42,
43,
45,
48,
45,
40,
40,
46,
50,
47,
39,
39,
43,
50,
48,
43,
40,
42,
50,
52,
45,
40,
41,
48,
54,
49,
41,
42,
48,
51,
50,
46,
44,
46,
49,
51,
48,
45,
47,
48,
49,
48,
45,
47,
48,
47,
47,
48,
48,
46,
46,
47,
48,
49,
45,
46,
45,
48,
49,
47,
45,
45,
47,
49,
47,
43,
43,
48,
50,
45,
41,
45,
48,
47,
44,
42,
42,
46,
47,
45,
42,
41,
44,
48,
45,
38,
38,
42,
45,
44,
39,
38,
40,
43,
42,
40,
36,
38,
39,
42,
40,
36,
35,
38,
39,
39,
37,
35,
36,
36,
37,
37,
36,
34,
34,
35,
36,
35,
31,
30,
31,
34,
35,
32,
27,
27,
31,
33,
32,
26,
25,
28,
30,
30,
27,
25,
23,
26,
29,
26,
23,
21,
25,
26,
24,
22,
19,
21,
24,
22,
20,
18,
18,
20,
19,
17,
17,
17,
17,
17,
15,
14,
15,
15,
15,
12,
12,
15,
14,
12,
9,
8,
11,
12,
9,
7,
4,
6,
11,
10,
5,
3,
4,
7,
9,
6,
1,
1,
3,
5,
3,
1,
-1,
-1,
-1,
0,
-2,
-4,
-4,
-4,
-4,
-1,
-4,
-5,
-6,
-6,
-4,
-2,
-5,
-10,
-13,
-11,
-7,
-8,
-16,
-17,
-14,
-10,
-7,
-12,
-20,
-18,
-11,
-8,
-13,
-20,
-22,
-16,
-13,
-15,
-23,
-25,
-21,
-18,
-19,
-22,
-25,
-22,
-20,
-19,
-24,
-26,
-25,
-24,
-23,
-27,
-27,
-26,
-27,
-27,
-31,
-31,
-29,
-28,
-29,
-31,
-31,
-29,
-31,
-32,
-34,
-32,
-34,
-33,
-37,
-37,
-35,
-33,
-36,
-38,
-38,
-35,
-32,
-37,
-40,
-40,
-38,
-34,
-39,
-44,
-42,
-39,
-36,
-38,
-45,
-46,
-39,
-36,
-38,
-44,
-49,
-44,
-38,
-38,
-46,
-50,
-48,
-41,
-42,
-45,
-49,
-50,
-44,
-41,
-43,
-48,
-51,
-48,
-46,
-46,
-48,
-51,
-49,
-47,
-47,
-47,
-48,
-50,
-50,
-49,
-47,
-48,
-50,
-52,
-51,
-49,
-47,
-49,
-53,
-55,
-52,
-47,
-48,
-52,
-57,
-54,
-48,
-47,
-51,
-56,
-57,
-50,
-48,
-51,
-55,
-56,
-53,
-50,
-50,
-54,
-53,
-54,
-52,
-51,
-55,
-54,
-53,
-53,
-52,
-54,
-54,
-52,
-52,
-53,
-53,
-53,
-52,
-50,
-53,
-54,
-53,
-50,
-49,
-51,
-55,
-54,
-52,
-48,
-50,
-53,
-55,
-52,
-48,
-48,
-51,
-53,
-53,
-49,
-48,
-47,
-50,
-51,
-50,
-47,
-47,
-47,
-50,
-50,
-47,
-45,
-45,
-46,
-49,
-47,
-45,
-43,
-43,
-44,
-48,
-46,
-44,
-41,
-41,
-45,
-47,
-44,
-40,
-39,
-44,
-47,
-45,
-40,
-39,
-39,
-44,
-44,
-40,
-37,
-37,
-41,
-44,
-39,
-35,
-33,
-39,
-40,
-38,
-33,
-33,
-36,
-38,
-36,
-33,
-31,
-33,
-35,
-35,
-31,
-29,
-31,
-33,
-32,
-30,
-28,
-31,
-32,
-29,
-26,
-27,
-29,
-30,
-28,
-23,
-24,
-25,
-26,
-25,
-23,
-22,
-22,
-22,
-22,
-21,
-21,
-22,
-19,
-17,
-19,
-22,
-20,
-16,
-13,
-14,
-18,
-20,
-15,
-10,
-9,
-15,
-18,
-14,
-7,
-6,
-12,
-17,
-13,
-6,
-2,
-8,
-13,
-13,
-6,
-1,
-2,
-9,
-12,
-4,
1,
2,
-3,
-5,
-3,
1,
2,
-1,
-1,
0,
1,
2,
3,
2,
3,
3,
4,
9,
8,
9,
9,
5,
8,
12,
11,
10,
5,
6,
13,
15,
12,
8,
6,
14,
19,
17,
14,
14,
16,
21,
21,
17,
13,
16,
19,
20,
18,
16,
19,
22,
23,
20,
19,
24,
25,
25,
24,
23,
25,
27,
26,
22,
22,
27,
29,
28,
24,
25,
31,
33,
32,
27,
28,
31,
33,
33,
31,
27,
28,
33,
36,
34,
32,
33,
35,
37,
36,
34,
36,
35,
36,
38,
39,
38,
35,
35,
37,
39,
41,
38,
37,
38,
42,
44,
41,
38,
38,
40,
44,
44,
40,
37,
41,
45,
45,
43,
41,
42,
45,
45,
44,
42,
42,
43,
47,
45,
44,
41,
43,
48,
46,
44,
44,
45,
48,
46,
46,
44,
45,
46,
47,
45,
45,
45,
48,
48,
46,
44,
46,
50,
49,
47,
46,
45,
46,
49,
50,
45,
44,
45,
49,
49,
47,
45,
45,
47,
48,
47,
48,
45,
44,
47,
48,
49,
46,
43,
45,
48,
48,
46,
43,
42,
45,
50,
49,
44,
40,
41,
48,
50,
45,
37,
38,
46,
48,
45,
41,
37,
43,
48,
47,
41,
36,
39,
45,
47,
42,
37,
37,
42,
44,
41,
39,
37,
38,
41,
40,
39,
37,
37,
38,
39,
38,
38,
38,
36,
35,
36,
39,
37,
34,
31,
34,
38,
37,
31,
30,
33,
36,
35,
32,
27,
28,
31,
34,
31,
26,
28,
31,
31,
27,
25,
26,
27,
28,
25,
22,
24,
26,
27,
25,
20,
22,
27,
25,
19,
16,
20,
25,
23,
18,
14,
16,
21,
20,
15,
11,
14,
18,
18,
15,
10,
10,
13,
15,
13,
9,
9,
10,
11,
10,
8,
9,
8,
6,
7,
7,
7,
5,
2,
3,
5,
6,
3,
2,
-1,
1,
4,
3,
0,
-5,
-4,
0,
0,
-4,
-7,
-7,
-3,
-3,
-5,
-9,
-8,
-5,
-4,
-6,
-9,
-12,
-9,
-7,
-9,
-14,
-16,
-14,
-12,
-12,
-15,
-16,
-14,
-13,
-15,
-17,
-17,
-15,
-14,
-15,
-17,
-21,
-21,
-18,
-18,
-22,
-25,
-24,
-21,
-20,
-23,
-23,
-25,
-23,
-22,
-21,
-25,
-27,
-30,
-26,
-25,
-26,
-31,
-32,
-29,
-26,
-27,
-29,
-31,
-33,
-31,
-27,
-29,
-31,
-37,
-36,
-32,
-30,
-33,
-38,
-39,
-35,
-33,
-32,
-37,
-42,
-40,
-34,
-32,
-36,
-45,
-45,
-40,
-34,
-36,
-44,
-47,
-44,
-38,
-36,
-41,
-48,
-46,
-41,
-38,
-42,
-48,
-49,
-45,
-41,
-43,
-46,
-47,
-46,
-45,
-44,
-44,
-46,
-47,
-47,
-46,
-46,
-47,
-47,
-48,
-48,
-47,
-46,
-47,
-48,
-51,
-50,
-47,
-46,
-49,
-51,
-52,
-47,
-47,
-48,
-53,
-51,
-49,
-47,
-49,
-52,
-51,
-49,
-48,
-49,
-53,
-53,
-49,
-49,
-52,
-53,
-54,
-49,
-49,
-52,
-56,
-53,
-49,
-48,
-52,
-54,
-53,
-49,
-48,
-50,
-55,
-55,
-50,
-47,
-51,
-54,
-56,
-51,
-48,
-50,
-54,
-54,
-51,
-49,
-49,
-54,
-55,
-52,
-51,
-49,
-51,
-51,
-51,
-51,
-51,
-51,
-50,
-48,
-49,
-53,
-50,
-49,
-47,
-48,
-52,
-51,
-49,
-44,
-47,
-50,
-51,
-47,
-45,
-45,
-49,
-50,
-47,
-42,
-44,
-48,
-49,
-46,
-43,
-42,
-46,
-46,
-45,
-42,
-41,
-45,
-45,
-42,
-40,
-41,
-46,
-45,
-41,
-36,
-39,
-43,
-44,
-39,
-37,
-37,
-40,
-42,
-38,
-35,
-35,
-37,
-40,
-37,
-33,
-30,
-35,
-37,
-37,
-33,
-32,
-30,
-32,
-32,
-34,
-32,
-29,
-28,
-31,
-32,
-31,
-26,
-24,
-25,
-28,
-29,
-29,
-22,
-21,
-23,
-29,
-27,
-22,
-18,
-19,
-24,
-26,
-23,
-18,
-15,
-19,
-24,
-23,
-17,
-12,
-14,
-21,
-21,
-17,
-12,
-12,
-16,
-18,
-16,
-12,
-8,
-10,
-16,
-15,
-10,
-7,
-7,
-12,
-13,
-9,
-6,
-5,
-5,
-6,
-6,
-6,
-3,
-2,
-3,
-3,
-2,
0,
1,
-1,
-1,
0,
0,
0,
2,
3,
2,
1,
4,
5,
7,
7,
8,
7,
9,
11,
11,
8,
7,
11,
11,
8,
9,
9,
10,
15,
14,
12,
15,
16,
18,
16,
15,
15,
18,
19,
18,
15,
15,
19,
24,
21,
17,
17,
21,
26,
25,
21,
19,
23,
27,
29,
26,
21,
22,
28,
31,
27,
24,
25,
30,
33,
29,
28,
30,
33,
33,
32,
31,
32,
32,
31,
32,
34,
35,
35,
36,
35,
35,
37,
39,
37,
34,
35,
39,
42,
38,
34,
36,
40,
42,
40,
38,
40,
42,
43,
43,
39,
41,
44,
44,
43,
40,
41,
45,
45,
43,
40,
43,
47,
47,
42,
41,
44,
49,
47,
44,
40,
44,
47,
50,
45,
41,
43,
49,
51,
48,
41,
43,
48,
50,
49,
46,
43,
46,
48,
49,
47,
45,
45,
47,
50,
48,
46,
45,
45,
47,
48,
50,
48,
45,
43,
48,
52,
50,
44,
43,
47,
51,
51,
47,
42,
43,
51,
52,
49,
42,
41,
48,
54,
50,
43,
40,
45,
50,
49,
45,
41,
43,
46,
48,
45,
42,
42,
45,
48,
45,
41,
43,
44,
44,
44,
44,
43,
44,
43,
45,
44,
42,
42,
42,
43,
42,
43,
43,
43,
42,
41,
43,
43,
42,
40,
41,
42,
41,
38,
39,
40,
39,
38,
38,
37,
38,
38,
38,
37,
34,
34,
38,
36,
33,
30,
33,
36,
36,
31,
29,
28,
32,
33,
31,
26,
25,
29,
32,
31,
24,
21,
25,
27,
26,
24,
19,
20,
24,
25,
24,
18,
17,
20,
23,
22,
17,
15,
16,
17,
17,
14,
14,
14,
13,
13,
12,
11,
11,
11,
11,
10,
10,
9,
7,
6,
6,
8,
8,
5,
2,
3,
5,
6,
5,
0,
0,
2,
2,
1,
0,
-1,
0,
1,
-1,
-2,
-4,
-4,
-2,
-5,
-7,
-7,
-5,
-5,
-8,
-11,
-9,
-5,
-6,
-11,
-14,
-11,
-6,
-7,
-11,
-16,
-18,
-11,
-8,
-13,
-19,
-22,
-15,
-9,
-12,
-19,
-22,
-17,
-10,
-13,
-18,
-22,
-20,
-18,
-16,
-19,
-23,
-25,
-21,
-19,
-21,
-23,
-23,
-22,
-22,
-21,
-21,
-24,
-26,
-30,
-25,
-21,
-22,
-28,
-32,
-30,
-25,
-23,
-28,
-32,
-33,
-27,
-21,
-25,
-32,
-37,
-33,
-25,
-26,
-35,
-38,
-35,
-28,
-27,
-33,
-38,
-36,
-32,
-30,
-32,
-38,
-38,
-35,
-33,
-36,
-39,
-40,
-37,
-36,
-38,
-40,
-40,
-38,
-37,
-38,
-41,
-39,
-39,
-39,
-41,
-43,
-41,
-40,
-41,
-40,
-44,
-41,
-41,
-42,
-43,
-42,
-42,
-42,
-44,
-44,
-42,
-42,
-44,
-46,
-47,
-45,
-44,
-44,
-48,
-48,
-46,
-42,
-43,
-48,
-52,
-48,
-45,
-42,
-48,
-52,
-53,
-47,
-46,
-48,
-53,
-53,
-49,
-46,
-47,
-52,
-55,
-53,
-48,
-47,
-51,
-55,
-54,
-50,
-49,
-49,
-53,
-54,
-52,
-51,
-49,
-51,
-52,
-53,
-52,
-52,
-51,
-51,
-54,
-54,
-53,
-53,
-53,
-52,
-53,
-53,
-52,
-52,
-52,
-54,
-57,
-53,
-52,
-53,
-53,
-54,
-55,
-53,
-50,
-51,
-54,
-55,
-54,
-52,
-51,
-52,
-54,
-52,
-52,
-52,
-52,
-51,
-51,
-51,
-52,
-52,
-51,
-48,
-49,
-52,
-53,
-51,
-48,
-46,
-50,
-54,
-52,
-47,
-45,
-47,
-53,
-52,
-47,
-44,
-45,
-49,
-51,
-47,
-41,
-41,
-47,
-50,
-47,
-40,
-39,
-41,
-46,
-46,
-39,
-37,
-39,
-41,
-44,
-40,
-37,
-36,
-38,
-39,
-39,
-36,
-37,
-33,
-33,
-35,
-36,
-35,
-31,
-28,
-32,
-34,
-35,
-29,
-25,
-26,
-30,
-32,
-27,
-22,
-21,
-26,
-31,
-29,
-21,
-17,
-23,
-27,
-25,
-18,
-14,
-16,
-21,
-22,
-19,
-13,
-13,
-19,
-20,
-14,
-10,
-12,
-17,
-15,
-10,
-7,
-9,
-12,
-12,
-8,
-5,
-5,
-8,
-8,
-5,
-2,
-4,
-7,
-7,
-4,
-1,
0,
-3,
-1,
-1,
1,
1,
3,
3,
3,
2,
3,
3,
4,
6,
6,
3,
5,
9,
10,
6,
5,
7,
14,
16,
12,
7,
7,
15,
18,
13,
9,
6,
12,
18,
18,
12,
9,
14,
22,
23,
16,
13,
17,
19,
22,
20,
17,
17,
18,
19,
23,
20,
19,
19,
24,
24,
24,
25,
25,
24,
24,
25,
27,
25,
23,
21,
26,
27,
28,
27,
26,
26,
29,
30,
30,
27,
26,
30,
32,
31,
28,
29,
31,
32,
32,
30,
31,
32,
33,
33,
34,
32,
33,
33,
32,
35,
36,
35,
35,
33,
33,
35,
39,
37,
34,
33,
37,
40,
40,
36,
34,
34,
38,
41,
38,
34,
34,
38,
43,
42,
37,
34,
35,
42,
43,
38,
37,
37,
40,
44,
43,
39,
37,
40,
45,
45,
42,
39,
41,
43,
45,
43,
42,
42,
42,
44,
45,
45,
44,
41,
44,
45,
46,
45,
43,
43,
45,
46,
48,
45,
43,
44,
48,
50,
46,
42,
43,
48,
50,
47,
45,
44,
47,
48,
49,
45,
43,
47,
50,
50,
45,
43,
47,
51,
49,
45,
45,
48,
52,
49,
46,
43,
47,
51,
51,
48,
44,
45,
50,
51,
48,
43,
46,
49,
49,
47,
45,
45,
47,
47,
47,
47,
45,
45,
46,
45,
46,
45,
44,
42,
42,
45,
48,
44,
39,
40,
43,
47,
44,
37,
36,
40,
45,
43,
37,
32,
37,
41,
43,
37,
29,
33,
39,
40,
37,
29,
29,
35,
36,
32,
30,
27,
29,
33,
32,
29,
27,
28,
28,
27,
25,
26,
27,
26,
24,
24,
25,
25,
22,
18,
20,
22,
22,
19,
16,
16,
18,
19,
19,
14,
11,
15,
16,
15,
12,
9,
10,
14,
12,
9,
8,
8,
9,
6,
5,
7,
7,
5,
3,
0,
3,
5,
4,
0,
-3,
-1,
4,
2,
-3,
-7,
-4,
0,
1,
-4,
-8,
-9,
-5,
-2,
-5,
-12,
-14,
-11,
-5,
-5,
-11,
-15,
-12,
-7,
-7,
-12,
-14,
-15,
-14,
-11,
-14,
-18,
-20,
-18,
-17,
-15,
-17,
-21,
-19,
-19,
-17,
-18,
-18,
-21,
-21,
-21,
-22,
-21,
-23,
-27,
-26,
-24,
-22,
-25,
-27,
-27,
-25,
-25,
-22,
-26,
-28,
-29,
-26,
-26,
-28,
-32,
-31,
-27,
-28,
-31,
-32,
-31,
-29,
-28,
-31,
-34,
-33,
-32,
-30,
-31,
-36,
-36,
-33,
-29,
-31,
-37,
-37,
-35,
-29,
-31,
-35,
-37,
-35,
-32,
-31,
-35,
-41,
-40,
-36,
-32,
-36,
-43,
-44,
-40,
-35,
-39,
-44,
-46,
-44,
-43,
-41,
-45,
-47,
-49,
-46,
-44,
-44,
-45,
-46,
-47,
-45,
-43,
-40,
-42,
-46,
-46,
-43,
-40,
-40,
-46,
-47,
-46,
-40,
-40,
-45,
-50,
-49,
-44,
-41,
-47,
-54,
-55,
-49,
-46,
-50,
-57,
-58,
-55,
-48,
-52,
-56,
-58,
-55,
-51,
-51,
-52,
-54,
-52,
-50,
-49,
-50,
-50,
-46,
-46,
-47,
-47,
-47,
-45,
-44,
-47,
-47,
-46,
-44,
-45,
-48,
-50,
-48,
-47,
-45,
-49,
-53,
-53,
-50,
-50,
-52,
-57,
-57,
-53,
-53,
-55,
-56,
-56,
-54,
-55,
-55,
-54,
-52,
-51,
-51,
-52,
-52,
-48,
-45,
-49,
-51,
-49,
-45,
-41,
-44,
-50,
-49,
-45,
-41,
-44,
-48,
-52,
-46,
-41,
-41,
-48,
-51,
-49,
-44,
-44,
-48,
-53,
-51,
-45,
-45,
-47,
-49,
-49,
-47,
-46,
-46,
-47,
-47,
-47,
-44,
-45,
-42,
-43,
-44,
-41,
-41,
-39,
-39,
-38,
-38,
-39,
-37,
-35,
-34,
-38,
-37,
-35,
-31,
-33,
-35,
-36,
-33,
-31,
-30,
-32,
-34,
-33,
-29,
-29,
-31,
-34,
-32,
-29,
-28,
-33,
-33,
-32,
-28,
-28,
-32,
-33,
-31,
-27,
-25,
-27,
-30,
-31,
-25,
-21,
-24,
-27,
-30,
-25,
-19,
-19,
-20,
-24,
-22,
-15,
-13,
-15,
-19,
-20,
-16,
-9,
-11,
-17,
-17,
-14,
-11,
-9,
-10,
-15,
-15,
-12,
-9,
-8,
-12,
-15,
-12,
-8,
-6,
-8,
-11,
-10,
-9,
-4,
0,
-3,
-6,
-5,
0,
4,
4,
0,
-3,
1,
7,
9,
7,
4,
4,
10,
16,
15,
11,
9,
12,
16,
16,
12,
8,
9,
12,
13,
11,
8,
10,
13,
15,
14,
12,
13,
16,
17,
16,
15,
15,
18,
18,
17,
17,
20,
22,
23,
23,
22,
25,
29,
29,
25,
25,
28,
31,
31,
26,
27,
27,
31,
29,
28,
29,
29,
32,
30,
31,
28,
29,
31,
31,
31,
30,
33,
32,
29,
29,
32,
36,
36,
33,
31,
35,
39,
38,
35,
33,
35,
42,
42,
39,
35,
35,
42,
47,
42,
38,
38,
44,
47,
44,
40,
39,
43,
46,
44,
40,
40,
44,
44,
45,
42,
42,
43,
45,
45,
44,
43,
46,
46,
43,
41,
45,
45,
47,
44,
44,
47,
50,
48,
47,
44,
46,
48,
49,
47,
46,
46,
49,
48,
45,
46,
50,
50,
48,
43,
45,
48,
49,
44,
44,
43,
48,
49,
45,
43,
42,
46,
50,
47,
41,
41,
45,
49,
48,
41,
41,
43,
48,
49,
45,
40,
42,
46,
49,
48,
42,
41,
43,
48,
46,
42,
40,
41,
44,
45,
45,
41,
38,
40,
43,
45,
42,
38,
38,
40,
43,
43,
40,
36,
37,
41,
42,
40,
36,
33,
38,
42,
42,
37,
33,
35,
39,
41,
39,
35,
33,
39,
41,
39,
35,
31,
33,
37,
36,
33,
31,
32,
34,
35,
33,
29,
29,
31,
33,
32,
29,
31,
30,
32,
29,
27,
30,
30,
31,
29,
28,
28,
32,
31,
29,
27,
26,
29,
31,
27,
25,
25,
28,
28,
24,
24,
22,
23,
24,
21,
21,
20,
20,
19,
19,
20,
19,
17,
18,
17,
18,
18,
17,
16,
13,
15,
18,
18,
13,
9,
11,
16,
17,
12,
9,
8,
13,
15,
11,
4,
4,
9,
14,
10,
3,
1,
6,
7,
7,
0,
0,
1,
4,
1,
-2,
-5,
-3,
1,
-1,
-3,
-6,
-2,
0,
-2,
-6,
-6,
-3,
-1,
-4,
-9,
-9,
-5,
-5,
-8,
-10,
-11,
-8,
-8,
-10,
-9,
-12,
-11,
-8,
-10,
-13,
-15,
-14,
-16,
-17,
-20,
-18,
-18,
-19,
-22,
-21,
-20,
-18,
-21,
-24,
-22,
-20,
-19,
-22,
-29,
-30,
-25,
-19,
-22,
-31,
-35,
-30,
-22,
-23,
-33,
-37,
-32,
-26,
-27,
-33,
-39,
-40,
-34,
-32,
-36,
-42,
-43,
-38,
-35,
-37,
-43,
-44,
-42,
-40,
-39,
-41,
-45,
-46,
-44,
-43,
-41,
-43,
-47,
-49,
-48,
-44,
-43,
-44,
-48,
-48,
-46,
-42,
-44,
-48,
-52,
-49,
-44,
-43,
-49,
-51,
-52,
-47,
-45,
-48,
-53,
-53,
-49,
-45,
-48,
-52,
-55,
-50,
-48,
-48,
-52,
-53,
-52,
-49,
-50,
-51,
-53,
-50,
-49,
-50,
-52,
-52,
-51,
-49,
-50,
-52,
-52,
-50,
-49,
-49,
-52,
-53,
-52,
-49,
-48,
-50,
-52,
-52,
-51,
-49,
-48,
-52,
-52,
-49,
-48,
-48,
-50,
-51,
-51,
-49,
-50,
-48,
-50,
-50,
-51,
-50,
-49,
-48,
-49,
-50,
-51,
-48,
-49,
-48,
-50,
-52,
-49,
-47,
-46,
-48,
-52,
-51,
-47,
-45,
-48,
-50,
-52,
-47,
-46,
-45,
-49,
-51,
-47,
-43,
-44,
-46,
-49,
-47,
-43,
-42,
-46,
-48,
-45,
-42,
-43,
-43,
-46,
-44,
-41,
-41,
-43,
-44,
-43,
-41,
-40,
-41,
-44,
-40,
-37,
-38,
-41,
-42,
-40,
-36,
-38,
-40,
-42,
-40,
-36,
-35,
-37,
-39,
-39,
-36,
-37,
-34,
-39,
-38,
-37,
-35,
-36,
-34,
-33,
-36,
-37,
-37,
-33,
-32,
-36,
-37,
-37,
-31,
-31,
-32,
-36,
-39,
-34,
-26,
-27,
-33,
-39,
-35,
-25,
-22,
-31,
-37,
-35,
-26,
-23,
-25,
-32,
-33,
-27,
-21,
-21,
-29,
-33,
-27,
-20,
-19,
-23,
-26,
-25,
-20,
-19,
-17,
-19,
-20,
-20,
-17,
-16,
-14,
-16,
-18,
-16,
-15,
-12,
-10,
-13,
-16,
-14,
-9,
-7,
-11,
-16,
-13,
-8,
-4,
-7,
-10,
-10,
-5,
-2,
-1,
-5,
-6,
-2,
2,
1,
-3,
-5,
-1,
3,
2,
-1,
-1,
2,
5,
4,
2,
2,
5,
10,
9,
5,
4,
7,
11,
10,
6,
4,
6,
11,
10,
8,
8,
9,
13,
14,
15,
14,
12,
15,
16,
15,
15,
14,
15,
16,
17,
17,
18,
18,
18,
19,
24,
24,
23,
24,
22,
26,
26,
25,
23,
23,
23,
28,
30,
26,
23,
27,
31,
34,
31,
27,
28,
32,
35,
33,
31,
29,
30,
36,
37,
34,
34,
33,
39,
39,
39,
37,
39,
39,
42,
41,
40,
42,
41,
42,
41,
42,
42,
44,
43,
44,
43,
44,
47,
45,
44,
42,
43,
47,
46,
41,
42,
43,
46,
48,
46,
43,
42,
44,
48,
47,
44,
43,
45,
48,
48,
45,
44,
44,
45,
46,
48,
48,
45,
45,
46,
49,
48,
46,
45,
43,
45,
48,
51,
46,
43,
45,
49,
51,
45,
41,
42,
48,
52,
48,
42,
39,
44,
51,
52,
45,
41,
44,
51,
54,
46,
41,
43,
49,
51,
47,
44,
44,
46,
49,
49,
47,
45,
45,
49,
49,
46,
45,
46,
48,
47,
47,
48,
48,
45,
43,
46,
48,
46,
42,
41,
45,
48,
45,
42,
39,
42,
44,
45,
42,
38,
41,
45,
45,
39,
35,
39,
43,
42,
37,
34,
37,
41,
40,
35,
31,
34,
38,
39,
35,
28,
32,
38,
38,
33,
27,
28,
34,
36,
29,
28,
27,
28,
31,
29,
27,
24,
25,
28,
27,
26,
25,
26,
26,
24,
25,
25,
24,
22,
21,
22,
25,
23,
19,
19,
20,
24,
25,
19,
15,
17,
20,
23,
17,
13,
13,
18,
20,
18,
12,
11,
15,
17,
15,
11,
10,
11,
15,
15,
11,
9,
10,
11,
11,
8,
8,
7,
10,
8,
5,
7,
7,
8,
5,
3,
3,
6,
7,
5,
1,
0,
2,
4,
2,
-2,
-4,
-2,
0,
-2,
-4,
-6,
-5,
-3,
-2,
-3,
-5,
-7,
-7,
-3,
-3,
-6,
-11,
-11,
-8,
-9,
-9,
-11,
-14,
-13,
-10,
-11,
-12,
-14,
-17,
-14,
-12,
-11,
-15,
-19,
-19,
-16,
-16,
-15,
-20,
-24,
-23,
-18,
-16,
-20,
-25,
-26,
-20,
-17,
-22,
-26,
-29,
-26,
-22,
41,
