5-grundlagen-opAmps/data/ALL0035/A0035CH1.CSV

Memory Length,4000,
Trigger Level,0.00000e+00,
Source,CH1,
Probe,1.0X,
Vertical Units,V,
Vertical Scale,5.00000e-02,
Vertical Position,0.00000e+00,
Horizontal Units,S,
Horizontal Scale,5.00000e-07,
Horizontal Position,5.0000000e-07,
Horizontal Mode,Main,
Sampling Period,2.00000e-09,
Firmware,V1.14,
Time, ,
Mode,Fast,
Waveform Data,
21,
21,
22,
21,
19,
19,
23,
22,
22,
18,
18,
21,
25,
24,
19,
17,
19,
23,
25,
22,
19,
18,
21,
24,
25,
20,
16,
16,
22,
27,
24,
17,
12,
16,
24,
28,
20,
14,
13,
20,
29,
24,
16,
9,
16,
27,
28,
20,
9,
10,
23,
28,
21,
13,
10,
17,
28,
25,
16,
9,
13,
22,
25,
21,
11,
11,
16,
20,
22,
17,
12,
11,
17,
20,
21,
16,
10,
10,
17,
21,
18,
8,
7,
13,
20,
22,
12,
5,
8,
18,
21,
12,
5,
4,
14,
19,
13,
6,
5,
12,
15,
14,
8,
7,
10,
12,
12,
9,
7,
9,
12,
9,
5,
6,
12,
10,
7,
3,
5,
11,
10,
6,
3,
4,
7,
8,
7,
2,
3,
5,
7,
5,
2,
3,
4,
4,
2,
2,
4,
3,
1,
-1,
2,
4,
2,
-2,
-4,
0,
5,
3,
-3,
-7,
-3,
3,
4,
-2,
-10,
-8,
4,
3,
-2,
-11,
-12,
-2,
3,
0,
-7,
-12,
-6,
-2,
0,
-7,
-9,
-8,
-4,
-3,
-8,
-11,
-7,
-7,
-8,
-8,
-9,
-8,
-9,
-13,
-11,
-10,
-8,
-10,
-13,
-13,
-11,
-7,
-10,
-12,
-14,
-14,
-9,
-10,
-15,
-16,
-15,
-13,
-13,
-13,
-15,
-15,
-16,
-16,
-15,
-13,
-14,
-17,
-20,
-17,
-15,
-12,
-15,
-20,
-22,
-18,
-13,
-12,
-20,
-26,
-24,
-15,
-13,
-18,
-28,
-26,
-18,
-14,
-13,
-26,
-27,
-24,
-19,
-14,
-22,
-29,
-29,
-23,
-15,
-18,
-26,
-31,
-27,
-18,
-14,
-19,
-30,
-32,
-25,
-16,
-17,
-26,
-34,
-30,
-19,
-16,
-25,
-31,
-31,
-26,
-20,
-20,
-28,
-34,
-31,
-23,
-21,
-24,
-30,
-32,
-26,
-22,
-24,
-29,
-31,
-32,
-26,
-23,
-26,
-31,
-35,
-29,
-24,
-25,
-28,
-33,
-31,
-27,
-25,
-26,
-30,
-34,
-29,
-26,
-27,
-32,
-34,
-29,
-26,
-27,
-32,
-32,
-28,
-26,
-27,
-31,
-30,
-28,
-28,
-28,
-31,
-35,
-30,
-27,
-27,
-32,
-35,
-31,
-25,
-25,
-32,
-34,
-31,
-27,
-26,
-29,
-34,
-32,
-27,
-26,
-27,
-30,
-33,
-31,
-27,
-28,
-28,
-30,
-30,
-31,
-29,
-27,
-26,
-31,
-35,
-31,
-23,
-22,
-27,
-35,
-35,
-27,
-20,
-23,
-31,
-35,
-29,
-18,
-20,
-29,
-35,
-30,
-22,
-21,
-28,
-33,
-29,
-23,
-20,
-25,
-29,
-29,
-25,
-23,
-24,
-28,
-27,
-24,
-23,
-25,
-26,
-21,
-21,
-24,
-27,
-27,
-20,
-19,
-24,
-27,
-26,
-21,
-16,
-19,
-26,
-27,
-23,
-17,
-17,
-22,
-26,
-23,
-18,
-16,
-18,
-19,
-20,
-21,
-19,
-16,
-17,
-19,
-24,
-20,
-18,
-14,
-12,
-19,
-22,
-21,
-12,
-8,
-15,
-22,
-24,
-11,
-7,
-12,
-21,
-24,
-14,
-5,
-4,
-15,
-23,
-18,
-8,
-1,
-9,
-20,
-20,
-12,
-2,
-5,
-13,
-17,
-15,
-6,
-4,
-5,
-15,
-16,
-9,
-4,
-3,
-9,
-14,
-11,
-6,
-2,
-3,
-7,
-12,
-10,
-2,
-1,
-6,
-10,
-10,
-1,
2,
-2,
-7,
-10,
-3,
1,
2,
-1,
-8,
-5,
0,
3,
0,
-4,
-4,
0,
3,
1,
-1,
0,
-1,
2,
4,
1,
1,
0,
4,
4,
2,
1,
3,
4,
4,
3,
0,
3,
6,
6,
10,
1,
2,
5,
9,
10,
4,
3,
4,
10,
13,
7,
4,
4,
10,
14,
11,
4,
4,
9,
16,
14,
8,
5,
8,
14,
15,
12,
8,
8,
12,
15,
16,
12,
8,
8,
13,
17,
15,
12,
11,
9,
17,
18,
16,
11,
7,
14,
20,
21,
13,
8,
13,
20,
22,
17,
11,
10,
18,
24,
21,
14,
11,
16,
22,
21,
15,
13,
17,
21,
20,
18,
16,
19,
20,
18,
18,
17,
20,
22,
17,
16,
18,
22,
24,
19,
14,
15,
25,
26,
20,
15,
15,
23,
26,
22,
17,
17,
21,
24,
23,
20,
17,
18,
23,
23,
21,
19,
20,
18,
20,
23,
24,
21,
15,
17,
22,
28,
25,
16,
13,
19,
29,
29,
19,
12,
13,
26,
30,
23,
12,
10,
24,
30,
28,
16,
11,
18,
28,
28,
20,
12,
17,
24,
27,
23,
15,
15,
19,
24,
22,
19,
17,
16,
20,
21,
22,
19,
14,
16,
20,
22,
21,
15,
14,
16,
21,
22,
17,
13,
13,
19,
21,
18,
13,
13,
19,
19,
18,
15,
14,
17,
19,
17,
13,
11,
16,
18,
16,
12,
11,
16,
18,
18,
10,
8,
12,
17,
17,
10,
9,
10,
15,
18,
13,
8,
9,
12,
16,
15,
9,
5,
10,
14,
15,
11,
6,
4,
10,
14,
14,
6,
2,
2,
12,
16,
9,
3,
0,
6,
13,
12,
6,
0,
2,
8,
12,
8,
-1,
-1,
4,
9,
9,
2,
0,
0,
4,
7,
5,
0,
-4,
0,
5,
6,
1,
-5,
-2,
1,
5,
3,
-4,
-6,
-2,
1,
5,
0,
-7,
-7,
0,
2,
-2,
-5,
-5,
-5,
-3,
-4,
-5,
-6,
-5,
-5,
-5,
-4,
-4,
-4,
-5,
-11,
-8,
-6,
-3,
-4,
-12,
-14,
-8,
-3,
-7,
-14,
-15,
-11,
-4,
-5,
-12,
-15,
-15,
-8,
-6,
-11,
-16,
-17,
-11,
-9,
-8,
-15,
-16,
-16,
-14,
-11,
-12,
-14,
-18,
-20,
-15,
-12,
-11,
-16,
-25,
-19,
-13,
-9,
-14,
-24,
-25,
-20,
-10,
-10,
-22,
-28,
-24,
-11,
-11,
-21,
-28,
-27,
-13,
-12,
-19,
-27,
-27,
-20,
-14,
-16,
-25,
-29,
-24,
-17,
-17,
-23,
-26,
-24,
-22,
-21,
-25,
-24,
-23,
-26,
-25,
-24,
-22,
-23,
-26,
-27,
-26,
-23,
-24,
-26,
-27,
-26,
-24,
-24,
-26,
-28,
-28,
-25,
-24,
-30,
-31,
-26,
-22,
-25,
-29,
-31,
-26,
-22,
-25,
-30,
-34,
-29,
-22,
-23,
-31,
-37,
-32,
-24,
-20,
-28,
-37,
-33,
-24,
-20,
-28,
-35,
-36,
-29,
-24,
-23,
-30,
-36,
-33,
-27,
-22,
-27,
-34,
-34,
-30,
-26,
-26,
-27,
-34,
-34,
-31,
-26,
-25,
-32,
-36,
-33,
-26,
-23,
-27,
-34,
-36,
-29,
-21,
-23,
-31,
-38,
-33,
-25,
-21,
-27,
-36,
-35,
-28,
-23,
-24,
-31,
-35,
-32,
-25,
-24,
-27,
-33,
-34,
-30,
-26,
-26,
-29,
-32,
-30,
-27,
-28,
-26,
-28,
-30,
-28,
-27,
-24,
-27,
-28,
-28,
-27,
-26,
-27,
-24,
-26,
-28,
-27,
-26,
-22,
-25,
-27,
-28,
-27,
-23,
-24,
-23,
-27,
-29,
-27,
-20,
-20,
-26,
-31,
-27,
-21,
-16,
-21,
-27,
-28,
-25,
-16,
-16,
-21,
-27,
-27,
-18,
-16,
-19,
-25,
-25,
-20,
-18,
-16,
-19,
-21,
-23,
-20,
-15,
-16,
-19,
-21,
-20,
-16,
-14,
-14,
-21,
-23,
-20,
-12,
-9,
-17,
-23,
-20,
-12,
-7,
-13,
-20,
-20,
-13,
-8,
-9,
-16,
-19,
-16,
-8,
-7,
-13,
-17,
-15,
-9,
-8,
-12,
-15,
-12,
-7,
-8,
-12,
-12,
-10,
-8,
-7,
-9,
-11,
-9,
-6,
-5,
-10,
-11,
-6,
-5,
-7,
-8,
-6,
-5,
-6,
-6,
-5,
-3,
-5,
-5,
-4,
-4,
-1,
-2,
-5,
-7,
-3,
2,
3,
-3,
-8,
-5,
4,
8,
1,
-8,
-7,
3,
10,
4,
-7,
-9,
2,
9,
10,
-3,
-6,
0,
11,
13,
2,
-5,
-2,
6,
13,
6,
0,
-2,
4,
9,
10,
7,
1,
3,
7,
9,
10,
6,
3,
4,
8,
14,
13,
6,
2,
5,
13,
18,
11,
2,
5,
9,
18,
17,
6,
3,
9,
17,
19,
12,
5,
8,
14,
19,
13,
8,
11,
13,
17,
14,
12,
12,
13,
16,
17,
15,
14,
14,
17,
15,
14,
16,
19,
16,
13,
15,
17,
19,
17,
14,
15,
17,
20,
20,
17,
15,
15,
19,
23,
20,
17,
13,
17,
21,
22,
20,
16,
15,
18,
23,
23,
20,
15,
14,
22,
23,
21,
17,
14,
19,
24,
24,
19,
14,
15,
22,
25,
25,
17,
15,
20,
24,
25,
19,
17,
16,
21,
26,
24,
20,
16,
19,
24,
24,
22,
17,
17,
20,
25,
24,
18,
17,
20,
22,
24,
20,
18,
18,
23,
24,
20,
18,
17,
23,
22,
19,
19,
17,
23,
24,
19,
17,
18,
24,
23,
20,
16,
15,
22,
23,
19,
16,
16,
21,
25,
21,
16,
14,
19,
21,
22,
19,
14,
15,
18,
21,
21,
17,
13,
13,
18,
21,
22,
16,
9,
13,
19,
25,
18,
9,
10,
15,
26,
23,
12,
5,
11,
22,
24,
15,
2,
4,
19,
24,
17,
5,
3,
14,
22,
19,
10,
3,
9,
16,
19,
14,
5,
5,
10,
16,
13,
9,
9,
6,
9,
11,
13,
10,
4,
3,
9,
14,
12,
5,
2,
4,
11,
13,
7,
1,
0,
7,
13,
9,
-1,
-2,
5,
11,
7,
0,
-2,
4,
6,
6,
3,
0,
2,
2,
5,
-1,
0,
2,
3,
1,
-3,
-3,
2,
3,
-2,
-5,
-4,
2,
3,
-2,
-8,
-7,
0,
2,
2,
-8,
-8,
-4,
0,
0,
-7,
-8,
-8,
-4,
-3,
-6,
-9,
-8,
-8,
-7,
-4,
-8,
-8,
-12,
-9,
-4,
-6,
-9,
-13,
-14,
-9,
-4,
-7,
-11,
-16,
-15,
-7,
-4,
-11,
-17,
-16,
-10,
-6,
-11,
-17,
-16,
-13,
-10,
-10,
-15,
-18,
-16,
-13,
-11,
-15,
-18,
-18,
-16,
-14,
-16,
-19,
-17,
-17,
-17,
-16,
-17,
-19,
-19,
-18,
-17,
-19,
-19,
-20,
-18,
-19,
-21,
-21,
-18,
-18,
-19,
-21,
-24,
-22,
-19,
-19,
-19,
-25,
-26,
-21,
-16,
-20,
-25,
-30,
-27,
-18,
-18,
-24,
-29,
-29,
-24,
-19,
-19,
-28,
-30,
-27,
-23,
-19,
-25,
-32,
-31,
-25,
-20,
-21,
-29,
-33,
-30,
-24,
-17,
-25,
-32,
-35,
-29,
-19,
-20,
-28,
-36,
-35,
-24,
-16,
-23,
-36,
-38,
-27,
-17,
-20,
-32,
-40,
-33,
-21,
-19,
-28,
-36,
-35,
-28,
-21,
-26,
-35,
-36,
-31,
-25,
-25,
-30,
-33,
-32,
-27,
-27,
-28,
-29,
-31,
-31,
-31,
-28,
-27,
-31,
-34,
-33,
-28,
-26,
-28,
-33,
-35,
-30,
-25,
-24,
-31,
-35,
-32,
-27,
-23,
-29,
-34,
-31,
-26,
-26,
-29,
-34,
-29,
-27,
-27,
-30,
-31,
-28,
-25,
-27,
-34,
-34,
-28,
-24,
-24,
-31,
-35,
-28,
-22,
-23,
-31,
-33,
-29,
-24,
-21,
-29,
-31,
-30,
-25,
-19,
-26,
-31,
-29,
-24,
-22,
-25,
-28,
-28,
-26,
-24,
-25,
-24,
-23,
-26,
-26,
-27,
-19,
-21,
-25,
-27,
-28,
-23,
-19,
-20,
-26,
-28,
-24,
-17,
-18,
-24,
-28,
-24,
-19,
-16,
-21,
-25,
-21,
-18,
-16,
-19,
-23,
-22,
-18,
-15,
-18,
-21,
-20,
-16,
-16,
-19,
-20,
-17,
-15,
-16,
-20,
-18,
-16,
-14,
-14,
-17,
-19,
-17,
-11,
-11,
-17,
-19,
-19,
-11,
-9,
-13,
-14,
-17,
-13,
-9,
-9,
-11,
-16,
-16,
-12,
-7,
-7,
-11,
-15,
-14,
-7,
-4,
-7,
-12,
-15,
-12,
-4,
-2,
-8,
-15,
-12,
-4,
1,
-2,
-12,
-13,
-7,
1,
3,
-5,
-12,
-12,
0,
5,
-1,
-9,
-12,
-4,
4,
5,
-1,
-11,
-8,
-1,
7,
5,
-6,
-9,
-4,
6,
7,
0,
-5,
-5,
5,
9,
4,
-3,
-6,
1,
11,
9,
1,
-4,
0,
6,
10,
6,
0,
1,
5,
7,
9,
5,
3,
4,
8,
9,
8,
6,
7,
5,
7,
8,
9,
8,
7,
5,
9,
12,
10,
8,
7,
10,
12,
11,
11,
10,
12,
12,
12,
11,
11,
14,
16,
12,
9,
10,
16,
17,
12,
8,
12,
18,
19,
15,
9,
11,
18,
20,
17,
9,
10,
17,
23,
20,
10,
8,
16,
22,
21,
15,
12,
15,
21,
23,
19,
14,
15,
17,
20,
21,
18,
17,
17,
17,
19,
21,
21,
18,
15,
17,
23,
23,
19,
16,
16,
20,
25,
20,
16,
16,
20,
24,
23,
17,
15,
20,
25,
24,
18,
16,
19,
22,
21,
19,
20,
21,
22,
19,
17,
21,
25,
24,
20,
15,
18,
25,
25,
21,
13,
16,
24,
27,
23,
15,
16,
21,
29,
27,
18,
15,
19,
26,
25,
22,
15,
16,
22,
25,
23,
19,
16,
17,
21,
24,
23,
17,
13,
16,
22,
28,
21,
14,
13,
17,
29,
26,
18,
9,
13,
24,
28,
24,
10,
8,
19,
27,
25,
14,
7,
15,
23,
25,
17,
9,
11,
18,
23,
21,
11,
8,
13,
21,
20,
15,
12,
11,
17,
18,
17,
13,
8,
10,
17,
17,
14,
9,
10,
13,
17,
16,
12,
9,
10,
14,
15,
11,
10,
8,
12,
14,
11,
9,
10,
11,
10,
8,
9,
8,
9,
9,
9,
8,
7,
7,
8,
8,
6,
5,
7,
8,
8,
4,
4,
5,
5,
7,
7,
3,
2,
3,
7,
6,
2,
-2,
0,
6,
8,
3,
-3,
-4,
1,
7,
6,
-2,
-6,
-2,
5,
8,
-1,
-8,
-5,
2,
5,
0,
-5,
-8,
-3,
2,
3,
-4,
-6,
-5,
-3,
0,
-4,
-7,
-5,
-5,
-4,
-5,
-6,
-5,
-9,
-8,
-4,
-6,
-6,
-10,
-13,
-8,
-6,
-5,
-9,
-13,
-12,
-8,
-4,
-8,
-14,
-15,
-10,
-7,
-9,
-14,
-15,
-11,
-10,
-14,
-14,
-12,
-10,
-14,
-17,
-16,
-14,
-10,
-14,
-17,
-19,
-16,
-9,
-12,
-20,
-24,
-16,
-9,
-11,
-20,
-27,
-19,
-11,
-12,
-19,
-27,
-24,
-15,
-9,
-15,
-25,
-27,
-23,
-14,
-15,
-21,
-27,
-26,
-19,
-17,
-19,
-23,
-26,
-26,
-24,
-16,
-18,
-26,
-32,
-28,
-18,
-16,
-21,
-31,
-31,
-24,
-16,
-17,
-29,
-35,
-29,
-16,
-17,
-26,
-35,
-32,
-20,
-17,
-24,
-33,
-34,
-26,
-19,
-20,
-30,
-34,
-29,
-23,
-22,
-28,
-32,
-32,
-26,
-23,
-27,
-29,
-29,
-29,
-27,
-29,
-27,
-28,
-30,
-28,
-28,
-28,
-29,
-31,
-30,
-30,
-29,
-28,
-29,
-30,
-29,
-27,
-29,
-30,
-30,
-29,
-26,
-29,
-32,
-31,
-29,
-26,
-31,
-31,
-34,
-30,
-25,
-28,
-31,
-35,
-32,
-24,
-26,
-30,
-36,
-33,
-26,
-24,
-26,
-34,
-35,
-31,
-25,
-24,
-30,
-35,
-33,
-29,
-22,
-26,
-32,
-35,
-30,
-24,
-26,
-28,
-35,
-34,
-26,
-23,
-23,
-32,
-36,
-29,
-24,
-22,
-28,
-33,
-30,
-26,
-21,
-24,
-30,
-33,
-28,
-23,
-23,
-24,
-29,
-29,
-25,
-25,
-24,
-26,
-28,
-28,
-28,
-20,
-22,
-26,
-28,
-28,
-23,
-21,
-20,
-26,
-29,
-25,
-24,
-18,
-22,
-26,
-25,
-23,
-19,
-21,
-25,
-23,
-22,
-21,
-20,
-19,
-21,
-23,
-24,
-21,
-20,
-17,
-20,
-20,
-22,
-20,
-13,
-15,
-20,
-26,
-23,
-11,
-10,
-16,
-27,
-24,
-13,
-8,
-10,
-23,
-25,
-18,
-8,
-6,
-17,
-24,
-19,
-10,
-6,
-13,
-17,
-18,
-14,
-8,
-9,
-12,
-16,
-15,
-10,
-9,
-8,
-12,
-15,
-14,
-9,
-4,
-7,
-12,
-16,
-13,
-4,
-1,
-8,
-16,
-14,
-4,
1,
-3,
-13,
-16,
-6,
2,
1,
-7,
-13,
-9,
1,
3,
-7,
-12,
-7,
0,
3,
-4,
-8,
-5,
1,
2,
-4,
-5,
-3,
1,
4,
0,
-4,
-2,
3,
4,
1,
-2,
-2,
3,
3,
2,
3,
-1,
3,
3,
4,
5,
2,
3,
4,
5,
6,
4,
4,
3,
6,
9,
7,
4,
2,
4,
11,
12,
6,
0,
0,
11,
15,
11,
3,
1,
10,
17,
16,
8,
2,
6,
16,
19,
11,
3,
5,
13,
18,
15,
10,
5,
10,
16,
17,
14,
9,
8,
13,
17,
18,
14,
10,
11,
17,
19,
18,
13,
10,
13,
20,
21,
15,
11,
13,
16,
19,
18,
16,
13,
15,
18,
22,
18,
15,
16,
17,
20,
19,
18,
17,
16,
19,
20,
20,
19,
16,
17,
19,
21,
20,
18,
17,
17,
20,
21,
21,
17,
18,
18,
21,
22,
21,
17,
17,
19,
25,
25,
21,
16,
15,
19,
24,
26,
19,
14,
16,
23,
29,
24,
17,
16,
20,
26,
28,
20,
12,
16,
26,
28,
21,
14,
16,
22,
28,
24,
18,
15,
19,
25,
26,
21,
15,
16,
21,
25,
24,
19,
17,
17,
21,
23,
23,
20,
15,
17,
20,
25,
22,
17,
14,
17,
25,
24,
19,
13,
15,
21,
24,
18,
12,
14,
22,
23,
18,
15,
15,
20,
22,
16,
13,
13,
20,
21,
17,
12,
13,
18,
20,
17,
10,
10,
17,
20,
16,
11,
11,
16,
19,
16,
12,
10,
13,
16,
18,
12,
9,
10,
14,
16,
13,
11,
9,
8,
11,
13,
15,
11,
5,
7,
13,
17,
13,
5,
3,
8,
17,
15,
5,
0,
4,
14,
17,
10,
-2,
-1,
11,
17,
11,
0,
-3,
4,
13,
14,
4,
-3,
1,
8,
12,
6,
-1,
-3,
4,
6,
6,
1,
-2,
-1,
0,
3,
5,
1,
-2,
-2,
0,
2,
2,
-1,
-5,
-3,
1,
3,
0,
-4,
-7,
-2,
3,
-2,
-4,
-8,
-5,
0,
-1,
-5,
-9,
-5,
-4,
-4,
-2,
-8,
-6,
-7,
-8,
-6,
-5,
-5,
-7,
-11,
-12,
-8,
-4,
-5,
-12,
-15,
-11,
-6,
-6,
-11,
-19,
-15,
-8,
-5,
-7,
-15,
-19,
-16,
-9,
-8,
-15,
-17,
-19,
-11,
-9,
-13,
-18,
-20,
-17,
-12,
-9,
-15,
-21,
-22,
-15,
-8,
-14,
-22,
-25,
-20,
-14,
-13,
-17,
-23,
-23,
-18,
-14,
-15,
-22,
-26,
-21,
-16,
-17,
-21,
-25,
-23,
-21,
-18,
-21,
-21,
-23,
-24,
-20,
-20,
-22,
-24,
-25,
-24,
-21,
-22,
-24,
-27,
-25,
-24,
-24,
-23,
-27,
-28,
-25,
-23,
-25,
-28,
-28,
-24,
-21,
-25,
-28,
-29,
-24,
-22,
-27,
-31,
-30,
-26,
-20,
-24,
-31,
-34,
-28,
-17,
-22,
-32,
-37,
-31,
-21,
-21,
-29,
-36,
-35,
-26,
-24,
-26,
-33,
-35,
-27,
-26,
-25,
-29,
-35,
-31,
-28,
-25,
-27,
-31,
-32,
-32,
-28,
-24,
-25,
-33,
-37,
-31,
-23,
-22,
-29,
-36,
-36,
-28,
-20,
-23,
-38,
-41,
-32,
-20,
-21,
-33,
-41,
-36,
-22,
-20,
-28,
-37,
-38,
-27,
-22,
-26,
-34,
-35,
-31,
-26,
-26,
-30,
-32,
-29,
-27,
-27,
-28,
-28,
-28,
-29,
-29,
-28,
-25,
-26,
-30,
-31,
-28,
-24,
-24,
-29,
-31,
-30,
-25,
-20,
-26,
-32,
-32,
-27,
-23,
-25,
-28,
-29,
-27,
-24,
-26,
-27,
-26,
-26,
-25,
-28,
-25,
-23,
-24,
-23,
-27,
-28,
-21,
-19,
-21,
-27,
-29,
-23,
-18,
-20,
-28,
-28,
-22,
-17,
-15,
-24,
-29,
-26,
-18,
-13,
-21,
-26,
-27,
-19,
-15,
-18,
-24,
-27,
-22,
-16,
-15,
-15,
-22,
-23,
-20,
-15,
-15,
-18,
-20,
-20,
-17,
-14,
-14,
-17,
-19,
-18,
-14,
-10,
-15,
-18,
-18,
-13,
-11,
-12,
-15,
-16,
-13,
-12,
-11,
-12,
-15,
-14,
-10,
-10,
-12,
-13,
-12,
-9,
-9,
-12,
-12,
-10,
-9,
-8,
-10,
-10,
-8,
-8,
-5,
-8,
-10,
-10,
-7,
-3,
-6,
-8,
-10,
-9,
-2,
0,
-4,
-9,
-9,
-3,
2,
1,
-8,
-12,
-4,
4,
5,
-3,
-9,
-6,
2,
7,
2,
-5,
-9,
-2,
9,
6,
-3,
-10,
-4,
6,
8,
3,
-5,
-3,
4,
8,
7,
1,
-3,
-1,
9,
12,
6,
1,
-2,
3,
11,
11,
8,
0,
0,
5,
13,
15,
3,
-2,
5,
13,
17,
9,
0,
1,
10,
17,
13,
4,
2,
8,
19,
15,
7,
4,
7,
15,
15,
11,
8,
8,
13,
14,
12,
12,
11,
12,
13,
12,
15,
16,
17,
12,
11,
14,
18,
19,
14,
11,
14,
18,
19,
15,
12,
13,
18,
19,
17,
15,
14,
16,
17,
16,
17,
16,
19,
19,
15,
18,
20,
20,
17,
13,
19,
21,
24,
18,
15,
17,
21,
26,
19,
13,
15,
23,
28,
23,
13,
10,
18,
28,
26,
17,
13,
17,
26,
25,
22,
16,
17,
23,
24,
21,
18,
17,
20,
21,
22,
20,
21,
21,
19,
19,
21,
22,
19,
18,
21,
20,
24,
20,
18,
19,
21,
24,
23,
19,
18,
21,
23,
22,
18,
18,
20,
22,
20,
18,
20,
21,
22,
18,
17,
21,
22,
23,
19,
16,
17,
23,
25,
20,
14,
14,
19,
26,
21,
15,
13,
16,
25,
24,
19,
14,
13,
20,
24,
21,
14,
10,
15,
21,
25,
18,
11,
10,
18,
24,
22,
13,
8,
12,
22,
24,
15,
8,
8,
16,
22,
20,
11,
4,
12,
19,
22,
16,
5,
5,
13,
20,
17,
10,
5,
8,
15,
18,
13,
7,
5,
10,
17,
17,
8,
2,
6,
11,
15,
10,
4,
1,
7,
14,
13,
5,
-1,
3,
11,
12,
7,
0,
3,
6,
10,
7,
4,
3,
4,
6,
4,
4,
2,
4,
7,
1,
2,
2,
4,
5,
0,
-1,
3,
4,
3,
-1,
-4,
-1,
3,
2,
-2,
-3,
-3,
0,
2,
-1,
-4,
-5,
0,
-1,
-3,
-4,
-5,
-3,
-6,
-4,
-3,
-4,
-6,
-8,
-7,
-4,
-1,
-4,
-11,
-12,
-6,
-1,
-3,
-11,
-16,
-11,
-4,
0,
-11,
-17,
-13,
-4,
-1,
-10,
-16,
-16,
-8,
-6,
-10,
-15,
-17,
-12,
-8,
-11,
-17,
-16,
-12,
-10,
-13,
-17,
-15,
-13,
-14,
-18,
-16,
-15,
-13,
-16,
-19,
-18,
-15,
-13,
-16,
-20,
-20,
-18,
-15,
-14,
-20,
-23,
-20,
-17,
-17,
-20,
-20,
-20,
-20,
-21,
-20,
-19,
-19,
-21,
-26,
-24,
-19,
-17,
-20,
-27,
-27,
-22,
-15,
-18,
-28,
-30,
-27,
-15,
-16,
-27,
-33,
-30,
-18,
-16,
-25,
-31,
-31,
-23,
-16,
-19,
-29,
-35,
-29,
-19,
-18,
-25,
-33,
-32,
-25,
-21,
-21,
-28,
-34,
-32,
-25,
-20,
-23,
-30,
-36,
-30,
-22,
-22,
-28,
-35,
-32,
-26,
-20,
-23,
-31,
-36,
-32,
-23,
-22,
-30,
-36,
-35,
-24,
-22,
-27,
-32,
-36,
-32,
-25,
-25,
-30,
-35,
-32,
-27,
-23,
-27,
-33,
-33,
-29,
-27,
-27,
-28,
-31,
-32,
-29,
-27,
-29,
-31,
-33,
-31,
-28,
-29,
-29,
-31,
-29,
-29,
-31,
-31,
-30,
-30,
-27,
-29,
-30,
-32,
-31,
-27,
-27,
-32,
-31,
-30,
-23,
-28,
-31,
-31,
-28,
-25,
-26,
-29,
-31,
-30,
-27,
-21,
-26,
-30,
-32,
-28,
-25,
-26,
-28,
-31,
-29,
-27,
-25,
-24,
-26,
-30,
-28,
-27,
-21,
-24,
-28,
-31,
-27,
-21,
-20,
-24,
-30,
-30,
-24,
-17,
-22,
-29,
-29,
-24,
-18,
-19,
-27,
-29,
-24,
-19,
-19,
-24,
-26,
-24,
-20,
-17,
-22,
-24,
-24,
-18,
-18,
-21,
-21,
-18,
-17,
-19,
-24,
-19,
-17,
-15,
-19,
-24,
-20,
-16,
-11,
-15,
-21,
-22,
-16,
-12,
-13,
-18,
-20,
-17,
-12,
-14,
-15,
-14,
-16,
-15,
-14,
-12,
-11,
-14,
-15,
-15,
-11,
-10,
-10,
-16,
-18,
-12,
-5,
-4,
-11,
-20,
-14,
-4,
1,
-8,
-19,
-17,
-6,
2,
-1,
-13,
-19,
-11,
4,
4,
-8,
-16,
-14,
0,
4,
-3,
-11,
-13,
-3,
2,
0,
-5,
-9,
-6,
-1,
4,
-1,
-6,
-8,
-4,
2,
3,
-1,
-3,
-7,
-2,
7,
3,
0,
-7,
-5,
5,
7,
4,
-4,
-5,
3,
10,
7,
-1,
-4,
0,
11,
11,
3,
-1,
1,
8,
11,
6,
3,
3,
6,
9,
6,
5,
5,
8,
12,
8,
6,
6,
10,
12,
8,
7,
7,
9,
12,
9,
10,
10,
11,
11,
12,
9,
7,
10,
13,
15,
13,
9,
11,
12,
15,
16,
13,
10,
10,
16,
18,
16,
11,
8,
13,
19,
19,
15,
12,
12,
17,
20,
19,
13,
11,
15,
18,
21,
17,
12,
14,
18,
21,
20,
16,
14,
15,
20,
23,
19,
13,
12,
17,
22,
22,
17,
15,
16,
21,
25,
19,
16,
15,
19,
25,
22,
18,
16,
19,
22,
21,
20,
19,
21,
20,
18,
19,
20,
22,
20,
18,
17,
20,
24,
23,
19,
17,
20,
26,
24,
18,
16,
18,
24,
25,
20,
17,
17,
21,
27,
24,
19,
15,
18,
24,
24,
24,
17,
16,
20,
23,
24,
23,
17,
14,
18,
24,
26,
21,
14,
13,
20,
30,
26,
15,
10,
17,
28,
28,
17,
9,
11,
24,
30,
20,
9,
11,
20,
29,
24,
14,
9,
17,
25,
25,
17,
10,
12,
20,
24,
20,
15,
12,
15,
18,
19,
20,
16,
12,
14,
18,
21,
18,
13,
11,
14,
19,
19,
13,
9,
11,
18,
19,
15,
7,
8,
17,
18,
13,
7,
8,
15,
16,
13,
7,
8,
13,
16,
12,
6,
7,
11,
15,
11,
4,
5,
12,
15,
10,
3,
4,
9,
14,
9,
4,
2,
6,
11,
9,
4,
1,
2,
7,
10,
7,
3,
1,
3,
5,
7,
5,
3,
0,
1,
5,
7,
3,
-2,
-1,
0,
6,
4,
-2,
-4,
-2,
4,
6,
0,
-7,
-6,
4,
5,
1,
-7,
-9,
-3,
2,
1,
-3,
-10,
-8,
-1,
3,
-3,
-8,
-10,
-7,
-2,
-3,
-6,
-8,
-8,
-7,
-7,
-7,
-5,
-10,
-11,
-8,
-7,
-7,
-9,
-11,
-10,
-9,
-10,
-9,
-11,
-13,
-14,
-12,
-9,
-11,
-14,
-15,
-13,
-12,
-12,
-11,
-14,
-17,
-16,
-12,
-10,
-15,
-21,
-21,
-14,
-9,
-12,
-19,
-22,
-19,
-13,
-11,
-15,
-22,
-23,
-16,
-12,
-14,
-19,
-25,
-21,
-16,
-14,
-16,
-23,
-25,
-22,
-16,
-14,
-19,
-26,
-28,
-20,
-15,
-17,
-25,
-30,
-25,
-18,
-14,
-23,
-30,
-31,
-24,
19,
