4-transistorverstaerker/data/ALL0084/A0084CH2.CSV

Memory Length,4000,
Trigger Level,2.40000e+01,
Source,CH2,
Probe,1.0X,
Vertical Units,V,
Vertical Scale,5.00000e-01,
Vertical Position,0.00000e+00,
Horizontal Units,S,
Horizontal Scale,5.00000e-04,
Horizontal Position,-7.0000000e-04,
Horizontal Mode,Main,
Sampling Period,2.00000e-06,
Firmware,V1.14,
Time, ,
Mode,Fast,
Waveform Data,
-7,
-7,
-7,
-18,
8,
-11,
-11,
-8,
-8,
-6,
-6,
-5,
-5,
-6,
-6,
-5,
-5,
-6,
-6,
-4,
-4,
-5,
-5,
-4,
-4,
-4,
-4,
-4,
-4,
-4,
-4,
-5,
-5,
-4,
-4,
-5,
-5,
-4,
-4,
-4,
-4,
-2,
-2,
-3,
-3,
-4,
-4,
-4,
-4,
-3,
-3,
-2,
-2,
-3,
-3,
-1,
-1,
0,
0,
-1,
-1,
-3,
-3,
-1,
-1,
0,
0,
-1,
-1,
-2,
-2,
-2,
-2,
-1,
-1,
1,
1,
2,
2,
1,
1,
0,
0,
1,
1,
0,
0,
1,
1,
2,
2,
1,
1,
0,
0,
1,
1,
2,
2,
-1,
-1,
2,
2,
1,
1,
1,
1,
1,
1,
2,
2,
5,
5,
4,
4,
2,
2,
3,
3,
2,
2,
4,
4,
1,
1,
3,
3,
4,
4,
4,
4,
4,
4,
4,
4,
6,
6,
5,
5,
4,
4,
6,
6,
5,
5,
4,
4,
6,
6,
5,
5,
5,
5,
1,
1,
5,
5,
5,
5,
4,
4,
6,
6,
4,
4,
6,
6,
5,
5,
5,
5,
5,
5,
7,
7,
5,
5,
7,
7,
6,
6,
5,
5,
5,
5,
4,
4,
5,
5,
4,
4,
5,
5,
5,
5,
5,
5,
6,
6,
4,
4,
4,
4,
5,
5,
5,
5,
5,
-6,
1,
1,
6,
6,
3,
3,
3,
3,
5,
5,
7,
-4,
3,
3,
3,
3,
4,
4,
2,
2,
3,
3,
3,
3,
4,
4,
2,
2,
3,
3,
4,
4,
2,
2,
4,
4,
4,
4,
2,
2,
2,
2,
5,
-6,
3,
3,
0,
0,
0,
0,
2,
2,
1,
1,
1,
1,
1,
1,
0,
0,
3,
3,
0,
0,
-1,
-1,
1,
1,
0,
0,
0,
0,
-2,
-2,
-1,
-1,
-1,
-1,
-1,
-1,
0,
0,
-2,
-2,
-2,
-2,
-3,
-3,
-1,
-1,
-3,
-3,
-3,
-3,
-3,
-3,
-3,
-3,
-2,
-2,
-4,
-4,
-3,
-3,
-3,
-3,
-4,
-4,
-4,
-4,
-6,
-6,
-6,
-6,
-5,
-5,
-6,
-6,
-5,
-5,
-6,
-6,
-6,
-6,
-2,
-2,
-7,
-7,
-6,
-6,
-6,
-6,
-6,
-6,
-6,
-6,
-7,
-7,
-7,
-7,
-7,
-7,
-8,
-8,
-7,
-7,
-8,
-8,
-7,
-7,
-7,
-7,
-9,
-9,
-8,
-8,
-8,
-8,
-8,
-8,
-7,
-7,
-8,
-8,
-9,
-9,
-10,
-10,
-9,
-9,
-8,
-8,
-10,
-10,
-10,
-10,
-11,
-11,
-10,
-10,
-8,
-8,
-10,
-10,
-9,
-9,
-10,
-10,
-9,
-9,
-12,
-12,
-9,
-9,
-10,
-10,
-10,
-10,
-10,
-10,
-10,
-10,
-11,
-11,
-11,
-11,
-11,
-11,
-11,
-11,
-10,
-10,
-12,
-12,
-11,
-11,
-11,
-11,
-12,
-12,
-10,
-10,
-11,
-11,
-10,
-10,
-11,
-11,
-9,
-9,
-11,
-11,
-11,
-11,
-10,
-10,
-11,
-11,
-11,
-11,
-11,
-11,
-10,
-10,
-11,
-11,
-11,
-11,
-10,
-10,
-10,
-10,
-6,
-6,
-10,
-10,
-9,
-9,
-8,
-8,
-9,
-9,
-9,
-9,
-10,
-10,
-11,
-11,
-8,
-8,
-8,
-8,
-8,
-8,
-9,
-9,
-9,
-9,
-8,
-8,
-7,
-7,
-9,
-9,
-9,
-9,
-7,
-7,
-9,
-9,
-8,
-8,
-8,
-8,
-7,
-7,
-7,
-7,
-7,
-7,
-6,
-6,
-6,
-6,
-6,
-6,
-7,
-7,
-7,
-7,
-7,
-7,
-5,
-5,
-5,
-5,
-4,
-4,
-4,
-4,
-5,
-5,
-5,
-5,
-4,
-4,
-5,
-5,
-4,
-4,
-6,
-6,
-3,
-3,
-1,
-1,
-4,
-4,
-4,
-4,
-4,
-4,
-3,
-3,
-2,
-2,
-2,
-2,
-3,
-3,
-2,
-2,
-1,
-1,
-1,
-1,
-1,
-1,
-1,
-1,
-1,
-1,
0,
0,
0,
0,
-1,
-1,
-1,
-1,
2,
2,
1,
1,
1,
1,
1,
1,
1,
1,
5,
5,
0,
0,
1,
1,
1,
1,
1,
1,
2,
2,
1,
1,
0,
0,
2,
2,
2,
2,
2,
2,
2,
2,
2,
2,
-1,
-1,
4,
4,
3,
3,
3,
3,
2,
2,
5,
5,
4,
4,
4,
4,
4,
4,
4,
4,
3,
3,
4,
4,
4,
4,
5,
5,
6,
6,
5,
5,
4,
4,
4,
4,
5,
5,
5,
5,
3,
3,
7,
7,
5,
5,
5,
5,
5,
5,
4,
4,
6,
6,
6,
6,
5,
5,
5,
5,
5,
5,
4,
4,
5,
5,
5,
5,
5,
5,
6,
6,
5,
5,
5,
5,
5,
5,
5,
5,
5,
5,
5,
5,
6,
6,
4,
4,
5,
5,
4,
4,
4,
4,
4,
4,
5,
5,
5,
5,
4,
4,
2,
2,
2,
2,
4,
4,
4,
4,
4,
4,
5,
5,
4,
4,
2,
2,
2,
2,
3,
3,
2,
2,
4,
4,
2,
2,
5,
5,
3,
3,
2,
2,
1,
1,
1,
1,
1,
1,
2,
2,
1,
1,
2,
2,
1,
1,
2,
2,
1,
1,
1,
1,
0,
0,
0,
0,
3,
3,
0,
0,
0,
0,
-1,
-1,
1,
1,
0,
0,
0,
0,
-2,
-2,
0,
0,
-1,
-1,
-1,
-1,
-2,
-2,
-1,
-1,
-3,
-3,
-2,
-2,
-3,
-3,
-4,
-4,
-2,
-2,
-3,
-3,
-4,
-4,
-4,
-4,
-4,
-4,
-4,
-4,
-5,
-5,
-4,
-4,
-4,
-4,
-4,
-4,
-6,
-6,
-5,
-5,
-5,
-5,
-6,
-6,
-6,
-6,
-6,
-6,
-7,
-7,
-7,
-7,
-7,
-7,
-4,
-4,
-8,
-8,
-7,
-7,
-7,
-7,
-6,
-6,
-7,
-7,
-8,
-8,
-6,
-6,
-8,
-8,
-9,
-9,
-9,
-9,
-9,
-9,
-8,
-8,
-7,
-7,
-8,
-8,
-8,
-8,
-9,
-9,
-8,
-8,
-9,
-9,
-10,
-10,
-9,
-9,
-9,
-9,
-10,
-10,
-9,
-9,
-9,
-9,
-10,
-10,
-11,
-11,
-10,
-10,
-11,
-11,
-11,
-11,
-10,
-10,
-10,
-10,
-7,
-7,
-10,
-10,
-10,
-10,
-10,
-10,
-11,
-11,
-11,
-11,
-8,
-8,
-10,
-10,
-11,
-11,
-12,
-12,
-10,
-10,
-10,
-10,
-10,
-10,
-11,
-11,
-10,
-10,
-9,
-9,
-10,
-10,
-10,
-10,
-10,
-10,
-10,
-10,
-11,
-11,
-11,
-11,
-10,
-10,
-10,
-10,
-10,
-10,
-10,
-10,
-10,
-10,
-10,
-10,
-9,
-9,
-9,
-9,
-9,
-9,
-9,
-9,
-10,
-10,
-8,
-8,
-8,
-8,
-9,
-9,
-8,
-8,
-8,
-8,
-8,
-8,
-7,
-7,
-8,
-8,
-9,
-9,
-8,
-8,
-8,
-8,
-6,
-6,
-8,
-8,
-7,
-7,
-8,
-8,
-7,
-7,
-7,
-7,
-7,
-7,
-7,
-7,
-6,
-6,
-7,
-7,
-6,
-6,
-6,
-6,
-6,
-6,
-5,
-5,
-5,
-5,
-6,
-6,
-4,
-4,
-4,
-4,
-5,
-5,
-4,
-4,
-3,
-3,
-3,
-3,
-2,
-2,
-3,
-3,
-3,
-3,
-3,
-3,
-1,
-1,
-3,
-3,
-3,
-3,
-1,
-1,
-4,
-4,
-2,
-2,
-3,
-3,
-2,
-2,
0,
0,
0,
0,
1,
1,
0,
0,
0,
0,
-1,
-1,
1,
1,
1,
1,
1,
1,
2,
2,
0,
0,
2,
2,
1,
1,
0,
0,
2,
2,
1,
1,
1,
1,
5,
5,
2,
2,
3,
3,
2,
2,
3,
3,
3,
3,
3,
3,
3,
3,
3,
3,
3,
3,
2,
2,
3,
3,
3,
3,
4,
4,
4,
4,
3,
3,
4,
4,
3,
3,
4,
4,
4,
4,
3,
3,
4,
4,
3,
3,
4,
4,
4,
4,
5,
5,
5,
5,
5,
5,
5,
5,
5,
5,
5,
5,
6,
6,
5,
5,
4,
4,
4,
4,
5,
5,
4,
4,
5,
5,
7,
7,
6,
6,
4,
4,
4,
4,
4,
4,
5,
5,
4,
4,
5,
5,
4,
4,
4,
4,
3,
3,
5,
5,
5,
5,
6,
6,
3,
3,
3,
3,
5,
5,
4,
4,
5,
5,
3,
3,
3,
3,
5,
5,
4,
4,
3,
3,
2,
2,
2,
2,
10,
-1,
2,
2,
3,
3,
3,
3,
2,
2,
2,
2,
3,
3,
3,
3,
3,
3,
3,
3,
2,
2,
2,
2,
1,
1,
2,
2,
2,
2,
1,
1,
1,
1,
1,
1,
1,
1,
0,
0,
0,
0,
1,
1,
1,
1,
0,
0,
1,
1,
-1,
-1,
0,
0,
-1,
-1,
-2,
-2,
-1,
-1,
-1,
-1,
1,
1,
-2,
-2,
-2,
-2,
-2,
-2,
-2,
-2,
-3,
-3,
-2,
-2,
-4,
-4,
-3,
-3,
-4,
-4,
-4,
-4,
-4,
-4,
-4,
-4,
-4,
-4,
-2,
-2,
-4,
-4,
-6,
-6,
-5,
-5,
-6,
-6,
-5,
-5,
-5,
-5,
-6,
-6,
-6,
-6,
-6,
-6,
-6,
-6,
-7,
-7,
-6,
-6,
-7,
-7,
-7,
-7,
-7,
-7,
-7,
-7,
-7,
-7,
-6,
-6,
-6,
-6,
-8,
-8,
-7,
-7,
-8,
-8,
-9,
-9,
-9,
-9,
-7,
-7,
-9,
-9,
-9,
-9,
-9,
-9,
-9,
-9,
-8,
-8,
-10,
-10,
-9,
-9,
-10,
-10,
-9,
-9,
-10,
-10,
-9,
-9,
-11,
-11,
-9,
-9,
-10,
-10,
-10,
-10,
-14,
-14,
-10,
-10,
-11,
-11,
-10,
-10,
-10,
-10,
-10,
-10,
-10,
-10,
-10,
-10,
-10,
-10,
-10,
-10,
-10,
-10,
-11,
-11,
-11,
-11,
-11,
-11,
-11,
-11,
-8,
-8,
-12,
-12,
-11,
-11,
-11,
-11,
-12,
-12,
-10,
-10,
-10,
-10,
-10,
-10,
-12,
-12,
-12,
-12,
-10,
-10,
-12,
-12,
-9,
-9,
-10,
-10,
-10,
-10,
-9,
-9,
-9,
-9,
-8,
-8,
-9,
-9,
-9,
-9,
-9,
-9,
-10,
-10,
-8,
-8,
-8,
-8,
-8,
-8,
-8,
-8,
-9,
-9,
-9,
-9,
-9,
-9,
-8,
-8,
-8,
-8,
-7,
-7,
-7,
-7,
-9,
-9,
-9,
-9,
-7,
-7,
-7,
-7,
-7,
-7,
-7,
-7,
-8,
-8,
-7,
-7,
-6,
-6,
-6,
-6,
-7,
-7,
-5,
-5,
-6,
-6,
-5,
-5,
-4,
-4,
-5,
-5,
-5,
-5,
-5,
-5,
-5,
-5,
-5,
-5,
-4,
-4,
-4,
-4,
-4,
-4,
-3,
-3,
-4,
-4,
-3,
-3,
-6,
-6,
-3,
-3,
-4,
-4,
-3,
-3,
-2,
-2,
-2,
-2,
-4,
-4,
-3,
-3,
-2,
-2,
0,
0,
0,
0,
0,
0,
0,
0,
-1,
-1,
0,
0,
0,
0,
-3,
-3,
0,
0,
1,
1,
1,
1,
1,
1,
1,
1,
2,
2,
1,
1,
0,
0,
1,
1,
0,
0,
2,
2,
1,
1,
1,
1,
2,
2,
2,
2,
2,
2,
0,
0,
2,
2,
3,
3,
4,
4,
5,
5,
3,
3,
1,
1,
4,
4,
3,
3,
3,
3,
6,
6,
4,
4,
5,
5,
4,
4,
5,
5,
4,
4,
5,
5,
4,
4,
4,
4,
5,
5,
5,
5,
5,
5,
5,
5,
5,
5,
5,
5,
5,
5,
5,
5,
3,
3,
5,
5,
4,
4,
5,
5,
6,
6,
4,
4,
5,
5,
5,
5,
4,
4,
5,
5,
6,
6,
3,
3,
5,
5,
5,
5,
5,
5,
5,
5,
6,
6,
3,
3,
4,
4,
5,
5,
5,
5,
5,
5,
5,
5,
3,
3,
4,
4,
3,
3,
4,
4,
6,
6,
4,
4,
3,
3,
4,
4,
4,
4,
4,
4,
2,
2,
3,
3,
3,
3,
1,
1,
4,
4,
3,
3,
2,
2,
4,
4,
1,
1,
2,
2,
4,
4,
3,
3,
1,
1,
2,
2,
1,
1,
0,
0,
0,
0,
1,
1,
0,
0,
0,
0,
-1,
-1,
-3,
-3,
1,
1,
-1,
-1,
0,
0,
-1,
-1,
-2,
-2,
-1,
-1,
-1,
-1,
-2,
-2,
-1,
-1,
-1,
-1,
-1,
-1,
-2,
-2,
-3,
-3,
-1,
-1,
-1,
-1,
-3,
-3,
-4,
-4,
-4,
-4,
-3,
-3,
-5,
-5,
-3,
-3,
-4,
-4,
-5,
-5,
-6,
-6,
-5,
-5,
-5,
-5,
-6,
-6,
-6,
-6,
-5,
-5,
-6,
-6,
-6,
-6,
-6,
-6,
-5,
-5,
-7,
-7,
-7,
-7,
-7,
-7,
-7,
-7,
-8,
-8,
-8,
-8,
-9,
-9,
-6,
-6,
-8,
-8,
-8,
-8,
-5,
-5,
-8,
-8,
-8,
-8,
-7,
-7,
-8,
-8,
-9,
-9,
-11,
-11,
-8,
-8,
-9,
-9,
-8,
-8,
-9,
-9,
-9,
-9,
-10,
-10,
-9,
-9,
-10,
-10,
-11,
-11,
-9,
-9,
-12,
-12,
-9,
-9,
-10,
-10,
-10,
-10,
-11,
-11,
-12,
-12,
-10,
-10,
-11,
-11,
-10,
-10,
-10,
-10,
-12,
-12,
-9,
-9,
-10,
-10,
-10,
-10,
-11,
-11,
-11,
-11,
-12,
-12,
-12,
-12,
-9,
-9,
-11,
-11,
-10,
-10,
-11,
-11,
-11,
-11,
-11,
-11,
-9,
-9,
-11,
-11,
-10,
-10,
-10,
-10,
-9,
-9,
-11,
-11,
-11,
-11,
-9,
-9,
-10,
-10,
-10,
-10,
-9,
-9,
-10,
-10,
-10,
-10,
-9,
-9,
-10,
-10,
-9,
-9,
-10,
-10,
-9,
-9,
-8,
-8,
-8,
-8,
-9,
-9,
-8,
-8,
-7,
-7,
-11,
-11,
-9,
-9,
-10,
-10,
-6,
-6,
-6,
-6,
-6,
-6,
-7,
-7,
-9,
-9,
-7,
-7,
-9,
-9,
-6,
-6,
-6,
-6,
-6,
-6,
-6,
-6,
-6,
-6,
-6,
-6,
-5,
-5,
-7,
-7,
-6,
-6,
-5,
-5,
-6,
-6,
-4,
-4,
-4,
-4,
-3,
-3,
-3,
-3,
-5,
-5,
-3,
-3,
-4,
-4,
-3,
-3,
-3,
-3,
-2,
-2,
-3,
-3,
0,
0,
-3,
-3,
-1,
-1,
-2,
-2,
0,
0,
-2,
-2,
-1,
-1,
-1,
-1,
-2,
-2,
-1,
-1,
-2,
-2,
0,
0,
0,
0,
-1,
-1,
-1,
-1,
1,
1,
0,
0,
0,
0,
0,
0,
2,
2,
2,
2,
2,
2,
1,
1,
3,
3,
2,
2,
2,
2,
0,
0,
2,
2,
3,
3,
0,
0,
3,
3,
3,
3,
5,
5,
3,
3,
4,
4,
2,
2,
4,
4,
4,
4,
4,
4,
4,
4,
3,
3,
8,
8,
4,
4,
3,
3,
4,
4,
4,
4,
5,
5,
5,
5,
4,
4,
6,
6,
5,
5,
5,
5,
4,
4,
4,
4,
5,
5,
6,
6,
6,
6,
5,
5,
5,
5,
4,
4,
5,
5,
6,
6,
5,
5,
4,
4,
5,
5,
5,
5,
6,
6,
4,
4,
6,
6,
5,
5,
4,
4,
5,
5,
3,
3,
1,
1,
5,
5,
1,
1,
4,
4,
4,
4,
5,
5,
4,
4,
4,
4,
4,
4,
4,
4,
0,
0,
4,
4,
4,
4,
1,
1,
6,
6,
2,
2,
3,
3,
4,
4,
16,
-12,
5,
5,
4,
4,
2,
2,
0,
0,
3,
3,
2,
2,
4,
4,
4,
4,
2,
2,
2,
2,
14,
-15,
0,
12,
2,
2,
1,
1,
3,
3,
0,
0,
-1,
-1,
2,
-10,
-1,
-1,
1,
1,
-2,
-2,
-1,
-1,
12,
-17,
1,
1,
-2,
-2,
1,
1,
-1,
-1,
-2,
-2,
-3,
-3,
-3,
-3,
-3,
-3,
-3,
-3,
-2,
-2,
-3,
-3,
-3,
-3,
1,
1,
-3,
-3,
-4,
-4,
-6,
-6,
-3,
-3,
-4,
-4,
-5,
-5,
-7,
-7,
-5,
-5,
-5,
-5,
-6,
-6,
-6,
-6,
-6,
-6,
-6,
-6,
-5,
-5,
-6,
-6,
-6,
-6,
-7,
-7,
-5,
-5,
-6,
-6,
-7,
-7,
-7,
-7,
-7,
-7,
-9,
-9,
-8,
-8,
-7,
-7,
-8,
-8,
-7,
-7,
-8,
-8,
-7,
-7,
-8,
-8,
-8,
-8,
-9,
-9,
-9,
-9,
-10,
-10,
-13,
-13,
-9,
-9,
-11,
-11,
-9,
-9,
-9,
-9,
-11,
-11,
-10,
-10,
-10,
-10,
-9,
-9,
-11,
-11,
-9,
-9,
-10,
-10,
-9,
-9,
-11,
-11,
-10,
-10,
-11,
-11,
-12,
-12,
-11,
-11,
-9,
-9,
-11,
-11,
-11,
-11,
-11,
-11,
-12,
-12,
-10,
-10,
-11,
-11,
-11,
-11,
-10,
-10,
-10,
-10,
-10,
-10,
-11,
-11,
-10,
-10,
-11,
-11,
-11,
-11,
-9,
-9,
-10,
-10,
-9,
-9,
-10,
-10,
-11,
-11,
-10,
-10,
-10,
-10,
-10,
-10,
-9,
-9,
-9,
-9,
-8,
-8,
-9,
-9,
-9,
-9,
-10,
-10,
-9,
-9,
-10,
-10,
-8,
-8,
-9,
-9,
-8,
-8,
-8,
-8,
-10,
-10,
-9,
-9,
-8,
-8,
-8,
-8,
-11,
-11,
-6,
-6,
-8,
-8,
-7,
-7,
-10,
4,
-4,
-23,
-9,
-9,
-7,
-7,
-8,
-8,
-7,
-7,
-7,
-7,
-6,
-6,
-7,
-7,
-5,
-5,
-6,
-6,
-6,
-6,
1,
-22,
-4,
-4,
-5,
-5,
-5,
-5,
-4,
-4,
-5,
-5,
-4,
-4,
-5,
-5,
-4,
-4,
-4,
-4,
-2,
-2,
10,
-19,
0,
0,
-3,
-3,
-1,
-1,
-4,
-4,
-1,
-1,
-3,
-3,
-2,
-2,
-1,
-1,
0,
0,
-2,
-2,
-2,
-2,
-3,
-3,
2,
2,
1,
1,
-1,
-1,
1,
1,
1,
1,
0,
0,
1,
1,
1,
1,
2,
2,
2,
2,
4,
4,
-3,
-3,
2,
2,
1,
1,
0,
0,
1,
1,
1,
1,
2,
2,
4,
4,
2,
2,
3,
3,
2,
2,
3,
3,
3,
3,
2,
2,
5,
5,
3,
3,
2,
2,
5,
5,
3,
3,
3,
3,
4,
4,
5,
5,
4,
4,
3,
3,
5,
5,
3,
3,
7,
7,
5,
5,
4,
4,
6,
6,
5,
5,
6,
6,
6,
6,
6,
6,
6,
6,
5,
5,
7,
7,
6,
6,
5,
5,
4,
4,
4,
4,
5,
5,
6,
6,
5,
5,
5,
5,
5,
5,
4,
4,
5,
5,
5,
5,
3,
3,
5,
5,
4,
4,
2,
2,
6,
6,
3,
3,
4,
4,
4,
4,
3,
3,
4,
4,
4,
4,
6,
6,
5,
5,
4,
4,
5,
5,
1,
1,
3,
3,
5,
5,
2,
2,
2,
2,
2,
2,
2,
2,
3,
3,
4,
4,
4,
4,
2,
2,
4,
4,
3,
3,
1,
1,
1,
1,
1,
1,
2,
2,
2,
2,
1,
1,
1,
1,
0,
0,
1,
-11,
10,
-13,
4,
4,
1,
1,
1,
1,
0,
0,
-1,
-1,
0,
0,
-1,
-1,
-1,
-1,
-1,
-1,
0,
0,
12,
-17,
6,
-7,
-1,
-1,
-5,
-5,
-1,
-1,
-2,
-2,
-2,
-2,
-1,
-1,
-3,
-3,
-2,
-2,
-1,
-1,
7,
-16,
-13,
9,
-2,
-2,
-3,
-3,
-5,
-5,
0,
0,
-4,
-4,
-5,
-5,
-2,
-2,
-4,
-4,
-6,
-6,
-6,
-6,
-7,
-7,
-6,
-6,
-6,
-6,
-6,
-6,
-6,
-6,
-7,
-7,
-7,
-7,
-8,
-8,
-7,
-7,
-9,
-9,
-7,
-7,
-7,
-7,
-7,
-7,
-8,
-8,
-9,
-9,
-9,
-9,
-8,
-8,
-8,
-8,
-9,
-9,
-8,
-8,
-9,
-9,
-11,
-11,
-9,
-9,
-10,
-10,
-9,
-9,
-10,
-10,
-10,
-10,
-9,
-9,
-7,
-7,
-10,
-10,
-9,
-9,
-10,
-10,
-10,
-10,
-10,
-10,
-9,
-9,
-9,
-9,
-11,
-11,
-10,
-10,
-10,
-10,
-13,
-13,
-8,
-8,
-11,
-11,
-12,
-12,
-11,
-11,
-10,
-10,
-12,
-12,
-12,
-12,
-11,
-11,
-11,
-11,
-11,
-11,
-10,
-10,
-6,
-6,
-11,
-11,
-10,
-10,
-9,
-9,
-11,
-11,
-10,
-10,
-11,
-11,
-9,
-9,
-10,
-10,
-10,
-10,
-11,
-11,
-12,
-12,
-7,
-7,
-10,
-10,
-10,
-10,
-9,
-9,
-8,
-8,
-9,
-9,
-8,
-8,
-8,
-8,
-9,
-9,
-9,
-9,
-9,
-9,
-6,
-6,
-9,
-9,
-7,
-7,
-7,
-7,
-8,
-8,
-7,
-7,
-7,
-7,
-8,
-8,
-7,
-7,
-7,
-7,
-8,
-8,
-7,
-7,
-8,
-8,
-6,
-6,
-6,
-6,
-7,
-7,
-6,
-6,
-6,
-6,
-7,
-7,
-7,
-7,
-6,
-6,
-5,
-5,
-4,
-4,
7,
-18,
-6,
-6,
-3,
-3,
-4,
-4,
-6,
-6,
-5,
-5,
-4,
-4,
-4,
-4,
-4,
-4,
-4,
-4,
-2,
-2,
-1,
-14,
11,
-16,
-4,
-4,
0,
0,
0,
0,
-2,
-2,
-2,
-2,
-1,
-1,
0,
0,
-1,
-1,
0,
0,
0,
0,
14,
-15,
2,
2,
-1,
-1,
0,
0,
2,
2,
2,
2,
0,
0,
1,
1,
1,
1,
2,
2,
0,
0,
2,
2,
1,
1,
2,
2,
2,
2,
2,
2,
2,
2,
2,
2,
1,
1,
2,
2,
4,
4,
2,
2,
4,
4,
4,
4,
4,
4,
3,
3,
4,
4,
4,
4,
4,
4,
3,
3,
6,
6,
4,
4,
5,
5,
4,
4,
4,
4,
3,
3,
4,
4,
4,
4,
4,
4,
8,
8,
8,
8,
4,
4,
3,
3,
3,
3,
5,
5,
7,
7,
4,
4,
5,
5,
3,
3,
5,
5,
3,
3,
2,
2,
6,
6,
6,
6,
5,
5,
5,
5,
5,
5,
5,
5,
5,
5,
6,
6,
4,
4,
5,
5,
6,
6,
3,
3,
3,
3,
3,
3,
3,
3,
5,
5,
4,
4,
7,
7,
4,
4,
5,
5,
5,
5,
4,
4,
6,
6,
4,
4,
3,
3,
4,
4,
2,
2,
4,
4,
3,
3,
3,
3,
3,
3,
4,
4,
3,
3,
3,
3,
2,
2,
2,
2,
2,
2,
1,
1,
3,
3,
2,
2,
2,
2,
0,
0,
2,
2,
1,
1,
0,
0,
1,
1,
0,
0,
1,
1,
-1,
-1,
2,
2,
1,
1,
0,
0,
-2,
-2,
-2,
-2,
0,
0,
-1,
-1,
-1,
-1,
-3,
-3,
0,
0,
-2,
-2,
9,
-14,
-5,
-5,
-2,
-2,
-3,
-3,
-3,
-3,
-3,
-3,
-5,
-5,
-3,
-3,
-4,
-4,
-3,
-3,
-5,
-5,
-14,
7,
-4,
-4,
-6,
-6,
-5,
-5,
-6,
-6,
-5,
-5,
-6,
-6,
-7,
-7,
-5,
-5,
-7,
-7,
-5,
-5,
6,
-18,
-3,
-3,
-7,
-7,
-6,
-6,
-5,
-5,
-6,
-6,
-6,
-6,
-8,
-8,
-7,
-7,
-9,
-9,
-7,
-7,
-8,
-8,
-8,
-8,
-9,
-9,
-7,
-7,
-9,
-9,
-9,
-9,
-9,
-9,
-9,
-9,
-10,
-10,
-9,
-9,
-10,
-10,
-8,
-8,
-10,
-10,
-11,
-11,
-9,
-9,
-10,
-10,
-10,
-10,
-9,
-9,
-12,
-12,
-9,
-9,
-9,
-9,
-11,
-11,
-10,
-10,
-12,
-12,
-10,
-10,
-11,
-11,
-11,
-11,
-11,
-11,
-13,
-13,
-10,
-10,
-10,
-10,
-11,
-11,
-11,
-11,
-11,
-11,
-13,
-13,
-9,
-9,
-10,
-10,
-11,
-11,
-10,
-10,
-10,
-10,
-8,
-8,
-8,
-8,
-11,
-11,
-10,
-10,
-9,
-9,
-9,
-9,
-10,
-10,
-10,
-10,
-10,
-10,
-11,
-11,
-9,
-9,
-10,
-10,
-9,
-9,
-10,
-10,
-7,
-7,
-9,
-9,
-10,
-10,
-8,
-8,
-7,
-7,
-8,
-8,
-8,
-8,
-8,
-8,
-7,
-7,
-8,
-8,
-8,
-8,
-8,
-8,
-6,
-6,
-8,
-8,
-7,
-7,
-7,
-7,
-6,
-6,
-7,
-7,
-7,
-7,
-7,
-7,
-7,
-7,
-6,
-6,
-6,
-6,
-5,
-5,
-6,
-6,
-4,
-4,
-4,
-4,
-5,
-5,
-5,
-5,
-5,
-5,
-5,
-5,
-1,
-1,
-3,
-3,
-4,
-4,
-4,
-4,
-3,
-3,
-1,
-1,
-2,
-2,
-3,
-3,
-2,
-2,
-2,
-2,
-2,
-2,
-1,
-1,
-3,
-3,
0,
-11,
-1,
-12,
-2,
-2,
-1,
-1,
-1,
-1,
0,
0,
1,
1,
0,
0,
1,
1,
0,
0,
1,
1,
1,
1,
0,
13,
7,
-4,
1,
1,
1,
1,
2,
2,
3,
3,
4,
4,
2,
2,
1,
1,
3,
3,
2,
2,
4,
4,
7,
-7,
5,
5,
3,
3,
3,
3,
3,
3,
2,
2,
4,
4,
4,
4,
2,
2,
3,
3,
3,
3,
4,
4,
4,
4,
4,
4,
5,
5,
5,
5,
4,
4,
4,
4,
4,
4,
4,
4,
4,
4,
5,
5,
10,
-3,
4,
4,
6,
6,
5,
5,
4,
4,
6,
6,
9,
9,
5,
5,
5,
5,
5,
5,
4,
4,
4,
4,
3,
3,
5,
5,
5,
5,
4,
4,
5,
5,
4,
4,
7,
7,
5,
5,
6,
6,
3,
3,
6,
6,
4,
4,
3,
3,
6,
6,
3,
3,
4,
4,
5,
5,
3,
3,
4,
4,
3,
3,
4,
4,
5,
5,
5,
5,
4,
4,
8,
8,
3,
3,
4,
4,
3,
3,
4,
4,
4,
4,
5,
5,
2,
2,
2,
2,
2,
2,
3,
3,
3,
3,
3,
3,
2,
2,
1,
1,
2,
2,
2,
2,
2,
2,
1,
1,
1,
1,
1,
1,
0,
0,
1,
1,
1,
1,
0,
0,
0,
0,
0,
0,
0,
0,
0,
0,
0,
0,
-1,
-1,
-1,
-1,
0,
0,
-1,
-1,
3,
-8,
-1,
-1,
-2,
-2,
-2,
-2,
-3,
-3,
-4,
-4,
-3,
-3,
-3,
-3,
-3,
-3,
-3,
-3,
-3,
-3,
-4,
-4,
-4,
-4,
-4,
-4,
-4,
-4,
-5,
-5,
-6,
-6,
-5,
-5,
-4,
-4,
-4,
-15,
-11,
4,
-4,
-4,
-5,
-5,
-7,
-7,
-6,
-6,
-7,
-7,
-7,
-7,
-6,
-6,
-6,
-6,
-8,
-8,
-6,
-6,
-13,
6,
-8,
-8,
-7,
-7,
-7,
-7,
-9,
-9,
-7,
-7,
-8,
-8,
-9,
-9,
-9,
-9,
-8,
-8,
-10,
-10,
-9,
-9,
-12,
3,
-11,
-11,
-11,
-11,
-8,
-8,
-8,
-8,
-9,
-9,
-10,
-10,
-9,
-9,
-10,
-10,
-10,
-10,
-8,
-8,
-10,
-10,
-10,
-10,
-10,
-10,
-10,
-10,
-7,
-7,
-11,
-11,
-9,
-9,
-10,
-10,
-8,
-8,
-11,
-11,
-10,
-10,
-14,
-14,
-10,
-10,
-10,
-10,
-9,
-9,
-9,
-9,
-10,
-10,
-9,
-9,
-10,
-10,
-10,
-10,
-10,
-10,
-10,
-10,
-9,
-9,
-10,
-10,
-11,
-11,
-11,
-11,
-9,
-9,
-5,
-5,
-7,
-7,
-12,
-12,
-9,
-9,
-10,
-10,
-10,
-10,
-11,
-11,
-8,
-8,
-8,
-8,
-8,
-8,
-10,
-10,
-9,
-9,
-9,
-9,
-9,
-9,
-9,
-9,
-8,
-8,
-7,
-7,
-9,
-9,
-7,
-7,
-8,
-8,
-7,
-7,
-6,
-6,
-7,
