2-diodenkennlinien/data/ALL0013/A0013CH1.CSV

Memory Length,4000,
Trigger Level,2.28790e+01,
Source,CH1,
Probe,1.0X,
Vertical Units,V,
Vertical Scale,2.00000e+00,
Vertical Position,-1.76000e+01,
Horizontal Units,S,
Horizontal Scale,2.50000e-03,
Horizontal Position,1.0000000e-04,
Horizontal Mode,Main,
Sampling Period,1.00000e-05,
Firmware,V1.14,
Time, ,
Mode,Fast,
Waveform Data,
287,
287,
287,
288,
288,
288,
288,
289,
289,
289,
289,
290,
290,
290,
290,
291,
291,
291,
291,
291,
291,
291,
291,
291,
291,
292,
292,
293,
293,
293,
293,
293,
293,
293,
293,
294,
294,
294,
294,
295,
295,
295,
295,
295,
295,
295,
295,
295,
295,
296,
296,
296,
296,
296,
296,
297,
297,
297,
297,
297,
297,
296,
296,
297,
297,
297,
297,
297,
297,
297,
297,
297,
297,
298,
298,
298,
298,
299,
299,
299,
299,
299,
299,
299,
299,
299,
299,
299,
299,
299,
299,
299,
299,
299,
299,
299,
299,
299,
299,
299,
299,
299,
299,
299,
299,
300,
300,
299,
299,
299,
299,
299,
299,
300,
300,
300,
300,
300,
300,
300,
300,
300,
300,
300,
300,
300,
300,
300,
300,
300,
300,
300,
300,
299,
299,
299,
299,
299,
299,
300,
300,
299,
299,
299,
299,
299,
299,
299,
299,
299,
299,
299,
299,
298,
298,
298,
298,
298,
298,
298,
298,
298,
298,
298,
298,
297,
297,
297,
297,
297,
297,
297,
297,
296,
296,
296,
296,
296,
296,
295,
295,
295,
295,
295,
295,
295,
295,
295,
295,
294,
294,
293,
293,
294,
294,
293,
293,
293,
293,
293,
293,
292,
292,
292,
292,
292,
292,
291,
291,
292,
292,
291,
291,
291,
291,
291,
291,
290,
290,
290,
290,
289,
289,
290,
290,
289,
289,
289,
289,
289,
289,
288,
288,
289,
289,
288,
288,
288,
288,
287,
287,
287,
287,
287,
287,
286,
286,
287,
287,
286,
286,
285,
285,
285,
285,
285,
285,
285,
285,
284,
284,
285,
285,
285,
285,
284,
284,
283,
283,
283,
283,
283,
283,
283,
283,
283,
283,
283,
283,
283,
283,
281,
281,
282,
282,
282,
282,
281,
281,
282,
282,
281,
281,
281,
281,
280,
280,
280,
280,
279,
279,
279,
279,
279,
279,
279,
279,
279,
279,
279,
279,
278,
278,
278,
278,
278,
278,
278,
278,
277,
277,
276,
276,
277,
277,
276,
276,
276,
276,
276,
276,
276,
276,
275,
275,
275,
275,
275,
275,
275,
275,
275,
275,
274,
274,
274,
274,
273,
273,
274,
274,
273,
273,
273,
273,
273,
273,
272,
272,
272,
272,
271,
271,
271,
271,
271,
271,
271,
271,
271,
271,
271,
271,
271,
271,
270,
270,
270,
270,
269,
269,
269,
269,
269,
269,
269,
269,
269,
269,
268,
268,
269,
269,
268,
268,
268,
268,
267,
267,
267,
267,
267,
267,
267,
267,
267,
267,
267,
267,
266,
266,
267,
267,
266,
266,
266,
266,
265,
265,
265,
265,
265,
265,
265,
265,
265,
265,
264,
264,
264,
264,
264,
264,
263,
263,
263,
263,
263,
263,
263,
263,
263,
263,
263,
263,
263,
263,
262,
262,
262,
262,
261,
261,
261,
261,
261,
261,
261,
261,
260,
260,
260,
260,
259,
259,
259,
259,
259,
259,
259,
259,
259,
259,
259,
259,
259,
259,
259,
259,
258,
258,
257,
257,
257,
257,
258,
258,
257,
257,
257,
257,
256,
256,
257,
257,
255,
255,
256,
256,
256,
256,
255,
255,
255,
255,
255,
255,
254,
254,
255,
255,
255,
255,
254,
254,
254,
254,
253,
253,
254,
254,
253,
253,
253,
253,
252,
252,
252,
252,
252,
252,
252,
252,
252,
252,
251,
251,
251,
251,
251,
251,
251,
251,
251,
251,
250,
250,
251,
251,
250,
250,
250,
250,
249,
249,
250,
250,
249,
249,
249,
249,
249,
249,
248,
248,
248,
248,
248,
248,
248,
248,
248,
248,
247,
247,
247,
247,
247,
247,
247,
247,
247,
247,
247,
247,
246,
246,
246,
246,
247,
247,
246,
246,
245,
245,
245,
245,
245,
245,
245,
245,
244,
244,
244,
244,
244,
244,
243,
243,
243,
243,
243,
243,
243,
243,
243,
243,
243,
243,
243,
243,
242,
242,
242,
242,
242,
242,
242,
242,
242,
242,
241,
241,
241,
241,
240,
240,
241,
241,
239,
239,
240,
240,
240,
240,
240,
240,
239,
239,
239,
239,
239,
239,
239,
239,
239,
239,
239,
239,
238,
238,
237,
237,
238,
238,
237,
237,
237,
237,
238,
238,
237,
237,
237,
237,
237,
237,
237,
237,
236,
236,
236,
236,
236,
236,
235,
235,
235,
235,
235,
235,
235,
235,
234,
234,
235,
235,
235,
235,
234,
234,
234,
234,
234,
234,
233,
233,
233,
233,
233,
233,
233,
233,
233,
233,
233,
233,
232,
232,
232,
232,
231,
231,
231,
231,
231,
231,
231,
231,
231,
231,
231,
231,
231,
231,
231,
231,
230,
230,
230,
230,
230,
230,
229,
229,
229,
229,
229,
229,
229,
229,
228,
228,
228,
228,
228,
228,
228,
228,
227,
227,
227,
227,
227,
227,
227,
227,
227,
227,
227,
227,
226,
226,
227,
227,
227,
227,
227,
227,
226,
226,
225,
225,
226,
226,
225,
225,
225,
225,
225,
225,
224,
224,
224,
224,
225,
225,
224,
224,
223,
223,
223,
223,
223,
223,
223,
223,
223,
223,
223,
223,
223,
223,
222,
222,
221,
221,
221,
221,
221,
221,
222,
222,
221,
221,
221,
221,
221,
221,
221,
221,
221,
221,
220,
220,
219,
219,
220,
220,
219,
219,
220,
220,
220,
220,
220,
220,
220,
220,
220,
220,
221,
221,
222,
222,
221,
221,
223,
223,
223,
223,
224,
224,
225,
225,
227,
227,
227,
227,
229,
229,
231,
231,
231,
231,
232,
232,
234,
234,
235,
235,
236,
236,
239,
239,
239,
239,
240,
240,
242,
242,
243,
243,
243,
243,
245,
245,
247,
247,
248,
248,
248,
248,
249,
249,
251,
251,
252,
252,
253,
253,
253,
253,
255,
255,
255,
255,
255,
255,
257,
257,
258,
258,
259,
259,
260,
260,
261,
261,
263,
263,
263,
263,
264,
264,
265,
265,
265,
265,
267,
267,
268,
268,
269,
269,
269,
269,
270,
270,
271,
271,
273,
273,
274,
274,
275,
275,
275,
275,
276,
276,
277,
277,
278,
278,
279,
279,
279,
279,
280,
280,
280,
280,
281,
281,
281,
281,
283,
283,
282,
282,
283,
283,
283,
283,
284,
284,
286,
286,
285,
285,
286,
286,
287,
287,
287,
287,
287,
287,
287,
287,
289,
289,
289,
289,
289,
289,
290,
290,
291,
291,
291,
291,
291,
291,
291,
291,
292,
292,
292,
292,
293,
293,
294,
294,
293,
293,
294,
294,
294,
294,
295,
295,
295,
295,
295,
295,
295,
295,
295,
295,
296,
296,
296,
296,
296,
296,
297,
297,
296,
296,
297,
297,
296,
296,
297,
297,
298,
298,
298,
298,
298,
298,
299,
299,
298,
298,
299,
299,
299,
299,
299,
299,
299,
299,
299,
299,
299,
299,
299,
299,
299,
299,
299,
299,
299,
299,
299,
299,
300,
300,
300,
300,
299,
299,
299,
299,
300,
300,
300,
300,
300,
300,
300,
300,
301,
301,
301,
301,
301,
301,
301,
301,
301,
301,
301,
301,
301,
301,
301,
301,
300,
300,
300,
300,
301,
301,
301,
301,
301,
301,
300,
300,
300,
300,
301,
301,
301,
301,
300,
300,
300,
300,
300,
300,
299,
299,
300,
300,
299,
299,
299,
299,
299,
299,
299,
299,
299,
299,
299,
299,
298,
298,
298,
298,
298,
298,
299,
299,
298,
298,
297,
297,
297,
297,
297,
297,
297,
297,
296,
296,
296,
296,
296,
296,
295,
295,
295,
295,
295,
295,
295,
295,
295,
295,
295,
295,
294,
294,
293,
293,
293,
293,
293,
293,
292,
292,
292,
292,
292,
292,
292,
292,
292,
292,
291,
291,
291,
291,
291,
291,
291,
291,
291,
291,
291,
291,
290,
290,
289,
289,
289,
289,
289,
289,
289,
289,
289,
289,
288,
288,
288,
288,
287,
287,
287,
287,
287,
287,
287,
287,
287,
287,
287,
287,
286,
286,
285,
285,
285,
285,
285,
285,
285,
285,
285,
285,
284,
284,
284,
284,
283,
283,
283,
283,
283,
283,
283,
283,
283,
283,
283,
283,
283,
283,
281,
281,
281,
281,
282,
282,
282,
282,
281,
281,
281,
281,
280,
280,
280,
280,
280,
280,
280,
280,
280,
280,
280,
280,
279,
279,
279,
279,
278,
278,
279,
279,
278,
278,
278,
278,
278,
278,
278,
278,
278,
278,
277,
277,
277,
277,
277,
277,
277,
277,
276,
276,
275,
275,
276,
276,
275,
275,
275,
275,
275,
275,
275,
275,
274,
274,
274,
274,
274,
274,
273,
273,
273,
273,
273,
273,
272,
272,
272,
272,
272,
272,
272,
272,
271,
271,
271,
271,
271,
271,
271,
271,
271,
271,
271,
271,
271,
271,
270,
270,
270,
270,
270,
270,
269,
269,
269,
269,
269,
269,
268,
268,
267,
267,
268,
268,
268,
268,
267,
267,
268,
268,
267,
267,
267,
267,
267,
267,
267,
267,
267,
267,
266,
266,
267,
267,
265,
265,
265,
265,
265,
265,
265,
265,
265,
265,
264,
264,
264,
264,
264,
264,
264,
264,
263,
263,
263,
263,
263,
263,
263,
263,
263,
263,
263,
263,
262,
262,
261,
261,
262,
262,
262,
262,
261,
261,
261,
261,
260,
260,
261,
261,
260,
260,
259,
259,
260,
260,
259,
259,
259,
259,
259,
259,
259,
259,
259,
259,
258,
258,
259,
259,
258,
258,
257,
257,
258,
258,
257,
257,
257,
257,
257,
257,
257,
257,
257,
257,
256,
256,
255,
255,
255,
255,
255,
255,
255,
255,
255,
255,
255,
255,
255,
255,
254,
254,
254,
254,
254,
254,
253,
253,
253,
253,
253,
253,
253,
253,
253,
253,
251,
251,
252,
252,
252,
252,
251,
251,
251,
251,
251,
251,
251,
251,
250,
250,
251,
251,
251,
251,
250,
250,
249,
249,
249,
249,
249,
249,
249,
249,
249,
249,
249,
249,
249,
249,
248,
248,
248,
248,
248,
248,
247,
247,
247,
247,
247,
247,
247,
247,
247,
247,
247,
247,
246,
246,
246,
246,
247,
247,
246,
246,
246,
246,
245,
245,
245,
245,
244,
244,
245,
245,
245,
245,
244,
244,
244,
244,
245,
245,
243,
243,
243,
243,
244,
244,
243,
243,
243,
243,
242,
242,
242,
242,
242,
242,
242,
242,
241,
241,
241,
241,
241,
241,
240,
240,
240,
240,
241,
241,
240,
240,
240,
240,
240,
240,
239,
239,
240,
240,
239,
239,
239,
239,
239,
239,
239,
239,
238,
238,
238,
238,
238,
238,
238,
238,
237,
237,
237,
237,
237,
237,
237,
237,
236,
236,
237,
237,
236,
236,
236,
236,
236,
236,
236,
236,
235,
235,
235,
235,
235,
235,
235,
235,
235,
235,
233,
233,
234,
234,
234,
234,
234,
234,
234,
234,
234,
234,
233,
233,
233,
233,
233,
233,
232,
232,
232,
232,
232,
232,
232,
232,
232,
232,
231,
231,
231,
231,
231,
231,
231,
231,
231,
231,
231,
231,
231,
231,
231,
231,
230,
230,
230,
230,
229,
229,
229,
229,
229,
229,
229,
229,
229,
229,
228,
228,
228,
228,
228,
228,
228,
228,
227,
227,
227,
227,
227,
227,
227,
227,
227,
227,
227,
227,
226,
226,
227,
227,
226,
226,
225,
225,
226,
226,
225,
225,
225,
225,
224,
224,
225,
225,
224,
224,
224,
224,
224,
224,
224,
224,
224,
224,
223,
223,
223,
223,
223,
223,
223,
223,
223,
223,
223,
223,
222,
222,
222,
222,
222,
222,
221,
221,
222,
222,
221,
221,
220,
220,
221,
221,
221,
221,
219,
219,
221,
221,
221,
221,
220,
220,
220,
220,
220,
220,
220,
220,
220,
220,
221,
221,
221,
221,
221,
221,
223,
223,
223,
223,
225,
225,
225,
225,
226,
226,
227,
227,
229,
229,
230,
230,
231,
231,
232,
232,
233,
233,
235,
235,
236,
236,
238,
238,
239,
239,
241,
241,
241,
241,
243,
243,
244,
244,
245,
245,
246,
246,
247,
247,
248,
248,
249,
249,
249,
249,
251,
251,
251,
251,
253,
253,
254,
254,
255,
255,
255,
255,
257,
257,
258,
258,
259,
259,
259,
259,
260,
260,
262,
262,
262,
262,
263,
263,
264,
264,
265,
265,
266,
266,
267,
267,
267,
267,
268,
268,
270,
270,
271,
271,
272,
272,
273,
273,
274,
274,
275,
275,
276,
276,
277,
277,
277,
277,
278,
278,
278,
278,
279,
279,
279,
279,
281,
281,
281,
281,
282,
282,
283,
283,
283,
283,
283,
283,
283,
283,
283,
283,
285,
285,
285,
285,
286,
286,
286,
286,
286,
286,
287,
287,
287,
287,
289,
289,
289,
289,
289,
289,
289,
289,
290,
290,
290,
290,
291,
291,
291,
291,
291,
291,
291,
291,
293,
293,
292,
292,
293,
293,
293,
293,
294,
294,
294,
294,
295,
295,
294,
294,
295,
295,
295,
295,
295,
295,
295,
295,
295,
295,
295,
295,
296,
296,
295,
295,
296,
296,
297,
297,
297,
297,
296,
296,
297,
297,
297,
297,
296,
296,
297,
297,
298,
298,
298,
298,
298,
298,
298,
298,
298,
298,
298,
298,
299,
299,
299,
299,
299,
299,
299,
299,
299,
299,
299,
299,
299,
299,
299,
299,
299,
299,
300,
300,
299,
299,
300,
300,
299,
299,
299,
299,
300,
300,
300,
300,
299,
299,
299,
299,
299,
299,
299,
299,
299,
299,
299,
299,
300,
300,
299,
299,
299,
299,
300,
300,
299,
299,
299,
299,
299,
299,
299,
299,
299,
299,
299,
299,
299,
299,
299,
299,
298,
298,
298,
298,
299,
299,
297,
297,
298,
298,
298,
298,
297,
297,
297,
297,
297,
297,
296,
296,
296,
296,
296,
296,
295,
295,
295,
295,
295,
295,
295,
295,
295,
295,
295,
295,
295,
295,
294,
294,
293,
293,
294,
294,
293,
293,
293,
293,
293,
293,
293,
293,
291,
291,
292,
292,
291,
291,
291,
291,
291,
291,
291,
291,
291,
291,
290,
290,
290,
290,
291,
291,
290,
290,
289,
289,
289,
289,
289,
289,
288,
288,
288,
288,
287,
287,
287,
287,
287,
287,
287,
287,
287,
287,
287,
287,
287,
287,
286,
286,
286,
286,
285,
285,
285,
285,
285,
285,
285,
285,
285,
285,
284,
284,
284,
284,
284,
284,
283,
283,
283,
283,
283,
283,
283,
283,
282,
282,
283,
283,
282,
282,
282,
282,
281,
281,
281,
281,
281,
281,
280,
280,
280,
280,
280,
280,
280,
280,
279,
279,
279,
279,
279,
279,
279,
279,
279,
279,
279,
279,
279,
279,
278,
278,
278,
278,
277,
277,
277,
277,
277,
277,
276,
276,
277,
277,
276,
276,
276,
276,
275,
275,
275,
275,
275,
275,
275,
275,
275,
275,
275,
275,
274,
274,
274,
274,
274,
274,
273,
273,
273,
273,
273,
273,
273,
273,
272,
272,
272,
272,
271,
271,
271,
271,
271,
271,
272,
272,
271,
271,
271,
271,
271,
271,
270,
270,
270,
270,
270,
270,
270,
270,
269,
269,
269,
269,
269,
269,
268,
268,
268,
268,
268,
268,
268,
268,
267,
267,
267,
267,
267,
267,
267,
267,
267,
267,
267,
267,
266,
266,
266,
266,
266,
266,
266,
266,
265,
265,
265,
265,
265,
265,
264,
264,
265,
265,
265,
265,
264,
264,
263,
263,
263,
263,
263,
263,
263,
263,
263,
263,
262,
262,
263,
263,
262,
262,
262,
262,
261,
261,
261,
261,
261,
261,
261,
261,
261,
261,
260,
260,
260,
260,
260,
260,
259,
259,
259,
259,
259,
259,
259,
259,
259,
259,
258,
258,
258,
258,
259,
259,
258,
258,
258,
258,
257,
257,
257,
257,
257,
257,
256,
256,
257,
257,
256,
256,
256,
256,
255,
255,
255,
255,
255,
255,
255,
255,
255,
255,
255,
255,
254,
254,
254,
254,
253,
253,
253,
253,
253,
253,
253,
253,
253,
253,
252,
252,
253,
253,
252,
252,
251,
251,
251,
251,
251,
251,
251,
251,
251,
251,
251,
251,
251,
251,
250,
250,
251,
251,
251,
251,
250,
250,
249,
249,
250,
250,
249,
249,
249,
249,
249,
249,
249,
249,
248,
248,
248,
248,
248,
248,
247,
247,
247,
247,
247,
247,
247,
247,
247,
247,
247,
247,
247,
247,
246,
246,
245,
245,
245,
245,
245,
245,
246,
246,
245,
245,
245,
245,
244,
244,
245,
245,
243,
243,
244,
244,
243,
243,
243,
243,
244,
244,
243,
243,
243,
243,
243,
243,
243,
243,
241,
241,
242,
242,
241,
241,
241,
241,
241,
241,
241,
241,
241,
241,
241,
241,
240,
240,
240,
240,
240,
240,
240,
240,
239,
239,
239,
239,
239,
239,
239,
239,
239,
239,
239,
239,
238,
238,
239,
239,
238,
238,
238,
238,
237,
237,
237,
237,
237,
237,
236,
236,
236,
236,
237,
237,
237,
237,
236,
236,
235,
235,
235,
235,
235,
235,
235,
235,
235,
235,
235,
235,
234,
234,
234,
234,
234,
234,
234,
234,
234,
234,
233,
233,
233,
233,
233,
233,
233,
233,
233,
233,
232,
232,
232,
232,
233,
233,
232,
232,
232,
232,
231,
231,
231,
231,
231,
231,
231,
231,
231,
231,
230,
230,
230,
230,
229,
229,
230,
230,
230,
230,
229,
229,
229,
229,
228,
228,
229,
229,
228,
228,
229,
229,
228,
228,
228,
228,
227,
227,
227,
227,
227,
227,
227,
227,
227,
227,
226,
226,
227,
227,
226,
226,
227,
227,
226,
226,
225,
225,
225,
225,
225,
225,
225,
225,
224,
224,
225,
225,
224,
224,
224,
224,
225,
225,
223,
223,
223,
223,
223,
223,
223,
223,
223,
223,
223,
223,
222,
222,
223,
223,
222,
222,
222,
222,
223,
223,
222,
222,
221,
221,
221,
221,
221,
221,
221,
221,
220,
220,
221,
221,
220,
220,
220,
220,
220,
220,
220,
220,
219,
219,
220,
220,
220,
220,
220,
220,
221,
221,
220,
220,
221,
221,
223,
223,
222,
222,
223,
223,
225,
225,
225,
225,
226,
226,
228,
228,
230,
230,
231,
231,
231,
231,
233,
233,
235,
235,
236,
236,
237,
237,
239,
239,
239,
239,
241,
241,
243,
243,
244,
244,
245,
245,
247,
247,
246,
246,
249,
249,
249,
249,
250,
250,
251,
251,
252,
252,
253,
253,
255,
255,
255,
255,
256,
256,
257,
257,
258,
258,
259,
259,
260,
260,
262,
262,
262,
262,
263,
263,
264,
264,
265,
265,
265,
265,
267,
267,
268,
268,
269,
269,
270,
270,
270,
270,
271,
271,
272,
272,
273,
273,
274,
274,
275,
275,
275,
275,
276,
276,
276,
276,
278,
278,
279,
279,
279,
279,
280,
280,
281,
281,
281,
281,
282,
282,
282,
282,
283,
283,
283,
283,
284,
284,
285,
285,
285,
285,
287,
287,
286,
286,
287,
287,
287,
287,
288,
288,
289,
289,
289,
289,
289,
289,
289,
289,
291,
291,
291,
291,
291,
291,
291,
291,
292,
292,
292,
292,
293,
293,
293,
293,
293,
293,
294,
294,
293,
293,
294,
294,
295,
295,
295,
295,
295,
295,
295,
295,
295,
295,
296,
296,
296,
296,
296,
296,
297,
297,
297,
297,
296,
296,
297,
297,
297,
297,
297,
297,
297,
297,
298,
298,
298,
298,
298,
298,
298,
298,
299,
299,
299,
299,
299,
299,
299,
299,
299,
299,
299,
299,
299,
299,
299,
299,
299,
299,
300,
300,
300,
300,
300,
300,
300,
300,
300,
300,
300,
300,
300,
300,
300,
300,
300,
300,
300,
300,
301,
301,
300,
300,
300,
300,
301,
301,
301,
301,
301,
301,
301,
301,
300,
300,
301,
301,
301,
301,
300,
300,
301,
301,
301,
301,
300,
300,
301,
301,
300,
300,
301,
301,
300,
300,
299,
299,
300,
300,
299,
299,
299,
299,
299,
299,
299,
299,
299,
299,
299,
299,
299,
299,
299,
299,
298,
298,
298,
298,
297,
297,
297,
297,
297,
297,
297,
297,
297,
297,
297,
297,
296,
296,
296,
296,
295,
295,
295,
295,
295,
295,
295,
295,
295,
295,
294,
294,
293,
293,
293,
293,
293,
293,
292,
292,
293,
293,
292,
292,
293,
293,
292,
292,
291,
291,
291,
291,
291,
291,
291,
291,
291,
291,
291,
291,
291,
291,
290,
290,
289,
289,
289,
289,
289,
289,
289,
289,
289,
289,
288,
288,
288,
288,
288,
288,
287,
287,
287,
287,
287,
287,
286,
286,
287,
287,
287,
287,
286,
286,
285,
285,
285,
285,
285,
285,
285,
285,
284,
284,
283,
283,
284,
284,
285,
285,
283,
283,
283,
283,
283,
283,
283,
283,
283,
283,
283,
283,
282,
282,
282,
282,
282,
282,
282,
282,
281,
281,
281,
281,
281,
281,
280,
280,
280,
280,
280,
280,
279,
279,
279,
279,
279,
279,
279,
279,
279,
279,
279,
279,
278,
278,
278,
278,
277,
277,
277,
277,
277,
277,
276,
276,
277,
277,
276,
276,
276,
276,
276,
276,
276,
276,
275,
275,
275,
275,
275,
275,
275,
275,
273,
273,
274,
274,
273,
273,
273,
273,
273,
273,
273,
273,
272,
272,
272,
272,
272,
272,
272,
272,
272,
272,
271,
271,
271,
271,
271,
271,
271,
271,
271,
271,
270,
270,
269,
269,
270,
270,
269,
269,
270,
270,
269,
269,
269,
269,
269,
269,
269,
269,
268,
268,
268,
268,
268,
268,
267,
267,
267,
267,
267,
267,
267,
267,
267,
267,
266,
266,
267,
267,
266,
266,
265,
265,
266,
266,
265,
265,
265,
265,
264,
264,
264,
264,
265,
265,
264,
264,
263,
263,
263,
263,
263,
263,
263,
263,
263,
263,
263,
263,
263,
263,
263,
263,
262,
262,
261,
261,
261,
261,
261,
261,
261,
261,
261,
261,
261,
261,
260,
260,
260,
260,
260,
260,
259,
259,
259,
259,
259,
259,
259,
259,
259,
259,
259,
259,
258,
258,
258,
258,
257,
257,
258,
258,
257,
257,
257,
257,
256,
256,
256,
256,
256,
256,
257,
257,
255,
255,
255,
255,
255,
255,
255,
255,
255,
255,
254,
254,
255,
255,
254,
254,
253,
253,
254,
254,
253,
253,
254,
254,
253,
253,
253,
253,
253,
253,
253,
253,
252,
252,
252,
252,
252,
252,
251,
251,
251,
251,
251,
251,
251,
251,
250,
250,
250,
250,
251,
251,
250,
250,
250,
250,
249,
249,
249,
249,
249,
249,
249,
249,
249,
249,
248,
248,
248,
248,
247,
247,
248,
248,
248,
248,
247,
247,
247,
247,
247,
247,
247,
247,
247,
247,
247,
247,
245,
245,
246,
246,
246,
246,
245,
245,
245,
245,
245,
245,
245,
245,
244,
244,
244,
244,
244,
244,
244,
244,
244,
244,
244,
244,
243,
243,
243,
243,
243,
243,
243,
243,
243,
243,
242,
242,
242,
242,
243,
243,
242,
242,
241,
241,
241,
241,
241,
241,
241,
241,
240,
240,
240,
240,
240,
240,
239,
239,
239,
239,
239,
239,
239,
239,
239,
239,
239,
239,
239,
239,
239,
239,
239,
239,
237,
237,
237,
237,
237,
237,
237,
237,
237,
237,
236,
236,
237,
237,
236,
236,
236,
236,
235,
235,
236,
236,
235,
235,
235,
235,
235,
235,
235,
235,
235,
235,
235,
235,
235,
235,
235,
235,
234,
234,
233,
233,
233,
233,
233,
233,
233,
233,
233,
233,
233,
233,
232,
232,
232,
232,
233,
233,
232,
232,
231,
231,
231,
231,
231,
231,
231,
231,
231,
231,
231,
231,
231,
231,
231,
231,
231,
231,
229,
229,
229,
229,
230,
230,
229,
229,
229,
229,
229,
229,
228,
228,
229,
229,
229,
229,
227,
227,
227,
227,
227,
227,
227,
227,
227,
227,
227,
227,
227,
227,
226,
226,
226,
226,
226,
226,
226,
226,
226,
226,
225,
225,
225,
225,
225,
225,
225,
225,
224,
224,
225,
225,
224,
224,
224,
224,
223,
223,
223,
223,
223,
223,
224,
224,
223,
223,
223,
223,
223,
223,
223,
223,
222,
222,
222,
222,
222,
222,
221,
221,
221,
221,
221,
221,
221,
221,
221,
221,
220,
220,
221,
221,
220,
220,
219,
219,
220,
220,
220,
220,
220,
220,
221,
221,
221,
221,
221,
221,
221,
221,
223,
223,
223,
223,
224,
224,
225,
225,
227,
227,
227,
227,
228,
228,
230,
230,
231,
231,
231,
231,
233,
233,
235,
235,
235,
235,
237,
237,
238,
238,
239,
239,
240,
240,
242,
242,
243,
243,
244,
244,
245,
245,
246,
246,
247,
247,
248,
248,
250,
250,
250,
250,
251,
251,
253,
253,
254,
254,
254,
254,
255,
255,
256,
256,
257,
257,
259,
259,
259,
259,
261,
261,
261,
261,
