5-grundlagen-opAmps/data/ALL0050/A0050CH1.CSV

Memory Length,4000,
Trigger Level,0.00000e+00,
Source,CH1,
Probe,1.0X,
Vertical Units,V,
Vertical Scale,5.00000e-02,
Vertical Position,0.00000e+00,
Horizontal Units,S,
Horizontal Scale,1.00000e-05,
Horizontal Position,0.0000000e+00,
Horizontal Mode,Main,
Sampling Period,4.00000e-08,
Firmware,V1.14,
Time, ,
Mode,Fast,
Waveform Data,
47,
47,
47,
45,
45,
47,
47,
49,
49,
49,
49,
46,
46,
44,
44,
45,
45,
45,
45,
48,
48,
49,
49,
46,
46,
44,
44,
48,
48,
51,
39,
43,
43,
48,
48,
41,
41,
41,
41,
45,
45,
45,
45,
45,
45,
48,
48,
49,
49,
44,
44,
42,
42,
41,
41,
45,
45,
44,
44,
44,
44,
46,
46,
41,
41,
46,
46,
47,
47,
45,
45,
42,
42,
50,
39,
43,
43,
42,
42,
47,
47,
43,
43,
45,
45,
46,
46,
44,
44,
45,
45,
49,
38,
47,
47,
45,
45,
47,
47,
44,
44,
44,
44,
43,
43,
44,
44,
48,
48,
40,
40,
49,
49,
49,
49,
44,
44,
49,
49,
48,
48,
43,
43,
41,
41,
42,
42,
41,
41,
44,
44,
48,
48,
44,
44,
43,
43,
46,
46,
49,
49,
44,
44,
44,
44,
50,
50,
40,
51,
43,
43,
44,
44,
52,
39,
48,
48,
48,
48,
47,
47,
41,
41,
47,
47,
47,
47,
41,
41,
44,
44,
45,
45,
46,
46,
42,
42,
45,
45,
43,
43,
46,
46,
44,
44,
47,
47,
46,
46,
41,
41,
47,
-28,
-28,
-60,
-55,
-55,
-56,
-56,
-58,
-58,
-55,
-55,
-60,
-60,
-57,
-57,
-53,
-53,
-57,
-57,
-60,
-60,
-57,
-57,
-59,
-59,
-53,
-53,
-54,
-54,
-52,
-52,
-52,
-52,
-59,
-59,
-53,
-53,
-52,
-52,
-56,
-56,
-52,
-52,
-54,
-54,
-57,
-57,
-55,
-55,
-53,
-53,
-53,
-53,
-53,
-53,
-56,
-56,
-50,
-50,
-59,
-59,
-56,
-56,
-51,
-51,
-54,
-54,
-53,
-53,
-54,
-54,
-58,
-58,
-58,
-58,
-53,
-53,
-51,
-51,
-54,
-54,
-57,
-57,
-59,
-59,
-57,
-57,
-57,
-57,
-54,
-54,
-50,
-50,
-58,
-58,
-53,
-53,
-55,
-55,
-60,
-60,
-55,
-55,
-54,
-54,
-57,
-57,
-59,
-59,
-51,
-51,
-58,
-58,
-51,
-51,
-52,
-52,
-55,
-55,
-57,
-57,
-57,
-57,
-57,
-57,
-58,
-58,
-56,
-56,
-49,
-61,
-50,
-50,
-53,
-53,
-51,
-51,
-53,
-53,
-55,
-55,
-52,
-52,
-58,
-58,
-56,
-56,
-56,
-56,
-52,
-52,
-58,
-58,
-54,
-54,
-49,
-60,
-57,
-57,
-55,
-55,
-56,
-56,
-54,
-54,
-56,
-56,
-55,
-55,
-59,
-59,
-55,
-55,
-52,
-52,
-57,
-57,
-56,
-56,
-55,
-55,
-53,
-53,
-53,
-53,
-59,
-59,
-51,
-51,
-57,
-57,
-55,
-55,
-53,
-53,
-59,
-59,
-59,
-59,
-51,
-51,
-50,
-50,
-51,
-62,
-50,
-50,
-53,
-53,
-56,
-56,
-55,
-55,
-53,
-53,
-55,
-55,
-59,
-59,
-55,
-55,
-56,
-56,
-62,
-50,
-53,
-53,
-55,
-55,
-57,
-57,
-60,
-49,
-57,
-57,
-56,
-56,
-59,
-59,
-51,
-51,
-58,
-58,
-56,
-56,
-55,
-55,
-53,
-53,
-56,
-56,
-55,
-55,
-52,
-52,
-54,
-54,
-56,
-56,
-56,
-56,
-53,
-53,
-57,
-57,
-52,
-52,
-49,
-62,
-57,
-57,
-51,
-51,
-57,
-57,
-54,
-54,
-51,
-51,
-58,
-58,
-54,
-54,
-57,
-57,
-56,
-56,
-50,
-63,
-54,
-54,
-55,
-55,
-54,
-54,
-60,
-60,
-57,
-57,
-59,
-59,
-56,
-56,
-52,
-52,
-55,
-55,
-56,
-56,
-57,
-57,
-59,
-59,
-56,
-56,
-53,
-53,
-57,
-57,
-54,
-54,
-57,
-57,
-58,
-58,
-54,
-54,
-56,
-56,
-54,
-54,
-52,
-52,
-62,
-50,
-56,
-56,
-55,
-55,
-57,
-57,
-52,
-52,
-55,
-55,
-58,
-58,
-56,
-56,
-54,
-54,
-53,
-53,
-54,
-54,
-56,
-56,
-55,
-55,
-57,
-57,
-62,
-48,
-52,
-52,
-54,
-54,
-59,
-59,
-49,
-60,
-53,
-53,
-53,
-53,
-51,
-51,
-53,
-53,
-58,
-58,
-55,
-55,
-60,
-60,
-59,
-59,
-57,
-57,
-52,
-52,
-53,
-53,
-56,
-56,
-55,
-55,
-54,
-54,
-61,
-61,
-59,
-59,
-54,
-54,
-63,
-49,
-58,
-58,
-55,
-55,
-54,
-54,
-49,
-62,
-53,
-53,
-56,
-56,
-60,
-60,
-55,
-55,
-52,
-63,
-63,
-51,
-57,
-57,
-53,
-53,
-52,
-52,
-58,
-58,
-53,
-53,
-58,
-58,
-54,
-54,
-58,
-58,
-57,
-57,
-53,
-53,
-57,
-57,
-51,
-51,
-59,
-59,
-57,
-57,
-50,
-62,
-56,
-56,
-57,
-57,
-58,
-58,
-57,
-57,
-55,
-55,
-54,
-54,
-61,
-61,
-56,
-56,
-56,
-56,
-57,
-57,
-54,
-54,
-56,
-56,
-53,
-53,
-57,
-57,
-57,
-57,
-52,
-52,
-57,
-57,
-53,
-53,
-52,
-52,
-55,
-55,
-56,
-56,
-51,
-51,
-53,
-53,
-54,
-54,
-57,
-57,
-51,
-62,
-58,
-58,
-55,
-55,
-53,
-53,
-52,
-52,
-57,
-57,
-58,
-58,
-60,
-60,
-60,
-60,
-56,
-56,
-54,
-54,
-56,
-56,
-60,
-60,
-58,
-58,
-58,
-58,
-62,
-62,
-55,
-55,
-55,
-55,
-58,
-58,
-56,
-56,
-57,
-57,
-56,
-56,
-53,
-53,
-52,
-52,
-55,
-55,
-60,
-60,
-52,
-52,
-56,
-56,
-55,
-55,
-51,
-51,
-53,
-53,
-54,
-54,
-58,
-58,
-58,
-58,
-54,
-54,
-55,
-55,
-51,
-51,
-53,
-53,
-56,
36,
49,
49,
50,
50,
41,
41,
49,
49,
44,
44,
40,
40,
42,
42,
46,
46,
44,
44,
49,
49,
46,
46,
45,
45,
44,
44,
44,
44,
47,
47,
43,
43,
42,
42,
45,
45,
45,
45,
49,
49,
49,
49,
47,
47,
44,
44,
48,
48,
44,
44,
41,
41,
48,
48,
43,
43,
44,
44,
42,
42,
43,
43,
45,
45,
46,
46,
45,
45,
44,
44,
46,
46,
44,
44,
44,
44,
43,
43,
47,
47,
48,
48,
39,
39,
46,
46,
45,
45,
42,
42,
50,
50,
46,
46,
42,
42,
39,
39,
40,
40,
44,
44,
47,
47,
48,
48,
47,
47,
40,
40,
46,
46,
50,
38,
42,
42,
44,
44,
48,
48,
41,
41,
47,
47,
46,
46,
49,
49,
46,
46,
44,
44,
46,
46,
39,
39,
46,
46,
47,
47,
43,
43,
42,
42,
45,
45,
45,
45,
43,
43,
45,
45,
44,
44,
46,
46,
41,
41,
45,
45,
43,
43,
41,
41,
47,
47,
42,
42,
43,
43,
45,
45,
43,
43,
44,
44,
43,
43,
45,
45,
43,
43,
41,
41,
44,
44,
47,
47,
45,
45,
48,
48,
44,
44,
46,
46,
45,
45,
43,
43,
44,
44,
44,
44,
47,
47,
50,
50,
44,
44,
45,
45,
47,
47,
45,
45,
45,
45,
45,
45,
42,
42,
46,
46,
46,
46,
41,
41,
48,
48,
46,
46,
45,
45,
45,
45,
38,
50,
45,
45,
45,
45,
46,
46,
42,
42,
45,
45,
44,
44,
46,
46,
44,
44,
44,
44,
51,
39,
43,
43,
43,
43,
46,
46,
40,
40,
45,
45,
44,
44,
43,
43,
41,
41,
50,
39,
43,
43,
48,
48,
48,
48,
46,
46,
43,
43,
41,
41,
46,
46,
46,
46,
43,
43,
50,
50,
45,
45,
42,
42,
50,
50,
51,
40,
43,
43,
43,
43,
37,
51,
42,
42,
44,
44,
47,
47,
47,
47,
42,
42,
50,
50,
46,
46,
42,
42,
45,
45,
50,
39,
42,
42,
44,
44,
46,
46,
46,
46,
49,
49,
44,
44,
47,
47,
39,
39,
46,
46,
46,
46,
41,
41,
48,
48,
47,
47,
46,
46,
45,
45,
44,
44,
46,
46,
47,
47,
47,
47,
45,
45,
45,
45,
42,
42,
47,
47,
44,
44,
45,
45,
47,
47,
39,
39,
44,
44,
44,
44,
42,
42,
46,
46,
43,
43,
42,
42,
41,
41,
45,
45,
46,
46,
43,
43,
48,
48,
43,
43,
43,
43,
42,
42,
48,
48,
48,
48,
47,
47,
49,
49,
44,
44,
46,
46,
44,
44,
51,
40,
46,
46,
46,
46,
49,
49,
45,
45,
46,
46,
49,
49,
46,
46,
46,
46,
45,
45,
44,
44,
41,
41,
46,
46,
48,
48,
43,
43,
42,
42,
46,
46,
42,
42,
42,
42,
45,
45,
47,
47,
46,
46,
42,
42,
48,
48,
42,
42,
41,
41,
46,
46,
44,
44,
42,
42,
48,
48,
44,
44,
45,
45,
51,
51,
48,
48,
45,
45,
47,
47,
41,
41,
46,
46,
44,
44,
47,
47,
50,
50,
43,
43,
47,
47,
48,
48,
45,
45,
43,
43,
43,
43,
40,
40,
45,
45,
46,
46,
41,
41,
47,
47,
50,
50,
45,
45,
47,
47,
45,
45,
48,
48,
46,
46,
47,
47,
43,
43,
46,
46,
43,
43,
44,
44,
46,
46,
45,
45,
51,
51,
42,
42,
43,
43,
47,
47,
42,
42,
46,
46,
46,
46,
40,
40,
43,
43,
50,
50,
48,
48,
52,
41,
47,
47,
43,
43,
42,
42,
41,
41,
49,
49,
42,
42,
40,
40,
50,
50,
45,
45,
43,
43,
49,
49,
45,
45,
42,
-60,
-58,
-58,
-60,
-60,
-55,
-55,
-58,
-58,
-49,
-60,
-56,
-56,
-58,
-58,
-53,
-53,
-55,
-55,
-57,
-57,
-55,
-55,
-54,
-54,
-58,
-58,
-57,
-57,
-57,
-57,
-54,
-54,
-53,
-53,
-54,
-54,
-51,
-51,
-57,
-57,
-55,
-55,
-53,
-53,
-58,
-58,
-51,
-51,
-52,
-52,
-54,
-54,
-54,
-54,
-54,
-54,
-52,
-52,
-53,
-53,
-52,
-52,
-56,
-56,
-55,
-55,
-55,
-55,
-56,
-56,
-53,
-53,
-54,
-54,
-52,
-52,
-57,
-57,
-60,
-49,
-60,
-60,
-59,
-59,
-55,
-55,
-55,
-55,
-55,
-55,
-61,
-50,
-54,
-54,
-55,
-55,
-58,
-58,
-56,
-56,
-53,
-53,
-59,
-59,
-59,
-59,
-54,
-54,
-53,
-53,
-52,
-52,
-52,
-52,
-54,
-54,
-56,
-56,
-52,
-52,
-52,
-52,
-56,
-56,
-53,
-53,
-51,
-51,
-54,
-54,
-59,
-59,
-55,
-55,
-51,
-51,
-57,
-57,
-51,
-51,
-52,
-52,
-58,
-58,
-53,
-53,
-50,
-50,
-58,
-58,
-55,
-55,
-56,
-56,
-60,
-60,
-58,
-58,
-53,
-53,
-55,
-55,
-53,
-53,
-56,
-56,
-52,
-52,
-57,
-57,
-57,
-57,
-50,
-50,
-58,
-58,
-58,
-58,
-54,
-54,
-52,
-52,
-51,
-51,
-50,
-50,
-53,
-53,
-56,
-56,
-51,
-51,
-55,
-55,
-59,
-59,
-55,
-55,
-56,
-56,
-54,
-54,
-59,
-59,
-56,
-56,
-56,
-56,
-55,
-55,
-57,
-57,
-54,
-54,
-55,
-55,
-58,
-58,
-54,
-54,
-60,
-60,
-52,
-52,
-53,
-53,
-58,
-58,
-53,
-53,
-57,
-57,
-56,
-56,
-50,
-50,
-55,
-55,
-58,
-58,
-58,
-58,
-60,
-60,
-54,
-54,
-52,
-52,
-50,
-50,
-50,
-50,
-60,
-60,
-53,
-53,
-51,
-51,
-58,
-58,
-54,
-54,
-53,
-53,
-58,
-58,
-53,
-53,
-54,
-54,
-53,
-53,
-52,
-52,
-57,
-57,
-51,
-51,
-62,
-62,
-56,
-56,
-50,
-50,
-56,
-56,
-55,
-55,
-53,
-53,
-55,
-55,
-56,
-56,
-52,
-52,
-53,
-53,
-53,
-53,
-58,
-58,
-58,
-58,
-57,
-57,
-58,
-58,
-53,
-53,
-53,
-53,
-59,
-59,
-52,
-52,
-56,
-56,
-59,
-59,
-58,
-58,
-55,
-55,
-58,
-58,
-59,
-59,
-54,
-54,
-56,
-56,
-53,
-53,
-54,
-54,
-57,
-57,
-57,
-57,
-57,
-57,
-57,
-57,
-58,
-58,
-57,
-57,
-49,
-64,
-49,
-49,
-52,
-52,
-53,
-53,
-54,
-54,
-53,
-53,
-52,
-52,
-58,
-58,
-56,
-56,
-54,
-54,
-51,
-51,
-58,
-58,
-54,
-54,
-50,
-61,
-58,
-58,
-55,
-55,
-57,
-57,
-56,
-56,
-57,
-57,
-52,
-52,
-60,
-60,
-56,
-56,
-53,
-53,
-58,
-58,
-57,
-57,
-56,
-56,
-52,
-52,
-53,
-53,
-60,
-60,
-52,
-52,
-58,
-58,
-56,
-56,
-53,
-53,
-58,
-58,
-61,
-61,
-51,
-51,
-53,
-53,
-52,
-52,
-48,
-60,
-53,
-53,
-56,
-56,
-56,
-56,
-54,
-54,
-55,
-55,
-59,
-59,
-55,
-55,
-57,
-57,
-62,
-48,
-53,
-53,
-53,
-53,
-61,
-61,
-59,
-59,
-59,
-59,
-58,
-58,
-59,
-59,
-53,
-53,
-57,
-57,
-57,
-57,
-54,
-54,
-55,
-55,
-56,
-56,
-56,
-56,
-52,
-52,
-54,
-54,
-57,
-57,
-56,
-56,
-54,
-54,
-57,
-57,
-53,
-53,
-49,
-62,
-57,
-57,
-53,
-53,
-57,
-57,
-55,
-55,
-51,
-51,
-57,
-57,
-55,
-55,
-57,
-57,
-58,
-58,
-51,
-62,
-55,
-55,
-54,
-54,
-55,
-55,
-61,
-61,
-57,
-57,
-59,
-59,
-56,
-56,
-52,
-52,
-55,
-55,
-58,
-58,
-57,
-57,
-58,
-58,
-56,
-56,
-53,
-53,
-58,
-58,
-54,
-54,
-60,
-60,
-57,
-57,
-53,
-53,
-57,
-57,
-53,
-53,
-53,
-53,
-63,
-51,
-58,
-58,
-53,
-53,
-57,
-57,
-52,
-52,
-55,
-55,
-58,
-58,
-56,
-56,
-55,
-55,
-53,
-53,
-55,
-55,
-55,
-55,
-57,
-57,
-57,
-57,
-61,
-48,
-53,
45,
43,
43,
42,
42,
52,
40,
49,
49,
47,
47,
49,
49,
47,
47,
41,
41,
45,
45,
42,
42,
42,
42,
44,
44,
49,
49,
46,
46,
45,
45,
47,
47,
49,
49,
42,
42,
41,
41,
46,
46,
39,
52,
44,
44,
44,
44,
48,
48,
49,
38,
47,
47,
46,
46,
39,
39,
46,
46,
48,
48,
39,
39,
43,
43,
45,
45,
47,
47,
41,
41,
47,
47,
44,
44,
48,
48,
40,
40,
42,
42,
46,
46,
44,
44,
48,
48,
42,
42,
43,
43,
48,
48,
44,
44,
43,
43,
41,
41,
42,
42,
47,
47,
47,
47,
40,
40,
43,
43,
41,
41,
44,
44,
45,
45,
43,
43,
47,
47,
42,
42,
45,
45,
47,
47,
45,
45,
50,
39,
49,
49,
45,
45,
45,
45,
48,
48,
47,
47,
46,
46,
44,
44,
47,
47,
43,
43,
43,
43,
47,
47,
46,
46,
44,
44,
45,
45,
41,
41,
42,
42,
44,
44,
47,
47,
42,
42,
45,
45,
45,
45,
43,
43,
37,
37,
46,
46,
47,
47,
42,
42,
42,
42,
42,
42,
43,
43,
45,
45,
47,
47,
43,
43,
37,
50,
47,
47,
45,
45,
47,
47,
50,
39,
47,
47,
46,
46,
42,
42,
45,
45,
45,
45,
44,
44,
49,
49,
45,
45,
43,
43,
47,
47,
50,
39,
40,
40,
45,
45,
40,
40,
41,
41,
44,
44,
47,
47,
44,
44,
46,
46,
48,
48,
46,
46,
41,
41,
42,
42,
46,
46,
44,
44,
43,
43,
45,
45,
43,
43,
47,
47,
46,
46,
48,
48,
41,
41,
49,
49,
43,
43,
42,
42,
50,
50,
42,
42,
44,
44,
43,
43,
44,
44,
46,
46,
48,
48,
45,
45,
44,
44,
45,
45,
42,
42,
43,
43,
43,
43,
45,
45,
46,
46,
38,
38,
46,
46,
46,
46,
44,
44,
50,
50,
45,
45,
43,
43,
39,
39,
42,
42,
45,
45,
43,
43,
49,
49,
44,
44,
40,
40,
44,
44,
49,
49,
45,
45,
46,
46,
50,
50,
41,
41,
45,
45,
43,
43,
51,
40,
47,
47,
45,
45,
47,
47,
42,
42,
45,
45,
50,
39,
44,
44,
43,
43,
47,
47,
46,
46,
43,
43,
45,
45,
45,
45,
45,
45,
44,
44,
46,
46,
44,
44,
42,
42,
48,
48,
45,
45,
46,
46,
45,
45,
46,
46,
43,
43,
39,
39,
44,
44,
43,
43,
41,
41,
44,
44,
45,
45,
46,
46,
49,
49,
46,
46,
45,
45,
47,
47,
44,
44,
43,
43,
45,
45,
47,
47,
49,
49,
43,
43,
48,
48,
46,
46,
47,
47,
44,
44,
44,
44,
43,
43,
47,
47,
46,
46,
42,
42,
47,
47,
50,
38,
47,
47,
45,
45,
41,
41,
44,
44,
46,
46,
49,
49,
42,
42,
44,
44,
43,
43,
42,
42,
46,
46,
42,
42,
51,
51,
44,
44,
44,
44,
47,
47,
42,
42,
45,
45,
48,
48,
41,
41,
42,
42,
51,
38,
47,
47,
49,
49,
47,
47,
46,
46,
43,
43,
43,
43,
46,
46,
43,
43,
43,
43,
49,
49,
45,
45,
41,
41,
49,
49,
49,
49,
43,
43,
45,
45,
40,
40,
43,
43,
40,
40,
49,
49,
44,
44,
42,
42,
48,
48,
43,
43,
45,
45,
47,
47,
50,
50,
44,
44,
43,
43,
44,
44,
47,
47,
48,
48,
46,
46,
49,
49,
45,
45,
46,
46,
46,
46,
43,
43,
49,
49,
48,
48,
46,
46,
47,
47,
44,
44,
47,
47,
44,
44,
50,
50,
47,
47,
44,
44,
45,
45,
45,
45,
45,
45,
50,
50,
45,
45,
42,
42,
44,
-34,
-46,
-61,
-60,
-60,
-54,
-54,
-59,
-59,
-56,
-56,
-60,
-60,
-56,
-56,
-53,
-53,
-56,
-56,
-52,
-52,
-54,
-54,
-59,
-59,
-57,
-57,
-51,
-51,
-56,
-56,
-55,
-55,
-55,
-55,
-56,
-56,
-55,
-55,
-55,
-55,
-52,
-52,
-56,
-56,
-53,
-53,
-52,
-52,
-57,
-57,
-56,
-56,
-53,
-53,
-52,
-52,
-56,
-56,
-52,
-52,
-53,
-53,
-56,
-56,
-51,
-51,
-51,
-51,
-56,
-56,
-58,
-58,
-58,
-58,
-60,
-60,
-54,
-54,
-52,
-52,
-54,
-54,
-55,
-55,
-52,
-52,
-52,
-52,
-59,
-59,
-58,
-58,
-53,
-53,
-59,
-59,
-56,
-56,
-54,
-54,
-52,
-52,
-54,
-54,
-53,
-53,
-54,
-54,
-59,
-59,
-52,
-52,
-55,
-55,
-58,
-58,
-57,
-57,
-54,
-54,
-50,
-50,
-56,
-56,
-55,
-55,
-57,
-57,
-51,
-51,
-56,
-56,
-53,
-53,
-54,
-54,
-57,
-57,
-51,
-51,
-61,
-50,
-54,
-54,
-53,
-53,
-58,
-58,
-51,
-51,
-55,
-55,
-56,
-56,
-53,
-53,
-53,
-53,
-61,
-48,
-55,
-55,
-58,
-58,
-55,
-55,
-57,
-57,
-52,
-52,
-53,
-53,
-55,
-55,
-55,
-55,
-51,
-51,
-56,
-56,
-52,
-52,
-51,
-51,
-58,
-58,
-56,
-56,
-53,
-53,
-53,
-53,
-50,
-50,
-53,
-53,
-50,
-61,
-57,
-57,
-54,
-54,
-50,
-50,
-56,
-56,
-53,
-53,
-55,
-55,
-58,
-58,
-59,
-59,
-53,
-53,
-50,
-50,
-56,
-56,
-57,
-57,
-57,
-57,
-57,
-57,
-59,
-59,
-55,
-55,
-52,
-52,
-56,
-56,
-54,
-54,
-57,
-57,
-60,
-60,
-57,
-57,
-54,
-54,
-54,
-54,
-59,
-59,
-53,
-53,
-59,
-59,
-54,
-54,
-52,
-52,
-53,
-53,
-55,
-55,
-55,
-55,
-60,
-60,
-55,
-55,
-52,
-52,
-54,
-54,
-51,
-51,
-56,
-56,
-53,
-53,
-51,
-51,
-55,
-55,
-52,
-52,
-57,
-57,
-58,
-58,
-55,
-55,
-55,
-55,
-59,
-59,
-52,
-52,
-51,
-51,
-59,
-59,
-53,
-53,
-55,
-55,
-54,
-54,
-55,
-55,
-56,
-56,
-57,
-57,
-57,
-57,
-54,
-54,
-56,
-56,
-56,
-56,
-54,
-54,
-53,
-53,
-56,
-56,
-58,
-58,
-51,
-51,
-58,
-58,
-59,
-59,
-54,
-54,
-61,
-49,
-59,
-59,
-53,
-53,
-51,
-51,
-50,
-61,
-52,
-52,
-57,
-57,
-59,
-59,
-56,
-56,
-53,
-53,
-59,
-59,
-60,
-60,
-54,
-54,
-52,
-52,
-60,
-60,
-51,
-51,
-56,
-56,
-57,
-57,
-60,
-60,
-57,
-57,
-56,
-56,
-57,
-57,
-49,
-62,
-58,
-58,
-57,
-57,
-53,
-53,
-54,
-54,
-56,
-56,
-59,
-59,
-55,
-55,
-55,
-55,
-54,
-54,
-60,
-60,
-54,
-54,
-56,
-56,
-55,
-55,
-53,
-53,
-58,
-58,
-51,
-51,
-56,
-56,
-57,
-57,
-52,
-52,
-55,
-55,
-52,
-52,
-53,
-53,
-55,
-55,
-54,
-54,
-51,
-51,
-54,
-54,
-53,
-53,
-56,
-56,
-53,
-53,
-58,
-58,
-56,
-56,
-52,
-52,
-54,
-54,
-56,
-56,
-58,
-58,
-60,
-60,
-59,
-59,
-55,
-55,
-53,
-53,
-57,
-57,
-60,
-60,
-57,
-57,
-56,
-56,
-60,
-60,
-55,
-55,
-54,
-54,
-59,
-59,
-58,
-58,
-57,
-57,
-58,
-58,
-52,
-52,
-53,
-53,
-57,
-57,
-61,
-61,
-51,
-51,
-56,
-56,
-53,
-53,
-52,
-52,
-53,
-53,
-55,
-55,
-59,
-59,
-57,
-57,
-56,
-56,
-55,
-55,
-50,
-50,
-53,
-53,
-56,
-56,
-54,
-54,
-51,
-51,
-60,
-60,
-53,
-53,
-59,
-59,
-61,
-61,
-58,
-58,
-53,
-53,
-56,
-56,
-55,
-55,
-54,
-54,
-56,
-56,
-57,
-57,
-57,
-57,
-53,
-53,
-58,
-58,
-60,
-60,
-56,
-56,
-55,
-55,
-51,
-51,
-54,
-54,
-54,
-54,
-57,
-57,
-52,
-52,
-56,
-56,
-61,
-61,
-52,
-52,
-56,
-56,
-57,
-57,
-57,
-57,
-59,
-59,
-56,
-56,
-54,
-54,
-53,
-53,
-54,
44,
49,
49,
43,
43,
44,
44,
44,
44,
48,
48,
47,
47,
40,
40,
45,
45,
45,
45,
41,
41,
50,
50,
44,
44,
42,
42,
39,
39,
43,
43,
45,
45,
44,
44,
48,
48,
45,
45,
40,
40,
46,
46,
50,
39,
44,
44,
45,
45,
48,
48,
45,
45,
46,
46,
45,
45,
49,
49,
45,
45,
45,
45,
50,
50,
40,
40,
46,
46,
47,
47,
46,
46,
45,
45,
45,
45,
46,
46,
43,
43,
46,
46,
47,
47,
45,
45,
43,
43,
44,
44,
40,
51,
42,
42,
44,
44,
45,
45,
45,
45,
45,
45,
44,
44,
42,
42,
40,
40,
45,
45,
44,
44,
42,
42,
46,
46,
45,
45,
45,
45,
48,
48,
44,
44,
44,
44,
47,
47,
41,
41,
43,
43,
43,
43,
45,
45,
51,
38,
44,
44,
44,
44,
43,
43,
45,
45,
45,
45,
46,
46,
43,
43,
44,
44,
47,
47,
38,
49,
46,
46,
46,
46,
43,
43,
49,
49,
44,
44,
46,
46,
46,
46,
46,
46,
39,
50,
46,
46,
42,
42,
45,
45,
45,
45,
47,
47,
49,
49,
43,
43,
44,
44,
47,
47,
40,
40,
44,
44,
46,
46,
38,
38,
41,
41,
46,
46,
46,
46,
51,
39,
45,
45,
46,
46,
41,
41,
43,
43,
49,
38,
41,
41,
43,
43,
46,
46,
43,
43,
41,
41,
49,
49,
46,
46,
45,
45,
41,
41,
40,
40,
44,
44,
42,
42,
48,
48,
46,
46,
41,
41,
48,
48,
43,
43,
43,
43,
44,
44,
45,
45,
44,
44,
44,
44,
44,
44,
45,
45,
46,
46,
44,
44,
47,
47,
42,
42,
43,
43,
44,
44,
45,
45,
46,
46,
50,
50,
49,
49,
48,
48,
45,
45,
49,
49,
46,
46,
49,
49,
43,
43,
44,
44,
47,
47,
45,
45,
44,
44,
46,
46,
48,
48,
42,
42,
43,
43,
42,
42,
44,
44,
41,
41,
44,
44,
43,
43,
43,
43,
48,
48,
45,
45,
41,
41,
45,
45,
46,
46,
45,
45,
39,
51,
46,
46,
45,
45,
47,
47,
46,
46,
44,
44,
42,
42,
48,
48,
47,
47,
46,
46,
51,
51,
46,
46,
46,
46,
42,
42,
45,
45,
48,
48,
42,
42,
47,
47,
45,
45,
40,
40,
49,
49,
49,
49,
40,
40,
41,
41,
43,
43,
41,
41,
44,
44,
47,
47,
46,
46,
45,
45,
46,
46,
50,
37,
44,
44,
43,
43,
49,
49,
44,
44,
44,
44,
47,
47,
48,
48,
46,
46,
47,
47,
50,
50,
41,
41,
50,
50,
44,
44,
44,
44,
46,
46,
42,
42,
45,
45,
41,
41,
43,
43,
47,
47,
46,
46,
44,
44,
46,
46,
43,
43,
40,
40,
44,
44,
42,
42,
47,
47,
46,
46,
41,
41,
47,
47,
44,
44,
46,
46,
46,
46,
42,
42,
44,
44,
44,
44,
42,
42,
47,
47,
46,
46,
48,
48,
46,
46,
41,
41,
46,
46,
46,
46,
47,
47,
49,
49,
47,
47,
42,
42,
46,
46,
44,
44,
49,
49,
47,
47,
43,
43,
45,
45,
45,
45,
42,
42,
51,
40,
45,
45,
45,
45,
48,
48,
44,
44,
46,
46,
46,
46,
46,
46,
43,
43,
44,
44,
44,
44,
47,
47,
44,
44,
48,
48,
50,
50,
45,
45,
45,
45,
47,
47,
39,
50,
43,
43,
44,
44,
40,
40,
43,
43,
47,
47,
45,
45,
50,
50,
49,
49,
44,
44,
41,
41,
44,
44,
47,
47,
42,
42,
45,
45,
50,
50,
48,
48,
44,
44,
51,
38,
47,
47,
44,
44,
42,
42,
40,
52,
43,
43,
46,
46,
49,
49,
45,
-48,
-58,
-58,
-48,
-62,
-55,
-55,
-59,
-59,
-58,
-58,
-56,
-56,
-56,
-56,
-53,
-53,
-59,
-59,
-55,
-55,
-55,
-55,
-58,
-58,
-53,
-53,
-58,
-58,
-53,
-53,
-54,
-54,
-58,
-58,
-51,
-51,
-55,
-55,
-53,
-53,
-52,
-52,
-57,
-57,
-55,
-55,
-49,
-49,
-52,
-52,
-53,
-53,
-54,
-54,
-53,
-53,
-56,
-56,
-56,
-56,
-54,
-54,
-53,
-53,
-59,
-59,
-56,
-56,
-57,
-57,
-59,
-59,
-54,
-54,
-54,
-54,
-57,
-57,
-59,
-59,
-55,
-55,
-57,
-57,
-62,
-62,
-52,
-52,
-57,
-57,
-58,
-58,
-57,
-57,
-55,
-55,
-52,
-52,
-52,
-52,
-50,
-50,
-55,
-55,
-59,
-59,
-54,
-54,
-51,
-51,
-54,
-54,
-50,
-50,
-50,
-50,
-53,
-53,
-55,
-55,
-54,
-54,
-54,
-54,
-54,
-54,
-52,
-52,
-53,
-53,
-57,
-57,
-55,
-55,
-50,
-50,
-57,
-57,
-53,
-53,
-54,
-54,
-59,
-59,
-57,
-57,
-56,
-56,
-56,
-56,
-49,
-49,
-54,
-54,
-54,
-54,
-57,
-57,
-60,
-49,
-54,
-54,
-55,
-55,
-57,
-57,
-53,
-53,
-56,
-56,
-54,
-54,
-50,
-50,
-52,
-52,
-55,
-55,
-50,
-50,
-59,
-59,
-57,
-57,
-52,
-52,
-58,
-58,
-53,
-53,
-58,
-58,
-56,
-56,
-54,
-54,
-53,
-53,
-56,
-56,
-54,
-54,
-54,
-54,
-55,
-55,
-57,
-57,
-59,
-59,
-54,
-54,
-53,
-53,
-59,
-59,
-51,
-51,
-53,
-53,
-55,
-55,
-48,
-60,
-52,
-52,
-58,
-58,
-57,
-57,
-61,
-50,
-57,
-57,
-55,
