5-grundlagen-opAmps/data/ALL0091/A0091CH1.CSV

Memory Length,4000,
Trigger Level,2.00000e+01,
Source,CH1,
Probe,1.0X,
Vertical Units,V,
Vertical Scale,2.00000e-01,
Vertical Position,0.00000e+00,
Horizontal Units,S,
Horizontal Scale,1.00000e-02,
Horizontal Position,0.0000000e+00,
Horizontal Mode,XY Mode,
Sampling Period,4.00000e-05,
Firmware,V1.14,
Time, ,
Mode,Fast,
Waveform Data,
-54,
-54,
-50,
-50,
-48,
-48,
-44,
-44,
-40,
-40,
-36,
-36,
-32,
-32,
-27,
-27,
-22,
-22,
-16,
-16,
-12,
-12,
-7,
-7,
-2,
-2,
5,
5,
8,
8,
17,
17,
21,
21,
25,
25,
30,
30,
36,
36,
40,
40,
44,
44,
47,
47,
50,
50,
52,
52,
56,
56,
57,
57,
60,
60,
61,
61,
61,
61,
61,
61,
61,
61,
61,
61,
60,
60,
59,
59,
55,
55,
53,
53,
52,
52,
48,
48,
44,
44,
40,
40,
36,
36,
32,
32,
27,
27,
20,
20,
15,
15,
10,
10,
6,
6,
0,
0,
-4,
-4,
-10,
-10,
-17,
-17,
-19,
-19,
-25,
-25,
-30,
-30,
-33,
-33,
-40,
-40,
-44,
-44,
-47,
-47,
-51,
-51,
-54,
-54,
-55,
-55,
-57,
-57,
-59,
-59,
-60,
-60,
-60,
-60,
-62,
-62,
-61,
-61,
-60,
-60,
-59,
-59,
-57,
-57,
-56,
-56,
-53,
-53,
-50,
-50,
-47,
-47,
-44,
-44,
-40,
-40,
-35,
-35,
-30,
-30,
-27,
-27,
-22,
-22,
-14,
-14,
-10,
-10,
-5,
-5,
0,
0,
5,
5,
11,
11,
16,
16,
21,
21,
26,
26,
30,
30,
35,
35,
40,
40,
43,
43,
48,
48,
51,
51,
54,
54,
56,
56,
57,
57,
61,
61,
61,
61,
61,
61,
62,
62,
61,
61,
60,
60,
59,
59,
57,
57,
55,
55,
53,
53,
49,
49,
47,
47,
44,
44,
40,
40,
35,
35,
30,
30,
25,
25,
20,
20,
14,
14,
11,
11,
6,
6,
0,
0,
-6,
-6,
-11,
-11,
-16,
-16,
-21,
-21,
-27,
-27,
-31,
-31,
-35,
-35,
-40,
-40,
-43,
-43,
-47,
-47,
-50,
-50,
-54,
-54,
-56,
-56,
-58,
-58,
-59,
-59,
-60,
-60,
-61,
-61,
-62,
-62,
-61,
-61,
-60,
-60,
-59,
-59,
-58,
-58,
-55,
-55,
-52,
-52,
-49,
-49,
-47,
-47,
-43,
-43,
-39,
-39,
-36,
-36,
-31,
-31,
-26,
-26,
-20,
-20,
-14,
-14,
-10,
-10,
-3,
-3,
1,
1,
6,
6,
12,
12,
16,
16,
21,
21,
26,
26,
32,
32,
37,
37,
41,
41,
44,
44,
48,
48,
51,
51,
54,
54,
56,
56,
59,
59,
61,
61,
61,
61,
61,
61,
61,
61,
61,
61,
60,
60,
59,
59,
57,
57,
55,
55,
52,
52,
50,
50,
46,
46,
43,
43,
37,
37,
33,
33,
30,
30,
25,
25,
19,
19,
13,
13,
9,
9,
4,
4,
0,
0,
-7,
-7,
-12,
-12,
-17,
-17,
-24,
-24,
-28,
-28,
-32,
-32,
-36,
-36,
-41,
-41,
-44,
-44,
-48,
-48,
-51,
-51,
-54,
-54,
-56,
-56,
-58,
-58,
-60,
-60,
-61,
-61,
-62,
-62,
-61,
-61,
-61,
-61,
-60,
-60,
-59,
-59,
-57,
-57,
-55,
-55,
-52,
-52,
-48,
-48,
-46,
-46,
-43,
-43,
-37,
-37,
-33,
-33,
-28,
-28,
-23,
-23,
-18,
-18,
-14,
-14,
-9,
-9,
-4,
-4,
3,
3,
7,
7,
13,
13,
18,
18,
23,
23,
28,
28,
32,
32,
37,
37,
41,
41,
45,
45,
49,
49,
52,
52,
55,
55,
57,
57,
60,
60,
60,
60,
61,
61,
61,
61,
61,
61,
61,
61,
60,
60,
60,
60,
57,
57,
55,
55,
53,
53,
49,
49,
45,
45,
43,
43,
39,
39,
34,
34,
30,
30,
24,
24,
20,
20,
15,
15,
9,
9,
3,
3,
-2,
-2,
-7,
-7,
-12,
-12,
-17,
-17,
-24,
-24,
-27,
-27,
-34,
-34,
-38,
-38,
-41,
-41,
-44,
-44,
-48,
-48,
-52,
-52,
-55,
-55,
-57,
-57,
-58,
-58,
-59,
-59,
-61,
-61,
-61,
-61,
-61,
-61,
-60,
-60,
-60,
-60,
-58,
-58,
-57,
-57,
-55,
-55,
-52,
-52,
-50,
-50,
-45,
-45,
-40,
-40,
-38,
-38,
-33,
-33,
-28,
-28,
-23,
-23,
-18,
-18,
-14,
-14,
-8,
-8,
-1,
-1,
5,
5,
9,
9,
13,
13,
19,
19,
24,
24,
28,
28,
34,
34,
38,
38,
41,
41,
46,
46,
48,
48,
52,
52,
55,
55,
57,
57,
59,
59,
61,
61,
61,
61,
61,
61,
61,
61,
61,
61,
60,
60,
59,
59,
56,
56,
54,
54,
50,
50,
49,
49,
46,
46,
42,
42,
37,
37,
32,
32,
29,
29,
24,
24,
19,
19,
12,
12,
8,
8,
4,
4,
-4,
-4,
-9,
-9,
-13,
-13,
-18,
-18,
-23,
-23,
-29,
-29,
-33,
-33,
-37,
-37,
-41,
-41,
-45,
-45,
-48,
-48,
-51,
-51,
-54,
-54,
-57,
-57,
-59,
-59,
-60,
-60,
-61,
-61,
-61,
-61,
-61,
-61,
-60,
-60,
-59,
-59,
-59,
-59,
-56,
-56,
-55,
-55,
-51,
-51,
-48,
-48,
-45,
-45,
-41,
-41,
-36,
-36,
-32,
-32,
-28,
-28,
-24,
-24,
-17,
-17,
-11,
-11,
-7,
-7,
-1,
-1,
5,
5,
8,
8,
14,
14,
19,
19,
25,
25,
29,
29,
35,
35,
38,
38,
42,
42,
45,
45,
48,
48,
52,
52,
54,
54,
57,
57,
59,
59,
60,
60,
61,
61,
61,
61,
61,
61,
61,
61,
60,
60,
58,
58,
56,
56,
53,
53,
51,
51,
48,
48,
44,
44,
40,
40,
37,
37,
33,
33,
28,
28,
23,
23,
19,
19,
12,
12,
7,
7,
2,
2,
-4,
-4,
-10,
-10,
-16,
-16,
-21,
-21,
-24,
-24,
-30,
-30,
-33,
-33,
-37,
-37,
-43,
-43,
-46,
-46,
-50,
-50,
-52,
-52,
-55,
-55,
-57,
-57,
-59,
-59,
-61,
-61,
-61,
-61,
-61,
-61,
-61,
-61,
-60,
-60,
-59,
-59,
-58,
-58,
-56,
-56,
-54,
-54,
-51,
-51,
-47,
-47,
-44,
-44,
-40,
-40,
-36,
-36,
-32,
-32,
-27,
-27,
-20,
-20,
-16,
-16,
-11,
-11,
-6,
-6,
0,
0,
5,
5,
9,
9,
15,
15,
19,
19,
25,
25,
30,
30,
35,
35,
40,
40,
45,
45,
48,
48,
50,
50,
53,
53,
55,
55,
57,
57,
59,
59,
61,
61,
61,
61,
61,
61,
61,
61,
61,
61,
60,
60,
58,
58,
56,
56,
53,
53,
51,
51,
48,
48,
44,
44,
40,
40,
36,
36,
32,
32,
27,
27,
21,
21,
16,
16,
11,
11,
5,
5,
0,
0,
-4,
-4,
-11,
-11,
-15,
-15,
-21,
-21,
-26,
-26,
-29,
-29,
-35,
-35,
-39,
-39,
-43,
-43,
-47,
-47,
-49,
-49,
-53,
-53,
-55,
-55,
-57,
-57,
-59,
-59,
-60,
-60,
-61,
-61,
-61,
-61,
-61,
-61,
-61,
-61,
-60,
-60,
-58,
-58,
-56,
-56,
-53,
-53,
-51,
-51,
-48,
-48,
-44,
-44,
-40,
-40,
-36,
-36,
-29,
-29,
-27,
-27,
-21,
-21,
-16,
-16,
-12,
-12,
-5,
-5,
-1,
-1,
5,
5,
11,
11,
16,
16,
21,
21,
26,
26,
30,
30,
35,
35,
40,
40,
43,
43,
48,
48,
51,
51,
53,
53,
55,
55,
57,
57,
59,
59,
61,
61,
61,
61,
61,
61,
60,
60,
60,
60,
60,
60,
58,
58,
54,
54,
53,
53,
50,
50,
48,
48,
44,
44,
40,
40,
36,
36,
30,
30,
24,
24,
22,
22,
16,
16,
10,
10,
4,
4,
0,
0,
-5,
-5,
-11,
-11,
-18,
-18,
-23,
-23,
-27,
-27,
-29,
-29,
-35,
-35,
-40,
-40,
-43,
-43,
-48,
-48,
-49,
-49,
-53,
-53,
-56,
-56,
-58,
-58,
-60,
-60,
-61,
-61,
-61,
-61,
-61,
-61,
-61,
-61,
-60,
-60,
-60,
-60,
-57,
-57,
-55,
-55,
-53,
-53,
-50,
-50,
-46,
-46,
-43,
-43,
-37,
-37,
-34,
-34,
-30,
-30,
-26,
-26,
-20,
-20,
-15,
-15,
-11,
-11,
-5,
-5,
1,
1,
7,
7,
11,
11,
16,
16,
23,
23,
28,
28,
31,
31,
36,
36,
40,
40,
44,
44,
47,
47,
51,
51,
53,
53,
56,
56,
58,
58,
59,
59,
61,
61,
61,
61,
61,
61,
61,
61,
60,
60,
59,
59,
58,
58,
55,
55,
53,
53,
50,
50,
47,
47,
43,
43,
39,
39,
33,
33,
30,
30,
24,
24,
20,
20,
15,
15,
11,
11,
5,
5,
-2,
-2,
-8,
-8,
-12,
-12,
-17,
-17,
-23,
-23,
-26,
-26,
-31,
-31,
-35,
-35,
-40,
-40,
-44,
-44,
-47,
-47,
-51,
-51,
-54,
-54,
-55,
-55,
-58,
-58,
-60,
-60,
-61,
-61,
-61,
-61,
-61,
-61,
-61,
-61,
-60,
-60,
-59,
-59,
-57,
-57,
-55,
-55,
-52,
-52,
-49,
-49,
-46,
-46,
-42,
-42,
-38,
-38,
-34,
-34,
-28,
-28,
-24,
-24,
-20,
-20,
-15,
-15,
-10,
-10,
-4,
-4,
1,
1,
7,
7,
13,
13,
16,
16,
23,
23,
28,
28,
33,
33,
37,
37,
41,
41,
45,
45,
48,
48,
51,
51,
54,
54,
56,
56,
59,
59,
59,
59,
61,
61,
61,
61,
61,
61,
61,
61,
60,
60,
59,
59,
57,
57,
54,
54,
52,
52,
49,
49,
45,
45,
42,
42,
39,
39,
33,
33,
28,
28,
24,
24,
20,
20,
15,
15,
9,
9,
3,
3,
-3,
-3,
-8,
-8,
-12,
-12,
-18,
-18,
-24,
-24,
-27,
-27,
-32,
-32,
-36,
-36,
-41,
-41,
-44,
-44,
-49,
-49,
-52,
-52,
-55,
-55,
-56,
-56,
-59,
-59,
-60,
-60,
-61,
-61,
-61,
-61,
-62,
-62,
-61,
-61,
-60,
-60,
-59,
-59,
-56,
-56,
-55,
-55,
-52,
-52,
-49,
-49,
-45,
-45,
-42,
-42,
-37,
-37,
-34,
-34,
-29,
-29,
-24,
-24,
-19,
-19,
-13,
-13,
-8,
-8,
-2,
-2,
4,
4,
9,
9,
15,
15,
19,
19,
23,
23,
29,
29,
33,
33,
38,
38,
42,
42,
45,
45,
49,
49,
52,
52,
55,
55,
57,
57,
59,
59,
61,
61,
61,
61,
61,
61,
61,
61,
61,
61,
61,
61,
58,
58,
57,
57,
55,
55,
52,
52,
48,
48,
45,
45,
41,
41,
37,
37,
35,
35,
29,
29,
24,
24,
18,
18,
12,
12,
9,
9,
3,
3,
-3,
-3,
-8,
-8,
-13,
-13,
-18,
-18,
-23,
-23,
-29,
-29,
-32,
-32,
-37,
-37,
-41,
-41,
-44,
-44,
-48,
-48,
-52,
-52,
-54,
-54,
-57,
-57,
-59,
-59,
-60,
-60,
-61,
-61,
-61,
-61,
-61,
-61,
-60,
-60,
-60,
-60,
-59,
-59,
-56,
-56,
-53,
-53,
-52,
-52,
-48,
-48,
-44,
-44,
-40,
-40,
-36,
-36,
-33,
-33,
-28,
-28,
-23,
-23,
-19,
-19,
-11,
-11,
-7,
-7,
-3,
-3,
3,
3,
9,
9,
15,
15,
19,
19,
23,
23,
29,
29,
36,
36,
40,
40,
44,
44,
45,
45,
49,
49,
52,
52,
54,
54,
57,
57,
59,
59,
60,
60,
61,
61,
61,
61,
62,
62,
60,
60,
59,
59,
59,
59,
56,
56,
55,
55,
51,
51,
48,
48,
45,
45,
41,
41,
36,
36,
31,
31,
28,
28,
21,
21,
16,
16,
13,
13,
8,
8,
3,
3,
-3,
-3,
-8,
-8,
-13,
-13,
-19,
-19,
-25,
-25,
-28,
-28,
-33,
-33,
-39,
-39,
-42,
-42,
-45,
-45,
-49,
-49,
-51,
-51,
-55,
-55,
-57,
-57,
-59,
-59,
-60,
-60,
-60,
-60,
-61,
-61,
-61,
-61,
-60,
-60,
-60,
-60,
-59,
-59,
-56,
-56,
-55,
-55,
-52,
-52,
-47,
-47,
-44,
-44,
-41,
-41,
-36,
-36,
-33,
-33,
-27,
-27,
-23,
-23,
-15,
-15,
-12,
-12,
-5,
-5,
-1,
-1,
5,
5,
9,
9,
14,
14,
20,
20,
26,
26,
30,
30,
35,
35,
40,
40,
42,
42,
46,
46,
50,
50,
52,
52,
55,
55,
57,
57,
59,
59,
60,
60,
61,
61,
61,
61,
61,
61,
61,
61,
60,
60,
59,
59,
56,
56,
53,
53,
51,
51,
48,
48,
44,
44,
40,
40,
36,
36,
31,
31,
26,
26,
22,
22,
17,
17,
10,
10,
5,
5,
1,
1,
-4,
-4,
-9,
-9,
-14,
-14,
-19,
-19,
-25,
-25,
-30,
-30,
-34,
-34,
-40,
-40,
-44,
-44,
-48,
-48,
-51,
-51,
-52,
-52,
-56,
-56,
-57,
-57,
-59,
-59,
-60,
-60,
-60,
-60,
-61,
-61,
-61,
-61,
-60,
-60,
-60,
-60,
-59,
-59,
-56,
-56,
-53,
-53,
-50,
-50,
-47,
-47,
-42,
-42,
-38,
-38,
-35,
-35,
-30,
-30,
-26,
-26,
-22,
-22,
-15,
-15,
-11,
-11,
-4,
-4,
-2,
-2,
5,
5,
9,
9,
17,
17,
22,
22,
26,
26,
30,
30,
36,
36,
40,
40,
43,
43,
47,
47,
50,
50,
53,
53,
55,
55,
58,
58,
60,
60,
61,
61,
61,
61,
62,
62,
61,
61,
61,
61,
60,
60,
58,
58,
56,
56,
53,
53,
51,
51,
47,
47,
44,
44,
39,
39,
36,
36,
32,
32,
26,
26,
21,
21,
17,
17,
11,
11,
5,
5,
0,
0,
-5,
-5,
-11,
-11,
-17,
-17,
-22,
-22,
-26,
-26,
-32,
-32,
-36,
-36,
-40,
-40,
-44,
-44,
-47,
-47,
-50,
-50,
-52,
-52,
-55,
-55,
-58,
-58,
-59,
-59,
-60,
-60,
-61,
-61,
-61,
-61,
-61,
-61,
-60,
-60,
-59,
-59,
-58,
-58,
-56,
-56,
-53,
-53,
-49,
-49,
-47,
-47,
-44,
-44,
-39,
-39,
-35,
-35,
-30,
-30,
-25,
-25,
-21,
-21,
-16,
-16,
-10,
-10,
-6,
-6,
1,
1,
6,
6,
11,
11,
16,
16,
21,
21,
26,
26,
31,
31,
36,
36,
40,
40,
44,
44,
47,
47,
51,
51,
53,
53,
55,
55,
58,
58,
60,
60,
61,
61,
61,
61,
61,
61,
61,
61,
61,
61,
60,
60,
57,
57,
56,
56,
53,
53,
51,
51,
47,
47,
43,
43,
40,
40,
35,
35,
30,
30,
25,
25,
19,
19,
16,
16,
10,
10,
5,
5,
0,
0,
-7,
-7,
-12,
-12,
-15,
-15,
-21,
-21,
-27,
-27,
-33,
-33,
-36,
-36,
-40,
-40,
-44,
-44,
-48,
-48,
-51,
-51,
-54,
-54,
-56,
-56,
-59,
-59,
-60,
-60,
-60,
-60,
-62,
-62,
-61,
-61,
-61,
-61,
-60,
-60,
-59,
-59,
-56,
-56,
-55,
-55,
-52,
-52,
-49,
-49,
-46,
-46,
-43,
-43,
-39,
-39,
-34,
-34,
-30,
-30,
-24,
-24,
-19,
-19,
-13,
-13,
-10,
-10,
-3,
-3,
2,
2,
6,
6,
12,
12,
17,
17,
22,
22,
26,
26,
32,
32,
37,
37,
41,
41,
44,
44,
48,
48,
52,
52,
55,
55,
56,
56,
58,
58,
60,
60,
61,
61,
61,
61,
61,
61,
61,
61,
60,
60,
59,
59,
57,
57,
56,
56,
52,
52,
49,
49,
45,
45,
43,
43,
39,
39,
34,
34,
28,
28,
24,
24,
20,
20,
15,
15,
9,
9,
3,
3,
-2,
-2,
-7,
-7,
-14,
-14,
-18,
-18,
-23,
-23,
-27,
-27,
-32,
-32,
-37,
-37,
-42,
-42,
-45,
-45,
-48,
-48,
-52,
-52,
-53,
-53,
-56,
-56,
-58,
-58,
-60,
-60,
-60,
-60,
-61,
-61,
-61,
-61,
-60,
-60,
-60,
-60,
-59,
-59,
-56,
-56,
-56,
-56,
-52,
-52,
-49,
-49,
-45,
-45,
-42,
-42,
-37,
-37,
-34,
-34,
-28,
-28,
-24,
-24,
-19,
-19,
-14,
-14,
-7,
-7,
-4,
-4,
2,
2,
9,
9,
14,
14,
18,
18,
23,
23,
28,
28,
31,
31,
36,
36,
41,
41,
44,
44,
48,
48,
52,
52,
54,
54,
57,
57,
60,
60,
60,
60,
61,
61,
61,
61,
61,
61,
61,
61,
60,
60,
58,
58,
56,
56,
55,
55,
53,
53,
49,
49,
45,
45,
42,
42,
37,
37,
32,
32,
27,
27,
23,
23,
18,
18,
12,
12,
9,
9,
4,
4,
-4,
-4,
-8,
-8,
-14,
-14,
-17,
-17,
-23,
-23,
-28,
-28,
-34,
-34,
-38,
-38,
-41,
-41,
-44,
-44,
-49,
-49,
-52,
-52,
-54,
-54,
-56,
-56,
-58,
-58,
-60,
-60,
-60,
-60,
-61,
-61,
-61,
-61,
-61,
-61,
-60,
-60,
-59,
-59,
-57,
-57,
-55,
-55,
-51,
-51,
-48,
-48,
-45,
-45,
-42,
-42,
-36,
-36,
-32,
-32,
-29,
-29,
-22,
-22,
-18,
-18,
-13,
-13,
-8,
-8,
-2,
-2,
2,
2,
8,
8,
15,
15,
19,
19,
24,
24,
29,
29,
34,
34,
39,
39,
42,
42,
47,
47,
50,
50,
52,
52,
55,
55,
57,
57,
59,
59,
60,
60,
61,
61,
61,
61,
61,
61,
60,
60,
60,
60,
58,
58,
56,
56,
54,
54,
52,
52,
48,
48,
45,
45,
41,
41,
36,
36,
33,
33,
29,
29,
23,
23,
18,
18,
12,
12,
7,
7,
2,
2,
-2,
-2,
-8,
-8,
-13,
-13,
-19,
-19,
-24,
-24,
-29,
-29,
-33,
-33,
-38,
-38,
-41,
-41,
-46,
-46,
-48,
-48,
-52,
-52,
-55,
-55,
-57,
-57,
-59,
-59,
-60,
-60,
-61,
-61,
-61,
-61,
-61,
-61,
-60,
-60,
-59,
-59,
-58,
-58,
-56,
-56,
-54,
-54,
-51,
-51,
-47,
-47,
-44,
-44,
-40,
-40,
-36,
-36,
-32,
-32,
-27,
-27,
-23,
-23,
-18,
-18,
-11,
-11,
-5,
-5,
-1,
-1,
4,
4,
9,
9,
15,
15,
19,
19,
26,
26,
30,
30,
33,
33,
39,
39,
43,
43,
47,
47,
51,
51,
52,
52,
55,
55,
58,
58,
60,
60,
61,
61,
61,
61,
61,
61,
61,
61,
61,
61,
60,
60,
58,
58,
56,
56,
54,
54,
52,
52,
47,
47,
44,
44,
39,
39,
36,
36,
31,
31,
28,
28,
21,
21,
16,
16,
12,
12,
6,
6,
1,
1,
-5,
-5,
-9,
-9,
-15,
-15,
-20,
-20,
-24,
-24,
-29,
-29,
-34,
-34,
-39,
-39,
-42,
-42,
-46,
-46,
-50,
-50,
-52,
-52,
-55,
-55,
-57,
-57,
-59,
-59,
-60,
-60,
-61,
-61,
-62,
-62,
-62,
-62,
-60,
-60,
-59,
-59,
-58,
-58,
-56,
-56,
-53,
-53,
-51,
-51,
-48,
-48,
-44,
-44,
-40,
-40,
-35,
-35,
-30,
-30,
-27,
-27,
-23,
-23,
-16,
-16,
-10,
-10,
-5,
-5,
-1,
-1,
4,
4,
10,
10,
15,
15,
21,
21,
26,
26,
31,
31,
36,
36,
40,
40,
43,
43,
47,
47,
51,
51,
53,
53,
55,
55,
59,
59,
59,
59,
60,
60,
61,
61,
61,
61,
61,
61,
61,
61,
60,
60,
58,
58,
56,
56,
54,
54,
50,
50,
48,
48,
45,
45,
41,
41,
35,
35,
31,
31,
25,
25,
20,
20,
17,
17,
9,
9,
7,
7,
0,
0,
-5,
-5,
-12,
-12,
-15,
-15,
-20,
-20,
-27,
-27,
-31,
-31,
-35,
-35,
-39,
-39,
-43,
-43,
-47,
-47,
-50,
-50,
-52,
-52,
-56,
-56,
-57,
-57,
-59,
-59,
-61,
-61,
-61,
-61,
-61,
-61,
-61,
-61,
-60,
-60,
-59,
-59,
-58,
-58,
-55,
-55,
-53,
-53,
-50,
-50,
-47,
-47,
-43,
-43,
-40,
-40,
-35,
-35,
-30,
-30,
-26,
-26,
-20,
-20,
-14,
-14,
-9,
-9,
-4,
-4,
0,
0,
6,
6,
11,
11,
16,
16,
23,
23,
26,
26,
31,
31,
34,
34,
40,
40,
44,
44,
49,
49,
51,
51,
53,
53,
56,
56,
58,
58,
60,
60,
61,
61,
61,
61,
61,
61,
61,
61,
60,
60,
59,
59,
57,
57,
55,
55,
53,
53,
50,
50,
47,
47,
44,
44,
40,
40,
35,
35,
30,
30,
26,
26,
21,
21,
15,
15,
10,
10,
4,
4,
0,
0,
-5,
-5,
-11,
-11,
-16,
-16,
-21,
-21,
-27,
-27,
-31,
-31,
-36,
-36,
-40,
-40,
-44,
-44,
-47,
-47,
-51,
-51,
-54,
-54,
-56,
-56,
-58,
-58,
-59,
-59,
-60,
-60,
-61,
-61,
-61,
-61,
-61,
-61,
-60,
-60,
-59,
-59,
-58,
-58,
-55,
-55,
-52,
-52,
-50,
-50,
-46,
-46,
-43,
-43,
-38,
-38,
-34,
-34,
-28,
-28,
-26,
-26,
-19,
-19,
-15,
-15,
-11,
-11,
-4,
-4,
1,
1,
7,
7,
12,
12,
17,
17,
21,
21,
27,
27,
31,
31,
36,
36,
41,
41,
44,
44,
48,
48,
51,
51,
54,
54,
55,
55,
58,
58,
59,
59,
61,
61,
61,
61,
61,
61,
61,
61,
60,
60,
59,
59,
57,
57,
56,
56,
52,
52,
49,
49,
46,
46,
42,
42,
39,
39,
35,
35,
29,
29,
25,
25,
20,
20,
14,
14,
9,
9,
4,
4,
-1,
-1,
-8,
-8,
-12,
-12,
-17,
-17,
-22,
-22,
-27,
-27,
-31,
-31,
-35,
-35,
-42,
-42,
-45,
-45,
-47,
-47,
-51,
-51,
-53,
-53,
-57,
-57,
-58,
-58,
-60,
-60,
-60,
-60,
-61,
-61,
-62,
-62,
-60,
-60,
-60,
-60,
-59,
-59,
-57,
-57,
-55,
-55,
-52,
-52,
-49,
-49,
-45,
-45,
-42,
-42,
-38,
-38,
-32,
-32,
-28,
-28,
-23,
-23,
-19,
-19,
-13,
-13,
-10,
-10,
-3,
-3,
3,
3,
8,
8,
12,
12,
18,
18,
24,
24,
27,
27,
33,
33,
37,
37,
40,
40,
45,
45,
49,
49,
52,
52,
54,
54,
56,
56,
58,
58,
60,
60,
61,
61,
61,
61,
61,
61,
61,
61,
60,
60,
60,
60,
57,
57,
55,
55,
52,
52,
49,
49,
46,
46,
42,
42,
38,
38,
34,
34,
29,
29,
23,
23,
20,
20,
14,
14,
9,
9,
4,
4,
-2,
-2,
-8,
-8,
-13,
-13,
-18,
-18,
-23,
-23,
-28,
-28,
-33,
-33,
-38,
-38,
-41,
-41,
-45,
-45,
-48,
-48,
-52,
-52,
-53,
-53,
-56,
-56,
-59,
-59,
-60,
-60,
-60,
-60,
-61,
-61,
-61,
-61,
-60,
-60,
-60,
-60,
-59,
-59,
-56,
-56,
-55,
-55,
-52,
-52,
-48,
-48,
-45,
-45,
-42,
-42,
-37,
-37,
-33,
-33,
-29,
-29,
-24,
-24,
-19,
-19,
-13,
-13,
-7,
-7,
-2,
-2,
3,
3,
9,
9,
13,
13,
19,
19,
24,
24,
30,
30,
32,
32,
37,
37,
43,
43,
46,
46,
49,
49,
52,
52,
55,
55,
56,
56,
59,
59,
60,
60,
61,
61,
61,
61,
62,
62,
61,
61,
59,
59,
58,
58,
56,
56,
54,
54,
52,
52,
49,
49,
45,
45,
41,
41,
36,
36,
32,
32,
28,
28,
23,
23,
18,
18,
12,
12,
8,
8,
1,
1,
-5,
-5,
-10,
-10,
-15,
-15,
-19,
-19,
-25,
-25,
-28,
-28,
-32,
-32,
-39,
-39,
-42,
-42,
-45,
-45,
-48,
-48,
-51,
-51,
-54,
-54,
-57,
-57,
-59,
-59,
-60,
-60,
-61,
-61,
-62,
-62,
-61,
-61,
-60,
-60,
-60,
-60,
-58,
-58,
-56,
-56,
-54,
-54,
-51,
-51,
-47,
-47,
-44,
-44,
-40,
-40,
-36,
-36,
-32,
-32,
-29,
-29,
-23,
-23,
-17,
-17,
-12,
-12,
-7,
-7,
-1,
-1,
4,
4,
9,
9,
16,
16,
20,
20,
24,
24,
29,
29,
35,
35,
37,
37,
43,
43,
46,
46,
49,
49,
53,
53,
55,
55,
57,
57,
59,
59,
61,
61,
61,
61,
61,
61,
62,
62,
61,
61,
60,
60,
58,
58,
56,
56,
54,
54,
51,
51,
48,
48,
45,
45,
40,
40,
36,
36,
31,
31,
29,
29,
22,
22,
17,
17,
11,
11,
8,
8,
0,
0,
-3,
-3,
-9,
-9,
-15,
-15,
-20,
-20,
-25,
-25,
-30,
-30,
-34,
-34,
-37,
-37,
-42,
-42,
-46,
-46,
-49,
-49,
-53,
-53,
-55,
-55,
-57,
-57,
-59,
-59,
-60,
-60,
-61,
-61,
-61,
-61,
-61,
-61,
-60,
-60,
-60,
-60,
-58,
-58,
-56,
-56,
-55,
-55,
-51,
-51,
-47,
-47,
-45,
-45,
-40,
-40,
-35,
-35,
-32,
-32,
-27,
-27,
-21,
-21,
-16,
-16,
-12,
-12,
-6,
-6,
-1,
-1,
4,
4,
11,
11,
14,
14,
21,
21,
26,
26,
30,
30,
35,
35,
38,
38,
43,
43,
46,
46,
50,
50,
53,
53,
56,
56,
57,
57,
59,
59,
60,
60,
61,
61,
61,
61,
62,
62,
61,
61,
59,
59,
57,
57,
56,
56,
54,
54,
51,
51,
48,
48,
44,
44,
40,
40,
37,
37,
31,
31,
27,
27,
22,
22,
15,
15,
11,
11,
5,
5,
0,
0,
-6,
-6,
-9,
-9,
-15,
-15,
-21,
-21,
-25,
-25,
-31,
-31,
-35,
-35,
-40,
-40,
-43,
-43,
-48,
-48,
-50,
-50,
-52,
-52,
-56,
-56,
-57,
-57,
-59,
-59,
-60,
-60,
-61,
-61,
-61,
-61,
-61,
-61,
-60,
-60,
-60,
-60,
-57,
-57,
-56,
-56,
-53,
-53,
-50,
-50,
-47,
-47,
-43,
-43,
-40,
-40,
-35,
-35,
-31,
-31,
-27,
-27,
-21,
-21,
-16,
-16,
-11,
-11,
-4,
-4,
0,
0,
6,
6,
11,
11,
15,
15,
20,
20,
28,
28,
31,
31,
35,
35,
39,
39,
44,
44,
47,
47,
51,
51,
53,
53,
56,
56,
58,
58,
60,
60,
60,
60,
61,
61,
61,
61,
60,
60,
61,
61,
60,
60,
57,
57,
56,
56,
54,
54,
50,
50,
47,
47,
44,
44,
39,
39,
35,
35,
30,
30,
26,
26,
21,
21,
16,
16,
11,
11,
5,
5,
0,
0,
-6,
-6,
-12,
-12,
-17,
-17,
-21,
-21,
-27,
-27,
-31,
-31,
-35,
-35,
-40,
-40,
-44,
-44,
-47,
-47,
-50,
-50,
-53,
-53,
-55,
-55,
-57,
-57,
-59,
-59,
-60,
-60,
-61,
-61,
-61,
-61,
-61,
-61,
-60,
-60,
-59,
-59,
-58,
-58,
-56,
-56,
-52,
-52,
-49,
-49,
-47,
-47,
-43,
-43,
-40,
-40,
-35,
-35,
-30,
-30,
-26,
-26,
-19,
-19,
-15,
-15,
-10,
-10,
-5,
-5,
1,
1,
8,
8,
11,
11,
17,
17,
24,
24,
28,
28,
32,
32,
37,
37,
41,
41,
44,
44,
48,
48,
52,
52,
54,
54,
56,
56,
57,
57,
60,
60,
61,
61,
61,
61,
61,
61,
61,
61,
60,
60,
60,
60,
58,
58,
56,
56,
52,
52,
50,
50,
47,
47,
43,
43,
37,
37,
32,
32,
29,
29,
24,
24,
20,
20,
15,
15,
11,
11,
5,
5,
-1,
-1,
-7,
-7,
-12,
-12,
-17,
-17,
-22,
-22,
-27,
-27,
-32,
-32,
-36,
-36,
-40,
-40,
-44,
-44,
-48,
-48,
-49,
-49,
