4-transistorverstaerker/data/ALL0049/A0049CH2.CSV

Memory Length,4000,
Trigger Level,3.80000e+01,
Source,CH2,
Probe,1.0X,
Vertical Units,V,
Vertical Scale,2.00000e-01,
Vertical Position,0.00000e+00,
Horizontal Units,S,
Horizontal Scale,1.00000e-06,
Horizontal Position,-1.3600000e-06,
Horizontal Mode,Main,
Sampling Period,4.00000e-09,
Firmware,V1.14,
Time, ,
Mode,Fast,
Waveform Data,
-15,
-15,
-13,
-15,
-13,
-14,
-15,
-14,
-14,
-14,
-13,
-15,
-13,
-14,
-13,
-14,
-14,
-14,
-14,
-13,
-12,
-15,
-12,
-14,
-13,
-13,
-14,
-12,
-13,
-13,
-12,
-13,
-12,
-12,
-11,
-13,
-12,
-11,
-13,
-11,
-11,
-12,
-9,
-13,
-9,
-12,
-10,
-10,
-11,
-9,
-9,
-11,
-8,
-11,
-8,
-10,
-10,
-8,
-9,
-7,
-7,
-8,
-7,
-8,
-6,
-8,
-7,
-7,
-7,
-7,
-7,
-6,
-6,
-7,
-5,
-6,
-4,
-5,
-6,
-4,
-5,
-4,
-3,
-5,
-2,
-4,
-3,
-3,
-3,
-3,
-3,
-2,
-2,
-3,
0,
-2,
-1,
-1,
-1,
0,
0,
1,
0,
0,
1,
0,
1,
2,
2,
2,
2,
2,
3,
1,
3,
2,
3,
3,
3,
4,
3,
3,
5,
2,
5,
4,
5,
6,
5,
5,
6,
5,
7,
6,
7,
7,
7,
6,
7,
7,
7,
8,
7,
7,
9,
7,
9,
8,
8,
10,
8,
9,
10,
8,
11,
9,
10,
10,
9,
11,
9,
10,
11,
9,
12,
10,
11,
10,
11,
11,
11,
11,
11,
12,
11,
11,
13,
10,
12,
12,
10,
13,
11,
11,
13,
10,
13,
12,
12,
13,
12,
13,
11,
12,
14,
12,
14,
12,
13,
12,
11,
13,
12,
12,
12,
11,
13,
12,
12,
12,
11,
12,
11,
12,
12,
11,
13,
11,
12,
11,
11,
13,
11,
11,
12,
11,
11,
11,
10,
10,
11,
11,
10,
10,
10,
10,
10,
10,
9,
9,
10,
10,
9,
9,
8,
7,
9,
8,
8,
8,
7,
8,
7,
7,
7,
6,
7,
6,
7,
7,
5,
7,
6,
5,
7,
4,
6,
4,
4,
5,
4,
4,
4,
3,
4,
2,
4,
2,
4,
2,
2,
2,
1,
2,
1,
1,
3,
0,
2,
1,
0,
1,
0,
0,
0,
-2,
0,
-3,
-2,
-2,
-1,
0,
-4,
-3,
-2,
-4,
-2,
-4,
-3,
-4,
-4,
-4,
-5,
-4,
-5,
-5,
-4,
-6,
-5,
-7,
-5,
-6,
-7,
-6,
-7,
-7,
-5,
-9,
-6,
-8,
-8,
-8,
-8,
-8,
-8,
-9,
-9,
-9,
-8,
-11,
-8,
-10,
-10,
-9,
-11,
-10,
-11,
-12,
-9,
-12,
-10,
-12,
-11,
-11,
-13,
-12,
-11,
-12,
-11,
-14,
-12,
-12,
-13,
-12,
-13,
-14,
-12,
-14,
-13,
-13,
-13,
-13,
-13,
-14,
-13,
-13,
-14,
-14,
-13,
-15,
-13,
-15,
-14,
-13,
-15,
-14,
-13,
-16,
-13,
-15,
-14,
-14,
-15,
-14,
-14,
-15,
-13,
-15,
-13,
-15,
-14,
-14,
-14,
-13,
-14,
-14,
-13,
-15,
-13,
-15,
-13,
-13,
-14,
-13,
-14,
-14,
-13,
-13,
-12,
-14,
-12,
-15,
-14,
-11,
-14,
-12,
-12,
-13,
-12,
-14,
-12,
-12,
-12,
-11,
-13,
-11,
-11,
-12,
-10,
-12,
-9,
-12,
-10,
-11,
-11,
-10,
-11,
-9,
-8,
-11,
-8,
-11,
-9,
-9,
-8,
-8,
-8,
-7,
-7,
-10,
-6,
-9,
-7,
-6,
-7,
-6,
-6,
-7,
-5,
-7,
-6,
-5,
-5,
-6,
-5,
-5,
-5,
-4,
-5,
-4,
-4,
-5,
-2,
-4,
-3,
-2,
-4,
-3,
-2,
-3,
-2,
-2,
-1,
-1,
-1,
-1,
0,
-1,
0,
-1,
0,
0,
0,
1,
1,
1,
1,
1,
3,
1,
3,
2,
3,
3,
3,
3,
3,
4,
4,
3,
4,
4,
6,
5,
5,
6,
4,
6,
6,
5,
7,
5,
6,
7,
6,
7,
6,
7,
7,
7,
8,
7,
8,
8,
8,
9,
8,
10,
8,
8,
11,
8,
10,
9,
10,
10,
9,
11,
9,
10,
12,
9,
12,
10,
11,
12,
10,
12,
12,
11,
13,
12,
11,
12,
12,
11,
11,
12,
11,
13,
12,
11,
13,
10,
13,
13,
11,
13,
12,
12,
12,
11,
14,
12,
13,
13,
12,
13,
11,
13,
12,
12,
13,
12,
13,
12,
12,
12,
11,
12,
12,
12,
12,
12,
12,
11,
11,
11,
11,
12,
11,
11,
11,
10,
11,
11,
10,
10,
9,
9,
11,
9,
11,
9,
10,
10,
9,
9,
9,
9,
9,
9,
8,
8,
9,
8,
7,
9,
8,
7,
8,
6,
8,
6,
7,
7,
7,
7,
5,
7,
6,
5,
6,
4,
7,
5,
4,
6,
3,
4,
5,
2,
4,
2,
3,
2,
2,
2,
2,
2,
2,
2,
2,
0,
2,
-1,
1,
1,
-1,
1,
0,
-1,
0,
-3,
0,
-2,
-1,
-1,
-3,
-2,
-4,
-3,
-1,
-5,
-3,
-4,
-3,
-3,
-5,
-4,
-5,
-5,
-4,
-6,
-5,
-6,
-5,
-6,
-6,
-6,
-7,
-6,
-7,
-7,
-5,
-8,
-6,
-8,
-8,
-7,
-8,
-9,
-8,
-9,
-8,
-10,
-9,
-10,
-9,
-9,
-10,
-10,
-10,
-11,
-9,
-12,
-10,
-11,
-11,
-11,
-12,
-12,
-12,
-12,
-12,
-13,
-11,
-13,
-12,
-13,
-13,
-12,
-13,
-14,
-12,
-15,
-13,
-14,
-15,
-12,
-13,
-14,
-12,
-15,
-13,
-15,
-14,
-14,
-14,
-14,
-14,
-15,
-13,
-15,
-14,
-16,
-13,
-14,
-14,
-14,
-15,
-14,
-14,
-15,
-13,
-16,
-14,
-15,
-14,
-13,
-15,
-13,
-13,
-15,
-12,
-16,
-13,
-14,
-14,
-13,
-14,
-14,
-13,
-14,
-13,
-14,
-13,
-14,
-13,
-13,
-13,
-12,
-13,
-13,
-12,
-13,
-10,
-14,
-12,
-11,
-12,
-11,
-12,
-11,
-11,
-12,
-10,
-12,
-10,
-11,
-10,
-10,
-11,
-10,
-9,
-11,
-8,
-10,
-9,
-9,
-9,
-8,
-9,
-8,
-8,
-9,
-8,
-8,
-6,
-8,
-6,
-6,
-7,
-6,
-6,
-7,
-5,
-7,
-5,
-6,
-6,
-4,
-5,
-5,
-3,
-5,
-4,
-4,
-4,
-4,
-3,
-4,
-4,
-3,
-2,
-2,
-1,
-3,
-1,
-1,
-1,
0,
-1,
-1,
0,
0,
0,
-1,
1,
1,
1,
2,
0,
1,
2,
1,
3,
1,
3,
4,
2,
3,
3,
3,
4,
3,
5,
4,
4,
5,
5,
6,
5,
6,
6,
5,
7,
5,
7,
6,
6,
7,
6,
8,
7,
7,
9,
7,
9,
7,
8,
8,
8,
9,
8,
8,
10,
8,
11,
8,
10,
11,
10,
11,
10,
10,
10,
11,
11,
10,
11,
10,
10,
12,
11,
12,
12,
10,
13,
10,
12,
12,
10,
13,
11,
12,
13,
12,
12,
12,
13,
12,
12,
13,
12,
13,
12,
13,
13,
12,
13,
12,
13,
13,
12,
12,
12,
12,
12,
11,
13,
12,
12,
12,
11,
13,
12,
11,
13,
12,
11,
12,
10,
11,
12,
10,
12,
11,
11,
10,
11,
10,
10,
11,
11,
11,
11,
9,
11,
9,
11,
10,
9,
10,
8,
9,
10,
8,
9,
8,
8,
8,
8,
9,
7,
8,
7,
6,
9,
6,
7,
7,
6,
7,
6,
6,
6,
5,
6,
5,
5,
4,
5,
4,
4,
5,
3,
4,
5,
2,
5,
3,
2,
3,
2,
3,
2,
1,
2,
0,
2,
0,
1,
0,
0,
0,
0,
0,
0,
-2,
0,
-2,
-1,
-2,
-2,
0,
-4,
-1,
-2,
-3,
-2,
-4,
-3,
-4,
-4,
-3,
-5,
-4,
-4,
-7,
-4,
-6,
-5,
-5,
-6,
-6,
-6,
-6,
-6,
-6,
-7,
-7,
-7,
-9,
-7,
-8,
-8,
-8,
-8,
-9,
-8,
-10,
-8,
-10,
-9,
-9,
-9,
-10,
-10,
-12,
-9,
-12,
-10,
-11,
-11,
-11,
-12,
-11,
-11,
-12,
-10,
-12,
-12,
-12,
-13,
-12,
-12,
-13,
-12,
-14,
-13,
-13,
-13,
-13,
-13,
-13,
-14,
-13,
-13,
-14,
-12,
-16,
-13,
-14,
-14,
-13,
-15,
-13,
-13,
-15,
-13,
-15,
-14,
-15,
-14,
-14,
-15,
-14,
-14,
-14,
-13,
-15,
-14,
-15,
-14,
-14,
-15,
-14,
-14,
-14,
-14,
-15,
-13,
-16,
-13,
-14,
-14,
-12,
-14,
-14,
-13,
-15,
-12,
-14,
-13,
-13,
-13,
-13,
-13,
-13,
-12,
-13,
-13,
-13,
-12,
-13,
-12,
-12,
-13,
-11,
-12,
-12,
-10,
-12,
-9,
-11,
-10,
-10,
-10,
-10,
-10,
-11,
-9,
-11,
-8,
-10,
-9,
-8,
-9,
-8,
-8,
-9,
-7,
-9,
-7,
-7,
-8,
-7,
-7,
-7,
-6,
-7,
-6,
-7,
-5,
-6,
-5,
-6,
-5,
-5,
-5,
-5,
-3,
-5,
-4,
-4,
-4,
-3,
-3,
-3,
-3,
-3,
-1,
-2,
-2,
-2,
-3,
-1,
-2,
-1,
0,
-1,
0,
-1,
0,
0,
1,
1,
1,
1,
2,
1,
3,
1,
3,
2,
3,
3,
2,
5,
4,
3,
5,
3,
4,
5,
4,
6,
5,
6,
5,
5,
6,
6,
7,
6,
7,
7,
6,
8,
7,
8,
7,
7,
9,
7,
9,
9,
8,
9,
8,
10,
8,
8,
11,
8,
10,
9,
9,
11,
8,
10,
11,
9,
11,
10,
11,
11,
10,
11,
11,
11,
11,
11,
11,
11,
12,
11,
12,
12,
11,
13,
11,
11,
12,
11,
13,
12,
12,
13,
11,
12,
12,
12,
13,
12,
13,
12,
12,
12,
12,
12,
12,
12,
13,
13,
11,
13,
12,
12,
12,
12,
11,
13,
12,
11,
13,
11,
11,
12,
10,
12,
11,
11,
13,
10,
11,
12,
10,
11,
11,
11,
10,
10,
11,
10,
11,
10,
10,
10,
9,
10,
9,
9,
10,
8,
9,
8,
8,
9,
7,
9,
7,
8,
8,
6,
8,
6,
6,
7,
5,
7,
5,
5,
7,
4,
5,
6,
5,
5,
3,
5,
3,
4,
4,
3,
4,
2,
4,
2,
2,
3,
1,
2,
2,
1,
2,
0,
2,
0,
0,
0,
-1,
0,
0,
-1,
0,
-2,
0,
-1,
-2,
0,
-3,
-2,
-2,
-3,
-1,
-3,
-3,
-3,
-3,
-4,
-4,
-5,
-5,
-4,
-5,
-6,
-4,
-6,
-5,
-6,
-7,
-6,
-6,
-7,
-6,
-7,
-7,
-7,
-8,
-8,
-8,
-8,
-7,
-10,
-8,
-10,
-8,
-10,
-9,
-10,
-9,
-9,
-9,
-11,
-9,
-11,
-10,
-11,
-11,
-11,
-11,
-11,
-11,
-12,
-11,
-13,
-10,
-13,
-13,
-11,
-13,
-12,
-12,
-14,
-11,
-14,
-12,
-13,
-13,
-13,
-14,
-13,
-13,
-14,
-13,
-14,
-13,
-14,
-14,
-14,
-14,
-13,
-13,
-14,
-14,
-15,
-13,
-15,
-14,
-15,
-14,
-13,
-14,
-14,
-14,
-15,
-12,
-16,
-14,
-14,
-15,
-14,
-14,
-14,
-13,
-15,
-13,
-15,
-14,
-14,
-14,
-14,
-14,
-13,
-14,
-13,
-12,
-15,
-12,
-14,
-13,
-12,
-14,
-12,
-12,
-13,
-11,
-14,
-12,
-13,
-13,
-12,
-12,
-12,
-12,
-12,
-10,
-12,
-11,
-11,
-11,
-10,
-10,
-11,
-10,
-11,
-10,
-10,
-9,
-10,
-9,
-10,
-9,
-8,
-9,
-8,
-8,
-9,
-7,
-9,
-8,
-7,
-8,
-7,
-6,
-7,
-6,
-7,
-6,
-6,
-5,
-5,
-5,
-6,
-5,
-5,
-4,
-5,
-3,
-4,
-4,
-3,
-3,
-3,
-2,
-3,
-2,
-4,
-1,
-2,
-2,
-1,
-1,
-1,
-2,
-1,
0,
-2,
2,
-1,
0,
2,
-1,
2,
1,
1,
3,
0,
3,
2,
2,
3,
2,
3,
3,
4,
4,
4,
5,
3,
5,
4,
4,
6,
4,
6,
6,
5,
7,
4,
6,
6,
6,
7,
7,
8,
8,
7,
9,
7,
8,
8,
8,
9,
8,
9,
8,
8,
10,
9,
11,
9,
10,
10,
9,
11,
9,
10,
12,
9,
13,
10,
10,
12,
10,
11,
11,
11,
11,
11,
11,
11,
11,
12,
12,
12,
11,
12,
12,
11,
12,
12,
12,
13,
12,
12,
12,
12,
12,
12,
13,
13,
13,
12,
11,
13,
12,
12,
12,
11,
14,
12,
12,
13,
12,
13,
12,
11,
14,
11,
12,
12,
11,
12,
11,
12,
11,
11,
12,
10,
11,
10,
11,
12,
10,
12,
10,
11,
11,
10,
11,
9,
10,
10,
8,
11,
8,
9,
10,
7,
11,
8,
8,
9,
7,
8,
8,
7,
8,
7,
8,
6,
8,
6,
6,
7,
5,
7,
5,
5,
7,
3,
6,
5,
4,
6,
3,
5,
5,
3,
4,
2,
3,
2,
3,
3,
2,
2,
2,
1,
3,
1,
2,
0,
1,
0,
0,
0,
0,
0,
0,
-1,
0,
-2,
-1,
-2,
-2,
0,
-4,
-2,
-1,
-4,
-1,
-4,
-4,
-3,
-4,
-4,
-3,
-6,
-4,
-5,
-5,
-4,
-5,
-6,
-6,
-6,
-6,
-6,
-7,
-7,
-6,
-7,
-7,
-7,
-8,
-8,
-8,
-9,
-7,
-10,
-8,
-10,
-9,
-8,
-10,
-9,
-10,
-11,
-8,
-12,
-10,
-10,
-11,
-11,
-12,
-11,
-9,
-12,
-11,
-12,
-12,
-13,
-12,
-12,
-13,
-12,
-13,
-13,
-12,
-13,
-10,
-14,
-12,
-13,
-14,
-13,
-14,
-14,
-12,
-15,
-13,
-14,
-13,
-14,
-14,
-13,
-14,
-14,
-13,
-15,
-13,
-16,
-13,
-14,
-14,
-14,
-14,
-14,
-13,
-15,
-13,
-15,
-13,
-16,
-14,
-14,
-15,
-13,
-14,
-15,
-13,
-16,
-13,
-14,
-15,
-13,
-14,
-14,
-13,
-14,
-13,
-14,
-13,
-14,
-13,
-13,
-13,
-12,
-13,
-13,
-12,
-14,
-12,
-13,
-12,
-12,
-12,
-12,
-12,
-12,
-11,
-12,
-10,
-12,
-10,
-11,
-11,
-11,
-11,
-11,
-9,
-11,
-9,
-9,
-10,
-10,
-9,
-9,
-8,
-10,
-8,
-8,
-8,
-8,
-7,
-7,
-7,
-7,
-7,
-7,
-6,
-7,
-5,
-6,
-6,
-5,
-6,
-5,
-5,
-5,
-3,
-6,
-4,
-5,
-4,
-3,
-4,
-3,
-4,
-3,
-2,
-3,
-1,
-2,
-1,
0,
-2,
-1,
-1,
-1,
0,
-1,
0,
0,
1,
0,
0,
2,
0,
2,
2,
1,
3,
0,
4,
2,
2,
5,
2,
2,
4,
3,
4,
3,
4,
3,
4,
6,
4,
6,
6,
5,
6,
5,
7,
6,
6,
7,
6,
7,
6,
7,
8,
6,
9,
6,
8,
9,
7,
9,
8,
8,
10,
8,
10,
10,
9,
11,
10,
9,
10,
10,
10,
11,
11,
10,
11,
10,
11,
12,
10,
12,
12,
11,
13,
11,
11,
12,
11,
12,
12,
12,
12,
12,
12,
11,
12,
12,
11,
12,
12,
12,
13,
12,
13,
13,
11,
13,
12,
12,
12,
12,
12,
12,
13,
12,
12,
12,
12,
12,
11,
13,
13,
11,
14,
11,
12,
13,
11,
12,
12,
11,
12,
11,
12,
11,
11,
10,
10,
12,
10,
11,
11,
9,
12,
10,
10,
10,
10,
10,
9,
10,
10,
9,
10,
7,
10,
8,
8,
10,
7,
9,
8,
6,
9,
6,
7,
7,
6,
7,
6,
6,
6,
6,
5,
5,
6,
4,
6,
5,
4,
5,
4,
4,
5,
3,
5,
2,
2,
3,
2,
3,
2,
2,
3,
1,
2,
0,
1,
0,
0,
1,
0,
-1,
0,
-1,
0,
-1,
-1,
-1,
0,
-2,
-2,
-3,
-2,
-2,
-3,
-4,
-2,
-4,
-4,
-3,
-4,
-5,
-4,
-5,
-4,
-6,
-5,
-5,
-6,
-6,
-6,
-6,
-6,
-7,
-6,
-7,
-7,
-7,
-8,
-7,
-7,
-8,
-7,
-10,
-8,
-9,
-8,
-8,
-9,
-10,
-9,
-10,
-9,
-11,
-9,
-12,
-9,
-11,
-11,
-10,
-12,
-11,
-9,
-14,
-10,
-13,
-12,
-11,
-13,
-12,
-12,
-13,
-12,
-13,
-12,
-13,
-12,
-14,
-13,
-12,
-14,
-13,
-13,
-14,
-12,
-15,
-13,
-14,
-14,
-14,
-15,
-13,
-14,
-14,
-13,
-16,
-13,
-15,
-14,
-14,
-15,
-14,
-14,
-15,
-13,
-14,
-14,
-15,
-14,
-14,
-14,
-14,
-14,
-13,
-14,
-15,
-13,
-15,
-14,
-14,
-14,
-13,
-14,
-14,
-13,
-14,
-13,
-14,
-14,
-13,
-13,
-13,
-13,
-14,
-13,
-13,
-13,
-14,
-13,
-12,
-13,
-12,
-12,
-12,
-11,
-12,
-11,
-12,
-11,
-12,
-10,
-12,
-10,
-10,
-10,
-12,
-9,
-11,
-8,
-10,
-10,
-8,
-8,
-9,
-7,
-10,
-7,
-9,
-8,
-6,
-8,
-7,
-7,
-9,
-6,
-7,
-6,
-7,
-6,
-6,
-6,
-5,
-6,
-5,
-4,
-6,
-4,
-5,
-4,
-4,
-4,
-3,
-4,
-2,
-2,
-4,
-1,
-4,
-1,
-2,
-3,
-1,
-3,
-2,
0,
-2,
0,
-1,
1,
1,
0,
1,
0,
1,
2,
1,
2,
1,
4,
1,
3,
3,
2,
4,
2,
3,
4,
2,
4,
3,
5,
5,
4,
5,
4,
5,
6,
4,
7,
6,
6,
6,
6,
7,
7,
7,
8,
7,
8,
7,
8,
7,
8,
8,
8,
9,
8,
8,
10,
8,
10,
9,
8,
11,
9,
10,
11,
9,
11,
10,
9,
12,
11,
11,
11,
10,
11,
11,
11,
11,
11,
12,
11,
12,
12,
11,
12,
11,
13,
12,
12,
12,
11,
13,
11,
13,
12,
11,
13,
12,
12,
13,
11,
13,
11,
11,
13,
10,
14,
12,
11,
13,
12,
12,
12,
13,
12,
12,
13,
10,
12,
12,
11,
13,
11,
12,
12,
11,
13,
10,
12,
11,
10,
12,
10,
11,
10,
10,
12,
9,
11,
10,
10,
11,
8,
11,
10,
9,
10,
9,
9,
8,
9,
9,
8,
8,
7,
8,
8,
6,
8,
6,
7,
7,
6,
7,
5,
6,
6,
5,
7,
5,
5,
6,
4,
5,
4,
5,
5,
3,
4,
3,
3,
3,
3,
2,
2,
2,
2,
2,
3,
1,
2,
0,
1,
2,
0,
1,
1,
-1,
2,
-2,
-1,
0,
-2,
-1,
-2,
-3,
-1,
-3,
-1,
-3,
-3,
-4,
-2,
-4,
-4,
-4,
-4,
-5,
-4,
-5,
-5,
-5,
-7,
-4,
-6,
-6,
-5,
-7,
-5,
-8,
-7,
-6,
-7,
-7,
-8,
-7,
-7,
-9,
-7,
-10,
-8,
-8,
-10,
-9,
-9,
-10,
-8,
-12,
-8,
-11,
-9,
-10,
-11,
-11,
-10,
-10,
-11,
-12,
-10,
-12,
-10,
-13,
-12,
-11,
-13,
-12,
-13,
-13,
-11,
-14,
-12,
-14,
-13,
-13,
-14,
-13,
-13,
-14,
-13,
-14,
-13,
-15,
-14,
-14,
-14,
-14,
-14,
-14,
-14,
-14,
-14,
-15,
-13,
-15,
-15,
-14,
-15,
-14,
-14,
-16,
-13,
-16,
-14,
-14,
-15,
-14,
-14,
-14,
-14,
-14,
-14,
-14,
-14,
-14,
-13,
-15,
-13,
-14,
-14,
-14,
-13,
-14,
-13,
-13,
-13,
-13,
-13,
-13,
-13,
-13,
-12,
-13,
-13,
-13,
-13,
-12,
-12,
-12,
-11,
-13,
-11,
-12,
-12,
-11,
-12,
-11,
-11,
-11,
-9,
-11,
-10,
-10,
-9,
-9,
-9,
-9,
-9,
-9,
-8,
-10,
-7,
-10,
-7,
-8,
-9,
-7,
-8,
-7,
-6,
-7,
-5,
-8,
-6,
-6,
-6,
-5,
-6,
-5,
-5,
-5,
-3,
-6,
-4,
-5,
-5,
-3,
-4,
-4,
-4,
-3,
-2,
-3,
-1,
-3,
-2,
-1,
-3,
0,
-2,
-1,
1,
-3,
0,
-1,
-1,
1,
0,
1,
1,
0,
2,
1,
2,
2,
2,
2,
2,
3,
2,
3,
4,
3,
5,
3,
5,
4,
4,
5,
5,
5,
5,
5,
7,
4,
7,
6,
6,
7,
6,
7,
7,
7,
8,
7,
8,
8,
8,
8,
8,
8,
9,
8,
10,
9,
10,
10,
10,
10,
10,
10,
11,
10,
11,
10,
10,
10,
10,
11,
11,
11,
11,
10,
12,
11,
11,
12,
11,
13,
11,
12,
13,
11,
14,
11,
12,
13,
11,
12,
12,
12,
13,
12,
13,
12,
14,
12,
12,
13,
11,
13,
12,
11,
14,
10,
13,
13,
12,
14,
11,
12,
13,
11,
13,
11,
12,
12,
12,
13,
11,
12,
12,
11,
12,
10,
12,
11,
11,
12,
10,
12,
10,
11,
12,
10,
12,
9,
11,
10,
9,
11,
8,
10,
10,
8,
11,
8,
9,
9,
8,
9,
8,
7,
8,
7,
8,
7,
7,
7,
7,
7,
6,
6,
6,
5,
7,
5,
7,
5,
5,
5,
4,
5,
4,
4,
4,
3,
5,
3,
3,
4,
2,
2,
4,
1,
2,
1,
1,
2,
1,
1,
2,
0,
1,
0,
-1,
0,
0,
-2,
0,
-1,
-2,
-1,
-2,
-3,
-1,
-3,
-2,
-3,
-3,
-2,
-4,
-4,
-2,
-5,
-3,
-5,
-4,
-4,
-5,
-4,
-5,
-5,
-5,
-7,
-5,
-7,
-7,
-7,
-7,
-6,
-8,
-7,
-7,
-8,
-7,
-10,
-8,
-9,
-9,
-8,
-10,
-8,
-9,
-10,
-8,
-12,
-9,
-11,
-11,
-10,
-11,
-11,
-11,
-12,
-10,
-12,
-10,
-12,
-11,
-12,
-13,
-12,
-13,
-12,
-12,
-14,
-12,
-14,
-12,
-13,
-13,
-12,
-14,
-13,
-13,
-14,
-13,
-15,
-13,
-14,
-14,
-13,
-14,
-14,
-13,
-15,
-13,
-14,
-14,
-14,
-14,
-14,
-14,
-14,
-14,
-14,
-14,
-15,
-13,
-15,
-14,
-14,
-15,
-14,
-14,
-15,
-13,
-15,
-13,
-14,
-15,
-13,
-14,
-15,
-13,
-15,
-13,
-14,
-13,
-13,
-14,
-14,
-13,
-13,
-12,
-14,
-12,
-13,
-13,
-12,
-12,
-12,
-12,
-12,
-12,
-12,
-11,
-12,
-11,
-11,
-12,
-11,
-12,
-11,
-11,
-12,
-9,
-11,
-10,
-10,
-11,
-9,
-9,
-10,
-9,
-10,
-8,
-10,
-8,
-8,
-8,
-8,
-8,
-7,
-8,
-7,
-6,
-8,
-6,
-6,
-6,
-5,
-6,
-6,
-6,
-5,
-4,
-6,
-3,
-6,
-4,
-4,
-5,
-3,
-4,
-3,
-1,
-5,
-2,
-3,
-2,
-2,
-3,
-1,
-1,
-1,
-1,
-1,
0,
-2,
1,
-1,
0,
1,
0,
1,
1,
1,
3,
1,
2,
2,
2,
2,
3,
2,
3,
3,
4,
3,
4,
4,
3,
5,
5,
5,
6,
4,
6,
6,
6,
6,
6,
6,
7,
7,
6,
7,
8,
7,
8,
7,
7,
8,
7,
8,
9,
7,
11,
8,
9,
10,
9,
9,
9,
9,
11,
9,
11,
9,
10,
10,
10,
11,
10,
11,
11,
11,
12,
10,
11,
11,
11,
12,
11,
12,
12,
12,
13,
10,
14,
11,
12,
13,
10,
13,
13,
11,
15,
10,
13,
13,
11,
13,
11,
12,
13,
12,
13,
12,
14,
11,
12,
13,
11,
13,
12,
12,
12,
11,
14,
11,
12,
12,
11,
12,
11,
11,
12,
11,
13,
11,
12,
12,
10,
12,
11,
11,
11,
10,
11,
10,
10,
10,
10,
10,
10,
10,
9,
9,
10,
8,
10,
8,
8,
10,
7,
8,
8,
7,
8,
7,
7,
8,
7,
7,
7,
6,
6,
6,
7,
5,
6,
6,
5,
5,
5,
5,
5,
3,
5,
4,
3,
4,
3,
4,
3,
3,
3,
2,
3,
1,
3,
1,
1,
2,
0,
1,
1,
-1,
1,
-1,
-1,
0,
-2,
0,
-1,
-2,
0,
-3,
-1,
-3,
-2,
-3,
-4,
-2,
-4,
-3,
-3,
-4,
-4,
-6,
-4,
-5,
-5,
-5,
-6,
-4,
-6,
-5,
-4,
-8,
-5,
-7,
-7,
-6,
-8,
-7,
-7,
-8,
-7,
-9,
-7,
-8,
-8,
-9,
-9,
-9,
-9,
-9,
-9,
-11,
-8,
-11,
-8,
-10,
-12,
-9,
-12,
-10,
-10,
-12,
-10,
-12,
-11,
-11,
-13,
-12,
-13,
-12,
-12,
-13,
-12,
-14,
-12,
-13,
-13,
-12,
-13,
-13,
-13,
-14,
-13,
-14,
-13,
-14,
-14,
-14,
-14,
-13,
-13,
-14,
-13,
-15,
-13,
-15,
-14,
-14,
-14,
-14,
-13,
-16,
-13,
-14,
-15,
-15,
-14,
-14,
-14,
-15,
-14,
-14,
-14,
-14,
-14,
-14,
-13,
-14,
-14,
-14,
-13,
-14,
-13,
-14,
-13,
-14,
-14,
-13,
-14,
-13,
-13,
-13,
-12,
-14,
-12,
-13,
-13,
-11,
-13,
-13,
-11,
-14,
-11,
-13,
-12,
-11,
-12,
-12,
-11,
-11,
-11,
-11,
-10,
-11,
-8,
-11,
-10,
-10,
-11,
-8,
-9,
-10,
-7,
-11,
-7,
-9,
-9,
-7,
-8,
-7,
-7,
-7,
-6,
-8,
-6,
-7,
-5,
-6,
-7,
-6,
-5,
-5,
-4,
-6,
-4,
-5,
-4,
-5,
-5,
-3,
-4,
-3,
-3,
-3,
-1,
-4,
-1,
-3,
-3,
-1,
-3,
-1,
-1,
-2,
0,
-2,
0,
0,
0,
0,
0,
1,
2,
1,
2,
1,
1,
2,
2,
3,
2,
2,
3,
2,
3,
4,
4,
3,
4,
4,
4,
5,
4,
5,
6,
4,
7,
6,
5,
7,
6,
6,
8,
6,
7,
7,
7,
7,
7,
7,
8,
7,
7,
9,
9,
8,
10,
8,
9,
10,
8,
10,
10,
9,
11,
9,
11,
10,
9,
12,
10,
11,
12,
11,
11,
10,
12,
11,
11,
13,
11,
12,
12,
11,
13,
11,
13,
12,
12,
12,
11,
14,
11,
12,
13,
11,
14,
11,
12,
13,
11,
13,
12,
12,
12,
11,
14,
11,
12,
13,
11,
13,
11,
13,
12,
12,
13,
11,
13,
12,
11,
12,
11,
12,
11,
11,
12,
11,
12,
10,
11,
11,
10,
12,
10,
11,
12,
9,
11,
10,
10,
11,
10,
9,
10,
9,
10,
9,
9,
9,
9,
8,
9,
9,
8,
8,
8,
6,
8,
7,
7,
7,
7,
7,
6,
6,
7,
4,
6,
6,
5,
6,
5,
5,
5,
4,
5,
3,
4,
3,
3,
4,
3,
2,
4,
2,
3,
2,
1,
2,
1,
1,
1,
1,
1,
1,
1,
-1,
1,
-1,
-1,
0,
-2,
-1,
-1,
-2,
0,
-4,
-2,
-2,
-2,
-2,
-5,
-3,
-2,
-5,
-2,
-5,
-4,
-5,
-5,
-4,
-5,
-5,
-5,
-6,
-5,
-6,
-5,
-7,
-6,
-7,
-7,
-6,
-9,
-7,
-7,
-9,
-6,
-10,
-8,
-8,
-10,
-8,
-9,
-10,
-8,
-11,
-9,
-11,
-9,
-11,
-10,
-11,
-10,
-10,
-11,
-11,
-10,
-12,
-10,
-13,
-11,
-12,
-13,
-12,
-12,
-13,
-12,
-14,
-12,
-14,
-13,
-13,
-14,
-13,
-13,
-14,
-12,
-14,
-13,
-13,
-14,
-13,
-14,
-14,
-13,
-14,
-14,
-14,
-14,
-14,
-14,
-14,
-14,
-14,
-14,
-15,
-13,
-16,
-13,
-15,
-15,
-14,
-14,
-15,
-13,
-15,
-13,
-15,
-14,
-14,
-14,
-14,
-14,
-14,
-13,
-14,
-13,
-15,
-13,
-14,
-14,
-13,
-14,
-14,
-13,
-14,
-12,
-14,
-13,
-13,
