1-signale-auf-leitern/data/ALL0016/A0016CH1.CSV

Memory Length,4000,
Trigger Level,6.40000e+00,
Source,CH1,
Probe,1.0X,
Vertical Units,V,
Vertical Scale,5.00000e+00,
Vertical Position,0.00000e+00,
Horizontal Units,S,
Horizontal Scale,1.00000e-05,
Horizontal Position,2.0000000e-05,
Horizontal Mode,Main,
Sampling Period,4.00000e-08,
Firmware,V1.14,
Time, ,
Mode,Fast,
Waveform Data,
1,
1,
1,
1,
1,
1,
1,
1,
1,
0,
0,
1,
1,
1,
1,
1,
1,
-1,
-1,
1,
1,
0,
0,
1,
1,
1,
1,
1,
1,
1,
1,
1,
1,
0,
0,
1,
1,
1,
1,
0,
0,
0,
0,
1,
1,
1,
1,
1,
1,
0,
0,
1,
1,
3,
3,
1,
1,
0,
0,
1,
1,
1,
1,
1,
1,
1,
1,
0,
0,
1,
1,
1,
1,
0,
0,
1,
1,
1,
1,
0,
0,
1,
1,
1,
1,
1,
1,
1,
1,
0,
0,
0,
0,
1,
1,
0,
0,
1,
1,
1,
1,
1,
1,
1,
1,
1,
1,
1,
1,
1,
1,
1,
1,
1,
1,
0,
0,
1,
1,
0,
0,
1,
1,
1,
1,
0,
0,
1,
1,
2,
2,
1,
1,
0,
0,
1,
1,
0,
0,
1,
1,
0,
0,
1,
1,
1,
1,
0,
0,
0,
0,
1,
1,
1,
1,
1,
1,
1,
1,
0,
0,
0,
0,
1,
1,
1,
1,
2,
2,
1,
1,
1,
1,
1,
1,
1,
1,
0,
0,
1,
1,
1,
1,
1,
1,
1,
1,
0,
0,
1,
1,
1,
1,
1,
1,
1,
1,
1,
1,
1,
1,
0,
0,
1,
1,
1,
1,
1,
1,
1,
1,
0,
0,
1,
1,
1,
1,
-1,
-1,
1,
1,
1,
1,
1,
1,
0,
0,
1,
1,
0,
0,
1,
1,
1,
1,
0,
0,
0,
0,
0,
0,
1,
1,
1,
1,
-1,
-1,
1,
1,
1,
1,
1,
1,
1,
1,
0,
0,
1,
1,
1,
1,
1,
1,
1,
1,
1,
1,
1,
1,
1,
1,
1,
1,
1,
-17,
-22,
-38,
-39,
-39,
-44,
-44,
-49,
-49,
-53,
-53,
-54,
-54,
-55,
-55,
-54,
-54,
-56,
-56,
-55,
-55,
-56,
-56,
-56,
-56,
-55,
-55,
-55,
-55,
-56,
-56,
-54,
-54,
-55,
-55,
-55,
-55,
-54,
-54,
-55,
-55,
-55,
-55,
-54,
-54,
-55,
-55,
-56,
-56,
-57,
-57,
-56,
-56,
-56,
-56,
-55,
-55,
-55,
-55,
-55,
-55,
-53,
-53,
-57,
-57,
-59,
-59,
-60,
-60,
-57,
-45,
-45,
-26,
-27,
-27,
-20,
-20,
-17,
-17,
-13,
-13,
-13,
-13,
-12,
-12,
-10,
-10,
-8,
-8,
-9,
-9,
-9,
-9,
-9,
-9,
-9,
-9,
-10,
-10,
-9,
-9,
-9,
-9,
-9,
-9,
-10,
-10,
-11,
-11,
-11,
-11,
-9,
-9,
-11,
-11,
-10,
-10,
-9,
-9,
-9,
-9,
-11,
-11,
-11,
-11,
-10,
-10,
-9,
-9,
-9,
-9,
-13,
-13,
-12,
-12,
-8,
-8,
-7,
-7,
-3,
-3,
-1,
-1,
1,
1,
1,
1,
-2,
-2,
-3,
-3,
-3,
-3,
-4,
-4,
-5,
-5,
-5,
-5,
-7,
-7,
-6,
-6,
-6,
-6,
-6,
-6,
-6,
-6,
-6,
-6,
-6,
-6,
-7,
-7,
-7,
-7,
-6,
-6,
-7,
-7,
-5,
-5,
-7,
-7,
-6,
-6,
-6,
-6,
-7,
-7,
-6,
-6,
-5,
-5,
-7,
-7,
-8,
-8,
-7,
-7,
-8,
-8,
-7,
-7,
-3,
-3,
-3,
-3,
-3,
-3,
-3,
-3,
-5,
-5,
-5,
-5,
-4,
-4,
-6,
-6,
-7,
-7,
-7,
-7,
-6,
-6,
-7,
-7,
-5,
-5,
-7,
-7,
-6,
-6,
-6,
-6,
-6,
-6,
-6,
-6,
-5,
-5,
-8,
-8,
-6,
-6,
-6,
-6,
-6,
-6,
-4,
-4,
-7,
-7,
-6,
-6,
-5,
-5,
-6,
-6,
-4,
-4,
-6,
-6,
-7,
-7,
-5,
-5,
-5,
-5,
-6,
-6,
-4,
-4,
-5,
-5,
-4,
-4,
-5,
-5,
-6,
-6,
-6,
-6,
-6,
-6,
-5,
-5,
-6,
-6,
-7,
-7,
-5,
-5,
-6,
-6,
-6,
-6,
-5,
-5,
-6,
-6,
-5,
-5,
-5,
-5,
-5,
-5,
-6,
-6,
-6,
-6,
-5,
-5,
-5,
-5,
-5,
-5,
-6,
-6,
-5,
-5,
-5,
-5,
-6,
-6,
-6,
-6,
-7,
-7,
-7,
-7,
-6,
-6,
-6,
-6,
-5,
-5,
-4,
-4,
-5,
-5,
-5,
-5,
-6,
-6,
-7,
-7,
-6,
-6,
-6,
-6,
-6,
-6,
-6,
-6,
-6,
-6,
-5,
-5,
-5,
-5,
-6,
-6,
-5,
-5,
-6,
-6,
-7,
-7,
-5,
-5,
-5,
-5,
-7,
-7,
-6,
-6,
-5,
-5,
-5,
-5,
-5,
-5,
-7,
-7,
-6,
-6,
-5,
-5,
-6,
-6,
-5,
-5,
-6,
-6,
-6,
-6,
-6,
-6,
-5,
-5,
-5,
-5,
-5,
-5,
-5,
-5,
-6,
-6,
-5,
-5,
-5,
-5,
-6,
-6,
-6,
-6,
-5,
-5,
-6,
-6,
-5,
-5,
-5,
-5,
-5,
-5,
-5,
-5,
-5,
-5,
-5,
-5,
-6,
-6,
-6,
-6,
-6,
-6,
-6,
-6,
-5,
-5,
-5,
-5,
-6,
-6,
-7,
-7,
-6,
-6,
-5,
-5,
-5,
-5,
-5,
-5,
-5,
-5,
-6,
-6,
-6,
-6,
-7,
-7,
-5,
-5,
-6,
-6,
-5,
-5,
-6,
-6,
-6,
-6,
-8,
-8,
-6,
-6,
-5,
-5,
-7,
-7,
-6,
-6,
-6,
-6,
-6,
-6,
-6,
-6,
-5,
-5,
-5,
-5,
-7,
-7,
-5,
-5,
-5,
-5,
-6,
-6,
-5,
-5,
-5,
-5,
-4,
-4,
-5,
-5,
-4,
-4,
-5,
-5,
-5,
-5,
-6,
-6,
-5,
-5,
-5,
-5,
-4,
-4,
-5,
-5,
-6,
-6,
-6,
-6,
-5,
-5,
-5,
-5,
-4,
-4,
-7,
-7,
-6,
-6,
-5,
-5,
-5,
-5,
-5,
-5,
-6,
-6,
-5,
-5,
-5,
-5,
-6,
-6,
-5,
-5,
-7,
-7,
-6,
-6,
-5,
-5,
-5,
-5,
-5,
-5,
-5,
-5,
-5,
-5,
-5,
-5,
-5,
-5,
-5,
-5,
-7,
-7,
-5,
-5,
-5,
-5,
-5,
-5,
-5,
-5,
-4,
-4,
-5,
-5,
-6,
-6,
-5,
-5,
-5,
-5,
-7,
-7,
-6,
-6,
-6,
-6,
-7,
-7,
-5,
-5,
-7,
-7,
-5,
-5,
-5,
-5,
-5,
-5,
-6,
-6,
-6,
-6,
-5,
-5,
-5,
-5,
-5,
-5,
-5,
-5,
-5,
-5,
-5,
-5,
-7,
-7,
-5,
-5,
-7,
-7,
-6,
-6,
-5,
-5,
-6,
-6,
-5,
-5,
-5,
-5,
-5,
-5,
-5,
-5,
-5,
-5,
-6,
-6,
-6,
-6,
-5,
-5,
-6,
-6,
-5,
-5,
-5,
-5,
-4,
-4,
-7,
-7,
-5,
-5,
-5,
-5,
-5,
-5,
-7,
-7,
-5,
-5,
-6,
-6,
-5,
-5,
-5,
-5,
-6,
-6,
-7,
-7,
-5,
-5,
-5,
-5,
-5,
-5,
-6,
-6,
-7,
-7,
-5,
-5,
-5,
-5,
-5,
-5,
-5,
-5,
-5,
-5,
-5,
-5,
-6,
-6,
-6,
-6,
-5,
-5,
-6,
-6,
-5,
-5,
-6,
-6,
-7,
-7,
-5,
-5,
-6,
-6,
-6,
-6,
-5,
-5,
-7,
-7,
-6,
-6,
-5,
-5,
-5,
-5,
-5,
-5,
-5,
-5,
-6,
-6,
-5,
-5,
-7,
-7,
-4,
-4,
-5,
-5,
-7,
-7,
-5,
-5,
-5,
-5,
-5,
-5,
-5,
-5,
-6,
-6,
-6,
-6,
-5,
-5,
-5,
-5,
-5,
-5,
-6,
-6,
-5,
-5,
-6,
-6,
-4,
-4,
-6,
-6,
-5,
-5,
-7,
-7,
-5,
-5,
-5,
-5,
-5,
-5,
-6,
-6,
-4,
-4,
-6,
-6,
-4,
-4,
-5,
-5,
-6,
-6,
-5,
-5,
-5,
-5,
-5,
-5,
-5,
-5,
-7,
-7,
-5,
-5,
-5,
-5,
-5,
-5,
-6,
-6,
-5,
-5,
-5,
-5,
-6,
-6,
-7,
-7,
-5,
-5,
-5,
-5,
-6,
-6,
-6,
-6,
-6,
-6,
-5,
-5,
-5,
-5,
-5,
-5,
-6,
-6,
-5,
-5,
-5,
-5,
-5,
-5,
-5,
-5,
-7,
-7,
-5,
-5,
-5,
-5,
-6,
-6,
-6,
-6,
-5,
-5,
-6,
-6,
-5,
-5,
-5,
-5,
-5,
-5,
-6,
-6,
-5,
-5,
-5,
-5,
-6,
-6,
-5,
-5,
-6,
-6,
-6,
-6,
-6,
-6,
-5,
-5,
-5,
-5,
-5,
-5,
-5,
-5,
-5,
-5,
-5,
-5,
-5,
-5,
-7,
-7,
-6,
-6,
-5,
-5,
-6,
-6,
-5,
-5,
-5,
-5,
-6,
-6,
-5,
-5,
-5,
-5,
-6,
-6,
-6,
-6,
-5,
-5,
-7,
-7,
-5,
-5,
-6,
-6,
-6,
-6,
-5,
-5,
-6,
-6,
-5,
-5,
-6,
-6,
-6,
-6,
-5,
-5,
-5,
-5,
-7,
-7,
-6,
-6,
-5,
-5,
-5,
-5,
-6,
-6,
-5,
-5,
-7,
-7,
-6,
-6,
-6,
-6,
-5,
-5,
-5,
-5,
-5,
-5,
-5,
-5,
-5,
-5,
-4,
-4,
-5,
-5,
-5,
-5,
-5,
-5,
-5,
-5,
-5,
-5,
-7,
-7,
-6,
-6,
-5,
-5,
-5,
-5,
-5,
-5,
-5,
-5,
-5,
-5,
-5,
-5,
-5,
-5,
-7,
-7,
-7,
-7,
-5,
-5,
-5,
-5,
-5,
-5,
-5,
-5,
-5,
-5,
-5,
-5,
-6,
-6,
-5,
-5,
-5,
-5,
-4,
-4,
-5,
-5,
-5,
-5,
-6,
-6,
-5,
-5,
-5,
-5,
-6,
-6,
-6,
-6,
-6,
-6,
-5,
-5,
-6,
-6,
-6,
-6,
-5,
-5,
-6,
-6,
-5,
-5,
-6,
-6,
-5,
-5,
-4,
-4,
-5,
-5,
-5,
-5,
-5,
-5,
-6,
-6,
-6,
-6,
-7,
-7,
-6,
-6,
-5,
-5,
-6,
-6,
-6,
-6,
-5,
-5,
-5,
-5,
-5,
-5,
-6,
-6,
-4,
-4,
-5,
-5,
-5,
-5,
-6,
-6,
-5,
-5,
-7,
-7,
-5,
-5,
-6,
-6,
-5,
-5,
-5,
-5,
-6,
-6,
-5,
-5,
-5,
-5,
-5,
-5,
-5,
-5,
-6,
-6,
-6,
-6,
-5,
-5,
-5,
-5,
-6,
-6,
-7,
-7,
-6,
-6,
-5,
-5,
-6,
-6,
-6,
-6,
-5,
-5,
-5,
-5,
-6,
-6,
-6,
-6,
-5,
-5,
-5,
-5,
-5,
-5,
-5,
-5,
-5,
-5,
-5,
-5,
-5,
-5,
-6,
-6,
-5,
-5,
-5,
-5,
-7,
-7,
-6,
-6,
-5,
-5,
-6,
-6,
-6,
-6,
-6,
-6,
-7,
-7,
-6,
-6,
-5,
-5,
-6,
-6,
-6,
-6,
-5,
-5,
-6,
-6,
-5,
-5,
-6,
-6,
-5,
-5,
-5,
-5,
-6,
-6,
-6,
-6,
-5,
-5,
-2,
13,
16,
29,
29,
45,
45,
45,
49,
49,
49,
49,
50,
50,
50,
50,
51,
51,
51,
51,
50,
50,
51,
51,
51,
51,
50,
50,
51,
51,
51,
51,
51,
51,
51,
51,
51,
51,
51,
51,
50,
50,
51,
51,
50,
50,
50,
50,
51,
51,
51,
51,
51,
51,
51,
51,
51,
51,
51,
51,
50,
50,
49,
49,
51,
51,
56,
45,
46,
46,
38,
38,
31,
31,
23,
23,
19,
19,
15,
15,
10,
10,
7,
7,
6,
6,
5,
5,
5,
5,
5,
5,
7,
7,
6,
6,
5,
5,
5,
5,
5,
5,
5,
5,
5,
5,
6,
6,
5,
5,
5,
5,
6,
6,
5,
5,
6,
6,
6,
6,
5,
5,
7,
7,
6,
6,
5,
5,
7,
7,
9,
9,
9,
9,
8,
8,
6,
6,
3,
3,
-1,
-1,
-4,
-4,
-4,
-4,
-4,
-4,
-3,
-3,
-2,
-2,
-1,
-1,
0,
0,
1,
1,
1,
1,
1,
1,
1,
1,
1,
1,
1,
1,
1,
1,
2,
2,
1,
1,
1,
1,
2,
2,
2,
2,
3,
3,
1,
1,
2,
2,
3,
3,
1,
1,
0,
0,
-1,
-1,
1,
1,
2,
2,
3,
3,
4,
4,
2,
2,
-1,
-1,
-3,
-3,
-1,
-1,
1,
1,
-1,
-1,
3,
3,
2,
2,
2,
2,
2,
2,
1,
1,
3,
3,
3,
3,
1,
1,
2,
2,
1,
1,
1,
1,
1,
1,
1,
1,
2,
2,
1,
1,
1,
1,
1,
1,
-1,
-1,
1,
1,
2,
2,
2,
2,
1,
1,
1,
1,
0,
0,
1,
1,
3,
3,
2,
2,
1,
1,
0,
0,
-1,
-1,
0,
0,
0,
0,
1,
1,
1,
1,
1,
1,
2,
2,
2,
2,
2,
2,
1,
1,
2,
2,
1,
1,
2,
2,
0,
0,
1,
1,
1,
1,
1,
1,
2,
2,
2,
2,
0,
0,
1,
1,
0,
0,
1,
1,
0,
0,
1,
1,
2,
2,
1,
1,
1,
1,
1,
1,
1,
1,
2,
2,
1,
1,
1,
1,
1,
1,
1,
1,
1,
1,
1,
1,
1,
1,
2,
2,
0,
0,
1,
1,
1,
1,
1,
1,
1,
1,
1,
1,
1,
1,
1,
1,
1,
1,
1,
1,
0,
0,
1,
1,
1,
1,
1,
1,
1,
1,
1,
1,
2,
2,
1,
1,
0,
0,
1,
1,
1,
1,
1,
1,
0,
0,
1,
1,
1,
1,
1,
1,
1,
1,
0,
0,
0,
0,
1,
1,
0,
0,
2,
2,
1,
1,
1,
1,
0,
0,
1,
1,
1,
1,
1,
1,
1,
1,
1,
1,
1,
1,
1,
1,
0,
0,
1,
1,
0,
0,
1,
1,
0,
0,
1,
1,
1,
1,
2,
2,
1,
1,
1,
1,
1,
1,
1,
1,
1,
1,
1,
1,
0,
0,
1,
1,
1,
1,
1,
1,
0,
0,
1,
1,
0,
0,
1,
1,
0,
0,
1,
1,
0,
0,
2,
2,
1,
1,
0,
0,
1,
1,
0,
0,
1,
1,
1,
1,
1,
1,
1,
1,
0,
0,
0,
0,
1,
1,
1,
1,
2,
2,
1,
1,
1,
1,
2,
2,
1,
1,
0,
0,
0,
0,
0,
0,
1,
1,
1,
1,
0,
0,
1,
1,
1,
1,
1,
1,
1,
1,
1,
1,
1,
1,
0,
0,
1,
1,
1,
1,
2,
2,
0,
0,
1,
1,
1,
1,
1,
1,
0,
0,
0,
0,
2,
2,
1,
1,
1,
1,
2,
2,
1,
1,
1,
1,
0,
0,
1,
1,
1,
1,
1,
1,
1,
1,
1,
1,
0,
0,
0,
0,
1,
1,
1,
1,
1,
1,
1,
1,
2,
2,
1,
1,
0,
0,
1,
1,
1,
1,
0,
0,
1,
1,
1,
1,
1,
1,
0,
0,
0,
0,
0,
0,
1,
1,
1,
1,
0,
0,
1,
1,
1,
1,
0,
0,
1,
1,
1,
1,
1,
1,
1,
1,
1,
1,
1,
1,
0,
0,
1,
1,
1,
1,
0,
0,
0,
0,
1,
1,
1,
1,
1,
1,
0,
0,
1,
1,
0,
0,
0,
0,
0,
0,
1,
1,
1,
1,
1,
1,
0,
0,
1,
1,
1,
1,
0,
0,
0,
0,
1,
1,
1,
1,
0,
0,
1,
1,
0,
0,
1,
1,
1,
1,
1,
1,
0,
0,
1,
1,
1,
1,
1,
1,
1,
1,
0,
0,
1,
1,
1,
1,
0,
0,
1,
1,
0,
0,
2,
2,
1,
1,
0,
0,
0,
0,
0,
0,
1,
1,
2,
2,
0,
0,
0,
0,
1,
1,
0,
0,
2,
2,
1,
1,
1,
1,
1,
1,
1,
1,
0,
0,
1,
1,
0,
0,
1,
1,
1,
1,
1,
1,
1,
1,
1,
1,
1,
1,
1,
1,
1,
1,
0,
0,
0,
0,
1,
1,
1,
1,
0,
0,
1,
1,
1,
1,
1,
1,
1,
1,
1,
1,
0,
0,
1,
1,
0,
0,
1,
1,
0,
0,
1,
1,
1,
1,
-1,
-1,
0,
0,
0,
0,
1,
1,
1,
1,
0,
0,
1,
1,
1,
1,
1,
1,
1,
1,
1,
1,
1,
1,
0,
0,
0,
0,
1,
1,
1,
1,
1,
1,
1,
1,
0,
0,
1,
1,
1,
1,
-1,
-1,
0,
0,
0,
0,
1,
1,
0,
0,
0,
0,
1,
1,
1,
1,
1,
1,
1,
1,
0,
0,
1,
1,
0,
0,
1,
1,
0,
0,
1,
1,
1,
1,
1,
1,
0,
0,
1,
1,
0,
0,
0,
0,
0,
0,
0,
0,
1,
1,
1,
1,
0,
0,
1,
1,
0,
0,
1,
1,
0,
0,
1,
1,
2,
2,
1,
1,
1,
1,
1,
1,
1,
1,
1,
1,
1,
1,
1,
1,
1,
1,
0,
0,
1,
1,
1,
1,
0,
0,
1,
1,
1,
1,
1,
1,
1,
1,
1,
1,
0,
0,
1,
1,
1,
1,
1,
1,
1,
1,
2,
2,
0,
0,
1,
1,
0,
0,
1,
1,
1,
1,
1,
1,
1,
1,
0,
0,
0,
0,
1,
1,
0,
0,
0,
0,
1,
1,
1,
1,
0,
0,
1,
1,
-1,
-1,
1,
1,
2,
2,
0,
0,
1,
1,
1,
1,
0,
0,
0,
0,
0,
0,
1,
1,
1,
1,
1,
1,
0,
0,
1,
1,
3,
3,
1,
1,
0,
0,
1,
1,
1,
1,
1,
1,
2,
2,
0,
0,
1,
1,
0,
0,
1,
1,
1,
1,
0,
0,
0,
0,
1,
1,
1,
1,
1,
1,
1,
1,
1,
1,
2,
2,
1,
1,
1,
1,
1,
1,
1,
1,
1,
1,
0,
0,
1,
1,
1,
1,
0,
0,
1,
1,
1,
1,
0,
0,
1,
1,
1,
1,
1,
1,
0,
0,
1,
1,
1,
1,
1,
1,
1,
1,
1,
1,
2,
2,
1,
1,
1,
1,
1,
1,
1,
1,
1,
1,
1,
1,
-1,
-1,
0,
0,
0,
0,
-1,
-1,
1,
1,
1,
1,
0,
0,
0,
0,
1,
1,
1,
1,
1,
1,
1,
1,
0,
0,
1,
1,
0,
0,
1,
1,
1,
1,
1,
1,
0,
0,
0,
0,
0,
0,
0,
0,
1,
1,
0,
0,
1,
1,
0,
0,
1,
1,
0,
0,
0,
0,
1,
1,
1,
1,
0,
0,
1,
1,
1,
1,
1,
1,
0,
0,
1,
1,
1,
1,
1,
1,
1,
1,
0,
0,
2,
2,
0,
0,
0,
0,
1,
1,
1,
1,
1,
1,
2,
2,
1,
1,
1,
1,
0,
0,
1,
1,
1,
1,
1,
1,
0,
0,
0,
0,
1,
1,
1,
1,
1,
1,
1,
1,
-1,
-1,
0,
0,
0,
0,
1,
1,
0,
0,
1,
1,
0,
0,
0,
0,
1,
1,
1,
1,
0,
0,
1,
1,
0,
0,
1,
1,
-1,
-1,
0,
0,
1,
1,
1,
-13,
-13,
-45,
-45,
-45,
-50,
-50,
-50,
-50,
-53,
-53,
-55,
-55,
-55,
-55,
-55,
-55,
-56,
-56,
-56,
-56,
-55,
-55,
-56,
-56,
-55,
-55,
-56,
-56,
-56,
-56,
-55,
-55,
-56,
-56,
-56,
-56,
-56,
-56,
-55,
-55,
-54,
-54,
-54,
-54,
-56,
-56,
-56,
-56,
-56,
-56,
-56,
-56,
-55,
-55,
-56,
-56,
-54,
-54,
-57,
-57,
-54,
-54,
-60,
-60,
-60,
-60,
-59,
-59,
-50,
-50,
-46,
-46,
-39,
-23,
-23,
-23,
-15,
-15,
-14,
-14,
-11,
-11,
-12,
-12,
-11,
-11,
-9,
-9,
-9,
-9,
-9,
-9,
-9,
-9,
-9,
-9,
-9,
-9,
-10,
-10,
-9,
-9,
-10,
-10,
-11,
-11,
-10,
-10,
-11,
-11,
-10,
-10,
-11,
-11,
-10,
-10,
-9,
-9,
-11,
-11,
-11,
-11,
-9,
-9,
-8,
-8,
-8,
-8,
-10,
-10,
-13,
-13,
-14,
-14,
-9,
-9,
-4,
-4,
-1,
-1,
-1,
-1,
-1,
-1,
0,
0,
0,
0,
-1,
-1,
-4,
-4,
-6,
-6,
-5,
-5,
-6,
-6,
-5,
-5,
-6,
-6,
-6,
-6,
-7,
-7,
-7,
-7,
-7,
-7,
-7,
-7,
-6,
-6,
-6,
-6,
-6,
-6,
-6,
-6,
-6,
-6,
-6,
-6,
-6,
-6,
-7,
-7,
-7,
-7,
-5,
-5,
-5,
-5,
-8,
-8,
-7,
-7,
-7,
-7,
-7,
-7,
-4,
-4,
-4,
-4,
-3,
-3,
-3,
-3,
-3,
-3,
-5,
-5,
-5,
-5,
-6,
-6,
-7,
-7,
-7,
-7,
-7,
-7,
-7,
-7,
-7,
-7,
-6,
-6,
-6,
-6,
-6,
-6,
-6,
-6,
-6,
-6,
-6,
-6,
-5,
-5,
-6,
-6,
-6,
-6,
-5,
-5,
-6,
-6,
-5,
-5,
-6,
-6,
-6,
-6,
-5,
-5,
-6,
-6,
-6,
-6,
-8,
-8,
-7,
-7,
-6,
-6,
-5,
-5,
-5,
-5,
-4,
-4,
-4,
-4,
-5,
-5,
-5,
-5,
-5,
-5,
-5,
-5,
-6,
-6,
-5,
-5,
-6,
-6,
-6,
-6,
-7,
-7,
-5,
-5,
-5,
-5,
-6,
-6,
-7,
-7,
-6,
-6,
-5,
-5,
-6,
-6,
-7,
-7,
-7,
-7,
-5,
-5,
-5,
-5,
-6,
-6,
-6,
-6,
-6,
-6,
-5,
-5,
-5,
-5,
-4,
-4,
-7,
-7,
-6,
-6,
-7,
-7,
-5,
-5,
-5,
-5,
-5,
-5,
-5,
-5,
-5,
-5,
-5,
-5,
-6,
-6,
-6,
-6,
-6,
-6,
-6,
-6,
-5,
-5,
-6,
-6,
-7,
-7,
-6,
-6,
-5,
-5,
-5,
-5,
-6,
-6,
-5,
-5,
-5,
-5,
-6,
-6,
-5,
-5,
-5,
-5,
-6,
-6,
-8,
-8,
-5,
-5,
-6,
-6,
-5,
-5,
-7,
-7,
-6,
-6,
-5,
-5,
-5,
-5,
-6,
-6,
-6,
-6,
-5,
-5,
-6,
-6,
-5,
-5,
-5,
-5,
-7,
-7,
-5,
-5,
-5,
-5,
-6,
-6,
-6,
-6,
-7,
-7,
-6,
-6,
-5,
-5,
-7,
-7,
-5,
-5,
-6,
-6,
-5,
-5,
-5,
-5,
-5,
-5,
-6,
-6,
-5,
-5,
-6,
-6,
-7,
-7,
-5,
-5,
-5,
-5,
-5,
-5,
-6,
-6,
-5,
-5,
-6,
-6,
-7,
-7,
-5,
-5,
-6,
-6,
-6,
-6,
-5,
-5,
-6,
-6,
-5,
-5,
-5,
-5,
-6,
-6,
-5,
-5,
-5,
-5,
-6,
-6,
-5,
-5,
-6,
-6,
-6,
-6,
-6,
-6,
-6,
-6,
-5,
-5,
-5,
-5,
-6,
-6,
-6,
-6,
-5,
-5,
-6,
-6,
-7,
-7,
-5,
-5,
-6,
-6,
-5,
-5,
-5,
-5,
-5,
-5,
-6,
-6,
-7,
-7,
-6,
-6,
-5,
-5,
-6,
-6,
-7,
-7,
-5,
-5,
-5,
-5,
-7,
-7,
-6,
-6,
-5,
-5,
-6,
-6,
-5,
-5,
-6,
-6,
-5,
-5,
-5,
-5,
-5,
-5,
-6,
-6,
-6,
-6,
-6,
-6,
-5,
-5,
-6,
-6,
-6,
-6,
-5,
-5,
-6,
-6,
-6,
-6,
-5,
-5,
-5,
-5,
-5,
-5,
-6,
-6,
-5,
-5,
-5,
-5,
-6,
-6,
-6,
-6,
-5,
-5,
-6,
-6,
-5,
-5,
-5,
-5,
-5,
-5,
-5,
-5,
-5,
-5,
-5,
-5,
-5,
-5,
-5,
-5,
-6,
-6,
-5,
-5,
-5,
-5,
-6,
-6,
-6,
-6,
-4,
-4,
-5,
-5,
-7,
-7,
-5,
-5,
-6,
-6,
-4,
-4,
-5,
-5,
-5,
-5,
-6,
-6,
-4,
-4,
-6,
-6,
-4,
-4,
-6,
-6,
-6,
-6,
-5,
-5,
-5,
-5,
-6,
-6,
-5,
-5,
-5,
-5,
-5,
-5,
-4,
-4,
-5,
-5,
-6,
-6,
-5,
-5,
-5,
-5,
-6,
-6,
-6,
-6,
-6,
-6,
-7,
-7,
-5,
-5,
-6,
-6,
-5,
-5,
-4,
-4,
-6,
-6,
-5,
-5,
-5,
-5,
-5,
-5,
-5,
-5,
-5,
-5,
-5,
-5,
-6,
-6,
-5,
-5,
-5,
-5,
-6,
-6,
-4,
-4,
-7,
-7,
-6,
-6,
-7,
-7,
-5,
-5,
-6,
-6,
-4,
-4,
-6,
-6,
-6,
-6,
-6,
-6,
-6,
-6,
-5,
-5,
-6,
-6,
-5,
-5,
-4,
-4,
-7,
-7,
-5,
-5,
-4,
-4,
-6,
-6,
-5,
-5,
-5,
-5,
-6,
-6,
-5,
-5,
-5,
-5,
-6,
-6,
-5,
-5,
-5,
-5,
-5,
-5,
-5,
-5,
-6,
-6,
-7,
-7,
-5,
-5,
-6,
-6,
-5,
-5,
-5,
-5,
-6,
-6,
-5,
-5,
-5,
-5,
-5,
-5,
-5,
-5,
-5,
-5,
-6,
-6,
-5,
-5,
-6,
-6,
-5,
-5,
-6,
-6,
-6,
-6,
-5,
-5,
-5,
-5,
-5,
-5,
-6,
-6,
-6,
-6,
-7,
-7,
-6,
-6,
-5,
-5,
-6,
-6,
-7,
-7,
-6,
-6,
-5,
-5,
-5,
-5,
-5,
-5,
-6,
-6,
-5,
-5,
-6,
-6,
-6,
-6,
-5,
-5,
-7,
-7,
-4,
-4,
-5,
-5,
-6,
-6,
-5,
-5,
-5,
-5,
-5,
-5,
-6,
-6,
-4,
-4,
-5,
-5,
-7,
-7,
-5,
-5,
-6,
-6,
-5,
-5,
-5,
-5,
-7,
-7,
-5,
-5,
-5,
-5,
-5,
-5,
-5,
-5,
-5,
-5,
-5,
-5,
-5,
-5,
-5,
-5,
-7,
-7,
-6,
-6,
-5,
-5,
-5,
-5,
-6,
-6,
-5,
-5,
-5,
-5,
-6,
-6,
-7,
-7,
-6,
-6,
-5,
-5,
-5,
-5,
-5,
-5,
-5,
-5,
-6,
-6,
-5,
-5,
-5,
-5,
-5,
-5,
-6,
-6,
-5,
-5,
-6,
-6,
-6,
-6,
-5,
-5,
-5,
-5,
-5,
-5,
-5,
-5,
-5,
-5,
-5,
-5,
-5,
-5,
-6,
-6,
-4,
-4,
-5,
-5,
-4,
-4,
-5,
-5,
-5,
-5,
-6,
-6,
-5,
-5,
-6,
-6,
-5,
-5,
-6,
-6,
-6,
-6,
-5,
-5,
-5,
-5,
-5,
-5,
-5,
-5,
-5,
-5,
-5,
-5,
-6,
-6,
-8,
-8,
-5,
-5,
-5,
-5,
-6,
-6,
-5,
-5,
-6,
-6,
-5,
-5,
-5,
-5,
-6,
-6,
-5,
-5,
-6,
-6,
-5,
-5,
-5,
-5,
-5,
-5,
-4,
-4,
-5,
-5,
-5,
-5,
-7,
-7,
-6,
-6,
-5,
-5,
-5,
-5,
-6,
-6,
-5,
-5,
-6,
-6,
-5,
-5,
-5,
-5,
-5,
-5,
-5,
-5,
-6,
-6,
-6,
-6,
-6,
-6,
-7,
-7,
-6,
-6,
-5,
-5,
-6,
-6,
-6,
-6,
-4,
-4,
-7,
-7,
-6,
-6,
-5,
-5,
-5,
-5,
-5,
-5,
-6,
-6,
-6,
-6,
-5,
-5,
-5,
-5,
-6,
-6,
-6,
-6,
-6,
-6,
-5,
-5,
-5,
-5,
-5,
-5,
-5,
-5,
-5,
-5,
-5,
-5,
-5,
-5,
-5,
-5,
-5,
-5,
-5,
-5,
-5,
-5,
-6,
-6,
-6,
-6,
-5,
-5,
-6,
-6,
-5,
-5,
-5,
-5,
-5,
-5,
-5,
-5,
-5,
-5,
-5,
-5,
-5,
-5,
-5,
-5,
-5,
-5,
-5,
-5,
-4,
-4,
-5,
-5,
-5,
-5,
-6,
-6,
-5,
-5,
-5,
-5,
-6,
-6,
-5,
-5,
-5,
-5,
-6,
-6,
-5,
-5,
-5,
-5,
-5,
-5,
-6,
-6,
-6,
-6,
-6,
-6,
-6,
-6,
-5,
-5,
-5,
-5,
-5,
-5,
-5,
-5,
-6,
-6,
-5,
-5,
-5,
-5,
-5,
-5,
-6,
-6,
-7,
-7,
-6,
-6,
-6,
-6,
-5,
-5,
-5,
-5,
-5,
-5,
-5,
-5,
-5,
-5,
-5,
-5,
-6,
-6,
-5,
-5,
-7,
-7,
-5,
-5,
-5,
-5,
-6,
-6,
-5,
-5,
-5,
-5,
-6,
-6,
-7,
-7,
-5,
-5,
-5,
-5,
11,
27,
27,
40,
42,
42,
44,
