1-signale-auf-leitern/tag_1_daten/daten_versuch1/ALL0006/A0006CH1.CSV

Memory Length,4000,
Trigger Level,1.60000e+02,
Source,CH1,
Probe,1.0X,
Vertical Units,V,
Vertical Scale,2.00000e-01,
Vertical Position,0.00000e+00,
Horizontal Units,S,
Horizontal Scale,1.00000e-07,
Horizontal Position,2.6800000e-07,
Horizontal Mode,Main,
Sampling Period,1.00000e-09,
Firmware,V1.14,
Time, ,
Mode,Fast,
Waveform Data,
-2,
-2,
-2,
-3,
-2,
-2,
-2,
-1,
-1,
-1,
-1,
-2,
-1,
-2,
-2,
-1,
-1,
-2,
-2,
-2,
-1,
-2,
-2,
-1,
-1,
-1,
-1,
-2,
-2,
-2,
-2,
-1,
-1,
-2,
-1,
-2,
-1,
-1,
-1,
-1,
-1,
-1,
-1,
-2,
-1,
-2,
-2,
-1,
-1,
-1,
-1,
-2,
-1,
-2,
-2,
-1,
-1,
-2,
-2,
-2,
-1,
-1,
-2,
-1,
-1,
-2,
-2,
-2,
-1,
-1,
-1,
-1,
-1,
-2,
-2,
-2,
-2,
-2,
-2,
-1,
-1,
-1,
-1,
-2,
-1,
-2,
-2,
-1,
-1,
-1,
-1,
-2,
-2,
-1,
-1,
-1,
-1,
-1,
-1,
-2,
-1,
-2,
-2,
-1,
-1,
-2,
-2,
-2,
-2,
-2,
-2,
-1,
-1,
-1,
-1,
-2,
-1,
-1,
-1,
-1,
-1,
-1,
-1,
-2,
-1,
-2,
-2,
-1,
-1,
-1,
-1,
-1,
-1,
-2,
-2,
0,
0,
-1,
-1,
-2,
-1,
-1,
-1,
-1,
-1,
-1,
-1,
-2,
-1,
-2,
-2,
-1,
-1,
-1,
-1,
-2,
-1,
-1,
-1,
0,
0,
-1,
-1,
-2,
-1,
-1,
-1,
0,
0,
-1,
-1,
-2,
-1,
-1,
-1,
-1,
-1,
-1,
-1,
-1,
0,
-2,
-2,
-1,
-1,
-1,
-1,
-2,
-2,
-1,
-1,
-1,
-1,
-1,
-1,
-1,
-1,
0,
-1,
0,
0,
-1,
-1,
0,
0,
-2,
-2,
-1,
-1,
-1,
-1,
-2,
0,
-1,
-1,
-1,
-1,
-1,
-1,
-2,
-1,
-1,
-1,
0,
1,
-2,
-3,
-1,
0,
-1,
-2,
0,
0,
-2,
-2,
-2,
-1,
-1,
-1,
-1,
-1,
-1,
-1,
-1,
0,
-1,
-1,
-1,
-1,
-1,
-2,
-1,
0,
0,
-1,
0,
0,
-1,
-2,
-1,
0,
-1,
-1,
-1,
-1,
-1,
-1,
0,
1,
0,
-1,
0,
1,
-2,
-3,
-1,
0,
-2,
-2,
0,
-1,
-1,
0,
-1,
-1,
-1,
-1,
-1,
-1,
-1,
-1,
-1,
0,
-1,
-2,
-1,
-1,
-2,
-2,
-1,
0,
0,
-1,
-1,
-1,
-1,
-1,
-1,
-1,
-2,
-2,
-1,
-1,
-1,
0,
-1,
0,
0,
-1,
0,
1,
-1,
-3,
0,
0,
-1,
-1,
-1,
-1,
-1,
0,
-2,
-1,
-1,
-1,
-1,
-1,
-2,
-2,
-1,
-1,
-1,
-1,
0,
1,
-2,
-3,
-1,
0,
0,
0,
-1,
-1,
-1,
0,
-1,
-1,
-1,
-1,
0,
0,
-1,
-1,
0,
1,
0,
-1,
0,
1,
-2,
-3,
-1,
0,
-1,
-1,
-1,
-1,
-1,
-1,
-2,
-1,
0,
0,
0,
-1,
0,
1,
0,
1,
0,
-1,
0,
1,
-2,
-3,
-1,
0,
-1,
-1,
-1,
-1,
-1,
0,
-1,
0,
-1,
-1,
0,
0,
-1,
-1,
-1,
1,
0,
-1,
0,
1,
-2,
-3,
-1,
0,
-1,
-1,
-1,
-1,
0,
0,
0,
-1,
-1,
-1,
0,
0,
-1,
-1,
0,
1,
0,
-1,
-1,
-1,
-1,
-1,
-1,
0,
-1,
-1,
0,
0,
0,
0,
-1,
-1,
-1,
-1,
0,
0,
-1,
-1,
0,
1,
0,
-1,
0,
1,
-1,
-2,
-1,
0,
0,
0,
-1,
-1,
0,
0,
0,
0,
-2,
-2,
0,
0,
0,
0,
-1,
0,
0,
-1,
0,
1,
-2,
-2,
-1,
0,
0,
0,
-1,
-1,
0,
1,
-1,
0,
-1,
-1,
0,
0,
-1,
0,
0,
1,
-1,
-1,
0,
0,
-1,
-1,
-1,
0,
-1,
-2,
-1,
-1,
-1,
-1,
-1,
-1,
0,
0,
0,
0,
0,
0,
0,
1,
-1,
-2,
0,
0,
-1,
-1,
-1,
-1,
0,
0,
0,
0,
0,
-1,
0,
0,
-1,
-1,
-1,
-1,
-1,
-1,
-1,
-1,
-2,
-2,
0,
1,
-2,
-3,
-1,
0,
0,
-1,
-1,
-1,
0,
0,
-1,
-1,
0,
0,
0,
1,
-1,
-2,
-1,
0,
-1,
-1,
-1,
-1,
-1,
0,
-1,
0,
-1,
-1,
0,
1,
-1,
-2,
-1,
0,
-1,
-1,
-1,
-1,
-1,
0,
0,
1,
-1,
-2,
0,
1,
-1,
-1,
-1,
0,
-1,
-1,
-1,
-1,
0,
0,
0,
2,
0,
-1,
-1,
-1,
-1,
-1,
-1,
0,
-1,
-1,
0,
0,
-1,
0,
-1,
0,
0,
-1,
-1,
0,
-1,
-1,
-1,
-1,
0,
-1,
0,
0,
-1,
-1,
-1,
0,
-1,
-2,
0,
0,
-1,
-1,
-1,
0,
-1,
-1,
-1,
-1,
0,
0,
-1,
0,
0,
0,
-1,
-1,
0,
0,
0,
0,
-2,
-2,
0,
1,
-2,
-3,
-1,
0,
-1,
-1,
-1,
-1,
-1,
-1,
0,
0,
-2,
-2,
0,
0,
-1,
-1,
-1,
0,
0,
0,
0,
0,
0,
0,
-1,
0,
-1,
-1,
-1,
-1,
-1,
-1,
-2,
-2,
-1,
-1,
0,
0,
-1,
-1,
0,
1,
0,
-1,
0,
0,
-1,
-1,
-1,
-1,
0,
-1,
-1,
-1,
-1,
-1,
-1,
0,
-1,
-1,
0,
0,
-1,
-1,
0,
0,
-1,
-1,
0,
0,
-1,
-2,
-1,
0,
-1,
-1,
0,
0,
0,
1,
0,
0,
-1,
-1,
0,
1,
-1,
-2,
-1,
0,
-1,
-1,
-1,
-1,
-1,
0,
-1,
0,
0,
-1,
0,
0,
-1,
0,
-1,
-1,
-1,
-1,
0,
0,
-1,
-1,
-1,
0,
-1,
-1,
-1,
-1,
-1,
0,
-1,
0,
-1,
-1,
0,
0,
0,
0,
0,
1,
0,
-1,
-1,
-1,
-1,
-1,
-2,
-1,
-1,
-1,
0,
1,
-1,
-2,
-1,
0,
0,
-1,
-1,
-1,
-1,
0,
-1,
0,
-1,
-1,
0,
0,
-1,
-1,
-2,
-1,
-1,
-2,
0,
0,
-1,
-1,
-1,
0,
0,
-1,
0,
1,
-1,
-2,
-1,
0,
-1,
-1,
-1,
-1,
0,
1,
0,
1,
0,
-1,
-1,
0,
-1,
-1,
-1,
0,
-1,
-1,
0,
1,
-2,
-3,
-1,
0,
-1,
-1,
-1,
-1,
-1,
0,
-2,
-1,
-1,
-1,
1,
1,
-1,
0,
0,
1,
0,
-1,
0,
0,
0,
0,
-1,
0,
-1,
-1,
0,
0,
-1,
0,
-1,
-1,
0,
0,
0,
0,
-1,
-1,
-1,
1,
-1,
-2,
0,
1,
-1,
-2,
-1,
0,
-1,
-1,
-1,
-1,
0,
0,
0,
1,
-1,
-2,
0,
0,
-1,
0,
-1,
-1,
0,
0,
0,
1,
-1,
-2,
-2,
-1,
-1,
-1,
0,
-1,
-1,
0,
-1,
0,
-1,
-1,
-1,
-1,
-1,
-1,
-1,
0,
-1,
-2,
0,
0,
-1,
-1,
-1,
-1,
0,
-1,
0,
1,
-1,
-2,
-1,
0,
-1,
-1,
0,
0,
-1,
0,
-1,
0,
0,
-1,
-1,
-1,
0,
0,
0,
0,
-1,
-1,
0,
0,
-1,
-1,
-2,
-1,
-1,
-1,
0,
1,
-2,
-2,
-1,
0,
-1,
-1,
0,
-1,
-1,
0,
0,
1,
0,
-1,
-1,
-1,
0,
0,
-1,
-1,
-2,
-2,
-1,
-1,
-1,
0,
-1,
0,
-1,
-1,
0,
1,
-1,
-2,
-1,
0,
-1,
-1,
-1,
-1,
0,
0,
-1,
1,
-1,
-2,
-1,
-1,
-1,
-1,
-1,
0,
-1,
-1,
0,
1,
-2,
-3,
-1,
0,
0,
0,
-1,
-1,
0,
0,
-1,
0,
-1,
-1,
0,
0,
-1,
0,
0,
1,
-1,
-2,
0,
0,
-1,
-1,
-1,
-1,
-1,
-1,
-1,
-1,
-1,
0,
-1,
-1,
0,
0,
-1,
-1,
-1,
0,
-1,
0,
-2,
-2,
-1,
-1,
-2,
-2,
-1,
-1,
0,
-1,
0,
0,
-1,
-1,
-2,
-1,
-1,
-1,
0,
0,
-2,
-2,
-1,
0,
-1,
-1,
0,
0,
-1,
0,
-1,
-1,
-1,
-1,
-1,
-1,
-1,
-1,
-2,
-1,
-1,
-1,
0,
1,
-1,
-2,
-1,
0,
-1,
-2,
-1,
-1,
-1,
0,
-1,
-1,
0,
0,
-1,
-1,
-1,
0,
-1,
0,
-1,
-1,
1,
1,
-2,
-3,
-1,
0,
-1,
-1,
1,
1,
-1,
-1,
-1,
0,
-1,
-1,
-1,
-1,
-1,
0,
0,
1,
0,
-1,
0,
1,
-1,
-2,
-1,
0,
-1,
-1,
-1,
-1,
-1,
0,
-2,
-1,
-1,
-1,
0,
0,
0,
0,
-1,
-1,
0,
0,
-1,
-1,
0,
0,
-1,
0,
-1,
-2,
0,
0,
0,
0,
-1,
-1,
-1,
-1,
0,
0,
0,
0,
0,
1,
0,
-1,
0,
1,
-1,
-2,
-2,
-1,
-1,
-2,
0,
0,
0,
0,
0,
0,
-1,
-1,
-1,
-1,
-1,
-1,
-1,
0,
-2,
-2,
0,
1,
-2,
-3,
-1,
0,
-1,
-1,
-1,
-1,
-1,
0,
-1,
-1,
-1,
-1,
0,
1,
-1,
-2,
0,
1,
-1,
-2,
-1,
-1,
-1,
0,
-1,
-1,
0,
0,
-1,
-1,
-1,
-1,
-1,
-1,
-1,
-1,
0,
0,
-1,
-1,
-1,
1,
-1,
-2,
0,
1,
-1,
-2,
-1,
0,
-1,
-1,
-1,
-1,
-1,
-1,
0,
1,
0,
-1,
0,
1,
-2,
-3,
-2,
-1,
-1,
-2,
0,
0,
-1,
-1,
-1,
0,
-1,
-1,
-1,
-1,
-1,
0,
-1,
-1,
-1,
-1,
0,
0,
-1,
-1,
0,
1,
0,
-1,
-1,
0,
-1,
-1,
-2,
-1,
-1,
-1,
1,
1,
-1,
-2,
-1,
1,
0,
-1,
-1,
-1,
0,
0,
-1,
0,
-1,
-1,
0,
1,
-1,
-2,
-1,
0,
-1,
-1,
-1,
-1,
0,
0,
-2,
-1,
-1,
-1,
1,
1,
-2,
-2,
-2,
-1,
-1,
-1,
-1,
-1,
0,
0,
0,
1,
-2,
-2,
0,
0,
-1,
0,
-1,
-1,
-1,
-1,
0,
0,
-1,
0,
0,
1,
-1,
-2,
0,
1,
-1,
-1,
-1,
-1,
0,
0,
-1,
-1,
0,
0,
0,
1,
-1,
-2,
-1,
-1,
-1,
0,
-1,
-1,
0,
0,
-1,
0,
-2,
-3,
-1,
0,
-1,
-2,
-1,
-1,
0,
0,
-1,
-1,
-1,
-1,
0,
1,
-1,
-2,
0,
1,
-1,
-2,
-1,
-2,
-1,
0,
-1,
0,
0,
-1,
-1,
0,
-1,
-2,
-1,
0,
-1,
-1,
-1,
-1,
-1,
-1,
-1,
0,
0,
-1,
0,
1,
-2,
-2,
-1,
0,
-1,
-1,
-1,
-1,
-1,
-1,
-1,
0,
0,
-1,
-1,
-1,
-1,
-1,
-2,
-1,
-1,
-1,
0,
0,
-1,
0,
-1,
0,
0,
-1,
-1,
-1,
-1,
0,
-2,
-1,
0,
-1,
0,
0,
0,
0,
0,
2,
-1,
-2,
-1,
-1,
-1,
-1,
-1,
0,
-2,
-2,
0,
1,
-1,
-2,
-1,
0,
-1,
-1,
-1,
-1,
-1,
0,
-1,
0,
-1,
-1,
1,
1,
-2,
-3,
-1,
0,
-1,
-1,
-1,
-1,
-1,
-1,
0,
0,
0,
0,
-1,
-1,
0,
0,
-1,
-1,
-1,
-1,
1,
1,
-1,
-1,
0,
1,
0,
-1,
-1,
-1,
-1,
-1,
-1,
-1,
-1,
-1,
0,
0,
-1,
-1,
0,
1,
-2,
-2,
-1,
-1,
-1,
0,
-1,
-1,
-1,
-1,
0,
1,
-1,
-2,
-1,
0,
0,
0,
-1,
-1,
0,
0,
0,
1,
-1,
-2,
0,
1,
-2,
-2,
-2,
-1,
-2,
-2,
-1,
-1,
0,
0,
0,
0,
-1,
-1,
-1,
0,
-2,
-3,
-2,
-1,
-1,
-1,
-1,
-2,
0,
1,
0,
1,
-1,
-2,
0,
0,
-1,
-1,
-1,
-1,
0,
0,
0,
1,
-1,
-2,
0,
1,
-1,
-2,
-1,
-1,
-1,
0,
-1,
0,
-1,
-1,
0,
1,
-2,
-3,
0,
2,
4,
5,
9,
11,
19,
22,
26,
29,
36,
37,
43,
45,
47,
48,
51,
53,
54,
55,
57,
57,
58,
60,
61,
63,
62,
61,
62,
63,
63,
64,
62,
63,
63,
63,
64,
65,
63,
63,
63,
64,
62,
62,
63,
63,
60,
60,
61,
61,
60,
60,
60,
60,
59,
59,
57,
58,
57,
56,
57,
57,
56,
56,
55,
56,
53,
52,
54,
55,
53,
53,
52,
53,
51,
50,
51,
52,
50,
51,
51,
52,
49,
48,
49,
50,
47,
46,
47,
48,
46,
46,
47,
47,
46,
45,
44,
45,
44,
44,
44,
44,
43,
43,
42,
42,
41,
40,
42,
42,
41,
41,
40,
41,
39,
39,
40,
40,
40,
40,
38,
38,
38,
37,
38,
38,
37,
38,
37,
38,
36,
36,
36,
36,
33,
34,
34,
34,
34,
34,
34,
34,
33,
34,
31,
32,
32,
32,
33,
33,
31,
31,
30,
31,
30,
31,
31,
31,
29,
30,
29,
30,
28,
28,
29,
30,
28,
28,
27,
28,
27,
27,
28,
27,
27,
27,
25,
26,
26,
25,
25,
25,
26,
27,
25,
25,
25,
25,
24,
25,
24,
24,
24,
25,
22,
22,
23,
23,
23,
23,
22,
23,
21,
21,
22,
22,
23,
23,
21,
22,
20,
20,
21,
21,
21,
22,
19,
20,
19,
19,
20,
21,
20,
20,
18,
19,
19,
19,
19,
19,
18,
19,
17,
18,
18,
18,
18,
18,
17,
18,
17,
18,
16,
16,
17,
17,
16,
17,
15,
16,
16,
15,
16,
16,
15,
15,
15,
16,
14,
14,
16,
15,
14,
14,
15,
16,
14,
14,
14,
14,
13,
14,
13,
14,
13,
13,
13,
13,
13,
13,
13,
14,
13,
13,
12,
12,
12,
13,
13,
14,
12,
11,
12,
12,
11,
12,
11,
11,
12,
11,
11,
11,
11,
12,
11,
12,
10,
9,
11,
11,
10,
10,
10,
10,
10,
10,
11,
11,
10,
10,
10,
10,
9,
8,
10,
10,
9,
9,
8,
9,
9,
9,
9,
9,
9,
9,
8,
9,
8,
8,
9,
9,
9,
9,
7,
8,
7,
7,
8,
8,
8,
9,
7,
7,
7,
6,
8,
8,
8,
8,
6,
7,
7,
7,
7,
7,
8,
8,
7,
8,
6,
6,
7,
6,
6,
7,
6,
6,
6,
5,
6,
6,
6,
6,
5,
6,
6,
5,
7,
7,
6,
6,
5,
6,
5,
5,
7,
6,
5,
5,
5,
5,
4,
4,
5,
5,
5,
5,
5,
5,
4,
4,
6,
6,
4,
4,
4,
5,
4,
4,
4,
5,
4,
4,
4,
5,
4,
3,
5,
5,
4,
4,
3,
4,
3,
3,
5,
5,
4,
4,
3,
4,
3,
3,
4,
4,
4,
4,
3,
4,
3,
3,
4,
4,
4,
4,
3,
4,
3,
3,
4,
4,
3,
3,
3,
4,
3,
3,
3,
3,
3,
3,
2,
3,
3,
3,
4,
4,
3,
3,
3,
4,
2,
2,
3,
3,
2,
3,
1,
2,
2,
2,
3,
3,
2,
2,
2,
2,
2,
2,
3,
3,
2,
3,
1,
2,
2,
2,
4,
4,
2,
2,
1,
2,
2,
2,
3,
3,
2,
2,
1,
2,
1,
1,
2,
2,
1,
2,
1,
2,
1,
1,
2,
2,
1,
2,
1,
2,
1,
1,
2,
2,
2,
2,
1,
2,
1,
1,
2,
2,
2,
2,
0,
1,
1,
0,
1,
1,
1,
2,
1,
2,
1,
0,
2,
2,
1,
1,
0,
1,
1,
0,
1,
1,
1,
1,
1,
1,
1,
0,
1,
1,
1,
1,
0,
1,
1,
1,
1,
1,
1,
2,
0,
0,
0,
0,
1,
1,
1,
1,
0,
1,
2,
2,
1,
0,
1,
2,
0,
1,
0,
0,
1,
1,
0,
1,
0,
1,
1,
0,
1,
1,
0,
0,
0,
1,
1,
1,
1,
1,
1,
2,
0,
1,
1,
1,
0,
0,
1,
1,
1,
4,
0,
0,
0,
1,
1,
2,
-1,
0,
1,
1,
0,
0,
0,
1,
0,
0,
0,
0,
0,
0,
0,
0,
0,
1,
0,
0,
1,
1,
1,
1,
0,
2,
0,
0,
0,
0,
2,
3,
1,
0,
-1,
0,
0,
-1,
0,
0,
0,
2,
1,
0,
0,
-1,
0,
1,
-1,
-1,
0,
0,
0,
1,
0,
0,
-1,
0,
0,
0,
0,
0,
0,
0,
0,
2,
0,
-1,
1,
1,
0,
0,
0,
1,
1,
1,
1,
0,
0,
0,
-1,
0,
0,
-1,
1,
1,
-1,
-1,
0,
1,
0,
0,
0,
0,
0,
1,
0,
2,
0,
-1,
1,
1,
-1,
-1,
-1,
-1,
0,
0,
0,
0,
0,
0,
0,
2,
-1,
-2,
0,
0,
0,
1,
-1,
-1,
-1,
0,
0,
0,
0,
0,
0,
2,
0,
-1,
0,
0,
0,
0,
-1,
0,
0,
0,
1,
1,
-1,
-1,
0,
1,
0,
-1,
-1,
-1,
0,
0,
1,
0,
-1,
-1,
1,
1,
-1,
-2,
-1,
0,
-1,
-1,
-1,
-1,
0,
0,
-1,
0,
0,
-1,
0,
0,
0,
0,
-1,
0,
-1,
-1,
0,
0,
-1,
-1,
0,
1,
0,
-1,
0,
0,
0,
0,
-1,
-1,
-1,
-1,
0,
0,
0,
0,
1,
1,
-2,
-2,
0,
0,
-1,
0,
-1,
0,
0,
-1,
0,
0,
0,
0,
-1,
0,
-1,
-1,
0,
0,
-1,
-1,
-1,
0,
-1,
-1,
0,
0,
-1,
-2,
0,
0,
-1,
-1,
-1,
-1,
-1,
0,
-2,
-2,
0,
-1,
-1,
-1,
-1,
-1,
-1,
-1,
0,
-1,
0,
0,
0,
0,
-1,
0,
-1,
-1,
0,
0,
0,
0,
0,
0,
-1,
-1,
0,
0,
-1,
-1,
-1,
0,
0,
-1,
0,
0,
-1,
-1,
-1,
0,
0,
-1,
0,
0,
-1,
-1,
-1,
0,
0,
-1,
0,
-1,
0,
1,
-1,
0,
-1,
-1,
0,
0,
-1,
-1,
-1,
-1,
0,
0,
-1,
-1,
-1,
-1,
0,
0,
-1,
-1,
0,
0,
-1,
-1,
-1,
-1,
0,
-1,
-1,
-1,
-1,
-1,
-1,
0,
-1,
-1,
0,
0,
0,
0,
-1,
-1,
-1,
-1,
0,
1,
-1,
-2,
-1,
0,
-1,
-1,
0,
0,
0,
0,
0,
0,
0,
-1,
0,
1,
-2,
-3,
0,
1,
-2,
-2,
0,
0,
0,
1,
-1,
0,
0,
-1,
0,
1,
-2,
-2,
-1,
0,
-1,
-1,
-1,
-1,
-1,
0,
-1,
0,
-1,
-2,
0,
0,
-1,
0,
0,
0,
-1,
-1,
0,
0,
0,
0,
-1,
0,
0,
-1,
-1,
-1,
0,
0,
0,
0,
0,
0,
0,
0,
0,
0,
0,
1,
-1,
-2,
-1,
-1,
-1,
-1,
-2,
-1,
-1,
-1,
0,
0,
-1,
-1,
-1,
-1,
-1,
-1,
0,
0,
-1,
-1,
-1,
0,
-1,
-1,
0,
0,
-1,
-1,
-1,
0,
-2,
-2,
0,
0,
-1,
-1,
-1,
0,
0,
0,
0,
1,
-1,
-2,
-2,
-1,
-2,
-2,
0,
0,
-1,
-1,
-1,
-1,
0,
0,
-1,
-1,
-1,
0,
-1,
0,
-1,
-1,
-1,
-1,
-1,
-1,
-1,
-1,
-1,
-1,
0,
0,
-1,
-1,
-2,
-1,
-1,
-1,
1,
1,
-2,
-3,
0,
1,
0,
-1,
0,
0,
-1,
-1,
-1,
0,
-1,
-1,
-1,
-1,
0,
0,
-1,
0,
-1,
-1,
0,
1,
-1,
-2,
-1,
0,
-1,
-2,
0,
0,
-1,
0,
-1,
0,
-1,
-1,
-1,
-1,
-1,
0,
1,
1,
-1,
-2,
0,
0,
-1,
-1,
-1,
0,
-1,
-1,
-1,
-1,
-1,
-1,
-2,
-1,
-1,
-1,
0,
0,
-1,
-1,
0,
1,
0,
-1,
-1,
-1,
-1,
-1,
0,
0,
-1,
-1,
0,
0,
-1,
-1,
-1,
0,
-1,
-1,
-1,
-1,
-1,
-1,
-1,
-1,
-1,
-1,
0,
1,
-2,
-3,
-1,
0,
-1,
-1,
-1,
-1,
0,
0,
0,
0,
-1,
-2,
0,
0,
-1,
0,
-1,
-1,
0,
0,
-1,
-1,
-1,
-1,
0,
0,
-1,
-1,
1,
1,
-1,
-2,
-2,
-1,
-1,
-1,
0,
-1,
-1,
0,
0,
1,
-1,
-2,
0,
0,
-1,
-1,
-1,
0,
0,
-1,
0,
1,
-1,
-2,
0,
0,
-2,
-2,
-1,
-1,
-1,
0,
-1,
-1,
0,
0,
0,
1,
-1,
-2,
-1,
1,
0,
-1,
-1,
-1,
0,
0,
0,
0,
-1,
-1,
-1,
-1,
-1,
-1,
-1,
-1,
-1,
-1,
0,
0,
-1,
0,
0,
1,
0,
-1,
-1,
0,
-1,
-2,
-1,
0,
-1,
-1,
0,
-1,
-1,
-1,
-1,
1,
-1,
-2,
0,
0,
-1,
0,
-1,
-1,
0,
-1,
0,
1,
-2,
-3,
-1,
0,
-1,
-1,
-1,
-1,
0,
0,
0,
-1,
-2,
-2,
0,
0,
-1,
-1,
-1,
-1,
0,
-1,
-1,
-1,
-1,
-1,
0,
0,
-1,
-1,
1,
1,
-1,
-2,
-1,
-1,
-1,
-1,
-1,
-1,
-1,
0,
0,
1,
-1,
-2,
0,
1,
-2,
-3,
-1,
-1,
0,
0,
-1,
-1,
-1,
-1,
-1,
0,
-2,
-2,
0,
-1,
-1,
0,
-1,
0,
-1,
-1,
0,
1,
-1,
-2,
1,
2,
-1,
-2,
-1,
-1,
0,
0,
-1,
-1,
-1,
-1,
0,
1,
-2,
-2,
0,
1,
0,
-1,
-1,
-1,
-1,
-1,
-1,
0,
0,
0,
-1,
-1,
-1,
-1,
0,
-1,
-2,
-2,
0,
0,
-1,
-1,
-1,
0,
-1,
-2,
0,
0,
-1,
-1,
-1,
0,
0,
0,
-1,
-1,
-1,
0,
-1,
1,
-1,
-2,
-1,
-1,
-1,
0,
-1,
-1,
-1,
-1,
1,
1,
-2,
-3,
-1,
0,
0,
-1,
-1,
-1,
0,
0,
-1,
-1,
0,
-1,
-1,
0,
-1,
-1,
-1,
0,
-1,
-1,
0,
-1,
-1,
-2,
-2,
-1,
-1,
-1,
0,
1,
-1,
-2,
-2,
-2,
-1,
-1,
-1,
-1,
0,
1,
1,
1,
-2,
-2,
0,
1,
-2,
-2,
-1,
0,
0,
-1,
-1,
-1,
0,
0,
-1,
0,
-1,
-1,
1,
1,
-1,
-2,
0,
0,
-2,
-2,
-1,
-1,
-1,
-1,
0,
1,
0,
-1,
-1,
-1,
-1,
0,
-1,
-1,
-1,
-1,
-1,
-1,
-1,
-1,
0,
1,
-1,
-2,
0,
0,
-1,
-1,
-2,
-1,
-1,
-1,
0,
0,
-1,
-1,
1,
1,
0,
-1,
-1,
0,
-1,
-1,
-1,
0,
-1,
-1,
0,
1,
-1,
-2,
-1,
0,
-1,
-1,
-1,
-1,
-1,
0,
-1,
0,
-1,
-1,
0,
0,
-2,
-3,
-2,
-2,
-1,
-1,
-1,
-1,
-1,
0,
0,
0,
-1,
-1,
-1,
-1,
-1,
-1,
-2,
-2,
-1,
-1,
0,
0,
-1,
-1,
0,
2,
0,
-1,
-1,
-1,
-1,
-1,
-1,
0,
-1,
-1,
0,
1,
-2,
-2,
-1,
0,
0,
0,
-1,
-1,
-1,
0,
-1,
0,
-1,
-1,
0,
1,
-1,
-2,
-1,
0,
-2,
-2,
-1,
-1,
-1,
0,
-1,
0,
-1,
-1,
0,
0,
-1,
-1,
-2,
-1,
0,
0,
0,
0,
0,
0,
0,
1,
-1,
-2,
-1,
-1,
-2,
-2,
-2,
-1,
-1,
-1,
0,
0,
-1,
-1,
-1,
0,
0,
-1,
-1,
-1,
-2,
-2,
-2,
-1,
0,
-1,
1,
1,
-2,
-2,
-1,
0,
-1,
-1,
-1,
-1,
-1,
-1,
-1,
0,
0,
0,
-1,
0,
-2,
-3,
-2,
-1,
-1,
-1,
-1,
-1,
-1,
0,
-1,
0,
-1,
-1,
1,
1,
-1,
-2,
-1,
0,
-1,
-1,
0,
-1,
0,
0,
0,
1,
-2,
-2,
-1,
-1,
-1,
-1,
-1,
-1,
-2,
-2,
0,
1,
-2,
-4,
-1,
0,
0,
0,
-1,
-1,
-1,
0,
-1,
-1,
-1,
-1,
0,
0,
-1,
-1,
-1,
1,
-1,
-2,
-1,
-1,
-2,
-2,
0,
0,
-1,
-1,
0,
1,
-1,
-1,
-1,
0,
-1,
-1,
-1,
-1,
-1,
0,
0,
1,
0,
-1,
-1,
0,
-2,
-3,
-1,
0,
-1,
-1,
-1,
-1,
-1,
-1,
-1,
0,
0,
0,
0,
0,
-1,
-1,
-2,
-1,
-1,
-1,
0,
0,
-1,
-1,
0,
1,
0,
-1,
-1,
0,
-1,
-1,
-1,
-1,
-1,
-1,
0,
0,
-1,
-1,
-1,
0,
0,
-1,
-1,
-1,
0,
0,
-1,
-1,
-1,
-1,
1,
1,
-2,
-4,
0,
0,
-2,
-2,
-1,
-1,
-1,
0,
-1,
-1,
-1,
-1,
0,
1,
-1,
-2,
-2,
-1,
-1,
-1,
-1,
-1,
-1,
0,
-2,
-1,
-1,
-1,
0,
1,
-1,
-2,
-1,
0,
-1,
-1,
0,
-1,
-1,
0,
1,
1,
-1,
-2,
0,
1,
-1,
-2,
-2,
-1,
-1,
-1,
0,
0,
-1,
0,
0,
1,
0,
-1,
-1,
0,
-1,
0,
-2,
-1,
-1,
-1,
0,
0,
-1,
0,
1,
2,
0,
-1,
-1,
-1,
-1,
-2,
-1,
-1,
-2,
-2,
1,
1,
-1,
-2,
0,
1,
0,
-1,
-1,
-1,
0,
0,
-1,
0,
-2,
-2,
0,
0,
-2,
-2,
-2,
-1,
0,
-1,
-1,
-1,
0,
0,
0,
0,
-1,
-1,
0,
1,
-2,
-3,
-1,
-1,
-1,
-1,
-1,
-1,
0,
0,
0,
1,
-1,
-2,
0,
0,
-1,
-1,
-1,
-1,
1,
0,
0,
1,
-2,
-3,
-1,
0,
-2,
-2,
-1,
-1,
-1,
0,
-1,
0,
0,
0,
0,
1,
-1,
-2,
-1,
1,
-1,
-2,
0,
-1,
-1,
-1,
-1,
-1,
0,
0,
0,
1,
-1,
-2,
-1,
0,
-1,
-1,
-1,
-1,
-1,
0,
-1,
0,
0,
-1,
-1,
0,
0,
0,
-1,
-1,
-1,
-1,
0,
0,
-1,
-1,
-1,
0,
0,
-1,
-1,
0,
-1,
-2,
-1,
0,
-2,
-2,
-1,
-1,
-1,
0,
0,
1,
0,
-1,
-1,
0,
-1,
-1,
-1,
-1,
-2,
-2,
0,
1,
-2,
-3,
-1,
0,
-1,
-1,
-1,
-1,
-1,
0,
-1,
-1,
-1,
-1,
-1,
-1,
-2,
-2,
-1,
0,
0,
-1,
0,
0,
-1,
-1,
-1,
0,
-1,
-1,
0,
1,
-2,
-2,
-1,
-1,
-1,
-1,
-1,
-1,
-1,
-1,
0,
1,
0,
-1,
0,
1,
-2,
-3,
-1,
0,
-1,
-1,
-1,
-1,
-1,
0,
-1,
0,
0,
-1,
0,
0,
-1,
0,
-1,
-1,
0,
-1,
0,
1,
-1,
-2,
-1,
1,
-1,
-2,
-1,
-1,
-1,
0,
-1,
-1,
-2,
-2,
0,
0,
-1,
-1,
0,
1,
0,
-1,
-1,
-1,
-1,
-1,
-1,
0,
-1,
-1,
0,
1,
-1,
-2,
0,
0,
-2,
-2,
0,
-1,
-1,
0,
-1,
0,
0,
-1,
-1,
