5-grundlagen-opAmps/data/ALL0032/A0032CH1.CSV

Memory Length,4000,
Trigger Level,0.00000e+00,
Source,CH1,
Probe,1.0X,
Vertical Units,V,
Vertical Scale,5.00000e-02,
Vertical Position,0.00000e+00,
Horizontal Units,S,
Horizontal Scale,1.00000e-07,
Horizontal Position,1.0000000e-07,
Horizontal Mode,Main,
Sampling Period,2.00000e-09,
Firmware,V1.14,
Time, ,
Mode,Fast,
Waveform Data,
-25,
-25,
-18,
-22,
-26,
-28,
-28,
-26,
-27,
-27,
-28,
-30,
-31,
-29,
-27,
-26,
-30,
-35,
-32,
-27,
-24,
-27,
-32,
-33,
-28,
-21,
-20,
-28,
-32,
-28,
-17,
-14,
-20,
-28,
-28,
-16,
-9,
-12,
-17,
-21,
-15,
-4,
-3,
-9,
-15,
-11,
0,
3,
1,
-5,
-5,
1,
9,
13,
5,
1,
2,
11,
18,
13,
9,
8,
13,
19,
19,
16,
14,
14,
19,
26,
21,
18,
17,
19,
22,
25,
20,
18,
18,
20,
22,
21,
20,
17,
17,
18,
19,
19,
16,
13,
12,
13,
15,
15,
9,
5,
6,
7,
8,
5,
1,
0,
0,
1,
-1,
-4,
-5,
-9,
-10,
-8,
-8,
-11,
-15,
-16,
-17,
-16,
-15,
-18,
-20,
-26,
-24,
-16,
-19,
-26,
-32,
-31,
-23,
-19,
-27,
-36,
-34,
-27,
-21,
-24,
-33,
-39,
-32,
-22,
-23,
-30,
-38,
-35,
-24,
-20,
-25,
-30,
-31,
-25,
-20,
-21,
-23,
-24,
-23,
-19,
-16,
-16,
-16,
-16,
-13,
-13,
-10,
-8,
-9,
-10,
-8,
-2,
1,
-1,
-5,
-4,
3,
7,
6,
1,
1,
8,
14,
15,
10,
7,
11,
19,
20,
12,
11,
17,
22,
21,
15,
13,
19,
26,
24,
17,
16,
20,
27,
25,
18,
13,
16,
24,
25,
15,
11,
13,
20,
20,
16,
9,
9,
13,
14,
14,
8,
4,
4,
7,
7,
3,
1,
-2,
-2,
-1,
-1,
-3,
-8,
-15,
-12,
-5,
-4,
-12,
-22,
-24,
-14,
-7,
-14,
-27,
-30,
-24,
-14,
-13,
-27,
-36,
-33,
-21,
-18,
-25,
-37,
-37,
-28,
-21,
-24,
-32,
-37,
-30,
-24,
-24,
-27,
-35,
-33,
-28,
-21,
-23,
-29,
-31,
-28,
-21,
-20,
-21,
-20,
-24,
-22,
-16,
-12,
-15,
-18,
-16,
-14,
-8,
-7,
-9,
-10,
-7,
-3,
0,
0,
-2,
-2,
3,
6,
7,
6,
6,
8,
9,
10,
12,
12,
13,
13,
15,
17,
17,
18,
17,
17,
18,
20,
23,
20,
18,
17,
20,
23,
22,
18,
16,
17,
21,
24,
23,
16,
13,
14,
18,
23,
14,
8,
9,
13,
17,
13,
7,
1,
4,
9,
9,
3,
-4,
-5,
1,
3,
-2,
-10,
-12,
-6,
-6,
-6,
-13,
-17,
-16,
-14,
-13,
-15,
-20,
-23,
-20,
-19,
-20,
-23,
-27,
-27,
-25,
-25,
-27,
-27,
-29,
-31,
-29,
-28,
-27,
-30,
-33,
-31,
-27,
-27,
-29,
-30,
-28,
-27,
-26,
-28,
-28,
-27,
-24,
-20,
-25,
-27,
-22,
-17,
-16,
-21,
-24,
-16,
-10,
-8,
-14,
-16,
-12,
-3,
0,
-6,
-12,
-11,
4,
9,
1,
-6,
-4,
5,
14,
11,
4,
1,
8,
17,
19,
13,
6,
10,
18,
23,
19,
14,
16,
16,
24,
25,
21,
19,
15,
17,
23,
28,
23,
16,
14,
18,
28,
26,
16,
9,
12,
22,
27,
19,
4,
2,
16,
23,
16,
3,
-3,
4,
13,
11,
0,
-6,
-3,
2,
4,
-1,
-11,
-11,
-7,
-5,
-9,
-14,
-15,
-15,
-14,
-15,
-18,
-19,
-20,
-21,
-23,
-23,
-22,
-23,
-27,
-27,
-26,
-24,
-26,
-31,
-32,
-31,
-27,
-24,
-30,
-34,
-32,
-28,
-26,
-30,
-32,
-30,
-28,
-27,
-28,
-27,
-25,
-25,
-25,
-26,
-22,
-20,
-19,
-19,
-21,
-20,
-13,
-11,
-12,
-17,
-15,
-7,
-2,
-5,
-9,
-9,
-3,
3,
4,
0,
-4,
0,
9,
11,
6,
2,
5,
12,
14,
15,
11,
9,
12,
16,
21,
18,
15,
14,
18,
23,
21,
19,
17,
17,
22,
23,
23,
20,
18,
19,
21,
22,
18,
16,
17,
17,
19,
17,
14,
13,
12,
13,
11,
11,
9,
6,
6,
5,
4,
3,
2,
0,
-2,
-4,
-3,
-4,
-6,
-8,
-10,
-11,
-11,
-10,
-12,
-16,
-19,
-20,
-16,
-15,
-19,
-24,
-27,
-26,
-19,
-19,
-27,
-32,
-30,
-25,
-20,
-27,
-35,
-37,
-29,
-20,
-23,
-33,
-38,
-32,
-21,
-20,
-29,
-36,
-34,
-24,
-18,
-19,
-31,
-34,
-25,
-15,
-15,
-22,
-27,
-23,
-16,
-12,
-12,
-15,
-18,
-15,
-7,
-2,
-4,
-9,
-11,
-5,
2,
6,
1,
-4,
-3,
5,
13,
13,
3,
-1,
8,
20,
19,
11,
5,
9,
22,
25,
18,
11,
12,
20,
29,
24,
15,
14,
19,
27,
25,
18,
18,
19,
22,
20,
17,
17,
20,
19,
16,
14,
15,
18,
17,
12,
10,
9,
13,
12,
7,
3,
4,
8,
5,
1,
-2,
-2,
-1,
0,
-4,
-8,
-9,
-9,
-9,
-11,
-12,
-14,
-14,
-17,
-19,
-18,
-16,
-16,
-25,
-27,
-24,
-19,
-20,
-29,
-34,
-29,
-21,
-21,
-29,
-36,
-34,
-27,
-21,
-28,
-35,
-35,
-29,
-23,
-27,
-32,
-34,
-29,
-22,
-24,
-28,
-29,
-26,
-21,
-20,
-20,
-22,
-21,
-16,
-16,
-17,
-15,
-14,
-12,
-12,
-11,
-8,
-4,
-4,
-8,
-6,
-1,
3,
2,
1,
1,
3,
6,
11,
9,
8,
8,
12,
13,
13,
14,
14,
15,
16,
17,
19,
19,
19,
17,
18,
21,
25,
22,
18,
17,
19,
25,
25,
19,
14,
16,
23,
24,
19,
11,
10,
15,
21,
19,
12,
4,
7,
14,
17,
12,
1,
-2,
4,
9,
9,
-2,
-9,
-7,
0,
3,
-2,
-13,
-17,
-11,
-4,
-5,
-17,
-24,
-19,
-12,
-10,
-16,
-28,
-28,
-21,
-17,
-19,
-29,
-31,
-32,
-26,
-19,
-26,
-33,
-37,
-31,
-24,
-24,
-28,
-34,
-35,
-29,
-24,
-24,
-30,
-36,
-29,
-24,
-20,
-24,
-32,
-29,
-21,
-17,
-18,
-24,
-25,
-18,
-11,
-12,
-17,
-20,
-15,
-7,
-6,
-10,
-11,
-7,
-3,
-2,
-4,
-3,
1,
4,
5,
3,
2,
8,
12,
12,
8,
7,
11,
17,
17,
12,
12,
15,
20,
23,
18,
15,
18,
20,
21,
21,
18,
19,
20,
21,
21,
22,
22,
19,
15,
18,
22,
21,
16,
11,
12,
18,
19,
14,
7,
6,
13,
16,
12,
1,
-3,
2,
11,
9,
-3,
-11,
-6,
2,
2,
-7,
-13,
-12,
-7,
-5,
-12,
-16,
-18,
-15,
-14,
-19,
-21,
-23,
-20,
-19,
-23,
-26,
-28,
-23,
-27,
-30,
-29,
-28,
-23,
-29,
-34,
-32,
-27,
-25,
-28,
-32,
-34,
-30,
-27,
-28,
-29,
-32,
-28,
-24,
-23,
-26,
-26,
-24,
-23,
-22,
-21,
-17,
-17,
-20,
-20,
-16,
-9,
-8,
-12,
-15,
-13,
-5,
3,
-2,
-10,
-11,
0,
9,
7,
-1,
-6,
3,
13,
16,
9,
2,
5,
15,
22,
19,
10,
8,
17,
25,
25,
17,
12,
14,
22,
27,
24,
16,
13,
17,
25,
28,
21,
14,
13,
20,
26,
23,
17,
11,
13,
19,
21,
17,
8,
6,
12,
16,
13,
6,
3,
3,
8,
8,
3,
-2,
-4,
-1,
2,
-1,
-8,
-12,
-10,
-8,
-7,
-12,
-16,
-17,
-16,
-15,
-16,
-20,
-22,
-21,
-20,
-20,
-25,
-26,
-26,
-25,
-25,
-28,
-29,
-28,
-26,
-27,
-32,
-33,
-31,
-27,
-27,
-29,
-32,
-32,
-27,
-24,
-26,
-33,
-31,
-25,
-21,
-23,
-28,
-25,
-21,
-18,
-15,
-19,
-21,
-18,
-13,
-8,
-11,
-14,
-14,
-9,
-4,
-3,
-4,
-5,
-6,
-2,
4,
6,
3,
0,
0,
6,
13,
12,
7,
4,
10,
18,
22,
16,
7,
10,
21,
25,
19,
14,
13,
21,
28,
24,
17,
14,
20,
25,
24,
20,
15,
18,
22,
21,
18,
15,
16,
19,
16,
15,
16,
16,
14,
10,
6,
9,
12,
10,
5,
-3,
1,
5,
5,
1,
-8,
-8,
-1,
0,
-6,
-13,
-14,
-11,
-8,
-11,
-16,
-17,
-19,
-17,
-15,
-20,
-22,
-24,
-25,
-24,
-22,
-22,
-27,
-31,
-31,
-27,
-21,
-23,
-33,
-39,
-32,
-23,
-21,
-30,
-41,
-37,
-25,
-18,
-24,
-34,
-37,
-26,
-16,
-17,
-27,
-33,
-26,
-14,
-13,
-21,
-27,
-24,
-13,
-8,
-10,
-15,
-17,
-13,
-5,
-3,
-6,
-9,
-8,
-2,
2,
4,
3,
-1,
-1,
4,
12,
12,
6,
4,
9,
15,
18,
15,
12,
13,
19,
23,
19,
15,
14,
19,
27,
22,
17,
16,
19,
25,
24,
18,
18,
20,
22,
23,
17,
16,
18,
20,
20,
15,
11,
13,
17,
16,
11,
8,
7,
10,
10,
6,
3,
1,
2,
4,
3,
-3,
-8,
-7,
-2,
-2,
-8,
-14,
-16,
-13,
-10,
-11,
-18,
-19,
-21,
-17,
-15,
-19,
-27,
-29,
-24,
-19,
-21,
-27,
-33,
-31,
-25,
-24,
-28,
-31,
-35,
-31,
-26,
-26,
-29,
-35,
-35,
-28,
-22,
-25,
-30,
-33,
-28,
-23,
-20,
-24,
-27,
-28,
-21,
-14,
-16,
-22,
-25,
-18,
-12,
-10,
-10,
-15,
-12,
-9,
-4,
-4,
-7,
-7,
-3,
1,
1,
0,
4,
5,
6,
4,
6,
11,
10,
9,
9,
11,
15,
18,
18,
12,
11,
18,
25,
22,
15,
12,
16,
24,
26,
18,
16,
17,
25,
26,
23,
15,
15,
18,
22,
22,
18,
14,
15,
14,
15,
16,
15,
9,
5,
7,
12,
12,
6,
-2,
-2,
4,
9,
3,
-9,
-11,
-4,
3,
1,
-12,
-20,
-16,
-4,
-3,
-15,
-25,
-25,
-13,
-10,
-18,
-29,
-30,
-20,
-17,
-19,
-28,
-31,
-29,
-25,
-24,
-29,
-32,
-31,
-28,
-27,
-30,
-30,
-29,
-29,
-30,
-29,
-28,
-27,
-30,
-29,
-28,
-22,
-24,
-28,
-27,
-22,
-19,
-18,
-20,
-22,
-19,
-15,
-11,
-15,
-17,
-13,
-7,
-6,
-10,
-10,
-5,
0,
2,
-4,
-4,
0,
7,
10,
5,
0,
2,
14,
17,
11,
5,
6,
16,
22,
18,
13,
9,
18,
24,
23,
18,
13,
16,
22,
26,
22,
16,
14,
19,
25,
25,
21,
16,
15,
18,
23,
23,
15,
10,
12,
17,
20,
16,
8,
5,
7,
12,
14,
5,
-3,
-3,
6,
8,
1,
-7,
-9,
-4,
0,
-3,
-10,
-15,
-13,
-11,
-9,
-13,
-18,
-21,
-18,
-15,
-17,
-22,
-26,
-25,
-21,
-22,
-25,
-27,
-29,
-28,
-28,
-26,
-27,
-29,
-31,
-32,
-29,
-28,
-28,
-29,
-30,
-30,
-29,
-27,
-25,
-26,
-29,
-30,
-25,
-21,
-24,
-24,
-26,
-24,
-16,
-13,
-18,
-23,
-21,
-12,
-7,
-9,
-14,
-14,
-8,
-2,
0,
-5,
-7,
-6,
2,
7,
4,
1,
1,
4,
11,
12,
13,
8,
6,
11,
17,
20,
14,
11,
12,
17,
25,
24,
16,
14,
16,
25,
28,
20,
13,
15,
23,
28,
22,
13,
12,
19,
26,
24,
16,
8,
14,
19,
21,
14,
6,
7,
13,
14,
9,
3,
4,
8,
5,
1,
-2,
-1,
-1,
-2,
-5,
-7,
-6,
-6,
-8,
-12,
-14,
-14,
-13,
-15,
-17,
-19,
-20,
-18,
-22,
-23,
-20,
-23,
-23,
-29,
-28,
-24,
-24,
-27,
-34,
-31,
-26,
-25,
-29,
-35,
-34,
-26,
-22,
-27,
-38,
-37,
-25,
-18,
-21,
-34,
-37,
-27,
-15,
-16,
-28,
-31,
-25,
-14,
-10,
-16,
-23,
-24,
-12,
-4,
-7,
-14,
-15,
-10,
-2,
-1,
-3,
-5,
-4,
-1,
4,
6,
4,
1,
3,
8,
13,
15,
11,
5,
8,
17,
23,
20,
10,
8,
17,
27,
25,
16,
11,
17,
26,
27,
23,
15,
15,
23,
26,
25,
15,
15,
19,
22,
21,
17,
16,
16,
16,
16,
12,
12,
12,
9,
10,
6,
8,
8,
5,
3,
0,
1,
3,
1,
-6,
-8,
-5,
-4,
-6,
-9,
-15,
-14,
-13,
-12,
-12,
-18,
-22,
-23,
-18,
-17,
-20,
-25,
-29,
-26,
-22,
-22,
-27,
-31,
-30,
-29,
-25,
-27,
-31,
-34,
-32,
-26,
-25,
-30,
-34,
-33,
-27,
-24,
-27,
-29,
-32,
-29,
-24,
-19,
-22,
-27,
-25,
-23,
-15,
-15,
-20,
-20,
-19,
-14,
-8,
-8,
-14,
-15,
-7,
-1,
-1,
-5,
-8,
-2,
3,
4,
3,
-1,
2,
8,
12,
9,
6,
7,
13,
18,
14,
10,
14,
16,
21,
18,
13,
17,
21,
24,
20,
18,
17,
21,
25,
22,
18,
17,
21,
23,
21,
16,
16,
16,
20,
20,
17,
14,
11,
13,
16,
16,
11,
6,
4,
8,
10,
8,
6,
-3,
-4,
1,
7,
3,
-10,
-15,
-8,
1,
-2,
-14,
-24,
-19,
-7,
-5,
-16,
-27,
-29,
-17,
-9,
-15,
-29,
-36,
-27,
-15,
-18,
-29,
-36,
-32,
-24,
-23,
-28,
-33,
-34,
-32,
-28,
-26,
-28,
-32,
-34,
-31,
-26,
-23,
-25,
-29,
-30,
-27,
-21,
-16,
-23,
-28,
-26,
-17,
-12,
-16,
-22,
-23,
-13,
-6,
-9,
-13,
-16,
-9,
-1,
0,
-6,
-9,
-2,
3,
4,
2,
0,
5,
7,
6,
7,
8,
12,
11,
12,
11,
12,
18,
19,
17,
12,
14,
20,
23,
21,
14,
16,
21,
25,
24,
18,
16,
20,
24,
24,
19,
15,
17,
20,
21,
18,
15,
13,
14,
17,
15,
15,
9,
5,
7,
9,
13,
7,
2,
0,
0,
4,
3,
-3,
-9,
-9,
-3,
-1,
-9,
-16,
-19,
-13,
-9,
-11,
-19,
-24,
-19,
-17,
-17,
-24,
-28,
-26,
-23,
-20,
-26,
-28,
-29,
-28,
-25,
-27,
-32,
-32,
-30,
-27,
-28,
-29,
-32,
-30,
-28,
-30,
-28,
-29,
-27,
-26,
-26,
-26,
-28,
-24,
-19,
-20,
-22,
-25,
-23,
-15,
-13,
-15,
-16,
-17,
-13,
-5,
-4,
-10,
-12,
-8,
0,
2,
0,
-4,
-3,
3,
8,
9,
5,
2,
5,
13,
17,
14,
7,
8,
13,
20,
22,
16,
12,
12,
22,
27,
23,
15,
9,
17,
28,
30,
20,
12,
12,
25,
30,
25,
13,
9,
17,
27,
27,
14,
5,
9,
19,
21,
14,
3,
3,
11,
15,
12,
2,
-3,
1,
6,
6,
-1,
-7,
-7,
-4,
-6,
-7,
-7,
-11,
-15,
-14,
-13,
-11,
-15,
-20,
-23,
-20,
-16,
-18,
-26,
-29,
-27,
-23,
-21,
-26,
-31,
-32,
-27,
-26,
-27,
-33,
-33,
-27,
-25,
-28,
-33,
-31,
-27,
-27,
-31,
-31,
-27,
-24,
-25,
-28,
-29,
-25,
-20,
-18,
-25,
-27,
-20,
-11,
-11,
-18,
-24,
-17,
-6,
-5,
-9,
-14,
-11,
-3,
3,
1,
-8,
-5,
1,
6,
7,
3,
3,
5,
10,
10,
11,
12,
12,
12,
16,
17,
17,
16,
15,
16,
20,
23,
20,
16,
14,
19,
27,
25,
19,
14,
17,
24,
25,
19,
16,
16,
19,
21,
18,
15,
13,
15,
17,
15,
9,
9,
12,
12,
7,
3,
5,
5,
5,
0,
-4,
-1,
0,
0,
-6,
-10,
-9,
-8,
-7,
-11,
-17,
-17,
-16,
-11,
-15,
-21,
-26,
-22,
-18,
-19,
-20,
-30,
-29,
-26,
-24,
-20,
-29,
-34,
-32,
-28,
-23,
-27,
-32,
-36,
-31,
-25,
-25,
-27,
-36,
-35,
-27,
-20,
-21,
-30,
-34,
-28,
-18,
-16,
-24,
-29,
-27,
-18,
-10,
-12,
-19,
-23,
-16,
-5,
-4,
-8,
-16,
-15,
-2,
4,
4,
-4,
-9,
-3,
9,
13,
5,
-1,
0,
9,
15,
14,
9,
5,
11,
18,
20,
15,
10,
14,
21,
24,
19,
17,
17,
20,
22,
23,
20,
18,
18,
19,
23,
21,
20,
18,
16,
18,
19,
18,
17,
15,
11,
14,
16,
14,
10,
7,
7,
9,
7,
4,
4,
3,
3,
0,
-3,
-3,
-2,
-2,
-7,
-11,
-11,
-7,
-8,
-12,
-19,
-19,
-13,
-13,
-19,
-26,
-27,
-18,
-17,
-21,
-28,
-33,
-24,
-19,
-22,
-32,
-36,
-30,
-24,
-23,
-30,
-37,
-33,
-28,
-24,
-28,
-34,
-31,
-27,
-25,
-28,
-27,
-27,
-27,
-25,
-25,
-21,
-21,
-22,
-20,
-22,
-17,
-12,
-15,
-18,
-19,
-12,
-5,
-7,
-11,
-11,
-5,
0,
0,
-3,
-5,
1,
4,
7,
5,
2,
6,
10,
12,
9,
8,
14,
16,
15,
11,
15,
20,
21,
19,
13,
13,
23,
26,
23,
15,
14,
21,
29,
26,
14,
12,
17,
27,
26,
17,
12,
13,
21,
24,
18,
12,
7,
13,
17,
16,
9,
3,
5,
7,
10,
7,
0,
-3,
-6,
1,
6,
-1,
-9,
-14,
-9,
-1,
-3,
-11,
-23,
-20,
-12,
-8,
-14,
-24,
-29,
-23,
-12,
-13,
-26,
-34,
-32,
-23,
-17,
-26,
-34,
-35,
-27,
-22,
-25,
-31,
-38,
-34,
-27,
-22,
-28,
-34,
-35,
-29,
-23,
-24,
-29,
-31,
-28,
-23,
-20,
-20,
-25,
-25,
-21,
-16,
-15,
-17,
-16,
-15,
-13,
-12,
-9,
-11,
-9,
-7,
-6,
-2,
-4,
-2,
1,
1,
3,
2,
5,
8,
7,
7,
7,
11,
12,
13,
14,
13,
13,
17,
19,
19,
16,
17,
17,
18,
24,
20,
19,
17,
21,
24,
24,
20,
15,
16,
22,
25,
21,
14,
13,
17,
22,
22,
15,
8,
10,
15,
17,
12,
3,
2,
8,
11,
6,
0,
-4,
0,
3,
1,
-4,
-9,
-9,
-7,
-7,
-9,
-13,
-15,
-15,
-15,
-16,
-16,
-19,
-20,
-23,
-22,
-20,
-19,
-25,
-29,
-28,
-24,
-21,
-27,
-33,
-32,
-27,
-25,
-27,
-33,
-33,
-30,
-28,
-27,
-29,
-30,
-29,
-27,
-27,
-29,
-27,
-23,
-22,
-26,
-27,
-22,
-18,
-18,
-22,
-24,
-16,
-10,
-11,
-16,
-19,
-13,
-4,
-1,
-9,
-16,
-10,
3,
9,
2,
-8,
-5,
5,
13,
11,
3,
1,
6,
17,
19,
12,
8,
11,
16,
20,
19,
16,
14,
17,
19,
23,
23,
18,
15,
18,
21,
28,
24,
15,
14,
19,
27,
27,
16,
9,
14,
24,
28,
15,
5,
5,
15,
21,
16,
5,
0,
6,
13,
11,
2,
-4,
-2,
5,
4,
-3,
-9,
-8,
-3,
-6,
-10,
-13,
-13,
-10,
-12,
-15,
-16,
-17,
-18,
-18,
-20,
-22,
-22,
-24,
-25,
-26,
-27,
-28,
-27,
-27,
-29,
-29,
-29,
-29,
-30,
-28,
-29,
-30,
-30,
-31,
-27,
-26,
-28,
-32,
-31,
-27,
-23,
-23,
-27,
-28,
-26,
-20,
-15,
-20,
-25,
-24,
-15,
-10,
-13,
-16,
-17,
-12,
-6,
-3,
-6,
-11,
-8,
-2,
4,
2,
-2,
-4,
3,
9,
10,
6,
4,
5,
12,
17,
16,
10,
8,
12,
19,
21,
18,
13,
15,
19,
24,
24,
16,
17,
19,
22,
23,
19,
18,
19,
20,
19,
19,
20,
17,
17,
16,
17,
17,
14,
12,
12,
12,
13,
12,
8,
5,
4,
6,
7,
5,
0,
-3,
-1,
0,
-1,
-6,
-8,
-8,
-10,
-9,
-9,
-12,
-15,
-18,
-19,
-16,
-15,
-17,
-24,
-28,
-23,
-19,
-19,
-26,
-32,
-32,
-26,
-19,
-26,
-35,
-36,
-29,
-19,
-24,
-35,
-38,
-30,
-22,
-21,
-30,
-38,
-34,
-24,
-17,
-23,
-30,
-32,
-24,
-18,
-18,
-21,
-26,
-22,
-17,
-13,
-12,
-15,
-18,
-15,
-10,
-6,
-5,
-8,
-11,
-7,
0,
4,
3,
-4,
-4,
3,
13,
10,
2,
2,
6,
18,
18,
11,
6,
10,
19,
24,
17,
10,
12,
23,
26,
19,
14,
16,
22,
25,
22,
16,
19,
23,
25,
20,
17,
16,
21,
23,
18,
12,
14,
19,
19,
15,
9,
11,
12,
13,
10,
6,
5,
4,
3,
5,
3,
1,
-2,
-4,
-3,
-3,
-4,
-9,
-12,
-12,
-9,
-8,
-12,
-20,
-20,
-16,
-10,
-16,
-26,
-28,
-27,
-16,
-16,
-26,
-33,
-31,
-24,
-20,
-24,
-36,
-36,
-28,
-20,
-23,
-33,
-37,
-32,
-23,
-23,
-29,
-33,
-31,
-29,
-24,
-24,
-27,
-29,
-28,
-20,
-19,
-20,
-24,
-23,
-19,
-16,
-13,
-13,
-17,
-17,
-11,
-6,
-4,
-7,
-10,
-8,
-2,
2,
2,
1,
0,
1,
5,
9,
9,
7,
8,
11,
13,
15,
15,
13,
13,
14,
18,
19,
18,
17,
16,
20,
22,
22,
20,
17,
17,
19,
24,
24,
19,
16,
17,
22,
25,
20,
16,
12,
15,
20,
21,
13,
6,
6,
14,
18,
13,
3,
-1,
4,
11,
9,
1,
-7,
-7,
2,
5,
0,
-13,
-16,
-8,
-3,
-7,
-15,
-21,
-17,
-12,
-12,
-16,
-24,
-26,
-21,
-16,
-20,
-25,
-27,
-29,
-24,
-23,
-27,
-28,
-31,
-31,
-29,
-27,
-27,
-31,
-34,
-32,
-26,
-25,
-30,
-33,
-31,
-25,
-22,
-27,
-29,
-28,
-23,
-19,
-23,
-25,
-24,
-18,
-12,
-16,
-21,
-21,
-12,
-7,
-11,
-15,
-13,
-6,
-1,
-3,
-6,
-8,
0,
7,
4,
-2,
-3,
6,
13,
12,
6,
4,
9,
15,
18,
14,
10,
13,
17,
21,
21,
16,
16,
17,
21,
22,
22,
20,
16,
19,
21,
24,
24,
16,
14,
17,
24,
26,
17,
11,
10,
20,
25,
17,
7,
4,
13,
20,
16,
2,
-4,
4,
11,
11,
0,
-9,
-5,
2,
3,
-3,
-11,
-12,
-11,
-5,
-8,
-15,
-17,
-16,
-13,
-18,
-18,
-19,
-20,
-21,
-23,
-24,
-23,
-24,
-28,
-28,
-27,
-23,
-27,
-31,
-34,
-31,
-26,
-27,
-29,
-32,
-32,
-29,
-25,
-27,
-32,
-32,
-29,
-25,
-24,
-25,
-26,
-25,
-24,
-24,
-20,
-18,
-19,
-20,
-19,
-16,
-13,
-10,
-12,
-16,
-14,
-7,
0,
-4,
-11,
-9,
-2,
5,
5,
0,
-3,
2,
9,
13,
9,
3,
3,
12,
20,
17,
10,
8,
15,
21,
24,
18,
13,
13,
19,
24,
25,
18,
14,
18,
23,
26,
22,
19,
16,
20,
23,
21,
17,
13,
16,
19,
20,
15,
11,
12,
14,
14,
11,
7,
6,
6,
7,
6,
3,
1,
-1,
0,
-1,
-3,
-5,
-7,
-7,
-8,
-8,
-10,
-13,
-15,
-16,
-15,
-16,
-20,
-20,
-18,
-19,
-22,
-28,
-28,
-23,
-19,
-25,
-33,
-32,
-27,
-22,
-25,
-33,
-36,
-31,
-24,
-24,
-31,
-38,
-35,
-24,
-22,
-27,
-35,
-33,
-22,
-18,
-24,
-29,
-30,
-24,
-15,
-14,
-21,
-25,
-21,
-16,
-8,
-12,
-16,
-15,
-12,
-7,
-3,
-2,
-6,
-11,
-6,
3,
7,
4,
-2,
-2,
6,
14,
15,
5,
2,
6,
19,
23,
13,
6,
9,
20,
26,
20,
12,
10,
20,
29,
25,
17,
13,
19,
24,
27,
19,
16,
19,
20,
20,
18,
18,
20,
18,
16,
15,
17,
18,
14,
12,
8,
11,
14,
11,
5,
0,
3,
8,
8,
1,
-6,
-5,
0,
0,
-5,
-10,
-12,
-9,
-9,
-11,
-14,
-16,
-16,
-15,
-18,
-18,
-18,
-23,
-24,
-24,
-24,
-20,
-24,
-30,
-32,
-28,
-20,
-22,
-31,
-37,
-34,
-25,
-23,
-28,
-35,
-36,
-28,
-21,
-23,
-31,
-35,
-29,
-18,
-20,
-28,
-32,
-27,
-19,
-17,
-20,
-23,
-22,
-17,
-12,
-12,
-13,
-17,
-13,
-9,
-7,
-6,
-8,
-6,
-5,
-3,
1,
1,
0,
0,
4,
9,
7,
7,
7,
8,
12,
13,
14,
13,
14,
17,
17,
18,
15,
18,
21,
20,
18,
18,
19,
21,
22,
19,
18,
20,
22,
24,
21,
17,
17,
19,
22,
20,
14,
10,
13,
20,
19,
12,
6,
5,
11,
15,
11,
3,
-3,
0,
9,
8,
-1,
-11,
-10,
-1,
2,
-3,
-14,
-18,
-11,
-5,
-5,
-15,
-24,
-22,
-13,
-10,
-17,
-25,
-30,
-24,
-17,
-19,
-29,
-33,
-30,
-23,
-20,
-26,
-32,
-36,
-33,
-27,
-23,
-29,
-34,
-36,
-29,
-22,
-23,
-28,
-35,
-32,
-25,
-18,
-22,
-30,
-31,
-26,
-15,
-15,
-24,
-26,
-20,
-12,
-10,
-13,
-17,
-15,
-7,
-3,
-7,
-10,
-7,
0,
2,
-2,
-2,
0,
5,
4,
4,
5,
8,
11,
11,
9,
10,
14,
19,
16,
11,
11,
16,
24,
20,
16,
15,
17,
25,
24,
20,
17,
19,
22,
23,
22,
19,
18,
19,
20,
19,
18,
19,
17,
13,
13,
17,
16,
13,
7,
7,
12,
14,
9,
1,
-1,
5,
9,
6,
-4,
-10,
-5,
3,
2,
-9,
-16,
-14,
-7,
-6,
-14,
-20,
-19,
-15,
-13,
-19,
-24,
-25,
-21,
-19,
-23,
-26,
-27,
-25,
-26,
-28,
-29,
-29,
-27,
-28,
-31,
-32,
-29,
-27,
-28,
-31,
-31,
-29,
-26,
-28,
-29,
-28,
-27,
-26,
-25,
-25,
-25,
-24,
-20,
-21,
-21,
-19,
-17,
-17,
-18,
-15,
-9,
-7,
-12,
-14,
-10,
-3,
1,
0,
-7,
-8,
0,
9,
10,
1,
-4,
3,
13,
17,
10,
5,
6,
14,
22,
20,
12,
8,
13,
23,
27,
19,
13,
14,
21,
28,
24,
17,
13,
18,
25,
27,
23,
12,
11,
19,
26,
25,
16,
10,
12,
19,
21,
17,
9,
4,
9,
15,
15,
5,
-1,
3,
6,
7,
3,
-4,
-6,
-4,
1,
-1,
-6,
-13,
-14,
-8,
-7,
-11,
-17,
-20,
-17,
-15,
-15,
-21,
-27,
-25,
-22,
-19,
-22,
-27,
-30,
-28,
-24,
-25,
-30,
-31,
-29,
-27,
-28,
-30,
-30,
-26,
-27,
-32,
-33,
-30,
-25,
-25,
-28,
-30,
-29,
-24,
-19,
-23,
-28,
-27,
-19,
-15,
-18,
-24,
-19,
-15,
-10,
-10,
-13,
-14,
-9,
-5,
-3,
-6,
-6,
-4,
-2,
2,
2,
4,
3,
3,
4,
9,
13,
11,
7,
5,
13,
18,
18,
15,
10,
13,
22,
24,
20,
13,
13,
22,
26,
24,
15,
15,
20,
26,
24,
16,
15,
18,
24,
24,
17,
13,
15,
20,
18,
13,
11,
15,
16,
12,
6,
7,
9,
9,
5,
-2,
0,
3,
5,
0,
-8,
-9,
-6,
-3,
-5,
-13,
-15,
-13,
-10,
-12,
-17,
-19,
-19,
-19,
-19,
-21,
-20,
-26,
-25,
-25,
-24,
-22,
-26,
-32,
-31,
-26,
-23,
-26,
-32,
-39,
-34,
-23,
-20,
-29,
-40,
-36,
-24,
-17,
-23,
-35,
-37,
-27,
-15,
-16,
-28,
-34,
-27,
-14,
-9,
-17,
-26,
-27,
-13,
-7,
-10,
-13,
-17,
-12,
-4,
-2,
-1,
-8,
-8,
-1,
4,
7,
2,
0,
-1,
7,
14,
13,
9,
3,
7,
17,
21,
17,
9,
11,
19,
24,
24,
16,
-13,
-11,
