5-grundlagen-opAmps/data/ALL0032/A0032CH2.CSV

Memory Length,4000,
Trigger Level,0.00000e+00,
Source,CH2,
Probe,1.0X,
Vertical Units,V,
Vertical Scale,5.00000e-02,
Vertical Position,0.00000e+00,
Horizontal Units,S,
Horizontal Scale,1.00000e-07,
Horizontal Position,1.0000000e-07,
Horizontal Mode,Main,
Sampling Period,2.00000e-09,
Firmware,V1.14,
Time, ,
Mode,Fast,
Waveform Data,
26,
26,
28,
25,
22,
20,
22,
22,
19,
16,
14,
14,
12,
9,
9,
6,
4,
1,
-1,
0,
0,
-4,
-7,
-9,
-9,
-7,
-9,
-14,
-19,
-19,
-15,
-16,
-24,
-31,
-29,
-24,
-23,
-31,
-35,
-36,
-30,
-25,
-32,
-37,
-40,
-37,
-32,
-32,
-40,
-44,
-41,
-36,
-34,
-38,
-40,
-41,
-35,
-33,
-33,
-33,
-32,
-31,
-27,
-27,
-28,
-27,
-26,
-24,
-22,
-21,
-19,
-18,
-18,
-18,
-13,
-8,
-7,
-6,
-5,
-3,
1,
2,
3,
3,
4,
7,
9,
10,
10,
13,
14,
17,
20,
20,
24,
24,
25,
26,
28,
28,
28,
29,
28,
31,
31,
33,
32,
31,
32,
33,
35,
35,
33,
28,
33,
35,
34,
29,
26,
25,
27,
29,
25,
18,
15,
19,
25,
20,
14,
11,
14,
18,
14,
7,
2,
3,
5,
5,
-1,
-6,
-8,
-6,
-5,
-8,
-13,
-15,
-13,
-13,
-16,
-20,
-21,
-22,
-22,
-25,
-25,
-27,
-29,
-33,
-35,
-31,
-31,
-33,
-34,
-37,
-36,
-34,
-34,
-36,
-39,
-39,
-35,
-32,
-36,
-39,
-37,
-34,
-32,
-36,
-37,
-36,
-30,
-27,
-30,
-29,
-29,
-22,
-18,
-20,
-23,
-21,
-15,
-12,
-13,
-18,
-16,
-8,
-4,
-7,
-10,
-5,
0,
7,
8,
5,
5,
11,
16,
16,
13,
13,
15,
20,
22,
20,
19,
22,
25,
28,
29,
30,
29,
30,
31,
32,
34,
32,
31,
29,
32,
35,
35,
32,
26,
28,
34,
35,
29,
24,
22,
27,
32,
28,
19,
18,
20,
27,
25,
16,
10,
12,
15,
16,
9,
1,
1,
4,
6,
0,
-5,
-7,
-6,
-3,
-6,
-10,
-14,
-15,
-15,
-17,
-20,
-22,
-22,
-25,
-26,
-27,
-29,
-28,
-29,
-33,
-33,
-29,
-31,
-33,
-37,
-38,
-35,
-35,
-37,
-38,
-40,
-39,
-36,
-35,
-37,
-39,
-36,
-34,
-33,
-35,
-31,
-29,
-28,
-29,
-29,
-25,
-25,
-24,
-24,
-24,
-20,
-17,
-15,
-16,
-16,
-11,
-5,
-3,
-5,
-5,
-3,
3,
5,
3,
2,
3,
9,
13,
13,
10,
10,
17,
23,
24,
22,
20,
23,
27,
31,
29,
27,
26,
29,
32,
32,
31,
28,
30,
33,
34,
34,
31,
33,
35,
34,
31,
31,
32,
29,
27,
27,
26,
24,
21,
20,
22,
20,
18,
16,
15,
14,
15,
13,
9,
6,
5,
6,
3,
0,
-5,
-7,
-6,
-6,
-11,
-13,
-14,
-13,
-15,
-17,
-22,
-22,
-20,
-20,
-24,
-30,
-32,
-27,
-26,
-30,
-39,
-39,
-32,
-29,
-35,
-39,
-41,
-38,
-33,
-33,
-40,
-43,
-39,
-34,
-32,
-38,
-41,
-39,
-32,
-30,
-33,
-34,
-35,
-29,
-25,
-24,
-25,
-25,
-23,
-21,
-18,
-16,
-16,
-15,
-16,
-13,
-7,
-5,
-6,
-8,
-6,
0,
6,
7,
4,
3,
7,
15,
17,
14,
11,
14,
20,
25,
23,
17,
18,
26,
32,
31,
25,
26,
32,
35,
33,
32,
31,
33,
34,
34,
31,
29,
32,
35,
34,
29,
29,
30,
29,
27,
25,
26,
26,
25,
22,
19,
19,
22,
19,
15,
12,
11,
11,
12,
6,
1,
3,
2,
1,
-3,
-6,
-5,
-5,
-8,
-11,
-14,
-13,
-15,
-17,
-21,
-21,
-22,
-23,
-24,
-30,
-30,
-27,
-27,
-29,
-35,
-34,
-32,
-29,
-33,
-40,
-39,
-36,
-32,
-36,
-41,
-41,
-38,
-33,
-34,
-38,
-39,
-36,
-30,
-29,
-31,
-34,
-33,
-27,
-25,
-26,
-29,
-26,
-23,
-21,
-20,
-21,
-19,
-16,
-12,
-9,
-9,
-7,
-3,
-3,
-2,
1,
1,
4,
4,
5,
8,
10,
12,
13,
14,
17,
20,
23,
23,
24,
24,
26,
28,
28,
26,
29,
29,
31,
28,
29,
32,
33,
34,
32,
31,
33,
36,
35,
33,
28,
29,
33,
33,
27,
22,
21,
26,
27,
23,
17,
15,
19,
22,
19,
13,
7,
9,
14,
14,
7,
-3,
-3,
1,
2,
-3,
-11,
-12,
-9,
-6,
-10,
-14,
-19,
-17,
-17,
-16,
-20,
-23,
-27,
-26,
-25,
-27,
-31,
-32,
-35,
-32,
-31,
-32,
-35,
-38,
-39,
-36,
-32,
-32,
-39,
-41,
-39,
-34,
-33,
-35,
-41,
-40,
-33,
-30,
-31,
-35,
-35,
-29,
-22,
-22,
-27,
-26,
-22,
-18,
-17,
-19,
-20,
-16,
-12,
-9,
-10,
-12,
-7,
-2,
1,
0,
1,
5,
9,
10,
8,
10,
14,
17,
16,
15,
16,
19,
24,
24,
22,
22,
25,
31,
32,
28,
29,
30,
34,
34,
31,
33,
32,
30,
31,
30,
33,
33,
31,
29,
27,
28,
30,
30,
26,
24,
27,
29,
26,
19,
15,
19,
23,
20,
11,
8,
10,
12,
11,
2,
-1,
-1,
3,
3,
-3,
-10,
-9,
-6,
-5,
-11,
-17,
-17,
-14,
-16,
-22,
-25,
-27,
-23,
-23,
-29,
-31,
-30,
-31,
-29,
-31,
-35,
-35,
-34,
-35,
-37,
-39,
-37,
-35,
-37,
-39,
-40,
-38,
-34,
-36,
-35,
-37,
-33,
-32,
-31,
-30,
-30,
-31,
-30,
-27,
-26,
-24,
-21,
-22,
-22,
-23,
-18,
-13,
-11,
-12,
-10,
-7,
-3,
-1,
-3,
-4,
0,
6,
9,
7,
2,
5,
11,
17,
18,
13,
15,
20,
25,
27,
26,
20,
24,
30,
32,
31,
25,
26,
29,
35,
33,
30,
29,
29,
34,
36,
35,
31,
28,
31,
34,
33,
27,
26,
25,
26,
26,
24,
22,
19,
19,
21,
20,
19,
13,
9,
13,
14,
10,
4,
0,
0,
2,
1,
-5,
-9,
-11,
-7,
-6,
-10,
-16,
-19,
-16,
-14,
-18,
-23,
-26,
-25,
-24,
-26,
-31,
-35,
-32,
-31,
-31,
-31,
-38,
-37,
-33,
-32,
-35,
-39,
-37,
-36,
-35,
-37,
-39,
-38,
-35,
-35,
-36,
-37,
-34,
-33,
-28,
-29,
-31,
-29,
-25,
-21,
-21,
-23,
-22,
-20,
-18,
-17,
-16,
-14,
-12,
-11,
-9,
-6,
-4,
-2,
1,
0,
4,
8,
10,
8,
8,
11,
16,
19,
15,
13,
16,
24,
26,
25,
23,
24,
28,
33,
32,
27,
28,
33,
35,
35,
27,
29,
32,
35,
33,
29,
28,
32,
34,
31,
30,
27,
29,
31,
29,
23,
23,
24,
24,
20,
15,
15,
17,
16,
13,
8,
6,
10,
9,
5,
2,
-1,
2,
1,
-3,
-8,
-10,
-12,
-12,
-14,
-18,
-19,
-18,
-19,
-20,
-23,
-23,
-24,
-27,
-30,
-32,
-29,
-29,
-35,
-39,
-37,
-31,
-33,
-37,
-41,
-42,
-36,
-32,
-36,
-41,
-43,
-36,
-30,
-29,
-39,
-41,
-36,
-26,
-25,
-31,
-35,
-32,
-25,
-21,
-23,
-28,
-25,
-19,
-16,
-14,
-18,
-16,
-13,
-8,
-5,
-4,
-5,
-4,
-2,
2,
5,
6,
5,
6,
7,
13,
15,
16,
15,
16,
23,
27,
27,
24,
24,
27,
31,
31,
29,
27,
29,
32,
33,
33,
31,
31,
33,
35,
34,
32,
30,
32,
34,
33,
28,
27,
28,
28,
25,
24,
19,
22,
24,
20,
17,
17,
15,
19,
16,
10,
7,
8,
8,
6,
1,
-4,
-4,
-3,
-3,
-6,
-10,
-12,
-12,
-10,
-13,
-17,
-20,
-20,
-19,
-22,
-26,
-27,
-29,
-29,
-29,
-30,
-31,
-35,
-35,
-36,
-35,
-32,
-36,
-37,
-38,
-37,
-35,
-35,
-39,
-41,
-39,
-36,
-33,
-36,
-39,
-37,
-31,
-27,
-28,
-33,
-32,
-26,
-22,
-21,
-25,
-26,
-21,
-16,
-14,
-16,
-17,
-14,
-9,
-6,
-7,
-5,
-2,
1,
2,
3,
5,
9,
11,
13,
11,
11,
15,
18,
17,
16,
17,
22,
27,
26,
24,
25,
27,
32,
33,
29,
27,
28,
33,
34,
32,
28,
29,
32,
34,
32,
29,
31,
32,
32,
28,
30,
28,
26,
24,
23,
23,
22,
19,
15,
14,
16,
17,
15,
7,
4,
8,
13,
8,
1,
-5,
-3,
3,
1,
-9,
-15,
-16,
-11,
-9,
-14,
-24,
-25,
-19,
-16,
-20,
-28,
-33,
-26,
-24,
-26,
-33,
-37,
-36,
-31,
-32,
-37,
-40,
-39,
-36,
-37,
-37,
-36,
-38,
-38,
-37,
-35,
-35,
-34,
-37,
-35,
-35,
-30,
-29,
-30,
-33,
-32,
-25,
-23,
-23,
-26,
-24,
-19,
-17,
-15,
-18,
-16,
-11,
-5,
-5,
-7,
-5,
-2,
3,
2,
1,
2,
6,
10,
9,
8,
8,
15,
20,
21,
18,
18,
24,
28,
28,
25,
25,
25,
32,
32,
29,
27,
26,
32,
33,
35,
31,
29,
33,
34,
35,
33,
29,
31,
31,
28,
28,
27,
24,
22,
25,
25,
24,
20,
17,
18,
18,
18,
14,
13,
8,
9,
9,
5,
1,
-4,
-5,
-1,
-1,
-7,
-13,
-13,
-10,
-10,
-13,
-18,
-20,
-20,
-19,
-21,
-26,
-30,
-31,
-29,
-27,
-31,
-34,
-36,
-34,
-31,
-36,
-37,
-36,
-35,
-37,
-37,
-38,
-37,
-37,
-37,
-39,
-39,
-36,
-33,
-32,
-35,
-37,
-33,
-27,
-26,
-31,
-30,
-27,
-22,
-20,
-21,
-23,
-22,
-17,
-13,
-13,
-15,
-14,
-9,
-5,
-1,
-3,
-1,
2,
6,
6,
7,
10,
10,
9,
14,
17,
18,
17,
17,
18,
21,
27,
29,
25,
24,
28,
33,
36,
31,
27,
28,
34,
36,
32,
27,
27,
32,
37,
36,
29,
26,
31,
35,
35,
26,
23,
26,
28,
28,
21,
17,
19,
20,
17,
15,
12,
11,
12,
12,
7,
5,
5,
5,
2,
0,
-3,
-4,
-5,
-9,
-12,
-13,
-13,
-15,
-19,
-21,
-19,
-19,
-22,
-24,
-28,
-26,
-25,
-27,
-32,
-34,
-33,
-32,
-33,
-38,
-40,
-36,
-32,
-35,
-39,
-40,
-37,
-31,
-34,
-38,
-41,
-37,
-31,
-29,
-36,
-38,
-33,
-27,
-24,
-28,
-34,
-31,
-24,
-19,
-21,
-24,
-24,
-18,
-12,
-12,
-12,
-13,
-8,
-5,
-3,
-2,
-4,
-1,
3,
4,
7,
9,
8,
10,
11,
15,
19,
20,
19,
19,
24,
26,
28,
27,
23,
25,
31,
34,
32,
26,
28,
32,
36,
34,
30,
31,
35,
36,
33,
31,
29,
31,
32,
31,
27,
24,
24,
26,
25,
22,
19,
20,
22,
19,
15,
14,
15,
14,
11,
7,
4,
4,
3,
1,
-4,
-6,
-4,
-3,
-5,
-11,
-15,
-13,
-11,
-13,
-19,
-23,
-23,
-22,
-23,
-25,
-30,
-32,
-31,
-29,
-29,
-32,
-37,
-35,
-33,
-31,
-37,
-38,
-38,
-37,
-38,
-36,
-37,
-40,
-39,
-38,
-36,
-33,
-35,
-35,
-33,
-30,
-27,
-26,
-29,
-30,
-27,
-22,
-19,
-22,
-25,
-24,
-18,
-13,
-13,
-15,
-16,
-10,
-3,
-2,
-3,
-4,
-1,
6,
7,
6,
5,
7,
13,
16,
14,
13,
15,
20,
23,
23,
22,
24,
28,
31,
31,
27,
29,
31,
34,
32,
29,
32,
33,
33,
31,
31,
32,
33,
33,
33,
32,
32,
31,
30,
27,
26,
25,
26,
23,
20,
19,
20,
18,
13,
12,
13,
15,
13,
7,
3,
4,
9,
7,
-2,
-7,
-7,
-2,
-2,
-9,
-19,
-20,
-13,
-10,
-17,
-25,
-26,
-21,
-17,
-23,
-30,
-33,
-30,
-25,
-30,
-35,
-40,
-37,
-34,
-32,
-35,
-40,
-40,
-37,
-35,
-37,
-37,
-36,
-36,
-37,
-37,
-32,
-32,
-35,
-35,
-35,
-29,
-26,
-27,
-30,
-30,
-23,
-18,
-20,
-23,
-23,
-17,
-9,
-9,
-12,
-12,
-9,
-3,
1,
-3,
-3,
-1,
4,
6,
6,
4,
6,
12,
14,
15,
15,
18,
23,
23,
23,
24,
25,
28,
28,
26,
25,
27,
31,
32,
31,
28,
31,
35,
36,
34,
31,
31,
35,
35,
31,
28,
27,
29,
30,
27,
23,
22,
24,
26,
23,
20,
17,
17,
18,
16,
15,
13,
9,
7,
5,
5,
5,
0,
-4,
-5,
-3,
-3,
-7,
-10,
-13,
-14,
-11,
-11,
-16,
-22,
-23,
-22,
-21,
-25,
-32,
-32,
-29,
-26,
-31,
-35,
-37,
-34,
-32,
-33,
-36,
-40,
-39,
-36,
-35,
-38,
-41,
-41,
-37,
-34,
-37,
-37,
-37,
-32,
-31,
-31,
-32,
-30,
-26,
-25,
-25,
-25,
-26,
-22,
-19,
-20,
-21,
-19,
-16,
-11,
-11,
-9,
-8,
-6,
-1,
2,
3,
2,
4,
6,
10,
11,
11,
11,
12,
16,
18,
21,
22,
22,
23,
26,
28,
28,
28,
25,
27,
34,
33,
32,
27,
27,
33,
37,
35,
26,
27,
32,
38,
36,
28,
26,
27,
33,
33,
26,
20,
20,
26,
28,
20,
12,
12,
16,
19,
15,
9,
7,
8,
9,
6,
4,
2,
-1,
-3,
-5,
-4,
-6,
-11,
-13,
-15,
-15,
-14,
-15,
-21,
-24,
-23,
-20,
-19,
-26,
-32,
-32,
-28,
-28,
-32,
-38,
-37,
-33,
-33,
-35,
-41,
-39,
-36,
-35,
-37,
-38,
-39,
-35,
-34,
-35,
-38,
-35,
-31,
-30,
-34,
-34,
-31,
-26,
-25,
-26,
-29,
-26,
-21,
-18,
-20,
-21,
-18,
-10,
-6,
-9,
-12,
-11,
-2,
2,
-1,
-2,
-1,
2,
7,
9,
7,
9,
13,
15,
17,
18,
18,
20,
23,
24,
26,
26,
27,
26,
27,
28,
29,
33,
29,
30,
32,
35,
36,
34,
32,
30,
34,
36,
34,
28,
27,
30,
32,
28,
24,
22,
23,
25,
25,
20,
18,
19,
19,
18,
13,
10,
10,
11,
7,
1,
-2,
0,
0,
0,
-6,
-9,
-8,
-6,
-9,
-12,
-16,
-17,
-15,
-17,
-21,
-27,
-28,
-24,
-25,
-28,
-33,
-34,
-32,
-30,
-31,
-35,
-36,
-35,
-36,
-34,
-35,
-37,
-40,
-39,
-38,
-35,
-37,
-39,
-40,
-38,
-34,
-30,
-31,
-34,
-35,
-30,
-21,
-22,
-27,
-31,
-27,
-19,
-19,
-19,
-24,
-21,
-14,
-8,
-8,
-13,
-12,
-5,
1,
4,
1,
-3,
1,
8,
12,
11,
5,
7,
13,
19,
20,
18,
17,
20,
26,
27,
27,
26,
27,
31,
32,
32,
32,
31,
31,
31,
32,
32,
33,
33,
32,
33,
33,
35,
34,
28,
29,
30,
32,
27,
24,
22,
23,
23,
20,
17,
15,
16,
17,
16,
10,
9,
9,
10,
7,
2,
1,
1,
0,
-4,
-9,
-10,
-8,
-9,
-15,
-19,
-19,
-16,
-17,
-19,
-25,
-26,
-22,
-21,
-25,
-32,
-36,
-31,
-28,
-30,
-38,
-41,
-37,
-31,
-34,
-38,
-41,
-38,
-33,
-34,
-37,
-39,
-39,
-35,
-35,
-36,
-38,
-36,
-33,
-31,
-32,
-30,
-27,
-25,
-25,
-24,
-21,
-17,
-19,
-18,
-17,
-15,
-11,
-10,
-12,
-10,
-7,
-1,
-1,
-1,
-2,
3,
10,
12,
10,
10,
13,
17,
18,
17,
16,
19,
25,
23,
21,
21,
26,
31,
32,
27,
27,
31,
35,
35,
31,
29,
33,
35,
35,
31,
27,
28,
33,
34,
31,
25,
25,
28,
29,
26,
21,
20,
22,
23,
20,
19,
15,
13,
15,
13,
11,
8,
5,
2,
2,
3,
0,
-3,
-6,
-8,
-6,
-5,
-8,
-14,
-19,
-15,
-12,
-14,
-23,
-27,
-28,
-22,
-23,
-27,
-36,
-36,
-31,
-26,
-29,
-36,
-40,
-37,
-30,
-31,
-39,
-42,
-42,
-36,
-34,
-37,
-41,
-40,
-37,
-33,
-32,
-36,
-37,
-33,
-29,
-26,
-27,
-27,
-27,
-25,
-23,
-22,
-23,
-20,
-19,
-17,
-14,
-13,
-11,
-8,
-7,
-5,
-1,
1,
2,
2,
3,
8,
9,
10,
9,
11,
12,
16,
17,
17,
19,
23,
27,
27,
26,
26,
29,
29,
31,
28,
28,
31,
33,
32,
29,
31,
33,
36,
33,
31,
32,
33,
35,
34,
27,
25,
28,
31,
29,
22,
15,
19,
22,
22,
17,
12,
14,
17,
16,
13,
7,
4,
7,
7,
3,
-3,
-6,
-5,
-4,
-8,
-12,
-12,
-13,
-14,
-18,
-17,
-19,
-18,
-21,
-25,
-25,
-25,
-26,
-29,
-32,
-33,
-31,
-31,
-32,
-38,
-38,
-35,
-34,
-35,
-39,
-39,
-35,
-32,
-37,
-38,
-38,
-35,
-35,
-35,
-37,
-34,
-31,
-30,
-31,
-33,
-28,
-23,
-21,
-23,
-27,
-22,
-15,
-14,
-17,
-20,
-18,
-10,
-5,
-8,
-10,
-10,
-3,
6,
6,
1,
1,
7,
15,
17,
12,
10,
14,
18,
21,
19,
19,
20,
25,
27,
27,
26,
27,
30,
31,
32,
33,
33,
31,
31,
32,
35,
36,
30,
27,
29,
33,
36,
30,
25,
23,
27,
33,
30,
22,
18,
23,
27,
25,
17,
11,
14,
19,
18,
9,
3,
3,
6,
5,
1,
-3,
-6,
-4,
-3,
-6,
-10,
-14,
-12,
-13,
-15,
-19,
-21,
-21,
-21,
-25,
-26,
-27,
-28,
-28,
-31,
-31,
-32,
-33,
-34,
-35,
-33,
-36,
-35,
-36,
-38,
-38,
-38,
-37,
-36,
-39,
-38,
-37,
-35,
-36,
-34,
-34,
-30,
-27,
-30,
-28,
-27,
-26,
-24,
-25,
-25,
-23,
-19,
-16,
-16,
-20,
-15,
-9,
-6,
-5,
-7,
-4,
0,
3,
6,
4,
2,
5,
11,
12,
11,
9,
12,
18,
22,
23,
21,
23,
24,
28,
29,
27,
26,
29,
30,
32,
30,
30,
31,
32,
32,
33,
32,
34,
33,
33,
33,
32,
32,
30,
27,
27,
26,
27,
27,
22,
19,
19,
22,
20,
16,
13,
15,
15,
12,
8,
6,
5,
6,
3,
-2,
-3,
-5,
-6,
-7,
-11,
-13,
-12,
-12,
-16,
-20,
-20,
-16,
-16,
-22,
-31,
-31,
-25,
-23,
-31,
-37,
-37,
-31,
-27,
-31,
-40,
-42,
-38,
-32,
-30,
-39,
-44,
-39,
-33,
-31,
-39,
-41,
-40,
-33,
-33,
-32,
-37,
-35,
-31,
-28,
-27,
-26,
-26,
-24,
-21,
-19,
-17,
-16,
-17,
-17,
-15,
-9,
-6,
-8,
-11,
-9,
-2,
5,
6,
2,
2,
8,
14,
17,
14,
10,
14,
20,
24,
19,
15,
18,
26,
32,
28,
25,
25,
30,
34,
34,
31,
28,
33,
37,
35,
29,
29,
33,
35,
32,
28,
29,
32,
29,
28,
26,
25,
26,
27,
26,
23,
19,
19,
22,
19,
15,
13,
14,
12,
8,
4,
5,
2,
1,
0,
-3,
-3,
-4,
-8,
-9,
-9,
-10,
-12,
-15,
-20,
-20,
-20,
-21,
-24,
-29,
-32,
-25,
-25,
-29,
-34,
-38,
-30,
-27,
-32,
-36,
-40,
-36,
-34,
-34,
-39,
-42,
-43,
-36,
-35,
-36,
-39,
-39,
-32,
-31,
-33,
-33,
-32,
-29,
-27,
-27,
-27,
-28,
-25,
-24,
-21,
-20,
-20,
-16,
-16,
-14,
-11,
-6,
-5,
-5,
-4,
-3,
0,
4,
5,
4,
4,
8,
9,
12,
12,
12,
15,
20,
23,
23,
24,
25,
25,
27,
29,
28,
31,
28,
29,
31,
32,
32,
31,
32,
32,
33,
34,
35,
32,
29,
30,
32,
33,
28,
25,
24,
26,
27,
24,
19,
16,
20,
23,
23,
15,
9,
11,
15,
15,
8,
1,
0,
3,
5,
-2,
-9,
-10,
-7,
-6,
-8,
-14,
-19,
-17,
-15,
-15,
-19,
-23,
-23,
-24,
-24,
-27,
-29,
-31,
-32,
-33,
-33,
-30,
-32,
-38,
-38,
-37,
-33,
-33,
-37,
-40,
-39,
-35,
-33,
-36,
-40,
-39,
-35,
-30,
-32,
-38,
-37,
-29,
-24,
-25,
-30,
-29,
-22,
-19,
-19,
-22,
-21,
-16,
-12,
-10,
-14,
-14,
-8,
-4,
-2,
-5,
-3,
2,
8,
10,
8,
7,
10,
15,
18,
16,
14,
17,
20,
23,
22,
21,
25,
27,
28,
30,
30,
32,
32,
32,
32,
34,
33,
31,
31,
32,
34,
35,
32,
28,
28,
31,
34,
29,
24,
23,
27,
31,
28,
19,
17,
19,
23,
20,
15,
9,
10,
15,
13,
6,
0,
-1,
3,
4,
0,
-7,
-9,
-7,
-5,
-9,
-13,
-15,
-16,
-17,
-18,
-22,
-23,
-25,
-24,
-27,
-28,
-30,
-27,
-29,
-32,
-33,
-34,
-31,
-32,
-37,
-37,
-37,
-35,
-37,
-39,
-40,
-38,
-36,
-36,
-37,
-37,
-36,
-33,
-31,
-30,
-33,
-31,
-28,
-27,
-27,
-25,
-25,
-24,
-23,
-22,
-19,
-15,
-15,
-15,
-14,
-10,
-4,
-2,
-3,
-4,
-1,
5,
8,
6,
2,
3,
8,
16,
15,
13,
11,
17,
25,
27,
23,
20,
25,
28,
32,
28,
25,
24,
29,
34,
32,
29,
27,
31,
34,
37,
34,
31,
31,
32,
33,
32,
28,
27,
26,
25,
27,
25,
23,
20,
19,
20,
20,
18,
15,
14,
12,
13,
12,
9,
5,
2,
2,
2,
-1,
-7,
-8,
-7,
-6,
-9,
-15,
-17,
-15,
-14,
-17,
-21,
-25,
-22,
-22,
-23,
-29,
-33,
-32,
-29,
-29,
-36,
-39,
-36,
-30,
-30,
-39,
-41,
-38,
-34,
-33,
-37,
-41,
-40,
-35,
-32,
-37,
-40,
-39,
-34,
-29,
-30,
-34,
-33,
-27,
-23,
-23,
-23,
-24,
-22,
-19,
-17,
-16,
-14,
-14,
-13,
-12,
-8,
-5,
-5,
-4,
-3,
1,
9,
11,
8,
5,
9,
16,
19,
15,
11,
15,
22,
26,
25,
20,
20,
28,
35,
32,
26,
27,
30,
36,
35,
31,
30,
32,
35,
35,
31,
29,
30,
32,
33,
31,
28,
29,
29,
27,
25,
25,
27,
25,
20,
17,
19,
19,
18,
13,
10,
10,
10,
9,
5,
1,
0,
0,
2,
-3,
-7,
-8,
-7,
-7,
-12,
-14,
-16,
-16,
-18,
-23,
-23,
-24,
-24,
-27,
-29,
-30,
-28,
-27,
-32,
-35,
-34,
-33,
-32,
-35,
-39,
-41,
-37,
-34,
-36,
-42,
-42,
-37,
-32,
-35,
-37,
-40,
-35,
-29,
-27,
-30,
-34,
-34,
-27,
-24,
-25,
-31,
-30,
-24,
-19,
-19,
-18,
-19,
-14,
-11,
-7,
-6,
-6,
-4,
-2,
2,
3,
2,
3,
5,
6,
9,
12,
13,
15,
17,
19,
23,
23,
23,
25,
25,
27,
29,
27,
28,
28,
31,
32,
31,
29,
30,
34,
34,
33,
31,
31,
34,
34,
31,
29,
27,
29,
31,
28,
23,
19,
23,
27,
24,
17,
13,
17,
20,
19,
12,
7,
7,
12,
11,
5,
-3,
-4,
0,
0,
-3,
-12,
-15,
-10,
-8,
-11,
-17,
-21,
-20,
-18,
-19,
-22,
-27,
-29,
-28,
-29,
-29,
-30,
-35,
-33,
-34,
-32,
-33,
-34,
-37,
-38,
-36,
-34,
-32,
-38,
-41,
-39,
-35,
-32,
-37,
-40,
-39,
-33,
-27,
-28,
-33,
-35,
-31,
-23,
-20,
-25,
-27,
-23,
-17,
-15,
-18,
-19,
-16,
-11,
-9,
-8,
-8,
-6,
0,
3,
1,
4,
5,
9,
10,
9,
11,
15,
17,
17,
15,
16,
20,
26,
25,
24,
23,
27,
32,
32,
28,
27,
30,
34,
35,
31,
29,
30,
34,
33,
31,
30,
32,
31,
31,
32,
31,
29,
28,
26,
25,
24,
25,
22,
18,
15,
16,
19,
17,
10,
6,
9,
12,
10,
4,
-2,
-1,
4,
2,
-5,
-10,
-13,
-9,
-8,
-14,
-22,
-22,
-19,
-16,
-20,
-25,
-27,
-25,
-22,
-25,
-32,
-32,
-31,
-33,
-32,
-35,
-37,
-37,
-36,
-37,
-38,
-39,
-37,
-37,
-36,
-38,
-37,
-36,
-33,
-37,
-35,
-32,
-30,
-31,
-31,
-29,
-28,
-26,
-26,
-26,
-24,
-22,
-19,
-19,
-19,
-17,
-13,
-9,
-8,
-8,
-7,
-1,
1,
0,
-1,
0,
6,
10,
10,
7,
7,
12,
19,
20,
17,
16,
19,
26,
28,
25,
24,
23,
28,
33,
31,
26,
25,
30,
34,
35,
31,
28,
31,
35,
37,
33,
29,
28,
31,
33,
32,
27,
23,
23,
26,
26,
23,
19,
17,
18,
20,
20,
16,
14,
9,
11,
11,
10,
2,
-3,
-3,
0,
0,
-5,
-9,
-12,
-10,
-8,
-11,
-16,
-20,
-18,
-15,
-16,
-22,
-30,
-30,
-26,
-26,
-32,
-34,
-36,
-29,
-30,
-34,
-37,
-36,
-35,
-34,
-37,
-40,
-38,
-36,
-36,
-38,
-40,
-38,
-36,
-34,
-37,
-38,
-35,
-28,
-28,
-31,
-30,
-27,
-22,
-21,
-22,
-23,
-23,
-18,
-15,
-15,
-17,
-13,
-9,
-7,
-6,
-5,
-2,
1,
1,
6,
6,
8,
9,
10,
9,
12,
17,
19,
17,
16,
19,
25,
27,
25,
23,
26,
29,
33,
31,
27,
27,
32,
36,
34,
28,
26,
31,
35,
35,
28,
27,
30,
35,
34,
26,
27,
27,
28,
27,
21,
19,
20,
21,
19,
15,
12,
13,
16,
14,
9,
6,
7,
8,
6,
0,
-3,
-1,
-3,
-6,
-10,
-13,
-14,
-13,
-15,
-18,
-20,
-21,
-21,
-23,
-23,
-25,
-26,
-27,
-29,
-31,
-31,
-30,
-33,
-39,
-39,
-35,
-32,
-38,
-41,
-41,
-35,
-32,
-33,
-40,
-42,
-36,
-31,
-30,
-36,
-41,
-35,
-29,
-25,
-30,
-35,
-33,
-26,
-21,
-21,
-26,
-26,
-22,
-15,
-10,
-15,
-16,
-12,
-6,
-3,
-4,
-5,
-3,
0,
3,
6,
6,
6,
5,
9,
14,
17,
17,
18,
18,
23,
27,
28,
25,
23,
27,
30,
32,
30,
27,
27,
32,
35,
33,
32,
29,
33,
37,
37,
33,
29,
31,
33,
32,
28,
25,
25,
26,
26,
24,
20,
20,
21,
20,
18,
15,
15,
15,
14,
10,
5,
5,
6,
4,
0,
-5,
-5,
-3,
-4,
-8,
-12,
-13,
-11,
-11,
-15,
-21,
-22,
-21,
-20,
-22,
-28,
-32,
-30,
-27,
-29,
-33,
-36,
-35,
-32,
-35,
-35,
-36,
-37,
-38,
-38,
-37,
-36,
-37,
-37,
-40,
-38,
-35,
-33,
-36,
-35,
-36,
-31,
-27,
-27,
-31,
-30,
-25,
-20,
-21,
-23,
-25,
-21,
-15,
-13,
-16,
-17,
-12,
-6,
-4,
-5,
-6,
-2,
5,
6,
5,
3,
7,
11,
13,
11,
11,
13,
17,
20,
19,
18,
25,
27,
27,
26,
26,
28,
33,
34,
30,
28,
28,
33,
33,
32,
29,
29,
33,
34,
34,
29,
30,
32,
32,
30,
27,
27,
25,
22,
21,
22,
22,
17,
14,
13,
15,
17,
13,
8,
4,
6,
11,
8,
0,
-6,
-3,
1,
0,
-10,
-20,
-18,
-10,
-9,
-17,
-24,
-27,
-20,
-17,
-20,
-29,
-32,
-31,
-25,
-26,
-33,
-39,
-36,
-32,
-31,
-36,
-39,
-40,
-38,
-37,
-37,
-37,
-36,
-38,
-37,
-36,
-34,
-35,
-36,
-36,
-32,
-31,
-26,
-29,
-32,
-31,
-26,
-21,
-22,
-24,
31,
34,
