5-grundlagen-opAmps/data/ALL0010/A0010CH2.CSV

Memory Length,4000,
Trigger Level,0.00000e+00,
Source,CH2,
Probe,1.0X,
Vertical Units,V,
Vertical Scale,5.00000e-02,
Vertical Position,0.00000e+00,
Horizontal Units,S,
Horizontal Scale,1.00000e-07,
Horizontal Position,1.0000000e-07,
Horizontal Mode,Main,
Sampling Period,2.00000e-09,
Firmware,V1.14,
Time, ,
Mode,Fast,
Waveform Data,
18,
18,
16,
16,
20,
24,
24,
23,
22,
26,
31,
31,
31,
29,
29,
33,
38,
37,
34,
33,
35,
38,
38,
37,
36,
37,
38,
41,
41,
39,
37,
37,
41,
42,
39,
35,
34,
36,
39,
38,
37,
34,
35,
36,
38,
36,
31,
31,
32,
34,
30,
26,
25,
23,
25,
25,
23,
19,
18,
19,
20,
18,
15,
14,
15,
14,
10,
7,
5,
5,
4,
1,
-1,
-2,
-3,
-4,
-4,
-6,
-8,
-11,
-9,
-10,
-14,
-16,
-17,
-17,
-19,
-22,
-24,
-25,
-24,
-25,
-29,
-29,
-30,
-31,
-29,
-29,
-32,
-35,
-36,
-35,
-33,
-37,
-38,
-38,
-38,
-38,
-37,
-40,
-41,
-40,
-39,
-38,
-39,
-40,
-40,
-40,
-37,
-36,
-38,
-39,
-39,
-37,
-34,
-32,
-34,
-37,
-35,
-32,
-30,
-32,
-32,
-32,
-29,
-25,
-25,
-26,
-26,
-24,
-21,
-17,
-18,
-19,
-17,
-14,
-12,
-13,
-11,
-10,
-8,
-7,
-5,
-5,
-3,
-1,
0,
2,
4,
6,
10,
10,
9,
11,
13,
16,
15,
14,
16,
19,
21,
20,
22,
23,
25,
28,
28,
30,
28,
30,
33,
34,
33,
33,
33,
34,
35,
38,
38,
37,
36,
35,
38,
40,
42,
39,
35,
39,
40,
41,
41,
36,
35,
39,
41,
40,
34,
33,
35,
38,
36,
31,
29,
29,
33,
33,
30,
25,
24,
27,
28,
26,
21,
18,
21,
20,
18,
15,
12,
10,
10,
11,
9,
6,
3,
1,
2,
4,
3,
-2,
-3,
-5,
-5,
-5,
-9,
-14,
-16,
-15,
-13,
-15,
-20,
-22,
-22,
-20,
-22,
-25,
-25,
-27,
-28,
-27,
-32,
-35,
-34,
-34,
-34,
-36,
-39,
-39,
-38,
-38,
-40,
-42,
-42,
-40,
-39,
-43,
-44,
-45,
-43,
-43,
-44,
-45,
-45,
-44,
-41,
-41,
-41,
-42,
-42,
-40,
-39,
-39,
-41,
-41,
-38,
-36,
-36,
-38,
-38,
-35,
-33,
-29,
-28,
-28,
-29,
-27,
-23,
-23,
-21,
-22,
-22,
-19,
-16,
-15,
-16,
-17,
-13,
-8,
-6,
-6,
-6,
-4,
-1,
1,
4,
3,
3,
5,
8,
11,
10,
9,
11,
16,
19,
19,
19,
18,
21,
27,
28,
27,
25,
29,
29,
33,
33,
31,
32,
34,
36,
37,
37,
39,
38,
39,
41,
40,
41,
41,
41,
40,
42,
42,
43,
43,
41,
41,
42,
43,
42,
41,
40,
40,
40,
38,
38,
36,
35,
37,
37,
36,
34,
32,
33,
33,
32,
28,
26,
25,
24,
24,
22,
20,
17,
16,
15,
17,
16,
12,
8,
7,
10,
9,
7,
0,
-1,
1,
1,
0,
-8,
-12,
-9,
-7,
-8,
-12,
-16,
-17,
-14,
-13,
-17,
-22,
-25,
-25,
-21,
-24,
-29,
-32,
-32,
-29,
-30,
-33,
-36,
-36,
-33,
-35,
-36,
-38,
-38,
-40,
-39,
-39,
-39,
-39,
-41,
-41,
-41,
-39,
-40,
-40,
-42,
-42,
-40,
-39,
-40,
-43,
-42,
-39,
-36,
-38,
-38,
-38,
-35,
-33,
-33,
-35,
-33,
-32,
-30,
-30,
-31,
-31,
-26,
-24,
-25,
-25,
-23,
-20,
-16,
-17,
-16,
-16,
-13,
-10,
-9,
-10,
-12,
-10,
-3,
-2,
-3,
-3,
-3,
3,
7,
7,
7,
7,
10,
14,
16,
16,
15,
16,
18,
20,
22,
22,
22,
24,
26,
30,
29,
28,
28,
31,
34,
37,
34,
31,
33,
37,
39,
37,
36,
36,
38,
41,
42,
39,
36,
39,
41,
42,
39,
36,
36,
38,
38,
37,
37,
36,
36,
37,
38,
35,
34,
34,
34,
33,
31,
28,
28,
26,
24,
25,
25,
23,
22,
18,
19,
19,
18,
16,
15,
12,
10,
9,
9,
6,
4,
1,
0,
1,
-1,
-4,
-5,
-6,
-6,
-7,
-8,
-12,
-15,
-15,
-15,
-16,
-19,
-21,
-23,
-24,
-23,
-25,
-26,
-29,
-29,
-27,
-28,
-29,
-35,
-36,
-35,
-35,
-34,
-38,
-40,
-40,
-38,
-38,
-38,
-41,
-43,
-42,
-39,
-38,
-40,
-46,
-44,
-41,
-39,
-39,
-44,
-42,
-39,
-37,
-36,
-38,
-40,
-39,
-35,
-33,
-35,
-38,
-36,
-32,
-30,
-33,
-32,
-29,
-28,
-26,
-24,
-23,
-21,
-21,
-18,
-18,
-18,
-17,
-14,
-14,
-12,
-12,
-10,
-8,
-7,
-6,
-2,
-1,
1,
2,
5,
6,
8,
7,
9,
11,
12,
14,
14,
15,
16,
17,
23,
21,
20,
23,
27,
31,
28,
28,
28,
32,
34,
33,
31,
32,
33,
39,
40,
36,
33,
35,
39,
43,
40,
37,
37,
39,
42,
41,
39,
37,
37,
39,
42,
39,
36,
35,
37,
38,
36,
33,
32,
32,
33,
33,
33,
32,
28,
27,
30,
29,
26,
24,
20,
22,
22,
20,
16,
13,
12,
14,
16,
11,
6,
7,
9,
11,
7,
1,
-2,
-1,
0,
-4,
-7,
-8,
-9,
-10,
-11,
-13,
-16,
-16,
-16,
-17,
-19,
-20,
-19,
-22,
-23,
-26,
-26,
-25,
-27,
-32,
-33,
-31,
-32,
-33,
-35,
-37,
-36,
-35,
-34,
-37,
-38,
-41,
-38,
-37,
-38,
-39,
-42,
-41,
-39,
-39,
-39,
-39,
-40,
-39,
-37,
-35,
-36,
-38,
-38,
-38,
-34,
-35,
-33,
-37,
-36,
-34,
-30,
-27,
-28,
-31,
-29,
-24,
-22,
-23,
-23,
-24,
-22,
-18,
-17,
-19,
-19,
-17,
-12,
-8,
-9,
-10,
-8,
-4,
-1,
1,
1,
0,
2,
4,
7,
5,
5,
7,
10,
13,
15,
14,
15,
17,
20,
20,
23,
22,
24,
27,
27,
27,
26,
28,
30,
32,
30,
31,
33,
35,
35,
34,
34,
37,
38,
38,
39,
36,
37,
38,
40,
38,
36,
36,
39,
38,
39,
37,
35,
35,
35,
36,
36,
34,
30,
30,
34,
35,
34,
29,
27,
28,
29,
28,
25,
20,
20,
21,
24,
19,
13,
12,
16,
18,
16,
9,
7,
9,
11,
9,
4,
-1,
-1,
2,
1,
-2,
-7,
-11,
-8,
-6,
-8,
-12,
-13,
-13,
-14,
-15,
-17,
-19,
-21,
-22,
-22,
-22,
-23,
-27,
-31,
-29,
-27,
-30,
-31,
-35,
-35,
-33,
-31,
-32,
-36,
-39,
-35,
-35,
-35,
-39,
-40,
-38,
-38,
-38,
-39,
-40,
-39,
-38,
-38,
-37,
-39,
-38,
-36,
-36,
-37,
-36,
-34,
-32,
-31,
-35,
-34,
-30,
-29,
-29,
-31,
-30,
-26,
-25,
-24,
-25,
-25,
-23,
-18,
-16,
-17,
-17,
-14,
-13,
-9,
-10,
-10,
-8,
-7,
-5,
-4,
-3,
-3,
-1,
1,
4,
6,
7,
9,
8,
10,
14,
16,
16,
14,
15,
19,
22,
22,
19,
20,
24,
26,
29,
27,
26,
27,
32,
35,
32,
29,
32,
35,
37,
34,
33,
34,
37,
38,
37,
37,
37,
38,
39,
39,
37,
35,
36,
37,
36,
34,
36,
35,
36,
35,
34,
34,
34,
34,
31,
31,
31,
27,
28,
28,
24,
22,
21,
22,
20,
20,
17,
17,
16,
17,
17,
15,
11,
9,
9,
9,
7,
3,
-1,
-1,
1,
1,
-2,
-5,
-8,
-8,
-7,
-6,
-10,
-15,
-15,
-14,
-13,
-16,
-22,
-24,
-22,
-21,
-23,
-25,
-29,
-29,
-25,
-25,
-28,
-33,
-36,
-33,
-29,
-30,
-36,
-38,
-37,
-35,
-35,
-36,
-40,
-40,
-37,
-36,
-37,
-39,
-41,
-39,
-37,
-36,
-37,
-39,
-39,
-35,
-35,
-33,
-35,
-36,
-35,
-32,
-30,
-30,
-32,
-32,
-32,
-29,
-27,
-26,
-27,
-26,
-24,
-20,
-19,
-19,
-20,
-17,
-14,
-14,
-14,
-13,
-12,
-11,
-9,
-7,
-6,
-5,
-3,
0,
2,
2,
3,
7,
7,
7,
8,
9,
14,
15,
12,
13,
15,
18,
20,
19,
18,
22,
26,
29,
28,
25,
27,
29,
34,
32,
31,
31,
32,
34,
35,
33,
34,
34,
36,
38,
38,
37,
37,
38,
38,
38,
39,
38,
38,
37,
38,
39,
37,
35,
33,
37,
36,
36,
32,
29,
30,
32,
33,
29,
26,
25,
27,
29,
27,
22,
20,
21,
23,
20,
15,
14,
14,
15,
12,
9,
7,
7,
8,
7,
4,
2,
2,
2,
-1,
-6,
-7,
-6,
-6,
-10,
-14,
-15,
-14,
-14,
-15,
-17,
-20,
-20,
-19,
-20,
-22,
-26,
-26,
-26,
-25,
-27,
-33,
-33,
-32,
-31,
-33,
-34,
-37,
-37,
-37,
-36,
-34,
-35,
-40,
-40,
-39,
-35,
-37,
-40,
-41,
-41,
-36,
-34,
-38,
-40,
-39,
-37,
-31,
-32,
-38,
-40,
-37,
-31,
-33,
-34,
-37,
-35,
-29,
-26,
-27,
-29,
-30,
-25,
-20,
-20,
-21,
-22,
-22,
-18,
-15,
-13,
-15,
-16,
-15,
-9,
-7,
-7,
-7,
-6,
-2,
1,
1,
2,
2,
2,
6,
7,
8,
7,
8,
11,
14,
16,
16,
17,
18,
20,
24,
25,
24,
23,
26,
27,
28,
27,
28,
31,
32,
33,
33,
33,
34,
34,
35,
35,
37,
37,
38,
39,
37,
37,
38,
39,
39,
37,
35,
38,
39,
38,
37,
34,
35,
36,
37,
35,
32,
29,
32,
35,
34,
30,
28,
30,
31,
28,
25,
21,
22,
21,
20,
19,
16,
15,
14,
16,
14,
13,
11,
9,
9,
7,
6,
3,
2,
0,
-3,
-1,
-3,
-6,
-9,
-10,
-8,
-11,
-11,
-14,
-16,
-16,
-18,
-16,
-20,
-22,
-24,
-22,
-21,
-26,
-26,
-30,
-28,
-27,
-33,
-32,
-32,
-31,
-33,
-35,
-36,
-34,
-35,
-37,
-39,
-39,
-39,
-37,
-37,
-40,
-41,
-40,
-36,
-36,
-41,
-41,
-40,
-35,
-35,
-37,
-38,
-38,
-35,
-32,
-32,
-33,
-35,
-32,
-28,
-27,
-31,
-30,
-29,
-26,
-23,
-23,
-24,
-23,
-22,
-18,
-15,
-14,
-16,
-15,
-13,
-9,
-6,
-8,
-8,
-8,
-5,
0,
0,
-3,
-3,
2,
6,
9,
9,
6,
7,
15,
17,
18,
14,
13,
18,
22,
22,
19,
20,
24,
26,
28,
28,
27,
28,
32,
33,
34,
34,
32,
33,
35,
36,
36,
35,
35,
37,
37,
37,
39,
37,
37,
38,
39,
39,
37,
34,
36,
36,
36,
34,
33,
34,
34,
33,
34,
32,
31,
33,
32,
29,
28,
26,
26,
24,
23,
20,
20,
21,
19,
17,
16,
15,
17,
15,
14,
9,
6,
7,
7,
5,
2,
-2,
-2,
-1,
-1,
-6,
-8,
-8,
-8,
-7,
-9,
-13,
-16,
-16,
-15,
-16,
-19,
-23,
-23,
-21,
-23,
-25,
-30,
-30,
-28,
-31,
-29,
-31,
-32,
-35,
-35,
-32,
-35,
-37,
-39,
-40,
-38,
-38,
-38,
-40,
-41,
-42,
-40,
-39,
-40,
-41,
-40,
-39,
-39,
-40,
-39,
-41,
-38,
-36,
-36,
-35,
-36,
-37,
-34,
-32,
-31,
-35,
-33,
-31,
-30,
-29,
-28,
-28,
-26,
-23,
-23,
-21,
-19,
-19,
-16,
-16,
-16,
-14,
-10,
-9,
-13,
-12,
-10,
-4,
-2,
-3,
-3,
-1,
2,
7,
8,
4,
5,
11,
14,
15,
12,
11,
13,
18,
20,
18,
18,
20,
23,
28,
28,
28,
26,
27,
33,
34,
33,
33,
30,
32,
35,
37,
37,
35,
34,
37,
41,
41,
38,
36,
38,
40,
42,
39,
37,
35,
40,
42,
39,
35,
33,
37,
39,
38,
34,
29,
32,
34,
34,
31,
28,
27,
27,
29,
28,
24,
24,
24,
24,
21,
18,
16,
16,
16,
13,
11,
12,
10,
8,
7,
6,
5,
2,
1,
-1,
-2,
-4,
-5,
-8,
-9,
-11,
-12,
-12,
-14,
-17,
-17,
-17,
-20,
-21,
-22,
-22,
-22,
-24,
-29,
-31,
-28,
-26,
-32,
-34,
-36,
-33,
-33,
-34,
-38,
-40,
-37,
-34,
-36,
-38,
-44,
-42,
-38,
-38,
-41,
-45,
-44,
-41,
-38,
-37,
-39,
-41,
-39,
-38,
-35,
-39,
-39,
-40,
-37,
-33,
-36,
-35,
-37,
-35,
-34,
-30,
-27,
-28,
-27,
-26,
-25,
-22,
-22,
-20,
-21,
-19,
-18,
-16,
-15,
-16,
-14,
-12,
-8,
-7,
-7,
-6,
-2,
0,
1,
2,
3,
4,
3,
6,
7,
9,
9,
11,
13,
16,
17,
19,
20,
20,
21,
24,
25,
25,
28,
27,
27,
29,
31,
32,
31,
29,
33,
35,
37,
35,
33,
35,
39,
40,
39,
37,
37,
38,
41,
40,
38,
36,
37,
41,
40,
38,
34,
34,
37,
38,
35,
34,
30,
32,
33,
35,
32,
27,
28,
30,
32,
28,
25,
24,
23,
22,
21,
19,
16,
14,
15,
16,
15,
11,
9,
8,
10,
9,
5,
1,
0,
1,
1,
-2,
-6,
-10,
-10,
-7,
-8,
-12,
-17,
-15,
-14,
-15,
-19,
-20,
-23,
-22,
-23,
-23,
-28,
-29,
-27,
-31,
-30,
-31,
-35,
-33,
-31,
-32,
-36,
-37,
-36,
-35,
-38,
-40,
-41,
-40,
-39,
-39,
-41,
-42,
-41,
-40,
-40,
-40,
-42,
-41,
-40,
-40,
-39,
-39,
-38,
-39,
-39,
-37,
-35,
-32,
-36,
-36,
-32,
-30,
-31,
-32,
-30,
-30,
-26,
-22,
-25,
-27,
-24,
-18,
-15,
-15,
-19,
-18,
-14,
-9,
-7,
-9,
-12,
-10,
-5,
-3,
-3,
-4,
-1,
2,
6,
6,
5,
7,
10,
12,
15,
15,
15,
16,
16,
18,
20,
21,
20,
23,
25,
26,
30,
29,
28,
29,
31,
35,
35,
33,
33,
35,
35,
37,
35,
35,
37,
38,
39,
39,
39,
38,
39,
40,
40,
39,
38,
39,
37,
36,
37,
36,
37,
35,
35,
35,
37,
36,
33,
33,
32,
30,
31,
29,
25,
22,
25,
26,
24,
20,
16,
18,
20,
20,
16,
12,
11,
12,
11,
10,
4,
2,
1,
2,
3,
-1,
-5,
-5,
-5,
-5,
-5,
-8,
-12,
-13,
-13,
-12,
-14,
-20,
-22,
-22,
-20,
-21,
-26,
-27,
-27,
-26,
-24,
-27,
-30,
-32,
-33,
-32,
-32,
-34,
-37,
-38,
-36,
-35,
-37,
-39,
-40,
-39,
-38,
-38,
-39,
-41,
-40,
-39,
-39,
-40,
-41,
-40,
-38,
-36,
-37,
-37,
-37,
-36,
-35,
-35,
-33,
-35,
-33,
-32,
-31,
-32,
-32,
-29,
-26,
-25,
-27,
-25,
-21,
-18,
-19,
-18,
-19,
-17,
-14,
-10,
-10,
-14,
-12,
-9,
-5,
-4,
-4,
-3,
-1,
3,
4,
6,
6,
6,
8,
11,
13,
12,
12,
12,
16,
19,
23,
20,
18,
22,
27,
30,
31,
25,
25,
30,
34,
34,
29,
29,
32,
36,
38,
35,
33,
33,
38,
41,
39,
36,
36,
39,
42,
39,
36,
35,
39,
38,
39,
39,
38,
36,
37,
37,
35,
34,
33,
31,
32,
31,
30,
33,
29,
26,
28,
28,
28,
25,
23,
20,
22,
21,
17,
15,
14,
14,
13,
12,
10,
7,
9,
7,
6,
5,
1,
1,
0,
-4,
-5,
-5,
-6,
-8,
-12,
-13,
-12,
-11,
-15,
-18,
-21,
-19,
-17,
-18,
-24,
-28,
-27,
-23,
-24,
-28,
-33,
-35,
-32,
-30,
-33,
-36,
-38,
-35,
-34,
-34,
-37,
-40,
-40,
-39,
-37,
-39,
-41,
-41,
-40,
-39,
-39,
-40,
-40,
-39,
-38,
-36,
-36,
-36,
-39,
-38,
-37,
-34,
-35,
-35,
-37,
-35,
-31,
-29,
-29,
-28,
-28,
-24,
-22,
-23,
-23,
-24,
-20,
-19,
-20,
-18,
-19,
-16,
-14,
-11,
-10,
-9,
-7,
-4,
-2,
-2,
-3,
1,
3,
5,
3,
3,
6,
9,
11,
11,
11,
13,
16,
19,
19,
19,
19,
23,
25,
26,
26,
25,
27,
28,
31,
31,
31,
28,
33,
36,
37,
34,
33,
35,
38,
40,
38,
36,
37,
38,
41,
41,
38,
36,
38,
42,
41,
38,
34,
33,
36,
38,
36,
35,
29,
32,
34,
36,
35,
28,
27,
29,
33,
29,
25,
22,
20,
23,
25,
22,
17,
15,
17,
19,
16,
13,
9,
10,
11,
10,
5,
3,
2,
2,
1,
-2,
-4,
-6,
-8,
-7,
-9,
-12,
-11,
-13,
-15,
-16,
-17,
-17,
-19,
-20,
-24,
-24,
-22,
-25,
-26,
-31,
-29,
-29,
-31,
-31,
-32,
-33,
-35,
-33,
-35,
-36,
-38,
-37,
-37,
-38,
-39,
-38,
-39,
-40,
-39,
-38,
-38,
-39,
-41,
-40,
-40,
-35,
-36,
-39,
-40,
-39,
-35,
-32,
-32,
-36,
-37,
-32,
-29,
-28,
-32,
-32,
-29,
-26,
-24,
-25,
-27,
-24,
-20,
-16,
-17,
-18,
-17,
-14,
-10,
-10,
-11,
-10,
-8,
-6,
-5,
-4,
-3,
-2,
-1,
2,
4,
6,
6,
7,
9,
11,
13,
15,
15,
14,
17,
19,
20,
21,
20,
24,
24,
26,
28,
27,
31,
32,
32,
32,
34,
34,
35,
36,
35,
34,
35,
38,
38,
36,
35,
38,
39,
41,
37,
36,
38,
39,
39,
37,
35,
34,
37,
39,
35,
32,
32,
34,
37,
35,
31,
30,
28,
29,
30,
27,
23,
21,
24,
26,
25,
21,
16,
18,
18,
18,
16,
12,
10,
10,
11,
11,
7,
1,
-1,
1,
3,
0,
-7,
-7,
-7,
-5,
-5,
-9,
-15,
-15,
-12,
-12,
-16,
-21,
-23,
-21,
-20,
-21,
-25,
-27,
-27,
-25,
-25,
-27,
-30,
-32,
-32,
-31,
-31,
-34,
-37,
-37,
-36,
-35,
-36,
-38,
-39,
-38,
-38,
-37,
-38,
-40,
-39,
-38,
-39,
-38,
-39,
-38,
-38,
-36,
-36,
-36,
-35,
-33,
-36,
-35,
-34,
-31,
-33,
-32,
-32,
-31,
-28,
-27,
-26,
-26,
-24,
-22,
-19,
-17,
-19,
-17,
-17,
-15,
-13,
-12,
-10,
-12,
-11,
-7,
-5,
-4,
-3,
-3,
0,
3,
7,
8,
6,
7,
10,
14,
14,
13,
11,
14,
18,
20,
18,
19,
20,
23,
29,
29,
27,
25,
29,
32,
33,
30,
30,
32,
36,
35,
33,
34,
36,
37,
38,
37,
37,
37,
38,
39,
37,
38,
38,
39,
38,
38,
37,
38,
39,
35,
34,
37,
36,
34,
32,
32,
33,
30,
30,
29,
29,
28,
27,
27,
26,
25,
25,
23,
20,
17,
17,
17,
17,
12,
9,
11,
12,
10,
6,
3,
3,
6,
5,
1,
-4,
-7,
-6,
-3,
-6,
-13,
-15,
-15,
-10,
-13,
-19,
-21,
-21,
-18,
-18,
-21,
-25,
-27,
-26,
-26,
-26,
-30,
-35,
-34,
-32,
-31,
-35,
-36,
-38,
-38,
-36,
-35,
-36,
-38,
-42,
-40,
-37,
-36,
-41,
-43,
-41,
-39,
-38,
-37,
-41,
-41,
-38,
-35,
-35,
-38,
-39,
-38,
-36,
-33,
-37,
-36,
-37,
-32,
-32,
-30,
-30,
-28,
-25,
-24,
-22,
-23,
-23,
-21,
-20,
-18,
-19,
-17,
-16,
-14,
-14,
-11,
-9,
-8,
-7,
-5,
-3,
-2,
-1,
2,
3,
2,
5,
6,
6,
9,
9,
10,
12,
15,
18,
19,
19,
19,
20,
25,
24,
24,
25,
25,
27,
28,
29,
30,
31,
31,
33,
35,
35,
34,
34,
35,
39,
38,
37,
35,
37,
38,
40,
40,
36,
35,
39,
39,
39,
37,
33,
34,
37,
38,
34,
32,
32,
32,
34,
34,
32,
28,
29,
32,
29,
26,
25,
25,
23,
22,
18,
17,
18,
17,
13,
15,
12,
12,
13,
11,
10,
6,
7,
5,
2,
0,
-4,
-4,
-4,
-5,
-10,
-10,
-9,
-11,
-11,
-13,
-16,
-17,
-18,
-17,
-20,
-22,
-23,
-24,
-25,
-25,
-25,
-30,
-31,
-33,
-33,
-31,
-31,
-34,
-37,
-37,
-33,
-33,
-37,
-40,
-41,
-36,
-36,
-37,
-42,
-44,
-41,
-36,
-36,
-42,
-45,
-42,
-36,
-33,
-39,
-41,
-41,
-38,
-33,
-33,
-37,
-37,
-35,
-30,
-29,
-30,
-33,
-31,
-28,
-26,
-26,
-24,
-26,
-24,
-21,
-18,
-17,
-16,
-18,
-15,
-11,
-9,
-7,
-10,
-9,
-7,
-2,
-1,
-3,
-4,
-1,
5,
7,
6,
5,
9,
12,
15,
15,
14,
15,
18,
19,
20,
19,
18,
21,
25,
26,
25,
27,
30,
32,
32,
30,
32,
34,
35,
35,
33,
34,
36,
37,
37,
36,
36,
37,
41,
40,
38,
37,
39,
40,
39,
38,
36,
37,
36,
36,
37,
37,
35,
34,
35,
35,
36,
33,
32,
31,
29,
30,
29,
24,
23,
25,
25,
24,
21,
17,
18,
20,
20,
17,
13,
11,
12,
11,
9,
5,
1,
1,
2,
1,
-2,
-5,
-5,
-5,
-4,
-5,
-9,
-12,
-12,
-13,
-15,
-16,
-19,
-21,
-20,
-21,
-23,
-24,
-26,
-26,
-26,
-27,
-30,
-30,
-30,
-33,
-33,
-34,
-33,
-36,
-35,
-37,
-38,
-37,
-37,
-38,
-39,
-39,
-39,
-38,
-38,
-40,
-41,
-42,
-40,
-38,
-37,
-38,
-39,
-38,
-36,
-35,
-33,
-36,
-36,
-37,
-32,
-32,
-33,
-32,
-32,
-31,
-27,
-24,
-25,
-26,
-23,
-20,
-17,
-19,
-20,
-19,
-16,
-12,
-11,
-14,
-16,
-12,
-5,
-3,
-4,
-7,
-5,
1,
6,
7,
4,
4,
7,
12,
14,
10,
9,
11,
16,
19,
19,
17,
17,
22,
24,
27,
27,
25,
26,
30,
31,
32,
29,
30,
32,
34,
35,
34,
34,
34,
36,
37,
37,
39,
36,
37,
39,
40,
38,
35,
38,
37,
39,
37,
35,
37,
36,
37,
37,
34,
32,
33,
34,
32,
28,
28,
30,
31,
28,
25,
25,
25,
26,
25,
20,
17,
17,
18,
19,
13,
10,
9,
11,
12,
7,
5,
3,
5,
6,
1,
-1,
-3,
-4,
-5,
-5,
-7,
-10,
-13,
-15,
-13,
-14,
-17,
-18,
-21,
-21,
-20,
-19,
-24,
-27,
-27,
-25,
-25,
-27,
-33,
-34,
-32,
-31,
-32,
-36,
-39,
-36,
-35,
-35,
-37,
-41,
-42,
-38,
-37,
-39,
-40,
-41,
-41,
-39,
-40,
-40,
-40,
-38,
-36,
-37,
-37,
-39,
-39,
-37,
-37,
-35,
-36,
-33,
-35,
-35,
-33,
-31,
-28,
-26,
-27,
-28,
-25,
-22,
-23,
-20,
-20,
-20,
-19,
-15,
-16,
-17,
-15,
-12,
-8,
-7,
-6,
-5,
-5,
-1,
1,
2,
3,
3,
2,
6,
8,
10,
9,
10,
11,
16,
18,
19,
18,
18,
23,
27,
27,
26,
23,
26,
31,
32,
29,
28,
29,
31,
34,
38,
35,
32,
33,
37,
40,
39,
36,
35,
38,
40,
40,
39,
36,
37,
39,
41,
39,
34,
34,
36,
37,
36,
34,
32,
34,
34,
33,
32,
32,
29,
30,
31,
32,
27,
25,
25,
24,
22,
19,
19,
17,
17,
16,
15,
14,
12,
9,
11,
11,
7,
5,
3,
2,
2,
-1,
-4,
-6,
-5,
-6,
-7,
-12,
-13,
-13,
-13,
-13,
-17,
-20,
-18,
-17,
-20,
-24,
-26,
-25,
-24,
-25,
-30,
-32,
-33,
-31,
-30,
-31,
-36,
-37,
-35,
-31,
-35,
-39,
-40,
-38,
-36,
-38,
-39,
-41,
-42,
-40,
-37,
-38,
-41,
-40,
-40,
-39,
-36,
-39,
-38,
-38,
-38,
-36,
-34,
-33,
-35,
-36,
-33,
-29,
-29,
-33,
-32,
-30,
-26,
-24,
-25,
-27,
-25,
-22,
-17,
-16,
-18,
-18,
-13,
-10,
-10,
-10,
-10,
-8,
-5,
-5,
-5,
-4,
-1,
1,
2,
3,
5,
8,
11,
9,
10,
13,
16,
17,
16,
15,
17,
21,
22,
23,
22,
23,
25,
30,
28,
28,
28,
30,
33,
35,
34,
31,
34,
35,
36,
36,
35,
36,
38,
39,
41,
39,
39,
38,
38,
40,
40,
39,
34,
35,
36,
38,
39,
35,
33,
33,
36,
39,
34,
31,
30,
33,
34,
29,
26,
23,
24,
27,
26,
23,
18,
17,
20,
21,
18,
14,
11,
13,
12,
9,
8,
4,
4,
3,
2,
0,
-3,
-4,
-4,
-3,
-6,
-7,
-9,
-9,
-12,
-13,
-14,
-17,
-19,
-20,
-19,
-21,
-23,
-26,
-25,
-25,
-26,
-26,
-31,
-30,
-31,
-33,
-33,
-35,
-35,
-36,
-35,
-37,
-39,
-39,
-37,
-37,
-38,
-39,
-40,
-39,
-38,
-39,
-38,
-41,
-41,
-37,
-37,
-37,
-40,
-41,
-37,
-35,
-32,
-37,
-38,
-37,
-32,
-31,
-31,
-33,
-33,
-31,
-26,
-25,
-27,
-27,
-23,
-19,
-16,
-20,
-19,
-18,
-14,
-12,
-11,
-13,
-15,
-10,
-6,
-5,
-5,
-5,
-3,
0,
4,
4,
5,
5,
6,
9,
11,
13,
12,
11,
14,
16,
20,
19,
19,
19,
23,
28,
28,
26,
25,
28,
31,
34,
32,
29,
32,
34,
34,
33,
34,
35,
36,
38,
38,
38,
38,
38,
39,
36,
37,
39,
40,
39,
36,
37,
37,
41,
38,
34,
35,
35,
37,
34,
32,
28,
29,
31,
33,
29,
26,
26,
28,
28,
25,
20,
19,
20,
20,
17,
16,
12,
12,
12,
11,
10,
7,
7,
6,
6,
6,
3,
1,
-2,
-4,
-4,
-4,
-6,
-12,
-14,
-11,
-9,
-13,
-19,
-20,
-19,
-16,
-18,
-22,
-25,
-26,
-23,
-23,
-27,
-32,
-33,
-31,
-29,
-31,
-36,
-37,
-35,
-32,
-36,
-37,
-39,
-38,
-37,
-38,
-39,
-40,
-40,
-39,
-39,
-40,
-40,
-38,
-37,
-38,
-37,
-37,
-37,
-36,
-37,
-37,
-36,
-35,
-35,
-34,
-32,
-33,
-34,
-31,
-29,
-27,
-25,
-24,
-25,
-23,
-22,
-18,
-19,
-20,
-20,
-17,
-14,
-14,
-15,
-14,
-10,
-6,
-3,
-4,
-5,
-4,
1,
6,
4,
2,
1,
6,
10,
11,
8,
8,
11,
16,
18,
19,
18,
18,
21,
26,
26,
23,
25,
25,
28,
30,
30,
30,
28,
32,
35,
37,
35,
34,
34,
38,
41,
39,
37,
37,
37,
39,
41,
39,
37,
36,
39,
40,
40,
38,
35,
35,
38,
37,
33,
34,
33,
34,
35,
35,
33,
29,
30,
31,
32,
27,
25,
25,
24,
22,
19,
19,
18,
17,
15,
16,
14,
12,
11,
11,
9,
6,
7,
5,
2,
1,
-1,
-3,
-1,
-4,
-8,
-9,
-10,
-9,
-11,
-13,
-16,
-16,
-16,
-16,
-19,
-24,
-25,
-23,
-22,
-25,
-30,
-33,
-30,
-29,
-31,
-32,
-34,
-35,
-34,
-32,
-36,
-36,
-39,
-38,
-38,
-38,
-39,
-40,
-40,
-40,
-39,
-38,
-39,
-40,
-42,
-40,
-37,
-36,
-38,
-40,
-40,
-35,
-35,
-35,
-37,
-36,
-34,
-30,
-29,
-32,
-33,
-30,
-26,
-26,
-27,
-27,
-25,
-22,
-21,
-19,
-20,
-17,
-14,
-13,
-13,
-13,
-12,
-7,
-7,
-8,
-7,
-5,
-2,
-1,
-1,
0,
3,
7,
7,
10,
9,
11,
15,
