5-grundlagen-opAmps/data/ALL0010/A0010CH1.CSV

Memory Length,4000,
Trigger Level,0.00000e+00,
Source,CH1,
Probe,1.0X,
Vertical Units,V,
Vertical Scale,5.00000e-02,
Vertical Position,0.00000e+00,
Horizontal Units,S,
Horizontal Scale,1.00000e-07,
Horizontal Position,1.0000000e-07,
Horizontal Mode,Main,
Sampling Period,2.00000e-09,
Firmware,V1.14,
Time, ,
Mode,Fast,
Waveform Data,
18,
18,
10,
4,
7,
13,
14,
9,
1,
0,
6,
12,
8,
-1,
-5,
0,
8,
7,
-2,
-10,
-10,
-3,
1,
-1,
-11,
-16,
-14,
-5,
-6,
-11,
-17,
-20,
-15,
-11,
-14,
-20,
-23,
-22,
-19,
-15,
-17,
-24,
-28,
-27,
-20,
-19,
-26,
-30,
-30,
-25,
-22,
-26,
-31,
-34,
-30,
-27,
-24,
-31,
-36,
-32,
-28,
-26,
-31,
-36,
-35,
-29,
-26,
-31,
-31,
-31,
-30,
-28,
-29,
-30,
-31,
-27,
-25,
-27,
-29,
-29,
-24,
-22,
-24,
-28,
-27,
-21,
-19,
-17,
-21,
-22,
-20,
-17,
-13,
-17,
-18,
-14,
-12,
-9,
-12,
-13,
-11,
-8,
-6,
-5,
-5,
-8,
-7,
-3,
3,
1,
-3,
-4,
-1,
5,
7,
6,
4,
0,
4,
12,
15,
10,
4,
7,
15,
17,
14,
11,
9,
14,
19,
18,
14,
12,
15,
24,
23,
18,
14,
13,
20,
26,
21,
17,
15,
18,
22,
22,
21,
18,
18,
18,
20,
20,
18,
18,
17,
16,
17,
18,
19,
15,
13,
14,
15,
15,
15,
12,
11,
11,
11,
12,
9,
5,
5,
7,
8,
6,
3,
1,
1,
1,
1,
0,
-3,
-7,
-6,
-3,
0,
-6,
-10,
-12,
-10,
-6,
-7,
-10,
-17,
-19,
-14,
-6,
-11,
-21,
-26,
-24,
-14,
-13,
-21,
-28,
-28,
-20,
-16,
-21,
-29,
-31,
-26,
-20,
-21,
-30,
-37,
-35,
-25,
-22,
-26,
-35,
-36,
-29,
-24,
-25,
-31,
-38,
-35,
-29,
-27,
-28,
-32,
-36,
-31,
-27,
-26,
-28,
-32,
-31,
-28,
-25,
-23,
-28,
-30,
-27,
-20,
-20,
-24,
-27,
-26,
-20,
-16,
-18,
-20,
-22,
-19,
-13,
-12,
-16,
-18,
-16,
-9,
-8,
-10,
-11,
-10,
-7,
-5,
-5,
-5,
-4,
0,
0,
0,
-3,
-2,
4,
7,
3,
0,
2,
8,
12,
11,
5,
4,
11,
15,
16,
12,
7,
10,
17,
19,
15,
11,
12,
18,
21,
18,
16,
13,
17,
22,
23,
21,
15,
15,
19,
23,
25,
20,
16,
16,
20,
25,
23,
17,
12,
14,
22,
23,
19,
12,
11,
17,
21,
19,
13,
8,
11,
16,
16,
13,
4,
4,
11,
12,
9,
2,
0,
5,
7,
6,
3,
-2,
-2,
0,
1,
-1,
-6,
-7,
-7,
-6,
-7,
-7,
-8,
-11,
-13,
-14,
-12,
-12,
-14,
-16,
-19,
-16,
-16,
-17,
-20,
-23,
-22,
-22,
-20,
-20,
-25,
-28,
-27,
-23,
-25,
-28,
-31,
-29,
-28,
-27,
-27,
-30,
-31,
-33,
-31,
-26,
-28,
-33,
-35,
-33,
-26,
-25,
-29,
-35,
-38,
-32,
-25,
-21,
-31,
-38,
-34,
-26,
-19,
-24,
-34,
-32,
-25,
-20,
-20,
-27,
-29,
-25,
-16,
-13,
-20,
-26,
-24,
-17,
-10,
-14,
-20,
-20,
-16,
-11,
-8,
-10,
-15,
-14,
-8,
-3,
-4,
-6,
-8,
-5,
-2,
0,
0,
-1,
-1,
2,
5,
8,
5,
2,
5,
9,
10,
8,
8,
9,
11,
15,
16,
13,
10,
13,
18,
16,
17,
15,
16,
20,
19,
18,
17,
17,
21,
20,
18,
17,
18,
23,
23,
20,
15,
16,
23,
25,
20,
15,
13,
19,
24,
22,
16,
12,
15,
19,
22,
19,
9,
8,
16,
18,
14,
8,
6,
9,
12,
14,
9,
1,
1,
6,
11,
9,
0,
-4,
-3,
3,
4,
0,
-7,
-9,
-7,
-3,
-2,
-5,
-14,
-14,
-8,
-7,
-9,
-16,
-20,
-15,
-12,
-13,
-20,
-20,
-21,
-17,
-13,
-20,
-26,
-27,
-25,
-20,
-21,
-28,
-29,
-28,
-25,
-24,
-27,
-29,
-30,
-30,
-29,
-28,
-28,
-31,
-32,
-31,
-31,
-31,
-28,
-31,
-31,
-33,
-32,
-27,
-27,
-30,
-33,
-32,
-27,
-25,
-27,
-28,
-30,
-28,
-24,
-24,
-25,
-28,
-26,
-20,
-19,
-21,
-24,
-24,
-20,
-17,
-15,
-15,
-19,
-20,
-15,
-10,
-8,
-12,
-14,
-13,
-7,
-2,
-3,
-7,
-11,
-8,
0,
6,
1,
-6,
-5,
3,
9,
7,
2,
0,
4,
10,
13,
8,
3,
5,
14,
18,
12,
6,
9,
15,
21,
18,
13,
11,
14,
19,
21,
19,
15,
16,
18,
20,
19,
19,
20,
19,
19,
18,
21,
20,
19,
19,
20,
20,
19,
18,
18,
19,
18,
18,
17,
16,
16,
17,
16,
13,
13,
14,
14,
13,
9,
8,
11,
12,
8,
3,
3,
8,
10,
6,
2,
-2,
0,
4,
4,
-3,
-8,
-9,
-3,
1,
-3,
-13,
-16,
-11,
-3,
-5,
-13,
-18,
-19,
-13,
-8,
-13,
-20,
-24,
-20,
-13,
-17,
-23,
-27,
-27,
-19,
-19,
-24,
-28,
-30,
-27,
-24,
-20,
-28,
-34,
-35,
-28,
-23,
-25,
-32,
-35,
-32,
-27,
-25,
-28,
-35,
-38,
-33,
-26,
-26,
-32,
-35,
-32,
-27,
-24,
-28,
-32,
-31,
-27,
-24,
-25,
-29,
-30,
-26,
-20,
-21,
-24,
-26,
-24,
-22,
-20,
-19,
-18,
-19,
-19,
-16,
-16,
-13,
-14,
-13,
-12,
-12,
-11,
-7,
-4,
-9,
-11,
-8,
-3,
0,
-1,
-4,
-4,
1,
2,
4,
2,
0,
2,
7,
9,
7,
5,
6,
9,
13,
15,
12,
9,
10,
15,
18,
17,
14,
11,
14,
19,
22,
18,
14,
14,
18,
24,
24,
20,
13,
13,
20,
26,
22,
16,
14,
18,
24,
24,
18,
12,
15,
20,
23,
19,
12,
12,
19,
21,
18,
11,
9,
12,
17,
16,
12,
8,
7,
11,
12,
9,
5,
4,
5,
5,
3,
2,
3,
3,
0,
-1,
-2,
-3,
-3,
-4,
-6,
-7,
-10,
-8,
-8,
-10,
-13,
-14,
-14,
-13,
-13,
-15,
-15,
-19,
-19,
-17,
-18,
-19,
-22,
-24,
-20,
-18,
-23,
-28,
-30,
-26,
-20,
-23,
-31,
-33,
-31,
-24,
-21,
-28,
-35,
-37,
-31,
-21,
-25,
-34,
-39,
-35,
-25,
-24,
-32,
-36,
-38,
-29,
-24,
-26,
-31,
-35,
-32,
-24,
-22,
-28,
-34,
-30,
-23,
-20,
-21,
-26,
-28,
-26,
-20,
-15,
-19,
-24,
-24,
-19,
-13,
-13,
-16,
-19,
-19,
-13,
-5,
-7,
-11,
-14,
-10,
-3,
-3,
-5,
-8,
-7,
-1,
1,
0,
-3,
-2,
2,
6,
5,
4,
3,
5,
9,
10,
8,
7,
9,
11,
10,
13,
14,
13,
14,
14,
12,
17,
18,
19,
17,
14,
16,
19,
22,
20,
16,
16,
19,
22,
24,
19,
17,
17,
20,
23,
20,
17,
16,
19,
22,
20,
17,
14,
16,
18,
19,
17,
15,
11,
12,
17,
16,
13,
8,
7,
10,
12,
12,
7,
2,
2,
6,
9,
6,
0,
-4,
1,
4,
2,
-3,
-8,
-6,
-3,
-3,
-7,
-10,
-11,
-9,
-8,
-10,
-14,
-16,
-12,
-12,
-13,
-19,
-24,
-18,
-17,
-18,
-20,
-25,
-23,
-23,
-24,
-25,
-25,
-25,
-26,
-26,
-28,
-30,
-28,
-25,
-27,
-32,
-32,
-31,
-28,
-27,
-30,
-32,
-32,
-32,
-28,
-28,
-30,
-33,
-33,
-29,
-27,
-29,
-32,
-31,
-29,
-26,
-25,
-27,
-31,
-30,
-25,
-20,
-22,
-28,
-32,
-24,
-16,
-16,
-20,
-28,
-25,
-17,
-9,
-11,
-22,
-24,
-15,
-7,
-4,
-12,
-20,
-15,
-6,
0,
-3,
-11,
-12,
-6,
4,
5,
-3,
-8,
-4,
4,
8,
4,
1,
1,
5,
10,
11,
10,
3,
6,
13,
16,
14,
8,
11,
12,
17,
19,
17,
12,
12,
16,
23,
23,
18,
14,
16,
20,
21,
20,
18,
17,
21,
22,
22,
19,
18,
20,
22,
20,
18,
16,
17,
21,
19,
17,
17,
17,
16,
15,
14,
15,
15,
15,
12,
9,
9,
11,
14,
11,
3,
2,
6,
11,
8,
2,
0,
-2,
4,
4,
0,
-3,
-7,
-4,
-1,
-3,
-7,
-12,
-10,
-7,
-7,
-11,
-14,
-15,
-15,
-13,
-13,
-15,
-20,
-23,
-18,
-15,
-17,
-22,
-27,
-24,
-19,
-20,
-25,
-28,
-30,
-26,
-24,
-24,
-30,
-33,
-32,
-27,
-25,
-30,
-34,
-33,
-28,
-27,
-29,
-32,
-34,
-31,
-29,
-28,
-31,
-33,
-30,
-28,
-29,
-31,
-31,
-29,
-26,
-27,
-29,
-28,
-26,
-25,
-26,
-27,
-25,
-22,
-20,
-24,
-24,
-25,
-20,
-13,
-15,
-20,
-21,
-18,
-12,
-9,
-11,
-15,
-15,
-12,
-5,
-4,
-8,
-12,
-8,
-3,
0,
0,
-4,
-5,
-2,
3,
6,
3,
-2,
-1,
8,
12,
11,
5,
2,
6,
14,
18,
15,
7,
5,
12,
22,
21,
12,
7,
12,
21,
26,
19,
12,
10,
21,
27,
23,
17,
11,
16,
24,
26,
20,
14,
16,
20,
25,
22,
17,
15,
17,
21,
22,
17,
13,
13,
16,
19,
18,
15,
11,
12,
13,
16,
16,
10,
7,
6,
11,
12,
7,
3,
3,
5,
5,
2,
0,
0,
0,
1,
0,
-3,
-6,
-5,
-4,
-5,
-9,
-11,
-10,
-8,
-10,
-14,
-15,
-12,
-13,
-16,
-19,
-19,
-17,
-14,
-20,
-23,
-25,
-22,
-17,
-18,
-25,
-32,
-29,
-23,
-21,
-26,
-32,
-31,
-28,
-24,
-26,
-31,
-32,
-31,
-28,
-28,
-30,
-34,
-33,
-29,
-28,
-30,
-32,
-33,
-31,
-29,
-28,
-27,
-30,
-33,
-31,
-25,
-24,
-27,
-32,
-30,
-25,
-22,
-21,
-24,
-27,
-25,
-19,
-16,
-19,
-23,
-24,
-17,
-15,
-15,
-17,
-17,
-13,
-12,
-10,
-13,
-11,
-10,
-7,
-6,
-8,
-7,
-3,
0,
-2,
-4,
-3,
1,
2,
1,
0,
3,
7,
8,
7,
4,
5,
9,
15,
14,
7,
6,
11,
18,
19,
15,
7,
12,
18,
24,
22,
14,
12,
15,
22,
24,
20,
16,
15,
19,
25,
24,
19,
16,
17,
22,
25,
21,
15,
14,
19,
25,
25,
17,
12,
12,
20,
24,
21,
12,
6,
11,
20,
21,
11,
2,
5,
12,
17,
13,
4,
0,
4,
10,
9,
2,
-3,
-2,
4,
4,
-1,
-7,
-8,
-4,
-2,
-4,
-9,
-12,
-11,
-10,
-10,
-11,
-15,
-16,
-12,
-13,
-14,
-16,
-20,
-19,
-19,
-19,
-20,
-20,
-23,
-24,
-25,
-24,
-23,
-25,
-26,
-28,
-26,
-28,
-31,
-28,
-27,
-29,
-30,
-32,
-30,
-29,
-28,
-31,
-34,
-33,
-29,
-28,
-30,
-34,
-33,
-28,
-26,
-28,
-33,
-33,
-28,
-24,
-25,
-29,
-32,
-29,
-21,
-19,
-24,
-31,
-31,
-20,
-17,
-18,
-24,
-26,
-21,
-16,
-15,
-16,
-19,
-19,
-13,
-10,
-11,
-14,
-14,
-11,
-7,
-7,
-7,
-8,
-7,
-4,
-1,
1,
-1,
-3,
-3,
1,
5,
6,
4,
1,
3,
8,
13,
11,
6,
5,
11,
16,
13,
11,
11,
14,
15,
17,
16,
15,
17,
17,
18,
19,
18,
18,
20,
19,
18,
18,
23,
21,
18,
17,
18,
22,
22,
18,
16,
16,
19,
23,
20,
15,
14,
17,
22,
21,
13,
7,
11,
19,
21,
16,
9,
5,
11,
14,
16,
10,
2,
2,
9,
13,
7,
1,
-3,
0,
6,
3,
0,
-6,
-7,
-3,
0,
-1,
-11,
-15,
-11,
-4,
-3,
-11,
-18,
-18,
-13,
-7,
-9,
-19,
-24,
-22,
-13,
-12,
-19,
-28,
-29,
-20,
-16,
-19,
-27,
-31,
-26,
-23,
-24,
-27,
-33,
-33,
-28,
-25,
-28,
-32,
-33,
-30,
-26,
-28,
-32,
-32,
-31,
-30,
-30,
-29,
-31,
-32,
-30,
-29,
-29,
-31,
-31,
-28,
-28,
-28,
-29,
-28,
-26,
-27,
-25,
-26,
-24,
-23,
-24,
-19,
-22,
-24,
-22,
-17,
-15,
-16,
-20,
-19,
-16,
-12,
-10,
-12,
-15,
-15,
-8,
-4,
-7,
-11,
-10,
-3,
1,
0,
-4,
-7,
-1,
5,
7,
1,
-4,
-1,
7,
14,
10,
4,
2,
8,
15,
16,
12,
8,
9,
15,
18,
17,
13,
12,
16,
20,
20,
16,
14,
16,
19,
19,
21,
19,
17,
18,
20,
22,
22,
18,
16,
17,
21,
23,
20,
17,
16,
17,
21,
20,
17,
13,
14,
16,
18,
16,
12,
12,
13,
13,
13,
11,
11,
8,
9,
8,
7,
7,
7,
5,
2,
1,
3,
4,
-1,
-5,
-4,
-1,
0,
-4,
-9,
-10,
-7,
-4,
-5,
-12,
-18,
-16,
-9,
-7,
-15,
-22,
-20,
-16,
-11,
-14,
-24,
-27,
-24,
-19,
-16,
-20,
-29,
-31,
-27,
-20,
-23,
-29,
-32,
-32,
-26,
-24,
-28,
-32,
-34,
-32,
-26,
-26,
-31,
-37,
-35,
-28,
-24,
-27,
-35,
-37,
-31,
-26,
-25,
-29,
-35,
-35,
-27,
-21,
-25,
-30,
-32,
-27,
-21,
-23,
-28,
-28,
-26,
-21,
-17,
-21,
-23,
-23,
-18,
-14,
-18,
-20,
-17,
-14,
-11,
-13,
-14,
-11,
-9,
-8,
-8,
-7,
-8,
-6,
-4,
-3,
-4,
-2,
0,
1,
2,
1,
1,
4,
7,
8,
6,
5,
6,
9,
13,
13,
10,
9,
10,
13,
17,
16,
12,
13,
15,
19,
22,
17,
13,
13,
18,
24,
22,
16,
14,
18,
26,
25,
20,
12,
14,
23,
27,
21,
13,
11,
19,
25,
22,
16,
12,
13,
19,
23,
19,
12,
10,
13,
17,
17,
11,
8,
9,
12,
13,
9,
5,
4,
5,
6,
7,
4,
1,
-1,
1,
3,
1,
-3,
-5,
-7,
-4,
-2,
-5,
-8,
-12,
-12,
-10,
-9,
-11,
-15,
-15,
-15,
-15,
-15,
-16,
-18,
-21,
-22,
-20,
-19,
-21,
-23,
-25,
-27,
-25,
-24,
-25,
-27,
-29,
-29,
-25,
-25,
-28,
-33,
-35,
-28,
-25,
-27,
-35,
-36,
-31,
-26,
-26,
-32,
-37,
-35,
-28,
-23,
-28,
-36,
-37,
-31,
-22,
-23,
-28,
-34,
-31,
-24,
-20,
-24,
-27,
-30,
-27,
-18,
-19,
-22,
-26,
-24,
-18,
-15,
-16,
-17,
-21,
-18,
-10,
-9,
-12,
-16,
-16,
-9,
-3,
-4,
-8,
-11,
-8,
-3,
1,
1,
-6,
-5,
1,
5,
6,
2,
2,
4,
9,
8,
7,
6,
8,
12,
13,
12,
9,
11,
16,
17,
14,
12,
14,
17,
18,
16,
16,
16,
21,
19,
17,
16,
15,
20,
23,
20,
16,
16,
20,
24,
22,
18,
15,
17,
20,
22,
21,
15,
13,
16,
21,
20,
15,
11,
11,
16,
18,
17,
11,
7,
9,
12,
16,
13,
3,
2,
7,
12,
9,
2,
-4,
-1,
6,
6,
0,
-8,
-9,
-1,
5,
-1,
-11,
-15,
-11,
-3,
-3,
-11,
-18,
-17,
-12,
-10,
-12,
-16,
-22,
-21,
-15,
-16,
-20,
-23,
-24,
-21,
-21,
-22,
-25,
-26,
-28,
-27,
-27,
-26,
-28,
-31,
-31,
-27,
-25,
-29,
-32,
-32,
-30,
-27,
-27,
-30,
-34,
-34,
-32,
-28,
-28,
-30,
-33,
-30,
-30,
-28,
-27,
-29,
-28,
-29,
-29,
-26,
-23,
-26,
-28,
-28,
-26,
-22,
-20,
-22,
-25,
-24,
-19,
-13,
-16,
-21,
-24,
-16,
-10,
-10,
-15,
-18,
-14,
-7,
-4,
-5,
-13,
-13,
-5,
1,
1,
-5,
-7,
-3,
4,
6,
3,
-1,
-1,
4,
10,
10,
5,
2,
6,
11,
14,
11,
11,
10,
13,
16,
16,
14,
11,
12,
19,
19,
18,
15,
13,
18,
21,
22,
19,
17,
15,
19,
23,
21,
18,
17,
19,
21,
20,
18,
17,
19,
19,
19,
16,
14,
19,
20,
19,
14,
12,
14,
16,
17,
11,
8,
11,
14,
15,
8,
5,
5,
9,
11,
6,
2,
-1,
2,
7,
4,
-3,
-6,
-3,
2,
1,
-4,
-10,
-10,
-7,
-3,
-5,
-12,
-18,
-16,
-8,
-9,
-13,
-20,
-24,
-17,
-14,
-14,
-19,
-27,
-26,
-21,
-17,
-17,
-28,
-32,
-28,
-19,
-20,
-28,
-35,
-32,
-23,
-20,
-27,
-34,
-37,
-30,
-24,
-24,
-32,
-39,
-35,
-26,
-24,
-28,
-35,
-35,
-29,
-27,
-27,
-31,
-31,
-31,
-28,
-26,
-27,
-28,
-28,
-27,
-25,
-25,
-26,
-24,
-23,
-23,
-22,
-19,
-20,
-21,
-20,
-19,
-15,
-14,
-16,
-16,
-16,
-13,
-10,
-7,
-10,
-13,
-8,
-6,
-6,
-5,
-6,
-4,
-4,
-2,
3,
3,
1,
-1,
0,
5,
7,
7,
5,
5,
6,
9,
14,
12,
7,
6,
13,
19,
17,
11,
9,
13,
20,
23,
17,
12,
14,
19,
24,
24,
15,
14,
19,
23,
25,
19,
16,
16,
21,
25,
22,
17,
15,
17,
22,
21,
18,
15,
16,
17,
18,
18,
16,
15,
14,
15,
15,
14,
10,
8,
12,
12,
10,
8,
5,
6,
7,
7,
7,
1,
2,
1,
3,
1,
-2,
-4,
-2,
-3,
-6,
-8,
-8,
-6,
-6,
-12,
-14,
-12,
-11,
-8,
-12,
-17,
-19,
-18,
-10,
-15,
-21,
-26,
-25,
-17,
-17,
-24,
-30,
-29,
-22,
-20,
-25,
-31,
-34,
-28,
-21,
-22,
-29,
-36,
-35,
-27,
-23,
-27,
-36,
-36,
-31,
-26,
-27,
-31,
-36,
-36,
-29,
-24,
-26,
-31,
-36,
-32,
-26,
-22,
-25,
-32,
-33,
-27,
-21,
-20,
-27,
-32,
-28,
-17,
-15,
-21,
-28,
-27,
-19,
-11,
-13,
-19,
-22,
-19,
-8,
-5,
-12,
-18,
-16,
-7,
-3,
-5,
-8,
-11,
-6,
-2,
-2,
-1,
-3,
-2,
1,
3,
1,
2,
5,
6,
5,
6,
7,
8,
9,
9,
9,
11,
11,
11,
13,
13,
14,
16,
17,
16,
15,
15,
17,
20,
20,
17,
17,
18,
20,
23,
21,
19,
17,
18,
21,
22,
21,
17,
17,
18,
20,
22,
19,
16,
14,
17,
21,
20,
13,
9,
14,
17,
18,
13,
7,
9,
13,
15,
13,
6,
3,
6,
12,
12,
4,
-2,
0,
3,
6,
1,
-4,
-4,
-3,
-1,
0,
-4,
-9,
-9,
-8,
-8,
-9,
-12,
-12,
-11,
-14,
-14,
-15,
-15,
-18,
-18,
-16,
-19,
-19,
-21,
-21,
-20,
-21,
-23,
-26,
-26,
-25,
-26,
-26,
-27,
-28,
-29,
-29,
-31,
-30,
-29,
-28,
-30,
-31,
-33,
-31,
-27,
-29,
-32,
-36,
-34,
-28,
-26,
-28,
-33,
-35,
-31,
-26,
-23,
-30,
-34,
-30,
-24,
-19,
-24,
-33,
-31,
-24,
-17,
-19,
-27,
-29,
-24,
-14,
-12,
-18,
-24,
-24,
-13,
-9,
-10,
-15,
-19,
-14,
-8,
-4,
-6,
-12,
-13,
-6,
1,
1,
-4,
-8,
-5,
1,
6,
5,
-1,
-2,
2,
10,
12,
5,
2,
4,
12,
17,
13,
10,
6,
11,
18,
19,
14,
9,
11,
18,
23,
18,
12,
13,
19,
22,
23,
21,
17,
17,
19,
22,
20,
19,
18,
20,
19,
19,
18,
19,
21,
19,
17,
16,
17,
19,
17,
16,
14,
15,
16,
14,
12,
10,
11,
14,
14,
8,
5,
7,
11,
10,
7,
4,
1,
3,
4,
6,
2,
-3,
-4,
-4,
0,
0,
-4,
-8,
-10,
-6,
-4,
-5,
-11,
-17,
-14,
-9,
-9,
-15,
-21,
-20,
-15,
-12,
-17,
-24,
-26,
-21,
-18,
-19,
-24,
-30,
-29,
-22,
-20,
-25,
-32,
-32,
-28,
-25,
-27,
-31,
-32,
-30,
-30,
-29,
-30,
-31,
-31,
-32,
-31,
-30,
-30,
-28,
-31,
-30,
-32,
-29,
-28,
-29,
-30,
-32,
-29,
-26,
-27,
-27,
-28,
-26,
-25,
-25,
-23,
-24,
-25,
-24,
-19,
-19,
-19,
-20,
-20,
-18,
-16,
-13,
-11,
-17,
-18,
-14,
-7,
-4,
-8,
-13,
-12,
-6,
1,
1,
-6,
-10,
-5,
4,
8,
0,
-7,
-4,
6,
12,
8,
2,
0,
9,
16,
16,
9,
2,
7,
17,
20,
14,
7,
9,
15,
22,
23,
15,
11,
14,
19,
25,
22,
15,
14,
17,
23,
25,
20,
16,
16,
19,
23,
23,
18,
14,
16,
20,
24,
20,
14,
14,
17,
21,
19,
14,
11,
12,
17,
17,
15,
7,
6,
13,
15,
11,
5,
5,
7,
8,
7,
4,
2,
1,
2,
1,
0,
-2,
-2,
-2,
-4,
-6,
-8,
-6,
-4,
-7,
-13,
-13,
-12,
-11,
-11,
-13,
-18,
-16,
-15,
-16,
-17,
-22,
-21,
-20,
-17,
-21,
-26,
-27,
-26,
-21,
-23,
-26,
-29,
-30,
-27,
-24,
-24,
-31,
-35,
-34,
-27,
-25,
-28,
-33,
-36,
-33,
-27,
-27,
-29,
-36,
-35,
-30,
-24,
-28,
-34,
-33,
-31,
-25,
-24,
-32,
-32,
-30,
-24,
-21,
-26,
-29,
-29,
-24,
-18,
-20,
-23,
-26,
-20,
-17,
-17,
-16,
-18,
-17,
-16,
-14,
-11,
-12,
-11,
-10,
-11,
-9,
-8,
-4,
-4,
-6,
-7,
-4,
0,
1,
0,
-2,
0,
3,
5,
7,
5,
4,
5,
10,
10,
8,
6,
8,
12,
14,
14,
14,
10,
13,
16,
17,
19,
15,
10,
16,
21,
25,
21,
15,
12,
18,
26,
25,
18,
12,
14,
24,
28,
21,
14,
12,
20,
28,
24,
16,
11,
14,
23,
23,
17,
8,
9,
18,
22,
18,
9,
6,
9,
16,
16,
12,
4,
3,
8,
13,
11,
4,
-2,
0,
4,
5,
1,
-5,
-5,
-4,
0,
0,
-5,
-9,
-10,
-8,
-4,
-9,
-14,
-15,
-11,
-11,
-13,
-16,
-19,
-17,
-16,
-14,
-19,
-23,
-23,
-20,
-18,
-21,
-26,
-28,
-24,
-23,
-27,
-30,
-29,
-26,
-25,
-29,
-32,
-31,
-28,
-27,
-29,
-34,
-34,
-29,
-26,
-27,
-34,
-35,
-32,
-27,
-26,
-32,
-33,
-35,
-29,
-25,
-28,
-30,
-32,
-29,
-23,
-23,
-28,
-30,
-28,
-22,
-21,
-21,
-26,
-26,
-23,
-17,
-13,
-17,
-21,
-24,
-16,
-11,
-9,
-12,
-18,
-15,
-8,
-4,
-5,
-11,
-12,
-7,
0,
0,
-5,
-5,
-3,
2,
4,
2,
0,
-1,
4,
10,
8,
5,
5,
7,
12,
13,
10,
11,
12,
12,
14,
13,
15,
14,
16,
18,
15,
17,
19,
18,
17,
15,
18,
23,
21,
19,
16,
16,
21,
23,
22,
17,
16,
19,
24,
23,
18,
15,
16,
19,
20,
19,
14,
13,
16,
18,
18,
15,
10,
9,
11,
16,
16,
10,
5,
5,
9,
13,
10,
2,
-2,
2,
6,
9,
2,
-7,
-7,
0,
4,
1,
-9,
-13,
-9,
-1,
-2,
-9,
-17,
-16,
-8,
-7,
-10,
-22,
-24,
-15,
-11,
-12,
-21,
-27,
-26,
-18,
-16,
-21,
-27,
-29,
-26,
-22,
-23,
-25,
-30,
-32,
-27,
-26,
-27,
-29,
-31,
-29,
-29,
-29,
-30,
-31,
-32,
-30,
-28,
-29,
-32,
-33,
-31,
-28,
-29,
-32,
-31,
-30,
-29,
-28,
-27,
-29,
-28,
-26,
-25,
-25,
-28,
-27,
-20,
-21,
-25,
-26,
-21,
-17,
-16,
-20,
-23,
-20,
-15,
-9,
-11,
-18,
-19,
-12,
-5,
-6,
-10,
-14,
-10,
-4,
-1,
-3,
-6,
-7,
-2,
3,
5,
-1,
-3,
1,
6,
8,
6,
4,
4,
9,
13,
13,
11,
4,
6,
14,
19,
17,
11,
9,
12,
19,
22,
18,
12,
12,
17,
24,
23,
16,
12,
16,
21,
24,
19,
17,
16,
21,
23,
21,
17,
16,
18,
22,
22,
17,
15,
16,
16,
17,
16,
16,
15,
13,
13,
14,
15,
13,
10,
9,
7,
9,
11,
11,
5,
2,
2,
7,
8,
3,
-3,
-4,
0,
3,
1,
-5,
-9,
-7,
-5,
-3,
-6,
-13,
-13,
-12,
-8,
-10,
-14,
-17,
-16,
-13,
-13,
-16,
-20,
-22,
-23,
-16,
-16,
-22,
-28,
-30,
-24,
-18,
-22,
-28,
-33,
-31,
-26,
-21,
-24,
-34,
-37,
-30,
-24,
-26,
-32,
-38,
-33,
-27,
-26,
-32,
-36,
-35,
-30,
-24,
-28,
-35,
-36,
-32,
-24,
-25,
-29,
-34,
-30,
-25,
-24,
-25,
-28,
-27,
-25,
-24,
-20,
-22,
-23,
-21,
-19,
-19,
-19,
-19,
-16,
-15,
-15,
-15,
-12,
-11,
-12,
-11,
-9,
-9,
-10,
-8,
-4,
-5,
-5,
-4,
-3,
-1,
1,
2,
0,
0,
3,
7,
8,
3,
2,
7,
11,
11,
8,
5,
9,
15,
17,
15,
9,
9,
17,
22,
21,
13,
9,
14,
23,
25,
19,
12,
13,
20,
25,
23,
17,
13,
17,
24,
25,
20,
16,
17,
20,
24,
20,
16,
13,
16,
20,
20,
18,
11,
9,
16,
20,
19,
14,
8,
8,
12,
15,
15,
8,
4,
4,
10,
11,
4,
0,
0,
4,
5,
1,
-3,
-4,
-3,
-1,
-2,
-5,
-9,
-9,
-7,
-7,
-10,
-14,
-13,
-11,
-14,
-15,
-15,
-15,
-18,
-20,
-20,
-19,
-17,
-19,
-25,
-27,
-24,
-22,
-20,
-24,
-29,
-30,
-28,
-23,
-25,
-31,
-34,
-32,
-26,
-25,
-28,
-33,
-32,
-31,
-27,
-27,
-34,
-35,
-34,
-28,
-26,
-30,
-33,
-34,
-30,
-26,
-27,
-29,
-32,
-33,
-26,
-22,
-22,
-29,
-33,
-27,
-20,
-18,
-24,
-28,
-27,
-21,
-14,
-15,
-22,
-26,
-19,
-12,
-10,
-15,
-20,
-15,
-9,
-7,
-8,
-11,
-10,
-7,
-3,
-1,
-6,
-7,
-4,
3,
3,
0,
0,
0,
4,
6,
6,
5,
6,
8,
9,
10,
9,
10,
14,
14,
11,
11,
13,
16,
18,
16,
15,
14,
16,
19,
19,
19,
17,
17,
20,
21,
21,
18,
16,
20,
22,
22,
19,
16,
15,
20,
24,
21,
16,
13,
16,
23,
22,
17,
10,
11,
19,
23,
18,
9,
5,
10,
19,
18,
8,
1,
4,
12,
15,
9,
0,
-2,
3,
8,
7,
1,
-6,
-3,
3,
3,
-2,
-9,
-9,
-5,
-3,
-4,
-9,
-16,
-15,
-11,
-8,
-11,
-17,
-21,
-16,
-14,
-13,
-18,
-25,
-27,
-22,
-18,
-18,
-23,
-28,
-29,
-25,
-20,
-24,
-29,
-32,
-28,
-25,
-26,
-31,
-31,
-29,
-28,
-28,
-31,
-31,
-31,
-30,
-29,
-30,
-32,
-30,
-30,
-30,
-32,
-31,
-28,
-28,
-30,
-33,
-30,
-23,
-22,
-27,
-31,
-29,
-24,
-20,
-19,
-27,
-29,
-25,
-16,
-16,
-21,
-25,
-23,
-15,
-12,
-13,
-16,
-17,
-15,
-9,
-7,
-11,
-13,
-10,
-5,
-2,
-3,
-5,
-7,
-4,
-1,
4,
3,
-1,
-2,
1,
10,
9,
4,
2,
3,
11,
15,
14,
8,
5,
9,
16,
20,
13,
8,
12,
17,
20,
17,
12,
13,
18,
22,
19,
16,
15,
20,
22,
21,
18,
16,
19,
21,
21,
18,
17,
19,
20,
19,
18,
18,
18,
18,
19,
17,
14,
16,
18,
18,
13,
10,
12,
