6-anwendungen-opAmps/daten/ALL0019/A0019CH1.CSV

Memory Length,4000,
Trigger Level,4.00000e+00,
Source,CH1,
Probe,1.0X,
Vertical Units,V,
Vertical Scale,1.00000e-01,
Vertical Position,0.00000e+00,
Horizontal Units,S,
Horizontal Scale,2.50000e-04,
Horizontal Position,2.8000000e-04,
Horizontal Mode,Main,
Sampling Period,1.00000e-06,
Firmware,V1.14,
Time, ,
Mode,Fast,
Waveform Data,
49,
49,
49,
48,
48,
49,
49,
48,
48,
49,
49,
50,
50,
50,
50,
51,
51,
51,
51,
52,
52,
51,
51,
52,
52,
53,
53,
53,
53,
52,
52,
51,
51,
53,
53,
53,
53,
53,
53,
53,
53,
53,
53,
53,
53,
53,
53,
55,
55,
53,
53,
56,
56,
54,
54,
54,
54,
55,
55,
55,
55,
55,
55,
54,
54,
56,
56,
56,
56,
55,
55,
56,
56,
56,
56,
55,
55,
56,
56,
57,
57,
55,
55,
57,
57,
56,
56,
57,
57,
56,
56,
57,
57,
56,
56,
57,
57,
56,
56,
59,
59,
56,
56,
58,
58,
58,
58,
58,
58,
57,
57,
58,
58,
58,
58,
58,
58,
58,
58,
58,
58,
58,
58,
58,
58,
59,
59,
58,
58,
58,
58,
57,
57,
57,
57,
58,
58,
57,
57,
57,
57,
56,
56,
55,
55,
56,
56,
55,
55,
54,
54,
53,
53,
52,
52,
52,
52,
52,
52,
52,
52,
51,
51,
51,
51,
48,
48,
47,
47,
46,
46,
44,
44,
43,
43,
40,
40,
35,
22,
22,
-13,
-12,
-37,
-37,
-48,
-47,
-47,
-49,
-49,
-51,
-51,
-52,
-52,
-53,
-53,
-55,
-55,
-56,
-56,
-57,
-57,
-59,
-59,
-58,
-58,
-59,
-59,
-59,
-59,
-60,
-60,
-61,
-61,
-61,
-61,
-63,
-63,
-62,
-62,
-62,
-62,
-62,
-62,
-64,
-64,
-63,
-63,
-63,
-63,
-65,
-65,
-64,
-64,
-64,
-64,
-65,
-65,
-64,
-64,
-63,
-63,
-65,
-65,
-64,
-64,
-63,
-63,
-62,
-62,
-65,
-65,
-63,
-63,
-64,
-64,
-64,
-64,
-65,
-65,
-63,
-63,
-64,
-64,
-63,
-63,
-63,
-63,
-63,
-63,
-63,
-63,
-63,
-63,
-64,
-64,
-62,
-62,
-62,
-62,
-62,
-62,
-63,
-63,
-63,
-63,
-61,
-61,
-63,
-63,
-63,
-63,
-62,
-62,
-62,
-62,
-61,
-61,
-60,
-60,
-61,
-61,
-62,
-62,
-61,
-61,
-62,
-62,
-61,
-61,
-59,
-59,
-60,
-60,
-60,
-60,
-60,
-60,
-59,
-59,
-59,
-59,
-60,
-60,
-60,
-60,
-59,
-59,
-60,
-60,
-59,
-59,
-57,
-57,
-60,
-60,
-58,
-58,
-59,
-59,
-59,
-59,
-56,
-56,
-56,
-56,
-55,
-55,
-56,
-56,
-56,
-56,
-55,
-55,
-56,
-56,
-54,
-54,
-55,
-55,
-54,
-54,
-55,
-55,
-52,
-52,
-52,
-52,
-53,
-53,
-52,
-52,
-51,
-51,
-50,
-50,
-48,
-48,
-48,
-48,
-48,
-48,
-46,
-46,
-45,
-45,
-43,
-43,
-41,
-41,
-36,
-36,
-31,
-31,
-25,
-12,
-13,
1,
0,
14,
13,
24,
22,
22,
29,
29,
33,
33,
36,
36,
37,
37,
38,
38,
40,
40,
42,
42,
43,
43,
43,
43,
44,
44,
45,
45,
46,
46,
46,
46,
46,
46,
46,
46,
48,
48,
47,
47,
47,
47,
47,
47,
48,
48,
48,
48,
49,
49,
51,
51,
50,
50,
51,
51,
51,
51,
50,
50,
50,
50,
52,
52,
51,
51,
52,
52,
53,
53,
51,
51,
53,
53,
52,
52,
52,
52,
53,
53,
53,
53,
53,
53,
53,
53,
54,
54,
54,
54,
54,
54,
54,
54,
54,
54,
54,
54,
55,
55,
54,
54,
54,
54,
55,
55,
55,
55,
56,
56,
55,
55,
55,
55,
56,
56,
55,
55,
56,
56,
55,
55,
56,
56,
56,
56,
57,
57,
56,
56,
56,
56,
57,
57,
56,
56,
56,
56,
56,
56,
57,
57,
56,
56,
57,
57,
56,
56,
57,
57,
57,
57,
58,
58,
58,
58,
58,
58,
58,
58,
58,
58,
57,
57,
58,
58,
60,
60,
58,
58,
58,
58,
59,
59,
57,
57,
58,
58,
56,
56,
56,
56,
56,
56,
56,
56,
55,
55,
55,
55,
55,
55,
55,
55,
54,
54,
54,
54,
54,
54,
52,
52,
52,
52,
51,
51,
51,
51,
48,
48,
49,
49,
46,
46,
45,
45,
43,
43,
42,
42,
37,
25,
25,
-9,
-7,
-40,
-39,
-39,
-44,
-44,
-48,
-48,
-50,
-50,
-51,
-51,
-52,
-52,
-53,
-53,
-57,
-57,
-56,
-56,
-59,
-59,
-58,
-58,
-59,
-59,
-59,
-59,
-61,
-61,
-61,
-61,
-63,
-63,
-61,
-61,
-62,
-62,
-62,
-62,
-62,
-62,
-63,
-63,
-64,
-64,
-64,
-64,
-64,
-64,
-63,
-63,
-64,
-64,
-65,
-65,
-65,
-65,
-65,
-65,
-63,
-63,
-64,
-64,
-64,
-64,
-64,
-64,
-65,
-65,
-64,
-64,
-63,
-63,
-63,
-63,
-64,
-64,
-64,
-64,
-64,
-64,
-64,
-64,
-63,
-63,
-64,
-64,
-63,
-63,
-63,
-63,
-63,
-63,
-63,
-63,
-63,
-63,
-62,
-62,
-62,
-62,
-64,
-64,
-61,
-61,
-62,
-62,
-62,
-62,
-64,
-64,
-60,
-60,
-61,
-61,
-63,
-63,
-61,
-61,
-61,
-61,
-62,
-62,
-61,
-61,
-61,
-61,
-60,
-60,
-61,
-61,
-60,
-60,
-60,
-60,
-59,
-59,
-60,
-60,
-60,
-60,
-59,
-59,
-60,
-60,
-58,
-58,
-58,
-58,
-58,
-58,
-58,
-58,
-58,
-58,
-58,
-58,
-58,
-58,
-56,
-56,
-58,
-58,
-56,
-56,
-56,
-56,
-55,
-55,
-56,
-56,
-55,
-55,
-55,
-55,
-54,
-54,
-54,
-54,
-53,
-53,
-54,
-54,
-52,
-52,
-52,
-52,
-52,
-52,
-52,
-52,
-50,
-50,
-50,
-50,
-49,
-49,
-47,
-47,
-46,
-46,
-44,
-44,
-42,
-42,
-40,
-40,
-37,
-37,
-33,
-33,
-25,
-10,
-11,
1,
-1,
14,
12,
24,
24,
24,
28,
28,
32,
32,
35,
35,
37,
37,
39,
39,
39,
39,
41,
41,
41,
41,
43,
43,
44,
44,
44,
44,
45,
45,
45,
45,
46,
46,
48,
48,
45,
45,
47,
47,
48,
48,
48,
48,
48,
48,
49,
49,
50,
50,
48,
48,
49,
49,
51,
51,
50,
50,
50,
50,
51,
51,
51,
51,
51,
51,
51,
51,
52,
52,
53,
53,
52,
52,
53,
53,
52,
52,
53,
53,
53,
53,
53,
53,
55,
55,
53,
53,
52,
52,
54,
54,
54,
54,
53,
53,
54,
54,
55,
55,
54,
54,
54,
54,
56,
56,
56,
56,
55,
55,
55,
55,
56,
56,
55,
55,
55,
55,
55,
55,
56,
56,
56,
56,
56,
56,
57,
57,
56,
56,
57,
57,
57,
57,
57,
57,
56,
56,
56,
56,
57,
57,
58,
58,
59,
59,
57,
57,
58,
58,
56,
56,
59,
59,
57,
57,
58,
58,
57,
57,
58,
58,
56,
56,
58,
58,
59,
59,
59,
59,
58,
58,
58,
58,
59,
59,
58,
58,
57,
57,
58,
58,
57,
57,
55,
55,
55,
55,
55,
55,
54,
54,
53,
53,
54,
54,
53,
53,
53,
53,
53,
53,
52,
52,
51,
51,
49,
49,
49,
49,
48,
48,
46,
46,
45,
45,
44,
44,
42,
42,
37,
22,
22,
1,
0,
-34,
-33,
-44,
-41,
-41,
-48,
-48,
-50,
-50,
-52,
-52,
-54,
-54,
-54,
-54,
-58,
-58,
-57,
-57,
-58,
-58,
-59,
-59,
-59,
-59,
-60,
-60,
-60,
-60,
-60,
-60,
-61,
-61,
-61,
-61,
-63,
-63,
-63,
-63,
-64,
-64,
-63,
-63,
-63,
-63,
-63,
-63,
-64,
-64,
-64,
-64,
-64,
-64,
-65,
-65,
-65,
-65,
-65,
-65,
-64,
-64,
-65,
-65,
-64,
-64,
-63,
-63,
-63,
-63,
-64,
-64,
-62,
-62,
-63,
-63,
-64,
-64,
-63,
-63,
-62,
-62,
-63,
-63,
-64,
-64,
-63,
-63,
-63,
-63,
-62,
-62,
-61,
-61,
-62,
-62,
-64,
-64,
-62,
-62,
-63,
-63,
-63,
-63,
-62,
-62,
-63,
-63,
-62,
-62,
-63,
-63,
-64,
-64,
-63,
-63,
-60,
-60,
-61,
-61,
-60,
-60,
-60,
-60,
-61,
-61,
-60,
-60,
-61,
-61,
-60,
-60,
-59,
-59,
-60,
-60,
-60,
-60,
-58,
-58,
-60,
-60,
-59,
-59,
-59,
-59,
-59,
-59,
-58,
-58,
-58,
-58,
-58,
-58,
-58,
-58,
-59,
-59,
-58,
-58,
-57,
-57,
-56,
-56,
-56,
-56,
-55,
-55,
-55,
-55,
-55,
-55,
-56,
-56,
-55,
-55,
-53,
-53,
-54,
-54,
-53,
-53,
-54,
-54,
-52,
-52,
-53,
-53,
-50,
-50,
-50,
-50,
-49,
-49,
-49,
-49,
-49,
-49,
-48,
-48,
-46,
-46,
-44,
-44,
-44,
-44,
-41,
-41,
-40,
-40,
-33,
-33,
-27,
-14,
-13,
-13,
-4,
8,
8,
20,
21,
21,
28,
28,
31,
31,
33,
33,
36,
36,
39,
39,
40,
40,
41,
41,
43,
43,
43,
43,
43,
43,
44,
44,
45,
45,
45,
45,
47,
47,
47,
47,
47,
47,
48,
48,
47,
47,
48,
48,
49,
49,
49,
49,
48,
48,
49,
49,
51,
51,
50,
50,
51,
51,
51,
51,
51,
51,
51,
51,
51,
51,
51,
51,
52,
52,
53,
53,
52,
52,
53,
53,
52,
52,
52,
52,
53,
53,
53,
53,
54,
54,
52,
52,
55,
55,
53,
53,
55,
55,
53,
53,
54,
54,
55,
55,
55,
55,
55,
55,
55,
55,
56,
56,
56,
56,
55,
55,
55,
55,
55,
55,
55,
55,
56,
56,
56,
56,
56,
56,
56,
56,
56,
56,
56,
56,
57,
57,
56,
56,
56,
56,
57,
57,
57,
57,
57,
57,
57,
57,
56,
56,
59,
59,
56,
56,
58,
58,
58,
58,
57,
57,
58,
58,
58,
58,
57,
57,
58,
58,
59,
59,
60,
60,
58,
58,
58,
58,
59,
59,
57,
57,
58,
58,
57,
57,
58,
58,
56,
56,
55,
55,
55,
55,
55,
55,
55,
55,
55,
55,
53,
53,
54,
54,
52,
52,
53,
53,
51,
51,
50,
50,
50,
50,
49,
49,
48,
48,
48,
48,
45,
45,
43,
43,
43,
43,
39,
39,
30,
5,
6,
-32,
-32,
-44,
-43,
-43,
-47,
-47,
-48,
-48,
-52,
-52,
-53,
-53,
-54,
-54,
-56,
-56,
-56,
-56,
-58,
-58,
-60,
-60,
-60,
-60,
-60,
-60,
-59,
-59,
-60,
-60,
-60,
-60,
-62,
-62,
-62,
-62,
-63,
-63,
-62,
-62,
-63,
-63,
-62,
-62,
-64,
-64,
-64,
-64,
-63,
-63,
-64,
-64,
-64,
-64,
-65,
-65,
-63,
-63,
-64,
-64,
-64,
-64,
-64,
-64,
-65,
-65,
-64,
-64,
-63,
-63,
-63,
-63,
-63,
-63,
-64,
-64,
-64,
-64,
-65,
-65,
-64,
-64,
-64,
-64,
-64,
-64,
-63,
-63,
-63,
-63,
-63,
-63,
-63,
-63,
-62,
-62,
-63,
-63,
-64,
-64,
-61,
-61,
-64,
-64,
-62,
-62,
-60,
-60,
-61,
-61,
-62,
-62,
-63,
-63,
-61,
-61,
-61,
-61,
-61,
-61,
-60,
-60,
-61,
-61,
-61,
-61,
-60,
-60,
-60,
-60,
-60,
-60,
-60,
-60,
-60,
-60,
-59,
-59,
-60,
-60,
-60,
-60,
-59,
-59,
-59,
-59,
-58,
-58,
-59,
-59,
-59,
-59,
-57,
-57,
-57,
-57,
-57,
-57,
-57,
-57,
-57,
-57,
-57,
-57,
-55,
-55,
-56,
-56,
-56,
-56,
-55,
-55,
-54,
-54,
-54,
-54,
-53,
-53,
-53,
-53,
-53,
-53,
-54,
-54,
-53,
-53,
-52,
-52,
-52,
-52,
-51,
-51,
-50,
-50,
-49,
-49,
-48,
-48,
-47,
-47,
-46,
-46,
-44,
-44,
-42,
-42,
-37,
-37,
-34,
-34,
-25,
-25,
-17,
-1,
-1,
11,
10,
10,
19,
19,
29,
29,
31,
31,
34,
34,
36,
36,
39,
39,
38,
38,
41,
41,
43,
43,
42,
42,
44,
44,
44,
44,
45,
45,
45,
45,
46,
46,
47,
47,
47,
47,
47,
47,
47,
47,
47,
47,
48,
48,
49,
49,
49,
49,
49,
49,
50,
50,
49,
49,
50,
50,
50,
50,
51,
51,
51,
51,
51,
51,
53,
53,
52,
52,
52,
52,
53,
53,
53,
53,
51,
51,
53,
53,
52,
52,
53,
53,
53,
53,
53,
53,
55,
55,
53,
53,
54,
54,
54,
54,
54,
54,
54,
54,
54,
54,
54,
54,
56,
56,
54,
54,
54,
54,
54,
54,
55,
55,
55,
55,
55,
55,
56,
56,
55,
55,
57,
57,
57,
57,
55,
55,
56,
56,
57,
57,
57,
57,
56,
56,
57,
57,
57,
57,
57,
57,
57,
57,
57,
57,
57,
57,
57,
57,
58,
58,
58,
58,
57,
57,
58,
58,
57,
57,
58,
58,
58,
58,
57,
57,
58,
58,
57,
57,
58,
58,
57,
57,
58,
58,
59,
59,
56,
56,
56,
56,
57,
57,
56,
56,
55,
55,
55,
55,
56,
56,
55,
55,
54,
54,
53,
53,
52,
52,
52,
52,
53,
53,
51,
51,
51,
51,
49,
49,
48,
48,
47,
47,
45,
45,
43,
43,
44,
44,
38,
38,
34,
9,
10,
-27,
-26,
-43,
-41,
-41,
-46,
-46,
-49,
-49,
-53,
-53,
-53,
-53,
-53,
-53,
-55,
-55,
-57,
-57,
-59,
-59,
-57,
-57,
-60,
-60,
-60,
-60,
-60,
-60,
-60,
-60,
-62,
-62,
-61,
-61,
-62,
-62,
-62,
-62,
-63,
-63,
-63,
-63,
-64,
-64,
-63,
-63,
-63,
-63,
-64,
-64,
-63,
-63,
-64,
-64,
-66,
-66,
-65,
-65,
-64,
-64,
-65,
-65,
-64,
-64,
-64,
-64,
-64,
-64,
-64,
-64,
-63,
-63,
-65,
-65,
-65,
-65,
-63,
-63,
-64,
-64,
-62,
-62,
-64,
-64,
-63,
-63,
-64,
-64,
-64,
-64,
-64,
-64,
-63,
-63,
-62,
-62,
-63,
-63,
-62,
-62,
-61,
-61,
-62,
-62,
-63,
-63,
-63,
-63,
-62,
-62,
-61,
-61,
-63,
-63,
-61,
-61,
-60,
-60,
-60,
-60,
-60,
-60,
-61,
-61,
-60,
-60,
-61,
-61,
-61,
-61,
-60,
-60,
-60,
-60,
-59,
-59,
-60,
-60,
-61,
-61,
-59,
-59,
-60,
-60,
-59,
-59,
-59,
-59,
-58,
-58,
-58,
-58,
-57,
-57,
-58,
-58,
-58,
-58,
-57,
-57,
-57,
-57,
-57,
-57,
-56,
-56,
-56,
-56,
-55,
-55,
-55,
-55,
-55,
-55,
-55,
-55,
-54,
-54,
-53,
-53,
-53,
-53,
-52,
-52,
-52,
-52,
-53,
-53,
-51,
-51,
-49,
-49,
-50,
-50,
-49,
-49,
-48,
-48,
-46,
-46,
-46,
-46,
-43,
-43,
-41,
-41,
-40,
-40,
-36,
-36,
-27,
-27,
-18,
-3,
-3,
-3,
3,
18,
16,
16,
24,
24,
31,
31,
33,
33,
35,
35,
37,
37,
39,
39,
41,
41,
43,
43,
42,
42,
42,
42,
44,
44,
44,
44,
45,
45,
46,
46,
46,
46,
46,
46,
48,
48,
48,
48,
48,
48,
49,
49,
49,
49,
50,
50,
49,
49,
49,
49,
50,
50,
49,
49,
51,
51,
50,
50,
53,
53,
51,
51,
51,
51,
52,
52,
53,
53,
52,
52,
51,
51,
52,
52,
53,
53,
54,
54,
54,
54,
54,
54,
54,
54,
54,
54,
54,
54,
53,
53,
55,
55,
54,
54,
55,
55,
53,
53,
55,
55,
55,
55,
56,
56,
54,
54,
57,
57,
54,
54,
55,
55,
56,
56,
56,
56,
57,
57,
56,
56,
56,
56,
55,
55,
55,
55,
56,
56,
56,
56,
57,
57,
56,
56,
56,
56,
56,
56,
57,
57,
57,
57,
57,
57,
57,
57,
58,
58,
56,
56,
57,
57,
57,
57,
57,
57,
58,
58,
58,
58,
57,
57,
58,
58,
58,
58,
57,
57,
58,
58,
57,
57,
57,
57,
58,
58,
57,
57,
56,
56,
56,
56,
56,
56,
56,
56,
55,
55,
54,
54,
53,
53,
54,
54,
53,
53,
52,
52,
53,
53,
52,
52,
49,
49,
50,
50,
49,
49,
48,
48,
47,
47,
44,
44,
42,
42,
38,
38,
32,
17,
18,
-24,
-23,
-42,
-41,
-41,
-47,
-47,
-49,
-49,
-50,
-50,
-52,
-52,
-55,
-55,
-55,
-55,
-57,
-57,
-59,
-59,
-58,
-58,
-59,
-59,
-61,
-61,
-60,
-60,
-62,
-62,
-62,
-62,
-61,
-61,
-62,
-62,
-63,
-63,
-62,
-62,
-63,
-63,
-63,
-63,
-63,
-63,
-64,
-64,
-65,
-65,
-63,
-63,
-65,
-65,
-65,
-65,
-64,
-64,
-64,
-64,
-65,
-65,
-64,
-64,
-64,
-64,
-64,
-64,
-64,
-64,
-65,
-65,
-64,
-64,
-65,
-65,
-64,
-64,
-63,
-63,
-64,
-64,
-64,
-64,
-63,
-63,
-64,
-64,
-62,
-62,
-64,
-64,
-62,
-62,
-62,
-62,
-63,
-63,
-62,
-62,
-62,
-62,
-62,
-62,
-63,
-63,
-62,
-62,
-63,
-63,
-63,
-63,
-62,
-62,
-62,
-62,
-62,
-62,
-62,
-62,
-61,
-61,
-60,
-60,
-60,
-60,
-61,
-61,
-59,
-59,
-60,
-60,
-60,
-60,
-60,
-60,
-59,
-59,
-61,
-61,
-60,
-60,
-59,
-59,
-60,
-60,
-59,
-59,
-59,
-59,
-58,
-58,
-59,
-59,
-57,
-57,
-56,
-56,
-56,
-56,
-57,
-57,
-57,
-57,
-57,
-57,
-56,
-56,
-56,
-56,
-54,
-54,
-55,
-55,
-55,
-55,
-54,
-54,
-54,
-54,
-52,
-52,
-53,
-53,
-52,
-52,
-52,
-52,
-51,
-51,
-51,
-51,
-50,
-50,
-49,
-49,
-47,
-47,
-47,
-47,
-45,
-45,
-45,
-45,
-43,
-43,
-41,
-41,
-36,
-36,
-29,
-29,
-22,
-10,
-11,
7,
5,
18,
17,
17,
24,
24,
31,
31,
34,
34,
35,
35,
38,
38,
39,
39,
39,
39,
42,
42,
43,
43,
44,
44,
44,
44,
44,
44,
46,
46,
46,
46,
47,
47,
46,
46,
48,
48,
48,
48,
48,
48,
48,
48,
49,
49,
49,
49,
48,
48,
50,
50,
50,
50,
49,
49,
49,
49,
52,
52,
51,
51,
52,
52,
52,
52,
52,
52,
52,
52,
52,
52,
51,
51,
52,
52,
53,
53,
54,
54,
52,
52,
53,
53,
53,
53,
53,
53,
53,
53,
53,
53,
54,
54,
54,
54,
54,
54,
55,
55,
55,
55,
54,
54,
54,
54,
55,
55,
55,
55,
55,
55,
56,
56,
56,
56,
57,
57,
55,
55,
55,
55,
56,
56,
57,
57,
56,
56,
56,
56,
57,
57,
58,
58,
55,
55,
57,
57,
56,
56,
58,
58,
56,
56,
58,
58,
56,
56,
58,
58,
58,
58,
57,
57,
57,
57,
57,
57,
58,
58,
59,
59,
59,
59,
58,
58,
58,
58,
58,
58,
57,
57,
57,
57,
58,
58,
57,
57,
57,
57,
57,
57,
55,
55,
55,
55,
55,
55,
55,
55,
53,
53,
54,
54,
54,
54,
54,
54,
54,
54,
52,
52,
51,
51,
51,
51,
50,
50,
48,
48,
48,
48,
46,
46,
45,
45,
42,
42,
40,
40,
36,
20,
23,
-19,
-18,
-40,
-38,
-38,
-45,
-45,
-47,
-47,
-50,
-50,
-52,
-52,
-55,
-55,
-56,
-56,
-56,
-56,
-56,
-56,
-58,
-58,
-58,
-58,
-58,
-58,
-61,
-61,
-61,
-61,
-63,
-63,
-60,
-60,
-63,
-63,
-62,
-62,
-62,
-62,
-63,
-63,
-63,
-63,
-64,
-64,
-64,
-64,
-64,
-64,
-65,
-65,
-64,
-64,
-65,
-65,
-65,
-65,
-65,
-65,
-64,
-64,
-63,
-63,
-65,
-65,
-64,
-64,
-63,
-63,
-64,
-64,
-64,
-64,
-64,
-64,
-64,
-64,
-64,
-64,
-63,
-63,
-64,
-64,
-64,
-64,
-63,
-63,
-64,
-64,
-65,
-65,
-63,
-63,
-62,
-62,
-63,
-63,
-62,
-62,
-63,
-63,
-62,
-62,
-62,
-62,
-62,
-62,
-61,
-61,
-61,
-61,
-62,
-62,
-61,
-61,
-62,
-62,
-61,
-61,
-61,
-61,
-60,
-60,
-60,
-60,
-60,
-60,
-60,
-60,
-60,
-60,
-61,
-61,
-60,
-60,
-61,
-61,
-60,
-60,
-59,
-59,
-59,
-59,
-60,
-60,
-58,
-58,
-58,
-58,
-59,
-59,
-58,
-58,
-58,
-58,
-58,
-58,
-57,
-57,
-57,
-57,
-58,
-58,
-57,
-57,
-55,
-55,
-55,
-55,
-55,
-55,
-55,
-55,
-55,
-55,
-55,
-55,
-54,
-54,
-54,
-54,
-54,
-54,
-53,
-53,
-51,
-51,
-52,
-52,
-50,
-50,
-50,
-50,
-48,
-48,
-48,
-48,
-49,
-49,
-46,
-46,
-44,
-44,
-42,
-42,
-39,
-39,
-36,
-36,
-32,
-20,
-20,
-20,
-11,
1,
0,
13,
12,
25,
25,
25,
28,
28,
32,
32,
35,
35,
38,
38,
38,
38,
41,
41,
42,
42,
42,
42,
43,
43,
44,
44,
44,
44,
45,
45,
46,
46,
45,
45,
46,
46,
47,
47,
47,
47,
48,
48,
48,
48,
48,
48,
48,
48,
48,
48,
51,
51,
50,
50,
50,
50,
51,
51,
51,
51,
50,
50,
50,
50,
52,
52,
52,
52,
53,
53,
53,
53,
52,
52,
53,
53,
52,
52,
53,
53,
52,
52,
53,
53,
54,
54,
53,
53,
54,
54,
53,
53,
55,
55,
55,
55,
53,
53,
54,
54,
53,
53,
56,
56,
54,
54,
54,
54,
55,
55,
55,
55,
55,
55,
55,
55,
56,
56,
54,
54,
56,
56,
57,
57,
57,
57,
57,
57,
56,
56,
56,
56,
56,
56,
56,
56,
55,
55,
58,
58,
57,
57,
57,
57,
58,
58,
57,
57,
58,
58,
57,
57,
57,
57,
57,
57,
59,
59,
58,
58,
57,
57,
59,
59,
58,
58,
58,
58,
58,
58,
58,
58,
58,
58,
57,
57,
56,
56,
55,
55,
56,
56,
56,
56,
56,
56,
55,
55,
54,
54,
56,
56,
55,
55,
53,
53,
54,
54,
53,
53,
52,
52,
51,
51,
52,
52,
49,
49,
49,
49,
48,
48,
48,
48,
45,
45,
44,
44,
40,
40,
36,
20,
19,
-6,
-5,
-40,
-40,
-40,
-43,
-43,
-47,
-47,
-50,
-50,
-52,
-52,
-55,
-55,
-55,
-55,
-56,
-56,
-56,
-56,
-57,
-57,
-59,
-59,
-60,
-60,
-59,
-59,
-60,
-60,
-60,
-60,
-61,
-61,
-61,
-61,
-63,
-63,
-64,
-64,
-63,
-63,
-63,
-63,
-63,
-63,
-64,
-64,
-63,
-63,
-64,
-64,
-64,
-64,
-65,
-65,
-64,
-64,
-65,
-65,
-65,
-65,
-64,
-64,
-65,
-65,
-65,
-65,
-65,
-65,
-64,
-64,
-65,
-65,
-64,
-64,
-64,
-64,
-63,
-63,
-64,
-64,
-63,
-63,
-64,
-64,
-63,
-63,
-62,
-62,
-63,
-63,
-63,
-63,
-64,
-64,
-62,
-62,
-64,
-64,
-63,
-63,
-64,
-64,
-63,
-63,
-62,
-62,
-63,
-63,
-61,
-61,
-60,
-60,
-63,
-63,
-62,
-62,
-60,
-60,
-60,
-60,
-62,
-62,
-62,
-62,
-60,
-60,
-59,
-59,
-59,
-59,
-60,
-60,
-60,
-60,
-59,
-59,
-61,
-61,
-59,
-59,
-59,
-59,
-59,
-59,
-59,
-59,
-59,
-59,
-59,
-59,
-59,
-59,
-57,
-57,
-59,
-59,
-59,
-59,
-58,
-58,
-57,
-57,
-55,
-55,
-55,
-55,
-56,
-56,
-55,
-55,
-55,
-55,
-56,
-56,
-55,
-55,
-55,
-55,
-53,
-53,
-54,
-54,
-52,
-52,
-52,
-52,
-52,
-52,
-50,
-50,
-52,
-52,
-50,
-50,
-48,
-48,
-48,
-48,
-45,
-45,
-45,
-45,
-43,
-43,
-41,
-41,
-38,
-38,
-32,
-32,
-26,
-13,
-13,
-2,
-3,
10,
9,
21,
20,
20,
25,
25,
33,
33,
35,
35,
37,
37,
39,
39,
40,
40,
42,
42,
42,
42,
44,
44,
43,
43,
45,
45,
44,
44,
46,
46,
46,
46,
47,
47,
48,
48,
47,
47,
49,
49,
49,
49,
49,
49,
49,
49,
49,
49,
50,
50,
51,
51,
50,
50,
50,
50,
51,
51,
51,
51,
51,
51,
52,
52,
51,
51,
52,
52,
52,
52,
53,
53,
52,
52,
52,
52,
52,
52,
53,
53,
53,
53,
53,
53,
53,
53,
54,
54,
53,
53,
53,
53,
54,
54,
55,
55,
55,
55,
54,
54,
55,
55,
55,
55,
55,
55,
55,
55,
56,
56,
56,
56,
55,
55,
55,
55,
56,
56,
56,
56,
56,
56,
56,
56,
55,
55,
56,
56,
56,
56,
56,
56,
59,
59,
57,
57,
57,
57,
57,
57,
58,
58,
57,
57,
58,
58,
56,
56,
57,
57,
58,
58,
57,
57,
58,
58,
56,
56,
59,
59,
59,
59,
58,
58,
57,
57,
58,
58,
59,
59,
58,
58,
58,
58,
57,
57,
63,
51,
57,
57,
56,
56,
56,
56,
56,
56,
56,
56,
55,
55,
53,
53,
55,
55,
54,
54,
53,
53,
52,
52,
51,
51,
50,
50,
50,
50,
49,
49,
47,
47,
47,
47,
46,
46,
45,
45,
40,
40,
37,
25,
28,
-4,
-1,
-37,
-35,
-35,
-43,
-43,
-46,
-46,
-50,
-50,
-51,
-51,
-53,
-53,
-55,
-55,
-56,
-56,
-58,
-58,
-58,
-58,
-58,
-58,
-59,
-59,
-61,
-61,
-61,
-61,
-60,
-60,
-61,
-61,
-62,
-62,
-63,
-63,
-62,
-62,
-63,
-63,
-63,
-63,
-64,
-64,
-64,
-64,
-64,
-64,
-63,
-63,
-65,
-65,
-64,
-64,
-65,
-65,
-64,
-64,
-65,
-65,
-64,
-64,
-64,
-64,
-64,
-64,
-64,
-64,
-66,
-66,
-64,
-64,
-64,
-64,
-62,
-62,
-64,
-64,
-64,
-64,
-63,
-63,
-63,
-63,
-63,
-63,
-63,
-63,
-65,
-65,
-63,
-63,
-63,
-63,
-63,
-63,
-62,
-62,
-62,
-62,
-62,
-62,
-64,
-64,
-63,
-63,
-61,
-61,
-61,
-61,
-61,
-61,
-61,
-61,
-61,
-61,
-61,
-61,
-61,
-61,
-61,
-61,
-61,
-61,
-62,
-62,
-61,
-61,
-61,
-61,
-60,
-60,
-61,
-61,
-60,
-60,
-60,
-60,
-60,
-60,
-61,
-61,
-59,
-59,
-60,
-60,
-60,
-60,
-58,
-58,
-58,
-58,
-57,
-57,
-58,
-58,
-57,
-57,
-58,
-58,
-57,
-57,
-56,
-56,
-56,
-56,
-56,
-56,
-56,
-56,
-55,
-55,
-53,
-53,
-54,
-54,
-54,
-54,
-53,
-53,
-54,
-54,
-53,
-53,
-52,
-52,
-52,
-52,
-50,
-50,
-50,
-50,
-48,
-48,
-48,
-48,
-47,
-47,
-47,
-47,
-45,
-45,
-44,
-44,
-42,
-42,
-38,
-38,
-34,
-34,
-26,
-26,
-16,
-3,
-3,
9,
9,
20,
19,
30,
28,
28,
32,
32,
34,
34,
36,
36,
38,
38,
40,
40,
41,
41,
41,
41,
42,
42,
43,
43,
44,
44,
44,
44,
46,
46,
45,
45,
46,
46,
46,
46,
47,
47,
48,
48,
48,
48,
48,
48,
50,
50,
48,
48,
50,
50,
49,
49,
49,
49,
50,
50,
51,
51,
51,
51,
51,
51,
50,
50,
52,
52,
52,
52,
51,
51,
52,
52,
53,
53,
53,
53,
53,
53,
53,
