5-grundlagen-opAmps/data/ALL0062/A0062CH2.CSV

Memory Length,4000,
Trigger Level,-1.00000e+01,
Source,CH2,
Probe,1.0X,
Vertical Units,V,
Vertical Scale,2.00000e-01,
Vertical Position,0.00000e+00,
Horizontal Units,S,
Horizontal Scale,1.00000e-06,
Horizontal Position,0.0000000e+00,
Horizontal Mode,Main,
Sampling Period,4.00000e-09,
Firmware,V1.14,
Time, ,
Mode,Fast,
Waveform Data,
-58,
-58,
-58,
-57,
-56,
-55,
-54,
-54,
-53,
-53,
-51,
-51,
-50,
-48,
-49,
-48,
-47,
-47,
-46,
-45,
-44,
-43,
-42,
-41,
-41,
-39,
-40,
-39,
-37,
-37,
-35,
-34,
-34,
-32,
-33,
-30,
-30,
-30,
-27,
-27,
-25,
-26,
-24,
-24,
-23,
-21,
-21,
-19,
-19,
-18,
-16,
-16,
-15,
-13,
-14,
-12,
-11,
-9,
-9,
-7,
-8,
-5,
-5,
-4,
-3,
-1,
-2,
1,
0,
3,
3,
3,
6,
6,
6,
10,
9,
11,
12,
11,
13,
15,
15,
16,
17,
18,
19,
20,
20,
23,
23,
24,
25,
26,
27,
27,
28,
31,
30,
32,
33,
34,
34,
36,
37,
37,
37,
39,
39,
40,
41,
42,
42,
44,
44,
46,
46,
47,
47,
49,
49,
50,
50,
52,
52,
52,
53,
55,
55,
57,
56,
57,
58,
58,
58,
61,
60,
61,
61,
62,
62,
63,
63,
64,
65,
65,
65,
66,
66,
67,
68,
67,
69,
70,
69,
71,
70,
70,
71,
71,
71,
72,
72,
73,
73,
73,
75,
75,
74,
75,
75,
75,
76,
75,
76,
77,
75,
78,
76,
76,
77,
76,
76,
77,
77,
78,
77,
77,
77,
78,
77,
77,
77,
78,
77,
77,
76,
78,
76,
77,
76,
77,
76,
76,
76,
76,
76,
76,
74,
75,
74,
74,
74,
73,
73,
74,
72,
73,
72,
71,
71,
71,
70,
71,
69,
70,
69,
68,
68,
67,
66,
67,
66,
65,
65,
65,
63,
64,
62,
63,
61,
61,
60,
60,
59,
59,
58,
59,
57,
57,
55,
56,
55,
53,
52,
52,
50,
52,
49,
49,
48,
47,
47,
47,
44,
45,
44,
43,
42,
42,
41,
40,
38,
38,
38,
36,
36,
35,
33,
34,
32,
32,
30,
29,
29,
28,
26,
27,
25,
25,
22,
23,
21,
20,
19,
19,
17,
17,
16,
15,
14,
13,
12,
11,
10,
9,
9,
7,
7,
6,
2,
3,
2,
1,
0,
-1,
-2,
-2,
-5,
-5,
-6,
-7,
-8,
-8,
-9,
-10,
-11,
-11,
-13,
-15,
-16,
-15,
-18,
-18,
-19,
-19,
-21,
-22,
-23,
-24,
-25,
-26,
-26,
-27,
-29,
-29,
-30,
-31,
-32,
-33,
-34,
-35,
-36,
-37,
-38,
-39,
-40,
-39,
-41,
-41,
-43,
-45,
-44,
-46,
-46,
-46,
-48,
-48,
-48,
-50,
-51,
-51,
-52,
-53,
-54,
-55,
-54,
-56,
-56,
-57,
-58,
-58,
-59,
-61,
-60,
-61,
-62,
-62,
-63,
-63,
-64,
-64,
-65,
-66,
-66,
-67,
-68,
-67,
-68,
-69,
-69,
-69,
-70,
-70,
-71,
-71,
-72,
-72,
-72,
-73,
-75,
-73,
-75,
-74,
-75,
-76,
-75,
-76,
-76,
-75,
-77,
-76,
-76,
-78,
-77,
-76,
-78,
-77,
-78,
-78,
-78,
-78,
-79,
-77,
-79,
-79,
-78,
-79,
-79,
-78,
-79,
-78,
-79,
-78,
-79,
-78,
-80,
-78,
-77,
-79,
-78,
-77,
-78,
-78,
-78,
-77,
-76,
-77,
-76,
-75,
-76,
-76,
-76,
-75,
-74,
-73,
-74,
-73,
-74,
-73,
-72,
-72,
-72,
-71,
-71,
-70,
-70,
-69,
-69,
-69,
-69,
-68,
-68,
-67,
-67,
-66,
-65,
-65,
-64,
-63,
-63,
-63,
-62,
-61,
-61,
-60,
-59,
-59,
-59,
-57,
-57,
-57,
-55,
-55,
-54,
-53,
-53,
-51,
-52,
-52,
-49,
-48,
-49,
-47,
-46,
-46,
-45,
-46,
-44,
-42,
-43,
-40,
-40,
-40,
-38,
-38,
-37,
-36,
-36,
-34,
-34,
-32,
-31,
-31,
-31,
-29,
-28,
-27,
-25,
-25,
-25,
-22,
-23,
-22,
-21,
-19,
-19,
-17,
-17,
-15,
-15,
-14,
-13,
-12,
-12,
-9,
-9,
-8,
-7,
-6,
-6,
-5,
-4,
-2,
-2,
-1,
0,
1,
2,
3,
5,
4,
6,
7,
8,
10,
10,
10,
12,
13,
13,
15,
15,
17,
17,
19,
19,
21,
21,
22,
24,
25,
24,
27,
26,
28,
28,
29,
30,
32,
32,
34,
34,
35,
36,
37,
37,
39,
39,
41,
41,
42,
43,
43,
43,
47,
45,
46,
46,
48,
48,
50,
49,
51,
51,
52,
52,
54,
54,
56,
55,
57,
57,
58,
58,
59,
59,
61,
60,
61,
61,
62,
63,
64,
64,
65,
65,
65,
66,
67,
66,
67,
68,
68,
68,
70,
69,
70,
70,
70,
71,
71,
71,
73,
72,
73,
73,
74,
74,
75,
74,
75,
74,
75,
75,
76,
75,
75,
76,
75,
76,
77,
76,
77,
76,
77,
76,
77,
76,
76,
77,
76,
77,
76,
76,
78,
76,
76,
77,
75,
76,
76,
75,
76,
75,
75,
76,
75,
74,
75,
74,
74,
74,
72,
73,
73,
71,
73,
71,
71,
71,
70,
70,
70,
68,
70,
68,
68,
68,
67,
66,
67,
65,
66,
65,
65,
63,
64,
62,
62,
61,
61,
59,
60,
59,
59,
58,
57,
56,
57,
54,
55,
54,
52,
52,
53,
50,
51,
49,
49,
48,
47,
46,
46,
44,
45,
44,
43,
42,
41,
40,
40,
38,
38,
37,
37,
35,
35,
33,
33,
32,
30,
29,
29,
28,
27,
26,
25,
23,
23,
22,
22,
21,
18,
19,
18,
16,
17,
14,
14,
14,
11,
11,
10,
8,
8,
7,
6,
6,
4,
2,
3,
0,
0,
0,
-1,
-3,
-3,
-5,
-5,
-7,
-7,
-8,
-10,
-10,
-10,
-13,
-13,
-15,
-15,
-16,
-17,
-18,
-19,
-20,
-20,
-22,
-22,
-24,
-23,
-25,
-26,
-28,
-29,
-29,
-30,
-31,
-32,
-33,
-34,
-34,
-35,
-37,
-38,
-38,
-39,
-40,
-39,
-42,
-42,
-44,
-45,
-45,
-45,
-46,
-46,
-48,
-48,
-49,
-50,
-51,
-52,
-52,
-53,
-54,
-55,
-55,
-56,
-57,
-57,
-58,
-59,
-59,
-60,
-61,
-61,
-62,
-63,
-62,
-63,
-65,
-65,
-66,
-66,
-66,
-67,
-67,
-67,
-70,
-69,
-69,
-70,
-70,
-71,
-71,
-71,
-73,
-72,
-73,
-73,
-73,
-74,
-75,
-74,
-75,
-75,
-76,
-76,
-76,
-76,
-78,
-76,
-78,
-78,
-77,
-78,
-78,
-78,
-79,
-77,
-80,
-78,
-79,
-79,
-79,
-79,
-80,
-79,
-80,
-78,
-80,
-79,
-79,
-80,
-79,
-78,
-79,
-79,
-78,
-78,
-79,
-78,
-79,
-77,
-78,
-79,
-77,
-78,
-78,
-76,
-77,
-76,
-76,
-76,
-76,
-75,
-76,
-74,
-74,
-74,
-74,
-73,
-73,
-72,
-72,
-71,
-71,
-70,
-70,
-69,
-70,
-69,
-68,
-68,
-67,
-66,
-66,
-66,
-64,
-65,
-64,
-63,
-63,
-62,
-61,
-61,
-60,
-60,
-59,
-58,
-59,
-57,
-56,
-57,
-53,
-54,
-53,
-52,
-52,
-50,
-49,
-49,
-48,
-48,
-47,
-47,
-46,
-46,
-44,
-44,
-42,
-41,
-42,
-40,
-39,
-39,
-38,
-37,
-36,
-34,
-34,
-32,
-33,
-30,
-30,
-30,
-27,
-27,
-26,
-25,
-25,
-23,
-22,
-22,
-20,
-20,
-20,
-17,
-17,
-16,
-15,
-14,
-13,
-11,
-12,
-10,
-9,
-9,
-7,
-6,
-6,
-4,
-4,
-2,
-1,
0,
1,
1,
2,
3,
5,
5,
6,
8,
7,
10,
11,
10,
12,
13,
13,
16,
16,
17,
18,
18,
19,
21,
22,
23,
24,
25,
26,
27,
27,
29,
29,
30,
32,
32,
32,
35,
34,
35,
36,
37,
39,
39,
40,
41,
41,
42,
43,
44,
44,
46,
45,
47,
47,
49,
49,
50,
50,
51,
52,
54,
52,
55,
53,
56,
57,
58,
57,
59,
58,
60,
60,
60,
61,
62,
61,
64,
63,
63,
65,
65,
66,
66,
65,
67,
67,
67,
69,
69,
69,
71,
70,
71,
72,
70,
72,
73,
71,
73,
73,
73,
74,
74,
74,
74,
74,
75,
74,
76,
75,
77,
75,
76,
77,
76,
77,
77,
76,
78,
76,
77,
77,
77,
77,
77,
77,
77,
77,
77,
76,
78,
76,
77,
77,
76,
77,
76,
76,
77,
75,
75,
76,
75,
75,
75,
74,
75,
74,
74,
73,
74,
73,
73,
72,
72,
71,
71,
70,
71,
70,
70,
69,
69,
68,
68,
67,
67,
66,
66,
65,
66,
63,
64,
64,
63,
62,
62,
59,
61,
59,
60,
58,
58,
58,
57,
55,
56,
54,
53,
53,
53,
51,
52,
49,
50,
49,
47,
47,
47,
45,
46,
44,
44,
43,
42,
42,
41,
39,
39,
38,
38,
36,
35,
34,
33,
32,
32,
30,
30,
28,
29,
27,
26,
25,
24,
23,
23,
21,
20,
19,
19,
17,
17,
16,
15,
14,
13,
12,
11,
9,
9,
6,
7,
6,
5,
4,
3,
2,
2,
0,
-1,
-2,
-3,
-4,
-5,
-6,
-6,
-8,
-8,
-9,
-10,
-12,
-12,
-13,
-14,
-16,
-16,
-17,
-19,
-19,
-20,
-22,
-21,
-24,
-23,
-24,
-27,
-26,
-28,
-30,
-29,
-31,
-32,
-32,
-34,
-35,
-34,
-37,
-37,
-37,
-39,
-39,
-40,
-41,
-41,
-43,
-44,
-44,
-46,
-46,
-46,
-47,
-48,
-48,
-49,
-51,
-51,
-52,
-53,
-54,
-55,
-54,
-55,
-56,
-57,
-58,
-59,
-59,
-60,
-62,
-61,
-62,
-62,
-62,
-64,
-64,
-64,
-65,
-65,
-66,
-67,
-67,
-67,
-69,
-68,
-69,
-69,
-69,
-70,
-71,
-70,
-72,
-71,
-72,
-73,
-73,
-73,
-74,
-74,
-74,
-74,
-76,
-75,
-75,
-76,
-76,
-77,
-77,
-77,
-78,
-77,
-78,
-78,
-77,
-78,
-78,
-78,
-78,
-78,
-78,
-79,
-78,
-78,
-80,
-77,
-79,
-79,
-78,
-80,
-78,
-77,
-80,
-78,
-78,
-79,
-78,
-78,
-79,
-77,
-78,
-77,
-76,
-77,
-77,
-76,
-77,
-75,
-76,
-76,
-75,
-75,
-75,
-73,
-74,
-73,
-73,
-72,
-73,
-71,
-71,
-71,
-71,
-70,
-70,
-69,
-70,
-69,
-68,
-68,
-68,
-66,
-67,
-66,
-65,
-65,
-64,
-63,
-64,
-63,
-62,
-61,
-60,
-61,
-59,
-58,
-59,
-57,
-57,
-57,
-55,
-55,
-53,
-53,
-52,
-52,
-51,
-50,
-49,
-48,
-48,
-47,
-46,
-45,
-45,
-44,
-43,
-43,
-42,
-41,
-39,
-39,
-39,
-37,
-36,
-36,
-35,
-33,
-33,
-31,
-32,
-30,
-28,
-29,
-26,
-25,
-25,
-24,
-24,
-23,
-20,
-21,
-20,
-18,
-19,
-16,
-17,
-15,
-13,
-13,
-12,
-10,
-10,
-8,
-7,
-7,
-7,
-4,
-4,
-3,
-3,
-1,
0,
1,
2,
3,
3,
5,
5,
7,
7,
8,
9,
10,
11,
13,
13,
15,
16,
16,
17,
19,
19,
19,
20,
23,
23,
24,
25,
27,
26,
28,
28,
29,
30,
32,
32,
34,
33,
35,
36,
37,
37,
39,
39,
40,
40,
42,
42,
43,
43,
45,
45,
46,
46,
48,
48,
49,
49,
51,
51,
51,
52,
54,
53,
56,
56,
56,
57,
58,
57,
60,
58,
60,
60,
61,
61,
63,
61,
64,
64,
63,
65,
65,
65,
67,
66,
68,
68,
67,
69,
68,
69,
70,
70,
70,
70,
71,
71,
72,
73,
72,
73,
72,
73,
74,
74,
75,
74,
76,
74,
75,
75,
75,
76,
75,
75,
77,
76,
77,
76,
76,
76,
76,
76,
78,
76,
77,
77,
76,
76,
77,
75,
76,
76,
75,
76,
76,
76,
75,
74,
75,
76,
74,
75,
73,
74,
74,
73,
74,
73,
74,
72,
72,
72,
71,
70,
70,
69,
70,
69,
68,
69,
68,
67,
67,
66,
66,
66,
64,
65,
65,
63,
64,
62,
62,
62,
61,
60,
60,
58,
60,
57,
57,
57,
56,
54,
56,
53,
54,
52,
52,
51,
50,
50,
50,
48,
48,
45,
46,
45,
45,
44,
43,
42,
42,
41,
40,
39,
38,
37,
38,
35,
35,
34,
32,
32,
30,
29,
30,
27,
27,
26,
26,
25,
24,
22,
23,
20,
19,
19,
18,
17,
17,
15,
14,
13,
12,
12,
11,
9,
9,
8,
6,
6,
5,
3,
3,
1,
1,
0,
-1,
-3,
-3,
-4,
-5,
-6,
-7,
-8,
-8,
-10,
-10,
-12,
-13,
-13,
-14,
-16,
-16,
-18,
-18,
-19,
-20,
-22,
-21,
-24,
-24,
-24,
-26,
-26,
-29,
-29,
-29,
-32,
-31,
-32,
-35,
-34,
-36,
-36,
-37,
-38,
-38,
-40,
-40,
-41,
-43,
-42,
-44,
-44,
-45,
-46,
-46,
-47,
-48,
-48,
-49,
-51,
-50,
-52,
-53,
-53,
-53,
-55,
-55,
-56,
-56,
-57,
-59,
-58,
-59,
-61,
-59,
-62,
-63,
-62,
-63,
-63,
-63,
-65,
-64,
-65,
-66,
-66,
-67,
-68,
-68,
-68,
-69,
-69,
-69,
-70,
-70,
-72,
-71,
-71,
-72,
-72,
-73,
-74,
-72,
-74,
-74,
-74,
-74,
-75,
-76,
-75,
-76,
-76,
-76,
-76,
-76,
-78,
-77,
-77,
-78,
-77,
-78,
-79,
-77,
-79,
-77,
-78,
-78,
-79,
-77,
-78,
-78,
-78,
-79,
-78,
-78,
-79,
-77,
-78,
-79,
-78,
-78,
-77,
-78,
-77,
-77,
-78,
-77,
-77,
-77,
-75,
-76,
-75,
-75,
-75,
-74,
-74,
-74,
-74,
-73,
-73,
-72,
-72,
-71,
-71,
-71,
-70,
-69,
-70,
-68,
-70,
-68,
-67,
-68,
-67,
-66,
-66,
-64,
-64,
-64,
-63,
-63,
-63,
-62,
-61,
-60,
-60,
-59,
-58,
-57,
-57,
-55,
-55,
-55,
-53,
-53,
-52,
-52,
-51,
-50,
-50,
-48,
-47,
-47,
-46,
-45,
-44,
-44,
-43,
-41,
-42,
-40,
-39,
-40,
-38,
-37,
-37,
-35,
-35,
-34,
-33,
-32,
-31,
-30,
-30,
-29,
-27,
-26,
-25,
-24,
-24,
-22,
-22,
-22,
-20,
-19,
-19,
-17,
-18,
-16,
-15,
-14,
-14,
-13,
-12,
-10,
-10,
-8,
-8,
-6,
-7,
-6,
-4,
-4,
-2,
0,
-2,
1,
1,
2,
3,
3,
5,
6,
6,
7,
9,
9,
11,
11,
12,
14,
14,
15,
17,
18,
17,
20,
19,
22,
22,
24,
25,
26,
25,
28,
28,
30,
31,
32,
33,
34,
34,
36,
37,
38,
39,
40,
40,
42,
42,
43,
44,
45,
46,
47,
48,
49,
49,
51,
51,
52,
52,
54,
54,
56,
56,
58,
57,
59,
59,
60,
60,
61,
61,
63,
63,
64,
64,
65,
65,
66,
66,
67,
67,
68,
68,
69,
69,
70,
70,
70,
71,
71,
71,
72,
72,
73,
72,
73,
72,
74,
74,
74,
74,
73,
74,
75,
73,
75,
75,
74,
75,
75,
75,
76,
74,
75,
76,
75,
75,
76,
74,
76,
76,
75,
76,
75,
75,
77,
74,
76,
75,
75,
76,
76,
75,
75,
75,
76,
75,
75,
74,
75,
75,
75,
74,
74,
74,
75,
74,
74,
74,
74,
72,
74,
73,
72,
73,
72,
71,
72,
70,
71,
70,
69,
70,
68,
69,
68,
66,
67,
66,
65,
66,
65,
64,
64,
64,
63,
62,
62,
60,
61,
58,
59,
58,
58,
57,
57,
54,
55,
53,
52,
51,
51,
49,
50,
49,
47,
46,
46,
44,
44,
42,
42,
42,
40,
40,
40,
36,
37,
36,
35,
34,
33,
32,
33,
30,
30,
30,
27,
27,
27,
24,
25,
22,
22,
22,
20,
20,
19,
18,
17,
17,
15,
15,
13,
13,
12,
10,
10,
8,
9,
8,
7,
6,
5,
4,
3,
2,
2,
1,
-1,
0,
-1,
-3,
-3,
-5,
-5,
-6,
-6,
-7,
-8,
-10,
-8,
-12,
-13,
-12,
-14,
-15,
-15,
-17,
-17,
-19,
-19,
-20,
-21,
-22,
-22,
-23,
-25,
-25,
-26,
-29,
-28,
-29,
-31,
-31,
-33,
-34,
-35,
-36,
-37,
-37,
-38,
-40,
-41,
-42,
-42,
-43,
-44,
-44,
-45,
-47,
-47,
-48,
-49,
-49,
-51,
-51,
-52,
-54,
-54,
-55,
-56,
-55,
-57,
-58,
-57,
-58,
-60,
-59,
-61,
-62,
-61,
-64,
-64,
-64,
-65,
-65,
-66,
-67,
-67,
-69,
-68,
-69,
-69,
-69,
-70,
-71,
-71,
-71,
-72,
-73,
-72,
-74,
-74,
-74,
-74,
-75,
-74,
-75,
-76,
-76,
-76,
-76,
-77,
-77,
-76,
-77,
-78,
-77,
-78,
-78,
-77,
-79,
-78,
-77,
-79,
-78,
-78,
-79,
-77,
-78,
-78,
-79,
-79,
-78,
-79,
-79,
-79,
-78,
-78,
-79,
-78,
-78,
-77,
-77,
-78,
-78,
-77,
-78,
-76,
-76,
-77,
-76,
-76,
-76,
-75,
-75,
-75,
-74,
-74,
-74,
-73,
-74,
-72,
-72,
-72,
-71,
-71,
-71,
-70,
-71,
-69,
-69,
-69,
-68,
-67,
-68,
-67,
-66,
-66,
-65,
-64,
-65,
-63,
-63,
-62,
-62,
-61,
-61,
-61,
-60,
-59,
-58,
-58,
-58,
-58,
-55,
-56,
-54,
-54,
-53,
-52,
-52,
-52,
-51,
-50,
-49,
-48,
-48,
-47,
-46,
-46,
-44,
-45,
-45,
-42,
-43,
-41,
-40,
-40,
-39,
-38,
-39,
-37,
-36,
-36,
-34,
-33,
-32,
-31,
-32,
-30,
-29,
-29,
-27,
-26,
-25,
-25,
-24,
-22,
-22,
-20,
-20,
-19,
-19,
-18,
-16,
-16,
-15,
-13,
-14,
-11,
-11,
-10,
-9,
-8,
-8,
-6,
-5,
-5,
-3,
-2,
-2,
0,
0,
1,
2,
3,
5,
5,
5,
8,
7,
10,
11,
10,
12,
14,
14,
16,
16,
17,
18,
20,
20,
22,
22,
25,
25,
25,
27,
27,
28,
31,
30,
32,
32,
34,
34,
35,
37,
37,
37,
40,
39,
41,
42,
41,
43,
44,
44,
47,
46,
47,
48,
49,
49,
51,
50,
52,
52,
53,
54,
56,
55,
58,
57,
57,
58,
59,
59,
61,
60,
62,
62,
63,
63,
64,
64,
65,
66,
66,
66,
68,
67,
69,
68,
69,
69,
70,
70,
71,
71,
71,
71,
71,
72,
74,
73,
73,
74,
74,
75,
75,
74,
75,
74,
75,
76,
75,
76,
76,
76,
78,
76,
77,
77,
78,
76,
77,
77,
78,
77,
78,
77,
78,
77,
77,
77,
78,
77,
77,
76,
77,
76,
76,
75,
77,
75,
75,
76,
75,
75,
75,
74,
75,
73,
74,
74,
72,
73,
73,
71,
71,
71,
70,
70,
70,
69,
70,
69,
69,
69,
68,
67,
68,
66,
67,
66,
65,
65,
65,
64,
63,
62,
62,
61,
62,
59,
60,
60,
59,
58,
59,
57,
57,
55,
56,
54,
53,
52,
53,
50,
51,
50,
50,
48,
48,
46,
47,
44,
46,
44,
43,
42,
43,
41,
42,
39,
38,
38,
37,
36,
37,
34,
35,
33,
32,
31,
30,
29,
29,
27,
27,
26,
26,
24,
23,
22,
21,
20,
20,
18,
18,
16,
16,
15,
15,
12,
13,
10,
10,
9,
7,
7,
6,
4,
4,
2,
1,
1,
0,
-1,
-1,
-4,
-3,
-5,
-6,
-6,
-7,
-9,
-9,
-11,
-11,
-12,
-13,
-15,
-14,
-17,
-17,
-18,
-19,
-20,
-21,
-22,
-22,
-24,
-24,
-25,
-26,
-28,
-29,
-29,
-30,
-32,
-32,
-34,
-35,
-35,
-37,
-36,
-38,
-39,
-40,
-41,
-41,
-43,
-44,
-44,
-45,
-46,
-46,
-47,
-48,
-48,
-50,
-51,
-51,
-53,
-53,
-54,
-55,
-55,
-56,
-57,
-58,
-58,
-59,
-60,
-61,
-62,
-61,
-62,
-64,
-63,
-64,
-65,
-65,
-66,
-67,
-67,
-68,
-69,
-68,
-70,
-69,
-69,
-71,
-71,
-71,
-72,
-71,
-73,
-74,
-73,
-75,
-75,
-73,
-76,
-76,
-76,
-77,
-76,
-77,
-78,
-76,
-78,
-78,
-78,
-78,
-79,
-78,
-80,
-79,
-79,
-79,
-79,
-79,
-80,
-79,
-80,
-80,
-80,
-80,
-80,
-79,
-80,
-79,
-80,
-79,
-80,
-79,
-78,
-79,
-78,
-79,
-79,
-78,
-79,
-78,
-78,
-78,
-78,
-77,
-77,
-77,
-77,
-76,
-76,
-76,
-76,
-74,
-75,
-74,
-73,
-73,
-72,
-73,
-73,
-71,
-71,
-71,
-70,
-70,
-70,
-69,
-69,
-68,
-68,
-67,
-67,
-65,
-65,
-65,
-63,
-64,
-63,
-62,
-62,
-60,
-60,
-61,
-59,
-58,
-58,
-57,
-56,
-56,
-54,
-54,
-53,
-52,
-53,
-51,
-50,
-50,
-48,
-48,
-47,
-46,
-46,
-45,
-44,
-45,
-43,
-42,
-42,
-40,
-40,
-39,
-37,
-37,
-36,
-35,
-35,
-33,
-33,
-32,
-30,
-30,
-30,
-28,
-27,
-27,
-25,
-25,
-23,
-23,
-22,
-22,
-20,
-20,
-19,
-18,
-17,
-16,
-15,
-14,
-14,
-12,
-11,
-10,
-9,
-9,
-7,
-7,
-7,
-5,
-4,
-4,
-3,
-1,
-2,
0,
0,
2,
3,
3,
5,
6,
6,
8,
8,
10,
11,
10,
12,
14,
14,
15,
16,
18,
17,
18,
20,
20,
23,
23,
24,
25,
25,
27,
28,
27,
29,
31,
30,
33,
32,
34,
35,
36,
36,
38,
37,
40,
40,
40,
42,
42,
42,
45,
44,
46,
46,
47,
48,
49,
48,
51,
52,
52,
52,
54,
55,
56,
55,
57,
57,
58,
58,
59,
60,
61,
60,
63,
61,
64,
64,
63,
65,
66,
65,
67,
66,
68,
68,
69,
69,
69,
68,
71,
70,
70,
71,
72,
71,
73,
72,
73,
73,
73,
74,
75,
74,
75,
74,
75,
76,
75,
75,
77,
75,
76,
76,
76,
76,
77,
76,
77,
77,
76,
76,
77,
76,
77,
76,
76,
77,
76,
76,
77,
75,
75,
76,
75,
75,
75,
74,
75,
74,
75,
74,
73,
73,
74,
73,
73,
72,
72,
71,
72,
70,
72,
70,
70,
70,
69,
69,
69,
67,
69,
66,
67,
66,
66,
65,
65,
65,
64,
64,
64,
62,
62,
61,
61,
60,
61,
59,
59,
59,
58,
57,
57,
56,
56,
54,
54,
54,
52,
52,
52,
49,
51,
48,
48,
48,
47,
46,
46,
44,
45,
43,
43,
42,
42,
39,
40,
38,
37,
37,
37,
35,
35,
32,
33,
31,
31,
29,
29,
27,
27,
26,
26,
25,
24,
22,
22,
20,
19,
19,
18,
16,
16,
14,
14,
13,
11,
11,
10,
8,
8,
6,
6,
5,
4,
2,
2,
0,
0,
-1,
-3,
-4,
-4,
-6,
-5,
-8,
-8,
-8,
-10,
-11,
-13,
-13,
-13,
-15,
-15,
-17,
-18,
-19,
-20,
-22,
-21,
-22,
-23,
-24,
-25,
-26,
-27,
-29,
-29,
-30,
-31,
-31,
-34,
-33,
-34,
-36,
-35,
-37,
-38,
-38,
-40,
-40,
-40,
-42,
-41,
-43,
-44,
-45,
-46,
-46,
-47,
-48,
-48,
-48,
-50,
-50,
-50,
-52,
-53,
-53,
-54,
-54,
-56,
-56,
-56,
-58,
-58,
-58,
-60,
-60,
-61,
-61,
-62,
-62,
-63,
-63,
-64,
-65,
-65,
-65,
-67,
-67,
-67,
-69,
-68,
-69,
-69,
-69,
-71,
-71,
-70,
-71,
-72,
-72,
-73,
-73,
-73,
-74,
-73,
-75,
-74,
-75,
-76,
-76,
-75,
-77,
-76,
-77,
-77,
-78,
-77,
-77,
-78,
-78,
-78,
-79,
-77,
-78,
-78,
-78,
-79,
-79,
-78,
-80,
-78,
-79,
-79,
-78,
-78,
-80,
-78,
-79,
-78,
-78,
-79,
-78,
-77,
-79,
-78,
-77,
-78,
-77,
-77,
-77,
-76,
-76,
-75,
-75,
-76,
-75,
-73,
-74,
-72,
-73,
-73,
-72,
-72,
-72,
-70,
-71,
-70,
-70,
-70,
-68,
-68,
-68,
-67,
-68,
-66,
-67,
-66,
-65,
-64,
-63,
-64,
-63,
-61,
-62,
-60,
-61,
-60,
-59,
-59,
-58,
-57,
-57,
-57,
-55,
-54,
-53,
-53,
-52,
-51,
-51,
-51,
-49,
-48,
-47,
-47,
-46,
-45,
-45,
-45,
-44,
-43,
-42,
-41,
-40,
-40,
-39,
-38,
-37,
-37,
-35,
-34,
-34,
-32,
-32,
-31,
-30,
-30,
-27,
-27,
-26,
-25,
-25,
-23,
-22,
-23,
-21,
-20,
-20,
-17,
-17,
-17,
-15,
-14,
-14,
-12,
-12,
-10,
-9,
-9,
-7,
-6,
-7,
-4,
-4,
-3,
-2,
-1,
0,
1,
1,
3,
4,
4,
6,
6,
7,
9,
9,
11,
12,
12,
13,
15,
15,
16,
17,
18,
19,
20,
21,
22,
24,
25,
25,
26,
26,
27,
28,
30,
30,
31,
32,
34,
34,
35,
36,
37,
38,
39,
39,
40,
41,
41,
42,
44,
44,
47,
45,
48,
47,
48,
49,
50,
50,
51,
52,
54,
52,
55,
55,
56,
57,
57,
57,
60,
58,
60,
60,
61,
61,
63,
61,
63,
64,
64,
65,
66,
66,
67,
66,
68,
68,
67,
70,
70,
70,
71,
70,
71,
71,
71,
73,
73,
73,
74,
73,
74,
74,
75,
75,
75,
75,
76,
76,
77,
76,
76,
76,
78,
77,
78,
76,
78,
77,
78,
77,
77,
77,
78,
77,
78,
78,
77,
77,
78,
77,
78,
76,
78,
77,
77,
77,
77,
76,
77,
76,
75,
76,
76,
75,
75,
75,
75,
74,
74,
74,
74,
73,
72,
72,
72,
71,
71,
70,
70,
69,
70,
68,
69,
67,
67,
67,
66,
66,
66,
65,
66,
62,
63,
63,
61,
61,
61,
59,
61,
58,
60,
58,
57,
57,
56,
54,
55,
53,
52,
53,
52,
50,
52,
49,
50,
48,
47,
46,
46,
44,
45,
43,
43,
42,
41,
41,
40,
38,
39,
38,
37,
35,
35,
34,
33,
31,
31,
30,
29,
28,
28,
26,
26,
24,
25,
22,
22,
21,
19,
19,
18,
16,
17,
15,
15,
14,
12,
10,
11,
9,
9,
7,
6,
6,
4,
3,
3,
2,
1,
0,
-1,
-3,
-3,
-4,
-5,
-6,
-7,
-8,
-8,
-10,
-10,
-13,
-14,
-14,
-14,
-17,
-16,
-17,
-19,
-19,
-20,
-22,
-21,
-24,
-24,
-24,
-27,
-25,
-28,
-30,
-29,
-31,
-31,
-32,
-34,
-34,
-35,
-36,
-37,
-37,
-39,
-39,
-39,
-41,
-41,
-43,
-44,
-43,
-45,
-46,
-46,
-47,
-48,
-49,
-49,
-50,
-51,
-52,
-53,
-53,
-54,
-54,
-55,
-56,
-57,
-57,
-58,
-59,
-59,
-61,
-61,
-61,
-62,
-62,
-63,
-64,
-64,
-66,
-65,
-66,
-67,
-67,
-67,
-69,
-68,
-70,
-69,
-69,
-71,
-71,
-71,
-72,
-72,
-72,
-73,
-74,
-73,
-75,
-74,
-75,
-76,
-76,
-75,
-76,
-76,
-77,
-77,
-77,
-77,
-78,
-77,
-78,
-78,
-78,
-78,
-79,
-78,
-80,
-78,
-78,
-79,
-79,
-78,
-80,
-78,
-79,
-79,
-78,
-80,
-79,
-78,
-79,
-78,
-78,
-79,
-77,
-78,
-78,
-77,
-78,
-77,
-77,
-77,
-76,
-76,
-76,
-76,
-76,
-76,
-74,
-74,
-74,
-74,
-73,
-72,
-73,
-72,
-72,
-72,
-71,
-71,
-71,
-69,
-70,
-69,
-68,
-68,
-67,
-67,
-67,
-65,
-65,
-65,
-63,
-64,
-63,
-62,
-63,
-61,
-60,
-61,
-59,
-59,
-58,
-57,
