5-grundlagen-opAmps/data/ALL0062/A0062CH1.CSV

Memory Length,4000,
Trigger Level,-1.00000e+01,
Source,CH1,
Probe,1.0X,
Vertical Units,V,
Vertical Scale,5.00000e-02,
Vertical Position,0.00000e+00,
Horizontal Units,S,
Horizontal Scale,1.00000e-06,
Horizontal Position,0.0000000e+00,
Horizontal Mode,Main,
Sampling Period,4.00000e-09,
Firmware,V1.14,
Time, ,
Mode,Fast,
Waveform Data,
10,
10,
6,
9,
9,
10,
14,
9,
13,
11,
12,
15,
11,
18,
15,
13,
21,
16,
17,
21,
16,
20,
23,
17,
22,
24,
19,
25,
25,
21,
28,
23,
22,
30,
23,
28,
29,
25,
31,
30,
27,
31,
30,
29,
32,
33,
30,
33,
35,
31,
34,
36,
33,
37,
36,
34,
39,
35,
36,
42,
33,
40,
42,
33,
43,
40,
35,
46,
39,
38,
46,
38,
40,
46,
37,
44,
46,
37,
47,
43,
38,
50,
40,
43,
49,
39,
47,
46,
41,
47,
43,
45,
47,
45,
45,
46,
47,
45,
46,
46,
45,
48,
44,
48,
46,
46,
46,
46,
47,
44,
48,
46,
42,
50,
41,
47,
50,
40,
51,
45,
42,
50,
42,
45,
48,
43,
46,
46,
42,
45,
46,
41,
45,
46,
39,
48,
42,
40,
47,
39,
42,
43,
39,
43,
40,
42,
39,
41,
40,
38,
42,
38,
39,
41,
34,
42,
38,
34,
41,
34,
34,
41,
32,
33,
38,
31,
34,
37,
28,
35,
32,
27,
36,
27,
28,
35,
23,
30,
31,
21,
29,
28,
22,
29,
24,
22,
28,
20,
21,
24,
19,
24,
19,
20,
20,
17,
19,
17,
16,
17,
14,
17,
13,
14,
16,
11,
12,
14,
8,
11,
13,
5,
11,
9,
3,
11,
5,
3,
10,
-1,
5,
5,
-3,
7,
0,
-1,
4,
-3,
0,
0,
-4,
-3,
-3,
-6,
-6,
-3,
-9,
-5,
-6,
-11,
-6,
-10,
-12,
-7,
-14,
-10,
-12,
-13,
-15,
-15,
-15,
-18,
-12,
-19,
-20,
-13,
-24,
-16,
-18,
-26,
-16,
-21,
-26,
-19,
-26,
-25,
-23,
-28,
-26,
-22,
-32,
-26,
-25,
-35,
-25,
-28,
-35,
-25,
-36,
-33,
-29,
-37,
-33,
-33,
-38,
-31,
-37,
-35,
-36,
-38,
-37,
-36,
-40,
-39,
-40,
-40,
-40,
-40,
-40,
-43,
-42,
-39,
-45,
-41,
-42,
-47,
-41,
-45,
-47,
-41,
-48,
-45,
-44,
-50,
-46,
-46,
-52,
-44,
-49,
-51,
-44,
-52,
-52,
-44,
-56,
-49,
-48,
-54,
-48,
-52,
-53,
-49,
-54,
-52,
-51,
-52,
-53,
-49,
-55,
-53,
-51,
-55,
-53,
-51,
-57,
-51,
-54,
-55,
-53,
-53,
-55,
-54,
-52,
-56,
-53,
-52,
-58,
-49,
-57,
-55,
-50,
-58,
-51,
-53,
-60,
-48,
-56,
-55,
-50,
-55,
-56,
-50,
-56,
-54,
-50,
-56,
-53,
-50,
-57,
-49,
-53,
-54,
-48,
-54,
-49,
-50,
-54,
-47,
-52,
-49,
-50,
-50,
-48,
-53,
-47,
-48,
-50,
-45,
-49,
-48,
-46,
-48,
-48,
-44,
-48,
-45,
-44,
-48,
-43,
-43,
-48,
-39,
-45,
-44,
-37,
-46,
-40,
-37,
-47,
-35,
-39,
-44,
-35,
-39,
-40,
-33,
-39,
-36,
-33,
-39,
-34,
-33,
-38,
-30,
-33,
-34,
-31,
-33,
-33,
-29,
-31,
-30,
-28,
-29,
-29,
-24,
-28,
-27,
-24,
-26,
-25,
-21,
-25,
-22,
-20,
-22,
-19,
-17,
-24,
-15,
-19,
-20,
-11,
-19,
-15,
-10,
-20,
-10,
-12,
-15,
-9,
-12,
-12,
-8,
-9,
-8,
-7,
-7,
-8,
-3,
-8,
-4,
-3,
-6,
-1,
-2,
-3,
1,
-2,
2,
-1,
2,
2,
1,
7,
1,
5,
9,
0,
12,
6,
5,
12,
5,
11,
12,
6,
13,
14,
9,
16,
16,
8,
19,
16,
11,
23,
13,
16,
23,
14,
23,
22,
16,
26,
20,
20,
26,
20,
24,
27,
22,
24,
30,
24,
27,
30,
25,
31,
31,
27,
31,
30,
29,
31,
33,
30,
33,
34,
31,
36,
34,
33,
38,
33,
35,
39,
34,
38,
39,
34,
41,
40,
36,
42,
40,
37,
44,
38,
40,
43,
38,
43,
41,
39,
44,
41,
42,
44,
43,
42,
45,
44,
43,
45,
43,
43,
45,
44,
45,
44,
46,
43,
46,
46,
42,
49,
44,
43,
51,
40,
51,
47,
41,
52,
44,
44,
52,
42,
46,
49,
43,
46,
49,
41,
48,
48,
41,
51,
44,
41,
52,
40,
46,
49,
39,
50,
44,
41,
49,
41,
44,
44,
44,
43,
44,
44,
42,
44,
43,
41,
44,
40,
43,
41,
40,
40,
41,
40,
39,
41,
37,
38,
41,
33,
41,
38,
33,
41,
34,
34,
39,
30,
36,
35,
32,
35,
34,
31,
34,
30,
29,
34,
28,
29,
31,
26,
29,
29,
26,
28,
27,
24,
25,
26,
24,
23,
25,
21,
21,
23,
19,
21,
21,
17,
21,
18,
13,
21,
14,
13,
20,
10,
15,
20,
6,
16,
14,
5,
17,
7,
7,
13,
4,
7,
9,
2,
7,
7,
0,
7,
5,
-3,
7,
-1,
-1,
5,
-5,
1,
-1,
-6,
0,
-6,
-5,
-4,
-7,
-4,
-9,
-7,
-9,
-9,
-7,
-13,
-8,
-12,
-14,
-11,
-14,
-15,
-13,
-15,
-17,
-15,
-17,
-21,
-13,
-22,
-20,
-17,
-25,
-17,
-21,
-27,
-18,
-28,
-24,
-22,
-29,
-25,
-26,
-30,
-26,
-28,
-30,
-31,
-28,
-33,
-30,
-31,
-33,
-31,
-33,
-35,
-32,
-36,
-35,
-35,
-36,
-38,
-35,
-39,
-40,
-35,
-42,
-40,
-36,
-47,
-38,
-41,
-46,
-38,
-42,
-46,
-38,
-47,
-44,
-41,
-48,
-44,
-43,
-51,
-41,
-47,
-50,
-41,
-49,
-50,
-43,
-52,
-47,
-46,
-52,
-48,
-48,
-53,
-47,
-50,
-52,
-48,
-52,
-52,
-50,
-55,
-50,
-52,
-53,
-52,
-53,
-52,
-54,
-53,
-52,
-56,
-50,
-56,
-54,
-51,
-56,
-53,
-53,
-56,
-51,
-54,
-55,
-53,
-54,
-57,
-51,
-56,
-55,
-49,
-58,
-54,
-51,
-60,
-49,
-55,
-57,
-51,
-55,
-54,
-52,
-55,
-53,
-54,
-52,
-55,
-52,
-52,
-53,
-49,
-55,
-51,
-50,
-55,
-48,
-51,
-52,
-48,
-50,
-53,
-48,
-47,
-52,
-47,
-48,
-51,
-42,
-52,
-47,
-43,
-53,
-43,
-46,
-51,
-40,
-49,
-46,
-40,
-48,
-43,
-40,
-48,
-41,
-40,
-46,
-39,
-40,
-44,
-36,
-43,
-40,
-36,
-42,
-37,
-37,
-40,
-34,
-37,
-36,
-35,
-34,
-34,
-33,
-32,
-32,
-33,
-29,
-32,
-30,
-28,
-31,
-29,
-25,
-31,
-25,
-26,
-28,
-21,
-26,
-25,
-20,
-27,
-22,
-20,
-25,
-18,
-18,
-23,
-14,
-19,
-21,
-12,
-18,
-18,
-11,
-19,
-12,
-11,
-16,
-9,
-11,
-13,
-8,
-11,
-8,
-8,
-7,
-8,
-4,
-6,
-7,
-1,
-5,
-5,
2,
-6,
0,
2,
-3,
3,
2,
0,
4,
3,
2,
6,
6,
2,
11,
3,
5,
14,
2,
11,
13,
3,
18,
10,
8,
17,
10,
14,
17,
12,
18,
17,
15,
19,
19,
16,
22,
20,
18,
24,
19,
22,
24,
20,
25,
23,
25,
26,
26,
29,
23,
27,
29,
26,
32,
28,
28,
34,
29,
32,
34,
29,
34,
35,
30,
36,
34,
30,
40,
33,
33,
41,
32,
39,
40,
33,
42,
38,
35,
43,
38,
37,
43,
37,
41,
43,
38,
42,
44,
39,
44,
42,
41,
43,
44,
42,
44,
45,
42,
46,
46,
40,
47,
43,
43,
48,
42,
45,
47,
42,
48,
46,
43,
47,
47,
42,
50,
46,
42,
51,
43,
44,
51,
40,
49,
47,
42,
51,
43,
46,
49,
43,
47,
45,
45,
44,
46,
44,
45,
47,
44,
45,
45,
43,
45,
43,
45,
42,
45,
45,
41,
47,
41,
42,
46,
36,
46,
41,
38,
47,
38,
40,
45,
35,
41,
41,
35,
40,
41,
34,
41,
38,
32,
41,
34,
34,
41,
29,
38,
37,
29,
37,
32,
30,
35,
30,
30,
32,
29,
29,
31,
28,
26,
29,
26,
26,
29,
23,
26,
26,
22,
24,
24,
20,
23,
22,
18,
23,
19,
16,
24,
15,
16,
21,
12,
16,
17,
11,
16,
14,
10,
16,
12,
10,
14,
6,
10,
11,
4,
11,
6,
4,
8,
3,
4,
3,
3,
3,
0,
3,
0,
-1,
1,
-3,
-1,
-3,
-4,
-2,
-4,
-6,
-4,
-6,
-10,
-4,
-10,
-11,
-4,
-17,
-8,
-9,
-20,
-7,
-14,
-17,
-7,
-21,
-16,
-14,
-20,
-15,
-17,
-22,
-17,
-19,
-24,
-18,
-21,
-27,
-18,
-28,
-25,
-20,
-30,
-23,
-26,
-31,
-23,
-31,
-29,
-29,
-30,
-30,
-32,
-31,
-33,
-32,
-33,
-36,
-30,
-37,
-36,
-31,
-38,
-37,
-34,
-40,
-37,
-38,
-40,
-38,
-38,
-45,
-38,
-41,
-44,
-39,
-45,
-44,
-40,
-48,
-42,
-43,
-47,
-43,
-45,
-47,
-43,
-48,
-47,
-46,
-48,
-48,
-46,
-50,
-48,
-48,
-49,
-50,
-49,
-49,
-50,
-50,
-50,
-53,
-49,
-52,
-52,
-49,
-54,
-51,
-50,
-57,
-49,
-52,
-56,
-48,
-54,
-58,
-47,
-57,
-54,
-48,
-60,
-51,
-52,
-60,
-48,
-57,
-56,
-49,
-58,
-54,
-51,
-59,
-51,
-52,
-57,
-53,
-52,
-58,
-52,
-55,
-57,
-50,
-56,
-54,
-51,
-56,
-50,
-55,
-53,
-52,
-53,
-51,
-54,
-51,
-51,
-53,
-48,
-56,
-49,
-49,
-55,
-47,
-52,
-52,
-47,
-52,
-49,
-48,
-49,
-49,
-46,
-50,
-47,
-46,
-50,
-44,
-47,
-51,
-41,
-49,
-46,
-41,
-48,
-42,
-43,
-44,
-41,
-43,
-41,
-43,
-40,
-40,
-41,
-39,
-41,
-39,
-37,
-41,
-34,
-37,
-38,
-34,
-36,
-37,
-31,
-35,
-35,
-29,
-35,
-33,
-26,
-37,
-28,
-28,
-34,
-23,
-29,
-32,
-20,
-31,
-25,
-22,
-30,
-23,
-20,
-29,
-18,
-22,
-25,
-15,
-22,
-20,
-15,
-23,
-17,
-15,
-18,
-15,
-14,
-15,
-12,
-14,
-14,
-11,
-12,
-12,
-9,
-11,
-8,
-7,
-9,
-7,
-6,
-4,
-6,
-4,
-2,
-7,
1,
-3,
-2,
3,
-3,
3,
2,
-2,
7,
1,
3,
9,
3,
5,
9,
5,
5,
10,
6,
9,
14,
6,
13,
13,
10,
16,
12,
14,
15,
14,
17,
15,
18,
17,
18,
20,
17,
24,
17,
19,
26,
17,
25,
26,
20,
26,
27,
22,
28,
27,
25,
29,
27,
25,
34,
25,
29,
35,
23,
36,
32,
24,
41,
29,
32,
39,
29,
36,
38,
32,
37,
37,
34,
39,
37,
36,
42,
37,
39,
41,
37,
40,
41,
38,
42,
41,
40,
41,
42,
41,
41,
43,
43,
41,
45,
42,
43,
46,
42,
44,
46,
41,
47,
45,
42,
48,
42,
44,
49,
40,
49,
48,
41,
49,
46,
43,
49,
45,
45,
48,
46,
45,
48,
44,
46,
48,
43,
47,
47,
43,
49,
45,
46,
45,
46,
44,
46,
48,
42,
47,
46,
41,
50,
41,
43,
49,
39,
46,
45,
39,
47,
42,
40,
46,
42,
38,
47,
39,
39,
48,
36,
41,
45,
34,
45,
39,
34,
44,
34,
40,
40,
34,
40,
37,
36,
36,
35,
35,
34,
35,
33,
35,
33,
31,
34,
30,
32,
30,
31,
30,
28,
31,
25,
27,
29,
23,
30,
25,
25,
28,
21,
24,
27,
18,
25,
23,
18,
24,
20,
16,
23,
15,
15,
20,
14,
17,
18,
10,
16,
14,
10,
16,
10,
10,
13,
8,
9,
11,
7,
6,
10,
4,
5,
7,
3,
3,
5,
2,
1,
4,
-1,
1,
1,
-5,
2,
-2,
-6,
0,
-7,
-4,
-1,
-12,
-4,
-7,
-11,
-5,
-8,
-15,
-8,
-12,
-14,
-9,
-15,
-16,
-10,
-21,
-12,
-16,
-23,
-13,
-19,
-20,
-16,
-25,
-18,
-21,
-22,
-22,
-25,
-22,
-25,
-25,
-24,
-28,
-25,
-28,
-28,
-27,
-29,
-31,
-29,
-30,
-33,
-29,
-34,
-34,
-29,
-39,
-30,
-35,
-41,
-28,
-39,
-39,
-31,
-43,
-34,
-36,
-43,
-37,
-39,
-42,
-38,
-41,
-43,
-39,
-44,
-44,
-39,
-48,
-43,
-42,
-49,
-44,
-44,
-49,
-44,
-47,
-47,
-46,
-46,
-48,
-47,
-48,
-51,
-48,
-49,
-52,
-46,
-52,
-50,
-48,
-54,
-50,
-49,
-56,
-48,
-50,
-55,
-47,
-52,
-56,
-47,
-56,
-53,
-50,
-57,
-52,
-52,
-57,
-50,
-54,
-55,
-52,
-56,
-55,
-50,
-57,
-53,
-51,
-57,
-53,
-54,
-56,
-52,
-56,
-53,
-56,
-54,
-53,
-57,
-53,
-53,
-55,
-50,
-57,
-51,
-53,
-55,
-49,
-54,
-54,
-50,
-55,
-53,
-49,
-53,
-55,
-46,
-56,
-51,
-48,
-56,
-45,
-50,
-55,
-43,
-54,
-48,
-46,
-53,
-45,
-47,
-52,
-44,
-47,
-49,
-46,
-46,
-49,
-42,
-46,
-48,
-41,
-46,
-43,
-41,
-47,
-41,
-44,
-42,
-41,
-41,
-40,
-41,
-39,
-40,
-38,
-36,
-42,
-33,
-37,
-39,
-30,
-39,
-37,
-30,
-39,
-31,
-31,
-34,
-30,
-30,
-34,
-28,
-31,
-31,
-26,
-30,
-27,
-22,
-31,
-24,
-25,
-27,
-22,
-23,
-23,
-21,
-23,
-19,
-21,
-19,
-19,
-19,
-17,
-17,
-17,
-16,
-16,
-14,
-14,
-16,
-11,
-13,
-15,
-6,
-14,
-10,
-5,
-13,
-5,
-4,
-12,
-2,
-6,
-9,
-1,
-4,
-5,
2,
-5,
-1,
4,
-5,
3,
3,
-5,
9,
1,
1,
9,
1,
7,
9,
2,
9,
7,
6,
10,
10,
10,
10,
12,
11,
15,
12,
13,
17,
13,
17,
18,
15,
18,
18,
19,
18,
22,
20,
19,
26,
18,
24,
27,
18,
28,
24,
22,
31,
23,
28,
30,
25,
31,
30,
27,
31,
31,
29,
33,
34,
28,
36,
31,
31,
37,
32,
36,
35,
35,
38,
35,
38,
36,
38,
40,
36,
39,
38,
39,
42,
36,
42,
41,
36,
43,
41,
38,
46,
40,
40,
48,
39,
41,
47,
37,
45,
45,
38,
49,
44,
41,
50,
41,
46,
50,
40,
47,
48,
39,
49,
47,
43,
49,
44,
45,
49,
43,
48,
47,
44,
47,
47,
45,
46,
46,
46,
46,
47,
43,
47,
47,
44,
49,
47,
43,
46,
46,
44,
46,
47,
41,
47,
43,
43,
48,
40,
46,
46,
38,
48,
41,
41,
46,
40,
42,
43,
40,
42,
42,
41,
39,
43,
38,
40,
41,
37,
41,
38,
37,
40,
36,
37,
36,
36,
34,
35,
37,
31,
37,
33,
28,
39,
28,
31,
36,
26,
34,
31,
24,
33,
27,
27,
31,
25,
25,
31,
21,
26,
29,
18,
28,
24,
16,
29,
19,
19,
26,
16,
20,
20,
15,
20,
17,
14,
17,
15,
13,
15,
12,
12,
14,
11,
11,
11,
9,
9,
9,
8,
6,
8,
7,
4,
6,
2,
2,
6,
1,
1,
3,
-2,
2,
0,
-4,
1,
-4,
-7,
0,
-7,
-6,
-2,
-12,
-6,
-7,
-11,
-5,
-11,
-12,
-10,
-13,
-10,
-14,
-13,
-15,
-14,
-15,
-17,
-15,
-19,
-18,
-15,
-23,
-18,
-19,
-23,
-21,
-18,
-25,
-23,
-20,
-27,
-23,
-23,
-32,
-19,
-29,
-30,
-22,
-37,
-28,
-25,
-37,
-25,
-33,
-35,
-29,
-35,
-37,
-30,
-38,
-37,
-32,
-39,
-37,
-34,
-44,
-33,
-38,
-42,
-33,
-44,
-40,
-37,
-46,
-38,
-44,
-44,
-41,
-44,
-44,
-45,
-42,
-44,
-46,
-42,
-47,
-45,
-45,
-48,
-47,
-46,
-48,
-47,
-47,
-50,
-48,
-48,
-53,
-46,
-52,
-52,
-45,
-54,
-51,
-47,
-57,
-48,
-51,
-54,
-48,
-53,
-54,
-49,
-55,
-53,
-51,
-55,
-53,
-51,
-56,
-52,
-53,
-55,
-53,
-53,
-56,
-53,
-53,
-56,
-53,
-52,
-58,
-51,
-56,
-55,
-52,
-56,
-55,
-52,
-57,
-54,
-52,
-57,
-53,
-51,
-59,
-49,
-55,
-57,
-46,
-57,
-53,
-47,
-59,
-49,
-50,
-56,
-48,
-52,
-54,
-48,
-52,
-52,
-49,
-51,
-51,
-47,
-53,
-48,
-47,
-51,
-45,
-49,
-50,
-45,
-50,
-44,
-48,
-46,
-44,
-48,
-43,
-45,
-47,
-41,
-47,
-41,
-44,
-44,
-38,
-44,
-42,
-39,
-44,
-39,
-39,
-42,
-40,
-35,
-43,
-34,
-36,
-42,
-31,
-37,
-38,
-29,
-39,
-32,
-32,
-36,
-29,
-32,
-33,
-28,
-31,
-30,
-27,
-29,
-29,
-25,
-29,
-26,
-23,
-28,
-24,
-20,
-27,
-23,
-21,
-22,
-20,
-18,
-21,
-18,
-17,
-20,
-14,
-17,
-18,
-10,
-18,
-14,
-9,
-17,
-11,
-7,
-16,
-7,
-7,
-12,
-5,
-8,
-10,
-1,
-8,
-4,
-1,
-8,
0,
-1,
-6,
2,
-2,
-2,
4,
0,
1,
4,
2,
3,
5,
4,
6,
6,
6,
8,
6,
9,
9,
9,
13,
8,
14,
12,
10,
18,
10,
17,
18,
10,
21,
17,
13,
22,
17,
19,
23,
18,
21,
24,
19,
23,
26,
19,
27,
25,
20,
31,
22,
27,
32,
22,
32,
29,
25,
33,
29,
30,
32,
33,
30,
31,
35,
31,
35,
34,
33,
38,
32,
36,
39,
33,
38,
38,
36,
38,
40,
36,
40,
43,
35,
43,
40,
36,
46,
37,
40,
46,
37,
44,
43,
38,
46,
42,
41,
46,
41,
43,
47,
42,
43,
48,
41,
47,
45,
43,
47,
45,
45,
46,
44,
47,
44,
46,
46,
46,
47,
45,
47,
47,
44,
47,
47,
44,
49,
46,
42,
51,
42,
44,
52,
41,
47,
48,
39,
50,
44,
42,
49,
43,
45,
48,
40,
45,
48,
40,
46,
46,
39,
48,
43,
40,
48,
40,
41,
45,
39,
44,
40,
41,
42,
40,
41,
39,
40,
38,
38,
41,
35,
41,
37,
34,
40,
34,
35,
38,
34,
34,
35,
34,
33,
35,
29,
32,
34,
25,
35,
29,
26,
35,
24,
29,
31,
21,
30,
26,
23,
27,
24,
25,
24,
24,
21,
23,
23,
20,
22,
19,
19,
19,
17,
18,
16,
18,
16,
16,
16,
12,
17,
12,
10,
17,
7,
11,
13,
4,
11,
8,
4,
11,
4,
3,
9,
0,
4,
6,
-3,
5,
2,
-4,
4,
-2,
-4,
2,
-6,
-3,
0,
-9,
-3,
-4,
-11,
-4,
-7,
-10,
-5,
-12,
-13,
-8,
-14,
-11,
-10,
-14,
-14,
-14,
-15,
-16,
-15,
-17,
-20,
-15,
-22,
-20,
-17,
-24,
-19,
-20,
-26,
-20,
-26,
-25,
-23,
-26,
-27,
-23,
-29,
-28,
-25,
-33,
-29,
-27,
-37,
-27,
-32,
-33,
-29,
-36,
-34,
-33,
-37,
-34,
-37,
-35,
-37,
-37,
-37,
-40,
-37,
-40,
-39,
-38,
-43,
-39,
-42,
-43,
-41,
-41,
-45,
-42,
-42,
-48,
-43,
-43,
-50,
-40,
-50,
-47,
-42,
-53,
-43,
-46,
-54,
-42,
-51,
-51,
-44,
-52,
-51,
-45,
-54,
-50,
-47,
-55,
-50,
-51,
-56,
-47,
-53,
-54,
-48,
-56,
-53,
-50,
-57,
-50,
-53,
-54,
-53,
-54,
-54,
-53,
-52,
-53,
-54,
-52,
-57,
-53,
-52,
-55,
-54,
-53,
-57,
-52,
-55,
-55,
-53,
-55,
-54,
-51,
-59,
-51,
-52,
-57,
-52,
-53,
-57,
-50,
-55,
-55,
-51,
-55,
-55,
-50,
-56,
-51,
-51,
-55,
-50,
-53,
-52,
-49,
-53,
-48,
-50,
-49,
-51,
-49,
-47,
-53,
-47,
-48,
-53,
-44,
-51,
-48,
-44,
-49,
-46,
-44,
-48,
-44,
-44,
-46,
-44,
-43,
-48,
-39,
-46,
-45,
-36,
-47,
-41,
-35,
-48,
-34,
-40,
-44,
-35,
-41,
-39,
-34,
-40,
-35,
-35,
-37,
-35,
-33,
-38,
-31,
-32,
-35,
-28,
-34,
-33,
-27,
-34,
-28,
-29,
-29,
-27,
-28,
-26,
-28,
-25,
-23,
-27,
-19,
-25,
-22,
-20,
-24,
-19,
-19,
-22,
-16,
-19,
-19,
-14,
-16,
-18,
-11,
-17,
-15,
-9,
-16,
-12,
-7,
-14,
-8,
-9,
-11,
-6,
-9,
-7,
-4,
-7,
-4,
-3,
-5,
-3,
0,
-4,
-1,
1,
-1,
1,
3,
1,
2,
5,
2,
4,
8,
1,
9,
7,
4,
13,
6,
10,
15,
5,
12,
14,
9,
16,
16,
10,
18,
16,
10,
22,
15,
14,
23,
13,
22,
22,
14,
27,
19,
19,
27,
20,
25,
26,
24,
26,
26,
25,
27,
29,
27,
29,
30,
27,
32,
29,
31,
32,
31,
35,
30,
35,
33,
32,
38,
30,
38,
36,
32,
41,
34,
36,
42,
34,
40,
40,
36,
40,
40,
38,
42,
41,
37,
43,
41,
40,
46,
38,
44,
45,
38,
46,
43,
41,
46,
43,
43,
45,
45,
43,
45,
46,
44,
46,
45,
42,
48,
44,
46,
47,
44,
47,
47,
42,
47,
49,
41,
50,
46,
41,
52,
44,
43,
51,
42,
45,
49,
41,
49,
47,
42,
49,
44,
42,
50,
41,
46,
49,
40,
48,
46,
41,
48,
43,
43,
45,
43,
44,
43,
42,
44,
42,
44,
42,
44,
42,
41,
41,
40,
41,
41,
39,
38,
41,
38,
36,
43,
33,
39,
41,
30,
40,
37,
31,
41,
31,
34,
37,
31,
37,
33,
30,
33,
32,
29,
33,
32,
26,
33,
28,
26,
33,
24,
28,
28,
22,
28,
24,
25,
24,
22,
24,
21,
24,
18,
20,
22,
15,
24,
18,
15,
21,
13,
15,
18,
11,
15,
15,
10,
13,
13,
6,
13,
9,
5,
13,
5,
6,
12,
1,
8,
7,
0,
8,
3,
-1,
4,
-1,
0,
1,
-2,
0,
-1,
-3,
-3,
-5,
-4,
-5,
-7,
-4,
-7,
-8,
-6,
-10,
-7,
-11,
-11,
-9,
-15,
-11,
-10,
-17,
-11,
-16,
-19,
-13,
-18,
-21,
-14,
-22,
-20,
-15,
-25,
-19,
-18,
-28,
-17,
-26,
-26,
-20,
-30,
-27,
-23,
-30,
-26,
-27,
-31,
-30,
-28,
-33,
-30,
-31,
-35,
-29,
-34,
-36,
-31,
-39,
-34,
-35,
-38,
-37,
-37,
-39,
-39,
-37,
-40,
-42,
-35,
-45,
-39,
-39,
-46,
-37,
-42,
-46,
-39,
-47,
-43,
-42,
-46,
-44,
-44,
-48,
-44,
-45,
-51,
-44,
-46,
-52,
-42,
-52,
-49,
-46,
-53,
-47,
-50,
-52,
-47,
-53,
-47,
-50,
-52,
-50,
-52,
-52,
-53,
-53,
-51,
-55,
-52,
-53,
-55,
-52,
-52,
-57,
-52,
-52,
-56,
-51,
-55,
-58,
-48,
-58,
-53,
-51,
-59,
-50,
-54,
-59,
-47,
-58,
-56,
-50,
-58,
-53,
-50,
-59,
-51,
-52,
-58,
-49,
-55,
-57,
-50,
-55,
-52,
-51,
-54,
-53,
-52,
-54,
-51,
-51,
-53,
-51,
-50,
-54,
-49,
-51,
-52,
-49,
-50,
-52,
-49,
-49,
-51,
-48,
-47,
-52,
-44,
-50,
-50,
-43,
-51,
-45,
-45,
-51,
-41,
-48,
-46,
-41,
-47,
-44,
-41,
-45,
-43,
-40,
-43,
-42,
-39,
-44,
-39,
-40,
-41,
-36,
-40,
-38,
-36,
-40,
-33,
-39,
-34,
-35,
-36,
-32,
-37,
-31,
-32,
-36,
-27,
-35,
-31,
-27,
-32,
-27,
-27,
-30,
-25,
-26,
-27,
-23,
-25,
-28,
-18,
-27,
-23,
-15,
-27,
-18,
-16,
-27,
-13,
-20,
-21,
-11,
-19,
-15,
-11,
-17,
-12,
-12,
-15,
-11,
-11,
-14,
-8,
-9,
-10,
-5,
-9,
-8,
-3,
-8,
-4,
-3,
-4,
-3,
0,
-2,
-2,
2,
0,
0,
3,
0,
3,
4,
1,
6,
6,
3,
9,
4,
6,
12,
5,
8,
14,
6,
14,
13,
9,
16,
12,
13,
17,
14,
15,
18,
17,
17,
19,
18,
20,
21,
18,
21,
21,
19,
24,
23,
24,
23,
26,
25,
24,
30,
23,
28,
32,
23,
34,
27,
26,
36,
25,
34,
34,
27,
36,
33,
30,
38,
35,
30,
38,
36,
32,
43,
33,
37,
43,
30,
41,
40,
33,
46,
36,
39,
44,
36,
43,
41,
40,
42,
43,
40,
41,
43,
41,
43,
45,
41,
45,
43,
43,
45,
44,
44,
44,
47,
44,
45,
46,
42,
49,
45,
45,
49,
42,
48,
48,
41,
50,
46,
44,
49,
46,
45,
49,
44,
45,
48,
45,
47,
48,
43,
48,
46,
44,
47,
45,
44,
46,
45,
44,
46,
46,
43,
47,
45,
43,
46,
44,
41,
46,
42,
42,
45,
40,
42,
46,
37,
46,
42,
36,
48,
39,
37,
46,
34,
40,
43,
34,
40,
40,
33,
41,
37,
33,
40,
35,
33,
40,
30,
35,
38,
28,
38,
32,
31,
37,
28,
31,
32,
29,
32,
28,
30,
28,
27,
30,
26,
29,
26,
25,
26,
22,
25,
23,
22,
22,
22,
20,
20,
22,
16,
20,
20,
12,
22,
14,
13,
20,
11,
16,
15,
10,
15,
11,
10,
12,
9,
9,
10,
7,
6,
10,
6,
4,
7,
3,
4,
4,
2,
3,
2,
0,
-1,
1,
-2,
-2,
0,
-6,
-2,
-3,
-7,
-1,
-9,
-9,
-3,
-12,
-9,
-5,
-15,
-9,
-9,
-17,
-10,
-12,
-18,
-9,
-17,
-17,
-13,
-21,
-16,
-16,
-25,
-16,
-22,
-25,
-18,
-21,
-25,
-19,
-26,
-25,
-24,
-28,
-25,
-25,
-29,
-25,
-29,
-28,
-29,
-31,
-29,
-31,
-32,
-31,
-34,
-30,
-37,
-33,
-34,
-39,
-33,
-38,
-39,
-34,
-39,
-39,
-36,
-40,
-42,
-36,
-42,
-42,
-38,
-46,
-40,
-41,
-47,
-39,
-47,
-43,
-40,
-49,
-43,
-44,
-48,
-43,
-47,
-47,
-47,
-45,
-50,
-47,
-47,
-51,
-47,
-48,
-52,
-47,
-52,
-50,
-50,
-52,
-50,
-50,
-53,
-52,
-49,
-54,
-52,
-47,
-59,
-49,
-52,
-57,
-47,
-56,
-56,
-48,
-59,
-52,
-52,
-57,
-51,
-55,
-57,
-51,
-55,
-57,
-50,
-56,
-56,
-49,
-59,
-53,
-52,
-57,
-52,
-54,
-55,
-51,
-56,
-52,
-53,
-54,
-53,
-54,
-54,
-52,
-53,
-52,
-53,
-52,
-52,
-54,
-51,
-53,
-55,
-48,
-53,
-52,
-48,
-55,
-51,
-47,
-55,
-45,
-50,
-52,
-47,
-49,
-51,
-45,
-50,
-47,
-44,
-51,
-45,
-44,
-51,
-42,
-46,
-48,
-40,
-47,
-44,
-41,
-47,
-42,
-42,
-43,
-43,
-40,
-40,
-42,
-38,
-41,
-39,
-37,
-42,
-33,
-38,
-38,
-32,
-37,
-37,
-32,
-35,
-34,
-30,
-34,
-35,
-27,
-34,
-30,
-27,
-35,
-24,
-27,
-32,
-19,
-32,
-25,
-21,
-30,
-22,
-23,
-26,
-20,
-23,
-23,
-20,
-19,
-22,
-15,
-19,
-18,
-14,
-18,
-14,
-14,
-16,
-11,
-16,
-11,
-11,
-12,
-8,
-12,
-8,
-9,
-11,
-3,
-10,
-5,
-2,
-9,
-2,
-3,
-7,
0,
-2,
-4,
3,
-2,
0,
5,
-2,
5,
6,
-1,
9,
5,
2,
12,
