2-diodenkennlinien/data/ALL0002/A0002CH2.CSV

Memory Length,4000,
Trigger Level,2.73000e+00,
Source,CH2,
Probe,1.0X,
Vertical Units,V,
Vertical Scale,5.00000e-01,
Vertical Position,0.00000e+00,
Horizontal Units,S,
Horizontal Scale,5.00000e-03,
Horizontal Position,0.0000000e+00,
Horizontal Mode,XY Mode,
Sampling Period,2.00000e-05,
Firmware,V1.14,
Time, ,
Mode,Fast,
Waveform Data,
1,
1,
1,
2,
2,
2,
2,
2,
2,
1,
1,
2,
2,
3,
3,
2,
2,
1,
1,
2,
2,
2,
2,
1,
1,
2,
2,
1,
1,
1,
1,
2,
2,
3,
3,
3,
3,
1,
1,
1,
1,
1,
1,
3,
3,
2,
2,
2,
2,
1,
1,
3,
3,
2,
2,
1,
1,
1,
1,
1,
1,
1,
1,
1,
1,
1,
1,
3,
3,
2,
2,
1,
1,
3,
3,
2,
2,
2,
2,
2,
2,
2,
2,
2,
2,
2,
2,
1,
1,
2,
2,
1,
1,
2,
2,
2,
2,
2,
2,
2,
2,
5,
5,
9,
9,
10,
10,
14,
14,
19,
19,
23,
23,
26,
26,
29,
29,
33,
33,
36,
36,
41,
41,
44,
44,
48,
48,
53,
53,
56,
56,
60,
60,
65,
65,
68,
68,
73,
73,
77,
77,
79,
79,
83,
83,
87,
87,
92,
92,
95,
95,
97,
97,
102,
102,
106,
106,
109,
109,
115,
115,
117,
117,
121,
121,
126,
126,
126,
126,
126,
126,
126,
126,
126,
126,
126,
126,
126,
126,
126,
126,
126,
126,
126,
126,
126,
126,
126,
126,
126,
126,
126,
126,
126,
126,
126,
126,
126,
126,
126,
126,
126,
126,
126,
126,
126,
126,
126,
126,
126,
126,
126,
126,
126,
126,
126,
126,
126,
126,
126,
126,
126,
126,
126,
-8,
3,
3,
2,
2,
3,
3,
3,
3,
3,
3,
3,
3,
2,
2,
2,
2,
2,
2,
3,
3,
2,
2,
2,
2,
2,
2,
3,
3,
2,
2,
3,
3,
2,
2,
2,
2,
2,
2,
3,
3,
3,
3,
2,
2,
2,
2,
2,
2,
1,
1,
2,
2,
2,
2,
2,
2,
2,
2,
2,
2,
1,
1,
2,
2,
1,
1,
3,
3,
3,
3,
1,
1,
1,
1,
1,
1,
1,
1,
2,
2,
3,
3,
2,
2,
3,
3,
2,
2,
2,
2,
3,
3,
2,
2,
2,
2,
1,
1,
1,
1,
1,
1,
2,
2,
1,
1,
3,
3,
3,
3,
2,
2,
2,
2,
2,
2,
3,
3,
2,
2,
2,
2,
2,
2,
2,
2,
3,
3,
8,
8,
12,
12,
16,
16,
19,
19,
24,
24,
26,
26,
29,
29,
34,
34,
37,
37,
40,
40,
44,
44,
48,
48,
52,
52,
56,
56,
61,
61,
64,
64,
68,
68,
73,
73,
77,
77,
80,
80,
85,
85,
88,
88,
89,
89,
95,
95,
99,
99,
103,
103,
106,
106,
110,
110,
115,
115,
117,
117,
121,
121,
126,
126,
126,
126,
126,
126,
126,
126,
126,
126,
126,
126,
126,
126,
126,
126,
126,
126,
126,
126,
126,
126,
126,
126,
126,
126,
126,
126,
126,
126,
126,
126,
126,
126,
126,
126,
126,
126,
126,
126,
126,
126,
126,
126,
126,
126,
126,
126,
126,
126,
126,
126,
126,
126,
126,
126,
126,
126,
126,
-7,
1,
1,
1,
1,
2,
2,
2,
2,
3,
3,
2,
2,
2,
2,
1,
1,
3,
3,
3,
3,
3,
3,
1,
1,
2,
2,
1,
1,
1,
1,
2,
2,
3,
3,
3,
3,
1,
1,
2,
2,
1,
1,
2,
2,
1,
1,
2,
2,
3,
3,
1,
1,
3,
3,
3,
3,
2,
2,
1,
1,
3,
3,
1,
1,
1,
1,
2,
2,
3,
3,
1,
1,
2,
2,
2,
2,
3,
3,
2,
2,
2,
2,
3,
3,
3,
3,
2,
2,
1,
1,
2,
2,
2,
2,
1,
1,
1,
1,
2,
2,
3,
3,
2,
2,
1,
1,
1,
1,
1,
1,
1,
1,
2,
2,
2,
2,
1,
1,
3,
3,
1,
1,
3,
3,
1,
1,
4,
4,
7,
7,
12,
12,
15,
15,
18,
18,
22,
22,
27,
27,
29,
29,
33,
33,
38,
38,
42,
42,
45,
45,
48,
48,
52,
52,
55,
55,
60,
60,
64,
64,
68,
68,
71,
71,
75,
75,
79,
79,
84,
84,
89,
89,
91,
91,
96,
96,
98,
98,
101,
101,
105,
105,
111,
111,
114,
114,
116,
116,
121,
121,
125,
125,
126,
126,
126,
126,
126,
126,
126,
126,
126,
126,
126,
126,
126,
126,
126,
126,
126,
126,
126,
126,
126,
126,
126,
126,
126,
126,
126,
126,
126,
126,
126,
126,
126,
126,
126,
126,
126,
126,
126,
126,
126,
126,
126,
126,
126,
126,
126,
126,
126,
126,
126,
126,
126,
126,
126,
126,
126,
-7,
2,
2,
1,
1,
2,
2,
1,
1,
1,
1,
1,
1,
3,
3,
1,
1,
2,
2,
3,
3,
3,
3,
1,
1,
3,
3,
2,
2,
1,
1,
3,
3,
2,
2,
3,
3,
3,
3,
2,
2,
1,
1,
2,
2,
1,
1,
2,
2,
2,
2,
2,
2,
1,
1,
2,
2,
2,
2,
2,
2,
1,
1,
3,
3,
2,
2,
3,
3,
1,
1,
2,
2,
3,
3,
2,
2,
2,
2,
1,
1,
2,
2,
2,
2,
2,
2,
3,
3,
2,
2,
2,
2,
1,
1,
2,
2,
2,
2,
2,
2,
2,
2,
1,
1,
3,
3,
1,
1,
2,
2,
1,
1,
2,
2,
1,
1,
1,
1,
2,
2,
1,
1,
2,
2,
3,
3,
5,
5,
7,
7,
12,
12,
15,
15,
19,
19,
22,
22,
27,
27,
30,
30,
33,
33,
39,
39,
41,
41,
45,
45,
49,
49,
53,
53,
55,
55,
60,
60,
65,
65,
68,
68,
70,
70,
75,
75,
79,
79,
83,
83,
87,
87,
91,
91,
95,
95,
100,
100,
104,
104,
107,
107,
109,
109,
114,
114,
117,
117,
122,
122,
125,
125,
126,
126,
126,
126,
126,
126,
126,
126,
126,
126,
126,
126,
126,
126,
126,
126,
126,
126,
126,
126,
126,
126,
126,
126,
126,
126,
126,
126,
126,
126,
126,
126,
126,
126,
126,
126,
126,
126,
126,
126,
126,
126,
126,
126,
126,
126,
126,
126,
126,
126,
126,
126,
126,
126,
126,
126,
126,
-7,
2,
2,
3,
3,
3,
3,
2,
2,
3,
3,
2,
2,
2,
2,
2,
2,
3,
3,
3,
3,
2,
2,
3,
3,
1,
1,
2,
2,
2,
2,
3,
3,
1,
1,
2,
2,
2,
2,
1,
1,
2,
2,
2,
2,
2,
2,
2,
2,
1,
1,
3,
3,
3,
3,
1,
1,
2,
2,
2,
2,
2,
2,
2,
2,
3,
3,
1,
1,
1,
1,
2,
2,
3,
3,
1,
1,
1,
1,
2,
2,
2,
2,
2,
2,
2,
2,
2,
2,
1,
1,
2,
2,
1,
1,
1,
1,
1,
1,
1,
1,
1,
1,
2,
2,
1,
1,
1,
1,
2,
2,
1,
1,
1,
1,
1,
1,
3,
3,
2,
2,
2,
2,
2,
2,
3,
3,
5,
5,
7,
7,
12,
12,
16,
16,
19,
19,
21,
21,
25,
25,
29,
29,
33,
33,
37,
37,
41,
41,
46,
46,
49,
49,
53,
53,
57,
57,
61,
61,
64,
64,
67,
67,
71,
71,
75,
75,
80,
80,
82,
82,
86,
86,
90,
90,
93,
93,
99,
99,
101,
101,
107,
107,
109,
109,
115,
115,
118,
118,
121,
121,
124,
124,
126,
126,
126,
126,
126,
126,
126,
126,
126,
126,
126,
126,
126,
126,
126,
126,
126,
126,
126,
126,
126,
126,
126,
126,
126,
126,
126,
126,
126,
126,
126,
126,
126,
126,
126,
126,
126,
126,
126,
126,
126,
126,
126,
126,
126,
126,
126,
126,
126,
126,
126,
126,
126,
126,
126,
126,
126,
-7,
1,
1,
3,
3,
1,
1,
3,
3,
2,
2,
2,
2,
3,
3,
1,
1,
3,
3,
3,
3,
2,
2,
3,
3,
2,
2,
2,
2,
2,
2,
3,
3,
3,
3,
3,
3,
3,
3,
3,
3,
2,
2,
3,
3,
3,
3,
1,
1,
3,
3,
2,
2,
2,
2,
3,
3,
3,
3,
2,
2,
3,
3,
1,
1,
2,
2,
2,
2,
3,
3,
1,
1,
3,
3,
2,
2,
3,
3,
3,
3,
3,
3,
2,
2,
1,
1,
3,
3,
1,
1,
2,
2,
2,
2,
1,
1,
1,
1,
2,
2,
1,
1,
1,
1,
1,
1,
2,
2,
1,
1,
1,
1,
2,
2,
0,
0,
2,
2,
1,
1,
2,
2,
3,
3,
1,
1,
4,
4,
7,
7,
11,
11,
15,
15,
19,
19,
23,
23,
25,
25,
29,
29,
35,
35,
37,
37,
41,
41,
45,
45,
49,
49,
53,
53,
57,
57,
60,
60,
64,
64,
68,
68,
72,
72,
74,
74,
79,
79,
84,
84,
87,
87,
90,
90,
95,
95,
99,
99,
103,
103,
105,
105,
110,
110,
115,
115,
118,
118,
123,
123,
125,
125,
126,
126,
126,
126,
126,
126,
126,
126,
126,
126,
126,
126,
126,
126,
126,
126,
126,
126,
126,
126,
126,
126,
126,
126,
126,
126,
126,
126,
126,
126,
126,
126,
126,
126,
126,
126,
126,
126,
126,
126,
126,
126,
126,
126,
126,
126,
126,
126,
126,
126,
126,
126,
126,
126,
126,
126,
126,
-7,
1,
1,
3,
3,
2,
2,
3,
3,
2,
2,
2,
2,
2,
2,
3,
3,
2,
2,
1,
1,
2,
2,
2,
2,
3,
3,
3,
3,
2,
2,
1,
1,
3,
3,
2,
2,
1,
1,
2,
2,
2,
2,
2,
2,
1,
1,
2,
2,
3,
3,
3,
3,
1,
1,
3,
3,
2,
2,
1,
1,
1,
1,
2,
2,
2,
2,
2,
2,
2,
2,
3,
3,
2,
2,
2,
2,
2,
2,
1,
1,
2,
2,
1,
1,
2,
2,
1,
1,
1,
1,
2,
2,
1,
1,
2,
2,
1,
1,
1,
1,
2,
2,
3,
3,
2,
2,
1,
1,
1,
1,
3,
3,
2,
2,
1,
1,
3,
3,
1,
1,
2,
2,
2,
2,
2,
2,
5,
5,
7,
7,
11,
11,
15,
15,
17,
17,
23,
23,
27,
27,
30,
30,
33,
33,
37,
37,
41,
41,
45,
45,
49,
49,
53,
53,
56,
56,
60,
60,
65,
65,
68,
68,
72,
72,
76,
76,
79,
79,
84,
84,
86,
86,
91,
91,
94,
94,
99,
99,
101,
101,
106,
106,
109,
109,
112,
112,
118,
118,
121,
121,
125,
125,
126,
126,
126,
126,
126,
126,
126,
126,
126,
126,
126,
126,
126,
126,
126,
126,
126,
126,
126,
126,
126,
126,
126,
126,
126,
126,
126,
126,
126,
126,
126,
126,
126,
126,
126,
126,
126,
126,
126,
126,
126,
126,
126,
126,
126,
126,
126,
126,
126,
126,
126,
126,
126,
126,
126,
126,
126,
-7,
3,
3,
1,
1,
1,
1,
2,
2,
2,
2,
2,
2,
2,
2,
2,
2,
3,
3,
2,
2,
1,
1,
2,
2,
2,
2,
2,
2,
2,
2,
3,
3,
1,
1,
1,
1,
2,
2,
2,
2,
3,
3,
1,
1,
2,
2,
3,
3,
1,
1,
1,
1,
1,
1,
1,
1,
2,
2,
2,
2,
2,
2,
2,
2,
2,
2,
2,
2,
3,
3,
2,
2,
3,
3,
2,
2,
2,
2,
2,
2,
1,
1,
1,
1,
1,
1,
1,
1,
3,
3,
1,
1,
2,
2,
2,
2,
1,
1,
1,
1,
2,
2,
1,
1,
1,
1,
1,
1,
2,
2,
2,
2,
2,
2,
2,
2,
2,
2,
3,
3,
1,
1,
2,
2,
3,
3,
4,
4,
7,
7,
11,
11,
16,
16,
19,
19,
22,
22,
25,
25,
29,
29,
33,
33,
38,
38,
43,
43,
44,
44,
49,
49,
52,
52,
56,
56,
61,
61,
64,
64,
69,
69,
72,
72,
75,
75,
80,
80,
83,
83,
88,
88,
92,
92,
94,
94,
97,
97,
103,
103,
106,
106,
109,
109,
113,
113,
118,
118,
121,
121,
124,
124,
126,
126,
126,
126,
126,
126,
126,
126,
126,
126,
126,
126,
126,
126,
126,
126,
126,
126,
126,
126,
126,
126,
126,
126,
126,
126,
126,
126,
126,
126,
126,
126,
126,
126,
126,
126,
126,
126,
126,
126,
126,
126,
126,
126,
126,
126,
126,
126,
126,
126,
126,
126,
126,
126,
126,
126,
126,
-7,
2,
2,
3,
3,
1,
1,
2,
2,
3,
3,
2,
2,
2,
2,
3,
3,
2,
2,
1,
1,
3,
3,
3,
3,
3,
3,
1,
1,
1,
1,
2,
2,
1,
1,
1,
1,
2,
2,
2,
2,
2,
2,
3,
3,
3,
3,
2,
2,
2,
2,
2,
2,
3,
3,
2,
2,
1,
1,
3,
3,
2,
2,
2,
2,
1,
1,
1,
1,
2,
2,
1,
1,
1,
1,
2,
2,
3,
3,
2,
2,
1,
1,
1,
1,
1,
1,
2,
2,
1,
1,
2,
2,
1,
1,
1,
1,
2,
2,
0,
0,
1,
1,
3,
3,
1,
1,
2,
2,
2,
2,
2,
2,
1,
1,
2,
2,
2,
2,
1,
1,
1,
1,
3,
3,
3,
3,
5,
5,
8,
8,
10,
10,
15,
15,
18,
18,
23,
23,
26,
26,
29,
29,
33,
33,
37,
37,
41,
41,
45,
45,
50,
50,
52,
52,
57,
57,
60,
60,
63,
63,
67,
67,
71,
71,
75,
75,
79,
79,
84,
84,
88,
88,
90,
90,
96,
96,
99,
99,
103,
103,
106,
106,
109,
109,
113,
113,
117,
117,
121,
121,
124,
124,
126,
126,
126,
126,
126,
126,
126,
126,
126,
126,
126,
126,
126,
126,
126,
126,
126,
126,
126,
126,
126,
126,
126,
126,
126,
126,
126,
126,
126,
126,
126,
126,
126,
126,
126,
126,
126,
126,
126,
126,
126,
126,
126,
126,
126,
126,
126,
126,
126,
126,
126,
126,
126,
126,
126,
126,
126,
-7,
2,
2,
1,
1,
2,
2,
1,
1,
1,
1,
2,
2,
1,
1,
2,
2,
1,
1,
2,
2,
3,
3,
3,
3,
1,
1,
2,
2,
2,
2,
2,
2,
2,
2,
1,
1,
2,
2,
1,
1,
3,
3,
2,
2,
2,
2,
2,
2,
1,
1,
2,
2,
2,
2,
3,
3,
1,
1,
2,
2,
2,
2,
1,
1,
2,
2,
2,
2,
2,
2,
3,
3,
2,
2,
1,
1,
3,
3,
3,
3,
3,
3,
2,
2,
1,
1,
2,
2,
3,
3,
1,
1,
3,
3,
2,
2,
2,
2,
2,
2,
2,
2,
2,
2,
1,
1,
2,
2,
1,
1,
1,
1,
1,
1,
1,
1,
2,
2,
2,
2,
3,
3,
3,
3,
2,
2,
4,
4,
7,
7,
13,
13,
15,
15,
19,
19,
23,
23,
26,
26,
29,
29,
33,
33,
38,
38,
40,
40,
43,
43,
49,
49,
53,
53,
57,
57,
60,
60,
64,
64,
68,
68,
73,
73,
75,
75,
77,
77,
84,
84,
87,
87,
89,
89,
95,
95,
99,
99,
103,
103,
106,
106,
110,
110,
112,
112,
116,
116,
121,
121,
124,
124,
126,
126,
126,
126,
126,
126,
126,
126,
126,
126,
126,
126,
126,
126,
126,
126,
126,
126,
126,
126,
126,
126,
126,
126,
126,
126,
126,
126,
126,
126,
126,
126,
126,
126,
126,
126,
126,
126,
126,
126,
126,
126,
126,
126,
126,
126,
126,
126,
126,
126,
126,
126,
126,
126,
126,
126,
126,
-7,
1,
1,
2,
2,
2,
2,
2,
2,
3,
3,
3,
3,
1,
1,
3,
3,
3,
3,
3,
3,
2,
2,
2,
2,
2,
2,
3,
3,
3,
3,
1,
1,
3,
3,
1,
1,
1,
1,
2,
2,
2,
2,
2,
2,
1,
1,
2,
2,
2,
2,
1,
1,
2,
2,
3,
3,
2,
2,
2,
2,
1,
1,
3,
3,
2,
2,
2,
2,
2,
2,
1,
1,
1,
1,
2,
2,
1,
1,
3,
3,
2,
2,
2,
2,
1,
1,
2,
2,
2,
2,
2,
2,
2,
2,
1,
1,
2,
2,
1,
1,
1,
1,
2,
2,
2,
2,
1,
1,
1,
1,
1,
1,
2,
2,
2,
2,
2,
2,
1,
1,
1,
1,
2,
2,
1,
1,
5,
5,
7,
7,
11,
11,
15,
15,
19,
19,
24,
24,
26,
26,
29,
29,
35,
35,
37,
37,
41,
41,
46,
46,
48,
48,
52,
52,
57,
57,
61,
61,
64,
64,
69,
69,
72,
72,
76,
76,
79,
79,
82,
82,
87,
87,
91,
91,
93,
93,
97,
97,
103,
103,
106,
106,
110,
110,
115,
115,
118,
118,
121,
121,
124,
124,
126,
126,
126,
126,
126,
126,
126,
126,
126,
126,
126,
126,
126,
126,
126,
126,
126,
126,
126,
126,
126,
126,
126,
126,
126,
126,
126,
126,
126,
126,
126,
126,
126,
126,
126,
126,
126,
126,
126,
126,
126,
126,
126,
126,
126,
126,
126,
126,
126,
126,
126,
126,
126,
126,
126,
126,
126,
-7,
2,
2,
2,
2,
2,
2,
1,
1,
1,
1,
1,
1,
2,
2,
3,
3,
1,
1,
1,
1,
2,
2,
2,
2,
2,
2,
3,
3,
1,
1,
1,
1,
2,
2,
3,
3,
2,
2,
1,
1,
3,
3,
2,
2,
3,
3,
2,
2,
3,
3,
1,
1,
2,
2,
2,
2,
2,
2,
2,
2,
2,
2,
1,
1,
1,
1,
1,
1,
3,
3,
1,
1,
2,
2,
3,
3,
2,
2,
2,
2,
1,
1,
3,
3,
2,
2,
3,
3,
3,
3,
3,
3,
2,
2,
2,
2,
1,
1,
2,
2,
2,
2,
3,
3,
1,
1,
2,
2,
1,
1,
2,
2,
2,
2,
3,
3,
1,
1,
1,
1,
1,
1,
1,
1,
2,
2,
4,
4,
9,
9,
12,
12,
15,
15,
18,
18,
22,
22,
26,
26,
31,
31,
35,
35,
37,
37,
42,
42,
45,
45,
49,
49,
52,
52,
56,
56,
60,
60,
62,
62,
67,
67,
73,
73,
77,
77,
81,
81,
83,
83,
87,
87,
91,
91,
94,
94,
97,
97,
103,
103,
105,
105,
110,
110,
113,
113,
118,
118,
121,
121,
126,
126,
126,
126,
126,
126,
126,
126,
126,
126,
126,
126,
126,
126,
126,
126,
126,
126,
126,
126,
126,
126,
126,
126,
126,
126,
126,
126,
126,
126,
126,
126,
126,
126,
126,
126,
126,
126,
126,
126,
126,
126,
126,
126,
126,
126,
126,
126,
126,
126,
126,
126,
126,
126,
126,
126,
126,
126,
126,
-7,
2,
2,
3,
3,
2,
2,
2,
2,
1,
1,
2,
2,
3,
3,
3,
3,
2,
2,
3,
3,
3,
3,
2,
2,
3,
3,
1,
1,
1,
1,
3,
3,
1,
1,
3,
3,
1,
1,
2,
2,
2,
2,
3,
3,
1,
1,
1,
1,
1,
1,
2,
2,
1,
1,
1,
1,
1,
1,
2,
2,
1,
1,
2,
2,
2,
2,
1,
1,
1,
1,
3,
3,
2,
2,
2,
2,
3,
3,
2,
2,
2,
2,
2,
2,
2,
2,
2,
2,
1,
1,
2,
2,
2,
2,
2,
2,
2,
2,
1,
1,
1,
1,
1,
1,
2,
2,
1,
1,
1,
1,
2,
2,
1,
1,
1,
1,
1,
1,
2,
2,
2,
2,
2,
2,
3,
3,
4,
4,
7,
7,
11,
11,
15,
15,
19,
19,
22,
22,
26,
26,
31,
31,
33,
33,
38,
38,
42,
42,
46,
46,
48,
48,
53,
53,
56,
56,
60,
60,
65,
65,
67,
67,
72,
72,
75,
75,
80,
80,
84,
84,
87,
87,
91,
91,
95,
95,
98,
98,
102,
102,
105,
105,
110,
110,
112,
112,
117,
117,
121,
121,
125,
125,
126,
126,
126,
126,
126,
126,
126,
126,
126,
126,
126,
126,
126,
126,
126,
126,
126,
126,
126,
126,
126,
126,
126,
126,
126,
126,
126,
126,
126,
126,
126,
126,
126,
126,
126,
126,
126,
126,
126,
126,
126,
126,
126,
126,
126,
126,
126,
126,
126,
126,
126,
126,
126,
126,
126,
126,
126,
-7,
1,
1,
3,
3,
2,
2,
2,
2,
2,
2,
2,
2,
2,
2,
2,
2,
1,
1,
2,
2,
3,
3,
1,
1,
1,
1,
2,
2,
2,
2,
2,
2,
3,
3,
2,
2,
1,
1,
1,
1,
2,
2,
2,
2,
3,
3,
3,
3,
2,
2,
2,
2,
1,
1,
3,
3,
1,
1,
3,
3,
3,
3,
3,
3,
3,
3,
0,
0,
2,
2,
3,
3,
2,
2,
3,
3,
2,
2,
3,
3,
2,
2,
2,
2,
3,
3,
3,
3,
2,
2,
2,
2,
2,
2,
3,
3,
2,
2,
1,
1,
1,
1,
1,
1,
1,
1,
3,
3,
3,
3,
2,
2,
1,
1,
1,
1,
2,
2,
2,
2,
2,
2,
1,
1,
2,
2,
5,
5,
8,
8,
12,
12,
16,
16,
19,
19,
23,
23,
27,
27,
31,
31,
35,
35,
36,
36,
41,
41,
45,
45,
49,
49,
54,
54,
57,
57,
60,
60,
65,
65,
69,
69,
71,
71,
75,
75,
79,
79,
83,
83,
87,
87,
92,
92,
95,
95,
99,
99,
102,
102,
107,
107,
111,
111,
113,
113,
117,
117,
121,
121,
125,
125,
126,
126,
126,
126,
126,
126,
126,
126,
126,
126,
126,
126,
126,
126,
126,
126,
126,
126,
126,
126,
126,
126,
126,
126,
126,
126,
126,
126,
126,
126,
126,
126,
126,
126,
126,
126,
126,
126,
126,
126,
126,
126,
126,
126,
126,
126,
126,
126,
126,
126,
126,
126,
126,
126,
126,
126,
126,
-7,
3,
3,
1,
1,
2,
2,
2,
2,
3,
3,
2,
2,
2,
2,
1,
1,
3,
3,
2,
2,
1,
1,
3,
3,
3,
3,
3,
3,
1,
1,
2,
2,
3,
3,
2,
2,
2,
2,
1,
1,
1,
1,
3,
3,
1,
1,
3,
3,
2,
2,
2,
2,
1,
1,
3,
3,
2,
2,
2,
2,
2,
2,
3,
3,
3,
3,
3,
3,
2,
2,
1,
1,
3,
3,
3,
3,
2,
2,
3,
3,
1,
1,
2,
2,
1,
1,
3,
3,
2,
2,
1,
1,
3,
3,
2,
2,
1,
1,
3,
3,
1,
1,
2,
2,
1,
1,
2,
2,
1,
1,
2,
2,
1,
1,
2,
2,
1,
1,
2,
2,
1,
1,
2,
2,
2,
2,
4,
4,
8,
8,
12,
12,
16,
16,
19,
19,
21,
21,
27,
27,
29,
29,
33,
33,
38,
38,
40,
40,
45,
45,
49,
49,
52,
52,
58,
58,
62,
62,
65,
65,
67,
67,
72,
72,
75,
75,
80,
80,
84,
84,
85,
85,
91,
91,
94,
94,
99,
99,
102,
102,
106,
106,
110,
110,
114,
114,
117,
117,
120,
120,
125,
125,
126,
126,
126,
126,
126,
126,
126,
126,
126,
126,
126,
126,
126,
126,
126,
126,
126,
126,
126,
126,
126,
126,
126,
126,
126,
126,
126,
126,
126,
126,
126,
126,
126,
126,
126,
126,
126,
126,
126,
126,
126,
126,
126,
126,
126,
126,
126,
126,
126,
126,
126,
126,
126,
126,
126,
126,
126,
-7,
3,
3,
2,
2,
2,
2,
3,
3,
1,
1,
2,
2,
3,
3,
1,
1,
2,
2,
2,
2,
2,
2,
3,
3,
3,
3,
1,
1,
3,
3,
1,
1,
1,
1,
3,
3,
3,
3,
3,
3,
1,
1,
2,
2,
1,
1,
3,
3,
2,
2,
3,
3,
2,
2,
3,
3,
3,
3,
3,
3,
3,
3,
3,
3,
2,
2,
3,
3,
1,
1,
2,
2,
2,
2,
2,
2,
3,
3,
2,
2,
3,
3,
2,
2,
3,
3,
2,
2,
1,
1,
2,
2,
3,
3,
2,
2,
1,
1,
1,
1,
1,
1,
2,
2,
3,
3,
1,
1,
2,
2,
1,
1,
1,
1,
3,
3,
3,
3,
2,
2,
1,
1,
1,
1,
3,
3,
3,
3,
8,
8,
11,
11,
15,
15,
20,
20,
24,
24,
27,
27,
30,
30,
33,
33,
37,
37,
40,
40,
45,
45,
49,
49,
53,
53,
56,
56,
60,
60,
64,
64,
69,
69,
73,
73,
75,
75,
79,
79,
83,
83,
88,
88,
91,
91,
95,
95,
98,
98,
101,
101,
106,
106,
111,
111,
115,
115,
117,
117,
121,
121,
126,
126,
126,
126,
126,
126,
126,
126,
126,
126,
126,
126,
126,
126,
126,
126,
126,
126,
126,
126,
126,
126,
126,
126,
126,
126,
126,
126,
126,
126,
126,
126,
126,
126,
126,
126,
126,
126,
126,
126,
126,
126,
126,
126,
126,
126,
126,
126,
126,
126,
126,
126,
126,
126,
126,
126,
126,
126,
126,
-7,
3,
3,
3,
3,
2,
2,
2,
2,
2,
2,
2,
2,
2,
2,
3,
3,
3,
3,
3,
3,
2,
2,
2,
2,
2,
