2-diodenkennlinien/data/ALL0002/A0002CH1.CSV

Memory Length,4000,
Trigger Level,2.73000e+00,
Source,CH1,
Probe,1.0X,
Vertical Units,V,
Vertical Scale,5.00000e-01,
Vertical Position,2.00000e-02,
Horizontal Units,S,
Horizontal Scale,5.00000e-03,
Horizontal Position,0.0000000e+00,
Horizontal Mode,XY Mode,
Sampling Period,2.00000e-05,
Firmware,V1.14,
Time, ,
Mode,Fast,
Waveform Data,
-129,
-129,
-129,
-129,
-129,
-129,
-129,
-129,
-129,
-129,
-129,
-129,
-129,
-129,
-129,
-129,
-129,
-129,
-129,
-129,
-129,
-129,
-129,
-129,
-129,
-129,
-129,
-129,
-129,
-129,
-129,
-129,
-129,
-129,
-129,
-129,
-129,
-129,
-129,
-129,
-129,
-129,
-129,
-129,
-129,
-129,
-129,
-129,
-129,
-129,
-129,
-129,
-129,
-129,
-129,
-128,
-128,
-123,
-123,
-115,
-115,
-110,
-110,
-104,
-104,
-100,
-100,
-92,
-92,
-88,
-88,
-81,
-81,
-76,
-76,
-71,
-71,
-64,
-64,
-60,
-60,
-52,
-52,
-47,
-47,
-40,
-40,
-34,
-34,
-28,
-28,
-24,
-24,
-18,
-18,
-12,
-12,
-5,
-5,
0,
0,
2,
2,
4,
4,
4,
4,
6,
6,
5,
5,
7,
7,
7,
7,
5,
5,
6,
6,
5,
5,
6,
6,
7,
7,
6,
6,
6,
6,
6,
6,
8,
8,
7,
7,
8,
8,
6,
6,
7,
7,
6,
6,
6,
6,
6,
6,
7,
7,
6,
6,
8,
8,
7,
7,
8,
8,
8,
8,
8,
8,
7,
7,
7,
7,
7,
7,
8,
8,
8,
8,
8,
8,
9,
9,
7,
7,
9,
9,
9,
9,
8,
8,
8,
8,
8,
8,
8,
8,
8,
8,
8,
8,
9,
9,
8,
8,
8,
8,
8,
8,
8,
8,
9,
9,
8,
8,
9,
9,
8,
8,
8,
8,
8,
8,
8,
8,
8,
8,
8,
8,
9,
9,
8,
-129,
-129,
-129,
-129,
-129,
-129,
-129,
-129,
-129,
-129,
-129,
-129,
-129,
-129,
-129,
-129,
-129,
-129,
-129,
-129,
-129,
-129,
-129,
-129,
-129,
-129,
-129,
-129,
-129,
-129,
-129,
-129,
-129,
-129,
-129,
-129,
-129,
-129,
-129,
-129,
-129,
-129,
-129,
-129,
-129,
-129,
-129,
-129,
-129,
-129,
-129,
-129,
-129,
-129,
-129,
-129,
-129,
-129,
-129,
-129,
-129,
-129,
-129,
-129,
-129,
-129,
-129,
-129,
-129,
-129,
-129,
-129,
-129,
-129,
-129,
-129,
-129,
-129,
-129,
-129,
-129,
-128,
-128,
-121,
-121,
-118,
-118,
-111,
-111,
-106,
-106,
-97,
-97,
-92,
-92,
-86,
-86,
-83,
-83,
-75,
-75,
-68,
-68,
-65,
-65,
-58,
-58,
-52,
-52,
-47,
-47,
-40,
-40,
-34,
-34,
-28,
-28,
-21,
-21,
-18,
-18,
-11,
-11,
-6,
-6,
0,
0,
2,
2,
4,
4,
4,
4,
4,
4,
4,
4,
6,
6,
6,
6,
6,
6,
5,
5,
5,
5,
6,
6,
6,
6,
7,
7,
6,
6,
6,
6,
7,
7,
7,
7,
6,
6,
8,
8,
6,
6,
7,
7,
7,
7,
7,
7,
7,
7,
8,
8,
7,
7,
8,
8,
7,
7,
8,
8,
8,
8,
8,
8,
8,
8,
6,
6,
10,
10,
8,
8,
8,
8,
7,
7,
8,
8,
8,
8,
8,
8,
8,
8,
8,
8,
8,
8,
8,
8,
7,
7,
8,
8,
8,
8,
9,
9,
8,
8,
8,
8,
8,
8,
9,
9,
8,
8,
8,
8,
9,
9,
8,
8,
9,
9,
8,
8,
9,
9,
8,
8,
9,
9,
9,
-129,
-129,
-129,
-129,
-129,
-129,
-129,
-129,
-129,
-129,
-129,
-129,
-129,
-129,
-129,
-129,
-129,
-129,
-129,
-129,
-129,
-129,
-129,
-129,
-129,
-129,
-129,
-129,
-129,
-129,
-129,
-129,
-129,
-129,
-129,
-129,
-129,
-129,
-129,
-129,
-129,
-129,
-129,
-129,
-129,
-129,
-129,
-129,
-129,
-129,
-129,
-129,
-129,
-129,
-129,
-129,
-129,
-129,
-129,
-129,
-129,
-129,
-129,
-129,
-129,
-129,
-129,
-129,
-129,
-129,
-129,
-129,
-129,
-129,
-129,
-129,
-129,
-129,
-129,
-129,
-129,
-129,
-129,
-123,
-123,
-115,
-115,
-112,
-112,
-105,
-105,
-100,
-100,
-95,
-95,
-86,
-86,
-80,
-80,
-75,
-75,
-71,
-71,
-63,
-63,
-57,
-57,
-52,
-52,
-46,
-46,
-42,
-42,
-35,
-35,
-30,
-30,
-22,
-22,
-17,
-17,
-10,
-10,
-4,
-4,
0,
0,
3,
3,
3,
3,
4,
4,
4,
4,
5,
5,
7,
7,
6,
6,
6,
6,
6,
6,
5,
5,
6,
6,
6,
6,
6,
6,
6,
6,
6,
6,
7,
7,
6,
6,
7,
7,
8,
8,
6,
6,
7,
7,
8,
8,
8,
8,
8,
8,
7,
7,
8,
8,
8,
8,
7,
7,
8,
8,
8,
8,
8,
8,
8,
8,
8,
8,
8,
8,
8,
8,
8,
8,
8,
8,
9,
9,
8,
8,
7,
7,
8,
8,
8,
8,
9,
9,
7,
7,
8,
8,
8,
8,
9,
9,
7,
7,
9,
9,
8,
8,
8,
8,
9,
9,
10,
10,
8,
8,
10,
10,
9,
9,
8,
8,
8,
8,
8,
8,
8,
8,
9,
9,
9,
-129,
-129,
-129,
-129,
-129,
-129,
-129,
-129,
-129,
-129,
-129,
-129,
-129,
-129,
-129,
-129,
-129,
-129,
-129,
-129,
-129,
-129,
-129,
-129,
-129,
-129,
-129,
-129,
-129,
-129,
-129,
-129,
-129,
-129,
-129,
-129,
-129,
-129,
-129,
-129,
-129,
-129,
-129,
-129,
-129,
-129,
-129,
-129,
-129,
-129,
-129,
-129,
-129,
-129,
-129,
-129,
-129,
-129,
-129,
-129,
-129,
-129,
-129,
-129,
-129,
-129,
-129,
-129,
-129,
-129,
-129,
-129,
-129,
-129,
-129,
-129,
-129,
-129,
-129,
-129,
-129,
-126,
-126,
-122,
-122,
-115,
-115,
-111,
-111,
-103,
-103,
-98,
-98,
-92,
-92,
-88,
-88,
-82,
-82,
-76,
-76,
-69,
-69,
-64,
-64,
-58,
-58,
-52,
-52,
-46,
-46,
-39,
-39,
-34,
-34,
-28,
-28,
-23,
-23,
-18,
-18,
-12,
-12,
-4,
-4,
1,
1,
3,
3,
4,
4,
4,
4,
5,
5,
4,
4,
6,
6,
6,
6,
6,
6,
5,
5,
5,
5,
8,
8,
5,
5,
6,
6,
7,
7,
7,
7,
6,
6,
7,
7,
6,
6,
7,
7,
6,
6,
7,
7,
7,
7,
7,
7,
6,
6,
8,
8,
7,
7,
7,
7,
8,
8,
8,
8,
8,
8,
7,
7,
8,
8,
8,
8,
8,
8,
7,
7,
8,
8,
8,
8,
8,
8,
9,
9,
8,
8,
8,
8,
8,
8,
8,
8,
8,
8,
8,
8,
8,
8,
8,
8,
8,
8,
9,
9,
8,
8,
8,
8,
9,
9,
9,
9,
8,
8,
8,
8,
9,
9,
8,
8,
8,
8,
9,
9,
8,
8,
8,
8,
8,
-129,
-129,
-129,
-129,
-129,
-129,
-129,
-129,
-129,
-129,
-129,
-129,
-129,
-129,
-129,
-129,
-129,
-129,
-129,
-129,
-129,
-129,
-129,
-129,
-129,
-129,
-129,
-129,
-129,
-129,
-129,
-129,
-129,
-129,
-129,
-129,
-129,
-129,
-129,
-129,
-129,
-129,
-129,
-129,
-129,
-129,
-129,
-129,
-129,
-129,
-129,
-129,
-129,
-129,
-129,
-129,
-129,
-129,
-129,
-129,
-129,
-129,
-129,
-129,
-129,
-129,
-129,
-129,
-129,
-129,
-129,
-129,
-129,
-129,
-129,
-129,
-129,
-129,
-129,
-129,
-129,
-126,
-126,
-120,
-120,
-116,
-116,
-111,
-111,
-105,
-105,
-101,
-101,
-94,
-94,
-86,
-86,
-81,
-81,
-76,
-76,
-70,
-70,
-65,
-65,
-56,
-56,
-50,
-50,
-45,
-45,
-42,
-42,
-34,
-34,
-30,
-30,
-22,
-22,
-16,
-16,
-12,
-12,
-4,
-4,
0,
0,
3,
3,
4,
4,
4,
4,
4,
4,
4,
4,
6,
6,
6,
6,
5,
5,
5,
5,
6,
6,
5,
5,
6,
6,
5,
5,
6,
6,
6,
6,
6,
6,
7,
7,
6,
6,
7,
7,
7,
7,
7,
7,
7,
7,
6,
6,
7,
7,
6,
6,
6,
6,
7,
7,
6,
6,
6,
6,
7,
7,
8,
8,
8,
8,
8,
8,
7,
7,
8,
8,
8,
8,
8,
8,
7,
7,
8,
8,
9,
9,
8,
8,
8,
8,
8,
8,
9,
9,
8,
8,
9,
9,
8,
8,
8,
8,
7,
7,
8,
8,
8,
8,
9,
9,
10,
10,
8,
8,
8,
8,
8,
8,
9,
9,
8,
8,
8,
8,
8,
8,
8,
8,
9,
-129,
-129,
-129,
-129,
-129,
-129,
-129,
-129,
-129,
-129,
-129,
-129,
-129,
-129,
-129,
-129,
-129,
-129,
-129,
-129,
-129,
-129,
-129,
-129,
-129,
-129,
-129,
-129,
-129,
-129,
-129,
-129,
-129,
-129,
-129,
-129,
-129,
-129,
-129,
-129,
-129,
-129,
-129,
-129,
-129,
-129,
-129,
-129,
-129,
-129,
-129,
-129,
-129,
-129,
-129,
-129,
-129,
-129,
-129,
-129,
-129,
-129,
-129,
-129,
-129,
-129,
-129,
-129,
-129,
-129,
-129,
-129,
-129,
-129,
-129,
-129,
-129,
-129,
-129,
-129,
-129,
-129,
-129,
-122,
-122,
-116,
-116,
-108,
-108,
-104,
-104,
-99,
-99,
-93,
-93,
-87,
-87,
-82,
-82,
-74,
-74,
-69,
-69,
-62,
-62,
-59,
-59,
-54,
-54,
-47,
-47,
-39,
-39,
-34,
-34,
-27,
-27,
-24,
-24,
-16,
-16,
-11,
-11,
-6,
-6,
0,
0,
2,
2,
3,
3,
4,
4,
5,
5,
6,
6,
5,
5,
5,
5,
5,
5,
7,
7,
6,
6,
6,
6,
6,
6,
6,
6,
6,
6,
6,
6,
6,
6,
7,
7,
7,
7,
8,
8,
7,
7,
8,
8,
6,
6,
6,
6,
8,
8,
6,
6,
8,
8,
8,
8,
8,
8,
8,
8,
8,
8,
7,
7,
8,
8,
7,
7,
8,
8,
8,
8,
8,
8,
8,
8,
8,
8,
8,
8,
8,
8,
8,
8,
8,
8,
9,
9,
7,
7,
7,
7,
8,
8,
8,
8,
8,
8,
9,
9,
9,
9,
8,
8,
8,
8,
8,
8,
8,
8,
9,
9,
8,
8,
8,
8,
8,
8,
9,
9,
8,
8,
9,
9,
8,
-129,
-129,
-129,
-129,
-129,
-129,
-129,
-129,
-129,
-129,
-129,
-129,
-129,
-129,
-129,
-129,
-129,
-129,
-129,
-129,
-129,
-129,
-129,
-129,
-129,
-129,
-129,
-129,
-129,
-129,
-129,
-129,
-129,
-129,
-129,
-129,
-129,
-129,
-129,
-129,
-129,
-129,
-129,
-129,
-129,
-129,
-129,
-129,
-129,
-129,
-129,
-129,
-129,
-129,
-129,
-129,
-129,
-129,
-129,
-129,
-129,
-129,
-129,
-129,
-129,
-129,
-129,
-129,
-129,
-129,
-129,
-129,
-129,
-129,
-129,
-129,
-129,
-129,
-129,
-129,
-129,
-128,
-128,
-122,
-122,
-117,
-117,
-111,
-111,
-106,
-106,
-97,
-97,
-92,
-92,
-87,
-87,
-83,
-83,
-74,
-74,
-71,
-71,
-64,
-64,
-57,
-57,
-53,
-53,
-47,
-47,
-40,
-40,
-35,
-35,
-28,
-28,
-21,
-21,
-16,
-16,
-12,
-12,
-5,
-5,
0,
0,
3,
3,
4,
4,
4,
4,
4,
4,
5,
5,
5,
5,
4,
4,
6,
6,
7,
7,
6,
6,
6,
6,
6,
6,
7,
7,
6,
6,
6,
6,
6,
6,
7,
7,
6,
6,
6,
6,
6,
6,
7,
7,
7,
7,
8,
8,
6,
6,
7,
7,
7,
7,
6,
6,
7,
7,
7,
7,
7,
7,
8,
8,
8,
8,
8,
8,
8,
8,
6,
6,
8,
8,
7,
7,
8,
8,
8,
8,
7,
7,
8,
8,
8,
8,
8,
8,
9,
9,
8,
8,
8,
8,
8,
8,
8,
8,
8,
8,
8,
8,
8,
8,
8,
8,
8,
8,
8,
8,
8,
8,
8,
8,
9,
9,
8,
8,
9,
9,
8,
8,
8,
8,
8,
-129,
-129,
-129,
-129,
-129,
-129,
-129,
-129,
-129,
-129,
-129,
-129,
-129,
-129,
-129,
-129,
-129,
-129,
-129,
-129,
-129,
-129,
-129,
-129,
-129,
-129,
-129,
-129,
-129,
-129,
-129,
-129,
-129,
-129,
-129,
-129,
-129,
-129,
-129,
-129,
-129,
-129,
-129,
-129,
-129,
-129,
-129,
-129,
-129,
-129,
-129,
-129,
-129,
-129,
-129,
-129,
-129,
-129,
-129,
-129,
-129,
-129,
-129,
-129,
-129,
-129,
-129,
-129,
-129,
-129,
-129,
-129,
-129,
-129,
-129,
-129,
-129,
-129,
-129,
-129,
-129,
-127,
-127,
-122,
-122,
-118,
-118,
-112,
-112,
-104,
-104,
-100,
-100,
-93,
-93,
-86,
-86,
-80,
-80,
-74,
-74,
-69,
-69,
-63,
-63,
-58,
-58,
-52,
-52,
-46,
-46,
-40,
-40,
-35,
-35,
-29,
-29,
-24,
-24,
-16,
-16,
-8,
-8,
-4,
-4,
0,
0,
4,
4,
3,
3,
4,
4,
4,
4,
6,
6,
6,
6,
5,
5,
6,
6,
7,
7,
6,
6,
6,
6,
6,
6,
7,
7,
6,
6,
7,
7,
6,
6,
6,
6,
6,
6,
7,
7,
6,
6,
7,
7,
7,
7,
8,
8,
7,
7,
8,
8,
8,
8,
7,
7,
8,
8,
8,
8,
7,
7,
8,
8,
8,
8,
8,
8,
8,
8,
8,
8,
8,
8,
8,
8,
9,
9,
7,
7,
8,
8,
8,
8,
8,
8,
8,
8,
8,
8,
9,
9,
9,
9,
8,
8,
8,
8,
8,
8,
7,
7,
8,
8,
8,
8,
8,
8,
8,
8,
8,
8,
10,
10,
9,
9,
9,
9,
8,
8,
8,
8,
10,
10,
8,
-129,
-129,
-129,
-129,
-129,
-129,
-129,
-129,
-129,
-129,
-129,
-129,
-129,
-129,
-129,
-129,
-129,
-129,
-129,
-129,
-129,
-129,
-129,
-129,
-129,
-129,
-129,
-129,
-129,
-129,
-129,
-129,
-129,
-129,
-129,
-129,
-129,
-129,
-129,
-129,
-129,
-129,
-129,
-129,
-129,
-129,
-129,
-129,
-129,
-129,
-129,
-129,
-129,
-129,
-129,
-129,
-129,
-129,
-129,
-129,
-129,
-129,
-129,
-129,
-129,
-129,
-129,
-129,
-129,
-129,
-129,
-129,
-129,
-129,
-129,
-129,
-129,
-129,
-129,
-129,
-129,
-128,
-128,
-121,
-121,
-116,
-116,
-111,
-111,
-107,
-107,
-100,
-100,
-92,
-92,
-88,
-88,
-82,
-82,
-76,
-76,
-68,
-68,
-63,
-63,
-58,
-58,
-53,
-53,
-47,
-47,
-42,
-42,
-34,
-34,
-28,
-28,
-23,
-23,
-17,
-17,
-12,
-12,
-6,
-6,
0,
0,
4,
4,
3,
3,
4,
4,
4,
4,
4,
4,
4,
4,
6,
6,
5,
5,
5,
5,
6,
6,
6,
6,
5,
5,
7,
7,
6,
6,
5,
5,
6,
6,
6,
6,
6,
6,
8,
8,
6,
6,
6,
6,
7,
7,
6,
6,
7,
7,
8,
8,
7,
7,
7,
7,
8,
8,
6,
6,
8,
8,
8,
8,
7,
7,
8,
8,
9,
9,
8,
8,
8,
8,
8,
8,
8,
8,
8,
8,
8,
8,
9,
9,
8,
8,
8,
8,
8,
8,
8,
8,
8,
8,
8,
8,
8,
8,
9,
9,
6,
6,
8,
8,
8,
8,
8,
8,
8,
8,
8,
8,
8,
8,
8,
8,
9,
9,
8,
8,
8,
8,
8,
8,
8,
-129,
-129,
-129,
-129,
-129,
-129,
-129,
-129,
-129,
-129,
-129,
-129,
-129,
-129,
-129,
-129,
-129,
-129,
-129,
-129,
-129,
-129,
-129,
-129,
-129,
-129,
-129,
-129,
-129,
-129,
-129,
-129,
-129,
-129,
-129,
-129,
-129,
-129,
-129,
-129,
-129,
-129,
-129,
-129,
-129,
-129,
-129,
-129,
-129,
-129,
-129,
-129,
-129,
-129,
-129,
-129,
-129,
-129,
-129,
-129,
-129,
-129,
-129,
-129,
-129,
-129,
-129,
-129,
-129,
-129,
-129,
-129,
-129,
-129,
-129,
-129,
-129,
-129,
-129,
-129,
-129,
-128,
-128,
-122,
-122,
-118,
-118,
-111,
-111,
-104,
-104,
-99,
-99,
-93,
-93,
-89,
-89,
-81,
-81,
-75,
-75,
-71,
-71,
-63,
-63,
-56,
-56,
-51,
-51,
-45,
-45,
-39,
-39,
-34,
-34,
-28,
-28,
-24,
-24,
-15,
-15,
-10,
-10,
-4,
-4,
0,
0,
2,
2,
3,
3,
4,
4,
4,
4,
6,
6,
6,
6,
5,
5,
5,
5,
7,
7,
6,
6,
6,
6,
6,
6,
6,
6,
7,
7,
6,
6,
6,
6,
6,
6,
6,
6,
6,
6,
7,
7,
7,
7,
7,
7,
7,
7,
8,
8,
7,
7,
6,
6,
8,
8,
6,
6,
8,
8,
8,
8,
8,
8,
8,
8,
8,
8,
7,
7,
8,
8,
8,
8,
8,
8,
8,
8,
8,
8,
8,
8,
8,
8,
8,
8,
8,
8,
9,
9,
8,
8,
8,
8,
8,
8,
8,
8,
8,
8,
8,
8,
8,
8,
9,
9,
8,
8,
9,
9,
8,
8,
9,
9,
8,
8,
9,
9,
9,
9,
9,
9,
8,
8,
8,
-129,
-129,
-129,
-129,
-129,
-129,
-129,
-129,
-129,
-129,
-129,
-129,
-129,
-129,
-129,
-129,
-129,
-129,
-129,
-129,
-129,
-129,
-129,
-129,
-129,
-129,
-129,
-129,
-129,
-129,
-129,
-129,
-129,
-129,
-129,
-129,
-129,
-129,
-129,
-129,
-129,
-129,
-129,
-129,
-129,
-129,
-129,
-129,
-129,
-129,
-129,
-129,
-129,
-129,
-129,
-129,
-129,
-129,
-129,
-129,
-129,
-129,
-129,
-129,
-129,
-129,
-129,
-129,
-129,
-129,
-129,
-129,
-129,
-129,
-129,
-129,
-129,
-129,
-129,
-129,
-129,
-127,
-127,
-122,
-122,
-118,
-118,
-112,
-112,
-106,
-106,
-101,
-101,
-92,
-92,
-87,
-87,
-82,
-82,
-77,
-77,
-71,
-71,
-63,
-63,
-59,
-59,
-52,
-52,
-48,
-48,
-40,
-40,
-33,
-33,
-28,
-28,
-23,
-23,
-16,
-16,
-13,
-13,
-5,
-5,
2,
2,
2,
2,
4,
4,
4,
4,
4,
4,
5,
5,
4,
4,
6,
6,
6,
6,
6,
6,
5,
5,
6,
6,
6,
6,
6,
6,
6,
6,
6,
6,
6,
6,
7,
7,
6,
6,
6,
6,
7,
7,
6,
6,
6,
6,
6,
6,
8,
8,
7,
7,
8,
8,
8,
8,
6,
6,
8,
8,
8,
8,
7,
7,
8,
8,
7,
7,
8,
8,
7,
7,
8,
8,
8,
8,
8,
8,
8,
8,
8,
8,
8,
8,
8,
8,
8,
8,
8,
8,
8,
8,
8,
8,
8,
8,
8,
8,
8,
8,
8,
8,
8,
8,
8,
8,
8,
8,
8,
8,
8,
8,
8,
8,
8,
8,
8,
8,
8,
8,
8,
8,
8,
8,
8,
-129,
-129,
-129,
-129,
-129,
-129,
-129,
-129,
-129,
-129,
-129,
-129,
-129,
-129,
-129,
-129,
-129,
-129,
-129,
-129,
-129,
-129,
-129,
-129,
-129,
-129,
-129,
-129,
-129,
-129,
-129,
-129,
-129,
-129,
-129,
-129,
-129,
-129,
-129,
-129,
-129,
-129,
-129,
-129,
-129,
-129,
-129,
-129,
-129,
-129,
-129,
-129,
-129,
-129,
-129,
-129,
-129,
-129,
-129,
-129,
-129,
-129,
-129,
-129,
-129,
-129,
-129,
-129,
-129,
-129,
-129,
-129,
-129,
-129,
-129,
-129,
-129,
-129,
-129,
-129,
-129,
-128,
-128,
-121,
-121,
-116,
-116,
-113,
-113,
-105,
-105,
-100,
-100,
-94,
-94,
-89,
-89,
-82,
-82,
-75,
-75,
-70,
-70,
-64,
-64,
-60,
-60,
-52,
-52,
-47,
-47,
-41,
-41,
-34,
-34,
-28,
-28,
-21,
-21,
-16,
-16,
-10,
-10,
-4,
-4,
-1,
-1,
2,
2,
4,
4,
4,
4,
6,
6,
6,
6,
4,
4,
6,
6,
5,
5,
5,
5,
6,
6,
6,
6,
6,
6,
6,
6,
6,
6,
7,
7,
7,
7,
8,
8,
7,
7,
7,
7,
8,
8,
7,
7,
7,
7,
7,
7,
8,
8,
7,
7,
6,
6,
7,
7,
7,
7,
8,
8,
8,
8,
8,
8,
7,
7,
8,
8,
7,
7,
8,
8,
8,
8,
7,
7,
8,
8,
8,
8,
8,
8,
9,
9,
8,
8,
8,
8,
8,
8,
9,
9,
8,
8,
8,
8,
8,
8,
7,
7,
8,
8,
8,
8,
8,
8,
8,
8,
9,
9,
9,
9,
8,
8,
9,
9,
8,
8,
9,
9,
8,
8,
9,
9,
8,
-129,
-129,
-129,
-129,
-129,
-129,
-129,
-129,
-129,
-129,
-129,
-129,
-129,
-129,
-129,
-129,
-129,
-129,
-129,
-129,
-129,
-129,
-129,
-129,
-129,
-129,
-129,
-129,
-129,
-129,
-129,
-129,
-129,
-129,
-129,
-129,
-129,
-129,
-129,
-129,
-129,
-129,
-129,
-129,
-129,
-129,
-129,
-129,
-129,
-129,
-129,
-129,
-129,
-129,
-129,
-129,
-129,
-129,
-129,
-129,
-129,
-129,
-129,
-129,
-129,
-129,
-129,
-129,
-129,
-129,
-129,
-129,
-129,
-129,
-129,
-129,
-129,
-129,
-129,
-129,
-129,
-129,
-129,
-121,
-121,
-118,
-118,
-111,
-111,
-104,
-104,
-99,
-99,
-92,
-92,
-88,
-88,
-81,
-81,
-77,
-77,
-70,
-70,
-63,
-63,
-58,
-58,
-54,
-54,
-48,
-48,
-43,
-32,
-34,
-34,
-28,
-28,
-23,
-23,
-16,
-16,
-10,
-10,
-5,
-5,
0,
0,
2,
2,
3,
3,
4,
4,
4,
4,
4,
4,
4,
4,
6,
6,
6,
6,
5,
5,
4,
4,
6,
6,
6,
6,
7,
7,
6,
6,
7,
7,
6,
6,
6,
6,
7,
7,
7,
7,
8,
8,
7,
7,
7,
7,
8,
8,
7,
7,
7,
7,
8,
8,
7,
7,
7,
7,
7,
7,
8,
8,
8,
8,
7,
7,
8,
8,
8,
8,
8,
8,
8,
8,
8,
8,
8,
8,
8,
8,
8,
8,
7,
7,
8,
8,
8,
8,
9,
9,
7,
7,
8,
8,
8,
8,
8,
8,
8,
8,
8,
8,
8,
8,
8,
8,
9,
9,
8,
8,
8,
8,
8,
8,
8,
8,
9,
9,
6,
6,
8,
8,
9,
-129,
-129,
-129,
-129,
-129,
-129,
-129,
-129,
-129,
-129,
-129,
-129,
-129,
-129,
-129,
-129,
-129,
-129,
-129,
-129,
-129,
-129,
-129,
-129,
-129,
-129,
-129,
-129,
-129,
-129,
-129,
-129,
-129,
-129,
-129,
-129,
-129,
-129,
-129,
-129,
-129,
-129,
-129,
-129,
-129,
-129,
-129,
-129,
-129,
-129,
-129,
-129,
-129,
-129,
-129,
-129,
-129,
-129,
-129,
-129,
-129,
-129,
-129,
-129,
-129,
-129,
-129,
-129,
-129,
-129,
-129,
-129,
-129,
-129,
-129,
-129,
-129,
-129,
-129,
-129,
-129,
-129,
-129,
-129,
-129,
-123,
-123,
-118,
-118,
-111,
-111,
-105,
-105,
-99,
-99,
-92,
-92,
-86,
-86,
-83,
-83,
-75,
-75,
-70,
-70,
-64,
-64,
-60,
-60,
-52,
-52,
-45,
-45,
-39,
-39,
-35,
-35,
-30,
-30,
-24,
-24,
-16,
-16,
-13,
-13,
-5,
-5,
0,
0,
2,
2,
3,
3,
4,
4,
4,
4,
4,
4,
5,
5,
6,
6,
6,
6,
6,
6,
6,
6,
6,
6,
6,
6,
7,
7,
6,
6,
6,
6,
6,
6,
6,
6,
6,
6,
6,
6,
7,
7,
5,
5,
8,
8,
8,
8,
6,
6,
7,
7,
7,
7,
6,
6,
8,
8,
8,
8,
7,
7,
6,
6,
9,
9,
6,
6,
8,
8,
8,
8,
8,
8,
7,
7,
8,
8,
7,
7,
8,
8,
8,
8,
10,
10,
7,
7,
8,
8,
8,
8,
9,
9,
8,
8,
8,
8,
8,
8,
8,
8,
8,
8,
8,
8,
8,
8,
8,
8,
8,
8,
8,
8,
8,
8,
9,
9,
8,
8,
8,
8,
8,
8,
9,
-129,
-129,
-129,
-129,
-129,
-129,
-129,
-129,
-129,
-129,
-129,
-129,
-129,
-129,
-129,
-129,
-129,
-129,
-129,
-129,
-129,
-129,
-129,
-129,
-129,
-129,
-129,
-129,
-129,
-129,
-129,
-129,
-129,
-129,
-129,
-129,
-129,
-129,
-129,
-129,
-129,
-129,
-129,
-129,
-129,
-129,
-129,
-129,
-129,
-129,
-129,
-129,
-129,
-129,
-129,
-129,
-129,
-129,
-129,
-129,
-129,
-129,
-129,
-129,
-129,
-129,
-129,
-129,
-129,
-129,
-129,
-129,
-129,
-129,
-129,
-129,
-129,
-129,
-129,
-129,
-129,
-128,
-128,
-122,
-122,
-118,
-118,
-112,
-112,
-106,
-106,
-101,
-101,
-92,
-92,
-89,
-89,
-82,
-82,
-75,
-75,
-71,
-71,
-63,
-63,
-58,
-58,
-53,
-53,
-49,
-49,
-41,
-41,
-34,
-34,
-29,
-29,
-23,
-23,
-20,
-20,
-12,
-12,
-4,
-4,
0,
0,
3,
3,
3,
3,
4,
4,
4,
4,
6,
6,
4,
4,
5,
5,
6,
6,
6,
6,
6,
6,
5,
5,
6,
6,
6,
6,
7,
7,
6,
6,
8,
8,
6,
6,
7,
7,
7,
7,
8,
8,
8,
8,
6,
6,
6,
6,
8,
8,
8,
8,
8,
8,
7,
7,
8,
8,
7,
7,
7,
7,
8,
8,
9,
9,
8,
8,
7,
7,
8,
8,
8,
8,
8,
8,
8,
8,
6,
6,
8,
8,
8,
8,
8,
8,
8,
8,
8,
8,
8,
8,
8,
8,
8,
8,
8,
8,
8,
8,
8,
8,
9,
9,
9,
9,
8,
8,
9,
9,
8,
8,
8,
8,
8,
8,
9,
9,
8,
8,
8,
8,
9,
9,
8,
-129,
-129,
-129,
-129,
-129,
-129,
-129,
-129,
-129,
-129,
-129,
-129,
-129,
-129,
-129,
-129,
-129,
-129,
-129,
-129,
-129,
-129,
-129,
-129,
-129,
-129,
-129,
-129,
-129,
-129,
-129,
-129,
-129,
-129,
-129,
-129,
-129,
-129,
-129,
-129,
-129,
-129,
-129,
-129,
-129,
-129,
-129,
-129,
-129,
-129,
-129,
-129,
-129,
-129,
-129,
-129,
-129,
-129,
-129,
-129,
-129,
-129,
-129,
-129,
-129,
-129,
-129,
-129,
-129,
-129,
-129,
-129,
-129,
-129,
-129,
-129,
-129,
-129,
-129,
-129,
-129,
-128,
-128,
-124,
-124,
-118,
-118,
-112,
-112,
-105,
-105,
-100,
-100,
-94,
-94,
-88,
-88,
-82,
-82,
-76,
-76,
-70,
-70,
-62,
-62,
-58,
-58,
-53,
-53,
-47,
-47,
-41,
-41,
-35,
-35,
-30,
-30,
-23,
-23,
-17,
-17,
-11,
-11,
-5,
-5,
-1,
-1,
3,
3,
4,
4,
4,
4,
4,
4,
5,
5,
5,
5,
6,
6,
4,
4,
6,
6,
6,
6,
6,
6,
6,
6,
7,
7,
6,
6,
7,
7,
7,
7,
7,
7,
7,
7,
6,
6,
7,
7,
7,
7,
6,
6,
7,
7,
6,
6,
7,
7,
8,
8,
7,
7,
7,
7,
8,
8,
8,
8,
8,
8,
6,
6,
8,
8,
8,
8,
8,
8,
8,
8,
8,
8,
8,
8,
8,
8,
8,
8,
8,
8,
8,
8,
8,
8,
8,
8,
8,
8,
8,
8,
7,
7,
8,
8,
8,
8,
8,
8,
8,
8,
9,
9,
8,
8,
8,
8,
8,
8,
8,
8,
8,
8,
8,
8,
8,
8,
9,
9,
8,
8,
9,
-129,
-129,
-129,
-129,
-129,
-129,
-129,
-129,
-129,
-129,
-129,
-129,
-129,
-129,
-129,
-129,
-129,
-129,
-129,
-129,
-129,
-129,
-129,
-129,
-129,
-129,
