1-signale-auf-leitern/data/ALL0019/A0019CH1.CSV

Memory Length,4000,
Trigger Level,6.40000e+00,
Source,CH1,
Probe,1.0X,
Vertical Units,V,
Vertical Scale,5.00000e+00,
Vertical Position,0.00000e+00,
Horizontal Units,S,
Horizontal Scale,1.00000e-06,
Horizontal Position,2.5200000e-06,
Horizontal Mode,Main,
Sampling Period,4.00000e-09,
Firmware,V1.14,
Time, ,
Mode,Fast,
Waveform Data,
-9,
-9,
-9,
-10,
-10,
-10,
-9,
-9,
-10,
-9,
-9,
-9,
-10,
-9,
-9,
-10,
-10,
-10,
-10,
-9,
-10,
-11,
-11,
-11,
-9,
-9,
-10,
-10,
-10,
-11,
-9,
-9,
-10,
-10,
-9,
-9,
-10,
-10,
-10,
-9,
-10,
-9,
-9,
-9,
-10,
-10,
-10,
-10,
-10,
-10,
-9,
-11,
-10,
-9,
-10,
-11,
-11,
-11,
-10,
-9,
-10,
-11,
-10,
-11,
-10,
-9,
-10,
-11,
-10,
-9,
-9,
-10,
-10,
-9,
-10,
-10,
-10,
-9,
-10,
-10,
-9,
-10,
-10,
-10,
-9,
-9,
-8,
-9,
-10,
-9,
-10,
-9,
-8,
-9,
-10,
-9,
-10,
-9,
-9,
-9,
-10,
-9,
-10,
-10,
-9,
-10,
-10,
-10,
-10,
-10,
-11,
-9,
-9,
-10,
-10,
-9,
-10,
-11,
-11,
-12,
-11,
-12,
-11,
-11,
-12,
-12,
-10,
-10,
-11,
-12,
-11,
-12,
-10,
-12,
-11,
-12,
-10,
-10,
-11,
-12,
-10,
-10,
-9,
-9,
-11,
-9,
-9,
-9,
-9,
-10,
-10,
-8,
-8,
-8,
-8,
-8,
-8,
-9,
-8,
-8,
-8,
-8,
-8,
-8,
-8,
-9,
-8,
-8,
-7,
-8,
-7,
-8,
-8,
-8,
-8,
-8,
-8,
-8,
-8,
-8,
-8,
-9,
-8,
-9,
-7,
-9,
-10,
-9,
-9,
-9,
-11,
-9,
-10,
-10,
-8,
-9,
-11,
-11,
-11,
-10,
-11,
-12,
-11,
-11,
-12,
-11,
-11,
-13,
-12,
-13,
-12,
-14,
-13,
-14,
-12,
-13,
-14,
-13,
-13,
-14,
-13,
-14,
-13,
-14,
-13,
-14,
-14,
-13,
-13,
-14,
-14,
-13,
-12,
-14,
-13,
-15,
-13,
-13,
-12,
-13,
-12,
-13,
-12,
-12,
-11,
-12,
-12,
-13,
-11,
-12,
-11,
-11,
-10,
-10,
-10,
-9,
-10,
-11,
-10,
-9,
-9,
-8,
-7,
-8,
-8,
-8,
-7,
-7,
-8,
-7,
-7,
-6,
-6,
-7,
-5,
-7,
-5,
-5,
-5,
-5,
-4,
-5,
-3,
-4,
-3,
-4,
-4,
-4,
-2,
-3,
-1,
-2,
-1,
-3,
-2,
-1,
-1,
-2,
0,
-1,
-1,
-1,
0,
-1,
0,
-1,
1,
-1,
0,
1,
1,
0,
1,
1,
1,
0,
2,
0,
3,
1,
1,
1,
1,
1,
2,
1,
1,
1,
1,
1,
2,
1,
2,
1,
1,
1,
2,
1,
1,
0,
2,
0,
3,
1,
0,
1,
1,
1,
1,
0,
0,
0,
1,
0,
0,
0,
1,
-1,
1,
-1,
0,
-1,
0,
-1,
-1,
-1,
-1,
-2,
0,
-1,
0,
-1,
-2,
-1,
-1,
1,
0,
-1,
-1,
-1,
-1,
1,
-2,
-2,
-1,
-2,
-1,
-1,
-2,
-1,
-1,
-2,
-2,
-3,
-1,
-3,
-2,
-1,
-1,
-3,
-2,
-3,
-1,
-3,
-2,
-3,
-2,
-3,
-1,
-3,
-4,
-4,
-2,
-3,
-3,
-4,
-3,
-4,
-3,
-3,
-3,
-3,
-3,
-3,
-3,
-3,
-4,
-4,
-3,
-5,
-3,
-5,
-4,
-5,
-3,
-4,
-4,
-4,
-4,
-5,
-4,
-4,
-4,
-3,
-3,
-4,
-3,
-4,
-4,
-5,
-4,
-5,
-4,
-4,
-4,
-4,
-4,
-5,
-4,
-5,
-4,
-5,
-4,
-4,
-3,
-5,
-4,
-5,
-4,
-5,
-4,
-8,
-4,
-5,
-5,
-5,
-4,
-5,
-5,
-5,
-4,
-4,
-5,
-6,
-5,
-5,
-4,
-5,
-4,
-5,
-5,
-5,
-3,
-5,
-5,
-5,
-5,
-6,
-5,
-7,
-5,
-5,
-5,
-5,
-5,
-5,
-4,
-6,
-5,
-6,
-5,
-6,
-5,
-5,
-5,
-6,
-4,
-5,
-6,
-8,
-4,
-5,
-5,
-6,
-4,
-6,
-5,
-5,
-4,
-6,
-6,
-5,
-3,
-7,
-5,
-6,
-6,
-6,
-4,
-6,
-5,
-5,
-4,
-5,
-5,
-6,
-6,
-5,
-5,
-6,
-5,
-7,
-5,
-6,
-4,
-6,
-5,
-4,
-5,
-6,
-3,
-6,
-7,
-6,
-5,
-6,
-5,
-7,
-5,
-6,
-6,
-6,
-5,
-6,
-5,
-5,
-4,
-6,
-5,
-5,
-5,
-6,
-5,
-6,
-6,
-7,
-5,
-5,
-5,
-6,
-4,
-6,
-5,
-6,
-5,
-7,
-5,
-7,
-4,
-7,
-6,
-5,
-6,
-7,
-5,
-7,
-7,
-5,
-5,
-6,
-6,
-6,
-4,
-7,
-7,
-6,
-6,
-6,
-7,
-6,
-4,
-6,
-5,
-6,
-5,
-6,
-5,
-7,
-5,
-6,
-6,
-6,
-5,
-6,
-5,
-7,
-5,
-6,
-5,
-6,
-6,
-7,
-6,
-6,
-6,
-6,
-5,
-6,
-5,
-5,
-5,
-5,
-5,
-6,
-4,
-6,
-5,
-6,
-5,
-7,
-5,
-6,
-5,
-6,
-5,
-6,
-5,
-6,
-5,
-7,
-5,
-6,
-4,
-7,
-5,
-6,
-5,
-6,
-4,
-6,
-5,
-5,
-5,
-6,
-6,
-7,
-6,
-5,
-6,
-5,
-5,
-7,
-6,
-7,
-5,
-8,
-7,
-7,
-6,
-7,
-5,
-5,
-6,
-6,
-6,
-8,
-6,
-7,
-6,
-6,
-5,
-5,
-5,
-7,
-6,
-6,
-5,
-7,
-5,
-6,
-5,
-5,
-4,
-6,
-5,
-5,
-5,
-5,
-4,
-5,
-5,
-5,
-5,
-5,
-4,
-5,
-5,
-5,
-5,
-6,
-5,
-6,
-5,
-5,
-5,
-5,
-4,
-5,
-4,
-6,
-5,
-8,
-5,
-6,
-5,
-6,
-5,
-6,
-5,
-7,
-5,
-7,
-5,
-7,
-6,
-6,
-5,
-7,
-6,
-7,
-6,
-7,
-6,
-7,
-6,
-7,
-6,
-7,
-7,
-7,
-6,
-7,
-7,
-6,
-7,
-7,
-5,
-7,
-6,
-6,
-6,
-7,
-6,
-6,
-7,
-7,
-6,
-7,
-5,
-6,
-6,
-6,
-6,
-5,
-4,
-6,
-4,
-6,
-5,
-5,
-3,
-5,
-4,
-5,
-4,
-4,
-3,
-4,
-4,
-5,
-4,
-4,
-4,
-6,
-5,
-4,
-4,
-4,
-3,
-4,
-4,
-4,
-2,
-5,
-4,
-5,
-5,
-5,
-4,
-5,
-5,
-5,
-4,
-4,
-5,
-5,
-5,
-5,
-5,
-7,
-5,
-6,
-5,
-7,
-5,
-5,
-5,
-8,
-4,
-6,
-5,
-7,
-6,
-7,
-7,
-7,
-5,
-7,
-6,
-7,
-6,
-7,
-7,
-8,
-7,
-8,
-7,
-8,
-8,
-7,
-7,
-8,
-8,
-8,
-8,
-9,
-8,
-8,
-8,
-9,
-8,
-8,
-7,
-8,
-10,
-8,
-8,
-7,
-8,
-8,
-7,
-8,
-8,
-7,
-7,
-7,
-7,
-8,
-7,
-8,
-7,
-7,
-7,
-7,
-6,
-7,
-6,
-7,
-6,
-7,
-5,
-7,
-6,
-5,
-5,
-6,
-5,
-6,
-5,
-6,
-5,
-5,
-4,
-5,
-2,
-4,
-4,
-4,
-2,
-4,
-3,
-4,
-3,
-3,
-2,
-4,
-4,
-4,
-3,
-3,
-2,
-3,
-2,
-2,
-3,
-3,
-2,
-3,
-2,
-2,
-1,
-3,
-1,
-1,
-3,
-2,
-1,
-2,
-1,
-2,
-1,
-1,
-1,
-2,
-1,
-1,
-1,
-2,
0,
-2,
-2,
-1,
-1,
-3,
-2,
-2,
-1,
-3,
-1,
-1,
-2,
-2,
-1,
-3,
-1,
-2,
-1,
-2,
-3,
-3,
0,
-3,
-1,
-2,
-2,
-2,
-2,
-3,
-2,
-4,
-2,
-2,
-3,
-3,
-2,
-3,
-4,
-3,
-2,
-3,
-2,
-3,
-4,
-3,
-4,
-4,
-4,
-4,
-4,
-4,
-4,
-4,
-4,
-5,
-4,
-5,
-3,
-5,
-4,
-5,
-4,
-4,
-5,
-5,
-4,
-5,
-4,
-6,
-5,
-5,
-5,
-4,
-4,
-5,
-5,
-4,
-3,
-5,
-5,
-6,
-5,
-8,
-5,
-5,
-5,
-5,
-5,
-6,
-4,
-6,
-5,
-5,
-5,
-7,
-5,
-7,
-4,
-5,
-4,
-5,
-5,
-5,
-4,
-7,
-5,
-5,
-5,
-6,
-5,
-7,
-5,
-6,
-4,
-6,
-5,
-6,
-5,
-5,
-5,
-6,
-5,
-7,
-5,
-6,
-6,
-7,
-5,
-7,
-4,
-5,
-6,
-7,
-5,
-6,
-5,
-6,
-5,
-6,
-6,
-5,
-4,
-6,
-5,
-6,
-5,
-7,
-5,
-7,
-5,
-5,
-5,
-7,
-5,
-6,
-5,
-7,
-6,
-6,
-6,
-6,
-4,
-7,
-5,
-7,
-5,
-6,
-5,
-6,
-5,
-6,
-4,
-6,
-5,
-7,
-5,
-6,
-5,
-6,
-5,
-6,
-5,
-5,
-5,
-7,
-5,
-6,
-5,
-6,
-4,
-5,
-5,
-5,
-4,
-6,
-5,
-7,
-6,
-6,
-6,
-6,
-5,
-6,
-5,
-6,
-4,
-5,
-5,
-5,
-5,
-5,
-5,
-7,
-5,
-6,
-5,
-6,
-5,
-5,
-5,
-5,
-4,
-6,
-5,
-5,
-5,
-6,
-5,
-5,
-6,
-5,
-4,
-6,
-4,
-7,
-5,
-5,
-5,
-7,
-5,
-5,
-4,
-6,
-5,
-5,
-5,
-7,
-4,
-6,
-5,
-5,
-4,
-7,
-6,
-5,
-4,
-5,
-5,
-8,
-6,
-5,
-5,
-6,
-5,
-5,
-4,
-6,
-4,
-5,
-5,
-6,
-4,
-5,
-5,
-7,
-5,
-6,
-4,
-5,
-5,
-6,
-5,
-5,
-4,
-5,
-5,
-7,
-5,
-6,
-5,
-6,
-5,
-7,
-5,
-6,
-4,
-6,
-5,
-6,
-4,
-6,
-5,
-6,
-5,
-5,
-5,
-6,
-4,
-6,
-5,
-6,
-5,
-6,
-5,
-5,
-4,
-6,
-4,
-5,
-5,
-5,
-5,
-7,
-5,
-5,
-4,
-6,
-4,
-5,
-4,
-5,
-3,
-6,
-5,
-5,
-5,
-5,
-4,
-5,
-5,
-5,
-3,
-5,
-4,
-6,
-5,
-5,
-5,
-6,
-5,
-5,
-5,
-6,
-3,
-6,
-6,
-6,
-5,
-7,
-4,
-4,
-1,
-1,
3,
3,
6,
7,
10,
11,
12,
13,
15,
16,
19,
19,
21,
22,
23,
25,
24,
25,
27,
28,
30,
29,
32,
31,
33,
32,
35,
32,
36,
36,
36,
37,
37,
38,
39,
39,
39,
39,
40,
41,
42,
41,
43,
42,
43,
43,
43,
44,
44,
44,
43,
44,
45,
45,
45,
44,
46,
47,
47,
47,
47,
45,
48,
47,
48,
47,
47,
47,
48,
47,
48,
47,
48,
49,
48,
47,
48,
48,
49,
47,
48,
47,
49,
47,
48,
47,
48,
48,
48,
47,
49,
48,
48,
48,
49,
48,
49,
48,
48,
48,
49,
49,
48,
49,
49,
49,
49,
48,
51,
49,
49,
49,
50,
49,
49,
50,
51,
49,
51,
49,
51,
49,
50,
50,
51,
51,
51,
49,
51,
50,
51,
51,
52,
50,
51,
49,
52,
51,
51,
51,
52,
51,
52,
51,
51,
51,
52,
51,
52,
51,
52,
50,
52,
51,
52,
51,
52,
51,
52,
50,
51,
51,
52,
51,
51,
51,
52,
50,
52,
51,
52,
51,
51,
51,
51,
50,
52,
50,
51,
49,
51,
50,
51,
49,
51,
51,
51,
51,
50,
50,
51,
50,
50,
50,
51,
49,
51,
49,
51,
49,
51,
49,
49,
50,
50,
51,
51,
50,
50,
49,
51,
49,
50,
50,
50,
49,
51,
50,
50,
50,
51,
50,
50,
49,
50,
50,
50,
50,
50,
49,
51,
51,
51,
50,
51,
50,
51,
49,
51,
50,
50,
51,
52,
49,
51,
50,
52,
50,
51,
51,
52,
51,
52,
51,
52,
50,
51,
51,
52,
50,
52,
51,
51,
51,
52,
51,
52,
51,
52,
51,
52,
51,
54,
52,
52,
51,
53,
52,
52,
51,
52,
52,
52,
52,
52,
53,
53,
52,
52,
52,
52,
52,
53,
54,
53,
51,
52,
53,
53,
52,
52,
53,
54,
52,
52,
52,
53,
52,
52,
52,
54,
51,
52,
52,
52,
52,
52,
52,
53,
51,
52,
52,
52,
52,
52,
51,
52,
51,
52,
52,
53,
51,
52,
51,
52,
52,
52,
51,
52,
51,
52,
51,
52,
51,
52,
50,
52,
51,
52,
51,
52,
51,
52,
51,
52,
51,
52,
51,
52,
51,
51,
51,
51,
50,
51,
51,
51,
51,
51,
51,
51,
49,
51,
51,
51,
51,
52,
51,
51,
50,
51,
50,
51,
50,
51,
50,
51,
50,
51,
51,
51,
50,
50,
50,
51,
50,
51,
50,
51,
50,
52,
50,
51,
51,
51,
51,
52,
50,
50,
51,
52,
51,
51,
51,
51,
50,
51,
50,
51,
51,
51,
51,
52,
49,
51,
50,
52,
50,
51,
51,
52,
50,
51,
51,
51,
49,
51,
51,
51,
49,
51,
50,
51,
50,
52,
51,
51,
51,
52,
51,
51,
50,
51,
50,
51,
50,
51,
51,
51,
50,
51,
51,
52,
51,
52,
51,
51,
51,
51,
50,
51,
51,
51,
51,
52,
51,
52,
51,
52,
51,
51,
50,
51,
51,
51,
50,
52,
51,
52,
50,
52,
51,
52,
51,
53,
51,
52,
51,
52,
51,
51,
51,
52,
51,
52,
51,
52,
51,
52,
51,
52,
51,
52,
51,
52,
51,
52,
51,
52,
50,
52,
51,
52,
50,
52,
51,
52,
51,
52,
50,
52,
51,
52,
51,
52,
51,
52,
51,
52,
51,
51,
51,
52,
51,
51,
51,
52,
51,
52,
51,
52,
51,
52,
51,
51,
51,
51,
50,
52,
50,
51,
51,
51,
51,
51,
50,
51,
51,
52,
51,
51,
50,
51,
51,
52,
51,
52,
52,
52,
51,
52,
51,
52,
52,
52,
51,
52,
51,
51,
50,
51,
50,
51,
49,
51,
50,
51,
50,
51,
49,
51,
49,
50,
49,
50,
49,
50,
49,
50,
49,
50,
49,
51,
49,
50,
49,
50,
50,
50,
51,
51,
51,
52,
51,
51,
51,
52,
51,
52,
52,
52,
51,
53,
53,
54,
54,
53,
54,
54,
54,
55,
55,
55,
55,
55,
55,
55,
55,
56,
55,
55,
55,
55,
55,
55,
55,
56,
56,
56,
55,
55,
55,
55,
54,
54,
55,
54,
53,
54,
54,
55,
53,
54,
52,
52,
51,
52,
51,
52,
51,
51,
51,
51,
49,
49,
48,
48,
47,
48,
47,
47,
47,
48,
45,
44,
44,
43,
43,
43,
43,
42,
41,
41,
41,
40,
39,
40,
37,
38,
37,
38,
36,
36,
35,
35,
34,
34,
31,
32,
31,
32,
30,
31,
29,
31,
28,
29,
27,
27,
27,
27,
26,
25,
24,
24,
24,
23,
23,
23,
20,
22,
21,
22,
20,
20,
20,
19,
19,
19,
17,
19,
17,
17,
17,
18,
17,
17,
16,
16,
15,
15,
15,
15,
14,
14,
14,
15,
13,
14,
13,
12,
13,
13,
12,
13,
11,
11,
12,
11,
11,
12,
11,
11,
11,
12,
11,
11,
10,
10,
9,
11,
10,
11,
10,
10,
8,
10,
9,
11,
9,
9,
8,
8,
8,
10,
8,
9,
7,
9,
8,
9,
8,
9,
8,
8,
8,
8,
7,
7,
7,
7,
6,
7,
6,
7,
7,
7,
7,
7,
6,
7,
7,
7,
5,
6,
5,
7,
5,
6,
5,
6,
5,
6,
5,
6,
5,
7,
5,
6,
5,
4,
5,
6,
5,
6,
5,
6,
5,
5,
4,
5,
5,
5,
3,
5,
4,
6,
4,
5,
3,
6,
4,
5,
4,
5,
4,
5,
3,
5,
5,
6,
4,
6,
5,
5,
4,
4,
4,
6,
4,
5,
4,
5,
5,
6,
4,
5,
5,
6,
5,
6,
4,
6,
5,
6,
5,
5,
5,
7,
5,
6,
5,
6,
5,
6,
5,
7,
5,
7,
5,
7,
5,
6,
5,
7,
5,
7,
5,
6,
6,
7,
6,
7,
6,
7,
5,
7,
5,
7,
5,
6,
7,
7,
6,
7,
6,
7,
7,
7,
5,
7,
6,
7,
6,
6,
6,
7,
6,
6,
7,
7,
6,
7,
6,
7,
5,
8,
6,
7,
5,
8,
6,
7,
5,
7,
5,
7,
5,
7,
6,
5,
5,
6,
6,
7,
5,
6,
5,
7,
6,
7,
5,
7,
6,
7,
5,
7,
5,
7,
5,
7,
5,
6,
5,
6,
4,
6,
4,
6,
5,
6,
5,
7,
5,
6,
5,
6,
5,
6,
5,
7,
4,
6,
5,
6,
4,
6,
5,
6,
6,
6,
5,
6,
4,
7,
5,
7,
5,
6,
5,
6,
5,
6,
6,
5,
5,
6,
5,
7,
5,
5,
5,
6,
5,
6,
5,
6,
6,
6,
5,
7,
5,
5,
5,
6,
5,
6,
4,
6,
5,
6,
5,
7,
5,
6,
5,
6,
5,
6,
5,
6,
6,
7,
6,
6,
5,
6,
5,
6,
5,
7,
4,
6,
5,
6,
6,
6,
5,
6,
5,
6,
5,
6,
5,
7,
5,
6,
5,
7,
5,
7,
5,
7,
5,
7,
5,
7,
6,
5,
6,
6,
5,
7,
6,
7,
6,
7,
6,
7,
5,
7,
6,
7,
5,
6,
5,
7,
5,
7,
5,
7,
5,
7,
5,
7,
6,
6,
5,
7,
6,
7,
5,
7,
6,
7,
7,
7,
6,
7,
5,
7,
6,
8,
7,
7,
6,
7,
5,
6,
6,
7,
6,
8,
7,
7,
5,
7,
5,
6,
6,
7,
5,
6,
5,
7,
5,
5,
5,
7,
6,
6,
5,
7,
5,
6,
5,
7,
5,
6,
6,
7,
7,
7,
6,
7,
6,
7,
7,
7,
7,
8,
5,
7,
6,
7,
7,
7,
6,
7,
7,
8,
6,
8,
7,
7,
7,
7,
6,
7,
7,
8,
7,
7,
6,
7,
6,
6,
5,
6,
6,
6,
5,
6,
5,
6,
5,
5,
5,
6,
4,
6,
5,
4,
4,
5,
4,
5,
5,
5,
4,
5,
3,
5,
4,
5,
3,
6,
4,
5,
5,
5,
4,
6,
4,
6,
5,
6,
4,
6,
6,
7,
5,
7,
6,
7,
6,
7,
7,
7,
6,
7,
7,
8,
7,
8,
7,
8,
7,
8,
8,
9,
7,
9,
8,
10,
9,
9,
8,
10,
8,
9,
8,
9,
10,
11,
9,
10,
9,
10,
9,
9,
9,
9,
9,
10,
8,
10,
10,
9,
10,
9,
9,
9,
9,
10,
8,
10,
9,
8,
7,
10,
8,
7,
7,
7,
6,
8,
7,
7,
7,
7,
6,
6,
5,
6,
5,
7,
5,
5,
4,
4,
3,
4,
3,
4,
3,
3,
3,
3,
3,
2,
0,
2,
0,
1,
0,
1,
0,
0,
-1,
0,
-1,
0,
-1,
0,
-1,
-1,
-2,
-1,
-1,
-2,
-2,
-2,
-3,
-3,
-2,
0,
-2,
-3,
-3,
-2,
-3,
-4,
-4,
-4,
-5,
-3,
-3,
-3,
-4,
-4,
-5,
-4,
-5,
-5,
-5,
-4,
-5,
-4,
-6,
-5,
-5,
-5,
-5,
-5,
-5,
-4,
-4,
-4,
-6,
-5,
-5,
-5,
-6,
-4,
-5,
-4,
-5,
-2,
-4,
-5,
-5,
-3,
-4,
-4,
-5,
-4,
-4,
-3,
-4,
-2,
-4,
-3,
-4,
-3,
-4,
-4,
-4,
-4,
-3,
-3,
-3,
-3,
-3,
-2,
-3,
-2,
-3,
-2,
-3,
-2,
-3,
-1,
-2,
-1,
-2,
-2,
-2,
-2,
-3,
-2,
-3,
-1,
-2,
-2,
-3,
-1,
-1,
-1,
-2,
-1,
-2,
-1,
-1,
-1,
-2,
-2,
-2,
0,
-1,
0,
-1,
0,
-1,
0,
-1,
-2,
-1,
-1,
0,
-1,
-1,
-1,
-2,
0,
0,
0,
-1,
-1,
-1,
-1,
-1,
0,
1,
1,
-1,
0,
0,
1,
-1,
-1,
-2,
-1,
-1,
0,
-1,
1,
-1,
1,
3,
3,
1,
0,
1,
0,
1,
2,
1,
2,
0,
1,
0,
2,
-1,
0,
1,
2,
1,
1,
0,
2,
1,
1,
0,
2,
1,
2,
0,
2,
2,
2,
1,
2,
2,
3,
0,
2,
2,
3,
1,
2,
1,
2,
2,
1,
2,
3,
3,
3,
3,
2,
2,
3,
1,
2,
2,
2,
2,
3,
2,
3,
2,
3,
2,
3,
2,
3,
3,
4,
1,
3,
1,
3,
2,
3,
2,
3,
2,
3,
2,
2,
1,
3,
2,
2,
2,
4,
2,
3,
1,
3,
3,
2,
2,
3,
2,
3,
2,
2,
2,
3,
1,
3,
2,
3,
2,
3,
2,
3,
2,
3,
1,
3,
1,
3,
2,
3,
1,
2,
2,
2,
1,
3,
1,
2,
1,
3,
1,
3,
1,
3,
1,
2,
1,
2,
2,
2,
2,
3,
1,
3,
1,
3,
2,
3,
1,
2,
2,
2,
1,
2,
1,
2,
2,
3,
2,
3,
2,
3,
2,
3,
1,
3,
2,
2,
1,
3,
1,
1,
1,
2,
1,
3,
1,
2,
1,
2,
2,
3,
2,
2,
1,
2,
1,
2,
1,
3,
2,
3,
1,
3,
1,
3,
1,
3,
3,
3,
2,
2,
2,
3,
2,
4,
2,
2,
2,
2,
2,
4,
2,
3,
1,
3,
1,
3,
1,
3,
2,
2,
2,
2,
1,
2,
1,
2,
2,
3,
2,
3,
1,
2,
1,
2,
1,
3,
2,
3,
1,
3,
1,
2,
3,
3,
2,
3,
1,
3,
2,
3,
1,
3,
2,
3,
1,
3,
3,
3,
3,
3,
1,
3,
2,
3,
2,
2,
1,
3,
2,
3,
2,
3,
3,
3,
1,
2,
2,
3,
2,
2,
2,
2,
2,
3,
3,
2,
1,
2,
1,
3,
1,
1,
1,
2,
1,
3,
2,
2,
1,
3,
1,
3,
1,
3,
2,
3,
2,
2,
2,
2,
2,
3,
2,
3,
2,
3,
2,
4,
2,
3,
2,
3,
3,
2,
3,
4,
3,
2,
3,
3,
2,
3,
3,
3,
2,
3,
3,
3,
3,
3,
2,
3,
2,
3,
2,
2,
2,
3,
1,
3,
2,
3,
3,
3,
2,
3,
2,
3,
2,
3,
1,
3,
1,
3,
1,
1,
1,
2,
1,
1,
1,
1,
1,
1,
0,
2,
1,
1,
1,
1,
0,
1,
0,
1,
1,
1,
1,
1,
0,
1,
0,
1,
0,
1,
1,
2,
1,
2,
1,
2,
1,
2,
1,
2,
2,
3,
1,
3,
2,
2,
1,
3,
1,
3,
1,
4,
3,
3,
1,
3,
2,
3,
3,
3,
3,
3,
3,
4,
3,
3,
3,
3,
3,
4,
3,
4,
3,
5,
3,
5,
3,
5,
4,
5,
3,
3,
3,
5,
4,
5,
4,
4,
5,
4,
3,
4,
3,
4,
4,
5,
3,
3,
3,
4,
3,
4,
3,
5,
2,
3,
3,
3,
1,
3,
3,
3,
2,
3,
1,
2,
2,
3,
1,
1,
1,
2,
1,
2,
0,
1,
0,
1,
1,
1,
1,
1,
0,
1,
0,
0,
-1,
1,
-1,
0,
-1,
-1,
-1,
0,
-1,
-1,
-1,
0,
0,
-1,
1,
-1,
-1,
-1,
-1,
-2,
-1,
-1,
0,
0,
-3,
-3,
-2,
-1,
-2,
-2,
-3,
-1,
-3,
0,
-1,
-1,
-3,
-1,
-2,
-1,
-3,
-2,
-3,
-1,
-1,
-1,
-2,
-1,
-3,
0,
-2,
-1,
-2,
-1,
-2,
-1,
-1,
-1,
-1,
-1,
-1,
0,
-2,
0,
-1,
-2,
-1,
0,
-1,
0,
-1,
0,
-1,
-1,
1,
0,
-1,
0,
-1,
1,
1,
2,
0,
1,
0,
1,
0,
1,
-1,
1,
0,
1,
0,
1,
0,
1,
0,
1,
-1,
1,
1,
2,
2,
2,
1,
2,
1,
2,
1,
2,
1,
2,
0,
2,
0,
1,
1,
2,
2,
2,
1,
1,
1,
2,
1,
2,
1,
2,
1,
1,
1,
2,
1,
2,
1,
2,
1,
3,
2,
2,
2,
3,
1,
2,
1,
2,
1,
3,
1,
2,
2,
2,
1,
3,
1,
3,
2,
3,
1,
2,
1,
2,
1,
2,
1,
3,
2,
3,
1,
2,
1,
2,
2,
3,
1,
3,
2,
3,
1,
3,
1,
3,
3,
3,
2,
4,
1,
3,
1,
2,
1,
3,
1,
3,
2,
2,
1,
3,
2,
3,
3,
3,
1,
3,
2,
3,
2,
3,
1,
3,
1,
2,
3,
3,
2,
3,
2,
4,
3,
4,
2,
3,
1,
3,
1,
3,
3,
3,
1,
3,
3,
3,
3,
3,
2,
4,
3,
3,
2,
2,
3,
2,
2,
3,
3,
3,
2,
3,
1,
2,
2,
3,
2,
3,
1,
2,
2,
2,
1,
3,
2,
3,
1,
3,
2,
2,
1,
2,
1,
2,
1,
2,
1,
2,
2,
3,
2,
3,
2,
3,
1,
2,
1,
4,
1,
2,
1,
3,
1,
2,
2,
2,
1,
2,
1,
2,
0,
2,
1,
3,
1,
2,
1,
1,
1,
2,
1,
3,
1,
2,
1,
2,
1,
2,
1,
2,
1,
2,
0,
2,
1,
2,
2,
2,
0,
2,
1,
2,
2,
2,
1,
3,
1,
2,
2,
2,
1,
3,
0,
2,
1,
2,
1,
2,
1,
2,
1,
3,
1,
3,
1,
2,
1,
3,
1,
2,
1,
1,
0,
3,
1,
1,
0,
2,
1,
2,
1,
1,
1,
0,
1,
1,
1,
2,
1,
2,
1,
1,
0,
3,
2,
1,
2,
3,
2,
2,
2,
2,
1,
2,
1,
3,
1,
2,
1,
2,
2,
2,
2,
2,
1,
3,
1,
4,
1,
2,
1,
3,
2,
3,
2,
2,
1,
3,
2,
3,
1,
3,
1,
3,
1,
2,
1,
2,
2,
2,
1,
2,
1,
2,
0,
2,
0,
2,
1,
1,
1,
2,
1,
1,
1,
1,
1,
2,
1,
2,
1,
2,
2,
2,
1,
2,
1,
2,
0,
3,
1,
2,
1,
1,
1,
3,
2,
2,
2,
2,
1,
2,
1,
2,
2,
3,
1,
3,
2,
2,
1,
3,
1,
3,
2,
2,
2,
3,
2,
3,
3,
2,
1,
3,
1,
2,
2,
3,
1,
2,
1,
3,
2,
2,
2,
3,
2,
2,
2,
2,
1,
3,
0,
2,
2,
3,
1,
1,
1,
2,
1,
2,
1,
3,
0,
0,
-2,
-4,
-6,
-8,
-10,
-12,
-13,
-15,
-17,
-18,
-20,
-22,
-22,
-22,
-24,
-26,
-28,
-27,
-29,
-30,
-32,
-31,
-34,
-34,
-35,
-35,
-37,
-36,
-39,
-37,
-39,
-39,
-39,
-40,
-41,
-41,
-43,
-41,
-44,
-43,
-45,
-43,
-45,
-44,
-44,
-45,
-46,
-46,
-45,
-46,
-47,
-47,
-48,
-47,
-48,
-49,
-49,
-48,
-49,
-48,
-49,
-48,
-49,
-48,
-48,
-49,
-49,
-49,
-49,
-49,
-49,
-49,
-50,
-50,
-50,
-50,
-50,
-50,
-50,
-50,
-50,
-49,
-50,
-50,
-51,
-50,
-51,
-51,
-51,
-51,
-51,
-50,
-51,
-51,
-50,
-51,
-53,
