5-grundlagen-opAmps/data/ALL0003/A0003CH1.CSV

Memory Length,4000,
Trigger Level,0.00000e+00,
Source,CH1,
Probe,1.0X,
Vertical Units,V,
Vertical Scale,5.00000e-02,
Vertical Position,0.00000e+00,
Horizontal Units,S,
Horizontal Scale,1.00000e-07,
Horizontal Position,1.0000000e-07,
Horizontal Mode,Main,
Sampling Period,2.00000e-09,
Firmware,V1.14,
Time, ,
Mode,Fast,
Waveform Data,
-4,
-4,
-4,
-10,
-13,
-14,
-12,
-10,
-13,
-19,
-21,
-18,
-16,
-17,
-24,
-27,
-27,
-21,
-18,
-26,
-32,
-34,
-28,
-20,
-23,
-34,
-40,
-34,
-23,
-22,
-28,
-37,
-39,
-30,
-20,
-21,
-35,
-40,
-32,
-20,
-17,
-25,
-34,
-32,
-20,
-13,
-15,
-26,
-27,
-21,
-10,
-7,
-16,
-21,
-19,
-8,
-1,
-3,
-11,
-13,
-7,
1,
5,
3,
-3,
-2,
4,
11,
11,
6,
4,
4,
12,
19,
18,
12,
6,
11,
21,
23,
17,
9,
14,
20,
26,
22,
13,
13,
21,
26,
23,
16,
14,
18,
24,
22,
14,
12,
17,
20,
15,
11,
11,
13,
15,
10,
5,
5,
10,
12,
6,
-1,
-3,
2,
7,
2,
-6,
-11,
-4,
0,
-3,
-11,
-16,
-13,
-11,
-12,
-15,
-20,
-21,
-19,
-16,
-22,
-23,
-25,
-28,
-25,
-24,
-24,
-26,
-31,
-31,
-29,
-26,
-24,
-32,
-38,
-35,
-26,
-22,
-30,
-39,
-37,
-26,
-20,
-26,
-35,
-38,
-29,
-19,
-19,
-27,
-31,
-27,
-16,
-16,
-21,
-27,
-23,
-12,
-11,
-15,
-16,
-14,
-8,
-5,
-7,
-9,
-7,
-2,
0,
-1,
-2,
3,
5,
4,
3,
4,
8,
12,
11,
9,
9,
12,
15,
16,
17,
13,
15,
17,
19,
20,
18,
18,
16,
18,
22,
23,
21,
17,
14,
19,
24,
24,
17,
12,
12,
21,
25,
16,
7,
6,
13,
21,
17,
3,
-3,
5,
13,
13,
3,
-9,
-6,
4,
10,
2,
-12,
-16,
-9,
0,
0,
-15,
-23,
-20,
-10,
-7,
-15,
-25,
-29,
-21,
-14,
-15,
-24,
-32,
-32,
-23,
-19,
-24,
-34,
-36,
-31,
-22,
-23,
-31,
-36,
-35,
-29,
-24,
-27,
-34,
-37,
-32,
-27,
-22,
-26,
-33,
-32,
-26,
-22,
-21,
-24,
-27,
-23,
-18,
-16,
-17,
-21,
-19,
-13,
-10,
-11,
-15,
-13,
-9,
-4,
-3,
-5,
-6,
-3,
3,
4,
1,
0,
5,
11,
7,
4,
6,
11,
17,
13,
11,
9,
14,
22,
20,
16,
10,
15,
25,
25,
18,
11,
12,
22,
26,
22,
16,
13,
20,
24,
23,
16,
12,
15,
18,
19,
14,
11,
11,
12,
14,
13,
11,
5,
3,
3,
7,
10,
2,
-4,
-5,
-2,
3,
0,
-9,
-14,
-11,
-4,
-4,
-12,
-22,
-21,
-13,
-11,
-19,
-26,
-28,
-19,
-16,
-22,
-30,
-31,
-24,
-23,
-25,
-31,
-34,
-27,
-27,
-29,
-32,
-34,
-28,
-28,
-30,
-35,
-32,
-26,
-26,
-30,
-35,
-29,
-23,
-22,
-26,
-31,
-28,
-22,
-16,
-17,
-25,
-25,
-21,
-13,
-12,
-14,
-15,
-16,
-11,
-8,
-4,
-5,
-7,
-9,
-5,
2,
5,
0,
-4,
-2,
8,
15,
12,
3,
-1,
7,
21,
22,
11,
2,
9,
22,
30,
19,
7,
8,
21,
32,
28,
14,
6,
15,
28,
29,
19,
10,
12,
20,
28,
21,
14,
11,
14,
19,
20,
14,
6,
6,
12,
16,
12,
6,
1,
1,
5,
8,
5,
-4,
-7,
-6,
0,
1,
-7,
-13,
-15,
-8,
-7,
-11,
-18,
-20,
-17,
-14,
-15,
-20,
-26,
-23,
-20,
-23,
-25,
-29,
-28,
-26,
-25,
-29,
-34,
-29,
-27,
-27,
-32,
-34,
-31,
-29,
-28,
-31,
-35,
-34,
-28,
-26,
-27,
-32,
-32,
-26,
-20,
-22,
-29,
-28,
-22,
-14,
-13,
-19,
-24,
-22,
-12,
-8,
-11,
-16,
-19,
-9,
-2,
-2,
-6,
-9,
-4,
1,
5,
4,
0,
0,
5,
11,
11,
7,
6,
8,
13,
16,
16,
14,
11,
13,
18,
22,
19,
16,
14,
17,
24,
24,
20,
14,
16,
21,
26,
22,
14,
14,
18,
23,
20,
14,
12,
13,
17,
15,
11,
8,
11,
12,
9,
5,
2,
5,
7,
3,
-4,
-4,
0,
2,
-6,
-11,
-11,
-5,
-2,
-8,
-19,
-23,
-13,
-8,
-13,
-20,
-29,
-24,
-15,
-15,
-25,
-32,
-32,
-23,
-19,
-25,
-32,
-34,
-30,
-27,
-26,
-28,
-34,
-36,
-33,
-27,
-25,
-29,
-35,
-35,
-29,
-22,
-21,
-31,
-36,
-32,
-21,
-13,
-21,
-33,
-32,
-18,
-7,
-12,
-25,
-29,
-17,
-3,
-1,
-11,
-21,
-17,
0,
6,
-2,
-11,
-10,
0,
7,
6,
0,
-3,
5,
10,
12,
9,
5,
8,
13,
15,
14,
13,
16,
15,
17,
18,
20,
19,
15,
17,
19,
23,
21,
18,
17,
19,
21,
22,
19,
16,
16,
19,
19,
14,
13,
14,
16,
16,
9,
7,
11,
12,
11,
3,
0,
3,
8,
6,
0,
-6,
-4,
0,
0,
-7,
-15,
-14,
-8,
-4,
-10,
-21,
-24,
-16,
-11,
-15,
-24,
-29,
-26,
-18,
-16,
-23,
-31,
-33,
-28,
-23,
-23,
-32,
-37,
-33,
-27,
-24,
-28,
-33,
-36,
-32,
-27,
-25,
-30,
-34,
-33,
-27,
-22,
-25,
-31,
-31,
-25,
-20,
-19,
-23,
-26,
-25,
-19,
-12,
-13,
-18,
-20,
-14,
-9,
-7,
-8,
-11,
-9,
-7,
-1,
0,
-2,
-2,
0,
3,
4,
5,
5,
7,
9,
9,
10,
13,
13,
15,
14,
13,
14,
18,
21,
16,
14,
15,
21,
25,
21,
15,
15,
20,
28,
24,
16,
11,
17,
25,
25,
17,
8,
8,
18,
22,
17,
8,
4,
9,
15,
16,
9,
0,
-1,
4,
9,
5,
-3,
-9,
-7,
-1,
1,
-4,
-13,
-16,
-12,
-7,
-6,
-13,
-23,
-24,
-15,
-10,
-17,
-29,
-34,
-25,
-15,
-16,
-28,
-39,
-35,
-22,
-19,
-25,
-39,
-40,
-28,
-20,
-24,
-35,
-40,
-31,
-22,
-24,
-33,
-36,
-30,
-22,
-24,
-29,
-31,
-27,
-21,
-19,
-23,
-25,
-24,
-17,
-18,
-19,
-17,
-15,
-13,
-13,
-14,
-11,
-7,
-6,
-5,
-8,
-4,
-2,
0,
2,
1,
3,
5,
6,
5,
6,
12,
12,
8,
7,
12,
19,
20,
14,
10,
14,
21,
25,
19,
9,
13,
23,
27,
24,
12,
10,
20,
28,
25,
13,
9,
15,
26,
26,
16,
8,
8,
17,
23,
16,
5,
3,
8,
14,
12,
5,
0,
0,
3,
4,
2,
-3,
-8,
-7,
-4,
-3,
-7,
-13,
-15,
-15,
-10,
-11,
-16,
-21,
-23,
-18,
-16,
-18,
-26,
-30,
-25,
-22,
-22,
-28,
-33,
-32,
-27,
-27,
-29,
-31,
-31,
-31,
-30,
-30,
-30,
-30,
-30,
-29,
-30,
-31,
-27,
-25,
-27,
-29,
-29,
-24,
-21,
-21,
-25,
-27,
-22,
-17,
-15,
-17,
-20,
-18,
-11,
-5,
-8,
-14,
-14,
-7,
1,
1,
-5,
-7,
-6,
4,
10,
8,
-1,
-3,
5,
15,
15,
10,
4,
5,
17,
21,
19,
12,
11,
15,
23,
24,
18,
13,
15,
21,
26,
24,
17,
11,
17,
25,
26,
20,
11,
11,
17,
24,
22,
12,
6,
10,
19,
20,
12,
3,
2,
8,
16,
9,
1,
-5,
-1,
8,
3,
-6,
-10,
-6,
-2,
-3,
-10,
-16,
-15,
-9,
-9,
-14,
-22,
-20,
-14,
-16,
-21,
-28,
-28,
-20,
-20,
-25,
-30,
-32,
-26,
-25,
-28,
-34,
-34,
-29,
-28,
-29,
-32,
-34,
-32,
-29,
-27,
-29,
-32,
-32,
-29,
-27,
-25,
-23,
-28,
-30,
-27,
-20,
-16,
-22,
-28,
-27,
-15,
-8,
-10,
-19,
-22,
-14,
-2,
-1,
-13,
-19,
-9,
5,
7,
-2,
-10,
-7,
7,
14,
9,
-1,
-1,
8,
16,
18,
9,
4,
12,
18,
21,
16,
13,
13,
18,
22,
21,
19,
16,
17,
20,
20,
24,
21,
16,
16,
17,
22,
23,
17,
12,
14,
19,
21,
14,
8,
8,
12,
15,
11,
5,
3,
6,
6,
6,
2,
0,
-1,
-1,
-3,
-5,
-6,
-4,
-5,
-12,
-15,
-13,
-7,
-10,
-19,
-25,
-20,
-13,
-14,
-21,
-30,
-28,
-19,
-18,
-26,
-35,
-35,
-26,
-18,
-24,
-35,
-39,
-32,
-23,
-24,
-32,
-39,
-35,
-28,
-24,
-24,
-34,
-36,
-32,
-24,
-21,
-25,
-31,
-31,
-23,
-19,
-16,
-21,
-26,
-23,
-16,
-11,
-13,
-18,
-20,
-12,
-6,
-3,
-7,
-12,
-10,
-1,
5,
1,
-4,
-6,
1,
10,
10,
6,
3,
5,
13,
16,
14,
9,
10,
15,
20,
20,
13,
12,
19,
21,
20,
17,
16,
19,
22,
24,
19,
16,
17,
24,
24,
18,
14,
16,
20,
20,
15,
10,
12,
16,
17,
12,
6,
4,
10,
13,
9,
1,
-3,
0,
5,
5,
-3,
-10,
-8,
-5,
-2,
-5,
-13,
-16,
-16,
-12,
-11,
-12,
-21,
-24,
-19,
-16,
-17,
-21,
-31,
-31,
-23,
-18,
-21,
-32,
-38,
-33,
-23,
-19,
-30,
-40,
-39,
-27,
-19,
-27,
-39,
-41,
-28,
-20,
-24,
-32,
-39,
-32,
-21,
-17,
-25,
-33,
-31,
-22,
-16,
-18,
-23,
-23,
-17,
-14,
-13,
-12,
-13,
-12,
-9,
-7,
-6,
-4,
-5,
-4,
-3,
0,
5,
3,
1,
1,
5,
11,
12,
8,
6,
9,
15,
18,
16,
13,
12,
17,
19,
20,
17,
17,
20,
19,
18,
19,
22,
24,
18,
15,
18,
22,
26,
18,
11,
13,
20,
25,
18,
8,
6,
14,
21,
18,
5,
-2,
5,
16,
14,
2,
-8,
-5,
5,
7,
0,
-10,
-14,
-8,
0,
-4,
-13,
-18,
-16,
-11,
-11,
-16,
-21,
-24,
-20,
-19,
-19,
-21,
-28,
-29,
-27,
-23,
-24,
-29,
-33,
-33,
-25,
-25,
-28,
-33,
-36,
-31,
-25,
-25,
-34,
-38,
-33,
-26,
-23,
-29,
-34,
-31,
-23,
-22,
-25,
-27,
-25,
-21,
-16,
-19,
-23,
-20,
-14,
-11,
-14,
-18,
-14,
-9,
-4,
-6,
-11,
-11,
-2,
3,
3,
-1,
-4,
1,
9,
10,
5,
2,
4,
14,
17,
14,
9,
6,
13,
20,
22,
16,
10,
11,
20,
27,
21,
15,
12,
16,
26,
28,
21,
13,
12,
19,
26,
23,
14,
8,
12,
20,
22,
16,
8,
6,
13,
18,
15,
6,
-1,
2,
12,
12,
3,
-8,
-9,
0,
5,
1,
-10,
-15,
-11,
-5,
-1,
-12,
-20,
-20,
-12,
-10,
-15,
-23,
-27,
-20,
-18,
-20,
-26,
-28,
-27,
-25,
-25,
-28,
-30,
-31,
-29,
-30,
-30,
-31,
-29,
-30,
-31,
-33,
-31,
-27,
-28,
-32,
-32,
-28,
-25,
-24,
-28,
-29,
-27,
-23,
-20,
-20,
-23,
-23,
-16,
-16,
-14,
-14,
-15,
-12,
-13,
-11,
-5,
-4,
-6,
-10,
-8,
1,
6,
4,
-3,
-4,
4,
12,
13,
6,
-1,
5,
18,
22,
12,
3,
9,
20,
27,
19,
9,
8,
19,
29,
25,
17,
11,
16,
28,
26,
18,
13,
15,
20,
23,
18,
16,
14,
15,
18,
17,
16,
12,
11,
11,
10,
10,
9,
5,
3,
3,
5,
7,
0,
-4,
-5,
-1,
0,
-7,
-12,
-13,
-8,
-8,
-13,
-18,
-17,
-15,
-14,
-19,
-24,
-23,
-19,
-16,
-23,
-30,
-31,
-24,
-19,
-26,
-35,
-37,
-27,
-21,
-25,
-36,
-40,
-30,
-22,
-24,
-32,
-40,
-34,
-25,
-19,
-27,
-37,
-35,
-26,
-17,
-22,
-28,
-32,
-25,
-17,
-14,
-17,
-25,
-24,
-14,
-7,
-7,
-14,
-19,
-15,
-4,
2,
-1,
-10,
-12,
-6,
6,
11,
2,
-5,
-3,
9,
18,
13,
4,
1,
11,
20,
22,
12,
5,
11,
21,
28,
19,
10,
11,
19,
28,
25,
18,
11,
16,
24,
26,
21,
15,
14,
19,
23,
21,
16,
13,
15,
15,
16,
13,
11,
10,
9,
10,
7,
5,
5,
4,
3,
0,
0,
-1,
-1,
-6,
-7,
-7,
-6,
-7,
-11,
-15,
-15,
-13,
-12,
-14,
-19,
-23,
-22,
-16,
-18,
-22,
-27,
-29,
-26,
-22,
-22,
-27,
-32,
-31,
-30,
-28,
-27,
-30,
-34,
-35,
-30,
-25,
-26,
-35,
-35,
-31,
-24,
-20,
-28,
-35,
-34,
-23,
-16,
-22,
-30,
-34,
-20,
-11,
-14,
-21,
-27,
-18,
-7,
-5,
-11,
-18,
-14,
-5,
0,
-3,
-9,
-7,
-1,
3,
3,
1,
3,
5,
8,
8,
8,
10,
11,
12,
12,
12,
15,
17,
17,
15,
16,
19,
19,
18,
16,
19,
21,
20,
18,
16,
19,
20,
20,
19,
17,
18,
19,
18,
15,
13,
17,
19,
15,
6,
5,
13,
17,
12,
2,
-3,
4,
13,
9,
-3,
-11,
-6,
4,
7,
-4,
-17,
-16,
-5,
0,
-8,
-21,
-24,
-17,
-9,
-11,
-24,
-31,
-26,
-18,
-14,
-23,
-31,
-34,
-28,
-23,
-23,
-28,
-35,
-35,
-30,
-24,
-24,
-31,
-38,
-36,
-29,
-20,
-26,
-36,
-39,
-32,
-19,
-21,
-29,
-35,
-30,
-19,
-16,
-19,
-31,
-30,
-16,
-9,
-14,
-21,
-25,
-15,
-6,
-5,
-11,
-14,
-10,
-3,
-1,
-2,
-4,
-4,
2,
2,
2,
3,
4,
9,
9,
8,
10,
12,
14,
13,
13,
13,
15,
18,
18,
17,
15,
17,
20,
20,
20,
17,
19,
19,
21,
22,
18,
17,
17,
18,
21,
19,
15,
12,
14,
19,
18,
14,
8,
6,
10,
14,
15,
5,
0,
0,
7,
8,
2,
-6,
-9,
-2,
1,
-2,
-9,
-15,
-12,
-8,
-6,
-11,
-22,
-22,
-15,
-11,
-16,
-24,
-31,
-26,
-19,
-19,
-24,
-33,
-31,
-26,
-24,
-25,
-31,
-34,
-30,
-27,
-27,
-32,
-33,
-31,
-28,
-30,
-33,
-31,
-28,
-28,
-28,
-31,
-27,
-24,
-24,
-23,
-27,
-26,
-21,
-16,
-17,
-20,
-20,
-16,
-12,
-13,
-13,
-13,
-10,
-6,
-5,
-5,
-7,
-6,
-2,
3,
3,
2,
1,
1,
5,
10,
13,
11,
5,
4,
13,
21,
20,
10,
7,
13,
25,
27,
16,
8,
11,
24,
33,
24,
11,
8,
19,
30,
28,
15,
6,
12,
26,
28,
18,
5,
9,
18,
23,
17,
5,
2,
8,
13,
13,
6,
3,
-1,
1,
5,
5,
1,
-9,
-10,
-5,
-1,
-2,
-12,
-18,
-15,
-10,
-7,
-14,
-24,
-25,
-18,
-11,
-16,
-27,
-32,
-27,
-17,
-20,
-30,
-35,
-31,
-24,
-23,
-29,
-33,
-32,
-27,
-27,
-32,
-32,
-31,
-28,
-27,
-31,
-33,
-29,
-26,
-25,
-30,
-32,
-27,
-20,
-21,
-27,
-28,
-22,
-16,
-16,
-16,
-21,
-18,
-12,
-9,
-10,
-13,
-13,
-9,
-4,
-4,
-3,
-4,
-2,
-1,
3,
5,
3,
1,
3,
8,
13,
14,
11,
6,
10,
16,
22,
19,
10,
9,
17,
26,
23,
16,
11,
16,
26,
28,
22,
11,
14,
22,
26,
24,
13,
11,
19,
22,
20,
14,
11,
12,
16,
17,
12,
8,
6,
9,
11,
6,
3,
1,
3,
1,
0,
-3,
-4,
-3,
-4,
-8,
-9,
-10,
-10,
-11,
-14,
-16,
-18,
-16,
-16,
-16,
-24,
-26,
-21,
-21,
-21,
-26,
-32,
-29,
-25,
-24,
-28,
-31,
-34,
-32,
-27,
-27,
-30,
-36,
-36,
-29,
-23,
-27,
-34,
-36,
-31,
-24,
-21,
-26,
-34,
-33,
-25,
-16,
-17,
-25,
-32,
-25,
-12,
-7,
-13,
-25,
-22,
-12,
0,
-1,
-13,
-19,
-9,
5,
6,
-3,
-11,
-7,
7,
15,
8,
0,
-2,
5,
17,
17,
6,
3,
8,
18,
22,
17,
12,
12,
18,
22,
23,
20,
15,
16,
20,
22,
25,
19,
16,
16,
20,
24,
22,
17,
10,
16,
21,
20,
13,
6,
13,
16,
17,
10,
4,
4,
9,
10,
4,
-1,
-1,
3,
4,
-1,
-10,
-7,
-2,
-2,
-11,
-17,
-15,
-9,
-7,
-15,
-25,
-23,
-16,
-12,
-20,
-31,
-28,
-23,
-19,
-20,
-31,
-32,
-28,
-23,
-25,
-33,
-35,
-33,
-27,
-28,
-30,
-34,
-33,
-31,
-29,
-27,
-27,
-30,
-32,
-31,
-25,
-22,
-25,
-28,
-30,
-25,
-16,
-15,
-22,
-27,
-24,
-12,
-7,
-13,
-20,
-19,
-9,
-3,
-4,
-11,
-11,
-5,
4,
4,
-4,
-7,
0,
9,
10,
4,
4,
5,
13,
14,
11,
10,
11,
15,
16,
16,
15,
18,
21,
19,
15,
16,
20,
23,
21,
17,
16,
19,
23,
23,
17,
15,
15,
19,
23,
19,
14,
11,
13,
16,
15,
11,
8,
6,
8,
11,
11,
5,
-1,
-2,
4,
5,
1,
-8,
-12,
-6,
0,
-1,
-10,
-19,
-19,
-10,
-5,
-11,
-22,
-27,
-20,
-14,
-12,
-23,
-33,
-31,
-20,
-15,
-24,
-33,
-38,
-30,
-21,
-23,
-31,
-40,
-36,
-26,
-22,
-28,
-38,
-38,
-30,
-23,
-24,
-32,
-38,
-32,
-24,
-20,
-24,
-31,
-31,
-24,
-16,
-16,
-23,
-24,
-19,
-15,
-12,
-12,
-15,
-16,
-11,
-6,
-6,
-6,
-7,
-4,
-2,
0,
3,
-1,
1,
3,
7,
9,
6,
6,
7,
12,
14,
14,
11,
13,
17,
19,
17,
15,
15,
22,
24,
16,
13,
16,
23,
26,
19,
13,
13,
21,
28,
21,
12,
8,
17,
24,
23,
12,
4,
8,
18,
20,
9,
1,
3,
11,
13,
6,
-2,
-3,
1,
4,
2,
-5,
-9,
-8,
-5,
-4,
-9,
-12,
-15,
-16,
-13,
-13,
-14,
-20,
-25,
-26,
-19,
-16,
-20,
-28,
-34,
-27,
-19,
-22,
-31,
-36,
-31,
-24,
-23,
-30,
-38,
-35,
-28,
-24,
-30,
-36,
-35,
-27,
-24,
-27,
-32,
-31,
-24,
-23,
-25,
-28,
-24,
-20,
-21,
-21,
-23,
-18,
-14,
-12,
-18,
-20,
-12,
-5,
-6,
-12,
-15,
-8,
1,
4,
0,
-8,
-3,
3,
11,
9,
2,
1,
5,
14,
15,
11,
9,
8,
14,
18,
21,
15,
12,
14,
18,
24,
24,
17,
11,
16,
25,
29,
24,
11,
10,
18,
28,
28,
14,
5,
12,
22,
28,
17,
4,
4,
15,
22,
16,
3,
-1,
4,
12,
12,
0,
-6,
-4,
3,
5,
-1,
-9,
-13,
-8,
-5,
-4,
-12,
-18,
-19,
-13,
-13,
-16,
-21,
-25,
-23,
-21,
-21,
-25,
-27,
-27,
-27,
-24,
-28,
-30,
-32,
-30,
-27,
-28,
-32,
-32,
-32,
-29,
-30,
-31,
-32,
-31,
-28,
-28,
-28,
-30,
-29,
-27,
-24,
-24,
-27,
-27,
-21,
-19,
-18,
-21,
-23,
-16,
-13,
-9,
-15,
-17,
-14,
-7,
0,
-6,
-12,
-11,
-3,
6,
6,
-2,
-7,
0,
10,
14,
8,
1,
2,
14,
20,
15,
7,
7,
15,
22,
22,
14,
11,
15,
22,
27,
20,
15,
14,
20,
23,
24,
19,
16,
17,
18,
20,
21,
19,
12,
11,
16,
19,
17,
10,
6,
8,
13,
14,
9,
1,
1,
5,
7,
4,
-3,
-6,
-2,
0,
-4,
-10,
-12,
-10,
-8,
-11,
-15,
-16,
-16,
-16,
-16,
-24,
-22,
-19,
-20,
-23,
-30,
-28,
-23,
-19,
-29,
-36,
-35,
-25,
-22,
-28,
-37,
-37,
-28,
-21,
-26,
-34,
-38,
-31,
-25,
-23,
-29,
-36,
-32,
-25,
-20,
-24,
-29,
-30,
-22,
-20,
-17,
-17,
-23,
-22,
-16,
-11,
-8,
-14,
-16,
-17,
-8,
0,
0,
-9,
-14,
-8,
5,
11,
2,
-8,
-4,
8,
18,
14,
2,
0,
12,
22,
20,
10,
3,
11,
22,
25,
17,
9,
13,
23,
27,
22,
15,
15,
21,
25,
23,
17,
16,
18,
21,
20,
17,
15,
17,
15,
15,
13,
13,
12,
11,
9,
8,
9,
7,
5,
5,
4,
2,
0,
-1,
-1,
-1,
-3,
-8,
-10,
-10,
-7,
-8,
-12,
-18,
-19,
-14,
-12,
-19,
-24,
-28,
-19,
-16,
-20,
-28,
-35,
-26,
-20,
-20,
-28,
-38,
-35,
-26,
-20,
-27,
-37,
-39,
-32,
-21,
-23,
-33,
-38,
-34,
-25,
-21,
-25,
-34,
-35,
-27,
-18,
-19,
-26,
-29,
-25,
-16,
-14,
-16,
-21,
-20,
-14,
-8,
-8,
-13,
-16,
-12,
-4,
-1,
-1,
-5,
-7,
-1,
2,
5,
6,
3,
2,
4,
11,
12,
9,
7,
9,
14,
18,
17,
15,
13,
15,
19,
20,
19,
16,
16,
21,
21,
19,
19,
18,
20,
19,
19,
17,
19,
18,
17,
15,
14,
18,
18,
14,
6,
8,
16,
17,
11,
1,
-2,
6,
13,
10,
-3,
-10,
-3,
4,
7,
-4,
-15,
-14,
-7,
0,
-9,
-19,
-21,
-16,
-8,
-13,
-20,
-28,
-25,
-18,
-16,
-21,
-28,
-32,
-29,
-25,
-22,
-27,
-34,
-35,
-33,
-24,
-25,
-31,
-38,
-38,
-28,
-20,
-25,
-34,
-40,
-31,
-21,
-20,
-30,
-36,
-30,
-21,
-15,
-23,
-30,
-28,
-17,
-10,
-17,
-24,
-23,
-12,
-6,
-10,
-16,
-15,
-8,
-1,
-4,
-6,
-7,
-2,
4,
2,
0,
1,
7,
11,
8,
5,
6,
11,
15,
14,
12,
11,
14,
19,
18,
18,
15,
15,
18,
20,
21,
19,
17,
16,
18,
23,
24,
20,
12,
13,
20,
24,
21,
11,
8,
13,
21,
23,
11,
1,
6,
16,
19,
10,
-4,
-6,
5,
15,
7,
-7,
-14,
-7,
5,
2,
-8,
-16,
-16,
-8,
-5,
-8,
-21,
-23,
-16,
-13,
-15,
-22,
-28,
-26,
-22,
-19,
-24,
-29,
-30,
-30,
-25,
-23,
-27,
-32,
-36,
-31,
-27,
-26,
-29,
-35,
-34,
-29,
-26,
-24,
-31,
-33,
-32,
-27,
-23,
-26,
-28,
-27,
-23,
-22,
-21,
-20,
-21,
-20,
-17,
-15,
-15,
-15,
-12,
-11,
-11,
-11,
-7,
-4,
-6,
-6,
-4,
0,
3,
3,
0,
1,
4,
9,
13,
8,
4,
6,
15,
21,
17,
10,
9,
13,
24,
25,
16,
10,
13,
22,
28,
24,
13,
11,
21,
26,
25,
16,
12,
15,
23,
24,
18,
11,
9,
16,
21,
17,
10,
6,
7,
12,
13,
8,
3,
-1,
1,
4,
6,
1,
-6,
-8,
-5,
0,
-3,
-9,
-15,
-14,
-10,
-10,
-13,
-20,
-21,
-16,
-13,
-18,
-27,
-28,
-24,
-17,
-22,
-31,
-32,
-28,
-22,
-25,
-34,
-34,
-29,
-25,
-26,
-34,
-36,
-31,
-25,
-26,
-34,
-37,
-31,
-23,
-24,
-31,
-34,
-29,
-19,
-18,
-26,
-28,
-26,
-18,
-12,
-15,
-19,
-21,
-18,
-11,
-9,
-10,
-12,
-11,
-9,
-4,
1,
-1,
-5,
-7,
-1,
8,
9,
3,
-3,
1,
13,
18,
13,
2,
2,
14,
25,
24,
8,
3,
14,
28,
30,
16,
7,
11,
25,
32,
24,
12,
11,
18,
27,
25,
14,
10,
17,
21,
23,
16,
13,
12,
14,
16,
14,
11,
7,
7,
9,
8,
7,
4,
1,
0,
1,
2,
0,
-4,
-10,
-10,
-6,
-5,
-9,
-14,
-15,
-13,
-11,
-14,
-20,
-20,
-21,
-21,
-20,
-25,
-24,
-24,
-27,
-27,
-27,
-27,
-26,
-29,
-34,
-34,
-29,
-27,
-28,
-33,
-36,
-31,
-25,
-25,
-32,
-36,
-31,
-24,
-21,
-27,
-35,
-34,
-24,
-16,
-18,
-26,
-31,
-24,
-14,
-11,
-15,
-23,
-20,
-13,
-5,
-5,
-11,
-15,
-10,
-1,
1,
-2,
-5,
-5,
2,
8,
8,
4,
0,
4,
12,
16,
12,
7,
9,
14,
18,
18,
16,
11,
15,
20,
20,
20,
15,
15,
21,
20,
21,
18,
16,
18,
20,
22,
19,
16,
17,
17,
20,
16,
12,
13,
15,
16,
12,
6,
5,
9,
11,
8,
1,
-1,
4,
6,
4,
-5,
-9,
-5,
1,
0,
-13,
-19,
-14,
-6,
-6,
-16,
-25,
-24,
-15,
-11,
-16,
-27,
-31,
-25,
-15,
-18,
-28,
-35,
-32,
-24,
-22,
-26,
-35,
-35,
-31,
-27,
-25,
-30,
-34,
-36,
-32,
-26,
-23,
-28,
-37,
-34,
-25,
-18,
-21,
-32,
-35,
-26,
-13,
-12,
-23,
-33,
-28,
-12,
-4,
-12,
-23,
-24,
-10,
0,
-3,
-11,
-17,
-7,
4,
5,
-3,
-8,
-1,
7,
9,
5,
2,
5,
11,
12,
12,
11,
11,
14,
15,
14,
15,
18,
19,
17,
15,
18,
22,
21,
19,
16,
18,
23,
24,
20,
16,
16,
19,
21,
20,
15,
14,
16,
16,
15,
13,
13,
13,
9,
6,
8,
12,
9,
2,
-1,
0,
5,
4,
-3,
-9,
-9,
-3,
0,
-7,
-16,
-19,
-12,
-5,
-10,
-22,
-27,
-23,
-10,
-13,
-23,
-32,
-28,
-20,
-18,
-23,
-33,
-34,
-30,
-26,
-26,
-31,
-34,
-34,
-28,
-26,
-29,
-32,
-33,
-31,
-28,
-28,
-29,
-31,
-32,
-28,
-24,
-23,
-27,
-28,
-27,
-20,
-18,
-21,
-23,
-22,
-17,
-11,
-12,
-15,
-15,
-12,
-5,
-7,
-9,
-8,
-4,
-1,
0,
-3,
-2,
2,
6,
5,
4,
2,
6,
14,
14,
10,
7,
11,
17,
20,
16,
11,
12,
20,
26,
21,
15,
11,
17,
27,
28,
17,
10,
15,
23,
29,
21,
11,
10,
16,
26,
24,
13,
3,
7,
19,
22,
13,
4,
0,
5,
13,
11,
4,
-4,
-2,
2,
6,
1,
-9,
-13,
-9,
-1,
-3,
-11,
-18,
-19,
-11,
-8,
-11,
-20,
-29,
-23,
-14,
-13,
-22,
-32,
-33,
-25,
-16,
-21,
-32,
-36,
-31,
-22,
-24,
-31,
-38,
-37,
-27,
-24,
-30,
-36,
-35,
-28,
-25,
-27,
-31,
-32,
-27,
-23,
-25,
-27,
-25,
-21,
-21,
-20,
-23,
-21,
-15,
-14,
-18,
-18,
-13,
-8,
-9,
-13,
-13,
-8,
-1,
-1,
-3,
-5,
-3,
1,
5,
5,
5,
4,
7,
8,
11,
12,
13,
12,
9,
13,
18,
21,
17,
14,
15,
20,
26,
21,
13,
13,
19,
27,
26,
16,
10,
15,
27,
29,
17,
8,
11,
20,
25,
17,
7,
5,
14,
19,
16,
6,
1,
5,
10,
9,
1,
-1,
3,
1,
1,
-5,
-7,
-4,
-7,
-8,
-10,
-11,
-12,
-14,
-15,
-19,
-15,
-16,
-19,
-22,
-24,
-22,
-21,
-24,
-27,
-29,
-28,
-26,
-27,
-30,
-32,
-28,
-28,
-30,
-29,
-31,
-27,
-28,
-33,
-33,
-29,
-25,
-25,
-31,
-35,
-31,
-21,
-18,
-27,
-33,
-31,
-18,
-13,
-19,
-27,
-27,
-16,
-7,
-9,
-18,
-22,
-15,
-3,
0,
-7,
-14,
-12,
0,
7,
4,
-5,
-7,
0,
10,
16,
8,
1,
1,
12,
21,
15,
9,
7,
10,
23,
25,
19,
10,
10,
18,
29,
25,
16,
12,
16,
25,
28,
22,
13,
11,
20,
26,
24,
17,
9,
11,
19,
22,
16,
8,
5,
9,
17,
15,
7,
1,
1,
6,
9,
4,
-5,
-5,
0,
8,
