5-grundlagen-opAmps/data/ALL0003/A0003CH2.CSV

Memory Length,4000,
Trigger Level,0.00000e+00,
Source,CH2,
Probe,1.0X,
Vertical Units,V,
Vertical Scale,5.00000e-02,
Vertical Position,0.00000e+00,
Horizontal Units,S,
Horizontal Scale,1.00000e-07,
Horizontal Position,1.0000000e-07,
Horizontal Mode,Main,
Sampling Period,2.00000e-09,
Firmware,V1.14,
Time, ,
Mode,Fast,
Waveform Data,
23,
23,
25,
24,
23,
24,
27,
27,
25,
24,
25,
27,
30,
26,
25,
22,
27,
30,
29,
25,
22,
23,
27,
29,
23,
16,
15,
19,
22,
18,
13,
9,
11,
15,
14,
10,
3,
4,
9,
11,
6,
-3,
-5,
-2,
-1,
-1,
-7,
-13,
-10,
-9,
-8,
-11,
-16,
-18,
-16,
-14,
-15,
-18,
-25,
-23,
-20,
-21,
-23,
-27,
-29,
-26,
-25,
-25,
-27,
-28,
-31,
-26,
-24,
-22,
-26,
-29,
-27,
-23,
-23,
-22,
-26,
-27,
-23,
-21,
-18,
-21,
-22,
-18,
-15,
-13,
-16,
-14,
-12,
-8,
-7,
-7,
-7,
-6,
-3,
0,
-2,
-2,
1,
5,
7,
5,
5,
9,
14,
16,
13,
13,
16,
20,
19,
18,
16,
18,
25,
26,
24,
21,
24,
26,
28,
27,
25,
26,
27,
29,
29,
27,
26,
26,
25,
26,
26,
24,
22,
23,
21,
22,
25,
22,
19,
17,
17,
21,
19,
12,
7,
9,
14,
11,
4,
1,
2,
6,
6,
0,
-4,
-5,
-1,
1,
-4,
-10,
-13,
-10,
-8,
-12,
-18,
-19,
-15,
-16,
-19,
-22,
-22,
-20,
-20,
-21,
-25,
-26,
-25,
-23,
-25,
-28,
-31,
-26,
-26,
-27,
-31,
-29,
-27,
-23,
-24,
-26,
-27,
-25,
-22,
-20,
-21,
-20,
-21,
-19,
-18,
-17,
-17,
-15,
-17,
-15,
-12,
-6,
-7,
-10,
-9,
-5,
2,
4,
-1,
-3,
1,
9,
10,
7,
2,
4,
12,
18,
16,
11,
10,
16,
24,
24,
18,
15,
19,
26,
30,
27,
21,
20,
27,
31,
30,
24,
21,
25,
28,
28,
26,
24,
23,
26,
29,
28,
23,
21,
20,
25,
25,
23,
17,
15,
16,
18,
17,
14,
10,
8,
11,
11,
10,
5,
2,
3,
5,
2,
-3,
-6,
-5,
-4,
-6,
-7,
-12,
-14,
-13,
-11,
-14,
-16,
-19,
-17,
-17,
-19,
-23,
-24,
-21,
-21,
-23,
-25,
-27,
-27,
-25,
-25,
-27,
-29,
-28,
-24,
-23,
-26,
-27,
-26,
-22,
-21,
-26,
-29,
-26,
-22,
-20,
-18,
-22,
-25,
-20,
-15,
-13,
-15,
-17,
-13,
-8,
-6,
-7,
-8,
-6,
-3,
0,
-1,
-1,
0,
-1,
3,
5,
6,
8,
9,
11,
15,
17,
17,
17,
16,
17,
21,
23,
20,
19,
19,
24,
26,
25,
24,
23,
25,
29,
30,
26,
25,
27,
30,
27,
25,
21,
24,
27,
26,
20,
19,
22,
24,
23,
20,
16,
18,
20,
19,
15,
11,
13,
15,
10,
5,
1,
3,
5,
4,
-1,
-4,
-1,
0,
-3,
-6,
-9,
-10,
-7,
-8,
-12,
-17,
-18,
-17,
-18,
-18,
-21,
-21,
-24,
-23,
-23,
-23,
-21,
-27,
-30,
-27,
-24,
-23,
-27,
-31,
-30,
-24,
-21,
-24,
-30,
-32,
-26,
-19,
-20,
-27,
-31,
-26,
-16,
-15,
-21,
-23,
-22,
-14,
-10,
-12,
-17,
-16,
-12,
-5,
-5,
-8,
-11,
-7,
-1,
1,
-1,
0,
2,
5,
9,
10,
11,
10,
11,
13,
16,
17,
16,
15,
16,
19,
23,
24,
22,
21,
24,
27,
29,
26,
25,
26,
28,
29,
28,
25,
24,
26,
28,
26,
23,
23,
25,
27,
25,
21,
20,
22,
24,
21,
17,
17,
17,
17,
12,
8,
7,
9,
11,
8,
4,
1,
2,
6,
4,
-1,
-5,
-4,
-3,
-4,
-9,
-12,
-13,
-13,
-11,
-13,
-18,
-20,
-20,
-16,
-15,
-21,
-24,
-24,
-21,
-21,
-22,
-28,
-29,
-27,
-26,
-25,
-25,
-28,
-31,
-29,
-24,
-25,
-26,
-27,
-26,
-24,
-23,
-22,
-22,
-23,
-23,
-21,
-19,
-19,
-21,
-20,
-16,
-13,
-12,
-12,
-11,
-8,
-6,
-4,
-3,
-4,
-3,
1,
2,
2,
2,
4,
7,
8,
7,
9,
12,
16,
16,
15,
16,
19,
23,
24,
19,
18,
22,
26,
27,
23,
19,
22,
27,
30,
26,
24,
24,
28,
31,
29,
25,
23,
25,
28,
27,
22,
18,
19,
22,
22,
20,
17,
16,
16,
17,
18,
16,
12,
9,
9,
10,
11,
5,
0,
-3,
0,
2,
1,
-6,
-11,
-8,
-3,
-2,
-10,
-18,
-16,
-10,
-9,
-16,
-23,
-25,
-19,
-15,
-19,
-27,
-30,
-26,
-21,
-20,
-26,
-31,
-30,
-24,
-22,
-27,
-30,
-28,
-24,
-23,
-24,
-27,
-26,
-25,
-25,
-25,
-22,
-23,
-22,
-22,
-21,
-20,
-16,
-16,
-15,
-14,
-11,
-9,
-10,
-10,
-9,
-6,
-4,
-4,
-4,
-3,
-1,
1,
3,
3,
4,
8,
13,
13,
11,
12,
16,
19,
18,
14,
16,
19,
24,
23,
19,
19,
23,
29,
29,
25,
23,
26,
31,
33,
27,
24,
25,
28,
29,
26,
22,
22,
24,
27,
26,
23,
21,
20,
24,
24,
22,
18,
16,
15,
16,
15,
13,
10,
6,
6,
8,
7,
4,
-1,
0,
1,
3,
-2,
-4,
-7,
-7,
-7,
-8,
-13,
-16,
-17,
-15,
-14,
-18,
-21,
-21,
-21,
-19,
-20,
-23,
-22,
-23,
-23,
-24,
-25,
-27,
-27,
-26,
-28,
-27,
-27,
-25,
-25,
-26,
-27,
-25,
-23,
-21,
-22,
-23,
-22,
-20,
-17,
-17,
-19,
-22,
-19,
-13,
-12,
-14,
-16,
-13,
-6,
-4,
-4,
-5,
-5,
-1,
3,
5,
3,
1,
2,
7,
12,
10,
7,
8,
14,
17,
17,
19,
17,
17,
21,
25,
25,
22,
20,
24,
27,
28,
26,
19,
23,
26,
30,
30,
24,
20,
23,
29,
31,
27,
21,
19,
25,
31,
25,
20,
16,
19,
25,
23,
15,
10,
11,
17,
18,
12,
5,
7,
10,
11,
5,
1,
2,
2,
1,
-1,
-6,
-8,
-7,
-7,
-8,
-13,
-14,
-13,
-13,
-15,
-18,
-17,
-17,
-17,
-21,
-21,
-22,
-23,
-24,
-25,
-25,
-25,
-26,
-26,
-28,
-26,
-25,
-25,
-27,
-26,
-23,
-23,
-24,
-26,
-30,
-23,
-19,
-20,
-24,
-26,
-22,
-16,
-16,
-19,
-21,
-17,
-10,
-5,
-9,
-13,
-11,
-5,
0,
-2,
-7,
-6,
-1,
4,
4,
2,
2,
6,
11,
14,
13,
11,
12,
15,
18,
20,
18,
19,
20,
19,
25,
22,
24,
23,
23,
25,
28,
27,
27,
27,
26,
28,
30,
28,
25,
25,
26,
28,
27,
21,
20,
25,
24,
23,
19,
19,
19,
20,
17,
16,
15,
16,
14,
11,
8,
7,
7,
8,
4,
0,
-1,
1,
2,
-1,
-7,
-7,
-4,
-4,
-8,
-13,
-15,
-14,
-12,
-14,
-19,
-23,
-22,
-17,
-20,
-22,
-27,
-25,
-22,
-21,
-23,
-28,
-29,
-28,
-24,
-23,
-24,
-28,
-31,
-25,
-23,
-23,
-27,
-29,
-26,
-22,
-22,
-21,
-24,
-23,
-20,
-16,
-13,
-16,
-19,
-17,
-12,
-8,
-9,
-10,
-12,
-8,
-3,
-1,
-3,
-5,
-3,
4,
7,
6,
5,
4,
9,
15,
15,
12,
11,
13,
17,
20,
17,
16,
17,
23,
25,
24,
23,
23,
27,
28,
27,
26,
25,
27,
28,
28,
24,
23,
25,
28,
26,
24,
21,
25,
26,
25,
23,
20,
20,
23,
20,
18,
15,
14,
13,
15,
13,
10,
7,
6,
7,
6,
5,
5,
0,
-1,
-1,
-1,
-3,
-10,
-12,
-11,
-6,
-8,
-16,
-18,
-19,
-14,
-13,
-17,
-24,
-26,
-21,
-15,
-20,
-28,
-29,
-27,
-21,
-21,
-32,
-33,
-30,
-23,
-24,
-30,
-31,
-29,
-25,
-21,
-22,
-26,
-26,
-23,
-21,
-21,
-23,
-23,
-21,
-18,
-19,
-17,
-16,
-14,
-15,
-13,
-8,
-6,
-5,
-5,
-5,
-4,
-1,
1,
0,
0,
1,
6,
7,
7,
7,
9,
14,
16,
14,
16,
18,
20,
19,
19,
19,
21,
25,
26,
22,
22,
26,
28,
26,
23,
25,
27,
32,
30,
25,
24,
27,
32,
29,
25,
19,
22,
26,
27,
20,
17,
16,
22,
25,
19,
13,
11,
16,
18,
15,
9,
4,
4,
7,
5,
2,
-1,
-3,
-1,
-1,
-3,
-5,
-7,
-8,
-10,
-8,
-9,
-13,
-17,
-19,
-16,
-15,
-17,
-23,
-25,
-22,
-20,
-21,
-26,
-29,
-27,
-24,
-23,
-25,
-29,
-31,
-25,
-21,
-25,
-31,
-30,
-26,
-22,
-23,
-28,
-27,
-24,
-21,
-19,
-21,
-22,
-20,
-17,
-14,
-16,
-18,
-13,
-10,
-9,
-11,
-11,
-9,
-5,
-3,
-4,
-4,
-4,
-1,
3,
6,
6,
5,
8,
12,
13,
13,
12,
13,
16,
18,
19,
18,
17,
19,
24,
25,
23,
23,
22,
26,
30,
28,
27,
25,
25,
29,
31,
27,
23,
23,
25,
27,
27,
23,
19,
20,
25,
26,
23,
18,
16,
17,
22,
20,
12,
7,
8,
13,
14,
6,
1,
0,
4,
7,
3,
-1,
-4,
-2,
-2,
-2,
-8,
-12,
-10,
-9,
-11,
-16,
-17,
-17,
-18,
-19,
-19,
-19,
-20,
-21,
-23,
-22,
-23,
-25,
-25,
-27,
-27,
-27,
-25,
-28,
-29,
-31,
-28,
-23,
-25,
-27,
-26,
-25,
-22,
-23,
-22,
-23,
-21,
-21,
-21,
-20,
-19,
-16,
-15,
-16,
-16,
-13,
-8,
-7,
-9,
-10,
-6,
0,
1,
-3,
-4,
0,
6,
8,
7,
2,
4,
11,
16,
15,
10,
12,
17,
23,
22,
18,
18,
21,
26,
27,
21,
21,
22,
25,
29,
26,
24,
25,
27,
27,
26,
25,
25,
26,
26,
26,
27,
27,
24,
21,
24,
24,
21,
18,
17,
15,
18,
17,
15,
10,
9,
12,
14,
9,
4,
1,
5,
7,
4,
-4,
-5,
-4,
-2,
-5,
-11,
-13,
-11,
-9,
-10,
-16,
-18,
-17,
-15,
-14,
-20,
-24,
-22,
-18,
-20,
-27,
-31,
-29,
-24,
-23,
-25,
-30,
-30,
-25,
-23,
-25,
-26,
-31,
-27,
-24,
-22,
-25,
-26,
-27,
-25,
-22,
-19,
-21,
-22,
-22,
-16,
-13,
-13,
-15,
-15,
-12,
-7,
-7,
-6,
-8,
-7,
-3,
1,
2,
-3,
-4,
1,
8,
12,
9,
7,
8,
13,
17,
17,
15,
15,
17,
24,
23,
19,
17,
20,
24,
26,
27,
24,
24,
26,
29,
31,
27,
26,
27,
27,
27,
26,
25,
24,
24,
24,
24,
23,
23,
21,
21,
20,
19,
19,
17,
18,
15,
15,
12,
12,
8,
6,
5,
6,
6,
4,
0,
-1,
-1,
-1,
-4,
-5,
-7,
-8,
-8,
-10,
-12,
-13,
-17,
-17,
-18,
-19,
-19,
-19,
-21,
-24,
-23,
-21,
-20,
-25,
-31,
-29,
-24,
-22,
-27,
-31,
-31,
-26,
-23,
-24,
-30,
-32,
-27,
-21,
-20,
-26,
-30,
-25,
-17,
-15,
-20,
-24,
-21,
-16,
-13,
-14,
-17,
-16,
-13,
-7,
-6,
-8,
-7,
-5,
-1,
0,
1,
2,
4,
6,
5,
7,
9,
10,
9,
11,
11,
16,
16,
17,
19,
20,
23,
24,
22,
20,
25,
27,
27,
24,
21,
25,
30,
27,
25,
25,
25,
27,
28,
24,
22,
24,
29,
30,
23,
18,
19,
27,
26,
20,
13,
15,
19,
20,
13,
7,
6,
11,
13,
10,
3,
-1,
3,
7,
4,
1,
-6,
-4,
-2,
-4,
-8,
-12,
-15,
-13,
-12,
-13,
-16,
-19,
-21,
-17,
-16,
-17,
-21,
-24,
-24,
-22,
-19,
-24,
-28,
-31,
-29,
-22,
-22,
-28,
-34,
-30,
-23,
-21,
-24,
-29,
-29,
-23,
-19,
-20,
-26,
-27,
-23,
-19,
-16,
-20,
-23,
-22,
-14,
-12,
-14,
-13,
-10,
-8,
-6,
-4,
-5,
-4,
-1,
-1,
1,
1,
1,
5,
5,
9,
9,
10,
12,
13,
15,
16,
17,
19,
19,
20,
19,
19,
23,
25,
24,
23,
25,
25,
27,
27,
27,
27,
27,
27,
28,
28,
27,
24,
25,
26,
25,
24,
20,
20,
20,
22,
21,
19,
16,
15,
15,
18,
17,
14,
9,
9,
11,
11,
7,
2,
-1,
1,
3,
2,
-3,
-8,
-7,
-3,
-4,
-10,
-15,
-14,
-10,
-12,
-16,
-19,
-21,
-18,
-18,
-20,
-24,
-26,
-24,
-21,
-21,
-25,
-29,
-27,
-25,
-24,
-30,
-27,
-27,
-25,
-26,
-26,
-26,
-25,
-25,
-25,
-26,
-25,
-23,
-22,
-22,
-22,
-20,
-18,
-15,
-16,
-17,
-13,
-12,
-12,
-12,
-9,
-6,
-6,
-6,
-5,
-4,
0,
1,
0,
0,
3,
9,
13,
10,
7,
10,
15,
19,
17,
12,
12,
19,
25,
22,
17,
16,
21,
29,
29,
25,
21,
25,
30,
32,
26,
23,
24,
26,
31,
26,
24,
21,
22,
26,
27,
24,
21,
19,
20,
23,
22,
19,
16,
12,
14,
17,
15,
8,
4,
5,
8,
11,
6,
-2,
-3,
1,
5,
1,
-7,
-10,
-9,
-5,
-5,
-13,
-18,
-17,
-13,
-12,
-18,
-23,
-23,
-19,
-17,
-22,
-25,
-25,
-22,
-23,
-25,
-27,
-28,
-25,
-25,
-27,
-28,
-29,
-26,
-25,
-26,
-27,
-26,
-23,
-22,
-23,
-25,
-24,
-20,
-20,
-20,
-21,
-20,
-18,
-16,
-15,
-15,
-14,
-11,
-8,
-7,
-6,
-4,
-4,
-4,
-2,
2,
3,
3,
1,
3,
6,
10,
10,
8,
10,
13,
18,
19,
16,
17,
19,
24,
26,
24,
20,
20,
26,
26,
27,
24,
23,
25,
28,
30,
25,
23,
26,
28,
31,
26,
25,
22,
26,
26,
25,
23,
20,
20,
21,
20,
16,
13,
14,
16,
15,
12,
11,
10,
10,
7,
4,
5,
4,
3,
1,
-2,
-6,
-5,
-5,
-6,
-9,
-14,
-12,
-12,
-12,
-15,
-19,
-19,
-17,
-17,
-20,
-21,
-23,
-25,
-24,
-23,
-24,
-26,
-29,
-30,
-25,
-23,
-25,
-28,
-29,
-26,
-23,
-22,
-26,
-29,
-30,
-21,
-19,
-22,
-27,
-30,
-23,
-16,
-17,
-19,
-22,
-19,
-9,
-7,
-9,
-14,
-15,
-7,
-1,
-2,
-7,
-6,
-2,
2,
3,
3,
0,
4,
10,
13,
12,
12,
11,
12,
18,
19,
18,
18,
18,
18,
23,
25,
23,
21,
21,
27,
31,
28,
27,
25,
25,
32,
32,
28,
24,
22,
27,
29,
24,
19,
19,
25,
26,
24,
17,
18,
19,
22,
17,
14,
15,
16,
15,
11,
7,
6,
7,
9,
3,
0,
-1,
3,
3,
-1,
-7,
-6,
-4,
-3,
-7,
-13,
-14,
-12,
-13,
-15,
-18,
-20,
-21,
-18,
-20,
-21,
-23,
-22,
-22,
-23,
-23,
-25,
-26,
-27,
-27,
-29,
-26,
-26,
-30,
-30,
-28,
-25,
-24,
-25,
-28,
-26,
-21,
-16,
-20,
-23,
-23,
-18,
-14,
-15,
-21,
-20,
-15,
-9,
-10,
-12,
-13,
-9,
-4,
-1,
-3,
-3,
-1,
3,
4,
4,
2,
5,
8,
10,
10,
10,
11,
14,
17,
17,
17,
19,
23,
24,
23,
22,
25,
26,
27,
26,
25,
24,
26,
27,
28,
27,
25,
24,
27,
28,
27,
24,
25,
25,
26,
26,
23,
20,
21,
22,
21,
20,
15,
12,
11,
14,
15,
11,
6,
6,
9,
10,
7,
2,
-2,
1,
3,
2,
-4,
-10,
-12,
-8,
-5,
-10,
-18,
-21,
-16,
-13,
-14,
-17,
-24,
-24,
-18,
-16,
-21,
-28,
-29,
-25,
-20,
-22,
-31,
-34,
-29,
-25,
-23,
-27,
-30,
-29,
-25,
-21,
-22,
-25,
-26,
-25,
-21,
-20,
-23,
-23,
-22,
-20,
-20,
-16,
-16,
-16,
-15,
-12,
-8,
-6,
-8,
-8,
-5,
-3,
-1,
-1,
-2,
0,
1,
6,
6,
6,
7,
11,
15,
15,
12,
14,
16,
20,
20,
18,
18,
20,
24,
25,
19,
20,
25,
28,
28,
24,
24,
27,
31,
31,
26,
23,
25,
28,
28,
25,
20,
20,
25,
27,
23,
18,
17,
21,
23,
19,
16,
15,
15,
15,
13,
11,
7,
8,
5,
3,
4,
4,
1,
-2,
-4,
-1,
-2,
-4,
-8,
-12,
-11,
-7,
-9,
-16,
-21,
-18,
-14,
-15,
-23,
-25,
-25,
-20,
-20,
-24,
-27,
-26,
-23,
-22,
-25,
-30,
-31,
-25,
-23,
-26,
-31,
-29,
-25,
-24,
-27,
-30,
-28,
-23,
-23,
-24,
-25,
-22,
-17,
-15,
-17,
-18,
-18,
-13,
-10,
-10,
-12,
-12,
-8,
-6,
-6,
-5,
-5,
-2,
1,
4,
5,
5,
5,
8,
11,
11,
13,
12,
11,
15,
17,
19,
18,
15,
17,
20,
26,
25,
21,
20,
25,
31,
30,
27,
23,
24,
29,
32,
27,
20,
19,
26,
31,
29,
21,
18,
22,
25,
26,
22,
17,
17,
20,
22,
18,
12,
8,
10,
12,
13,
7,
3,
3,
5,
5,
5,
0,
-4,
-3,
-1,
-3,
-7,
-12,
-12,
-9,
-10,
-13,
-14,
-17,
-18,
-17,
-17,
-19,
-21,
-23,
-22,
-21,
-23,
-23,
-27,
-27,
-25,
-26,
-29,
-29,
-28,
-27,
-25,
-28,
-28,
-27,
-24,
-21,
-23,
-26,
-24,
-22,
-19,
-20,
-23,
-22,
-19,
-16,
-16,
-19,
-18,
-13,
-8,
-6,
-9,
-11,
-7,
-1,
1,
-3,
-4,
-2,
3,
7,
8,
3,
3,
8,
13,
16,
12,
12,
15,
19,
21,
19,
19,
19,
22,
24,
23,
24,
22,
24,
26,
25,
26,
27,
26,
25,
26,
29,
29,
27,
25,
24,
27,
27,
24,
18,
18,
22,
23,
22,
17,
14,
17,
20,
18,
12,
11,
11,
14,
10,
6,
1,
3,
3,
1,
-3,
-4,
-1,
-4,
-7,
-9,
-9,
-7,
-7,
-11,
-16,
-17,
-15,
-14,
-18,
-23,
-25,
-20,
-17,
-20,
-27,
-32,
-26,
-22,
-23,
-26,
-30,
-29,
-26,
-23,
-26,
-28,
-30,
-26,
-25,
-23,
-26,
-26,
-26,
-25,
-22,
-18,
-21,
-23,
-23,
-19,
-13,
-12,
-15,
-16,
-15,
-8,
-5,
-6,
-12,
-11,
-4,
1,
1,
-4,
-6,
0,
7,
10,
7,
3,
7,
15,
16,
16,
12,
13,
19,
21,
19,
17,
17,
21,
24,
24,
25,
24,
24,
26,
29,
29,
28,
27,
26,
28,
28,
26,
25,
24,
23,
24,
25,
24,
22,
22,
21,
23,
22,
19,
17,
18,
17,
16,
12,
10,
10,
10,
7,
5,
2,
2,
2,
2,
-1,
-4,
-4,
-2,
-3,
-7,
-12,
-12,
-10,
-10,
-16,
-19,
-19,
-18,
-17,
-18,
-22,
-24,
-23,
-21,
-18,
-24,
-31,
-28,
-25,
-22,
-26,
-32,
-33,
-28,
-25,
-24,
-28,
-31,
-30,
-23,
-22,
-23,
-25,
-25,
-22,
-19,
-19,
-21,
-22,
-20,
-17,
-15,
-14,
-16,
-15,
-11,
-7,
-6,
-6,
-5,
-5,
-2,
1,
3,
3,
2,
3,
6,
9,
9,
7,
9,
11,
15,
18,
17,
16,
18,
21,
23,
23,
22,
25,
25,
25,
24,
24,
26,
26,
26,
25,
25,
27,
26,
27,
26,
23,
26,
28,
27,
23,
21,
23,
27,
25,
19,
15,
16,
20,
19,
13,
9,
8,
13,
14,
10,
3,
2,
5,
9,
5,
0,
-5,
-4,
-4,
-4,
-7,
-10,
-12,
-12,
-12,
-12,
-14,
-16,
-19,
-19,
-16,
-16,
-21,
-24,
-25,
-22,
-19,
-23,
-29,
-32,
-30,
-22,
-22,
-29,
-35,
-31,
-22,
-20,
-26,
-30,
-30,
-22,
-19,
-22,
-27,
-28,
-23,
-17,
-17,
-22,
-23,
-19,
-13,
-14,
-16,
-15,
-9,
-6,
-6,
-6,
-6,
-4,
-3,
-3,
-2,
-1,
1,
3,
4,
5,
7,
10,
12,
13,
14,
16,
16,
18,
17,
19,
20,
21,
20,
20,
24,
25,
27,
25,
23,
25,
29,
31,
26,
23,
26,
29,
31,
26,
20,
22,
26,
28,
25,
20,
17,
21,
26,
25,
17,
12,
15,
19,
19,
13,
7,
7,
10,
12,
7,
2,
0,
1,
3,
2,
-3,
-6,
-7,
-4,
-4,
-6,
-12,
-12,
-13,
-13,
-14,
-16,
-20,
-20,
-21,
-17,
-19,
-23,
-23,
-26,
-22,
-23,
-25,
-25,
-27,
-28,
-26,
-24,
-25,
-28,
-27,
-27,
-24,
-24,
-26,
-26,
-26,
-23,
-24,
-22,
-22,
-22,
-20,
-19,
-16,
-15,
-16,
-14,
-15,
-14,
-12,
-9,
-7,
-8,
-8,
-6,
-3,
2,
0,
-1,
2,
6,
10,
11,
8,
8,
11,
15,
17,
16,
11,
13,
19,
23,
21,
17,
18,
22,
29,
31,
26,
23,
25,
31,
32,
26,
25,
24,
26,
28,
27,
25,
23,
23,
25,
27,
26,
22,
20,
21,
23,
24,
19,
16,
12,
15,
17,
15,
11,
5,
7,
10,
11,
5,
-1,
0,
3,
4,
0,
-6,
-9,
-7,
-4,
-6,
-13,
-16,
-15,
-12,
-12,
-18,
-22,
-19,
-16,
-16,
-23,
-24,
-25,
-20,
-23,
-26,
-28,
-30,
-25,
-25,
-27,
-30,
-31,
-25,
-24,
-26,
-29,
-26,
-24,
-22,
-23,
-24,
-25,
-23,
-22,
-19,
-21,
-20,
-19,
-20,
-16,
-13,
-13,
-11,
-13,
-10,
-5,
-2,
-2,
-7,
-5,
0,
5,
4,
-2,
-1,
4,
13,
13,
7,
7,
11,
19,
22,
17,
13,
15,
24,
26,
22,
17,
17,
24,
27,
28,
25,
22,
25,
29,
30,
27,
25,
26,
29,
27,
26,
25,
24,
24,
24,
21,
24,
23,
20,
19,
18,
20,
19,
15,
15,
14,
14,
14,
11,
8,
6,
6,
7,
3,
0,
-2,
-1,
-2,
-4,
-7,
-8,
-8,
-7,
-11,
-13,
-13,
-14,
-16,
-17,
-19,
-20,
-20,
-19,
-21,
-26,
-23,
-23,
-22,
-23,
-31,
-28,
-24,
-23,
-25,
-31,
-29,
-25,
-23,
-23,
-26,
-30,
-27,
-23,
-21,
-23,
-27,
-25,
-21,
-16,
-20,
-19,
-21,
-18,
-11,
-10,
-12,
-14,
-13,
-9,
-4,
-4,
-7,
-7,
-5,
1,
2,
3,
3,
4,
8,
11,
12,
12,
12,
13,
17,
19,
17,
18,
16,
18,
23,
24,
22,
22,
20,
25,
30,
27,
26,
26,
26,
31,
30,
27,
24,
24,
27,
28,
23,
21,
25,
26,
25,
22,
17,
20,
23,
23,
18,
15,
15,
17,
16,
11,
7,
6,
10,
11,
5,
-1,
-2,
1,
5,
1,
-6,
-6,
-6,
-4,
-7,
-11,
-15,
-14,
-13,
-14,
-15,
-20,
-22,
-20,
-20,
-19,
-20,
-22,
-26,
-26,
-23,
-23,
-25,
-29,
-32,
-29,
-23,
-23,
-31,
-33,
-29,
-22,
-20,
-24,
-29,
-29,
-21,
-16,
-19,
-25,
-26,
-20,
-13,
-14,
-22,
-23,
-18,
-10,
-7,
-12,
-14,
-11,
-4,
-1,
-2,
-4,
-3,
2,
4,
4,
3,
3,
6,
7,
8,
11,
14,
15,
14,
16,
17,
20,
22,
21,
21,
22,
26,
27,
24,
23,
25,
27,
28,
26,
25,
27,
26,
26,
27,
26,
26,
27,
25,
24,
24,
24,
25,
25,
20,
19,
21,
21,
17,
12,
12,
16,
17,
13,
7,
7,
9,
12,
9,
3,
-1,
0,
3,
1,
-5,
-10,
-9,
-6,
-5,
-11,
-17,
-16,
-15,
-12,
-14,
-18,
-21,
-20,
-18,
-19,
-21,
-25,
-27,
-26,
-24,
-24,
-27,
-28,
-29,
-26,
-24,
-25,
-27,
-27,
-26,
-24,
-22,
-23,
-27,
-26,
-24,
-22,
-23,
-24,
-23,
-21,
-19,
-15,
-15,
-16,
-15,
-11,
-8,
-8,
-10,
-8,
-5,
-4,
-4,
-5,
-3,
2,
3,
4,
3,
4,
8,
13,
12,
12,
11,
14,
19,
21,
17,
16,
18,
22,
25,
23,
20,
21,
25,
31,
30,
24,
24,
27,
32,
30,
26,
23,
25,
28,
29,
27,
22,
20,
25,
27,
25,
22,
17,
20,
21,
22,
18,
16,
14,
13,
15,
15,
11,
6,
3,
5,
7,
6,
0,
-4,
-3,
0,
2,
-1,
-9,
-12,
-8,
-4,
-8,
-16,
-22,
-20,
-13,
-14,
-20,
-25,
-25,
-18,
-18,
-22,
-28,
-28,
-23,
-21,
-24,
-28,
-31,
-26,
-25,
-26,
-29,
-29,
-26,
-25,
-26,
-26,
-25,
-22,
-23,
-22,
-21,
-20,
-17,
-17,
-19,
-19,
-17,
-13,
-12,
-15,
-17,
-12,
-8,
-4,
-5,
-4,
-1,
1,
1,
3,
3,
5,
7,
7,
7,
10,
11,
13,
13,
13,
16,
20,
22,
19,
17,
23,
27,
26,
23,
20,
24,
28,
30,
25,
22,
23,
29,
33,
30,
22,
20,
26,
31,
28,
21,
20,
24,
26,
27,
23,
18,
19,
21,
20,
17,
14,
12,
13,
12,
12,
9,
7,
6,
5,
4,
5,
2,
0,
-1,
-2,
-2,
-5,
-9,
-12,
-10,
-11,
-11,
-13,
-16,
-16,
-17,
-15,
-17,
-22,
-21,
-18,
-20,
-22,
-25,
-27,
-25,
-22,
-27,
-31,
-29,
-26,
-23,
-25,
-30,
-30,
-24,
-21,
-21,
-28,
-30,
-24,
-19,
-19,
-24,
-27,
-24,
-18,
-16,
-16,
-21,
-19,
-13,
-8,
-6,
-9,
-11,
-7,
-3,
1,
-1,
-3,
-4,
1,
5,
6,
4,
3,
6,
12,
16,
16,
11,
13,
16,
21,
24,
20,
17,
18,
25,
27,
25,
22,
20,
24,
31,
31,
27,
25,
24,
28,
31,
30,
25,
22,
25,
28,
27,
22,
18,
19,
24,
26,
20,
17,
16,
18,
20,
16,
13,
9,
11,
15,
12,
6,
3,
4,
5,
2,
-1,
-2,
-2,
-2,
-4,
-6,
-8,
-7,
-7,
-10,
-13,
-16,
-15,
-14,
-18,
-20,
-23,
-21,
-20,
-22,
-25,
-28,
-24,
-22,
-25,
-24,
-27,
-26,
-27,
-27,
-26,
-26,
-26,
-29,
-27,
-26,
-25,
-24,
-26,
-26,
-25,
-21,
-20,
-22,
-23,
-21,
-15,
-12,
-14,
-15,
-16,
-10,
-6,
-6,
-9,
-12,
-7,
0,
0,
-3,
-6,
0,
7,
10,
7,
5,
8,
13,
15,
15,
12,
13,
17,
19,
18,
17,
19,
24,
24,
22,
24,
24,
27,
26,
25,
27,
28,
28,
28,
27,
25,
26,
27,
26,
23,
23,
25,
25,
24,
22,
23,
24,
22,
19,
17,
19,
18,
16,
11,
9,
11,
12,
9,
5,
2,
5,
7,
3,
-2,
-5,
-2,
1,
-1,
-10,
-16,
-13,
-7,
-7,
-15,
-20,
-21,
-16,
-14,
-17,
-24,
-25,
-21,
-18,
-17,
-26,
-31,
-30,
-24,
-21,
-28,
-31,
-33,
-28,
-24,
-25,
-28,
-30,
-30,
-25,
-21,
-21,
-24,
-26,
-24,
-20,
-18,
-18,
-22,
-22,
-17,
-13,
-12,
-15,
-18,
-13,
-7,
-3,
-5,
-7,
-6,
-3,
1,
3,
1,
-1,
1,
7,
8,
7,
5,
8,
14,
16,
17,
15,
16,
19,
20,
10,
