5-grundlagen-opAmps/data/ALL0012/A0012CH1.CSV

Memory Length,4000,
Trigger Level,0.00000e+00,
Source,CH1,
Probe,1.0X,
Vertical Units,V,
Vertical Scale,5.00000e-02,
Vertical Position,0.00000e+00,
Horizontal Units,S,
Horizontal Scale,5.00000e-07,
Horizontal Position,5.0000000e-07,
Horizontal Mode,Main,
Sampling Period,2.00000e-09,
Firmware,V1.14,
Time, ,
Mode,Fast,
Waveform Data,
-5,
-5,
-4,
-7,
-8,
-6,
-6,
-5,
-7,
-12,
-11,
-7,
-5,
-8,
-15,
-16,
-9,
-5,
-9,
-16,
-20,
-14,
-10,
-11,
-15,
-18,
-18,
-15,
-12,
-15,
-19,
-21,
-19,
-14,
-15,
-20,
-25,
-20,
-16,
-15,
-18,
-23,
-26,
-23,
-16,
-16,
-22,
-27,
-28,
-23,
-17,
-20,
-27,
-29,
-27,
-23,
-20,
-23,
-30,
-31,
-27,
-20,
-23,
-29,
-32,
-29,
-25,
-24,
-27,
-31,
-29,
-27,
-26,
-27,
-32,
-33,
-29,
-26,
-26,
-30,
-33,
-32,
-27,
-27,
-31,
-33,
-31,
-30,
-28,
-29,
-31,
-32,
-29,
-29,
-30,
-34,
-33,
-28,
-26,
-30,
-35,
-33,
-29,
-26,
-28,
-33,
-35,
-33,
-28,
-24,
-28,
-36,
-36,
-28,
-26,
-27,
-32,
-33,
-30,
-26,
-25,
-28,
-31,
-32,
-27,
-23,
-25,
-30,
-33,
-28,
-22,
-21,
-27,
-32,
-31,
-26,
-19,
-19,
-29,
-34,
-28,
-19,
-16,
-21,
-32,
-32,
-22,
-15,
-16,
-26,
-30,
-25,
-14,
-13,
-21,
-28,
-27,
-16,
-12,
-17,
-24,
-25,
-17,
-13,
-13,
-16,
-22,
-20,
-13,
-9,
-13,
-18,
-16,
-14,
-11,
-11,
-11,
-13,
-15,
-13,
-8,
-8,
-9,
-13,
-12,
-9,
-6,
-6,
-8,
-9,
-8,
-5,
-4,
-4,
-7,
-6,
-3,
-4,
-3,
-4,
-3,
0,
-2,
-4,
-3,
0,
2,
0,
-2,
-1,
2,
4,
3,
0,
0,
3,
10,
7,
0,
-2,
4,
12,
11,
4,
-1,
4,
12,
16,
11,
3,
4,
8,
17,
13,
8,
4,
8,
16,
15,
12,
8,
8,
13,
15,
16,
14,
11,
11,
16,
19,
17,
13,
12,
15,
18,
18,
16,
13,
13,
16,
21,
20,
14,
14,
16,
21,
21,
18,
16,
16,
19,
22,
20,
17,
18,
19,
22,
20,
17,
18,
21,
23,
20,
17,
18,
21,
23,
20,
18,
17,
20,
23,
22,
20,
17,
18,
24,
22,
19,
16,
17,
23,
25,
20,
16,
14,
21,
25,
21,
18,
13,
17,
24,
24,
18,
10,
12,
19,
25,
21,
14,
10,
14,
19,
22,
18,
10,
9,
16,
22,
20,
12,
7,
11,
17,
20,
16,
8,
7,
12,
18,
18,
9,
3,
7,
16,
18,
10,
3,
1,
10,
15,
16,
5,
-1,
2,
11,
15,
8,
1,
-2,
4,
11,
8,
3,
-2,
1,
5,
6,
3,
-4,
-3,
4,
1,
2,
-2,
-4,
0,
0,
-2,
-3,
-5,
-4,
-4,
-2,
-4,
-5,
-8,
-8,
-6,
-7,
-6,
-8,
-9,
-11,
-11,
-5,
-9,
-9,
-12,
-12,
-11,
-11,
-12,
-12,
-11,
-15,
-17,
-14,
-13,
-11,
-16,
-19,
-17,
-15,
-14,
-13,
-18,
-22,
-20,
-16,
-13,
-20,
-26,
-24,
-16,
-14,
-20,
-28,
-27,
-20,
-16,
-19,
-27,
-28,
-25,
-20,
-17,
-25,
-31,
-29,
-23,
-19,
-24,
-31,
-30,
-27,
-24,
-24,
-27,
-29,
-30,
-29,
-27,
-27,
-28,
-30,
-28,
-27,
-27,
-27,
-29,
-30,
-29,
-28,
-27,
-29,
-32,
-32,
-28,
-26,
-30,
-33,
-33,
-30,
-28,
-29,
-32,
-33,
-31,
-29,
-28,
-31,
-33,
-31,
-28,
-30,
-33,
-33,
-29,
-26,
-30,
-36,
-34,
-29,
-26,
-27,
-33,
-36,
-30,
-25,
-24,
-29,
-36,
-35,
-26,
-22,
-27,
-33,
-35,
-28,
-22,
-24,
-29,
-34,
-32,
-24,
-19,
-24,
-30,
-32,
-26,
-20,
-20,
-27,
-32,
-28,
-21,
-16,
-18,
-28,
-31,
-25,
-15,
-15,
-22,
-29,
-28,
-18,
-13,
-15,
-23,
-27,
-21,
-13,
-11,
-19,
-24,
-24,
-12,
-9,
-14,
-20,
-24,
-15,
-10,
-10,
-15,
-20,
-17,
-9,
-5,
-11,
-16,
-15,
-10,
-6,
-6,
-10,
-13,
-11,
-7,
-4,
-5,
-9,
-9,
-7,
-3,
-3,
-5,
-5,
-4,
-3,
-3,
-4,
-3,
-1,
-2,
0,
-1,
-1,
0,
2,
2,
1,
0,
3,
3,
4,
2,
2,
4,
4,
6,
5,
4,
4,
7,
11,
9,
5,
5,
7,
11,
12,
9,
4,
4,
11,
14,
14,
10,
6,
8,
16,
19,
13,
7,
9,
14,
19,
18,
12,
9,
13,
19,
19,
15,
10,
12,
18,
21,
17,
11,
13,
17,
22,
20,
16,
13,
17,
20,
22,
19,
15,
16,
19,
20,
19,
19,
19,
17,
19,
18,
21,
22,
19,
17,
19,
20,
21,
21,
20,
21,
19,
18,
20,
19,
18,
19,
20,
19,
20,
20,
20,
21,
18,
18,
20,
22,
19,
15,
16,
21,
22,
19,
14,
13,
18,
24,
22,
16,
10,
14,
22,
25,
15,
8,
11,
19,
25,
20,
11,
7,
13,
20,
20,
15,
7,
8,
16,
20,
17,
9,
6,
11,
17,
16,
11,
5,
5,
11,
16,
15,
6,
1,
5,
13,
14,
8,
0,
0,
6,
13,
12,
3,
-3,
0,
9,
12,
5,
-3,
-5,
3,
7,
5,
-3,
-8,
-2,
3,
4,
-1,
-7,
-6,
0,
0,
-2,
-8,
-8,
-3,
-2,
-4,
-7,
-10,
-9,
-5,
-4,
-8,
-11,
-11,
-8,
-9,
-10,
-12,
-11,
-10,
-11,
-13,
-14,
-12,
-12,
-14,
-15,
-16,
-16,
-14,
-13,
-15,
-17,
-20,
-16,
-15,
-15,
-18,
-23,
-23,
-19,
-17,
-18,
-20,
-25,
-24,
-16,
-16,
-21,
-26,
-26,
-20,
-18,
-21,
-27,
-28,
-23,
-20,
-20,
-26,
-32,
-30,
-24,
-17,
-22,
-32,
-34,
-28,
-21,
-22,
-29,
-32,
-31,
-26,
-23,
-26,
-31,
-34,
-28,
-26,
-26,
-31,
-34,
-29,
-26,
-26,
-29,
-33,
-31,
-29,
-28,
-31,
-31,
-32,
-29,
-28,
-30,
-31,
-32,
-29,
-30,
-32,
-32,
-31,
-30,
-31,
-32,
-32,
-28,
-28,
-31,
-31,
-31,
-30,
-29,
-26,
-30,
-33,
-33,
-30,
-27,
-27,
-29,
-31,
-32,
-29,
-26,
-26,
-28,
-32,
-31,
-28,
-23,
-24,
-31,
-32,
-28,
-22,
-20,
-27,
-31,
-30,
-21,
-17,
-22,
-31,
-33,
-23,
-15,
-17,
-26,
-33,
-25,
-16,
-13,
-19,
-29,
-28,
-18,
-13,
-14,
-22,
-27,
-19,
-15,
-11,
-15,
-22,
-20,
-16,
-11,
-11,
-15,
-19,
-19,
-11,
-9,
-11,
-16,
-17,
-13,
-8,
-5,
-11,
-17,
-16,
-8,
-1,
-6,
-13,
-14,
-8,
-1,
-2,
-8,
-11,
-7,
-2,
0,
-2,
-7,
-7,
0,
1,
-2,
-5,
-2,
2,
2,
0,
-3,
-1,
4,
4,
1,
0,
0,
5,
6,
4,
1,
1,
4,
8,
7,
4,
3,
8,
7,
8,
7,
5,
7,
9,
13,
9,
7,
6,
11,
14,
14,
11,
7,
7,
12,
16,
18,
13,
7,
8,
16,
20,
17,
10,
10,
13,
20,
20,
16,
12,
13,
19,
22,
20,
13,
11,
19,
23,
21,
14,
13,
17,
22,
24,
18,
15,
15,
19,
24,
22,
15,
15,
18,
23,
23,
19,
16,
16,
19,
22,
21,
20,
19,
18,
20,
20,
20,
20,
21,
20,
18,
18,
20,
21,
19,
18,
18,
19,
21,
20,
19,
18,
17,
19,
20,
20,
15,
16,
18,
22,
19,
16,
14,
15,
20,
21,
19,
14,
11,
15,
20,
20,
14,
8,
9,
16,
20,
18,
12,
7,
10,
16,
20,
14,
5,
5,
13,
19,
14,
5,
3,
7,
15,
16,
8,
1,
2,
10,
16,
11,
0,
-2,
6,
12,
10,
3,
-3,
0,
6,
9,
5,
-2,
-4,
0,
4,
5,
0,
-4,
-1,
0,
2,
0,
-4,
-7,
-6,
-3,
-2,
-3,
-8,
-8,
-4,
-1,
-4,
-10,
-11,
-9,
-5,
-5,
-11,
-12,
-12,
-8,
-7,
-10,
-15,
-15,
-10,
-9,
-12,
-16,
-15,
-12,
-11,
-15,
-19,
-16,
-13,
-12,
-16,
-20,
-21,
-16,
-10,
-15,
-23,
-26,
-20,
-13,
-15,
-22,
-27,
-24,
-18,
-16,
-21,
-26,
-25,
-22,
-19,
-19,
-26,
-28,
-26,
-23,
-21,
-25,
-29,
-29,
-26,
-23,
-24,
-25,
-31,
-32,
-26,
-20,
-24,
-30,
-35,
-30,
-24,
-23,
-28,
-33,
-34,
-28,
-24,
-24,
-31,
-36,
-32,
-28,
-25,
-31,
-37,
-33,
-27,
-26,
-30,
-32,
-32,
-30,
-28,
-28,
-30,
-32,
-32,
-30,
-29,
-32,
-32,
-31,
-30,
-32,
-30,
-31,
-29,
-31,
-32,
-31,
-28,
-28,
-30,
-30,
-31,
-30,
-27,
-25,
-28,
-32,
-32,
-28,
-25,
-26,
-29,
-31,
-30,
-27,
-25,
-26,
-27,
-29,
-27,
-26,
-22,
-25,
-29,
-27,
-24,
-20,
-21,
-27,
-28,
-27,
-20,
-16,
-22,
-28,
-27,
-19,
-14,
-16,
-24,
-28,
-22,
-16,
-10,
-14,
-23,
-26,
-19,
-9,
-11,
-19,
-25,
-19,
-11,
-8,
-12,
-18,
-19,
-14,
-7,
-8,
-16,
-19,
-13,
-7,
-6,
-11,
-15,
-13,
-7,
-4,
-5,
-10,
-12,
-9,
-3,
-2,
-6,
-10,
-9,
-3,
0,
-2,
-4,
-4,
-4,
-2,
1,
-1,
-2,
-2,
0,
3,
1,
1,
2,
3,
4,
2,
2,
2,
3,
6,
6,
5,
2,
2,
9,
12,
7,
3,
5,
11,
13,
9,
4,
4,
11,
14,
13,
8,
5,
11,
18,
17,
9,
4,
12,
19,
20,
14,
8,
9,
17,
23,
19,
12,
9,
14,
21,
22,
17,
10,
12,
17,
21,
20,
16,
14,
15,
19,
23,
20,
15,
16,
18,
22,
21,
17,
15,
16,
22,
25,
22,
16,
13,
18,
26,
25,
18,
12,
16,
23,
26,
22,
16,
15,
20,
24,
23,
20,
17,
19,
23,
21,
18,
17,
19,
21,
19,
18,
19,
20,
20,
18,
17,
19,
20,
20,
18,
15,
18,
19,
20,
19,
13,
14,
18,
19,
18,
13,
12,
16,
18,
18,
14,
11,
10,
14,
18,
17,
12,
8,
11,
13,
17,
14,
8,
6,
9,
13,
15,
10,
4,
3,
10,
15,
12,
3,
1,
5,
13,
12,
6,
-1,
1,
8,
12,
9,
-2,
-4,
3,
9,
8,
0,
-6,
-3,
3,
6,
2,
-4,
-7,
-3,
4,
1,
-4,
-8,
-7,
0,
-1,
-4,
-9,
-7,
-4,
-4,
-5,
-9,
-11,
-9,
-4,
-6,
-11,
-13,
-12,
-10,
-8,
-10,
-12,
-15,
-13,
-11,
-12,
-12,
-15,
-15,
-14,
-14,
-17,
-18,
-16,
-15,
-15,
-20,
-20,
-19,
-17,
-17,
-19,
-20,
-23,
-19,
-16,
-17,
-23,
-27,
-25,
-18,
-17,
-22,
-28,
-28,
-21,
-18,
-20,
-27,
-30,
-27,
-20,
-19,
-26,
-32,
-32,
-23,
-19,
-24,
-32,
-34,
-27,
-21,
-24,
-29,
-36,
-34,
-26,
-19,
-27,
-34,
-36,
-31,
-23,
-24,
-31,
-35,
-35,
-29,
-27,
-27,
-31,
-35,
-32,
-28,
-26,
-30,
-34,
-33,
-30,
-27,
-27,
-31,
-35,
-34,
-28,
-26,
-28,
-35,
-36,
-31,
-25,
-26,
-33,
-35,
-31,
-27,
-27,
-29,
-32,
-33,
-28,
-27,
-27,
-29,
-29,
-28,
-27,
-29,
-28,
-27,
-25,
-27,
-31,
-29,
-25,
-22,
-25,
-28,
-30,
-25,
-20,
-23,
-27,
-30,
-27,
-20,
-20,
-23,
-28,
-24,
-19,
-18,
-21,
-24,
-24,
-21,
-16,
-15,
-20,
-24,
-24,
-17,
-13,
-15,
-19,
-20,
-20,
-14,
-10,
-13,
-18,
-22,
-16,
-8,
-8,
-15,
-20,
-18,
-10,
-6,
-8,
-15,
-17,
-11,
-4,
-3,
-11,
-16,
-12,
-3,
-2,
-8,
-13,
-10,
-3,
1,
-4,
-8,
-9,
-6,
2,
1,
-4,
-6,
-4,
0,
2,
0,
-2,
-1,
1,
1,
2,
1,
1,
2,
4,
4,
2,
3,
5,
5,
5,
3,
2,
6,
7,
8,
10,
5,
7,
8,
12,
10,
9,
6,
7,
14,
13,
11,
9,
10,
12,
16,
14,
9,
8,
12,
19,
19,
11,
9,
13,
19,
22,
16,
10,
9,
18,
24,
23,
15,
9,
13,
22,
25,
18,
10,
12,
20,
26,
23,
17,
14,
18,
24,
24,
20,
12,
14,
22,
26,
24,
17,
13,
18,
25,
26,
21,
15,
15,
20,
24,
25,
19,
14,
18,
22,
25,
21,
17,
17,
18,
22,
23,
20,
17,
16,
20,
22,
22,
18,
16,
19,
19,
22,
19,
16,
15,
16,
18,
19,
15,
15,
19,
19,
18,
16,
16,
16,
17,
14,
14,
16,
17,
14,
12,
12,
13,
17,
14,
9,
8,
10,
16,
17,
9,
4,
7,
11,
14,
10,
5,
5,
8,
11,
10,
7,
1,
3,
9,
10,
5,
1,
3,
4,
7,
6,
3,
0,
-1,
2,
6,
4,
-3,
-6,
-1,
1,
5,
0,
-8,
-5,
-3,
2,
0,
-6,
-9,
-8,
0,
0,
-6,
-12,
-9,
-3,
-2,
-6,
-13,
-11,
-8,
-5,
-6,
-15,
-15,
-11,
-8,
-7,
-15,
-16,
-13,
-9,
-11,
-15,
-16,
-15,
-12,
-14,
-16,
-18,
-17,
-16,
-16,
-19,
-20,
-19,
-16,
-16,
-19,
-23,
-24,
-19,
-18,
-20,
-25,
-26,
-22,
-21,
-19,
-20,
-26,
-28,
-26,
-20,
-20,
-24,
-29,
-30,
-25,
-20,
-21,
-27,
-31,
-29,
-23,
-19,
-28,
-34,
-34,
-27,
-19,
-25,
-34,
-36,
-29,
-21,
-21,
-31,
-39,
-35,
-24,
-20,
-26,
-36,
-39,
-30,
-21,
-24,
-32,
-37,
-35,
-27,
-26,
-27,
-35,
-37,
-31,
-27,
-26,
-32,
-35,
-32,
-27,
-26,
-28,
-32,
-35,
-31,
-28,
-27,
-30,
-34,
-33,
-28,
-25,
-26,
-32,
-32,
-30,
-27,
-26,
-29,
-29,
-31,
-28,
-27,
-27,
-28,
-29,
-28,
-27,
-26,
-25,
-25,
-25,
-26,
-28,
-24,
-24,
-24,
-22,
-24,
-25,
-23,
-21,
-20,
-22,
-24,
-25,
-19,
-20,
-21,
-24,
-24,
-19,
-16,
-16,
-19,
-22,
-21,
-15,
-12,
-17,
-22,
-21,
-14,
-9,
-12,
-16,
-19,
-16,
-10,
-7,
-11,
-19,
-18,
-11,
-5,
-8,
-13,
-14,
-13,
-6,
-5,
-8,
-10,
-11,
-7,
-4,
-3,
-7,
-10,
-7,
-3,
-1,
-4,
-5,
-7,
-3,
0,
0,
-1,
-6,
-4,
2,
4,
1,
-3,
-3,
1,
6,
5,
3,
0,
3,
5,
6,
5,
1,
4,
9,
9,
3,
2,
10,
11,
10,
5,
3,
8,
14,
14,
9,
5,
8,
14,
18,
11,
8,
8,
13,
17,
12,
8,
10,
16,
19,
18,
13,
10,
13,
18,
20,
18,
12,
11,
15,
20,
21,
18,
13,
13,
19,
24,
24,
17,
11,
13,
22,
27,
21,
13,
12,
19,
28,
27,
19,
11,
14,
25,
27,
21,
11,
12,
23,
29,
25,
14,
12,
19,
28,
28,
18,
12,
14,
22,
27,
24,
17,
14,
18,
22,
25,
19,
18,
17,
19,
21,
22,
19,
15,
17,
20,
20,
19,
16,
16,
17,
19,
18,
16,
13,
16,
17,
18,
17,
13,
14,
16,
17,
15,
14,
13,
14,
14,
13,
13,
12,
13,
12,
12,
9,
11,
13,
14,
9,
6,
7,
12,
15,
9,
4,
3,
9,
12,
8,
4,
1,
4,
7,
9,
6,
-1,
-1,
4,
8,
4,
-1,
-3,
0,
5,
3,
-1,
-4,
-4,
0,
3,
0,
-5,
-8,
-3,
0,
-1,
-5,
-10,
-8,
-4,
-2,
-3,
-8,
-11,
-10,
-5,
-4,
-9,
-13,
-12,
-10,
-8,
-11,
-12,
-13,
-13,
-10,
-10,
-12,
-15,
-16,
-13,
-11,
-13,
-18,
-19,
-14,
-13,
-16,
-19,
-19,
-19,
-17,
-19,
-19,
-21,
-19,
-16,
-19,
-22,
-23,
-21,
-17,
-20,
-26,
-29,
-23,
-18,
-19,
-26,
-30,
-28,
-23,
-19,
-23,
-31,
-32,
-27,
-19,
-21,
-29,
-34,
-29,
-22,
-21,
-27,
-33,
-32,
-26,
-24,
-24,
-31,
-35,
-31,
-26,
-22,
-29,
-35,
-35,
-29,
-24,
-26,
-31,
-36,
-36,
-27,
-24,
-26,
-34,
-39,
-32,
-24,
-22,
-32,
-37,
-37,
-29,
-24,
-27,
-36,
-38,
-29,
-24,
-25,
-33,
-38,
-32,
-24,
-24,
-29,
-35,
-34,
-28,
-26,
-27,
-31,
-35,
-29,
-26,
-25,
-28,
-32,
-30,
-28,
-26,
-27,
-27,
-27,
-28,
-28,
-26,
-23,
-25,
-26,
-26,
-25,
-24,
-25,
-23,
-25,
-24,
-25,
-23,
-22,
-23,
-21,
-19,
-21,
-23,
-21,
-19,
-19,
-20,
-24,
-20,
-17,
-18,
-19,
-20,
-19,
-16,
-14,
-15,
-20,
-19,
-13,
-9,
-11,
-18,
-21,
-15,
-6,
-6,
-12,
-17,
-15,
-9,
-4,
-6,
-14,
-15,
-9,
-3,
-4,
-10,
-12,
-10,
-4,
-4,
-5,
-7,
-7,
-4,
0,
-2,
-4,
-5,
-5,
1,
1,
-1,
-3,
-4,
-1,
2,
4,
3,
-1,
-2,
3,
6,
5,
3,
3,
3,
5,
6,
7,
5,
4,
7,
7,
7,
7,
6,
9,
10,
9,
8,
9,
12,
12,
10,
9,
10,
13,
14,
12,
11,
10,
15,
17,
14,
11,
10,
16,
20,
17,
11,
11,
15,
21,
20,
16,
11,
10,
19,
24,
22,
12,
9,
17,
23,
26,
17,
12,
13,
21,
26,
23,
15,
10,
17,
25,
27,
18,
13,
15,
22,
28,
23,
16,
15,
18,
26,
25,
18,
12,
14,
23,
28,
24,
16,
12,
17,
26,
27,
22,
12,
12,
18,
26,
26,
17,
11,
17,
23,
25,
19,
13,
14,
20,
24,
19,
15,
13,
18,
21,
20,
15,
11,
16,
19,
19,
14,
12,
14,
17,
17,
14,
13,
12,
14,
15,
12,
12,
14,
14,
12,
10,
9,
12,
14,
11,
8,
7,
8,
10,
9,
9,
8,
5,
5,
7,
11,
7,
4,
2,
4,
6,
7,
4,
0,
0,
2,
6,
5,
-2,
-5,
0,
4,
5,
-2,
-7,
-5,
1,
3,
-2,
-8,
-9,
-3,
4,
-1,
-9,
-13,
-8,
0,
-2,
-8,
-13,
-11,
-6,
-4,
-5,
-13,
-15,
-13,
-9,
-7,
-12,
-14,
-13,
-13,
-12,
-15,
-14,
-14,
-16,
-15,
-15,
-13,
-16,
-19,
-18,
-17,
-16,
-18,
-20,
-20,
-19,
-18,
-19,
-19,
-22,
-22,
-23,
-20,
-21,
-21,
-23,
-23,
-23,
-25,
-24,
-23,
-23,
-26,
-28,
-26,
-22,
-23,
-28,
-31,
-29,
-24,
-20,
-24,
-31,
-33,
-28,
-23,
-23,
-31,
-36,
-32,
-24,
-22,
-29,
-34,
-34,
-28,
-24,
-26,
-34,
-37,
-32,
-24,
-23,
-30,
-38,
-35,
-29,
-23,
-26,
-34,
-38,
-34,
-27,
-23,
-29,
-36,
-38,
-31,
-25,
-26,
-32,
-37,
-33,
-27,
-25,
-27,
-34,
-36,
-29,
-23,
-26,
-33,
-36,
-33,
-25,
-24,
-28,
-34,
-35,
-28,
-24,
-23,
-30,
-35,
-30,
-23,
-21,
-26,
-32,
-30,
-26,
-24,
-25,
-27,
-28,
-25,
-20,
-21,
-25,
-27,
-26,
-19,
-21,
-25,
-25,
-23,
-19,
-19,
-24,
-24,
-22,
-18,
-16,
-19,
-21,
-21,
-16,
-15,
-18,
-21,
-20,
-15,
-13,
-15,
-17,
-18,
-15,
-12,
-11,
-12,
-16,
-16,
-10,
-8,
-10,
-14,
-13,
-11,
-7,
-5,
-8,
-11,
-13,
-8,
-2,
-3,
-7,
-14,
-10,
-3,
0,
-3,
-8,
-8,
-2,
2,
1,
-4,
-8,
-4,
3,
4,
-2,
-7,
-3,
3,
10,
3,
-2,
-1,
4,
7,
7,
2,
2,
3,
7,
9,
5,
5,
6,
7,
7,
7,
8,
9,
9,
8,
7,
11,
11,
11,
9,
10,
11,
12,
14,
12,
10,
11,
14,
14,
14,
13,
14,
14,
14,
15,
16,
16,
14,
14,
17,
19,
18,
14,
13,
16,
21,
22,
16,
12,
12,
19,
25,
23,
13,
9,
16,
25,
26,
18,
11,
14,
21,
26,
24,
15,
12,
19,
26,
26,
17,
12,
17,
24,
28,
22,
14,
15,
21,
27,
24,
18,
13,
16,
23,
26,
21,
15,
14,
16,
25,
24,
19,
14,
13,
18,
24,
23,
17,
12,
16,
21,
21,
17,
13,
14,
18,
20,
18,
12,
11,
16,
19,
18,
12,
10,
14,
18,
17,
12,
10,
12,
14,
15,
12,
10,
9,
9,
12,
11,
9,
9,
11,
11,
8,
6,
7,
10,
10,
8,
4,
4,
6,
9,
9,
5,
0,
1,
5,
8,
5,
0,
-2,
0,
4,
3,
-1,
-4,
-4,
2,
3,
0,
-6,
-8,
0,
1,
-1,
-5,
-11,
-8,
-2,
0,
-4,
-11,
-11,
-8,
-1,
-3,
-9,
-16,
-15,
-6,
-4,
-7,
-13,
-17,
-13,
-8,
-6,
-11,
-19,
-18,
-12,
-9,
-14,
-19,
-21,
-16,
-11,
-14,
-18,
-20,
-20,
-17,
-15,
-17,
-21,
-21,
-20,
-18,
-19,
-22,
-24,
-20,
-22,
-22,
-20,
-22,
-23,
-25,
-26,
-23,
-21,
-22,
-26,
-28,
-28,
-24,
-24,
-24,
-27,
-31,
-28,
-24,
-23,
-27,
-30,
-31,
-27,
-26,
-27,
-28,
-30,
-30,
-29,
-26,
-27,
-31,
-32,
-31,
-27,
-25,
-28,
-35,
-35,
-31,
-24,
-24,
-31,
-39,
-36,
-26,
-21,
-29,
-38,
-38,
-29,
-22,
-25,
-35,
-40,
-35,
-25,
-21,
-30,
-38,
-36,
-28,
-23,
-28,
-36,
-36,
-30,
-26,
-26,
-31,
-35,
-32,
-26,
-23,
-27,
-31,
-34,
-30,
-24,
-23,
-25,
-32,
-31,
-28,
-25,
-21,
-27,
-31,
-28,
-25,
-21,
-24,
-29,
-28,
-25,
-22,
-24,
-25,
-26,
-24,
-19,
-20,
-24,
-25,
-22,
-16,
-19,
-23,
-25,
-20,
-15,
-16,
-20,
-23,
-19,
-16,
-14,
-16,
-20,
-18,
-13,
-11,
-15,
-20,
-16,
-12,
-9,
-12,
-15,
-16,
-12,
-8,
-8,
-11,
-15,
-14,
-8,
-4,
-7,
-12,
-13,
-10,
-2,
-2,
-5,
-10,
-10,
-6,
0,
1,
-6,
-9,
-5,
0,
3,
-1,
-6,
-5,
0,
5,
4,
-1,
-6,
-2,
6,
9,
3,
-3,
-2,
5,
11,
8,
1,
0,
3,
9,
14,
6,
3,
3,
7,
14,
11,
8,
5,
8,
12,
13,
12,
8,
9,
11,
13,
14,
12,
12,
13,
12,
13,
14,
15,
15,
14,
12,
15,
17,
17,
15,
14,
16,
18,
19,
18,
15,
13,
17,
21,
21,
15,
13,
15,
20,
24,
21,
17,
14,
18,
23,
22,
20,
15,
15,
20,
23,
25,
18,
16,
17,
22,
24,
23,
18,
15,
18,
23,
25,
19,
14,
17,
20,
28,
24,
16,
12,
18,
25,
25,
19,
11,
13,
24,
27,
20,
12,
11,
19,
25,
22,
16,
12,
15,
20,
21,
19,
12,
12,
18,
20,
17,
14,
14,
16,
17,
16,
15,
13,
13,
14,
16,
16,
12,
9,
11,
14,
14,
12,
10,
8,
10,
11,
12,
9,
7,
8,
11,
9,
6,
4,
7,
10,
7,
3,
1,
5,
10,
8,
3,
-1,
1,
6,
10,
3,
-4,
-4,
3,
8,
2,
-5,
-8,
-2,
3,
2,
-4,
-10,
-6,
0,
4,
-5,
-11,
-11,
-4,
2,
-3,
-11,
-15,
-10,
-3,
-3,
-7,
-14,
-16,
-12,
-4,
-4,
-12,
-18,
-16,
-11,
-8,
-8,
-15,
-18,
-17,
-12,
-9,
-13,
-21,
-23,
-15,
-11,
-15,
-22,
-25,
-19,
-13,
-15,
-21,
-26,
-23,
-18,
-16,
-19,
-26,
-26,
-24,
-18,
-20,
-25,
-27,
-26,
-21,
-23,
-24,
-24,
-25,
-27,
-27,
-27,
-25,
-25,
-27,
-28,
-29,
-28,
-26,
-24,
-28,
-31,
-29,
-27,
-25,
-26,
-32,
-31,
-29,
-27,
-28,
-30,
-31,
-32,
-29,
-26,
-29,
-34,
-35,
-29,
-26,
-27,
-32,
-36,
-33,
-29,
-26,
-28,
-34,
-35,
-32,
-27,
-24,
-30,
-37,
-35,
-29,
-25,
-26,
-32,
-36,
-35,
-26,
-24,
-28,
-35,
-36,
-28,
-23,
-26,
-32,
-35,
-29,
-24,
-25,
-28,
-35,
-32,
-25,
-20,
-25,
-31,
-34,
-28,
-22,
-21,
-26,
-32,
-29,
-24,
-22,
-22,
-27,
-28,
-24,
-20,
-21,
-24,
-25,
-23,
-21,
-21,
-24,
-23,
-20,
-20,
-20,
-20,
-21,
-20,
-20,
-16,
-18,
-21,
-19,
-16,
-16,
-18,
-16,
-16,
-15,
-14,
-13,
-12,
-15,
-16,
-13,
-10,
-11,
-15,
-15,
-12,
-7,
-6,
-11,
-15,
-11,
-5,
0,
-5,
-12,
-14,
-7,
3,
0,
-10,
-15,
-7,
2,
4,
-3,
-10,
-8,
0,
6,
4,
-6,
-7,
0,
6,
6,
-1,
-4,
-1,
5,
9,
3,
0,
-1,
3,
11,
11,
6,
0,
1,
7,
13,
12,
7,
4,
3,
8,
16,
12,
5,
2,
11,
14,
17,
11,
5,
9,
14,
17,
15,
8,
10,
15,
17,
17,
11,
11,
16,
19,
18,
13,
13,
15,
17,
17,
16,
17,
15,
16,
16,
17,
18,
19,
21,
17,
14,
17,
21,
23,
18,
14,
16,
20,
25,
22,
18,
16,
18,
23,
23,
20,
17,
16,
21,
23,
22,
18,
16,
18,
20,
24,
22,
16,
15,
18,
23,
25,
18,
15,
18,
21,
26,
21,
15,
13,
17,
24,
24,
19,
11,
12,
21,
24,
20,
13,
11,
17,
21,
21,
16,
11,
13,
17,
21,
17,
13,
11,
15,
19,
15,
10,
11,
13,
17,
15,
12,
8,
9,
12,
15,
12,
6,
7,
11,
11,
10,
7,
7,
9,
9,
7,
6,
6,
7,
8,
6,
4,
2,
4,
8,
8,
2,
-1,
0,
4,
4,
3,
-1,
-3,
0,
3,
3,
-1,
-6,
-5,
-2,
1,
-1,
-7,
-8,
-5,
-1,
0,
-6,
-12,
-11,
-3,
3,
-5,
-14,
-16,
-10,
0,
-3,
-13,
-20,
-16,
-6,
-2,
-8,
-18,
-21,
-13,
-5,
-5,
-18,
-23,
-20,
-11,
-10,
-16,
-21,
-23,
-16,
-13,
-15,
-19,
-23,
-21,
-16,
-15,
-20,
-24,
-24,
-19,
-18,
-18,
-24,
-26,
-25,
-24,
-19,
-20,
-25,
-30,
-28,
-20,
-20,
-23,
-29,
-29,
-26,
-23,
-24,
-27,
-29,
-28,
-27,
-24,
-27,
-31,
-28,
-27,
-26,
-30,
-32,
-28,
-28,
-29,
-32,
-29,
-27,
-27,
-29,
-32,
-31,
-29,
-27,
-28,
-33,
-34,
-29,
-27,
-27,
-35,
-36,
-31,
-26,
-26,
-33,
-36,
-34,
-28,
-25,
-29,
-34,
-35,
-31,
-27,
-27,
-30,
-35,
-33,
-29,
-27,
-28,
-31,
-31,
-31,
-28,
-27,
-27,
-32,
-32,
-29,
-24,
-24,
-29,
-33,
-30,
-25,
-22,
-25,
-30,
-32,
-25,
-19,
-21,
-27,
-33,
-28,
-21,
-20,
-24,
-28,
-26,
-22,
-20,
-20,
-24,
-24,
-21,
-19,
-21,
-24,
