5-grundlagen-opAmps/data/ALL0012/A0012CH2.CSV

Memory Length,4000,
Trigger Level,0.00000e+00,
Source,CH2,
Probe,1.0X,
Vertical Units,V,
Vertical Scale,5.00000e-02,
Vertical Position,0.00000e+00,
Horizontal Units,S,
Horizontal Scale,5.00000e-07,
Horizontal Position,5.0000000e-07,
Horizontal Mode,Main,
Sampling Period,2.00000e-09,
Firmware,V1.14,
Time, ,
Mode,Fast,
Waveform Data,
86,
86,
87,
83,
81,
84,
87,
85,
81,
81,
82,
86,
84,
81,
78,
80,
83,
84,
80,
74,
76,
80,
81,
76,
71,
72,
74,
76,
73,
71,
69,
71,
73,
73,
70,
68,
66,
67,
67,
64,
61,
61,
61,
60,
60,
60,
57,
54,
54,
56,
57,
54,
51,
49,
50,
50,
46,
43,
42,
41,
44,
43,
39,
36,
35,
38,
39,
34,
29,
31,
30,
32,
28,
25,
23,
22,
21,
20,
17,
15,
15,
14,
14,
11,
7,
9,
10,
6,
3,
2,
2,
2,
0,
-4,
-5,
-8,
-8,
-6,
-8,
-13,
-15,
-15,
-13,
-15,
-21,
-22,
-22,
-21,
-23,
-24,
-29,
-30,
-30,
-30,
-29,
-35,
-38,
-38,
-37,
-36,
-40,
-44,
-45,
-44,
-44,
-44,
-47,
-51,
-52,
-50,
-48,
-52,
-57,
-58,
-57,
-54,
-55,
-59,
-65,
-64,
-62,
-60,
-63,
-69,
-71,
-69,
-64,
-66,
-72,
-76,
-76,
-71,
-69,
-72,
-79,
-80,
-76,
-73,
-76,
-81,
-85,
-82,
-77,
-77,
-83,
-85,
-84,
-82,
-81,
-83,
-85,
-86,
-85,
-85,
-85,
-86,
-87,
-86,
-87,
-86,
-87,
-87,
-89,
-88,
-89,
-88,
-86,
-87,
-89,
-88,
-88,
-85,
-87,
-89,
-90,
-87,
-87,
-86,
-88,
-86,
-86,
-85,
-85,
-86,
-87,
-83,
-83,
-85,
-86,
-85,
-80,
-80,
-83,
-85,
-83,
-78,
-76,
-80,
-81,
-80,
-76,
-72,
-72,
-76,
-77,
-72,
-68,
-69,
-74,
-73,
-69,
-64,
-65,
-68,
-69,
-67,
-62,
-59,
-61,
-61,
-61,
-56,
-54,
-54,
-54,
-54,
-53,
-51,
-51,
-49,
-47,
-47,
-48,
-46,
-42,
-41,
-39,
-41,
-38,
-33,
-33,
-32,
-32,
-32,
-29,
-25,
-27,
-28,
-28,
-23,
-19,
-19,
-20,
-21,
-16,
-12,
-12,
-12,
-12,
-9,
-5,
-4,
-6,
-6,
-3,
0,
2,
1,
1,
5,
8,
10,
8,
7,
11,
17,
17,
16,
15,
17,
21,
25,
23,
22,
24,
27,
31,
32,
31,
30,
33,
36,
38,
40,
38,
38,
41,
45,
47,
46,
44,
43,
50,
54,
52,
52,
50,
50,
57,
60,
59,
56,
55,
59,
65,
66,
61,
61,
63,
68,
69,
68,
66,
66,
70,
75,
75,
71,
69,
72,
77,
77,
76,
73,
75,
77,
81,
80,
79,
76,
78,
82,
84,
81,
79,
80,
83,
85,
83,
82,
82,
83,
84,
86,
84,
83,
84,
85,
87,
84,
83,
86,
86,
84,
84,
84,
84,
83,
82,
84,
84,
83,
83,
83,
82,
82,
83,
82,
82,
80,
80,
82,
80,
80,
79,
78,
79,
77,
76,
77,
75,
73,
71,
73,
73,
74,
71,
69,
68,
69,
71,
70,
64,
62,
65,
67,
66,
59,
55,
58,
61,
60,
55,
50,
52,
56,
57,
52,
48,
46,
49,
51,
48,
44,
41,
42,
43,
39,
37,
34,
35,
35,
33,
32,
32,
28,
28,
27,
24,
23,
25,
20,
18,
16,
15,
16,
15,
11,
9,
11,
11,
7,
2,
3,
5,
4,
-1,
-4,
-5,
-4,
-5,
-8,
-11,
-13,
-11,
-10,
-15,
-19,
-20,
-15,
-16,
-22,
-27,
-26,
-22,
-23,
-30,
-36,
-35,
-30,
-32,
-35,
-40,
-42,
-38,
-35,
-40,
-46,
-49,
-46,
-43,
-45,
-51,
-54,
-54,
-51,
-50,
-55,
-58,
-60,
-59,
-57,
-58,
-61,
-65,
-65,
-64,
-62,
-63,
-66,
-70,
-72,
-69,
-67,
-70,
-74,
-77,
-75,
-70,
-71,
-78,
-82,
-82,
-76,
-73,
-78,
-85,
-85,
-80,
-77,
-78,
-85,
-87,
-85,
-82,
-80,
-87,
-88,
-88,
-84,
-84,
-87,
-89,
-89,
-87,
-86,
-88,
-89,
-90,
-88,
-87,
-87,
-87,
-88,
-89,
-87,
-88,
-87,
-87,
-87,
-87,
-88,
-86,
-85,
-87,
-86,
-86,
-86,
-86,
-84,
-84,
-84,
-84,
-83,
-83,
-81,
-81,
-79,
-79,
-80,
-80,
-79,
-76,
-76,
-78,
-78,
-76,
-73,
-72,
-73,
-74,
-74,
-71,
-68,
-68,
-68,
-68,
-66,
-64,
-62,
-63,
-64,
-63,
-60,
-58,
-58,
-60,
-60,
-57,
-52,
-50,
-51,
-54,
-51,
-46,
-43,
-44,
-47,
-46,
-42,
-40,
-38,
-40,
-40,
-37,
-32,
-30,
-30,
-33,
-29,
-26,
-25,
-24,
-24,
-22,
-19,
-19,
-18,
-17,
-15,
-14,
-13,
-12,
-10,
-8,
-7,
-5,
-4,
-3,
0,
2,
2,
1,
3,
5,
8,
9,
10,
11,
13,
14,
15,
17,
18,
20,
22,
22,
23,
26,
29,
27,
26,
29,
33,
37,
34,
32,
35,
40,
42,
41,
39,
41,
45,
50,
50,
45,
44,
49,
56,
57,
52,
49,
52,
60,
61,
59,
57,
59,
61,
65,
66,
63,
61,
65,
69,
69,
68,
66,
67,
70,
73,
75,
75,
74,
72,
76,
79,
80,
76,
73,
77,
80,
82,
81,
77,
78,
82,
85,
86,
82,
77,
81,
86,
87,
83,
79,
82,
87,
88,
84,
82,
81,
86,
88,
87,
83,
83,
84,
87,
86,
82,
83,
84,
86,
83,
81,
82,
84,
83,
81,
82,
81,
82,
81,
80,
79,
80,
79,
80,
79,
76,
77,
78,
77,
75,
73,
74,
71,
70,
71,
71,
71,
69,
67,
67,
69,
68,
65,
63,
63,
62,
63,
61,
58,
54,
56,
58,
58,
52,
48,
49,
53,
53,
48,
46,
44,
46,
47,
45,
39,
36,
37,
39,
39,
34,
29,
30,
32,
31,
29,
26,
24,
24,
25,
23,
20,
16,
17,
16,
16,
13,
9,
9,
8,
8,
5,
6,
3,
2,
0,
-1,
-3,
-4,
-5,
-6,
-8,
-10,
-11,
-11,
-13,
-16,
-19,
-18,
-19,
-19,
-22,
-25,
-25,
-25,
-25,
-29,
-29,
-32,
-35,
-34,
-36,
-36,
-39,
-41,
-40,
-40,
-42,
-44,
-47,
-48,
-49,
-48,
-48,
-52,
-57,
-57,
-54,
-53,
-55,
-62,
-65,
-59,
-58,
-59,
-65,
-70,
-68,
-64,
-62,
-68,
-75,
-74,
-69,
-67,
-72,
-77,
-80,
-76,
-71,
-74,
-79,
-82,
-81,
-77,
-76,
-80,
-84,
-84,
-82,
-79,
-82,
-84,
-86,
-85,
-84,
-83,
-84,
-85,
-88,
-87,
-86,
-84,
-85,
-86,
-89,
-87,
-85,
-84,
-87,
-90,
-89,
-85,
-83,
-86,
-90,
-90,
-87,
-83,
-87,
-90,
-90,
-86,
-84,
-85,
-88,
-88,
-87,
-83,
-84,
-86,
-86,
-84,
-80,
-81,
-86,
-83,
-79,
-77,
-79,
-81,
-80,
-78,
-75,
-73,
-77,
-77,
-74,
-72,
-72,
-72,
-74,
-73,
-70,
-68,
-69,
-69,
-66,
-64,
-63,
-61,
-61,
-59,
-59,
-59,
-59,
-56,
-56,
-55,
-57,
-54,
-49,
-47,
-47,
-48,
-49,
-42,
-39,
-41,
-44,
-44,
-40,
-35,
-36,
-38,
-38,
-35,
-29,
-27,
-29,
-31,
-27,
-22,
-19,
-20,
-23,
-21,
-16,
-14,
-15,
-15,
-14,
-11,
-9,
-6,
-6,
-6,
-3,
-1,
-1,
0,
2,
3,
7,
6,
8,
10,
11,
12,
12,
14,
16,
18,
19,
20,
20,
22,
25,
27,
28,
27,
28,
30,
33,
34,
35,
37,
36,
36,
40,
43,
45,
42,
41,
46,
50,
50,
49,
48,
49,
52,
57,
57,
55,
53,
57,
61,
64,
61,
59,
60,
65,
68,
66,
64,
63,
67,
71,
74,
70,
66,
69,
75,
76,
76,
72,
73,
77,
82,
81,
77,
75,
77,
81,
82,
82,
77,
77,
82,
85,
83,
81,
81,
83,
85,
85,
84,
84,
82,
84,
86,
86,
84,
84,
84,
86,
86,
87,
83,
83,
83,
84,
86,
86,
82,
81,
83,
86,
83,
81,
80,
82,
83,
81,
80,
79,
80,
81,
81,
77,
75,
77,
79,
79,
74,
71,
75,
75,
75,
69,
67,
68,
71,
69,
67,
63,
64,
68,
69,
64,
60,
60,
63,
65,
60,
53,
54,
56,
56,
54,
51,
48,
49,
50,
49,
48,
45,
44,
46,
45,
43,
40,
38,
36,
34,
34,
35,
34,
27,
25,
28,
29,
28,
22,
20,
20,
23,
23,
17,
12,
11,
15,
16,
11,
5,
2,
7,
8,
5,
0,
-3,
0,
0,
-4,
-7,
-9,
-8,
-9,
-10,
-14,
-15,
-14,
-15,
-18,
-21,
-22,
-19,
-22,
-25,
-31,
-29,
-26,
-28,
-31,
-37,
-35,
-34,
-36,
-38,
-42,
-43,
-41,
-41,
-44,
-46,
-49,
-48,
-48,
-48,
-52,
-53,
-56,
-55,
-57,
-58,
-57,
-61,
-63,
-62,
-62,
-61,
-63,
-68,
-70,
-68,
-66,
-66,
-70,
-75,
-75,
-69,
-69,
-74,
-79,
-80,
-76,
-72,
-75,
-79,
-84,
-80,
-76,
-77,
-81,
-86,
-85,
-82,
-80,
-81,
-87,
-88,
-85,
-82,
-84,
-86,
-89,
-88,
-86,
-85,
-86,
-89,
-89,
-89,
-86,
-85,
-89,
-90,
-90,
-87,
-86,
-87,
-89,
-89,
-87,
-86,
-85,
-87,
-89,
-88,
-86,
-84,
-85,
-86,
-86,
-83,
-84,
-82,
-83,
-84,
-83,
-81,
-80,
-81,
-83,
-79,
-79,
-77,
-78,
-78,
-76,
-74,
-72,
-72,
-74,
-75,
-71,
-69,
-69,
-70,
-71,
-70,
-65,
-63,
-65,
-67,
-63,
-57,
-57,
-58,
-61,
-59,
-55,
-51,
-53,
-56,
-57,
-53,
-49,
-46,
-48,
-50,
-48,
-42,
-39,
-40,
-41,
-40,
-36,
-33,
-32,
-33,
-36,
-33,
-29,
-26,
-25,
-27,
-27,
-24,
-21,
-17,
-15,
-16,
-18,
-14,
-10,
-9,
-11,
-11,
-10,
-6,
-2,
-3,
-3,
-4,
1,
6,
7,
5,
4,
8,
13,
14,
12,
11,
14,
18,
19,
19,
18,
21,
25,
28,
26,
26,
30,
33,
32,
31,
31,
35,
39,
38,
36,
37,
42,
45,
45,
45,
43,
47,
52,
53,
51,
48,
50,
56,
59,
57,
55,
55,
59,
61,
60,
62,
63,
63,
65,
67,
67,
68,
67,
67,
69,
73,
73,
72,
70,
71,
77,
80,
76,
73,
73,
79,
83,
81,
76,
75,
80,
84,
84,
81,
78,
80,
84,
87,
83,
79,
81,
86,
88,
86,
81,
83,
84,
87,
85,
84,
83,
84,
85,
87,
84,
83,
84,
84,
85,
84,
83,
83,
83,
82,
82,
84,
83,
82,
81,
81,
82,
81,
79,
79,
79,
79,
76,
75,
75,
75,
76,
75,
73,
72,
73,
75,
72,
70,
67,
70,
70,
68,
65,
63,
63,
64,
63,
61,
57,
57,
58,
61,
59,
53,
52,
54,
56,
54,
47,
45,
46,
48,
48,
45,
40,
38,
41,
44,
42,
36,
32,
33,
36,
35,
31,
26,
25,
26,
27,
26,
20,
17,
17,
20,
20,
16,
12,
10,
13,
13,
10,
7,
3,
3,
3,
3,
1,
-4,
-6,
-5,
-5,
-5,
-8,
-10,
-14,
-13,
-13,
-14,
-18,
-22,
-21,
-21,
-20,
-23,
-30,
-27,
-27,
-28,
-28,
-35,
-36,
-34,
-35,
-37,
-39,
-41,
-42,
-41,
-44,
-47,
-48,
-46,
-47,
-51,
-53,
-53,
-51,
-52,
-57,
-59,
-59,
-54,
-57,
-61,
-65,
-65,
-63,
-60,
-65,
-70,
-71,
-68,
-65,
-68,
-73,
-75,
-73,
-71,
-72,
-76,
-78,
-78,
-78,
-77,
-77,
-79,
-82,
-81,
-80,
-80,
-81,
-82,
-85,
-84,
-83,
-80,
-83,
-86,
-89,
-87,
-83,
-82,
-87,
-91,
-90,
-85,
-84,
-86,
-92,
-92,
-87,
-83,
-85,
-91,
-92,
-89,
-85,
-84,
-90,
-90,
-89,
-84,
-85,
-88,
-89,
-87,
-84,
-83,
-85,
-86,
-85,
-81,
-81,
-83,
-84,
-83,
-80,
-80,
-82,
-81,
-79,
-77,
-79,
-78,
-77,
-76,
-74,
-74,
-72,
-72,
-71,
-71,
-71,
-70,
-69,
-67,
-69,
-69,
-66,
-65,
-62,
-63,
-63,
-61,
-57,
-54,
-57,
-58,
-58,
-51,
-48,
-51,
-54,
-54,
-49,
-44,
-44,
-47,
-49,
-43,
-37,
-35,
-39,
-42,
-37,
-31,
-29,
-30,
-33,
-32,
-28,
-24,
-23,
-25,
-26,
-22,
-19,
-15,
-15,
-15,
-15,
-12,
-9,
-6,
-6,
-8,
-7,
-5,
-1,
0,
-1,
-2,
2,
6,
8,
10,
8,
9,
13,
16,
18,
16,
15,
17,
20,
24,
25,
25,
24,
25,
30,
30,
32,
31,
32,
37,
38,
37,
37,
38,
40,
42,
43,
44,
46,
46,
45,
50,
51,
50,
53,
55,
55,
55,
57,
59,
61,
59,
59,
61,
64,
66,
65,
64,
65,
67,
71,
70,
67,
67,
71,
76,
75,
72,
71,
73,
77,
79,
77,
74,
75,
79,
80,
81,
79,
77,
80,
83,
82,
82,
81,
81,
83,
84,
84,
84,
83,
82,
83,
86,
87,
84,
82,
83,
86,
86,
84,
82,
82,
84,
87,
87,
83,
81,
83,
87,
87,
82,
79,
82,
86,
85,
80,
79,
81,
82,
83,
80,
76,
77,
80,
81,
77,
73,
73,
75,
76,
73,
69,
71,
74,
73,
69,
67,
67,
69,
69,
67,
63,
61,
63,
64,
62,
58,
56,
58,
58,
56,
53,
53,
54,
51,
52,
52,
50,
48,
44,
43,
45,
45,
41,
37,
35,
38,
40,
39,
32,
26,
31,
35,
35,
26,
19,
20,
26,
25,
19,
13,
12,
16,
18,
15,
7,
5,
9,
13,
10,
2,
-1,
0,
2,
2,
-4,
-6,
-7,
-6,
-7,
-8,
-10,
-14,
-15,
-15,
-15,
-16,
-20,
-22,
-24,
-24,
-23,
-23,
-26,
-30,
-33,
-32,
-30,
-33,
-39,
-38,
-38,
-38,
-40,
-45,
-45,
-44,
-45,
-46,
-49,
-50,
-51,
-52,
-52,
-54,
-57,
-55,
-57,
-58,
-61,
-62,
-61,
-61,
-64,
-67,
-66,
-65,
-65,
-68,
-70,
-71,
-70,
-68,
-71,
-74,
-76,
-75,
-73,
-74,
-79,
-81,
-80,
-79,
-78,
-80,
-83,
-83,
-83,
-81,
-80,
-84,
-87,
-86,
-83,
-83,
-84,
-86,
-87,
-86,
-86,
-84,
-86,
-89,
-89,
-87,
-85,
-86,
-89,
-89,
-88,
-85,
-86,
-87,
-89,
-89,
-87,
-87,
-86,
-87,
-89,
-88,
-85,
-84,
-87,
-88,
-89,
-84,
-85,
-83,
-84,
-86,
-84,
-81,
-80,
-81,
-82,
-79,
-78,
-77,
-77,
-79,
-78,
-75,
-75,
-74,
-77,
-75,
-72,
-70,
-70,
-72,
-69,
-65,
-64,
-66,
-68,
-67,
-62,
-59,
-62,
-64,
-65,
-60,
-55,
-55,
-57,
-58,
-55,
-50,
-49,
-49,
-50,
-49,
-46,
-44,
-45,
-45,
-44,
-42,
-39,
-38,
-36,
-36,
-37,
-34,
-29,
-27,
-27,
-26,
-28,
-25,
-20,
-17,
-19,
-23,
-21,
-14,
-9,
-12,
-17,
-15,
-8,
-3,
-4,
-8,
-8,
-4,
5,
6,
1,
-2,
1,
9,
11,
10,
7,
8,
15,
18,
16,
17,
18,
20,
25,
26,
24,
24,
27,
30,
32,
32,
33,
33,
35,
36,
39,
41,
43,
41,
41,
45,
48,
48,
45,
47,
49,
52,
53,
54,
54,
53,
57,
59,
59,
58,
60,
62,
63,
62,
62,
65,
66,
67,
65,
67,
69,
73,
72,
71,
69,
72,
77,
76,
74,
74,
76,
81,
81,
77,
75,
76,
82,
83,
81,
79,
79,
82,
84,
84,
81,
80,
81,
84,
86,
83,
81,
84,
84,
86,
85,
84,
84,
84,
85,
86,
87,
85,
83,
84,
84,
86,
84,
82,
83,
83,
84,
84,
82,
80,
82,
83,
83,
81,
79,
80,
80,
80,
77,
77,
76,
79,
77,
77,
74,
73,
72,
73,
71,
69,
68,
70,
70,
69,
65,
66,
67,
67,
65,
62,
60,
60,
61,
60,
57,
54,
55,
56,
56,
52,
47,
48,
50,
52,
49,
45,
42,
42,
43,
43,
39,
34,
33,
37,
38,
34,
29,
27,
29,
33,
29,
27,
22,
20,
21,
23,
20,
15,
12,
13,
15,
13,
9,
6,
4,
7,
7,
6,
1,
-5,
-4,
0,
0,
-6,
-12,
-13,
-9,
-7,
-10,
-15,
-20,
-20,
-17,
-15,
-21,
-26,
-27,
-24,
-21,
-28,
-35,
-35,
-32,
-30,
-33,
-38,
-41,
-40,
-39,
-40,
-44,
-46,
-46,
-45,
-45,
-48,
-52,
-51,
-52,
-54,
-55,
-56,
-57,
-56,
-59,
-61,
-61,
-60,
-63,
-64,
-67,
-66,
-67,
-67,
-69,
-71,
-70,
-70,
-71,
-73,
-75,
-73,
-74,
-76,
-80,
-78,
-76,
-76,
-79,
-82,
-81,
-79,
-80,
-82,
-85,
-83,
-82,
-79,
-84,
-89,
-87,
-85,
-80,
-84,
-89,
-89,
-86,
-83,
-87,
-90,
-92,
-87,
-87,
-85,
-89,
-91,
-89,
-87,
-85,
-87,
-90,
-89,
-88,
-86,
-87,
-86,
-87,
-86,
-87,
-86,
-86,
-84,
-85,
-86,
-87,
-84,
-83,
-82,
-84,
-84,
-82,
-79,
-77,
-79,
-81,
-77,
-76,
-76,
-77,
-77,
-74,
-72,
-73,
-74,
-73,
-72,
-69,
-69,
-70,
-68,
-65,
-62,
-62,
-64,
-63,
-62,
-58,
-58,
-63,
-61,
-58,
-54,
-53,
-55,
-56,
-51,
-47,
-45,
-47,
-48,
-47,
-40,
-38,
-41,
-43,
-43,
-37,
-33,
-33,
-34,
-36,
-32,
-27,
-24,
-25,
-26,
-27,
-23,
-17,
-16,
-18,
-20,
-19,
-14,
-10,
-9,
-13,
-12,
-7,
-3,
-1,
-3,
-5,
-4,
2,
6,
5,
5,
4,
7,
13,
14,
14,
10,
12,
17,
22,
22,
19,
20,
24,
28,
29,
26,
25,
27,
33,
37,
36,
34,
34,
37,
43,
42,
41,
40,
44,
48,
47,
49,
48,
49,
52,
54,
55,
52,
57,
57,
59,
58,
59,
61,
63,
64,
62,
63,
64,
66,
67,
69,
67,
68,
71,
72,
74,
71,
72,
74,
76,
76,
76,
77,
77,
77,
79,
78,
80,
80,
79,
82,
82,
82,
81,
81,
82,
85,
84,
83,
81,
82,
84,
88,
87,
82,
81,
84,
89,
87,
82,
81,
83,
87,
89,
86,
82,
82,
85,
87,
83,
80,
80,
84,
86,
83,
79,
80,
82,
82,
81,
80,
79,
79,
79,
79,
77,
77,
77,
77,
75,
74,
75,
74,
74,
69,
69,
71,
71,
68,
65,
65,
67,
66,
65,
64,
63,
63,
61,
59,
57,
56,
55,
57,
55,
51,
52,
52,
50,
48,
45,
48,
49,
47,
41,
37,
42,
43,
41,
34,
31,
32,
35,
35,
29,
23,
25,
28,
29,
23,
17,
17,
19,
21,
17,
12,
8,
10,
13,
11,
7,
2,
1,
5,
5,
2,
-3,
-4,
-5,
-5,
-4,
-6,
-10,
-13,
-14,
-12,
-11,
-16,
-20,
-21,
-19,
-18,
-21,
-24,
-29,
-29,
-25,
-27,
-31,
-36,
-38,
-36,
-32,
-36,
-43,
-45,
-41,
-40,
-43,
-46,
-49,
-49,
-48,
-47,
-52,
-55,
-57,
-55,
-54,
-56,
-61,
-61,
-61,
-61,
-61,
-63,
-65,
-64,
-65,
-66,
-68,
-70,
-71,
-69,
-70,
-72,
-75,
-74,
-73,
-74,
-76,
-77,
-78,
-78,
-76,
-78,
-81,
-82,
-83,
-81,
-80,
-82,
-86,
-85,
-84,
-83,
-85,
-87,
-88,
-87,
-86,
-83,
-88,
-90,
-88,
-87,
-85,
-86,
-89,
-90,
-89,
-85,
-85,
-87,
-90,
-90,
-88,
-84,
-85,
-89,
-91,
-89,
-86,
-82,
-87,
-89,
-89,
-84,
-82,
-84,
-87,
-87,
-85,
-81,
-82,
-83,
-87,
-81,
-78,
-79,
-81,
-80,
-79,
-75,
-75,
-76,
-76,
-76,
-73,
-72,
-72,
-73,
-70,
-69,
-70,
-70,
-69,
-65,
-64,
-62,
-64,
-63,
-60,
-58,
-57,
-58,
-58,
-55,
-54,
-54,
-54,
-53,
-51,
-49,
-48,
-47,
-45,
-45,
-43,
-41,
-39,
-37,
-35,
-36,
-39,
-35,
-30,
-29,
-33,
-34,
-30,
-23,
-21,
-22,
-26,
-23,
-17,
-13,
-13,
-17,
-19,
-13,
-7,
-7,
-12,
-13,
-8,
-1,
0,
0,
-3,
-2,
6,
9,
7,
5,
6,
9,
15,
15,
13,
14,
16,
18,
22,
24,
23,
22,
25,
28,
31,
31,
31,
30,
32,
36,
39,
39,
37,
38,
41,
47,
47,
44,
43,
46,
52,
52,
48,
49,
51,
54,
57,
55,
55,
57,
60,
62,
61,
59,
62,
66,
67,
66,
64,
67,
69,
70,
69,
69,
70,
73,
74,
75,
74,
74,
76,
78,
78,
76,
76,
78,
80,
80,
78,
80,
80,
82,
82,
83,
82,
81,
81,
83,
86,
85,
83,
83,
84,
86,
88,
86,
82,
82,
85,
88,
87,
83,
81,
85,
88,
88,
83,
81,
82,
85,
87,
85,
81,
80,
83,
86,
86,
81,
78,
80,
82,
82,
79,
75,
75,
76,
78,
79,
75,
72,
73,
75,
76,
74,
70,
71,
72,
70,
69,
67,
66,
65,
64,
64,
63,
60,
61,
61,
59,
58,
58,
58,
57,
54,
51,
53,
54,
50,
46,
46,
46,
45,
45,
40,
40,
37,
39,
40,
37,
34,
33,
33,
33,
29,
27,
26,
25,
24,
23,
23,
20,
17,
14,
16,
16,
15,
13,
8,
7,
9,
8,
6,
1,
-2,
0,
1,
0,
-6,
-11,
-9,
-3,
-4,
-13,
-17,
-18,
-12,
-11,
-17,
-24,
-26,
-23,
-20,
-23,
-29,
-33,
-31,
-27,
-29,
-34,
-39,
-38,
-36,
-37,
-39,
-43,
-43,
-44,
-45,
-44,
-46,
-49,
-49,
-50,
-51,
-52,
-53,
-56,
-58,
-57,
-57,
-57,
-60,
-63,
-64,
-63,
-61,
-65,
-69,
-68,
-66,
-67,
-69,
-73,
-74,
-71,
-70,
-73,
-78,
-77,
-74,
-73,
-77,
-83,
-82,
-78,
-76,
-81,
-85,
-84,
-80,
-78,
-81,
-86,
-87,
-84,
-81,
-82,
-87,
-91,
-88,
-83,
-84,
-89,
-90,
-88,
-86,
-85,
-87,
-90,
-89,
-88,
-87,
-85,
-86,
-89,
-88,
-89,
-86,
-86,
-87,
-89,
-88,
-87,
-83,
-83,
-85,
-87,
-87,
-82,
-80,
-84,
-86,
-86,
-81,
-78,
-78,
-83,
-84,
-81,
-77,
-76,
-78,
-81,
-78,
-72,
-71,
-74,
-76,
-73,
-71,
-70,
-69,
-70,
-70,
-68,
-67,
-66,
-65,
-64,
-63,
-61,
-60,
-59,
-57,
-56,
-54,
-55,
-54,
-53,
-51,
-51,
-52,
-51,
-48,
-46,
-43,
-43,
-43,
-43,
-40,
-37,
-36,
-38,
-37,
-33,
-31,
-31,
-30,
-30,
-29,
-27,
-23,
-22,
-22,
-23,
-21,
-15,
-13,
-15,
-14,
-13,
-11,
-7,
-4,
-5,
-6,
-5,
-3,
2,
3,
1,
1,
3,
9,
11,
11,
10,
9,
14,
19,
19,
18,
15,
18,
23,
26,
26,
25,
26,
28,
34,
35,
33,
31,
33,
40,
41,
38,
37,
38,
45,
46,
45,
46,
47,
49,
51,
53,
52,
52,
53,
56,
59,
57,
57,
60,
61,
61,
63,
64,
64,
65,
65,
67,
68,
69,
69,
70,
71,
72,
72,
73,
74,
75,
77,
77,
75,
74,
78,
82,
80,
76,
79,
80,
84,
83,
79,
80,
83,
86,
84,
81,
79,
82,
88,
89,
83,
80,
81,
88,
90,
85,
81,
81,
87,
89,
85,
82,
81,
85,
89,
87,
83,
81,
82,
84,
84,
83,
81,
81,
82,
82,
83,
83,
81,
78,
79,
82,
82,
79,
75,
73,
74,
78,
77,
72,
69,
71,
75,
75,
72,
66,
67,
72,
71,
67,
61,
62,
64,
65,
62,
58,
57,
58,
60,
58,
55,
52,
54,
56,
54,
49,
49,
51,
50,
44,
43,
43,
43,
43,
39,
35,
37,
38,
37,
34,
32,
28,
30,
32,
27,
22,
20,
23,
24,
20,
17,
14,
14,
15,
14,
12,
10,
6,
5,
7,
5,
2,
0,
-3,
-1,
-1,
-4,
-6,
-10,
-11,
-9,
-8,
-9,
-15,
-20,
-18,
-15,
-17,
-23,
-27,
-28,
-25,
-23,
-26,
-32,
-35,
-35,
-31,
-32,
-37,
-42,
-41,
-39,
-39,
-43,
-47,
-48,
-47,
-47,
-48,
-52,
-54,
-54,
-53,
-53,
-55,
-59,
-59,
-59,
-57,
-61,
-64,
-65,
-64,
-64,
-66,
-69,
-68,
-69,
-69,
-69,
-71,
-74,
-73,
-72,
-74,
-76,
-77,
-77,
-76,
-77,
-79,
-80,
-80,
-81,
-79,
-80,
-82,
-84,
-82,
-83,
-82,
-84,
-87,
-86,
-84,
-84,
-85,
-86,
-89,
-89,
-85,
-85,
-86,
-90,
-90,
-87,
-84,
-86,
-89,
-93,
-89,
-85,
-84,
-89,
-91,
-90,
-85,
-81,
-85,
-90,
-92,
-87,
-82,
-84,
-86,
-90,
-87,
-82,
-80,
-84,
-86,
-86,
-81,
-78,
-80,
-84,
-82,
-79,
-78,
-77,
-77,
-77,
-77,
-75,
-72,
-71,
-70,
-71,
-73,
-70,
-68,
-66,
-67,
-69,
-69,
-64,
-61,
-61,
-63,
-64,
-58,
-54,
-53,
-57,
-57,
-54,
-49,
-49,
-50,
-53,
-49,
-45,
-45,
-46,
-47,
-43,
-38,
-39,
-38,
-39,
-36,
-30,
-31,
-33,
-32,
-28,
-25,
-25,
-26,
-27,
-22,
-19,
-16,
-20,
-20,
-15,
-12,
-9,
-11,
-13,
-8,
-4,
-3,
-4,
-6,
-3,
0,
1,
3,
3,
4,
7,
9,
11,
14,
13,
14,
15,
18,
19,
23,
20,
19,
23,
27,
29,
28,
27,
27,
33,
36,
37,
34,
34,
38,
44,
45,
42,
39,
42,
48,
50,
48,
45,
48,
52,
55,
53,
53,
54,
56,
60,
60,
59,
60,
60,
64,
64,
64,
64,
66,
69,
69,
67,
69,
69,
71,
73,
73,
74,
75,
75,
76,
76,
74,
77,
79,
80,
80,
81,
80,
80,
80,
81,
83,
82,
81,
81,
84,
84,
83,
81,
83,
86,
87,
85,
84,
83,
85,
88,
88,
84,
81,
81,
88,
88,
85,
81,
81,
84,
88,
86,
83,
80,
81,
85,
87,
83,
78,
79,
83,
86,
83,
77,
75,
76,
82,
81,
77,
72,
72,
75,
78,
75,
69,
67,
70,
72,
73,
69,
67,
68,
68,
69,
67,
64,
62,
60,
63,
62,
58,
57,
56,
56,
55,
55,
55,
51,
50,
51,
52,
50,
46,
42,
43,
46,
44,
41,
37,
36,
37,
35,
35,
33,
29,
32,
31,
28,
25,
21,
25,
24,
20,
17,
16,
18,
16,
11,
10,
11,
12,
9,
7,
3,
3,
5,
4,
-1,
-6,
-6,
-3,
-3,
-7,
-14,
-13,
-10,
-11,
-14,
-19,
-21,
-19,
-18,
-20,
-24,
-26,
-27,
-27,
-26,
-30,
-35,
-35,
-33,
-35,
-37,
-37,
-39,
-41,
-44,
-43,
-41,
-43,
-47,
-52,
-49,
-47,
-49,
-53,
-58,
-57,
-53,
-53,
-57,
-62,
-65,
-61,
-59,
-62,
-68,
-69,
-67,
-64,
-67,
-71,
-73,
-71,
-70,
-72,
-73,
-76,
