5-grundlagen-opAmps/data/ALL0005/A0005CH1.CSV

Memory Length,4000,
Trigger Level,0.00000e+00,
Source,CH1,
Probe,1.0X,
Vertical Units,V,
Vertical Scale,5.00000e-02,
Vertical Position,0.00000e+00,
Horizontal Units,S,
Horizontal Scale,1.00000e-07,
Horizontal Position,1.0000000e-07,
Horizontal Mode,Main,
Sampling Period,2.00000e-09,
Firmware,V1.14,
Time, ,
Mode,Fast,
Waveform Data,
-1,
-1,
-2,
3,
9,
9,
5,
3,
5,
11,
15,
14,
10,
8,
12,
19,
21,
14,
10,
16,
20,
22,
18,
14,
17,
22,
24,
18,
15,
18,
23,
24,
18,
13,
14,
20,
22,
18,
12,
13,
18,
20,
16,
9,
9,
13,
16,
13,
6,
3,
6,
12,
9,
2,
-3,
-3,
4,
4,
0,
-5,
-8,
-7,
-5,
-2,
-7,
-16,
-18,
-13,
-8,
-10,
-17,
-24,
-20,
-17,
-14,
-16,
-26,
-30,
-26,
-16,
-19,
-28,
-36,
-33,
-23,
-18,
-28,
-40,
-36,
-26,
-21,
-25,
-36,
-39,
-34,
-26,
-23,
-30,
-37,
-36,
-28,
-22,
-26,
-29,
-31,
-27,
-23,
-24,
-24,
-25,
-25,
-20,
-18,
-18,
-19,
-20,
-16,
-15,
-14,
-12,
-13,
-11,
-12,
-8,
-4,
-6,
-7,
-7,
-3,
0,
2,
2,
1,
1,
3,
7,
8,
8,
8,
7,
11,
13,
14,
14,
13,
12,
14,
18,
19,
19,
16,
15,
17,
21,
23,
19,
16,
15,
20,
25,
23,
17,
14,
17,
23,
24,
17,
12,
13,
19,
24,
18,
11,
5,
10,
19,
18,
9,
0,
2,
10,
14,
9,
0,
-4,
1,
5,
4,
-3,
-8,
-8,
-3,
-1,
-8,
-14,
-15,
-9,
-9,
-13,
-18,
-19,
-19,
-15,
-15,
-20,
-22,
-24,
-24,
-20,
-23,
-26,
-28,
-28,
-26,
-26,
-28,
-30,
-34,
-32,
-28,
-28,
-30,
-33,
-33,
-29,
-29,
-32,
-32,
-31,
-27,
-26,
-31,
-31,
-29,
-24,
-21,
-25,
-30,
-29,
-21,
-16,
-20,
-26,
-26,
-17,
-12,
-14,
-19,
-19,
-12,
-6,
-5,
-11,
-15,
-12,
-1,
4,
-4,
-9,
-7,
1,
8,
6,
2,
-1,
3,
10,
13,
12,
6,
4,
11,
16,
18,
14,
11,
11,
18,
23,
22,
15,
10,
14,
23,
28,
21,
13,
13,
23,
30,
25,
14,
10,
17,
26,
26,
16,
7,
10,
21,
25,
18,
8,
7,
13,
18,
14,
7,
4,
6,
9,
9,
4,
2,
2,
2,
1,
-2,
-4,
-4,
-4,
-7,
-8,
-8,
-8,
-11,
-14,
-14,
-13,
-14,
-15,
-18,
-20,
-20,
-19,
-16,
-23,
-26,
-26,
-26,
-24,
-24,
-28,
-29,
-30,
-29,
-28,
-28,
-27,
-31,
-34,
-32,
-28,
-27,
-31,
-35,
-33,
-27,
-26,
-28,
-31,
-34,
-29,
-25,
-20,
-27,
-32,
-28,
-23,
-17,
-21,
-28,
-26,
-19,
-13,
-13,
-19,
-21,
-17,
-8,
-4,
-10,
-14,
-13,
-7,
0,
0,
-5,
-8,
-3,
3,
6,
4,
1,
0,
6,
10,
10,
7,
8,
10,
13,
14,
14,
13,
14,
16,
18,
17,
15,
15,
18,
21,
19,
18,
16,
18,
20,
19,
19,
18,
19,
20,
20,
19,
18,
17,
19,
17,
14,
11,
13,
16,
17,
14,
9,
7,
9,
12,
13,
5,
0,
1,
6,
9,
2,
-5,
-7,
-2,
3,
-1,
-9,
-15,
-11,
-4,
-3,
-11,
-22,
-21,
-11,
-8,
-14,
-24,
-29,
-21,
-14,
-16,
-25,
-31,
-30,
-24,
-19,
-24,
-31,
-35,
-32,
-25,
-23,
-28,
-36,
-35,
-30,
-25,
-26,
-30,
-36,
-35,
-29,
-22,
-26,
-34,
-35,
-32,
-21,
-21,
-28,
-33,
-29,
-19,
-16,
-19,
-27,
-28,
-18,
-10,
-12,
-20,
-24,
-16,
-8,
-7,
-10,
-12,
-9,
-5,
-4,
-4,
-6,
-3,
0,
1,
1,
0,
4,
8,
6,
3,
6,
11,
13,
12,
9,
10,
14,
17,
16,
14,
13,
16,
22,
20,
16,
14,
16,
20,
24,
20,
20,
17,
18,
20,
22,
21,
17,
16,
17,
19,
21,
18,
13,
10,
12,
18,
19,
13,
5,
5,
12,
16,
9,
2,
0,
4,
10,
6,
-3,
-7,
-3,
2,
3,
-4,
-13,
-14,
-5,
-2,
-9,
-16,
-19,
-16,
-11,
-14,
-20,
-23,
-22,
-19,
-18,
-23,
-25,
-25,
-26,
-23,
-25,
-28,
-29,
-29,
-28,
-29,
-31,
-31,
-30,
-30,
-29,
-29,
-30,
-31,
-29,
-30,
-29,
-31,
-31,
-29,
-27,
-28,
-29,
-29,
-26,
-23,
-24,
-26,
-25,
-23,
-18,
-15,
-20,
-23,
-21,
-13,
-8,
-11,
-16,
-18,
-11,
-3,
-1,
-6,
-12,
-10,
0,
5,
1,
-5,
-5,
2,
12,
10,
4,
-1,
4,
15,
19,
14,
4,
4,
15,
23,
21,
13,
9,
12,
23,
26,
21,
12,
11,
19,
25,
26,
17,
13,
16,
23,
26,
20,
15,
13,
18,
22,
22,
17,
11,
11,
16,
20,
14,
9,
7,
9,
13,
13,
7,
1,
2,
6,
9,
5,
-3,
-7,
-3,
1,
-1,
-6,
-11,
-8,
-7,
-6,
-11,
-15,
-15,
-13,
-14,
-17,
-21,
-20,
-16,
-19,
-23,
-26,
-25,
-21,
-22,
-27,
-31,
-28,
-25,
-25,
-30,
-34,
-30,
-28,
-28,
-31,
-35,
-35,
-29,
-27,
-28,
-34,
-35,
-29,
-26,
-26,
-28,
-31,
-30,
-26,
-25,
-23,
-25,
-27,
-26,
-23,
-17,
-16,
-20,
-20,
-21,
-15,
-10,
-11,
-16,
-17,
-11,
-3,
-3,
-10,
-12,
-6,
3,
5,
0,
-6,
-3,
6,
11,
8,
1,
1,
9,
15,
13,
9,
10,
11,
17,
17,
13,
14,
17,
17,
20,
16,
17,
18,
20,
20,
18,
19,
20,
21,
19,
17,
17,
20,
21,
19,
17,
16,
17,
17,
17,
14,
13,
12,
12,
13,
13,
10,
9,
6,
7,
8,
7,
3,
-2,
-1,
4,
5,
-1,
-8,
-12,
-6,
0,
-3,
-11,
-18,
-16,
-8,
-5,
-13,
-23,
-25,
-16,
-10,
-15,
-26,
-30,
-25,
-17,
-17,
-27,
-35,
-34,
-25,
-19,
-23,
-34,
-38,
-32,
-24,
-23,
-31,
-38,
-35,
-27,
-24,
-27,
-33,
-37,
-34,
-27,
-21,
-27,
-34,
-33,
-27,
-20,
-21,
-27,
-31,
-24,
-18,
-16,
-17,
-23,
-23,
-16,
-11,
-11,
-15,
-18,
-12,
-6,
-5,
-7,
-10,
-9,
-4,
0,
1,
-3,
-3,
0,
5,
6,
5,
4,
7,
10,
9,
11,
11,
13,
15,
16,
14,
11,
14,
20,
22,
17,
13,
16,
21,
24,
19,
16,
17,
22,
24,
22,
15,
15,
20,
23,
22,
15,
12,
16,
20,
19,
14,
12,
10,
15,
16,
13,
8,
5,
6,
11,
11,
5,
2,
-2,
1,
3,
3,
-1,
-5,
-9,
-6,
-2,
-4,
-10,
-15,
-14,
-9,
-9,
-16,
-22,
-23,
-17,
-13,
-19,
-24,
-27,
-23,
-16,
-18,
-27,
-33,
-30,
-23,
-22,
-29,
-34,
-32,
-27,
-28,
-32,
-32,
-29,
-28,
-29,
-31,
-31,
-29,
-28,
-28,
-31,
-33,
-28,
-24,
-25,
-30,
-29,
-26,
-20,
-21,
-26,
-26,
-22,
-18,
-14,
-17,
-19,
-19,
-14,
-11,
-11,
-14,
-13,
-10,
-6,
-4,
-3,
-3,
-6,
-5,
1,
7,
5,
-1,
-3,
3,
12,
16,
9,
1,
5,
14,
21,
18,
7,
5,
14,
24,
23,
15,
8,
14,
26,
28,
21,
11,
12,
21,
28,
25,
15,
10,
17,
24,
26,
19,
12,
11,
18,
22,
19,
14,
9,
9,
14,
17,
13,
8,
5,
5,
10,
9,
5,
0,
-2,
2,
4,
3,
-4,
-8,
-4,
0,
-3,
-10,
-15,
-13,
-9,
-9,
-14,
-17,
-19,
-16,
-13,
-18,
-21,
-24,
-24,
-20,
-24,
-26,
-27,
-26,
-25,
-28,
-32,
-30,
-27,
-26,
-28,
-32,
-35,
-30,
-27,
-27,
-30,
-36,
-32,
-27,
-25,
-29,
-35,
-33,
-27,
-24,
-26,
-28,
-29,
-27,
-21,
-19,
-22,
-26,
-26,
-16,
-13,
-15,
-20,
-23,
-16,
-10,
-8,
-10,
-15,
-14,
-8,
0,
-1,
-6,
-7,
-5,
1,
4,
5,
2,
1,
3,
11,
11,
7,
6,
9,
13,
16,
14,
12,
11,
16,
20,
21,
15,
12,
16,
22,
24,
19,
16,
16,
20,
24,
20,
18,
17,
19,
19,
19,
18,
19,
18,
17,
16,
13,
16,
17,
17,
11,
7,
11,
13,
12,
6,
3,
3,
7,
8,
4,
-2,
-4,
-1,
3,
0,
-7,
-12,
-10,
-5,
-6,
-10,
-15,
-17,
-15,
-12,
-12,
-17,
-23,
-23,
-17,
-14,
-19,
-26,
-31,
-29,
-21,
-19,
-25,
-32,
-37,
-30,
-20,
-21,
-31,
-40,
-36,
-24,
-21,
-30,
-40,
-37,
-26,
-20,
-27,
-35,
-38,
-29,
-20,
-20,
-28,
-35,
-30,
-20,
-17,
-23,
-29,
-27,
-19,
-16,
-16,
-17,
-19,
-16,
-12,
-11,
-11,
-12,
-11,
-8,
-7,
-5,
-4,
-5,
-4,
-3,
2,
3,
2,
1,
4,
8,
9,
7,
6,
8,
12,
14,
14,
11,
11,
16,
19,
19,
14,
15,
17,
22,
20,
15,
17,
19,
26,
20,
14,
15,
21,
27,
24,
16,
11,
15,
23,
24,
15,
9,
12,
18,
21,
16,
9,
5,
10,
15,
13,
5,
1,
3,
8,
9,
3,
-3,
-4,
-2,
2,
1,
-6,
-11,
-11,
-8,
-4,
-7,
-15,
-19,
-15,
-13,
-10,
-17,
-26,
-24,
-20,
-16,
-20,
-23,
-27,
-29,
-23,
-24,
-26,
-31,
-32,
-29,
-25,
-29,
-34,
-32,
-30,
-28,
-28,
-31,
-34,
-33,
-31,
-28,
-27,
-32,
-32,
-28,
-28,
-26,
-27,
-27,
-24,
-26,
-27,
-24,
-20,
-20,
-20,
-21,
-21,
-18,
-12,
-12,
-16,
-18,
-14,
-8,
-6,
-8,
-12,
-10,
-4,
1,
1,
-3,
-5,
-1,
6,
9,
5,
0,
3,
8,
14,
13,
7,
7,
11,
17,
19,
16,
10,
9,
16,
24,
25,
17,
12,
15,
21,
26,
24,
16,
11,
16,
24,
27,
18,
11,
13,
21,
27,
20,
12,
8,
17,
24,
21,
11,
3,
6,
16,
19,
9,
0,
1,
8,
11,
6,
-1,
-5,
0,
4,
2,
-4,
-8,
-8,
-6,
-7,
-10,
-14,
-11,
-11,
-15,
-17,
-18,
-17,
-17,
-20,
-20,
-23,
-21,
-23,
-25,
-24,
-25,
-26,
-29,
-29,
-27,
-28,
-29,
-31,
-31,
-30,
-28,
-30,
-32,
-34,
-29,
-26,
-28,
-33,
-36,
-29,
-22,
-25,
-33,
-35,
-27,
-19,
-16,
-26,
-31,
-30,
-19,
-11,
-17,
-26,
-27,
-16,
-9,
-11,
-19,
-23,
-15,
-5,
-3,
-8,
-12,
-12,
-2,
1,
1,
-4,
-6,
0,
5,
8,
7,
3,
2,
7,
13,
14,
9,
6,
7,
15,
18,
18,
14,
9,
15,
19,
23,
19,
12,
14,
19,
24,
21,
17,
17,
19,
22,
21,
18,
16,
18,
20,
21,
17,
15,
15,
17,
16,
13,
12,
13,
12,
10,
9,
9,
9,
9,
4,
1,
1,
5,
5,
3,
-5,
-7,
-5,
-2,
-3,
-9,
-14,
-13,
-8,
-7,
-12,
-16,
-20,
-15,
-13,
-15,
-19,
-27,
-25,
-20,
-17,
-23,
-29,
-32,
-28,
-22,
-25,
-29,
-33,
-32,
-29,
-25,
-26,
-31,
-38,
-34,
-24,
-24,
-29,
-36,
-36,
-29,
-24,
-25,
-31,
-35,
-32,
-23,
-20,
-23,
-29,
-29,
-23,
-17,
-17,
-25,
-26,
-19,
-12,
-10,
-14,
-19,
-18,
-9,
-4,
-7,
-13,
-13,
-6,
1,
0,
-5,
-4,
0,
4,
5,
3,
1,
4,
9,
11,
8,
6,
12,
15,
15,
11,
12,
15,
18,
19,
17,
15,
15,
18,
23,
21,
18,
17,
17,
21,
20,
19,
18,
18,
21,
22,
21,
18,
14,
15,
19,
20,
16,
10,
9,
14,
19,
17,
9,
1,
3,
11,
16,
9,
-3,
-6,
4,
10,
5,
-6,
-12,
-7,
2,
1,
-9,
-16,
-16,
-9,
-4,
-11,
-20,
-23,
-15,
-13,
-15,
-22,
-28,
-24,
-20,
-21,
-25,
-28,
-30,
-29,
-25,
-25,
-26,
-31,
-35,
-31,
-25,
-26,
-29,
-34,
-35,
-30,
-27,
-27,
-32,
-36,
-33,
-27,
-26,
-29,
-31,
-29,
-25,
-23,
-26,
-28,
-25,
-21,
-19,
-20,
-22,
-21,
-16,
-15,
-17,
-16,
-13,
-11,
-11,
-14,
-11,
-6,
-1,
-4,
-8,
-7,
-1,
6,
6,
0,
-4,
0,
11,
12,
7,
2,
4,
12,
18,
15,
10,
8,
13,
19,
21,
16,
12,
14,
19,
24,
22,
18,
16,
16,
23,
24,
21,
17,
14,
18,
24,
23,
19,
14,
14,
20,
24,
19,
12,
8,
11,
18,
19,
12,
4,
3,
11,
14,
8,
1,
-2,
3,
5,
3,
-3,
-8,
-4,
-1,
-2,
-7,
-12,
-12,
-8,
-7,
-12,
-17,
-17,
-15,
-14,
-17,
-23,
-23,
-19,
-19,
-21,
-26,
-26,
-25,
-24,
-25,
-28,
-32,
-29,
-25,
-26,
-31,
-36,
-32,
-27,
-26,
-29,
-35,
-35,
-29,
-27,
-27,
-31,
-35,
-32,
-26,
-23,
-27,
-32,
-29,
-25,
-20,
-21,
-26,
-27,
-25,
-15,
-12,
-16,
-21,
-24,
-16,
-7,
-7,
-13,
-16,
-15,
-5,
1,
-1,
-10,
-13,
-4,
6,
7,
0,
-5,
-2,
10,
15,
11,
3,
3,
9,
19,
17,
8,
5,
12,
20,
22,
18,
12,
14,
20,
23,
22,
18,
14,
17,
21,
22,
20,
17,
16,
17,
20,
23,
20,
17,
13,
15,
18,
20,
17,
11,
11,
14,
14,
12,
10,
8,
9,
9,
9,
3,
2,
3,
4,
2,
-2,
-3,
-3,
-3,
-7,
-9,
-8,
-6,
-9,
-14,
-16,
-14,
-11,
-11,
-20,
-25,
-22,
-16,
-11,
-19,
-30,
-31,
-24,
-17,
-22,
-32,
-35,
-29,
-21,
-24,
-31,
-35,
-35,
-27,
-26,
-29,
-35,
-35,
-32,
-26,
-27,
-30,
-35,
-32,
-27,
-26,
-27,
-28,
-30,
-29,
-24,
-19,
-22,
-27,
-28,
-20,
-15,
-14,
-19,
-23,
-19,
-14,
-8,
-9,
-15,
-15,
-9,
-1,
-3,
-9,
-9,
-3,
3,
3,
0,
-3,
2,
7,
9,
7,
3,
5,
12,
13,
10,
8,
11,
17,
17,
17,
12,
15,
20,
20,
18,
15,
15,
19,
24,
21,
17,
15,
19,
23,
25,
18,
15,
16,
20,
23,
20,
15,
11,
13,
20,
20,
14,
8,
7,
12,
16,
14,
7,
1,
5,
9,
10,
5,
-6,
-6,
1,
6,
2,
-9,
-14,
-10,
-1,
-2,
-10,
-20,
-21,
-13,
-8,
-9,
-21,
-27,
-20,
-13,
-14,
-22,
-32,
-29,
-21,
-18,
-20,
-32,
-32,
-29,
-24,
-23,
-30,
-37,
-35,
-27,
-24,
-28,
-34,
-35,
-30,
-27,
-27,
-29,
-31,
-32,
-28,
-27,
-25,
-28,
-30,
-27,
-25,
-23,
-22,
-23,
-22,
-21,
-20,
-16,
-15,
-18,
-16,
-16,
-13,
-11,
-10,
-10,
-10,
-8,
-7,
-4,
-3,
-3,
0,
0,
0,
1,
5,
4,
4,
3,
7,
12,
12,
9,
7,
11,
17,
18,
17,
10,
11,
17,
24,
23,
15,
10,
16,
24,
26,
18,
13,
16,
22,
27,
21,
13,
14,
19,
23,
23,
14,
11,
16,
18,
18,
14,
11,
11,
12,
12,
12,
9,
5,
4,
6,
8,
5,
2,
-2,
-2,
0,
1,
-2,
-7,
-11,
-8,
-4,
-4,
-11,
-16,
-15,
-12,
-12,
-18,
-21,
-19,
-17,
-18,
-21,
-26,
-24,
-21,
-20,
-26,
-29,
-29,
-26,
-23,
-29,
-35,
-33,
-27,
-25,
-31,
-36,
-35,
-26,
-23,
-29,
-35,
-35,
-28,
-25,
-26,
-31,
-36,
-31,
-20,
-20,
-26,
-32,
-30,
-21,
-16,
-19,
-23,
-23,
-22,
-13,
-10,
-12,
-18,
-20,
-13,
-6,
-5,
-8,
-13,
-11,
-2,
4,
2,
-7,
-9,
0,
9,
11,
3,
-5,
0,
12,
18,
13,
5,
3,
11,
22,
22,
13,
7,
12,
20,
25,
20,
12,
12,
21,
24,
23,
16,
13,
18,
23,
25,
19,
15,
16,
18,
22,
22,
17,
13,
14,
17,
18,
16,
11,
9,
12,
12,
12,
9,
5,
6,
5,
5,
5,
3,
1,
0,
-2,
-2,
-4,
-4,
-4,
-6,
-10,
-12,
-12,
-9,
-11,
-15,
-16,
-18,
-16,
-17,
-19,
-24,
-22,
-21,
-21,
-23,
-27,
-29,
-28,
-23,
-23,
-29,
-34,
-32,
-27,
-24,
-27,
-35,
-38,
-32,
-26,
-23,
-31,
-38,
-35,
-27,
-22,
-27,
-36,
-35,
-27,
-22,
-24,
-27,
-29,
-26,
-19,
-16,
-22,
-25,
-21,
-17,
-13,
-16,
-19,
-17,
-13,
-10,
-8,
-10,
-10,
-10,
-7,
-3,
-1,
-1,
-3,
-1,
1,
3,
7,
5,
3,
4,
8,
12,
11,
9,
11,
14,
15,
14,
15,
16,
17,
18,
17,
13,
17,
20,
21,
21,
16,
17,
23,
24,
20,
14,
16,
21,
25,
20,
12,
11,
20,
26,
20,
11,
7,
13,
22,
21,
9,
2,
4,
13,
16,
8,
0,
-3,
4,
9,
5,
-1,
-7,
-6,
-1,
1,
-4,
-11,
-13,
-11,
-7,
-6,
-12,
-17,
-21,
-17,
-12,
-13,
-23,
-29,
-24,
-17,
-13,
-22,
-34,
-34,
-23,
-18,
-20,
-31,
-39,
-34,
-25,
-20,
-30,
-39,
-36,
-29,
-23,
-28,
-36,
-35,
-29,
-24,
-26,
-31,
-33,
-29,
-25,
-23,
-27,
-28,
-29,
-21,
-21,
-22,
-21,
-24,
-21,
-20,
-19,
-14,
-15,
-16,
-14,
-12,
-9,
-8,
-9,
-7,
-6,
-5,
-3,
-1,
0,
0,
2,
3,
2,
3,
8,
8,
5,
5,
8,
14,
14,
14,
11,
12,
14,
18,
20,
15,
13,
17,
21,
22,
18,
14,
17,
22,
25,
21,
16,
13,
20,
26,
24,
16,
11,
14,
21,
23,
17,
10,
9,
15,
18,
15,
11,
5,
8,
11,
12,
7,
1,
2,
4,
5,
2,
-3,
-5,
-3,
-1,
-4,
-9,
-9,
-10,
-8,
-8,
-11,
-15,
-16,
-14,
-18,
-16,
-18,
-21,
-19,
-23,
-24,
-20,
-24,
-23,
-27,
-30,
-27,
-27,
-26,
-28,
-29,
-31,
-32,
-32,
-29,
-26,
-30,
-32,
-33,
-30,
-27,
-27,
-30,
-33,
-32,
-28,
-24,
-27,
-32,
-30,
-24,
-17,
-21,
-28,
-31,
-19,
-13,
-13,
-19,
-26,
-21,
-9,
-4,
-11,
-21,
-20,
-8,
2,
-1,
-9,
-13,
-6,
4,
6,
1,
-6,
-5,
5,
12,
10,
4,
3,
5,
14,
16,
12,
10,
9,
13,
22,
19,
14,
9,
14,
21,
26,
24,
14,
11,
16,
26,
28,
20,
10,
13,
23,
27,
21,
12,
12,
18,
24,
20,
13,
11,
13,
18,
18,
11,
5,
8,
12,
12,
6,
2,
5,
5,
5,
1,
-2,
-1,
0,
-2,
-5,
-8,
-7,
-5,
-8,
-11,
-13,
-14,
-11,
-13,
-17,
-19,
-19,
-16,
-17,
-20,
-23,
-27,
-22,
-23,
-24,
-23,
-27,
-30,
-32,
-28,
-23,
-26,
-30,
-34,
-33,
-28,
-27,
-31,
-35,
-35,
-28,
-23,
-28,
-34,
-35,
-28,
-20,
-24,
-32,
-34,
-27,
-20,
-16,
-24,
-30,
-28,
-19,
-12,
-16,
-22,
-25,
-16,
-10,
-10,
-13,
-15,
-11,
-8,
-5,
-4,
-8,
-7,
-4,
0,
1,
0,
2,
3,
5,
5,
7,
8,
7,
8,
11,
13,
13,
12,
13,
14,
14,
17,
18,
17,
16,
16,
17,
19,
20,
19,
17,
17,
18,
20,
23,
20,
17,
15,
19,
23,
21,
17,
13,
13,
17,
19,
17,
11,
8,
10,
14,
15,
10,
3,
4,
8,
12,
6,
-2,
-4,
-1,
6,
7,
-3,
-13,
-14,
-4,
1,
-6,
-16,
-21,
-16,
-6,
-7,
-16,
-25,
-24,
-15,
-10,
-17,
-27,
-30,
-27,
-17,
-20,
-27,
-33,
-32,
-25,
-23,
-28,
-32,
-35,
-33,
-27,
-24,
-30,
-35,
-35,
-29,
-23,
-25,
-32,
-35,
-31,
-25,
-22,
-27,
-32,
-33,
-26,
-19,
-21,
-26,
-29,
-23,
-17,
-16,
-20,
-24,
-18,
-13,
-10,
-14,
-18,
-13,
-6,
-4,
-8,
-12,
-8,
0,
1,
-2,
-4,
-1,
5,
6,
4,
1,
4,
9,
13,
11,
6,
7,
14,
17,
15,
11,
12,
16,
20,
19,
16,
13,
17,
18,
22,
23,
20,
17,
16,
19,
24,
24,
20,
15,
15,
20,
24,
20,
12,
11,
17,
21,
19,
9,
5,
11,
16,
17,
9,
0,
2,
9,
14,
8,
-3,
-6,
0,
6,
3,
-6,
-9,
-7,
-4,
-4,
-7,
-12,
-13,
-12,
-12,
-13,
-18,
-18,
-16,
-19,
-21,
-21,
-24,
-19,
-23,
-27,
-25,
-26,
-25,
-28,
-32,
-29,
-27,
-28,
-29,
-31,
-30,
-29,
-28,
-30,
-30,
-32,
-32,
-29,
-27,
-28,
-30,
-31,
-30,
-28,
-24,
-23,
-27,
-30,
-29,
-20,
-17,
-19,
-25,
-27,
-20,
-13,
-10,
-17,
-21,
-18,
-9,
-4,
-9,
-15,
-13,
-7,
2,
2,
-6,
-7,
-2,
5,
9,
5,
-2,
-2,
7,
16,
14,
6,
3,
9,
18,
19,
15,
8,
10,
15,
24,
22,
15,
10,
14,
22,
25,
21,
15,
15,
20,
24,
24,
19,
15,
17,
23,
24,
19,
14,
14,
16,
21,
20,
13,
9,
9,
13,
16,
14,
6,
4,
7,
9,
7,
2,
0,
1,
3,
1,
-4,
-5,
-6,
-2,
-4,
-9,
-13,
-12,
-9,
-10,
-15,
-20,
-19,
-14,
-14,
-19,
-27,
-23,
-20,
-17,
-20,
-30,
-30,
-26,
-22,
-24,
-30,
-35,
-29,
-27,
-25,
-32,
-37,
-33,
-27,
-25,
-28,
-32,
-35,
-31,
-28,
-24,
-28,
-33,
-32,
-28,
-23,
-23,
-26,
-29,
-28,
-24,
-18,
-18,
-25,
-26,
-20,
-13,
-11,
-16,
-20,
-17,
-9,
-5,
-7,
-15,
-15,
-8,
2,
4,
-4,
-9,
-4,
6,
8,
4,
0,
3,
8,
12,
12,
8,
9,
11,
15,
14,
12,
14,
16,
17,
15,
15,
17,
19,
20,
17,
17,
21,
22,
22,
18,
17,
20,
21,
22,
18,
13,
16,
20,
21,
17,
13,
12,
15,
17,
16,
14,
9,
7,
9,
12,
13,
6,
2,
0,
3,
7,
5,
-2,
-8,
-7,
-1,
2,
-4,
-14,
-15,
-9,
-3,
-7,
-18,
-24,
-18,
-9,
-9,
-20,
-29,
-27,
-17,
-12,
-19,
-30,
-34,
-28,
-18,
-21,
-31,
-35,
-33,
-25,
-23,
-28,
-33,
-36,
-32,
-28,
-26,
-30,
-35,
-35,
-29,
-26,
-27,
-32,
-32,
-29,
-26,
-26,
-27,
-29,
-28,
-24,
-18,
-20,
-24,
-27,
-19,
-15,
-15,
-16,
-19,
-16,
-13,
-9,
-11,
-12,
-11,
-6,
-3,
-6,
-6,
-3,
1,
3,
1,
0,
1,
7,
9,
9,
5,
6,
9,
14,
16,
10,
8,
13,
18,
19,
15,
12,
14,
21,
24,
22,
15,
13,
18,
24,
25,
17,
12,
16,
21,
28,
22,
14,
13,
18,
24,
22,
16,
10,
10,
17,
19,
15,
8,
4,
7,
11,
13,
9,
3,
0,
3,
5,
5,
-3,
-8,
-5,
0,
1,
-5,
-12,
-14,
-10,
-5,
-7,
-14,
-21,
-18,
-11,
-12,
-18,
-25,
-26,
-20,
-18,
-21,
-27,
-29,
-26,
-24,
-27,
-28,
-30,
-29,
-27,
-28,
-30,
-30,
-29,
-29,
-31,
-34,
-31,
-28,
-27,
-32,
-34,
-31,
-26,
-25,
-29,
-32,
-29,
-24,
-22,
-24,
-27,
-27,
-20,
-17,
-17,
-22,
-25,
-18,
-15,
-13,
-12,
-15,
-15,
-13,
-7,
-4,
-6,
-8,
-9,
-4,
1,
3,
1,
-3,
-2,
4,
11,
11,
3,
1,
6,
16,
17,
10,
4,
9,
19,
25,
20,
9,
10,
17,
25,
24,
14,
9,
16,
27,
27,
19,
14,
13,
21,
25,
19,
17,
14,
18,
22,
20,
15,
14,
16,
15,
15,
14,
13,
11,
10,
10,
9,
9,
6,
3,
5,
5,
3,
0,
-3,
-2,
-1,
-2,
-4,
-8,
-9,
-8,
-8,
-10,
-14,
-15,
-12,
-11,
-18,
-22,
-24,
-15,
-15,
-21,
-27,
-31,
-22,
-19,
-24,
-30,
-34,
-29,
-24,
-20,
-30,
-36,
-33,
-27,
-23,
-29,
-36,
-36,
-28,
-23,
-27,
-32,
-36,
-32,
-24,
-23,
-29,
-34,
-34,
-24,
-19,
-20,
-26,
-32,
-26,
-18,
-15,
-16,
-23,
-25,
-16,
-10,
-8,
-14,
-19,
-15,
-7,
-2,
-4,
-9,
-10,
-5,
3,
5,
1,
-4,
0,
6,
11,
8,
3,
3,
9,
14,
16,
12,
7,
10,
15,
20,
17,
14,
15,
16,
20,
20,
16,
17,
18,
19,
21,
20,
19,
19,
20,
20,
18,
18,
20,
20,
17,
14,
16,
19,
19,
14,
11,
10,
12,
15,
14,
8,
4,
6,
11,
10,
2,
-2,
2,
5,
6,
0,
-9,
-9,
-4,
0,
-2,
-9,
-15,
-15,
-11,
-8,
-11,
-17,
-24,
-19,
-17,
-16,
-19,
-25,
-26,
-23,
-19,
-20,
-27,
-33,
-31,
-25,
-19,
-26,
-35,
-35,
-28,
-22,
-26,
-33,
-39,
-34,
-26,
-23,
-30,
-37,
-35,
-27,
-23,
-26,
-33,
-34,
-25,
-21,
-24,
-27,
-27,
-24,
-20,
-19,
-21,
-21,
-20,
-15,
-16,
-17,
-15,
-12,
-10,
-10,
-9,
-7,
-7,
-7,
-4,
-2,
-1,
0,
-1,
1,
3,
4,
7,
5,
5,
7,
10,
9,
8,
11,
16,
18,
13,
9,
12,
19,
25,
20,
12,
11,
19,
26,
26,
18,
11,
16,
25,
29,
20,
11,
12,
21,
28,
24,
12,
8,
17,
24,
22,
14,
5,
8,
17,
21,
12,
4,
3,
8,
13,
10,
4,
-3,
-2,
2,
5,
3,
-6,
-11,
-9,
-3,
-3,
-7,
-13,
-16,
-14,
-8,
-9,
-15,
-22,
-21,
-15,
-15,
-19,
-26,
-28,
-23,
-19,
-21,
-28,
-32,
-29,
-24,
-24,
-28,
-34,
-34,
-29,
-26,
-27,
-33,
-34,
-32,
-28,
-30,
-32,
-29,
-28,
-30,
-32,
-29,
-25,
-25,
-25,
-28,
-27,
-26,
-21,
-18,
-22,
-24,
-24,
-17,
-13,
-16,
-20,
-18,
-14,
-10,
-8,
-11,
-13,
-10,
-4,
-1,
-4,
-7,
-6,
1,
5,
6,
2,
-2,
2,
9,
13,
11,
4,
3,
11,
18,
18,
14,
11,
13,
18,
20,
19,
15,
13,
16,
21,
24,
19,
14,
17,
21,
25,
22,
16,
14,
18,
24,
23,
17,
11,
14,
21,
21,
17,
11,
9,
14,
17,
14,
8,
5,
7,
10,
8,
5,
1,
2,
6,
1,
-3,
-5,
-3,
-1,
-3,
-9,
-11,
-9,
-6,
-8,
-14,
-16,
-16,
-14,
-13,
-17,
-21,
-22,
-20,
-18,
-22,
-25,
-27,
-26,
-24,
-26,
-28,
-29,
-31,
-31,
-28,
-26,
-29,
-36,
-36,
-29,
-23,
-26,
-35,
-37,
-31,
-24,
-21,
-28,
-38,
-36,
-26,
