5-grundlagen-opAmps/data/ALL0005/A0005CH2.CSV

Memory Length,4000,
Trigger Level,0.00000e+00,
Source,CH2,
Probe,1.0X,
Vertical Units,V,
Vertical Scale,5.00000e-02,
Vertical Position,0.00000e+00,
Horizontal Units,S,
Horizontal Scale,1.00000e-07,
Horizontal Position,1.0000000e-07,
Horizontal Mode,Main,
Sampling Period,2.00000e-09,
Firmware,V1.14,
Time, ,
Mode,Fast,
Waveform Data,
-31,
-31,
-30,
-31,
-28,
-29,
-32,
-32,
-29,
-25,
-27,
-31,
-31,
-29,
-25,
-27,
-28,
-30,
-27,
-24,
-24,
-25,
-25,
-25,
-19,
-16,
-18,
-20,
-19,
-13,
-11,
-14,
-13,
-12,
-7,
-5,
-6,
-7,
-7,
-1,
3,
3,
0,
1,
6,
11,
12,
9,
9,
11,
17,
18,
18,
15,
15,
18,
23,
23,
21,
20,
23,
26,
30,
28,
27,
25,
26,
29,
33,
30,
25,
25,
28,
33,
32,
27,
22,
25,
31,
33,
29,
23,
21,
27,
31,
27,
20,
17,
20,
24,
23,
14,
10,
11,
16,
17,
12,
6,
4,
9,
11,
8,
2,
-1,
0,
0,
-1,
-5,
-7,
-8,
-8,
-11,
-10,
-11,
-12,
-15,
-16,
-16,
-17,
-17,
-19,
-23,
-24,
-24,
-22,
-24,
-26,
-27,
-29,
-26,
-26,
-31,
-31,
-30,
-28,
-31,
-30,
-31,
-31,
-31,
-31,
-29,
-29,
-29,
-29,
-29,
-28,
-25,
-22,
-23,
-25,
-25,
-21,
-19,
-18,
-23,
-23,
-19,
-14,
-13,
-16,
-18,
-15,
-7,
-3,
-5,
-7,
-6,
-1,
4,
5,
0,
-1,
2,
7,
9,
8,
5,
8,
13,
19,
17,
16,
16,
19,
23,
24,
24,
21,
23,
24,
26,
28,
26,
24,
26,
30,
32,
31,
30,
31,
31,
33,
31,
31,
31,
28,
29,
31,
28,
26,
25,
26,
26,
25,
23,
22,
23,
24,
23,
20,
18,
18,
17,
16,
12,
8,
9,
10,
9,
6,
1,
2,
3,
4,
0,
-5,
-5,
-3,
-2,
-6,
-12,
-14,
-12,
-8,
-11,
-18,
-23,
-19,
-16,
-16,
-22,
-25,
-27,
-22,
-21,
-23,
-28,
-31,
-29,
-26,
-25,
-29,
-35,
-34,
-29,
-28,
-31,
-31,
-35,
-31,
-27,
-25,
-25,
-29,
-33,
-27,
-24,
-21,
-24,
-31,
-27,
-22,
-19,
-19,
-22,
-23,
-18,
-10,
-10,
-14,
-17,
-14,
-6,
-3,
-5,
-8,
-7,
-1,
3,
1,
0,
-1,
2,
9,
10,
10,
10,
11,
16,
17,
16,
19,
19,
20,
20,
20,
22,
24,
25,
26,
25,
26,
30,
30,
28,
27,
29,
33,
32,
29,
29,
29,
31,
32,
30,
28,
27,
28,
28,
29,
28,
26,
28,
27,
26,
25,
25,
25,
20,
18,
19,
19,
17,
13,
10,
11,
15,
13,
7,
3,
4,
9,
7,
4,
-3,
-6,
-2,
-1,
-4,
-10,
-14,
-10,
-6,
-8,
-16,
-18,
-17,
-14,
-15,
-18,
-22,
-23,
-21,
-20,
-21,
-27,
-30,
-27,
-27,
-25,
-30,
-30,
-29,
-28,
-27,
-27,
-27,
-28,
-31,
-26,
-26,
-26,
-27,
-27,
-27,
-26,
-25,
-24,
-25,
-25,
-24,
-20,
-19,
-19,
-18,
-16,
-14,
-15,
-15,
-13,
-10,
-8,
-8,
-8,
-8,
-4,
-1,
0,
-1,
-1,
1,
8,
10,
6,
4,
11,
16,
16,
13,
9,
13,
18,
22,
21,
16,
17,
24,
29,
30,
24,
20,
25,
31,
33,
29,
27,
25,
28,
33,
32,
32,
25,
29,
34,
35,
32,
29,
27,
30,
31,
29,
29,
23,
20,
24,
28,
26,
20,
17,
19,
22,
21,
17,
12,
10,
14,
16,
12,
5,
1,
1,
6,
6,
2,
-6,
-5,
-1,
1,
-4,
-9,
-12,
-9,
-7,
-10,
-16,
-18,
-20,
-17,
-17,
-20,
-24,
-25,
-22,
-23,
-25,
-26,
-25,
-25,
-27,
-29,
-29,
-28,
-28,
-30,
-31,
-32,
-31,
-27,
-28,
-30,
-33,
-29,
-25,
-26,
-27,
-27,
-25,
-23,
-23,
-23,
-25,
-23,
-22,
-19,
-19,
-19,
-19,
-18,
-14,
-12,
-10,
-8,
-9,
-8,
-6,
-2,
-1,
-3,
-3,
0,
3,
7,
4,
3,
4,
9,
14,
15,
12,
12,
17,
21,
23,
20,
17,
20,
24,
26,
25,
19,
23,
26,
30,
30,
27,
25,
29,
32,
32,
29,
28,
30,
32,
32,
28,
28,
27,
27,
28,
27,
26,
26,
25,
25,
24,
23,
23,
22,
22,
20,
18,
18,
15,
14,
12,
10,
10,
9,
7,
7,
7,
4,
0,
0,
1,
1,
-2,
-7,
-8,
-8,
-7,
-9,
-14,
-18,
-17,
-12,
-13,
-20,
-25,
-24,
-18,
-16,
-25,
-27,
-29,
-26,
-19,
-24,
-31,
-35,
-32,
-25,
-25,
-30,
-36,
-35,
-27,
-23,
-30,
-32,
-35,
-28,
-24,
-23,
-27,
-29,
-31,
-25,
-21,
-21,
-25,
-27,
-22,
-18,
-17,
-14,
-17,
-16,
-13,
-9,
-7,
-10,
-13,
-9,
-5,
-3,
-4,
-6,
-5,
0,
5,
8,
4,
4,
7,
11,
15,
15,
11,
13,
17,
19,
18,
18,
18,
20,
25,
26,
24,
24,
27,
29,
31,
28,
27,
30,
31,
29,
28,
28,
32,
32,
29,
28,
27,
28,
30,
31,
27,
25,
27,
29,
27,
25,
22,
24,
23,
23,
19,
16,
15,
16,
17,
15,
12,
10,
9,
11,
11,
9,
5,
3,
1,
2,
1,
-2,
-4,
-8,
-9,
-8,
-7,
-12,
-15,
-16,
-13,
-12,
-16,
-19,
-24,
-21,
-19,
-21,
-25,
-30,
-30,
-25,
-24,
-27,
-33,
-33,
-28,
-25,
-27,
-32,
-33,
-29,
-27,
-27,
-29,
-31,
-31,
-29,
-27,
-30,
-31,
-27,
-26,
-27,
-27,
-26,
-22,
-20,
-20,
-22,
-21,
-18,
-17,
-15,
-16,
-15,
-14,
-12,
-9,
-10,
-11,
-5,
-3,
-1,
0,
1,
2,
4,
5,
8,
8,
9,
9,
11,
15,
17,
16,
14,
16,
18,
24,
27,
22,
18,
25,
28,
32,
26,
20,
21,
27,
34,
31,
25,
22,
26,
33,
34,
27,
23,
26,
32,
33,
28,
20,
20,
25,
28,
26,
19,
18,
20,
25,
25,
20,
16,
14,
18,
19,
15,
11,
7,
7,
9,
8,
7,
2,
-1,
-1,
2,
2,
-1,
-7,
-9,
-5,
-4,
-8,
-13,
-18,
-17,
-13,
-13,
-19,
-23,
-24,
-21,
-19,
-22,
-27,
-26,
-23,
-23,
-26,
-31,
-30,
-29,
-27,
-27,
-33,
-33,
-32,
-30,
-29,
-32,
-34,
-31,
-27,
-27,
-31,
-30,
-28,
-25,
-25,
-27,
-28,
-25,
-22,
-21,
-22,
-24,
-24,
-19,
-14,
-15,
-16,
-16,
-11,
-7,
-7,
-7,
-7,
-6,
-3,
0,
-1,
-1,
-3,
2,
5,
10,
9,
10,
9,
12,
17,
18,
17,
16,
16,
20,
23,
22,
19,
20,
23,
27,
29,
25,
24,
26,
30,
33,
31,
26,
26,
30,
34,
32,
27,
26,
27,
28,
28,
27,
25,
25,
27,
29,
24,
22,
24,
25,
23,
20,
17,
18,
18,
16,
12,
10,
11,
12,
9,
7,
3,
6,
6,
5,
0,
-3,
-3,
-1,
-2,
-7,
-13,
-13,
-9,
-11,
-13,
-16,
-19,
-18,
-16,
-17,
-18,
-22,
-25,
-23,
-21,
-22,
-25,
-30,
-32,
-28,
-26,
-26,
-30,
-34,
-35,
-30,
-25,
-28,
-35,
-35,
-29,
-23,
-26,
-32,
-36,
-31,
-24,
-22,
-28,
-33,
-33,
-25,
-17,
-20,
-24,
-25,
-20,
-13,
-13,
-16,
-18,
-15,
-10,
-7,
-8,
-11,
-11,
-7,
-3,
0,
-2,
-1,
1,
4,
7,
9,
10,
9,
9,
12,
16,
16,
13,
14,
17,
20,
23,
22,
20,
22,
27,
30,
28,
25,
25,
29,
32,
29,
26,
26,
28,
31,
29,
26,
26,
28,
31,
30,
26,
25,
28,
31,
27,
24,
21,
25,
25,
24,
18,
16,
18,
20,
19,
14,
11,
10,
13,
16,
10,
4,
5,
6,
7,
5,
-1,
-4,
-5,
-3,
-4,
-7,
-10,
-11,
-11,
-10,
-10,
-14,
-18,
-18,
-19,
-17,
-18,
-21,
-26,
-25,
-23,
-22,
-24,
-30,
-32,
-29,
-24,
-26,
-31,
-33,
-31,
-28,
-27,
-31,
-36,
-33,
-31,
-27,
-29,
-32,
-33,
-29,
-25,
-25,
-27,
-26,
-25,
-22,
-23,
-22,
-22,
-21,
-19,
-18,
-20,
-18,
-15,
-12,
-10,
-10,
-8,
-6,
-3,
-3,
-5,
-4,
1,
3,
2,
3,
1,
4,
9,
11,
11,
11,
12,
16,
19,
20,
17,
17,
19,
23,
26,
23,
21,
21,
26,
29,
30,
28,
25,
27,
32,
34,
32,
27,
27,
28,
32,
34,
28,
22,
21,
28,
31,
27,
21,
20,
23,
28,
28,
21,
16,
17,
23,
25,
18,
10,
7,
12,
18,
13,
5,
2,
4,
8,
6,
2,
-4,
-4,
-1,
2,
-2,
-10,
-11,
-9,
-8,
-10,
-16,
-16,
-16,
-17,
-18,
-21,
-21,
-22,
-21,
-22,
-22,
-23,
-26,
-27,
-27,
-27,
-29,
-29,
-30,
-31,
-31,
-27,
-30,
-31,
-31,
-30,
-27,
-27,
-31,
-29,
-26,
-24,
-26,
-29,
-29,
-25,
-23,
-23,
-25,
-26,
-22,
-16,
-16,
-18,
-20,
-15,
-8,
-6,
-11,
-13,
-9,
-4,
-3,
-3,
-6,
-6,
1,
6,
5,
2,
2,
8,
12,
14,
12,
12,
14,
18,
20,
20,
18,
18,
18,
23,
25,
25,
26,
24,
27,
29,
31,
30,
28,
27,
30,
33,
33,
28,
26,
28,
32,
33,
28,
26,
25,
29,
31,
30,
26,
23,
25,
28,
27,
22,
18,
19,
22,
20,
16,
15,
15,
13,
13,
11,
10,
9,
8,
6,
5,
3,
3,
3,
-1,
-6,
-7,
-6,
-5,
-8,
-14,
-14,
-12,
-11,
-15,
-17,
-21,
-20,
-17,
-18,
-22,
-26,
-27,
-26,
-22,
-24,
-31,
-32,
-29,
-27,
-27,
-29,
-31,
-32,
-31,
-28,
-25,
-28,
-33,
-33,
-28,
-25,
-25,
-29,
-33,
-28,
-24,
-21,
-22,
-26,
-27,
-21,
-15,
-14,
-20,
-22,
-19,
-12,
-8,
-11,
-16,
-14,
-7,
-4,
-3,
-6,
-9,
-3,
5,
7,
3,
2,
4,
9,
13,
12,
9,
9,
15,
17,
18,
16,
17,
19,
23,
24,
23,
22,
25,
26,
28,
28,
27,
28,
28,
30,
27,
26,
29,
29,
31,
31,
29,
29,
29,
29,
28,
29,
27,
25,
25,
26,
24,
22,
20,
21,
23,
23,
19,
16,
15,
17,
17,
17,
10,
6,
5,
11,
8,
2,
-4,
-1,
3,
4,
-2,
-7,
-9,
-3,
-3,
-5,
-14,
-18,
-15,
-12,
-11,
-19,
-25,
-22,
-17,
-17,
-23,
-26,
-28,
-24,
-21,
-23,
-27,
-28,
-31,
-29,
-27,
-28,
-33,
-34,
-31,
-29,
-29,
-29,
-30,
-31,
-31,
-25,
-24,
-25,
-28,
-30,
-25,
-22,
-23,
-24,
-26,
-22,
-20,
-18,
-20,
-20,
-19,
-13,
-10,
-12,
-11,
-9,
-6,
-4,
-5,
-4,
0,
1,
-1,
1,
2,
4,
7,
9,
7,
10,
14,
17,
17,
16,
15,
19,
23,
23,
20,
19,
22,
25,
28,
25,
23,
24,
29,
31,
32,
27,
27,
30,
32,
34,
30,
28,
27,
29,
29,
30,
26,
24,
25,
27,
28,
27,
21,
22,
23,
24,
25,
20,
16,
16,
19,
19,
16,
10,
5,
8,
12,
12,
4,
0,
1,
4,
6,
2,
-5,
-8,
-6,
-2,
-6,
-13,
-17,
-15,
-11,
-12,
-18,
-21,
-20,
-17,
-18,
-20,
-25,
-26,
-23,
-23,
-25,
-30,
-28,
-27,
-27,
-28,
-32,
-31,
-30,
-30,
-31,
-31,
-30,
-28,
-27,
-29,
-29,
-30,
-27,
-26,
-28,
-27,
-30,
-27,
-25,
-23,
-23,
-21,
-21,
-20,
-19,
-14,
-13,
-14,
-17,
-14,
-9,
-7,
-8,
-9,
-9,
-5,
0,
2,
-1,
-3,
0,
7,
11,
9,
5,
6,
14,
18,
15,
13,
11,
16,
25,
24,
19,
16,
19,
27,
29,
27,
24,
25,
27,
31,
31,
27,
26,
27,
29,
32,
31,
26,
27,
29,
30,
31,
28,
27,
26,
27,
28,
30,
25,
21,
20,
23,
24,
20,
15,
13,
15,
17,
15,
12,
7,
10,
11,
11,
6,
3,
0,
3,
1,
-1,
-5,
-6,
-5,
-6,
-9,
-10,
-11,
-10,
-12,
-15,
-16,
-17,
-17,
-17,
-22,
-25,
-24,
-19,
-21,
-27,
-31,
-30,
-24,
-23,
-31,
-34,
-31,
-26,
-25,
-27,
-35,
-35,
-31,
-26,
-27,
-32,
-35,
-31,
-26,
-25,
-27,
-27,
-28,
-23,
-21,
-22,
-22,
-23,
-23,
-20,
-16,
-15,
-18,
-18,
-16,
-11,
-7,
-5,
-6,
-7,
-5,
1,
2,
1,
-3,
0,
5,
9,
6,
4,
4,
9,
15,
16,
14,
15,
17,
22,
23,
20,
18,
23,
24,
26,
25,
23,
24,
28,
28,
28,
26,
27,
32,
33,
32,
28,
28,
31,
31,
28,
25,
27,
28,
29,
26,
24,
23,
25,
26,
26,
23,
19,
19,
21,
22,
18,
16,
13,
12,
13,
11,
9,
4,
4,
5,
7,
4,
1,
-4,
-3,
0,
1,
-5,
-9,
-13,
-10,
-7,
-8,
-16,
-20,
-20,
-16,
-14,
-20,
-27,
-26,
-21,
-20,
-22,
-27,
-32,
-28,
-23,
-24,
-28,
-34,
-35,
-30,
-26,
-28,
-36,
-36,
-32,
-26,
-27,
-29,
-30,
-30,
-27,
-25,
-25,
-26,
-28,
-26,
-24,
-21,
-23,
-23,
-22,
-19,
-17,
-14,
-13,
-14,
-14,
-9,
-8,
-6,
-7,
-7,
-6,
-4,
-1,
0,
-1,
0,
3,
7,
7,
8,
11,
11,
14,
14,
15,
17,
18,
19,
17,
20,
21,
23,
25,
25,
23,
25,
29,
29,
27,
26,
27,
33,
34,
29,
26,
27,
32,
33,
29,
26,
23,
28,
31,
31,
25,
22,
25,
28,
29,
24,
18,
20,
22,
22,
17,
15,
12,
13,
15,
14,
10,
8,
6,
7,
8,
8,
4,
2,
-1,
-1,
-2,
-3,
-6,
-12,
-12,
-8,
-8,
-12,
-19,
-18,
-15,
-14,
-17,
-21,
-25,
-22,
-19,
-21,
-25,
-30,
-30,
-26,
-25,
-28,
-33,
-32,
-27,
-28,
-31,
-33,
-30,
-26,
-25,
-30,
-30,
-30,
-27,
-25,
-29,
-31,
-31,
-26,
-23,
-25,
-30,
-25,
-21,
-17,
-18,
-20,
-19,
-17,
-13,
-11,
-13,
-15,
-14,
-8,
-6,
-5,
-7,
-7,
-3,
1,
4,
5,
3,
3,
6,
11,
14,
12,
7,
10,
15,
20,
18,
16,
15,
18,
25,
29,
24,
18,
21,
26,
33,
28,
23,
21,
27,
33,
32,
28,
23,
26,
33,
34,
29,
24,
25,
30,
32,
29,
25,
21,
23,
25,
25,
24,
19,
20,
20,
20,
18,
16,
14,
15,
16,
14,
11,
9,
5,
4,
4,
4,
2,
0,
-3,
-3,
-2,
-3,
-7,
-7,
-8,
-10,
-11,
-13,
-15,
-17,
-18,
-18,
-19,
-21,
-23,
-22,
-22,
-25,
-24,
-24,
-25,
-25,
-31,
-31,
-28,
-26,
-28,
-31,
-35,
-32,
-29,
-29,
-30,
-32,
-34,
-29,
-24,
-26,
-31,
-31,
-27,
-23,
-23,
-25,
-28,
-25,
-20,
-18,
-21,
-23,
-22,
-16,
-11,
-12,
-13,
-13,
-9,
-5,
-5,
-5,
-5,
-4,
-1,
1,
3,
2,
1,
5,
7,
11,
12,
11,
14,
15,
17,
19,
19,
17,
17,
22,
24,
23,
24,
22,
23,
27,
29,
29,
26,
27,
30,
33,
32,
28,
28,
33,
33,
28,
27,
28,
32,
28,
28,
25,
25,
28,
28,
27,
23,
22,
26,
27,
24,
16,
15,
18,
20,
18,
9,
8,
9,
12,
13,
7,
0,
2,
6,
7,
3,
-3,
-7,
-4,
-3,
-5,
-11,
-14,
-14,
-12,
-12,
-13,
-18,
-20,
-20,
-17,
-16,
-19,
-26,
-27,
-25,
-21,
-21,
-29,
-32,
-33,
-25,
-23,
-28,
-34,
-36,
-30,
-23,
-24,
-33,
-35,
-30,
-22,
-22,
-27,
-33,
-31,
-26,
-21,
-24,
-28,
-31,
-25,
-19,
-17,
-20,
-20,
-18,
-14,
-11,
-12,
-12,
-11,
-10,
-7,
-5,
-5,
-6,
-5,
-3,
0,
3,
5,
6,
7,
9,
10,
14,
13,
13,
15,
16,
18,
17,
18,
20,
21,
20,
24,
24,
24,
28,
28,
27,
27,
28,
31,
31,
27,
27,
29,
32,
31,
26,
27,
28,
32,
30,
28,
24,
25,
30,
31,
27,
22,
20,
26,
26,
22,
15,
14,
16,
20,
18,
13,
8,
9,
12,
14,
9,
4,
2,
3,
5,
3,
-3,
-5,
-6,
-5,
-6,
-9,
-12,
-13,
-15,
-10,
-12,
-16,
-17,
-19,
-20,
-19,
-21,
-23,
-24,
-25,
-25,
-25,
-26,
-27,
-31,
-30,
-27,
-27,
-31,
-31,
-30,
-30,
-29,
-31,
-33,
-30,
-31,
-30,
-30,
-29,
-28,
-26,
-25,
-25,
-27,
-23,
-21,
-21,
-23,
-24,
-21,
-17,
-14,
-16,
-20,
-18,
-12,
-6,
-6,
-10,
-9,
-4,
2,
2,
-3,
-3,
0,
7,
9,
6,
2,
3,
11,
14,
16,
13,
12,
16,
22,
24,
23,
19,
19,
22,
27,
27,
24,
22,
23,
27,
32,
32,
28,
27,
27,
34,
35,
31,
26,
25,
31,
37,
33,
25,
20,
26,
29,
31,
25,
19,
20,
25,
28,
23,
17,
15,
19,
24,
19,
12,
9,
12,
14,
11,
6,
2,
3,
4,
3,
0,
-2,
-2,
-2,
-4,
-6,
-8,
-9,
-10,
-11,
-15,
-17,
-15,
-16,
-19,
-21,
-21,
-21,
-21,
-23,
-25,
-25,
-25,
-25,
-25,
-28,
-28,
-31,
-31,
-30,
-31,
-31,
-29,
-31,
-31,
-31,
-29,
-27,
-29,
-31,
-27,
-25,
-23,
-27,
-29,
-28,
-22,
-21,
-21,
-25,
-27,
-22,
-15,
-14,
-17,
-19,
-15,
-8,
-6,
-11,
-11,
-8,
-3,
-1,
-3,
-5,
-4,
0,
4,
5,
4,
5,
9,
11,
14,
14,
13,
15,
17,
17,
19,
18,
20,
21,
21,
23,
25,
25,
26,
26,
26,
28,
30,
30,
28,
28,
30,
30,
28,
28,
27,
27,
27,
27,
26,
27,
26,
25,
26,
25,
24,
25,
25,
20,
20,
18,
20,
17,
13,
9,
11,
14,
13,
7,
4,
5,
9,
8,
6,
-2,
-4,
1,
1,
-3,
-10,
-15,
-11,
-5,
-8,
-15,
-21,
-20,
-14,
-12,
-16,
-24,
-26,
-22,
-19,
-20,
-26,
-33,
-31,
-26,
-24,
-30,
-33,
-35,
-30,
-27,
-26,
-29,
-32,
-34,
-29,
-25,
-26,
-31,
-34,
-32,
-25,
-23,
-25,
-30,
-31,
-26,
-22,
-20,
-22,
-27,
-21,
-15,
-13,
-16,
-19,
-18,
-12,
-7,
-8,
-12,
-12,
-9,
-4,
-1,
-3,
-4,
-1,
4,
7,
5,
7,
8,
12,
13,
12,
13,
15,
17,
17,
17,
18,
19,
24,
24,
22,
24,
25,
27,
27,
26,
27,
28,
31,
31,
29,
27,
28,
30,
30,
32,
31,
28,
29,
29,
29,
29,
29,
26,
23,
23,
27,
25,
21,
19,
19,
23,
22,
18,
15,
12,
16,
18,
15,
8,
3,
3,
8,
7,
1,
-7,
-4,
0,
2,
-4,
-10,
-9,
-6,
-5,
-8,
-14,
-18,
-17,
-14,
-15,
-20,
-25,
-22,
-19,
-22,
-25,
-25,
-25,
-26,
-25,
-29,
-28,
-28,
-31,
-31,
-31,
-30,
-31,
-30,
-30,
-31,
-32,
-29,
-28,
-30,
-31,
-27,
-27,
-24,
-26,
-26,
-26,
-23,
-23,
-23,
-22,
-20,
-22,
-20,
-17,
-16,
-13,
-14,
-12,
-12,
-8,
-5,
-5,
-5,
-7,
-3,
2,
4,
1,
-3,
0,
7,
12,
11,
7,
7,
13,
19,
19,
16,
13,
16,
23,
26,
23,
18,
19,
23,
29,
29,
24,
22,
26,
31,
34,
29,
25,
26,
29,
34,
31,
27,
26,
25,
29,
31,
27,
22,
22,
26,
28,
28,
23,
19,
19,
22,
25,
20,
15,
11,
13,
18,
16,
9,
5,
6,
8,
10,
3,
-1,
-1,
1,
2,
0,
-6,
-10,
-7,
-6,
-7,
-14,
-18,
-15,
-13,
-14,
-21,
-23,
-21,
-18,
-20,
-23,
-25,
-25,
-23,
-23,
-28,
-30,
-31,
-29,
-27,
-29,
-34,
-33,
-30,
-28,
-31,
-32,
-31,
-28,
-26,
-26,
-28,
-30,
-30,
-25,
-25,
-24,
-25,
-27,
-24,
-22,
-21,
-18,
-20,
-19,
-17,
-12,
-9,
-12,
-14,
-12,
-7,
-4,
-4,
-6,
-8,
-4,
1,
4,
3,
-1,
2,
9,
13,
12,
9,
8,
16,
20,
17,
16,
15,
17,
23,
24,
23,
22,
25,
27,
27,
26,
26,
27,
31,
31,
29,
29,
31,
28,
29,
29,
27,
28,
29,
27,
27,
26,
28,
30,
27,
25,
25,
27,
26,
24,
19,
18,
17,
18,
16,
15,
11,
13,
12,
11,
10,
9,
6,
6,
4,
5,
3,
0,
-4,
-6,
-6,
-4,
-5,
-11,
-16,
-15,
-9,
-8,
-16,
-20,
-22,
-17,
-15,
-17,
-25,
-30,
-25,
-21,
-20,
-28,
-35,
-32,
-28,
-25,
-30,
-36,
-36,
-28,
-25,
-26,
-30,
-35,
-32,
-30,
-26,
-28,
-33,
-32,
-28,
-26,
-25,
-26,
-27,
-24,
-23,
-19,
-18,
-19,
-21,
-18,
-14,
-12,
-12,
-16,
-16,
-12,
-7,
-5,
-7,
-9,
-5,
0,
3,
4,
1,
3,
7,
11,
9,
8,
9,
13,
16,
17,
15,
16,
19,
24,
23,
21,
20,
24,
27,
28,
25,
26,
30,
31,
29,
28,
26,
27,
32,
33,
32,
27,
28,
31,
34,
32,
27,
26,
28,
28,
27,
25,
22,
22,
25,
27,
23,
19,
17,
19,
22,
20,
15,
13,
9,
12,
13,
9,
4,
2,
2,
5,
5,
1,
-4,
-5,
-5,
-1,
-5,
-8,
-14,
-13,
-11,
-9,
-14,
-20,
-23,
-19,
-15,
-18,
-26,
-29,
-24,
-20,
-20,
-27,
-30,
-29,
-27,
-25,
-29,
-32,
-33,
-31,
-28,
-29,
-32,
-32,
-29,
-27,
-27,
-26,
-26,
-24,
-26,
-26,
-25,
-25,
-23,
-22,
-25,
-24,
-21,
-18,
-17,
-17,
-19,
-15,
-10,
-9,
-11,
-10,
-9,
-7,
-4,
-2,
-3,
-4,
-3,
0,
3,
4,
3,
5,
8,
11,
14,
15,
15,
14,
17,
23,
24,
21,
16,
18,
24,
27,
28,
23,
20,
26,
32,
32,
30,
24,
28,
33,
36,
32,
25,
25,
30,
34,
30,
25,
22,
25,
31,
30,
25,
22,
21,
27,
28,
24,
19,
19,
19,
19,
17,
14,
13,
12,
11,
13,
10,
7,
5,
3,
5,
5,
3,
1,
-3,
-5,
-4,
-4,
-8,
-12,
-13,
-11,
-9,
-14,
-19,
-19,
-18,
-16,
-20,
-23,
-24,
-22,
-21,
-24,
-27,
-29,
-27,
-26,
-28,
-31,
-33,
-29,
-26,
-28,
-34,
-34,
-30,
-25,
-26,
-32,
-33,
-30,
-25,
-25,
-28,
-31,
-31,
-25,
-22,
-22,
-25,
-25,
-21,
-17,
-17,
-16,
-17,
-16,
-12,
-10,
-8,
-11,
-12,
-8,
-5,
-3,
-3,
-4,
-2,
1,
5,
9,
7,
6,
7,
12,
16,
17,
12,
11,
14,
19,
23,
20,
17,
19,
25,
28,
26,
22,
25,
26,
32,
32,
28,
28,
28,
29,
31,
29,
27,
27,
29,
31,
31,
28,
28,
29,
28,
26,
27,
27,
26,
24,
24,
21,
22,
21,
17,
17,
15,
16,
17,
16,
11,
9,
9,
11,
10,
7,
1,
0,
2,
2,
-2,
-5,
-6,
-7,
-6,
-7,
-10,
-14,
-15,
-13,
-13,
-14,
-18,
-19,
-22,
-20,
-20,
-21,
-24,
-27,
-27,
-24,
-23,
-26,
-31,
-32,
-28,
-23,
-25,
-31,
-35,
-33,
-28,
-24,
-28,
-32,
-35,
-29,
-22,
-23,
-31,
-31,
-26,
-20,
-21,
-23,
-28,
-24,
-19,
-17,
-17,
-21,
-21,
-15,
-10,
-11,
-12,
-10,
-6,
-4,
-3,
-3,
-2,
-1,
1,
2,
3,
4,
5,
7,
8,
11,
12,
15,
15,
16,
17,
20,
21,
22,
23,
25,
25,
23,
24,
21,
26,
27,
28,
27,
27,
29,
33,
31,
28,
28,
31,
34,
32,
25,
25,
29,
32,
29,
21,
19,
22,
28,
29,
25,
19,
17,
24,
26,
22,
15,
12,
16,
18,
15,
9,
4,
5,
10,
11,
4,
-1,
-1,
-1,
3,
0,
-5,
-9,
-9,
-7,
-8,
-11,
-13,
-17,
-17,
-15,
-14,
-16,
-22,
-24,
-22,
-19,
-20,
-25,
-29,
-29,
-25,
-23,
-27,
-30,
-33,
-31,
-27,
-28,
-32,
-36,
-33,
-27,
-26,
-31,
-32,
-30,
-27,
-26,
-28,
-29,
-28,
-26,
-25,
-26,
-26,
-23,
-22,
-21,
-20,
-19,
-17,
-13,
-14,
-16,
-13,
-9,
-6,
-7,
-7,
-8,
-6,
-2,
0,
-1,
-2,
1,
5,
8,
10,
8,
8,
11,
16,
17,
16,
16,
16,
17,
23,
22,
20,
19,
22,
25,
27,
28,
26,
26,
28,
31,
33,
31,
26,
27,
30,
33,
32,
26,
24,
27,
32,
31,
28,
23,
24,
28,
31,
27,
22,
19,
21,
25,
22,
15,
11,
14,
18,
17,
13,
8,
7,
10,
11,
8,
4,
1,
3,
3,
0,
-6,
-5,
-5,
-5,
-8,
-11,
-11,
-13,
-13,
-12,
-15,
-16,
-18,
-18,
-20,
-21,
-24,
-24,
-24,
-26,
-26,
-31,
-29,
-28,
-31,
-30,
-30,
-30,
-32,
-30,
-27,
-28,
-31,
-33,
-30,
-28,
-27,
-29,
-32,
-32,
-27,
-24,
-23,
-27,
-31,
-25,
-20,
-17,
-20,
-24,
-22,
-15,
-11,
-12,
-17,
-19,
-12,
-5,
-5,
-10,
-12,
-8,
0,
4,
0,
-2,
0,
6,
11,
11,
8,
7,
9,
14,
16,
15,
13,
15,
18,
21,
24,
23,
22,
21,
25,
29,
31,
26,
24,
26,
29,
33,
29,
27,
26,
28,
33,
33,
28,
25,
27,
31,
32,
26,
24,
24,
24,
26,
23,
21,
21,
23,
23,
19,
17,
17,
17,
17,
16,
11,
9,
11,
8,
4,
2,
3,
3,
3,
-2,
-4,
-3,
0,
-2,
-5,
-10,
-12,
-11,
-10,
-14,
-19,
-22,
-18,
-16,
-18,
-23,
-26,
-23,
-21,
-21,
-24,
-28,
-29,
-29,
-27,
-27,
-29,
-33,
-34,
-31,
-29,
-31,
-31,
-33,
-32,
-28,
-25,
-25,
-30,
-32,
-27,
-24,
-22,
-26,
-29,
-28,
-22,
-20,
-21,
-24,
-24,
-19,
-13,
-13,
-15,
-17,
-14,
-6,
-6,
-7,
-7,
-6,
-2,
-1,
-1,
-1,
0,
1,
6,
7,
6,
9,
11,
14,
16,
13,
14,
18,
19,
19,
20,
19,
21,
25,
27,
24,
24,
26,
28,
28,
27,
28,
30,
31,
32,
29,
28,
28,
29,
29,
31,
29,
26,
25,
27,
28,
28,
25,
23,
24,
25,
27,
25,
20,
18,
17,
20,
19,
12,
7,
7,
13,
16,
7,
2,
-1,
4,
9,
