4-transistorverstaerker/data/ALL0015/A0015CH1.CSV

Memory Length,4000,
Trigger Level,8.10000e+02,
Source,CH1,
Probe,1.0X,
Vertical Units,V,
Vertical Scale,2.00000e-02,
Vertical Position,-8.00000e-04,
Horizontal Units,S,
Horizontal Scale,5.00000e-04,
Horizontal Position,-6.8000000e-04,
Horizontal Mode,Main,
Sampling Period,2.00000e-06,
Firmware,V1.14,
Time, ,
Mode,Fast,
Waveform Data,
73,
73,
73,
74,
74,
74,
74,
74,
74,
74,
74,
71,
71,
73,
73,
73,
73,
72,
72,
69,
82,
81,
55,
66,
66,
67,
67,
62,
74,
69,
69,
66,
66,
70,
70,
67,
67,
67,
67,
64,
64,
63,
63,
62,
51,
65,
47,
65,
53,
60,
48,
58,
71,
59,
59,
59,
59,
59,
59,
54,
54,
55,
55,
53,
53,
46,
57,
50,
50,
61,
32,
61,
37,
44,
55,
44,
44,
46,
46,
41,
41,
43,
43,
43,
43,
42,
42,
37,
37,
39,
28,
39,
26,
34,
34,
33,
33,
30,
30,
29,
29,
28,
28,
25,
25,
25,
25,
23,
23,
24,
24,
22,
22,
21,
21,
19,
30,
17,
17,
12,
12,
11,
11,
12,
12,
13,
13,
10,
-1,
6,
6,
6,
6,
4,
4,
3,
3,
2,
2,
-2,
-2,
20,
-28,
-17,
13,
-3,
-3,
-6,
-6,
-5,
-16,
-10,
3,
-12,
-12,
-14,
-14,
-15,
-15,
-18,
-18,
-39,
4,
3,
-46,
-10,
-32,
-22,
-22,
-24,
-24,
-27,
-27,
-26,
-26,
-24,
-24,
-30,
-30,
-30,
-30,
-27,
-42,
-21,
-51,
-54,
-15,
-26,
-47,
-39,
-39,
-44,
-29,
-40,
-40,
-45,
-45,
-43,
-43,
-47,
-47,
-41,
-53,
-45,
-45,
-48,
-48,
-46,
-46,
-48,
-48,
-51,
-51,
-50,
-50,
-56,
-56,
-56,
-56,
-56,
-56,
-61,
-48,
-58,
-58,
-57,
-57,
-59,
-59,
-64,
-64,
-62,
-62,
-63,
-63,
-64,
-64,
-65,
-65,
-64,
-64,
-67,
-67,
-71,
-59,
-69,
-58,
-70,
-70,
-67,
-67,
-71,
-71,
-69,
-69,
-71,
-71,
-71,
-71,
-69,
-69,
-72,
-72,
-75,
-75,
-74,
-74,
-77,
-77,
-78,
-78,
-77,
-77,
-75,
-75,
-77,
-77,
-79,
-79,
-76,
-76,
-79,
-79,
-78,
-78,
-79,
-79,
-80,
-80,
-75,
-75,
-80,
-80,
-75,
-75,
-80,
-80,
-80,
-80,
-77,
-77,
-78,
-78,
-75,
-75,
-78,
-78,
-80,
-80,
-78,
-78,
-76,
-87,
-80,
-80,
-75,
-75,
-75,
-75,
-78,
-66,
-78,
-67,
-78,
-78,
-74,
-74,
-79,
-79,
-73,
-73,
-73,
-73,
-72,
-72,
-73,
-73,
-76,
-62,
-65,
-81,
-69,
-69,
-64,
-77,
-69,
-69,
-68,
-68,
-68,
-68,
-62,
-62,
-63,
-63,
-63,
-63,
-63,
-63,
-62,
-62,
-62,
-62,
-60,
-60,
-58,
-58,
-62,
-62,
-56,
-56,
-60,
-60,
-59,
-46,
-47,
-62,
-57,
-57,
-54,
-54,
-54,
-54,
-49,
-49,
-48,
-48,
-51,
-51,
-47,
-47,
-45,
-45,
-45,
-45,
-44,
-44,
-43,
-43,
-42,
-42,
-39,
-39,
-35,
-35,
-39,
-39,
-33,
-33,
-32,
-32,
-32,
-32,
-24,
-37,
-31,
-31,
-28,
-28,
-27,
-27,
-25,
-25,
-26,
-15,
-22,
-22,
-23,
-23,
-17,
-17,
-17,
-17,
-15,
-15,
-14,
-14,
-13,
-13,
-13,
-1,
-7,
-7,
-10,
-10,
-9,
-9,
-4,
-4,
-4,
7,
-3,
-3,
-2,
-2,
0,
0,
3,
3,
6,
-6,
5,
5,
-6,
19,
10,
10,
9,
9,
11,
11,
12,
12,
14,
14,
15,
15,
16,
16,
18,
31,
26,
26,
22,
22,
24,
24,
28,
28,
26,
26,
29,
29,
29,
29,
29,
29,
32,
32,
36,
36,
35,
35,
39,
39,
43,
32,
40,
40,
41,
41,
42,
42,
43,
43,
49,
49,
46,
46,
46,
46,
47,
47,
51,
51,
49,
49,
52,
52,
52,
52,
52,
52,
56,
56,
56,
56,
59,
59,
57,
57,
60,
60,
60,
60,
55,
67,
64,
64,
64,
64,
63,
63,
64,
64,
65,
65,
67,
67,
67,
67,
68,
68,
68,
68,
67,
67,
66,
78,
71,
71,
71,
71,
70,
70,
68,
68,
72,
72,
70,
70,
71,
71,
75,
75,
77,
77,
73,
73,
74,
74,
71,
71,
76,
76,
76,
76,
74,
74,
77,
77,
77,
77,
77,
77,
79,
68,
74,
74,
71,
82,
73,
73,
77,
77,
74,
74,
74,
74,
76,
76,
78,
78,
73,
73,
75,
75,
76,
76,
75,
75,
72,
84,
73,
73,
73,
73,
72,
72,
76,
76,
74,
74,
68,
68,
71,
71,
71,
71,
72,
72,
71,
71,
66,
66,
65,
65,
68,
68,
66,
66,
68,
68,
66,
66,
62,
62,
62,
62,
61,
61,
61,
61,
61,
61,
59,
59,
61,
61,
57,
57,
59,
59,
56,
56,
54,
54,
54,
54,
53,
53,
51,
51,
51,
51,
51,
39,
48,
48,
48,
48,
44,
44,
42,
42,
42,
42,
42,
42,
41,
41,
40,
40,
35,
35,
35,
35,
33,
33,
32,
43,
32,
32,
32,
32,
30,
30,
28,
28,
27,
27,
28,
17,
26,
26,
20,
20,
20,
20,
17,
17,
13,
13,
16,
16,
17,
17,
16,
4,
12,
12,
10,
10,
7,
7,
9,
9,
5,
5,
2,
2,
1,
1,
-1,
10,
3,
3,
-7,
-7,
-2,
-13,
-10,
-10,
-7,
-7,
-7,
-24,
-12,
-12,
-12,
-12,
-15,
-15,
-18,
-18,
-19,
-19,
-20,
-20,
-21,
-21,
-24,
-24,
-23,
-23,
-21,
-21,
-24,
-24,
-26,
-26,
-24,
-37,
-30,
-30,
-29,
-29,
-33,
-33,
-36,
-36,
-36,
-36,
-39,
-39,
-38,
-38,
-38,
-38,
-40,
-40,
-44,
-44,
-46,
-46,
-47,
-47,
-46,
-46,
-45,
-45,
-48,
-48,
-57,
-42,
-46,
-58,
-51,
-51,
-54,
-54,
-53,
-53,
-58,
-58,
-56,
-56,
-58,
-58,
-56,
-56,
-60,
-60,
-58,
-58,
-63,
-63,
-64,
-64,
-65,
-65,
-64,
-64,
-68,
-68,
-67,
-67,
-66,
-66,
-67,
-67,
-69,
-69,
-70,
-70,
-70,
-70,
-71,
-71,
-69,
-69,
-70,
-70,
-71,
-71,
-73,
-62,
-79,
-64,
-77,
-77,
-73,
-73,
-73,
-73,
-72,
-84,
-78,
-78,
-78,
-78,
-75,
-75,
-79,
-79,
-76,
-76,
-79,
-79,
-78,
-78,
-75,
-75,
-77,
-77,
-79,
-79,
-78,
-78,
-80,
-80,
-79,
-79,
-80,
-80,
-78,
-78,
-78,
-78,
-79,
-79,
-79,
-79,
-79,
-79,
-77,
-77,
-77,
-77,
-77,
-77,
-76,
-76,
-77,
-77,
-74,
-74,
-75,
-75,
-75,
-75,
-73,
-73,
-74,
-74,
-73,
-73,
-73,
-73,
-73,
-73,
-73,
-73,
-72,
-72,
-69,
-69,
-69,
-69,
-70,
-70,
-71,
-71,
-66,
-66,
-64,
-64,
-64,
-79,
-72,
-59,
-66,
-66,
-65,
-65,
-62,
-62,
-62,
-62,
-61,
-61,
-61,
-61,
-60,
-60,
-57,
-57,
-57,
-57,
-53,
-53,
-54,
-54,
-52,
-52,
-55,
-55,
-49,
-49,
-47,
-47,
-50,
-50,
-47,
-47,
-42,
-53,
-46,
-46,
-41,
-41,
-42,
-42,
-41,
-41,
-43,
-26,
-37,
-37,
-41,
-41,
-37,
-37,
-34,
-34,
-32,
-32,
-31,
-31,
-30,
-30,
-29,
-29,
-27,
-27,
-25,
-25,
-24,
-24,
-23,
-23,
-21,
-21,
-19,
-19,
-15,
-15,
-18,
-7,
-19,
-8,
-14,
-14,
-12,
-12,
-10,
-10,
-8,
-8,
-8,
-8,
-2,
-2,
-6,
-6,
-1,
-1,
1,
-10,
3,
3,
3,
3,
4,
4,
6,
6,
7,
23,
15,
1,
10,
10,
14,
14,
14,
14,
15,
15,
19,
19,
17,
17,
21,
21,
20,
20,
20,
20,
24,
24,
23,
23,
30,
30,
28,
28,
29,
29,
31,
31,
36,
36,
36,
36,
34,
34,
36,
36,
39,
39,
40,
40,
41,
41,
41,
41,
42,
42,
44,
44,
45,
56,
43,
43,
47,
47,
47,
47,
47,
47,
51,
51,
54,
54,
50,
63,
56,
56,
56,
56,
58,
58,
54,
54,
59,
59,
59,
59,
58,
58,
63,
63,
64,
64,
61,
61,
64,
64,
64,
64,
67,
67,
63,
63,
68,
68,
67,
67,
68,
68,
67,
67,
67,
67,
67,
67,
68,
68,
71,
71,
71,
71,
72,
72,
78,
65,
72,
72,
73,
73,
73,
73,
74,
74,
73,
73,
78,
67,
77,
77,
75,
75,
75,
75,
74,
74,
74,
74,
80,
80,
75,
75,
79,
79,
72,
83,
77,
77,
75,
75,
77,
77,
73,
73,
75,
75,
78,
67,
80,
80,
75,
75,
75,
75,
72,
72,
72,
72,
70,
70,
74,
74,
72,
72,
71,
71,
72,
83,
70,
70,
69,
69,
70,
70,
66,
66,
70,
70,
67,
67,
61,
75,
70,
59,
65,
65,
64,
64,
64,
64,
68,
57,
64,
64,
63,
63,
59,
59,
63,
63,
59,
59,
60,
60,
58,
58,
58,
58,
53,
53,
55,
55,
53,
53,
53,
53,
54,
43,
49,
49,
51,
51,
44,
44,
46,
46,
45,
45,
44,
44,
45,
32,
42,
42,
40,
40,
42,
42,
36,
36,
38,
38,
35,
23,
38,
25,
31,
31,
32,
32,
27,
27,
27,
27,
26,
26,
26,
26,
23,
23,
17,
17,
20,
20,
11,
27,
20,
20,
15,
15,
15,
15,
10,
10,
8,
8,
8,
8,
6,
6,
7,
7,
5,
5,
0,
0,
1,
1,
1,
1,
-3,
-3,
-7,
-7,
-4,
-15,
-2,
-14,
-9,
-9,
-10,
1,
-12,
-12,
-13,
-13,
-13,
-25,
-13,
-24,
-15,
-15,
-23,
-23,
-19,
-19,
-17,
-31,
-23,
-23,
-25,
-25,
-27,
-27,
-31,
-31,
-28,
-28,
-33,
-33,
-32,
-32,
-33,
-33,
-34,
-34,
-37,
-37,
-37,
-37,
-40,
-40,
-40,
-51,
-47,
-34,
-44,
-44,
-44,
-44,
-48,
-48,
-49,
-49,
-47,
-47,
-51,
-51,
-52,
-52,
-51,
-51,
-52,
-52,
-53,
-53,
-56,
-56,
-56,
-56,
-58,
-58,
-56,
-56,
-58,
-58,
-60,
-60,
-61,
-61,
-63,
-63,
-63,
-63,
-64,
-64,
-65,
-65,
-65,
-65,
-68,
-68,
-68,
-80,
-70,
-58,
-68,
-68,
-70,
-70,
-70,
-70,
-69,
-69,
-69,
-69,
-70,
-70,
-72,
-72,
-73,
-73,
-74,
-74,
-74,
-74,
-74,
-74,
-75,
-75,
-78,
-65,
-74,
-85,
-75,
-75,
-77,
-77,
-75,
-75,
-77,
-77,
-76,
-76,
-78,
-78,
-80,
-80,
-79,
-79,
-78,
-78,
-79,
-79,
-80,
-80,
-79,
-68,
-77,
-77,
-79,
-79,
-77,
-77,
-80,
-80,
-75,
-75,
-79,
-79,
-77,
-77,
-77,
-77,
-79,
-79,
-75,
-75,
-76,
-76,
-76,
-76,
-77,
-77,
-75,
-75,
-74,
-74,
-71,
-71,
-75,
-75,
-73,
-73,
-70,
-81,
-75,
-63,
-71,
-71,
-69,
-69,
-70,
-70,
-70,
-70,
-66,
-66,
-67,
-67,
-61,
-74,
-62,
-62,
-62,
-62,
-63,
-63,
-63,
-63,
-59,
-59,
-62,
-62,
-60,
-60,
-59,
-59,
-60,
-60,
-54,
-54,
-57,
-46,
-59,
-46,
-55,
-55,
-53,
-53,
-53,
-53,
-47,
-58,
-44,
-44,
-47,
-47,
-47,
-47,
-47,
-47,
-45,
-45,
-42,
-42,
-45,
-45,
-42,
-30,
-38,
-38,
-37,
-37,
-38,
-38,
-35,
-35,
-34,
-34,
-32,
-32,
-30,
-30,
-28,
-28,
-23,
-23,
-26,
-26,
-25,
-25,
-27,
-27,
-21,
-21,
-22,
-11,
-19,
-19,
-17,
-17,
-16,
-16,
-15,
-15,
-13,
-13,
-13,
-13,
-10,
-10,
-7,
-7,
-7,
-7,
-6,
-6,
-4,
-4,
-4,
8,
-1,
-1,
0,
0,
2,
2,
4,
4,
4,
4,
8,
-5,
13,
0,
14,
14,
14,
14,
14,
14,
15,
15,
13,
13,
19,
19,
18,
18,
18,
18,
24,
24,
22,
22,
22,
22,
27,
27,
27,
27,
29,
29,
34,
34,
29,
29,
32,
32,
32,
43,
38,
27,
45,
32,
42,
42,
42,
42,
44,
44,
37,
49,
45,
45,
49,
49,
47,
47,
47,
47,
47,
47,
52,
52,
52,
52,
49,
49,
54,
54,
51,
62,
56,
56,
57,
57,
57,
57,
57,
57,
62,
62,
63,
63,
60,
60,
63,
63,
64,
64,
63,
63,
67,
67,
67,
67,
67,
67,
67,
67,
64,
64,
68,
68,
64,
64,
68,
68,
71,
71,
72,
72,
72,
72,
71,
71,
74,
74,
71,
71,
76,
76,
73,
73,
70,
70,
73,
73,
74,
74,
71,
84,
75,
75,
73,
73,
76,
76,
76,
76,
74,
74,
75,
75,
80,
66,
75,
75,
76,
76,
76,
76,
77,
77,
74,
74,
76,
76,
74,
74,
75,
75,
75,
75,
74,
74,
74,
74,
72,
83,
73,
73,
70,
70,
74,
74,
72,
72,
71,
71,
75,
75,
67,
67,
68,
68,
69,
69,
68,
68,
69,
69,
64,
64,
66,
77,
60,
72,
67,
67,
65,
65,
63,
63,
64,
64,
66,
66,
63,
63,
64,
53,
58,
58,
59,
59,
59,
59,
59,
59,
55,
55,
55,
55,
55,
55,
48,
63,
48,
48,
49,
49,
50,
50,
50,
50,
44,
44,
45,
45,
44,
44,
41,
41,
40,
40,
41,
41,
41,
41,
39,
39,
33,
33,
35,
35,
34,
34,
31,
31,
32,
19,
32,
32,
27,
27,
27,
27,
25,
25,
24,
24,
21,
21,
21,
21,
19,
19,
15,
15,
14,
14,
12,
12,
11,
11,
12,
12,
16,
4,
8,
8,
7,
7,
4,
4,
5,
5,
2,
-12,
1,
1,
-8,
4,
-3,
-3,
-9,
2,
-6,
-6,
-4,
-4,
-23,
5,
-12,
-12,
-13,
-13,
-15,
-15,
-14,
-14,
-19,
-19,
-19,
-7,
-11,
-28,
-22,
-22,
-23,
-23,
-23,
-23,
-24,
-24,
-27,
-27,
-32,
-16,
-33,
-33,
-32,
-32,
-35,
-35,
-35,
-35,
-37,
-37,
-36,
-36,
-37,
-37,
-39,
-39,
-38,
-50,
-47,
-35,
-46,
-46,
-43,
-43,
-45,
-45,
-48,
-48,
-47,
-47,
-51,
-51,
-51,
-51,
-52,
-52,
-55,
-55,
-55,
-55,
-55,
-55,
-59,
-59,
-56,
-56,
-62,
-62,
-58,
-70,
-61,
-61,
-64,
-64,
-60,
-60,
-63,
-63,
-65,
-65,
-65,
-77,
-71,
-55,
-64,
-64,
-68,
-68,
-66,
-66,
-73,
-73,
-68,
-68,
-71,
-71,
-71,
-71,
-72,
-72,
-68,
-68,
-73,
-73,
-74,
-74,
-71,
-85,
-72,
-83,
-77,
-77,
-72,
-83,
-80,
-69,
-76,
-76,
-76,
-76,
-75,
-75,
-75,
-75,
-77,
-77,
-77,
-77,
-78,
-78,
-74,
-74,
-75,
-75,
-77,
-77,
-78,
-78,
-78,
-78,
-79,
-79,
-77,
-77,
-80,
-80,
-79,
-79,
-70,
-85,
-77,
-77,
-77,
-77,
-77,
-77,
-77,
-77,
-78,
-78,
-73,
-73,
-74,
-74,
-76,
-76,
-74,
-74,
-75,
-75,
-74,
-74,
-75,
-75,
-73,
-73,
-69,
-80,
-70,
-70,
-75,
-75,
-70,
-70,
-66,
-66,
-70,
-70,
-71,
-71,
-68,
-68,
-67,
-67,
-65,
-65,
-67,
-55,
-65,
-65,
-62,
-62,
-63,
-63,
-61,
-61,
-60,
-60,
-62,
-62,
-69,
-45,
-60,
-60,
-56,
-56,
-53,
-53,
-54,
-54,
-54,
-54,
-51,
-51,
-53,
-53,
-51,
-51,
-47,
-47,
-45,
-45,
-47,
-47,
-46,
-46,
-43,
-43,
-44,
-44,
-41,
-41,
-40,
-40,
-42,
-42,
-37,
-37,
-36,
-36,
-37,
-25,
-34,
-34,
-32,
-32,
-29,
-29,
-32,
-32,
-28,
-16,
-22,
-34,
-25,
-25,
-22,
-22,
-20,
-20,
-19,
-19,
-19,
-19,
-3,
-28,
-11,
-11,
-13,
-13,
-14,
-14,
-12,
-12,
-7,
-7,
-8,
-8,
-6,
-6,
-6,
-6,
-4,
-4,
-2,
-2,
3,
3,
10,
-4,
6,
6,
2,
2,
-6,
22,
6,
6,
10,
10,
9,
9,
14,
14,
17,
6,
14,
14,
19,
19,
18,
18,
20,
20,
21,
21,
18,
33,
22,
22,
27,
27,
30,
30,
29,
29,
29,
41,
28,
42,
32,
32,
33,
33,
37,
37,
38,
38,
40,
40,
40,
40,
37,
48,
42,
42,
42,
42,
43,
43,
46,
46,
48,
48,
49,
49,
54,
42,
54,
54,
51,
51,
56,
56,
55,
55,
56,
56,
56,
56,
52,
64,
57,
57,
58,
58,
61,
61,
62,
62,
69,
52,
64,
64,
61,
61,
63,
63,
65,
65,
65,
65,
69,
58,
64,
81,
66,
66,
67,
67,
67,
67,
72,
72,
70,
70,
72,
72,
71,
71,
70,
70,
72,
72,
72,
72,
74,
74,
71,
84,
73,
73,
72,
87,
73,
73,
75,
75,
73,
84,
74,
74,
78,
78,
76,
76,
74,
74,
76,
76,
72,
72,
74,
74,
77,
66,
74,
74,
74,
74,
77,
77,
78,
78,
75,
75,
79,
66,
72,
84,
74,
74,
75,
75,
77,
77,
74,
74,
73,
73,
72,
72,
69,
69,
71,
71,
71,
71,
70,
70,
69,
69,
67,
67,
66,
66,
66,
66,
65,
65,
67,
67,
71,
59,
61,
73,
69,
56,
64,
64,
61,
61,
63,
63,
63,
63,
57,
57,
61,
46,
59,
59,
53,
53,
55,
55,
55,
55,
55,
43,
60,
43,
54,
40,
56,
42,
50,
50,
47,
47,
47,
47,
45,
45,
46,
46,
44,
44,
41,
41,
41,
41,
39,
39,
34,
34,
35,
35,
39,
23,
34,
34,
30,
30,
32,
32,
28,
28,
29,
29,
27,
27,
28,
28,
25,
25,
19,
19,
23,
23,
17,
17,
19,
7,
18,
6,
16,
16,
11,
11,
10,
10,
10,
10,
9,
9,
4,
4,
4,
4,
2,
2,
0,
0,
1,
1,
-1,
-1,
1,
1,
-4,
-4,
-1,
-12,
-7,
-7,
-8,
-8,
-23,
0,
-12,
-12,
-14,
-14,
-11,
-24,
-19,
-19,
-15,
-15,
-19,
-19,
-17,
-17,
-21,
-21,
-23,
-23,
-25,
-25,
-26,
-26,
-29,
-29,
-29,
-29,
-29,
-29,
-31,
-31,
-33,
-33,
-35,
-35,
-35,
-35,
-39,
-39,
-39,
-39,
-46,
-34,
-38,
-50,
-40,
-40,
-45,
-45,
-45,
-45,
-48,
-48,
-47,
-47,
-46,
-46,
-51,
-51,
-49,
-49,
-51,
-51,
-54,
-54,
-56,
-56,
-57,
-57,
-57,
-57,
-59,
-59,
-58,
-58,
-62,
-62,
-59,
-59,
-60,
-60,
-62,
-62,
-65,
-65,
-63,
-63,
-64,
-64,
-66,
-78,
-68,
-68,
-69,
-69,
-70,
-59,
-67,
-67,
-71,
-71,
-74,
-63,
-70,
-70,
-73,
-73,
-73,
-73,
-74,
-74,
-74,
-74,
-72,
-72,
-75,
-75,
-75,
-75,
-75,
-75,
-77,
-77,
-76,
-76,
-77,
-77,
-76,
-76,
-77,
-77,
-74,
-74,
-75,
-75,
-81,
-81,
-81,
-81,
-73,
-84,
-75,
-75,
-80,
-80,
-75,
-75,
-77,
-77,
-75,
-75,
-79,
-79,
-77,
-77,
-76,
-76,
-77,
-77,
-76,
-76,
-79,
-79,
-78,
-78,
-78,
-63,
-69,
-83,
-76,
-76,
-74,
-74,
-77,
-65,
-78,
-67,
-75,
-75,
-72,
-72,
-76,
-76,
-73,
-73,
-70,
-70,
-71,
-71,
-73,
-73,
-71,
-71,
-69,
-69,
-64,
-64,
-66,
-66,
-64,
-64,
-63,
-63,
-63,
-63,
-62,
-62,
-61,
-61,
-62,
-62,
-58,
-58,
-58,
-58,
-61,
-61,
-58,
-69,
-56,
-56,
-55,
-55,
-55,
-55,
-54,
-43,
-50,
-50,
-48,
-60,
-47,
-47,
-51,
-51,
-49,
-49,
-46,
-46,
-44,
-44,
-44,
-44,
-42,
-42,
-40,
-40,
-40,
-40,
-39,
-39,
-40,
-40,
-37,
-37,
-34,
-34,
-31,
-31,
-33,
-33,
-29,
-29,
-33,
-33,
-28,
-28,
-24,
-24,
-29,
-18,
-26,
-26,
-19,
-19,
-18,
-18,
-17,
-17,
-16,
-16,
-13,
-24,
-17,
-17,
-12,
-12,
-11,
-11,
-9,
-9,
-7,
-7,
-9,
4,
-3,
-3,
-6,
-6,
-2,
-2,
2,
-11,
1,
1,
3,
3,
4,
4,
7,
7,
6,
21,
9,
9,
12,
12,
12,
12,
6,
20,
16,
16,
18,
18,
17,
17,
21,
21,
21,
21,
24,
24,
26,
26,
28,
28,
27,
27,
30,
30,
30,
30,
32,
32,
31,
31,
35,
35,
36,
36,
36,
36,
39,
39,
40,
40,
44,
33,
41,
41,
47,
47,
44,
44,
46,
46,
47,
47,
50,
50,
49,
49,
52,
52,
50,
50,
53,
53,
53,
53,
56,
56,
55,
55,
55,
55,
60,
60,
58,
58,
58,
58,
60,
60,
62,
62,
62,
62,
62,
62,
62,
62,
63,
63,
64,
64,
68,
68,
70,
70,
69,
69,
66,
66,
69,
69,
67,
67,
71,
71,
69,
69,
69,
82,
71,
71,
74,
74,
73,
84,
74,
74,
75,
75,
74,
74,
75,
75,
77,
77,
73,
73,
75,
75,
75,
75,
74,
74,
78,
78,
75,
75,
75,
75,
75,
75,
73,
73,
76,
76,
75,
75,
75,
75,
73,
73,
77,
77,
77,
77,
77,
64,
76,
76,
78,
78,
74,
74,
74,
74,
75,
75,
73,
73,
75,
62,
72,
72,
71,
71,
69,
69,
69,
69,
71,
71,
67,
67,
68,
68,
66,
66,
68,
68,
68,
68,
67,
67,
64,
64,
63,
63,
63,
63,
62,
62,
62,
62,
60,
60,
57,
57,
56,
56,
57,
57,
57,
57,
56,
56,
58,
58,
53,
53,
50,
62,
51,
51,
52,
52,
47,
47,
51,
51,
49,
49,
47,
35,
41,
41,
45,
45,
42,
42,
43,
43,
39,
39,
40,
40,
43,
28,
35,
35,
36,
36,
34,
34,
34,
34,
30,
30,
30,
30,
29,
29,
25,
25,
20,
20,
21,
21,
17,
17,
20,
20,
18,
18,
18,
18,
17,
17,
17,
17,
15,
15,
12,
1,
11,
0,
6,
6,
3,
3,
4,
4,
1,
1,
0,
0,
0,
0,
-2,
-2,
0,
0,
-1,
-14,
-2,
-2,
-10,
-10,
2,
-20,
-8,
-8,
-13,
-13,
-14,
-14,
-14,
-14,
-18,
-18,
-17,
-17,
-21,
-21,
-25,
-25,
-20,
-20,
-26,
-26,
-26,
-26,
-27,
-38,
-29,
-29,
-29,
-29,
-32,
-32,
-32,
-32,
-35,
-35,
-34,
-34,
-39,
-28,
-40,
-40,
-38,
-38,
-41,
-41,
-41,
-41,
-43,
-43,
-46,
-46,
-45,
-56,
-49,
-49,
-48,
-48,
-49,
-49,
-50,
-50,
-50,
-50,
-52,
-52,
-55,
-55,
-54,
-54,
-56,
-56,
-57,
-57,
-60,
-60,
-59,
-59,
-61,
-61,
-59,
-59,
-64,
-64,
-65,
-65,
-64,
-64,
-61,
-61,
-67,
-67,
-65,
-65,
-68,
-68,
-67,
-67,
-70,
-70,
-70,
-70,
-69,
-69,
-74,
-74,
-71,
-71,
-67,
-79,
-74,
-74,
-71,
-82,
-74,
-74,
-74,
-74,
-72,
-72,
-75,
-75,
-73,
-73,
-77,
-77,
-74,
-74,
-76,
-76,
-78,
-78,
-75,
-75,
-77,
-77,
-79,
-79,
-77,
-77,
-79,
-79,
-78,
-78,
-78,
-78,
-78,
-78,
-80,
-80,
-79,
-79,
-78,
-78,
-77,
-77,
-78,
-78,
-77,
-77,
-76,
-76,
-78,
-78,
-78,
-78,
-78,
-67,
-74,
-74,
-74,
-74,
-79,
-79,
-75,
-75,
-74,
-74,
-78,
-78,
-59,
-83,
-71,
-71,
-72,
-72,
-72,
-72,
-72,
-72,
-71,
-71,
-72,
-72,
-70,
-57,
-67,
-67,
-68,
-68,
-67,
-67,
-65,
-65,
-65,
-65,
-64,
-64,
-65,
-65,
-64,
-64,
-64,
-64,
-60,
-60,
-62,
-62,
-60,
-60,
-58,
-58,
-57,
-57,
-54,
-54,
-55,
-55,
-54,
-54,
-55,
-55,
-47,
-60,
-48,
-48,
-50,
-50,
-49,
-49,
-47,
-47,
-45,
-45,
-45,
-32,
-38,
-38,
-40,
-40,
-40,
-40,
-37,
-37,
-38,
-38,
-38,
-27,
-32,
-32,
-37,
-37,
-28,
-28,
-29,
-29,
-28,
-28,
-29,
-29,
-27,
-27,
-24,
-24,
-22,
-22,
-21,
-21,
-21,
-21,
-14,
-14,
-17,
-17,
-14,
-14,
-11,
-11,
-11,
-11,
-11,
-11,
-10,
-10,
-9,
2,
-3,
-14,
-6,
-6,
-2,
-2,
1,
1,
0,
0,
-2,
-2,
3,
3,
4,
15,
3,
20,
8,
8,
8,
8,
11,
11,
14,
14,
18,
18,
18,
18,
24,
10,
17,
17,
22,
22,
21,
21,
23,
23,
24,
24,
29,
29,
27,
27,
31,
31,
28,
28,
32,
32,
30,
41,
35,
35,
38,
38,
36,
36,
38,
38,
41,
41,
40,
40,
48,
32,
41,
41,
47,
47,
47,
47,
51,
51,
50,
50,
58,
43,
49,
49,
51,
51,
58,
58,
52,
52,
53,
53,
57,
57,
59,
59,
57,
57,
58,
58,
62,
62,
60,
60,
62,
62,
64,
64,
65,
65,
61,
61,
64,
64,
66,
66,
65,
65,
68,
68,
70,
70,
67,
67,
67,
67,
70,
70,
69,
69,
72,
72,
72,
72,
73,
73,
73,
73,
75,
75,
74,
74,
76,
76,
71,
82,
74,
74,
77,
77,
76,
76,
76,
76,
76,
76,
71,
82,
70,
70,
76,
76,
81,
67,
78,
78,
76,
76,
76,
76,
74,
74,
74,
74,
74,
74,
76,
76,
73,
73,
75,
75,
75,
75,
71,
71,
74,
74,
74,
74,
72,
72,
72,
72,
72,
72,
72,
72,
71,
71,
70,
70,
72,
72,
71,
71,
70,
70,
68,
68,
68,
68,
66,
66,
65,
65,
68,
68,
62,
62,
63,
63,
63,
63,
65,
52,
62,
62,
62,
62,
58,
58,
59,
59,
58,
58,
56,
56,
56,
56,
54,
54,
56,
56,
52,
52,
50,
50,
53,
53,
47,
47,
49,
49,
45,
45,
43,
43,
43,
43,
42,
42,
42,
42,
40,
40,
38,
38,
36,
36,
37,
37,
35,
24,
35,
35,
33,
33,
28,
28,
29,
29,
30,
30,
27,
27,
25,
25,
24,
24,
24,
24,
20,
20,
22,
22,
17,
17,
19,
19,
14,
14,
14,
14,
14,
2,
10,
10,
12,
12,
4,
4,
7,
7,
5,
5,
1,
1,
3,
-8,
1,
1,
-2,
-2,
-1,
-14,
-2,
-2,
-5,
-5,
-6,
-6,
-10,
-24,
-12,
-12,
-12,
-25,
-8,
-21,
-15,
-15,
-20,
-20,
-19,
-19,
-23,
-23,
-22,
-22,
-20,
-32,
-26,
-26,
-25,
-37,
-30,
-30,
-29,
-29,
-29,
-29,
-31,
-31,
-30,
-30,
-35,
-35,
-38,
-38,
-35,
-46,
-42,
-42,
-42,
-42,
-40,
-40,
-45,
-45,
-43,
-43,
-45,
-45,
-46,
-46,
-48,
-48,
-51,
-40,
-52,
-52,
-51,
-51,
-52,
-52,
-54,
-54,
-53,
-53,
-54,
-65,
-54,
-54,
-59,
-59,
-62,
-62,
-62,
-62,
-63,
-63,
-65,
-65,
-64,
-64,
-64,
-64,
-65,
-65,
-63,
-63,
-64,
-64,
-67,
-67,
-67,
-67,
-70,
-70,
-69,
