4-transistorverstaerker/data/ALL0000/A0000CH2.CSV

Memory Length,4000,
Trigger Level,1.55900e+00,
Source,CH2,
Probe,1.0X,
Vertical Units,V,
Vertical Scale,1.00000e+00,
Vertical Position,0.00000e+00,
Horizontal Units,S,
Horizontal Scale,5.00000e-04,
Horizontal Position,-6.4000000e-04,
Horizontal Mode,Main,
Sampling Period,2.00000e-06,
Firmware,V1.14,
Time, ,
Mode,Fast,
Waveform Data,
8,
8,
8,
7,
7,
7,
7,
7,
7,
7,
7,
7,
7,
6,
6,
6,
6,
7,
7,
6,
6,
7,
7,
6,
6,
6,
6,
5,
5,
6,
6,
6,
6,
6,
6,
6,
6,
5,
5,
6,
6,
5,
5,
6,
6,
5,
5,
5,
5,
5,
5,
4,
4,
4,
4,
4,
4,
5,
5,
5,
5,
5,
5,
4,
4,
5,
5,
4,
4,
4,
4,
4,
4,
4,
4,
4,
4,
4,
4,
4,
4,
4,
4,
4,
4,
4,
4,
4,
4,
4,
4,
4,
4,
4,
4,
4,
4,
4,
4,
4,
4,
4,
4,
4,
4,
4,
4,
4,
4,
4,
4,
4,
4,
4,
4,
4,
4,
4,
4,
5,
5,
4,
4,
5,
5,
5,
5,
4,
4,
4,
4,
5,
5,
5,
5,
5,
5,
5,
5,
5,
5,
5,
5,
5,
5,
5,
5,
6,
6,
6,
6,
5,
5,
5,
5,
6,
6,
5,
5,
6,
6,
6,
6,
6,
6,
6,
6,
7,
7,
7,
7,
7,
7,
7,
7,
7,
7,
7,
7,
7,
7,
7,
7,
7,
7,
8,
8,
8,
8,
8,
8,
8,
8,
8,
8,
8,
8,
9,
9,
9,
9,
9,
9,
9,
9,
10,
10,
10,
10,
9,
9,
9,
9,
10,
10,
10,
10,
11,
11,
11,
11,
11,
11,
11,
11,
11,
11,
11,
11,
11,
11,
11,
11,
12,
12,
13,
13,
13,
13,
12,
12,
13,
13,
13,
13,
14,
14,
14,
14,
14,
14,
14,
14,
15,
15,
15,
15,
15,
15,
15,
15,
16,
16,
15,
15,
15,
15,
16,
16,
16,
16,
16,
16,
17,
17,
16,
16,
17,
17,
18,
18,
18,
18,
18,
18,
18,
18,
18,
18,
19,
19,
19,
19,
19,
19,
20,
20,
20,
20,
20,
20,
21,
21,
21,
21,
21,
21,
22,
22,
23,
23,
22,
22,
23,
23,
23,
23,
23,
23,
23,
23,
23,
23,
24,
24,
25,
25,
25,
25,
25,
25,
25,
25,
26,
26,
25,
25,
26,
26,
26,
26,
25,
25,
27,
27,
27,
27,
27,
27,
27,
27,
27,
27,
28,
28,
28,
28,
28,
28,
29,
29,
29,
29,
29,
29,
30,
30,
30,
30,
30,
30,
31,
31,
31,
31,
31,
31,
32,
32,
32,
32,
31,
31,
32,
32,
32,
32,
33,
33,
33,
33,
33,
33,
33,
33,
34,
34,
34,
34,
35,
35,
34,
34,
35,
35,
35,
35,
36,
36,
36,
36,
36,
36,
36,
36,
36,
36,
36,
36,
37,
37,
37,
37,
38,
38,
37,
37,
38,
38,
38,
38,
38,
38,
38,
38,
38,
38,
39,
39,
39,
39,
39,
39,
40,
40,
40,
40,
40,
40,
41,
41,
41,
41,
41,
41,
41,
41,
42,
42,
41,
41,
41,
41,
42,
42,
42,
42,
42,
42,
43,
43,
42,
42,
43,
43,
43,
43,
44,
44,
43,
43,
43,
43,
44,
44,
45,
45,
44,
44,
44,
44,
44,
44,
45,
45,
45,
45,
45,
45,
45,
45,
45,
45,
46,
46,
46,
46,
45,
45,
45,
45,
46,
46,
46,
46,
46,
46,
46,
46,
46,
46,
46,
46,
47,
47,
47,
47,
46,
46,
47,
47,
47,
47,
47,
47,
47,
47,
47,
47,
48,
48,
48,
48,
47,
47,
48,
48,
48,
48,
48,
48,
48,
48,
48,
48,
48,
48,
48,
48,
48,
48,
48,
48,
48,
48,
49,
49,
48,
48,
48,
48,
48,
48,
49,
49,
49,
49,
48,
48,
48,
48,
48,
48,
49,
49,
48,
48,
49,
49,
49,
49,
49,
49,
49,
49,
48,
48,
49,
49,
49,
49,
49,
49,
48,
48,
48,
48,
48,
48,
48,
48,
48,
48,
48,
48,
48,
48,
49,
49,
48,
48,
49,
49,
48,
48,
48,
48,
48,
48,
48,
48,
48,
48,
47,
47,
47,
47,
48,
48,
47,
47,
48,
48,
47,
47,
47,
47,
47,
47,
48,
48,
47,
47,
48,
48,
47,
47,
47,
47,
46,
46,
47,
47,
46,
46,
46,
46,
46,
46,
46,
46,
46,
46,
46,
46,
45,
45,
46,
46,
46,
46,
45,
45,
45,
45,
46,
46,
45,
45,
44,
44,
45,
45,
44,
44,
44,
44,
44,
44,
44,
44,
43,
43,
44,
44,
43,
43,
43,
43,
43,
43,
42,
42,
42,
42,
42,
42,
41,
41,
42,
42,
41,
41,
41,
41,
41,
41,
41,
41,
41,
41,
41,
41,
40,
40,
40,
40,
40,
40,
40,
40,
40,
40,
39,
39,
40,
40,
39,
39,
39,
39,
38,
38,
39,
39,
38,
38,
38,
38,
37,
37,
37,
37,
38,
38,
37,
37,
37,
37,
36,
36,
36,
36,
35,
35,
35,
35,
35,
35,
35,
35,
34,
34,
34,
34,
34,
34,
34,
34,
34,
34,
34,
34,
34,
34,
33,
33,
33,
33,
33,
33,
32,
32,
32,
32,
31,
31,
31,
31,
30,
30,
30,
30,
30,
30,
30,
30,
29,
29,
29,
29,
29,
29,
29,
29,
29,
29,
28,
28,
28,
28,
27,
27,
27,
27,
27,
27,
27,
27,
26,
26,
27,
27,
26,
26,
26,
26,
26,
26,
26,
26,
26,
26,
25,
25,
24,
24,
24,
24,
24,
24,
23,
23,
24,
24,
23,
23,
23,
23,
23,
23,
22,
22,
21,
21,
22,
22,
21,
21,
21,
21,
20,
20,
20,
20,
20,
20,
20,
20,
19,
19,
19,
19,
20,
20,
19,
19,
18,
18,
18,
18,
18,
18,
18,
18,
18,
18,
17,
17,
17,
17,
17,
17,
16,
16,
16,
16,
16,
16,
16,
16,
16,
16,
15,
15,
15,
15,
15,
15,
16,
16,
15,
15,
14,
14,
13,
13,
13,
13,
13,
13,
13,
13,
13,
13,
13,
13,
12,
12,
12,
12,
12,
12,
12,
12,
12,
12,
12,
12,
11,
11,
11,
11,
11,
11,
10,
10,
10,
10,
11,
11,
10,
10,
10,
10,
10,
10,
10,
10,
10,
10,
9,
9,
9,
9,
9,
9,
9,
9,
9,
9,
8,
8,
8,
8,
8,
8,
8,
8,
7,
7,
7,
7,
7,
7,
7,
7,
8,
8,
7,
7,
7,
7,
7,
7,
7,
7,
6,
6,
6,
6,
6,
6,
6,
6,
5,
5,
6,
6,
5,
5,
6,
6,
6,
6,
6,
6,
6,
6,
6,
6,
5,
5,
5,
5,
5,
5,
5,
5,
5,
5,
5,
5,
4,
4,
4,
4,
4,
4,
5,
5,
5,
5,
4,
4,
4,
4,
4,
4,
4,
4,
4,
4,
4,
4,
5,
5,
5,
5,
3,
3,
4,
4,
4,
4,
4,
4,
4,
4,
4,
4,
4,
4,
4,
4,
4,
4,
4,
4,
4,
4,
5,
5,
4,
4,
4,
4,
4,
4,
4,
4,
5,
5,
4,
4,
4,
4,
4,
4,
4,
4,
5,
5,
5,
5,
5,
5,
5,
5,
5,
5,
5,
5,
4,
4,
5,
5,
4,
4,
5,
5,
6,
6,
5,
5,
5,
5,
6,
6,
4,
4,
5,
5,
6,
6,
6,
6,
6,
6,
6,
6,
7,
7,
6,
6,
7,
7,
6,
6,
6,
6,
7,
7,
7,
7,
7,
7,
7,
7,
7,
7,
8,
8,
8,
8,
8,
8,
8,
8,
8,
8,
8,
8,
8,
8,
9,
9,
9,
9,
9,
9,
9,
9,
9,
9,
9,
9,
10,
10,
9,
9,
10,
10,
11,
11,
10,
10,
10,
10,
11,
11,
11,
11,
11,
11,
11,
11,
11,
11,
11,
11,
12,
12,
12,
12,
13,
13,
13,
13,
13,
13,
13,
13,
13,
13,
13,
13,
13,
13,
13,
13,
14,
14,
14,
14,
14,
14,
15,
15,
15,
15,
16,
16,
16,
16,
16,
16,
16,
16,
16,
16,
16,
16,
17,
17,
17,
17,
17,
17,
18,
18,
18,
18,
18,
18,
18,
18,
18,
18,
19,
19,
20,
20,
19,
19,
20,
20,
20,
20,
20,
20,
20,
20,
21,
21,
21,
21,
21,
21,
22,
22,
21,
21,
22,
22,
23,
23,
23,
23,
23,
23,
23,
23,
24,
24,
24,
24,
24,
24,
24,
24,
24,
24,
25,
25,
26,
26,
26,
26,
25,
25,
26,
26,
26,
26,
27,
27,
27,
27,
27,
27,
28,
28,
27,
27,
27,
27,
28,
28,
28,
28,
29,
29,
29,
29,
28,
28,
30,
30,
30,
30,
30,
30,
31,
31,
31,
31,
31,
31,
31,
31,
32,
32,
33,
33,
32,
32,
32,
32,
32,
32,
33,
33,
33,
33,
34,
34,
34,
34,
34,
34,
34,
34,
34,
34,
36,
36,
35,
35,
36,
36,
36,
36,
36,
36,
37,
37,
36,
36,
37,
37,
37,
37,
38,
38,
38,
38,
38,
38,
38,
38,
38,
38,
39,
39,
39,
39,
39,
39,
39,
39,
39,
39,
40,
40,
39,
39,
41,
41,
40,
40,
40,
40,
41,
41,
41,
41,
41,
41,
41,
41,
41,
41,
42,
42,
42,
42,
43,
43,
42,
42,
42,
42,
42,
42,
44,
44,
43,
43,
44,
44,
44,
44,
44,
44,
44,
44,
44,
44,
44,
44,
45,
45,
45,
45,
45,
45,
45,
45,
45,
45,
45,
45,
45,
45,
46,
46,
46,
46,
46,
46,
45,
45,
46,
46,
46,
46,
46,
46,
46,
46,
47,
47,
47,
47,
47,
47,
48,
48,
48,
48,
48,
48,
47,
47,
47,
47,
47,
47,
48,
48,
48,
48,
47,
47,
47,
47,
48,
48,
48,
48,
48,
48,
48,
48,
47,
47,
48,
48,
48,
48,
48,
48,
48,
48,
48,
48,
48,
48,
48,
48,
48,
48,
49,
49,
50,
50,
49,
49,
48,
48,
49,
49,
48,
48,
49,
49,
49,
49,
48,
48,
49,
49,
49,
49,
49,
49,
49,
49,
48,
48,
49,
49,
48,
48,
49,
49,
49,
49,
48,
48,
49,
49,
49,
49,
48,
48,
49,
49,
48,
48,
48,
48,
49,
49,
48,
48,
48,
48,
48,
48,
48,
48,
48,
48,
48,
48,
48,
48,
48,
48,
47,
47,
47,
47,
48,
48,
48,
48,
47,
47,
47,
47,
47,
47,
47,
47,
47,
47,
47,
47,
47,
47,
47,
47,
46,
46,
46,
46,
46,
46,
46,
46,
45,
45,
45,
45,
46,
46,
46,
46,
46,
46,
45,
45,
45,
45,
45,
45,
45,
45,
44,
44,
45,
45,
44,
44,
44,
44,
44,
44,
44,
44,
44,
44,
43,
43,
43,
43,
43,
43,
43,
43,
43,
43,
43,
43,
42,
42,
42,
42,
42,
42,
42,
42,
42,
42,
41,
41,
42,
42,
41,
41,
41,
41,
40,
40,
40,
40,
40,
40,
39,
39,
39,
39,
39,
39,
39,
39,
39,
39,
39,
39,
38,
38,
38,
38,
37,
37,
38,
38,
38,
38,
37,
37,
37,
37,
36,
36,
37,
37,
36,
36,
36,
36,
35,
35,
35,
35,
35,
35,
35,
35,
34,
34,
34,
34,
34,
34,
33,
33,
33,
33,
34,
34,
33,
33,
32,
32,
32,
32,
32,
32,
32,
32,
31,
31,
31,
31,
31,
31,
30,
30,
30,
30,
30,
30,
28,
28,
30,
30,
29,
29,
29,
29,
28,
28,
28,
28,
28,
28,
28,
28,
27,
27,
28,
28,
27,
27,
27,
27,
27,
27,
26,
26,
26,
26,
26,
26,
25,
25,
25,
25,
25,
25,
25,
25,
24,
24,
24,
24,
23,
23,
24,
24,
24,
24,
23,
23,
23,
23,
22,
22,
22,
22,
21,
21,
21,
21,
22,
22,
21,
21,
20,
20,
20,
20,
19,
19,
19,
19,
19,
19,
19,
19,
18,
18,
18,
18,
18,
18,
18,
18,
18,
18,
17,
17,
17,
17,
17,
17,
17,
17,
16,
16,
17,
17,
16,
16,
16,
16,
15,
15,
15,
15,
15,
15,
16,
16,
14,
14,
15,
15,
15,
15,
15,
15,
15,
15,
13,
13,
13,
13,
13,
13,
13,
13,
12,
12,
13,
13,
13,
13,
12,
12,
11,
11,
11,
11,
12,
12,
10,
10,
10,
10,
11,
11,
11,
11,
10,
10,
10,
10,
9,
9,
10,
10,
10,
10,
9,
9,
9,
9,
9,
9,
8,
8,
9,
9,
8,
8,
8,
8,
8,
8,
8,
8,
8,
8,
8,
8,
8,
8,
8,
8,
7,
7,
7,
7,
7,
7,
7,
7,
7,
7,
6,
6,
7,
7,
6,
6,
7,
7,
6,
6,
6,
6,
5,
5,
6,
6,
6,
6,
5,
5,
5,
5,
6,
6,
6,
6,
5,
5,
6,
6,
4,
4,
5,
5,
5,
5,
5,
5,
5,
5,
4,
4,
5,
5,
5,
5,
4,
4,
5,
5,
5,
5,
6,
6,
4,
4,
4,
4,
5,
5,
4,
4,
4,
4,
4,
4,
3,
3,
4,
4,
5,
5,
4,
4,
4,
4,
4,
4,
5,
5,
4,
4,
4,
4,
4,
4,
5,
5,
4,
4,
4,
4,
4,
4,
5,
5,
5,
5,
4,
4,
5,
5,
4,
4,
4,
4,
5,
5,
5,
5,
5,
5,
5,
5,
4,
4,
5,
5,
5,
5,
5,
5,
5,
5,
5,
5,
4,
4,
5,
5,
5,
5,
5,
5,
5,
5,
5,
5,
6,
6,
5,
5,
6,
6,
6,
6,
6,
6,
6,
6,
6,
6,
7,
7,
7,
7,
7,
7,
6,
6,
7,
7,
7,
7,
7,
7,
8,
8,
8,
8,
8,
8,
8,
8,
8,
8,
8,
8,
8,
8,
8,
8,
9,
9,
9,
9,
9,
9,
9,
9,
10,
10,
9,
9,
9,
9,
10,
10,
10,
10,
11,
11,
11,
11,
10,
10,
10,
10,
11,
11,
11,
11,
11,
11,
12,
12,
12,
12,
13,
13,
13,
13,
12,
12,
12,
12,
13,
13,
13,
13,
14,
14,
13,
13,
13,
13,
14,
14,
15,
15,
16,
16,
15,
15,
15,
15,
15,
15,
16,
16,
15,
15,
16,
16,
17,
17,
17,
17,
17,
17,
17,
17,
17,
17,
18,
18,
19,
19,
18,
18,
18,
18,
19,
19,
18,
18,
19,
19,
20,
20,
19,
19,
20,
20,
20,
20,
20,
20,
21,
21,
21,
21,
22,
22,
21,
21,
22,
22,
22,
22,
23,
23,
23,
23,
23,
23,
23,
23,
24,
24,
24,
24,
25,
25,
24,
24,
25,
25,
25,
25,
25,
25,
26,
26,
25,
25,
26,
26,
27,
27,
27,
27,
27,
27,
28,
28,
28,
28,
28,
28,
28,
28,
28,
28,
29,
29,
29,
29,
29,
29,
29,
29,
29,
29,
30,
30,
30,
30,
30,
30,
32,
32,
31,
31,
31,
31,
31,
31,
32,
32,
32,
32,
33,
33,
33,
33,
33,
33,
33,
33,
34,
34,
34,
34,
34,
34,
35,
35,
35,
35,
35,
35,
36,
36,
36,
36,
37,
37,
36,
36,
36,
36,
36,
36,
37,
37,
37,
37,
37,
37,
38,
38,
38,
38,
38,
38,
38,
38,
39,
39,
39,
39,
38,
38,
41,
41,
39,
39,
39,
39,
40,
40,
40,
40,
41,
41,
41,
41,
40,
40,
41,
41,
41,
41,
41,
41,
42,
42,
42,
42,
42,
42,
42,
42,
43,
43,
43,
43,
43,
43,
44,
44,
43,
43,
44,
44,
43,
43,
44,
44,
44,
44,
44,
44,
45,
45,
44,
44,
44,
44,
45,
45,
45,
45,
45,
45,
45,
45,
46,
46,
46,
46,
45,
45,
45,
45,
46,
46,
46,
46,
45,
45,
46,
46,
46,
46,
47,
47,
47,
47,
48,
48,
47,
47,
47,
47,
47,
47,
48,
48,
47,
47,
48,
48,
48,
48,
48,
48,
48,
48,
48,
48,
48,
48,
48,
48,
48,
48,
48,
48,
48,
48,
48,
48,
48,
48,
49,
49,
48,
48,
48,
48,
48,
48,
48,
48,
49,
49,
48,
48,
48,
48,
49,
49,
49,
49,
48,
48,
48,
48,
48,
48,
49,
49,
48,
48,
49,
49,
48,
48,
49,
49,
48,
48,
49,
49,
48,
48,
49,
49,
48,
48,
48,
48,
48,
48,
49,
49,
48,
48,
48,
48,
48,
48,
48,
48,
49,
49,
48,
48,
48,
48,
48,
48,
48,
48,
48,
48,
48,
48,
48,
48,
48,
48,
48,
48,
48,
48,
48,
48,
48,
48,
48,
48,
48,
48,
47,
47,
47,
47,
47,
47,
48,
48,
47,
47,
46,
46,
47,
47,
46,
46,
46,
46,
47,
47,
46,
46,
46,
46,
45,
45,
45,
45,
46,
46,
46,
46,
45,
45,
45,
45,
45,
45,
45,
45,
45,
45,
44,
44,
45,
45,
44,
44,
44,
44,
44,
44,
44,
44,
43,
43,
43,
43,
43,
43,
43,
43,
42,
42,
43,
43,
43,
43,
42,
42,
42,
42,
41,
41,
41,
41,
42,
42,
41,
41,
41,
41,
41,
41,
41,
41,
41,
41,
40,
40,
40,
40,
40,
40,
39,
39,
39,
39,
40,
40,
39,
39,
38,
38,
38,
38,
38,
38,
38,
38,
37,
37,
37,
37,
37,
37,
36,
36,
36,
36,
36,
36,
36,
36,
35,
35,
36,
36,
35,
35,
34,
34,
34,
34,
34,
34,
34,
34,
34,
34,
33,
33,
33,
33,
33,
33,
33,
33,
33,
33,
33,
33,
31,
31,
32,
32,
31,
31,
30,
30,
30,
30,
30,
30,
30,
30,
29,
29,
29,
29,
29,
29,
29,
29,
29,
29,
28,
28,
28,
28,
27,
27,
28,
28,
28,
28,
27,
27,
27,
27,
27,
27,
26,
26,
26,
26,
26,
26,
26,
26,
25,
25,
25,
25,
25,
25,
24,
24,
24,
24,
24,
24,
24,
24,
23,
23,
23,
23,
24,
24,
23,
23,
22,
22,
22,
22,
21,
21,
21,
21,
20,
20,
20,
20,
20,
20,
20,
20,
20,
20,
19,
19,
20,
20,
19,
19,
18,
18,
18,
18,
18,
18,
17,
17,
17,
17,
17,
17,
17,
17,
17,
17,
17,
17,
16,
16,
16,
16,
16,
16,
16,
16,
15,
15,
15,
15,
16,
16,
14,
14,
15,
15,
15,
15,
14,
14,
14,
14,
13,
13,
13,
13,
13,
13,
12,
12,
12,
12,
12,
12,
12,
12,
12,
12,
12,
12,
11,
11,
11,
11,
11,
11,
11,
11,
10,
10,
10,
10,
10,
10,
10,
10,
10,
10,
10,
10,
10,
10,
9,
9,
9,
9,
9,
9,
9,
9,
9,
9,
9,
9,
8,
8,
8,
8,
8,
8,
7,
7,
7,
7,
7,
7,
7,
7,
7,
7,
8,
8,
7,
7,
6,
6,
7,
7,
7,
7,
7,
7,
7,
7,
6,
6,
6,
6,
6,
6,
6,
6,
6,
6,
5,
5,
6,
6,
5,
5,
5,
5,
5,
5,
4,
4,
5,
5,
5,
5,
5,
5,
5,
5,
5,
5,
5,
5,
5,
5,
5,
5,
5,
5,
5,
5,
5,
5,
5,
5,
5,
5,
4,
4,
4,
4,
4,
4,
4,
4,
4,
4,
5,
5,
4,
4,
4,
4,
4,
4,
4,
4,
4,
4,
4,
4,
4,
4,
4,
4,
4,
4,
4,
4,
4,
4,
4,
4,
4,
4,
4,
4,
4,
4,
4,
4,
4,
4,
5,
5,
4,
4,
5,
5,
4,
4,
5,
5,
4,
4,
5,
5,
5,
5,
5,
5,
5,
5,
5,
5,
6,
6,
5,
5,
5,
5,
6,
6,
5,
5,
6,
6,
5,
5,
6,
6,
6,
6,
6,
6,
6,
6,
6,
6,
6,
6,
6,
6,
7,
7,
7,
7,
7,
7,
7,
7,
7,
7,
7,
7,
7,
7,
7,
7,
7,
7,
7,
7,
7,
7,
7,
7,
8,
8,
8,
8,
8,
8,
9,
9,
9,
9,
9,
9,
9,
9,
9,
9,
9,
9,
9,
9,
10,
10,
10,
10,
10,
10,
11,
11,
11,
11,
11,
11,
11,
11,
11,
11,
11,
11,
11,
11,
12,
12,
12,
12,
12,
12,
12,
12,
14,
14,
13,
13,
13,
13,
13,
13,
13,
13,
14,
14,
14,
14,
14,
14,
15,
15,
15,
15,
14,
14,
15,
15,
15,
15,
15,
15,
16,
16,
16,
16,
16,
16,
17,
17,
17,
17,
17,
17,
17,
17,
17,
17,
17,
17,
18,
18,
18,
18,
19,
19,
19,
19,
20,
20,
19,
19,
19,
19,
19,
19,
20,
20,
20,
20,
21,
21,
21,
21,
22,
22,
21,
21,
21,
21,
22,
22,
23,
23,
23,
23,
23,
23,
24,
24,
24,
24,
24,
24,
24,
24,
25,
25,
25,
25,
25,
25,
25,
25,
25,
25,
25,
25,
26,
26,
26,
26,
27,
27,
27,
27,
27,
27,
28,
28,
28,
28,
28,
28,
29,
29,
28,
28,
28,
28,
29,
29,
29,
29,
30,
30,
30,
30,
30,
30,
31,
31,
30,
30,
30,
30,
32,
32,
32,
32,
32,
32,
33,
33,
33,
33,
33,
33,
33,
33,
33,
33,
34,
34,
34,
34,
34,
34,
34,
34,
34,
34,
35,
35,
35,
35,
36,
36,
36,
36,
36,
36,
36,
36,
37,
37,
37,
37,
37,
37,
37,
37,
37,
37,
38,
38,
38,
38,
39,
39,
39,
39,
38,
38,
39,
39,
39,
39,
40,
40,
40,
40,
40,
40,
40,
40,
40,
40,
41,
41,
41,
41,
41,
41,
42,
42,
42,
42,
42,
42,
42,
42,
42,
42,
42,
42,
42,
42,
43,
43,
43,
43,
43,
43,
43,
43,
43,
43,
44,
44,
44,
44,
44,
44,
44,
44,
44,
44,
44,
44,
45,
45,
45,
45,
45,
45,
45,
45,
45,
45,
45,
45,
46,
46,
46,
46,
45,
45,
46,
46,
46,
46,
46,
46,
46,
46,
46,
46,
47,
47,
47,
47,
47,
47,
47,
47,
47,
47,
47,
47,
47,
47,
48,
48,
47,
47,
47,
47,
47,
47,
48,
48,
48,
48,
48,
48,
48,
48,
48,
48,
48,
48,
48,
48,
48,
48,
48,
48,
48,
48,
48,
48,
48,
48,
49,
49,
49,
49,
48,
48,
49,
49,
48,
48,
48,
48,
49,
49,
49,
49,
49,
49,
49,
49,
48,
48,
48,
48,
49,
49,
49,
49,
49,
49,
49,
49,
49,
49,
49,
49,
48,
48,
49,
49,
48,
48,
48,
48,
48,
48,
49,
49,
48,
48,
49,
49,
49,
49,
48,
48,
48,
48,
49,
49,
49,
49,
48,
48,
48,
48,
49,
49,
48,
48,
48,
48,
48,
48,
48,
48,
48,
48,
47,
47,
48,
48,
48,
48,
48,
48,
48,
48,
47,
47,
47,
47,
46,
46,
47,
47,
46,
46,
46,
46,
46,
46,
46,
46,
45,
45,
45,
45,
46,
46,
45,
45,
46,
46,
46,
46,
46,
46,
45,
45,
44,
44,
45,
45,
45,
45,
44,
44,
45,
45,
44,
44,
44,
44,
44,
44,
43,
43,
44,
44,
44,
44,
43,
43,
43,
43,
42,
42,
43,
43,
42,
42,
42,
42,
41,
41,
42,
42,
42,
42,
42,
42,
41,
41,
41,
41,
40,
40,
41,
41,
40,
40,
40,
40,
39,
39,
39,
39,
39,
39,
40,
40,
38,
38,
38,
38,
38,
38,
38,
38,
38,
38,
38,
38,
37,
37,
37,
37,
37,
37,
37,
37,
36,
36,
37,
37,
36,
36,
35,
35,
35,
35,
35,
35,
34,
34,
35,
35,
34,
34,
34,
34,
34,
34,
33,
33,
34,
34,
32,
32,
32,
32,
32,
32,
32,
32,
32,
32,
30,
30,
31,
31,
30,
30,
30,
30,
32,
32,
30,
30,
30,
30,
30,
30,
29,
29,
28,
28,
29,
29,
28,
28,
27,
27,
27,
27,
28,
28,
27,
27,
27,
27,
27,
27,
26,
26,
26,
26,
26,
26,
25,
25,
26,
26,
26,
26,
24,
24,
25,
25,
25,
25,
25,
25,
24,
24,
24,
24,
24,
24,
23,
23,
23,
23,
22,
22,
22,
22,
22,
22,
22,
22,
21,
21,
21,
21,
22,
22,
20,
20,
20,
20,
20,
20,
19,
19,
19,
19,
18,
18,
18,
18,
18,
18,
18,
18,
18,
18,
18,
18,
17,
17,
18,
18,
17,
17,
17,
17,
17,
17,
16,
16,
16,
16,
16,
16,
16,
16,
16,
16,
15,
15,
15,
15,
14,
14,
14,
14,
14,
14,
13,
13,
13,
13,
13,
13,
13,
13,
13,
13,
13,
13,
12,
12,
12,
12,
11,
11,
12,
12,
12,
12,
11,
11,
11,
11,
11,
11,
10,
10,
10,
10,
10,
10,
10,
10,
10,
10,
10,
10,
9,
9,
10,
10,
9,
9,
9,
9,
9,
9,
9,
9,
9,
9,
8,
8,
8,
8,
8,
8,
7,
7,
8,
