5-grundlagen-opAmps/data/ALL0060/A0060CH1.CSV

Memory Length,4000,
Trigger Level,0.00000e+00,
Source,CH1,
Probe,1.0X,
Vertical Units,V,
Vertical Scale,5.00000e-02,
Vertical Position,0.00000e+00,
Horizontal Units,S,
Horizontal Scale,5.00000e-07,
Horizontal Position,0.0000000e+00,
Horizontal Mode,Main,
Sampling Period,2.00000e-09,
Firmware,V1.14,
Time, ,
Mode,Fast,
Waveform Data,
13,
13,
9,
7,
10,
16,
19,
15,
13,
15,
19,
21,
21,
18,
19,
22,
24,
26,
27,
25,
24,
26,
28,
31,
31,
28,
28,
29,
32,
36,
36,
33,
31,
33,
37,
40,
38,
36,
35,
37,
41,
44,
41,
37,
37,
41,
46,
44,
40,
39,
43,
47,
48,
44,
41,
42,
45,
49,
49,
44,
41,
44,
48,
52,
48,
44,
43,
45,
49,
53,
49,
42,
41,
46,
52,
52,
46,
41,
43,
49,
51,
48,
41,
39,
45,
51,
49,
42,
38,
41,
48,
48,
42,
37,
39,
45,
45,
43,
37,
35,
38,
41,
43,
37,
34,
36,
36,
36,
35,
36,
32,
32,
31,
31,
32,
31,
29,
26,
26,
27,
28,
25,
23,
22,
24,
23,
22,
20,
19,
19,
18,
16,
14,
16,
16,
13,
10,
10,
12,
11,
8,
4,
4,
9,
10,
5,
-1,
-2,
1,
9,
4,
-6,
-12,
-5,
3,
2,
-7,
-16,
-13,
-7,
-3,
-8,
-18,
-19,
-14,
-8,
-12,
-18,
-24,
-24,
-16,
-15,
-20,
-28,
-27,
-23,
-21,
-20,
-27,
-30,
-33,
-30,
-26,
-26,
-34,
-38,
-36,
-31,
-28,
-31,
-39,
-44,
-40,
-34,
-31,
-39,
-47,
-47,
-38,
-35,
-40,
-48,
-49,
-43,
-40,
-41,
-48,
-51,
-50,
-46,
-43,
-47,
-53,
-51,
-48,
-46,
-48,
-51,
-52,
-52,
-51,
-51,
-49,
-51,
-54,
-54,
-53,
-52,
-50,
-52,
-55,
-57,
-56,
-52,
-48,
-53,
-56,
-57,
-53,
-50,
-50,
-53,
-58,
-54,
-52,
-51,
-50,
-55,
-56,
-53,
-49,
-49,
-52,
-54,
-53,
-49,
-47,
-48,
-51,
-54,
-51,
-45,
-43,
-46,
-50,
-52,
-47,
-41,
-41,
-45,
-49,
-49,
-42,
-37,
-37,
-43,
-46,
-42,
-35,
-33,
-39,
-41,
-40,
-35,
-30,
-32,
-37,
-38,
-33,
-28,
-27,
-29,
-34,
-32,
-25,
-21,
-24,
-28,
-28,
-22,
-19,
-19,
-20,
-21,
-20,
-16,
-13,
-15,
-16,
-14,
-12,
-11,
-11,
-9,
-7,
-7,
-7,
-8,
-5,
-3,
-2,
-1,
-1,
-2,
-1,
4,
4,
3,
2,
4,
8,
9,
7,
7,
9,
11,
13,
13,
14,
12,
13,
16,
20,
21,
17,
15,
16,
25,
28,
27,
20,
18,
24,
34,
35,
28,
21,
23,
34,
39,
34,
27,
25,
34,
40,
41,
33,
29,
33,
41,
45,
36,
31,
35,
41,
48,
44,
39,
35,
39,
45,
48,
45,
41,
39,
44,
47,
48,
47,
43,
41,
44,
49,
52,
47,
42,
41,
48,
53,
51,
44,
41,
46,
51,
51,
45,
41,
43,
49,
51,
48,
42,
43,
47,
51,
47,
43,
43,
45,
46,
45,
43,
44,
43,
42,
41,
43,
43,
43,
40,
37,
38,
41,
45,
41,
34,
33,
37,
43,
39,
34,
29,
31,
36,
35,
33,
29,
29,
31,
32,
31,
26,
24,
25,
29,
28,
24,
22,
19,
21,
21,
23,
21,
14,
13,
16,
20,
18,
13,
9,
9,
12,
15,
12,
6,
1,
5,
10,
9,
3,
-3,
0,
3,
3,
-1,
-8,
-6,
-3,
0,
-3,
-8,
-11,
-9,
-5,
-8,
-11,
-16,
-16,
-12,
-14,
-16,
-16,
-19,
-19,
-19,
-20,
-20,
-22,
-24,
-25,
-27,
-26,
-27,
-26,
-27,
-30,
-33,
-34,
-29,
-30,
-33,
-36,
-37,
-36,
-34,
-36,
-37,
-41,
-41,
-39,
-38,
-41,
-44,
-45,
-42,
-39,
-42,
-47,
-48,
-48,
-44,
-41,
-45,
-51,
-54,
-48,
-44,
-43,
-49,
-55,
-55,
-49,
-45,
-47,
-55,
-59,
-56,
-48,
-44,
-53,
-59,
-59,
-51,
-45,
-48,
-57,
-61,
-55,
-48,
-47,
-53,
-60,
-59,
-51,
-45,
-50,
-59,
-61,
-54,
-46,
-47,
-54,
-57,
-57,
-51,
-47,
-48,
-52,
-56,
-54,
-48,
-46,
-47,
-51,
-50,
-50,
-46,
-44,
-45,
-48,
-50,
-46,
-43,
-41,
-44,
-47,
-44,
-39,
-39,
-40,
-43,
-43,
-39,
-33,
-34,
-39,
-41,
-36,
-32,
-30,
-34,
-35,
-34,
-30,
-29,
-29,
-28,
-26,
-26,
-29,
-25,
-23,
-20,
-20,
-24,
-25,
-21,
-16,
-12,
-19,
-22,
-17,
-11,
-7,
-13,
-16,
-14,
-7,
-3,
-4,
-10,
-11,
-5,
1,
3,
-3,
-6,
-3,
3,
6,
4,
3,
2,
4,
7,
10,
11,
7,
6,
9,
14,
17,
16,
14,
12,
14,
19,
22,
20,
15,
17,
24,
27,
25,
20,
22,
27,
32,
31,
25,
24,
29,
33,
36,
31,
29,
31,
36,
37,
35,
35,
37,
37,
37,
36,
38,
40,
40,
38,
38,
40,
42,
43,
42,
41,
39,
44,
47,
47,
42,
38,
43,
47,
48,
46,
43,
43,
46,
48,
49,
47,
43,
43,
48,
49,
47,
44,
43,
45,
49,
50,
48,
41,
42,
46,
53,
52,
43,
38,
40,
49,
53,
47,
39,
36,
44,
50,
50,
41,
35,
37,
45,
51,
43,
34,
35,
40,
46,
43,
35,
30,
34,
40,
43,
38,
29,
27,
35,
40,
36,
29,
24,
25,
33,
34,
29,
25,
21,
24,
26,
27,
21,
18,
20,
20,
22,
20,
17,
16,
14,
15,
18,
13,
11,
8,
10,
12,
11,
7,
4,
4,
5,
6,
5,
1,
-1,
-2,
1,
1,
-2,
-4,
-7,
-5,
-6,
-8,
-8,
-9,
-11,
-12,
-13,
-11,
-12,
-14,
-16,
-20,
-19,
-18,
-16,
-19,
-25,
-26,
-24,
-18,
-22,
-30,
-32,
-28,
-22,
-26,
-33,
-36,
-34,
-28,
-28,
-34,
-41,
-40,
-36,
-32,
-36,
-42,
-43,
-40,
-38,
-38,
-43,
-44,
-46,
-45,
-42,
-43,
-43,
-47,
-48,
-47,
-46,
-45,
-48,
-49,
-51,
-49,
-47,
-47,
-51,
-54,
-52,
-47,
-49,
-53,
-56,
-55,
-50,
-50,
-52,
-55,
-56,
-53,
-49,
-52,
-54,
-56,
-53,
-52,
-54,
-56,
-53,
-51,
-53,
-56,
-55,
-51,
-49,
-51,
-57,
-56,
-52,
-47,
-48,
-53,
-57,
-54,
-47,
-44,
-51,
-56,
-53,
-47,
-43,
-45,
-52,
-51,
-47,
-42,
-42,
-45,
-49,
-48,
-43,
-39,
-40,
-45,
-48,
-45,
-39,
-35,
-36,
-41,
-44,
-40,
-32,
-30,
-34,
-41,
-41,
-32,
-23,
-25,
-33,
-37,
-30,
-23,
-20,
-25,
-33,
-32,
-21,
-13,
-18,
-26,
-28,
-20,
-10,
-11,
-16,
-23,
-19,
-10,
-6,
-5,
-15,
-16,
-8,
-3,
-1,
-6,
-8,
-7,
-2,
1,
2,
0,
-2,
0,
4,
6,
7,
5,
4,
8,
9,
11,
11,
9,
10,
11,
15,
16,
15,
14,
16,
20,
21,
20,
19,
19,
22,
24,
25,
25,
25,
26,
25,
28,
30,
31,
30,
27,
30,
32,
36,
36,
34,
31,
33,
37,
40,
38,
38,
35,
37,
42,
43,
42,
37,
37,
42,
47,
44,
40,
39,
43,
48,
49,
44,
40,
41,
46,
52,
48,
43,
40,
45,
51,
50,
46,
43,
44,
47,
50,
50,
46,
44,
44,
48,
49,
48,
46,
44,
46,
46,
46,
48,
46,
44,
43,
47,
47,
45,
41,
40,
45,
46,
44,
41,
39,
40,
44,
42,
41,
36,
36,
39,
41,
39,
35,
37,
35,
34,
35,
36,
37,
33,
28,
27,
30,
35,
34,
26,
23,
25,
30,
30,
25,
16,
17,
24,
28,
22,
14,
13,
17,
25,
21,
12,
8,
10,
16,
20,
13,
4,
2,
9,
13,
11,
3,
0,
-1,
3,
6,
5,
0,
-7,
-8,
-3,
2,
-2,
-9,
-14,
-11,
-3,
-4,
-11,
-17,
-19,
-12,
-8,
-12,
-23,
-26,
-16,
-11,
-15,
-24,
-32,
-27,
-17,
-17,
-25,
-33,
-31,
-27,
-24,
-26,
-32,
-36,
-34,
-30,
-30,
-35,
-37,
-36,
-35,
-37,
-39,
-36,
-39,
-41,
-41,
-41,
-40,
-43,
-45,
-44,
-45,
-44,
-45,
-44,
-48,
-49,
-45,
-45,
-45,
-50,
-51,
-49,
-49,
-50,
-51,
-51,
-51,
-52,
-52,
-50,
-50,
-53,
-54,
-55,
-53,
-50,
-51,
-53,
-56,
-57,
-52,
-50,
-51,
-55,
-59,
-53,
-50,
-50,
-53,
-57,
-57,
-53,
-48,
-52,
-57,
-58,
-52,
-48,
-49,
-53,
-57,
-53,
-47,
-46,
-48,
-52,
-53,
-51,
-45,
-44,
-47,
-50,
-51,
-45,
-41,
-43,
-46,
-47,
-45,
-43,
-40,
-40,
-42,
-43,
-42,
-36,
-38,
-38,
-39,
-39,
-35,
-35,
-33,
-33,
-33,
-34,
-31,
-27,
-28,
-30,
-29,
-29,
-23,
-22,
-25,
-26,
-25,
-23,
-19,
-17,
-18,
-20,
-20,
-17,
-12,
-12,
-12,
-13,
-15,
-13,
-8,
-4,
-7,
-11,
-11,
-5,
1,
1,
-3,
-7,
-4,
3,
9,
5,
-1,
-3,
7,
12,
13,
4,
1,
8,
17,
19,
14,
6,
7,
16,
24,
21,
14,
11,
16,
25,
28,
24,
18,
18,
26,
30,
30,
27,
23,
24,
28,
34,
34,
30,
27,
30,
37,
38,
36,
31,
30,
35,
44,
44,
35,
30,
37,
44,
47,
42,
35,
36,
44,
48,
48,
38,
38,
41,
49,
49,
43,
42,
44,
49,
47,
43,
45,
46,
47,
46,
45,
47,
47,
48,
48,
47,
45,
46,
49,
47,
46,
45,
48,
50,
46,
42,
43,
47,
47,
46,
44,
44,
44,
46,
45,
46,
43,
41,
41,
43,
44,
44,
41,
37,
37,
39,
44,
43,
36,
32,
35,
41,
42,
35,
29,
29,
36,
37,
35,
27,
26,
30,
36,
33,
24,
19,
24,
31,
31,
25,
18,
17,
22,
25,
23,
18,
13,
13,
17,
19,
15,
12,
10,
11,
13,
13,
12,
8,
5,
4,
6,
8,
5,
0,
-1,
1,
3,
0,
-2,
-5,
-6,
-5,
-4,
-4,
-10,
-13,
-10,
-8,
-10,
-14,
-15,
-15,
-16,
-14,
-15,
-16,
-22,
-23,
-21,
-19,
-19,
-23,
-28,
-29,
-26,
-24,
-25,
-28,
-34,
-36,
-31,
-27,
-29,
-37,
-41,
-36,
-30,
-31,
-37,
-43,
-41,
-37,
-35,
-37,
-45,
-48,
-44,
-35,
-36,
-44,
-53,
-50,
-42,
-39,
-43,
-50,
-55,
-51,
-42,
-42,
-50,
-55,
-55,
-48,
-44,
-48,
-53,
-56,
-52,
-48,
-48,
-51,
-57,
-58,
-52,
-49,
-50,
-55,
-59,
-55,
-52,
-50,
-52,
-55,
-59,
-55,
-49,
-48,
-53,
-59,
-58,
-51,
-48,
-50,
-55,
-56,
-52,
-48,
-48,
-52,
-54,
-53,
-48,
-46,
-51,
-52,
-51,
-47,
-46,
-48,
-49,
-47,
-43,
-45,
-47,
-47,
-45,
-41,
-42,
-43,
-43,
-43,
-37,
-38,
-41,
-43,
-41,
-33,
-31,
-37,
-39,
-37,
-30,
-29,
-31,
-33,
-32,
-30,
-28,
-25,
-27,
-30,
-29,
-27,
-22,
-21,
-21,
-24,
-23,
-21,
-16,
-12,
-17,
-20,
-16,
-12,
-7,
-11,
-15,
-13,
-9,
-2,
-3,
-7,
-12,
-8,
2,
5,
-2,
-8,
-5,
4,
10,
6,
0,
0,
5,
9,
12,
10,
5,
7,
11,
14,
14,
13,
16,
15,
17,
16,
20,
20,
19,
18,
21,
24,
26,
24,
22,
22,
29,
31,
29,
27,
25,
30,
36,
35,
33,
29,
31,
36,
39,
37,
36,
35,
35,
38,
41,
41,
38,
36,
37,
41,
44,
45,
41,
39,
40,
44,
48,
47,
40,
38,
44,
51,
49,
44,
40,
43,
51,
52,
48,
41,
40,
47,
55,
53,
42,
38,
44,
51,
53,
47,
41,
40,
47,
51,
51,
47,
40,
41,
48,
51,
47,
42,
40,
44,
47,
47,
44,
41,
39,
42,
45,
44,
38,
35,
39,
43,
43,
38,
35,
34,
38,
40,
39,
34,
30,
31,
36,
36,
33,
29,
28,
29,
32,
30,
27,
24,
26,
26,
24,
24,
22,
21,
23,
21,
18,
16,
18,
19,
16,
12,
11,
12,
15,
13,
9,
8,
9,
10,
10,
4,
1,
1,
6,
8,
1,
-5,
-5,
1,
3,
-1,
-8,
-11,
-7,
-4,
-4,
-9,
-16,
-16,
-10,
-9,
-11,
-17,
-20,
-18,
-16,
-16,
-20,
-22,
-25,
-26,
-20,
-19,
-23,
-30,
-32,
-28,
-22,
-26,
-33,
-36,
-34,
-27,
-27,
-32,
-41,
-43,
-36,
-31,
-32,
-42,
-47,
-41,
-32,
-35,
-42,
-45,
-46,
-42,
-40,
-42,
-46,
-48,
-47,
-44,
-46,
-48,
-48,
-48,
-49,
-50,
-48,
-46,
-51,
-53,
-53,
-49,
-47,
-49,
-53,
-56,
-54,
-49,
-48,
-52,
-58,
-58,
-51,
-48,
-50,
-58,
-60,
-54,
-50,
-49,
-52,
-56,
-57,
-55,
-52,
-50,
-52,
-56,
-56,
-54,
-50,
-48,
-51,
-55,
-56,
-52,
-47,
-45,
-52,
-57,
-53,
-45,
-42,
-47,
-54,
-54,
-44,
-39,
-41,
-49,
-54,
-47,
-39,
-35,
-44,
-49,
-47,
-39,
-31,
-37,
-43,
-43,
-40,
-35,
-34,
-35,
-39,
-39,
-33,
-29,
-30,
-32,
-33,
-31,
-27,
-25,
-26,
-28,
-27,
-26,
-22,
-17,
-21,
-25,
-23,
-17,
-15,
-15,
-17,
-17,
-16,
-11,
-9,
-12,
-13,
-13,
-9,
-5,
-6,
-7,
-5,
-2,
-2,
-4,
-2,
-1,
3,
2,
1,
3,
4,
8,
10,
8,
5,
6,
13,
15,
13,
9,
10,
16,
18,
18,
14,
12,
20,
24,
25,
21,
17,
18,
27,
31,
28,
21,
21,
27,
35,
35,
29,
25,
26,
33,
39,
38,
32,
29,
36,
40,
41,
36,
35,
36,
39,
44,
42,
38,
35,
38,
45,
48,
43,
38,
39,
44,
47,
48,
44,
39,
42,
46,
51,
49,
43,
40,
44,
52,
51,
46,
43,
43,
48,
50,
50,
46,
42,
46,
49,
51,
48,
45,
45,
47,
47,
46,
45,
47,
45,
45,
47,
47,
46,
43,
40,
43,
44,
45,
43,
37,
37,
41,
46,
44,
37,
32,
36,
44,
43,
38,
30,
31,
37,
38,
38,
33,
30,
30,
34,
35,
32,
29,
25,
27,
29,
28,
27,
21,
19,
22,
24,
27,
20,
14,
14,
20,
25,
19,
11,
6,
13,
19,
19,
10,
1,
2,
12,
15,
9,
0,
-3,
4,
9,
5,
-2,
-7,
-2,
1,
0,
-4,
-9,
-8,
-4,
-6,
-9,
-14,
-15,
-11,
-11,
-14,
-15,
-15,
-18,
-19,
-19,
-17,
-19,
-22,
-25,
-25,
-22,
-23,
-25,
-28,
-29,
-30,
-28,
-28,
-29,
-32,
-33,
-31,
-32,
-35,
-35,
-34,
-35,
-39,
-42,
-38,
-36,
-37,
-41,
-45,
-43,
-40,
-40,
-43,
-47,
-48,
-42,
-41,
-46,
-51,
-53,
-46,
-41,
-45,
-52,
-55,
-51,
-46,
-45,
-49,
-57,
-58,
-50,
-46,
-47,
-55,
-60,
-55,
-49,
-47,
-51,
-57,
-58,
-56,
-48,
-48,
-53,
-58,
-58,
-52,
-48,
-49,
-56,
-59,
-55,
-49,
-48,
-52,
-58,
-58,
-51,
-46,
-50,
-56,
-57,
-53,
-46,
-46,
-50,
-53,
-54,
-49,
-43,
-43,
-49,
-52,
-50,
-45,
-41,
-45,
-47,
-46,
-45,
-41,
-41,
-41,
-42,
-42,
-40,
-36,
-36,
-39,
-37,
-37,
-36,
-35,
-34,
-34,
-32,
-34,
-32,
-28,
-27,
-29,
-32,
-30,
-24,
-21,
-23,
-26,
-28,
-24,
-17,
-14,
-18,
-22,
-24,
-15,
-10,
-12,
-15,
-17,
-13,
-9,
-6,
-8,
-11,
-11,
-7,
-1,
-1,
-5,
-4,
-3,
1,
2,
4,
1,
0,
2,
7,
11,
8,
3,
4,
10,
16,
18,
13,
7,
9,
18,
23,
19,
13,
10,
19,
27,
26,
19,
16,
22,
29,
30,
26,
23,
26,
30,
33,
30,
29,
29,
34,
36,
33,
31,
32,
36,
37,
37,
38,
37,
39,
38,
37,
38,
40,
43,
44,
39,
38,
40,
44,
45,
43,
40,
41,
46,
46,
44,
44,
45,
45,
43,
48,
49,
47,
44,
43,
47,
49,
48,
47,
44,
44,
48,
54,
50,
41,
40,
48,
55,
50,
40,
39,
45,
53,
52,
44,
37,
38,
47,
53,
49,
37,
34,
43,
49,
47,
40,
35,
37,
42,
44,
42,
37,
34,
34,
40,
42,
37,
33,
31,
32,
38,
36,
32,
27,
27,
31,
36,
33,
22,
19,
24,
31,
32,
24,
17,
17,
25,
27,
23,
15,
13,
16,
20,
20,
14,
10,
11,
15,
14,
11,
9,
8,
6,
6,
6,
4,
2,
1,
0,
1,
1,
0,
-3,
-4,
-6,
-6,
-3,
-4,
-10,
-13,
-12,
-8,
-7,
-12,
-17,
-17,
-15,
-13,
-11,
-20,
-22,
-23,
-21,
-15,
-20,
-26,
-30,
-27,
-21,
-23,
-27,
-32,
-31,
-31,
-28,
-29,
-32,
-38,
-37,
-32,
-31,
-36,
-39,
-41,
-38,
-36,
-38,
-40,
-45,
-45,
-40,
-38,
-40,
-46,
-50,
-48,
-42,
-43,
-45,
-48,
-51,
-48,
-46,
-44,
-51,
-54,
-52,
-47,
-46,
-50,
-53,
-54,
-50,
-48,
-52,
-53,
-54,
-53,
-51,
-53,
-55,
-56,
-54,
-50,
-53,
-56,
-56,
-52,
-51,
-55,
-55,
-53,
-50,
-51,
-55,
-56,
-54,
-51,
-48,
-52,
-54,
-57,
-52,
-45,
-48,
-53,
-55,
-52,
-47,
-47,
-48,
-50,
-50,
-48,
-46,
-43,
-45,
-48,
-48,
-45,
-41,
-42,
-44,
-47,
-44,
-40,
-35,
-37,
-44,
-46,
-40,
-31,
-28,
-38,
-45,
-41,
-29,
-23,
-29,
-39,
-39,
-32,
-21,
-20,
-30,
-35,
-30,
-20,
-17,
-22,
-29,
-28,
-19,
-15,
-15,
-20,
-21,
-18,
-11,
-10,
-13,
-15,
-15,
-11,
-7,
-6,
-5,
-10,
-9,
-5,
0,
4,
-2,
-7,
-5,
2,
7,
5,
2,
0,
4,
10,
13,
9,
5,
6,
14,
16,
14,
10,
13,
18,
19,
17,
16,
18,
21,
21,
22,
21,
25,
24,
24,
23,
26,
30,
30,
28,
26,
27,
35,
38,
34,
28,
28,
34,
40,
39,
36,
29,
35,
39,
43,
42,
35,
35,
40,
45,
45,
40,
38,
41,
45,
46,
45,
43,
41,
43,
45,
48,
46,
42,
43,
45,
48,
48,
45,
44,
45,
48,
52,
50,
44,
42,
47,
51,
50,
47,
43,
44,
48,
50,
49,
45,
42,
43,
48,
48,
43,
42,
44,
45,
45,
43,
41,
45,
44,
42,
44,
40,
41,
40,
39,
40,
38,
38,
39,
37,
35,
34,
37,
39,
36,
32,
28,
31,
34,
34,
31,
25,
26,
28,
31,
31,
22,
18,
21,
27,
29,
23,
17,
16,
19,
22,
21,
16,
10,
11,
16,
18,
13,
7,
5,
9,
14,
13,
7,
1,
0,
5,
10,
8,
-3,
-9,
-5,
4,
5,
-2,
-11,
-12,
-6,
-1,
-2,
-12,
-18,
-15,
-5,
-6,
-14,
-23,
-21,
-13,
-10,
-17,
-25,
-27,
-22,
-17,
-19,
-24,
-29,
-28,
-26,
-23,
-25,
-32,
-34,
-32,
-29,
-29,
-32,
-34,
-38,
-38,
-35,
-33,
-35,
-41,
-43,
-41,
-36,
-37,
-41,
-44,
-45,
-43,
-40,
-43,
-46,
-47,
-45,
-43,
-46,
-49,
-50,
-48,
-46,
-49,
-51,
-50,
-50,
-49,
-52,
-50,
-49,
-49,
-51,
-54,
-55,
-53,
-49,
-49,
-55,
-59,
-57,
-48,
-47,
-55,
-60,
-58,
-49,
-47,
-52,
-59,
-58,
-54,
-48,
-49,
-55,
-59,
-55,
-49,
-49,
-53,
-55,
-53,
-49,
-48,
-51,
-51,
-52,
-52,
-50,
-47,
-47,
-49,
-51,
-49,
-45,
-44,
-43,
-46,
-49,
-47,
-42,
-37,
-42,
-46,
-45,
-39,
-36,
-38,
-41,
-42,
-38,
-35,
-36,
-36,
-36,
-33,
-32,
-31,
-31,
-32,
-30,
-28,
-27,
-29,
-28,
-26,
-23,
-25,
-26,
-21,
-19,
-18,
-20,
-20,
-19,
-16,
-12,
-14,
-17,
-17,
-13,
-7,
-7,
-12,
-13,
-11,
-4,
-1,
-2,
-6,
-9,
-4,
4,
6,
0,
-4,
0,
5,
10,
8,
4,
1,
6,
13,
16,
13,
7,
8,
15,
21,
19,
12,
11,
15,
25,
27,
21,
16,
16,
23,
32,
31,
25,
18,
22,
31,
37,
33,
25,
23,
32,
37,
39,
33,
28,
30,
38,
43,
38,
32,
32,
37,
45,
44,
38,
34,
37,
43,
48,
44,
39,
37,
42,
46,
46,
44,
42,
45,
45,
46,
48,
45,
44,
43,
45,
48,
48,
46,
44,
46,
46,
48,
49,
47,
45,
45,
48,
49,
47,
44,
44,
48,
48,
46,
45,
45,
45,
44,
44,
46,
44,
42,
43,
44,
44,
45,
43,
40,
38,
39,
44,
45,
39,
33,
33,
40,
44,
40,
30,
29,
35,
39,
39,
33,
28,
29,
36,
36,
30,
24,
24,
30,
32,
27,
23,
20,
23,
26,
23,
21,
19,
17,
20,
20,
19,
17,
14,
12,
12,
14,
16,
13,
6,
3,
6,
10,
9,
4,
0,
1,
2,
4,
1,
-2,
-3,
-2,
0,
-3,
-7,
-8,
-6,
-6,
-9,
-12,
-10,
-12,
-13,
-16,
-16,
-14,
-15,
-16,
-19,
-23,
-17,
-18,
-21,
-27,
-28,
-24,
-19,
-20,
-30,
-35,
-32,
-24,
-23,
-31,
-39,
-40,
-31,
-28,
-32,
-36,
-41,
-40,
-35,
-32,
-39,
-45,
-46,
-40,
-38,
-40,
-45,
-48,
-45,
-42,
-40,
-43,
-49,
-54,
-51,
-42,
-41,
-48,
-55,
-56,
-48,
-43,
-45,
-53,
-59,
-56,
-46,
-44,
-52,
-60,
-59,
-52,
-46,
-49,
-57,
-59,
-54,
-49,
-48,
-53,
-59,
-58,
-52,
-48,
-51,
-58,
-57,
-54,
-50,
-50,
-54,
-55,
-56,
-52,
-49,
-49,
-52,
-55,
-52,
-52,
-49,
-49,
-51,
-51,
-50,
-49,
-48,
-46,
-47,
-49,
-50,
-45,
-44,
-45,
-45,
-44,
-45,
-44,
-41,
-41,
-40,
-42,
-40,
-38,
-38,
-37,
-39,
-38,
-35,
-35,
-33,
-33,
-33,
-35,
-32,
-28,
-27,
-29,
-32,
-31,
-26,
-22,
-21,
-24,
-27,
-26,
-19,
-14,
-17,
-22,
-24,
-17,
-10,
-11,
-15,
-18,
-15,
-8,
-4,
-8,
-12,
-12,
-4,
0,
-2,
-7,
-7,
-2,
5,
3,
2,
0,
1,
5,
9,
8,
5,
6,
7,
11,
11,
12,
14,
13,
13,
14,
18,
20,
18,
14,
17,
19,
26,
24,
20,
20,
23,
28,
29,
28,
25,
26,
30,
33,
32,
29,
28,
32,
34,
34,
35,
35,
34,
35,
37,
38,
41,
38,
36,
36,
41,
46,
44,
40,
35,
38,
48,
51,
44,
35,
37,
47,
52,
48,
40,
37,
45,
51,
52,
45,
39,
41,
50,
54,
48,
41,
41,
47,
52,
50,
45,
42,
43,
47,
52,
51,
44,
40,
42,
49,
52,
47,
41,
37,
43,
48,
50,
45,
37,
38,
44,
51,
45,
36,
32,
40,
46,
44,
36,
32,
36,
41,
43,
37,
31,
32,
37,
38,
35,
29,
29,
31,
33,
32,
29,
28,
28,
26,
26,
27,
26,
24,
24,
21,
20,
21,
19,
21,
16,
14,
17,
15,
15,
14,
12,
12,
11,
10,
10,
9,
6,
4,
5,
5,
4,
1,
0,
0,
1,
1,
-1,
-3,
-7,
-7,
-4,
-2,
-8,
-14,
-15,
-9,
-7,
-10,
-16,
-18,
-17,
-14,
-9,
-18,
-24,
-25,
-21,
-15,
-20,
-26,
-30,
-27,
-22,
-24,
-28,
-33,
-32,
-29,
-28,
-29,
-36,
-38,
-36,
-31,
-31,
-39,
-41,
-40,
-38,
-36,
-39,
-41,
-44,
-43,
-40,
-41,
-42,
-45,
-47,
-45,
-46,
-45,
-45,
-47,
-49,
-50,
-50,
-47,
-46,
-50,
-52,
-52,
-49,
-48,
-51,
-54,
-54,
-53,
-50,
-49,
-54,
-57,
-54,
-52,
-50,
-53,
-56,
-55,
-54,
-52,
-50,
-52,
-55,
-57,
-55,
-50,
-49,
-53,
-58,
-57,
-53,
-49,
-48,
-54,
-59,
-58,
-50,
-44,
-48,
-56,
-57,
-51,
-41,
-44,
-52,
-56,
-52,
-43,
-40,
-44,
-53,
-53,
-44,
-37,
-40,
-47,
-50,
-44,
-36,
-35,
-40,
-44,
-44,
-39,
-35,
-32,
-38,
-40,
-40,
-35,
-29,
-30,
-33,
-35,
-34,
-29,
-25,
-27,
-30,
-33,
-28,
-20,
-21,
-24,
-28,
-24,
-16,
-14,
-19,
-23,
-19,
-14,
-9,
-12,
-16,
-18,
-11,
-4,
-7,
-11,
-10,
-7,
-3,
-4,
-5,
-5,
0,
0,
0,
-2,
1,
4,
8,
6,
3,
4,
10,
12,
11,
6,
7,
13,
17,
15,
13,
14,
15,
20,
21,
19,
19,
18,
21,
25,
25,
24,
23,
24,
27,
29,
31,
29,
25,
26,
33,
37,
35,
30,
26,
31,
39,
41,
38,
30,
32,
38,
43,
44,
35,
34,
39,
44,
45,
39,
38,
41,
46,
48,
45,
40,
38,
45,
49,
48,
45,
41,
43,
48,
49,
48,
47,
45,
45,
48,
49,
50,
46,
43,
44,
48,
49,
48,
47,
45,
45,
47,
49,
48,
44,
42,
44,
48,
47,
44,
41,
44,
44,
45,
44,
41,
39,
38,
43,
45,
41,
36,
36,
40,
42,
41,
39,
34,
33,
35,
40,
40,
33,
29,
29,
35,
38,
34,
27,
23,
26,
32,
35,
28,
19,
19,
26,
29,
26,
18,
14,
18,
23,
25,
16,
9,
11,
17,
22,
16,
6,
3,
9,
16,
14,
6,
0,
1,
7,
9,
6,
0,
-4,
-3,
1,
4,
-1,
-7,
-8,
-7,
-4,
-5,
-8,
-11,
-12,
-11,
-9,
-10,
-17,
-19,
-15,
-13,
-15,
-20,
-24,
-24,
-20,
-19,
-21,
-27,
-28,
-26,
-25,
-24,
-28,
-33,
-31,
-29,
-29,
-34,
-35,
-33,
-31,
-37,
-40,
-38,
-36,
-35,
-39,
-43,
-44,
-40,
-36,
-37,
-46,
-49,
-45,
-40,
-41,
-47,
-50,
-48,
-42,
-43,
-49,
-52,
-51,
-47,
-45,
-48,
-53,
-55,
-52,
-46,
-47,
-52,
-53,
-56,
-53,
-50,
-49,
-50,
-55,
-58,
-54,
-49,
-48,
-54,
-60,
-59,
-52,
-48,
-50,
-58,
-60,
-55,
-48,
-47,
-55,
-60,
-56,
-49,
-45,
-50,
-59,
-57,
-51,
-46,
-48,
-52,
-55,
-51,
-47,
-45,
-49,
-52,
-51,
-48,
-44,
-45,
-47,
-46,
-46,
-46,
-45,
-42,
-41,
-42,
-45,
-43,
-39,
-37,
-38,
-41,
-42,
-38,
-33,
-33,
-36,
-38,
-37,
-31,
-27,
-30,
-32,
-31,
-27,
-25,
-25,
-26,
-27,
-26,
-24,
-17,
-18,
-22,
-25,
-23,
-16,
-13,
-13,
-17,
-19,
-16,
-9,
-4,
-8,
-14,
-14,
-8,
-1,
-1,
-5,
-10,
-7,
0,
5,
1,
-3,
-3,
3,
9,
9,
3,
1,
5,
-3,
