5-grundlagen-opAmps/data/ALL0060/A0060CH2.CSV

Memory Length,4000,
Trigger Level,0.00000e+00,
Source,CH2,
Probe,1.0X,
Vertical Units,V,
Vertical Scale,1.00000e-01,
Vertical Position,0.00000e+00,
Horizontal Units,S,
Horizontal Scale,5.00000e-07,
Horizontal Position,0.0000000e+00,
Horizontal Mode,Main,
Sampling Period,2.00000e-09,
Firmware,V1.14,
Time, ,
Mode,Fast,
Waveform Data,
-62,
-62,
-62,
-62,
-60,
-58,
-61,
-60,
-59,
-56,
-58,
-57,
-55,
-55,
-54,
-54,
-54,
-51,
-53,
-52,
-52,
-51,
-50,
-49,
-47,
-47,
-47,
-46,
-44,
-42,
-42,
-42,
-42,
-41,
-39,
-39,
-39,
-38,
-37,
-36,
-32,
-32,
-33,
-31,
-28,
-26,
-26,
-25,
-25,
-23,
-23,
-21,
-20,
-19,
-19,
-18,
-16,
-13,
-14,
-13,
-13,
-8,
-8,
-5,
-6,
-6,
-5,
-1,
0,
0,
-2,
0,
2,
6,
7,
6,
6,
8,
10,
14,
12,
13,
13,
16,
18,
19,
19,
19,
20,
25,
24,
26,
25,
28,
28,
31,
30,
32,
32,
33,
34,
38,
37,
38,
38,
40,
40,
42,
42,
42,
44,
45,
46,
47,
47,
47,
47,
49,
49,
51,
50,
52,
52,
54,
52,
53,
55,
56,
55,
56,
56,
57,
58,
59,
59,
58,
58,
60,
60,
60,
59,
59,
61,
62,
61,
60,
60,
61,
63,
63,
61,
60,
60,
62,
63,
63,
60,
61,
62,
63,
62,
61,
60,
61,
62,
62,
60,
58,
57,
59,
59,
59,
57,
57,
56,
57,
56,
55,
54,
52,
54,
54,
55,
53,
50,
49,
51,
50,
49,
46,
45,
45,
46,
45,
43,
42,
41,
42,
42,
42,
38,
38,
37,
38,
36,
33,
32,
32,
29,
31,
28,
26,
25,
26,
25,
23,
21,
21,
19,
19,
17,
17,
16,
15,
13,
10,
10,
11,
9,
8,
4,
3,
4,
4,
1,
0,
-3,
-3,
-3,
-4,
-7,
-9,
-10,
-8,
-10,
-12,
-14,
-16,
-16,
-16,
-18,
-19,
-22,
-22,
-22,
-22,
-25,
-24,
-28,
-29,
-28,
-30,
-32,
-32,
-34,
-35,
-34,
-36,
-38,
-39,
-41,
-40,
-40,
-42,
-44,
-46,
-45,
-44,
-45,
-47,
-50,
-50,
-49,
-47,
-51,
-52,
-54,
-54,
-52,
-54,
-56,
-57,
-57,
-56,
-57,
-58,
-59,
-58,
-59,
-59,
-60,
-61,
-61,
-61,
-61,
-61,
-63,
-62,
-62,
-62,
-64,
-63,
-63,
-62,
-63,
-63,
-64,
-63,
-64,
-64,
-63,
-63,
-64,
-64,
-63,
-62,
-63,
-64,
-63,
-63,
-62,
-61,
-61,
-62,
-62,
-61,
-59,
-59,
-60,
-61,
-60,
-56,
-56,
-58,
-58,
-57,
-56,
-53,
-53,
-53,
-56,
-53,
-51,
-49,
-50,
-51,
-50,
-48,
-47,
-46,
-47,
-46,
-45,
-41,
-41,
-40,
-41,
-40,
-37,
-36,
-36,
-36,
-35,
-34,
-33,
-30,
-30,
-31,
-30,
-28,
-25,
-22,
-25,
-24,
-22,
-19,
-17,
-17,
-17,
-16,
-15,
-13,
-12,
-11,
-13,
-9,
-8,
-6,
-5,
-5,
-4,
-1,
0,
2,
2,
3,
3,
5,
7,
8,
8,
10,
10,
13,
14,
15,
16,
16,
17,
18,
20,
24,
23,
24,
23,
26,
27,
28,
28,
30,
30,
32,
34,
34,
35,
35,
36,
39,
39,
40,
39,
42,
42,
44,
44,
44,
44,
45,
47,
48,
48,
50,
49,
52,
52,
51,
51,
52,
52,
55,
54,
56,
55,
56,
56,
58,
59,
59,
57,
58,
59,
61,
60,
60,
58,
60,
61,
62,
61,
60,
60,
61,
63,
62,
61,
61,
61,
63,
61,
61,
60,
61,
61,
61,
61,
59,
59,
62,
60,
59,
58,
59,
60,
59,
58,
58,
58,
57,
57,
54,
55,
54,
53,
53,
52,
52,
51,
52,
51,
50,
48,
48,
48,
48,
46,
44,
44,
43,
42,
42,
41,
39,
39,
38,
38,
38,
36,
34,
33,
32,
33,
33,
29,
26,
26,
28,
27,
24,
20,
19,
19,
22,
20,
16,
14,
14,
16,
15,
11,
7,
6,
10,
8,
7,
2,
1,
0,
2,
1,
-2,
-5,
-5,
-6,
-5,
-7,
-8,
-12,
-11,
-13,
-12,
-14,
-17,
-18,
-19,
-19,
-21,
-21,
-22,
-25,
-22,
-26,
-26,
-29,
-31,
-32,
-31,
-31,
-33,
-36,
-37,
-36,
-37,
-38,
-40,
-42,
-42,
-42,
-42,
-44,
-45,
-47,
-46,
-47,
-49,
-50,
-49,
-50,
-50,
-53,
-53,
-53,
-52,
-55,
-56,
-57,
-55,
-56,
-58,
-60,
-60,
-58,
-59,
-60,
-61,
-63,
-62,
-60,
-61,
-63,
-64,
-63,
-62,
-62,
-64,
-64,
-64,
-65,
-63,
-64,
-65,
-65,
-65,
-64,
-62,
-63,
-65,
-65,
-64,
-63,
-63,
-63,
-62,
-65,
-64,
-62,
-62,
-62,
-62,
-63,
-59,
-60,
-60,
-60,
-59,
-58,
-58,
-57,
-57,
-58,
-58,
-55,
-54,
-57,
-55,
-54,
-54,
-52,
-50,
-51,
-48,
-50,
-48,
-46,
-46,
-46,
-45,
-44,
-43,
-42,
-42,
-41,
-39,
-39,
-38,
-36,
-35,
-34,
-33,
-32,
-31,
-31,
-27,
-26,
-26,
-25,
-25,
-23,
-22,
-21,
-21,
-19,
-18,
-16,
-15,
-15,
-13,
-12,
-9,
-8,
-7,
-9,
-6,
-5,
-3,
-1,
-1,
-1,
0,
2,
4,
6,
6,
7,
7,
10,
14,
13,
13,
12,
16,
18,
19,
18,
18,
19,
23,
24,
26,
23,
25,
27,
32,
31,
29,
29,
33,
35,
37,
36,
35,
35,
39,
41,
41,
41,
42,
43,
44,
46,
47,
46,
48,
49,
49,
50,
50,
50,
51,
52,
53,
55,
55,
53,
54,
56,
58,
57,
58,
57,
59,
59,
59,
59,
59,
59,
61,
62,
61,
60,
61,
63,
63,
62,
61,
62,
63,
62,
62,
62,
63,
62,
62,
62,
61,
63,
63,
62,
61,
60,
62,
63,
61,
60,
60,
60,
62,
60,
58,
58,
58,
58,
59,
58,
56,
54,
56,
56,
55,
52,
51,
51,
51,
51,
50,
49,
49,
48,
48,
48,
46,
45,
44,
44,
43,
42,
41,
39,
38,
38,
38,
35,
34,
33,
33,
33,
32,
28,
29,
27,
27,
26,
26,
22,
22,
20,
20,
18,
17,
16,
15,
15,
14,
12,
10,
9,
9,
7,
7,
3,
4,
2,
1,
-1,
-2,
-3,
-3,
-4,
-7,
-8,
-7,
-8,
-9,
-13,
-16,
-15,
-14,
-15,
-18,
-22,
-21,
-21,
-21,
-24,
-26,
-28,
-26,
-28,
-28,
-30,
-33,
-35,
-32,
-33,
-36,
-37,
-39,
-39,
-38,
-40,
-41,
-43,
-44,
-45,
-44,
-44,
-46,
-49,
-48,
-48,
-48,
-50,
-53,
-53,
-52,
-52,
-53,
-55,
-56,
-57,
-55,
-54,
-56,
-61,
-61,
-59,
-57,
-58,
-61,
-63,
-62,
-61,
-60,
-61,
-64,
-64,
-63,
-62,
-62,
-65,
-65,
-63,
-62,
-63,
-64,
-64,
-64,
-64,
-64,
-63,
-62,
-65,
-64,
-63,
-62,
-62,
-62,
-63,
-62,
-62,
-61,
-61,
-61,
-62,
-61,
-59,
-58,
-58,
-59,
-60,
-56,
-56,
-57,
-55,
-55,
-54,
-54,
-54,
-51,
-54,
-51,
-51,
-51,
-50,
-48,
-47,
-46,
-47,
-46,
-44,
-42,
-41,
-41,
-42,
-40,
-39,
-37,
-38,
-37,
-36,
-33,
-32,
-32,
-32,
-30,
-28,
-26,
-26,
-25,
-23,
-22,
-21,
-20,
-19,
-20,
-18,
-16,
-15,
-13,
-13,
-12,
-12,
-9,
-8,
-6,
-6,
-4,
-4,
-1,
0,
2,
1,
2,
2,
6,
8,
7,
7,
10,
10,
13,
13,
14,
15,
16,
19,
20,
19,
20,
21,
25,
24,
26,
26,
29,
29,
31,
31,
32,
33,
34,
34,
36,
36,
39,
39,
40,
40,
41,
43,
44,
43,
43,
44,
46,
48,
49,
48,
47,
48,
52,
52,
53,
51,
51,
53,
55,
55,
55,
54,
57,
58,
59,
57,
58,
58,
59,
60,
61,
60,
59,
59,
61,
63,
63,
60,
61,
61,
64,
64,
62,
62,
61,
62,
64,
63,
61,
60,
62,
63,
63,
61,
60,
60,
61,
63,
62,
60,
59,
58,
62,
59,
58,
56,
56,
58,
59,
55,
54,
54,
55,
54,
54,
52,
51,
51,
52,
51,
49,
48,
47,
47,
47,
45,
45,
44,
43,
42,
41,
40,
40,
39,
38,
37,
37,
36,
35,
33,
32,
29,
30,
28,
27,
26,
26,
23,
24,
22,
21,
20,
19,
18,
17,
15,
15,
12,
12,
10,
10,
9,
8,
4,
4,
2,
3,
2,
0,
-3,
-2,
-3,
-4,
-6,
-8,
-9,
-9,
-10,
-13,
-13,
-16,
-16,
-15,
-18,
-19,
-22,
-22,
-21,
-22,
-26,
-25,
-30,
-27,
-28,
-30,
-32,
-32,
-33,
-35,
-36,
-37,
-38,
-38,
-40,
-40,
-41,
-42,
-43,
-45,
-45,
-45,
-46,
-47,
-48,
-50,
-50,
-49,
-49,
-50,
-54,
-53,
-54,
-54,
-55,
-56,
-56,
-56,
-58,
-58,
-58,
-58,
-59,
-59,
-61,
-60,
-60,
-61,
-62,
-63,
-64,
-62,
-62,
-63,
-65,
-65,
-63,
-61,
-63,
-65,
-65,
-64,
-63,
-63,
-64,
-66,
-66,
-63,
-62,
-63,
-65,
-65,
-64,
-60,
-62,
-63,
-64,
-62,
-62,
-60,
-60,
-61,
-61,
-59,
-58,
-57,
-59,
-59,
-59,
-56,
-55,
-54,
-54,
-54,
-53,
-51,
-49,
-50,
-52,
-52,
-49,
-46,
-46,
-47,
-47,
-46,
-45,
-41,
-42,
-42,
-42,
-39,
-36,
-36,
-37,
-37,
-35,
-33,
-31,
-32,
-32,
-31,
-29,
-26,
-25,
-24,
-25,
-22,
-21,
-20,
-17,
-17,
-16,
-15,
-14,
-14,
-14,
-12,
-10,
-8,
-8,
-6,
-6,
-4,
-3,
-1,
0,
1,
2,
5,
5,
5,
6,
8,
8,
10,
11,
12,
14,
16,
16,
18,
18,
18,
20,
25,
23,
24,
24,
26,
27,
28,
28,
29,
30,
32,
33,
35,
35,
35,
36,
39,
40,
40,
39,
41,
43,
44,
44,
45,
45,
45,
47,
48,
50,
48,
49,
51,
51,
52,
51,
52,
54,
55,
55,
56,
55,
56,
56,
58,
58,
58,
58,
59,
59,
60,
60,
61,
60,
60,
60,
62,
62,
62,
60,
61,
62,
63,
61,
61,
61,
62,
63,
62,
61,
61,
60,
62,
62,
61,
60,
60,
60,
59,
59,
60,
60,
58,
57,
57,
57,
58,
56,
54,
53,
55,
55,
54,
53,
51,
52,
53,
52,
50,
47,
48,
50,
50,
45,
43,
42,
45,
44,
42,
39,
37,
38,
40,
39,
36,
34,
33,
35,
35,
32,
30,
27,
28,
27,
29,
25,
23,
22,
21,
21,
20,
18,
16,
15,
16,
16,
14,
11,
10,
9,
10,
8,
5,
2,
2,
1,
3,
0,
-3,
-4,
-5,
-4,
-6,
-7,
-9,
-11,
-10,
-11,
-13,
-16,
-17,
-18,
-18,
-19,
-22,
-22,
-21,
-22,
-23,
-26,
-27,
-27,
-29,
-31,
-32,
-32,
-34,
-34,
-36,
-38,
-38,
-39,
-38,
-39,
-42,
-43,
-42,
-44,
-45,
-46,
-48,
-48,
-48,
-49,
-49,
-51,
-50,
-53,
-53,
-52,
-54,
-55,
-56,
-56,
-54,
-57,
-58,
-59,
-59,
-59,
-59,
-60,
-61,
-63,
-61,
-60,
-60,
-63,
-65,
-64,
-62,
-62,
-63,
-64,
-64,
-64,
-63,
-63,
-64,
-66,
-65,
-64,
-62,
-63,
-65,
-65,
-62,
-64,
-64,
-64,
-64,
-64,
-63,
-62,
-62,
-62,
-62,
-62,
-60,
-62,
-61,
-60,
-58,
-58,
-59,
-58,
-56,
-57,
-57,
-57,
-54,
-55,
-54,
-54,
-52,
-53,
-51,
-49,
-49,
-49,
-48,
-47,
-45,
-44,
-45,
-44,
-43,
-41,
-40,
-41,
-40,
-39,
-38,
-36,
-34,
-34,
-33,
-33,
-32,
-29,
-27,
-26,
-26,
-26,
-24,
-22,
-21,
-22,
-22,
-20,
-17,
-15,
-15,
-16,
-15,
-12,
-9,
-8,
-9,
-9,
-6,
-4,
-2,
-3,
-3,
-2,
2,
3,
3,
3,
5,
7,
8,
11,
10,
10,
11,
13,
16,
16,
16,
18,
19,
20,
23,
22,
25,
24,
26,
27,
30,
30,
31,
32,
32,
35,
35,
34,
36,
36,
39,
40,
40,
39,
41,
42,
44,
45,
44,
45,
47,
48,
48,
47,
48,
49,
51,
50,
51,
51,
54,
53,
53,
53,
55,
56,
57,
57,
56,
56,
58,
59,
59,
58,
59,
59,
61,
60,
60,
60,
60,
61,
62,
61,
60,
60,
61,
62,
61,
60,
61,
60,
61,
61,
61,
61,
60,
60,
61,
61,
59,
57,
58,
59,
59,
59,
58,
56,
56,
57,
58,
56,
54,
52,
53,
55,
54,
50,
48,
49,
51,
50,
48,
47,
45,
46,
46,
46,
43,
42,
44,
42,
42,
39,
38,
37,
37,
36,
35,
34,
33,
31,
32,
31,
32,
28,
27,
25,
24,
24,
22,
22,
19,
17,
18,
17,
17,
14,
13,
11,
11,
12,
10,
7,
6,
6,
6,
5,
2,
-1,
-1,
-2,
-2,
-4,
-6,
-8,
-7,
-10,
-9,
-11,
-12,
-15,
-15,
-15,
-16,
-18,
-22,
-23,
-21,
-22,
-21,
-26,
-28,
-28,
-30,
-29,
-30,
-33,
-35,
-33,
-32,
-35,
-38,
-41,
-39,
-39,
-38,
-42,
-46,
-45,
-43,
-44,
-46,
-48,
-49,
-49,
-48,
-50,
-51,
-53,
-54,
-53,
-52,
-55,
-57,
-57,
-56,
-57,
-57,
-58,
-58,
-60,
-60,
-60,
-60,
-61,
-62,
-62,
-62,
-63,
-63,
-63,
-63,
-64,
-63,
-63,
-64,
-65,
-64,
-63,
-64,
-64,
-66,
-65,
-64,
-65,
-65,
-67,
-65,
-64,
-64,
-64,
-66,
-65,
-64,
-63,
-64,
-64,
-64,
-62,
-60,
-63,
-64,
-62,
-60,
-59,
-59,
-61,
-59,
-59,
-57,
-55,
-56,
-56,
-56,
-54,
-51,
-54,
-53,
-54,
-51,
-50,
-49,
-48,
-48,
-48,
-46,
-44,
-43,
-42,
-42,
-42,
-40,
-38,
-38,
-39,
-38,
-37,
-35,
-32,
-32,
-33,
-32,
-29,
-26,
-26,
-27,
-26,
-23,
-21,
-20,
-20,
-21,
-18,
-17,
-15,
-14,
-14,
-13,
-12,
-8,
-8,
-6,
-7,
-4,
-4,
-1,
-1,
0,
1,
2,
2,
5,
7,
7,
8,
9,
9,
14,
15,
15,
16,
16,
18,
21,
20,
21,
20,
25,
25,
27,
26,
28,
28,
31,
32,
32,
33,
34,
35,
38,
37,
39,
40,
40,
40,
43,
43,
43,
44,
44,
46,
48,
49,
48,
47,
48,
50,
54,
52,
53,
51,
54,
56,
56,
55,
55,
55,
58,
58,
58,
57,
57,
59,
60,
61,
60,
58,
59,
61,
63,
62,
61,
60,
62,
64,
63,
62,
61,
63,
63,
63,
63,
63,
62,
61,
63,
63,
61,
60,
62,
62,
62,
61,
61,
61,
60,
60,
60,
59,
59,
58,
58,
58,
56,
56,
56,
55,
55,
54,
54,
54,
54,
52,
52,
51,
49,
49,
48,
47,
47,
44,
44,
46,
44,
42,
41,
39,
42,
41,
39,
37,
35,
36,
36,
35,
32,
28,
30,
30,
29,
25,
22,
24,
23,
24,
21,
18,
18,
18,
18,
16,
15,
11,
10,
10,
11,
7,
6,
4,
4,
4,
3,
1,
-1,
-3,
-2,
-3,
-3,
-7,
-8,
-9,
-9,
-10,
-12,
-14,
-16,
-16,
-16,
-17,
-19,
-21,
-22,
-22,
-21,
-25,
-29,
-30,
-29,
-28,
-30,
-33,
-35,
-35,
-35,
-35,
-37,
-39,
-38,
-40,
-40,
-42,
-43,
-43,
-44,
-45,
-46,
-47,
-47,
-48,
-49,
-51,
-50,
-50,
-51,
-53,
-54,
-54,
-52,
-54,
-56,
-58,
-58,
-58,
-57,
-58,
-61,
-62,
-61,
-60,
-59,
-62,
-63,
-62,
-62,
-62,
-63,
-64,
-64,
-65,
-64,
-63,
-63,
-65,
-65,
-65,
-64,
-63,
-64,
-65,
-66,
-66,
-63,
-63,
-65,
-66,
-66,
-63,
-62,
-62,
-65,
-65,
-62,
-63,
-61,
-63,
-62,
-62,
-60,
-60,
-60,
-60,
-61,
-59,
-55,
-57,
-57,
-55,
-54,
-54,
-53,
-53,
-52,
-51,
-51,
-49,
-48,
-51,
-48,
-46,
-46,
-45,
-45,
-43,
-42,
-41,
-40,
-39,
-38,
-37,
-37,
-36,
-35,
-34,
-33,
-32,
-31,
-31,
-29,
-27,
-26,
-24,
-23,
-22,
-21,
-20,
-18,
-17,
-16,
-17,
-16,
-13,
-11,
-10,
-10,
-10,
-8,
-6,
-4,
-3,
-3,
-3,
0,
3,
2,
2,
3,
4,
9,
10,
8,
9,
11,
13,
16,
16,
15,
16,
17,
20,
24,
21,
23,
23,
27,
28,
28,
26,
28,
31,
32,
34,
34,
34,
35,
37,
39,
39,
39,
39,
42,
43,
45,
45,
44,
44,
47,
47,
49,
49,
49,
49,
52,
54,
53,
51,
52,
53,
56,
56,
56,
55,
56,
58,
58,
58,
57,
57,
59,
60,
60,
60,
61,
61,
61,
60,
61,
62,
63,
62,
62,
62,
63,
63,
62,
61,
62,
63,
64,
62,
60,
61,
62,
63,
62,
60,
60,
60,
61,
61,
60,
59,
59,
59,
60,
59,
58,
56,
57,
57,
56,
53,
52,
52,
54,
53,
52,
52,
51,
49,
49,
49,
49,
47,
45,
43,
45,
44,
43,
41,
39,
39,
42,
39,
37,
35,
34,
36,
35,
33,
31,
30,
30,
29,
28,
25,
23,
23,
25,
21,
19,
18,
18,
18,
16,
15,
13,
13,
12,
9,
8,
6,
6,
5,
4,
1,
0,
0,
-1,
-3,
-4,
-6,
-6,
-6,
-7,
-11,
-11,
-13,
-13,
-14,
-16,
-18,
-19,
-20,
-21,
-21,
-21,
-25,
-23,
-26,
-27,
-27,
-30,
-32,
-31,
-32,
-32,
-35,
-37,
-39,
-38,
-39,
-38,
-41,
-44,
-45,
-44,
-43,
-45,
-48,
-49,
-49,
-47,
-48,
-52,
-54,
-52,
-53,
-52,
-53,
-56,
-57,
-57,
-55,
-56,
-59,
-60,
-60,
-58,
-58,
-60,
-62,
-63,
-63,
-61,
-61,
-62,
-64,
-64,
-64,
-63,
-63,
-65,
-66,
-65,
-66,
-64,
-65,
-65,
-66,
-66,
-65,
-64,
-65,
-66,
-67,
-65,
-64,
-65,
-65,
-64,
-66,
-63,
-64,
-64,
-63,
-65,
-63,
-60,
-62,
-61,
-62,
-60,
-59,
-58,
-59,
-57,
-58,
-57,
-58,
-56,
-56,
-55,
-54,
-53,
-54,
-52,
-51,
-51,
-52,
-49,
-48,
-46,
-45,
-46,
-46,
-44,
-44,
-41,
-42,
-43,
-42,
-39,
-36,
-36,
-36,
-36,
-33,
-31,
-31,
-30,
-30,
-28,
-26,
-25,
-23,
-23,
-23,
-22,
-20,
-19,
-17,
-16,
-15,
-14,
-12,
-10,
-11,
-9,
-10,
-7,
-6,
-3,
-3,
-4,
-3,
0,
1,
2,
2,
4,
6,
8,
9,
10,
10,
12,
13,
15,
14,
16,
18,
19,
20,
22,
21,
26,
25,
26,
25,
28,
30,
32,
32,
32,
32,
35,
36,
38,
35,
37,
39,
41,
42,
42,
42,
42,
45,
46,
45,
46,
47,
49,
49,
50,
50,
51,
50,
52,
54,
55,
53,
53,
55,
57,
57,
58,
58,
57,
58,
61,
61,
60,
58,
60,
60,
63,
61,
60,
60,
61,
63,
63,
61,
60,
60,
63,
63,
62,
60,
60,
62,
63,
64,
61,
60,
61,
63,
63,
61,
59,
59,
61,
62,
61,
59,
60,
59,
60,
59,
58,
58,
56,
56,
56,
56,
55,
52,
53,
51,
52,
52,
50,
49,
48,
49,
48,
48,
47,
45,
45,
45,
44,
42,
40,
39,
40,
38,
38,
37,
35,
34,
34,
34,
32,
30,
31,
28,
27,
25,
26,
25,
23,
21,
20,
19,
19,
17,
16,
13,
14,
13,
12,
10,
7,
7,
9,
7,
3,
1,
2,
1,
0,
-3,
-6,
-6,
-6,
-6,
-7,
-11,
-12,
-13,
-13,
-14,
-16,
-17,
-19,
-18,
-19,
-21,
-22,
-24,
-25,
-25,
-24,
-29,
-29,
-31,
-32,
-33,
-35,
-33,
-36,
-37,
-37,
-38,
-38,
-41,
-41,
-42,
-43,
-44,
-45,
-46,
-47,
-48,
-49,
-49,
-49,
-53,
-52,
-51,
-52,
-55,
-55,
-55,
-54,
-56,
-57,
-58,
-58,
-58,
-59,
-60,
-61,
-61,
-59,
-61,
-62,
-64,
-64,
-61,
-62,
-64,
-65,
-65,
-62,
-64,
-65,
-67,
-66,
-65,
-64,
-64,
-66,
-67,
-66,
-64,
-64,
-66,
-66,
-66,
-63,
-64,
-64,
-64,
-64,
-64,
-63,
-63,
-62,
-63,
-64,
-62,
-58,
-59,
-60,
-62,
-61,
-59,
-57,
-56,
-57,
-57,
-57,
-54,
-52,
-55,
-56,
-54,
-50,
-51,
-49,
-51,
-50,
-48,
-46,
-44,
-45,
-46,
-45,
-42,
-40,
-40,
-40,
-40,
-38,
-37,
-37,
-35,
-34,
-34,
-33,
-30,
-30,
-29,
-27,
-26,
-24,
-23,
-22,
-21,
-21,
-21,
-19,
-16,
-16,
-16,
-15,
-13,
-10,
-10,
-8,
-9,
-6,
-5,
-3,
-4,
-2,
-1,
1,
2,
2,
3,
5,
6,
7,
8,
10,
12,
13,
14,
15,
16,
18,
19,
19,
18,
21,
22,
25,
25,
26,
26,
27,
29,
30,
31,
32,
33,
36,
37,
37,
36,
38,
38,
40,
42,
41,
42,
43,
44,
46,
46,
46,
46,
48,
51,
50,
50,
51,
50,
52,
53,
53,
54,
55,
55,
56,
56,
58,
56,
57,
57,
59,
58,
60,
59,
59,
58,
60,
61,
60,
60,
61,
61,
62,
60,
61,
61,
61,
61,
62,
62,
62,
61,
61,
61,
61,
61,
62,
61,
60,
59,
61,
61,
60,
58,
58,
59,
60,
58,
56,
55,
56,
56,
57,
55,
52,
52,
55,
55,
55,
50,
49,
50,
51,
50,
46,
45,
44,
46,
46,
45,
43,
41,
42,
42,
43,
39,
38,
36,
37,
36,
34,
33,
33,
29,
32,
31,
27,
25,
25,
26,
26,
25,
21,
19,
18,
20,
20,
16,
13,
11,
12,
13,
11,
7,
6,
5,
6,
6,
2,
0,
0,
1,
0,
-3,
-6,
-7,
-6,
-7,
-8,
-11,
-12,
-13,
-13,
-15,
-16,
-18,
-19,
-19,
-21,
-21,
-22,
-23,
-22,
-27,
-27,
-27,
-30,
-31,
-31,
-32,
-34,
-34,
-36,
-36,
-38,
-39,
-40,
-41,
-42,
-42,
-43,
-45,
-45,
-46,
-46,
-47,
-48,
-50,
-49,
-51,
-50,
-52,
-53,
-53,
-52,
-54,
-54,
-56,
-57,
-57,
-57,
-57,
-59,
-61,
-61,
-58,
-57,
-60,
-62,
-62,
-62,
-61,
-62,
-64,
-64,
-64,
-63,
-63,
-63,
-65,
-65,
-63,
-64,
-64,
-64,
-64,
-64,
-64,
-64,
-64,
-64,
-64,
-64,
-63,
-62,
-62,
-62,
-62,
-61,
-62,
-61,
-60,
-60,
-61,
-61,
-59,
-58,
-58,
-59,
-58,
-56,
-56,
-56,
-55,
-53,
-56,
-53,
-52,
-50,
-51,
-50,
-50,
-49,
-48,
-47,
-47,
-46,
-47,
-44,
-42,
-42,
-41,
-41,
-40,
-37,
-37,
-37,
-36,
-35,
-35,
-31,
-30,
-32,
-31,
-29,
-26,
-23,
-25,
-25,
-23,
-20,
-18,
-17,
-17,
-19,
-17,
-14,
-12,
-12,
-13,
-12,
-10,
-6,
-5,
-6,
-6,
-3,
-1,
1,
1,
2,
1,
3,
5,
8,
7,
7,
8,
11,
13,
15,
13,
14,
16,
19,
20,
21,
20,
23,
23,
27,
27,
26,
25,
29,
30,
32,
33,
32,
33,
35,
37,
38,
36,
39,
39,
42,
41,
42,
42,
43,
46,
45,
45,
46,
48,
49,
49,
51,
50,
52,
52,
53,
52,
55,
53,
55,
55,
55,
54,
57,
58,
58,
57,
58,
59,
59,
59,
59,
59,
60,
60,
61,
60,
60,
59,
61,
61,
62,
61,
60,
61,
61,
61,
62,
61,
60,
59,
60,
61,
62,
60,
58,
59,
59,
60,
59,
58,
57,
58,
60,
59,
56,
54,
54,
56,
55,
52,
51,
51,
52,
52,
50,
50,
49,
49,
49,
48,
47,
45,
45,
45,
43,
42,
42,
41,
40,
38,
38,
38,
37,
36,
34,
34,
34,
33,
32,
29,
27,
26,
28,
26,
24,
22,
21,
20,
20,
18,
17,
15,
15,
15,
14,
13,
11,
9,
8,
6,
7,
5,
2,
1,
0,
1,
0,
-3,
-5,
-6,
-5,
-5,
-7,
-11,
-13,
-13,
-11,
-13,
-16,
-19,
-20,
-19,
-19,
-21,
-25,
-26,
-22,
-25,
-25,
-28,
-32,
-33,
-30,
-30,
-33,
-37,
-38,
-36,
-36,
-37,
-40,
-42,
-42,
-42,
-41,
-44,
-46,
-47,
-47,
-46,
-47,
-49,
-50,
-52,
-50,
-51,
-52,
-54,
-55,
-56,
-54,
-54,
-55,
-59,
-59,
-58,
-58,
-58,
-61,
-62,
-60,
-60,
-60,
-62,
-62,
-63,
-62,
-61,
-63,
-64,
-65,
-63,
-62,
-65,
-64,
-64,
-63,
-64,
-65,
-64,
-64,
-64,
-64,
-65,
-64,
-64,
-64,
-63,
-62,
-64,
-64,
-64,
-61,
-62,
-63,
-63,
-60,
-61,
-60,
-60,
-60,
-59,
-59,
-58,
-56,
-56,
-58,
-57,
-54,
-55,
-55,
-54,
-53,
-53,
-52,
-49,
-48,
-51,
-49,
-47,
-45,
-45,
-45,
-45,
-44,
-42,
-41,
-41,
-42,
-42,
-39,
-35,
-34,
-35,
-36,
-33,
-30,
-27,
-28,
-29,
-27,
-26,
-24,
-24,
-23,
-23,
-21,
-20,
-19,
-17,
-17,
-15,
-12,
-13,
-10,
-11,
-8,
-8,
-6,
-6,
-4,
-3,
-3,
-3,
0,
1,
2,
3,
5,
6,
7,
10,
11,
10,
11,
12,
15,
16,
16,
17,
18,
19,
22,
22,
25,
24,
25,
26,
29,
29,
32,
31,
30,
33,
34,
35,
36,
35,
37,
39,
42,
41,
40,
40,
43,
45,
45,
45,
44,
46,
49,
50,
49,
48,
48,
50,
53,
53,
52,
50,
52,
56,
57,
55,
54,
55,
57,
57,
58,
57,
58,
58,
59,
60,
59,
58,
59,
60,
61,
61,
61,
60,
60,
60,
62,
62,
61,
60,
61,
61,
62,
61,
60,
60,
61,
61,
61,
60,
59,
59,
60,
60,
59,
57,
58,
59,
58,
56,
54,
56,
56,
56,
53,
52,
52,
52,
52,
50,
49,
49,
48,
50,
48,
45,
45,
46,
45,
44,
42,
42,
42,
41,
40,
37,
36,
35,
36,
36,
34,
31,
32,
32,
33,
28,
28,
26,
26,
25,
24,
22,
20,
18,
19,
18,
17,
15,
13,
12,
12,
12,
10,
8,
7,
6,
7,
5,
3,
0,
0,
-2,
0,
-4,
-6,
-8,
-7,
-7,
-7,
-11,
-13,
-14,
-12,
-14,
-15,
-18,
-21,
-20,
-20,
-21,
-23,
-25,
-25,
-26,
-26,
-30,
-30,
-31,
-32,
-33,
-35,
-35,
-36,
-37,
-38,
-40,
-39,
-41,
-42,
-43,
-44,
-45,
-45,
-45,
-48,
-48,
-50,
-49,
-48,
-51,
-53,
-53,
-52,
-53,
-54,
-56,
-56,
-56,
-56,
-57,
-57,
-59,
-61,
-60,
-58,
-59,
-61,
-62,
-62,
-63,
-61,
-61,
-62,
-64,
-64,
-63,
-61,
-63,
-65,
-65,
-64,
-63,
-62,
-64,
-66,
-67,
-64,
-62,
-63,
-65,
-67,
-65,
-63,
-62,
-64,
-65,
-62,
-63,
-65,
