6-anwendungen-opAmps/daten/ALL0042/A0042CH1.CSV

Memory Length,4000,
Trigger Level,6.18000e+02,
Source,CH1,
Probe,1.0X,
Vertical Units,V,
Vertical Scale,5.00000e-02,
Vertical Position,-4.54000e-01,
Horizontal Units,S,
Horizontal Scale,5.00000e-04,
Horizontal Position,-7.0000000e-04,
Horizontal Mode,XY Mode,
Sampling Period,2.00000e-06,
Firmware,V1.14,
Time, ,
Mode,Fast,
Waveform Data,
274,
274,
274,
274,
274,
275,
275,
275,
275,
274,
274,
275,
275,
275,
275,
274,
274,
275,
275,
276,
276,
275,
275,
275,
275,
275,
275,
275,
275,
277,
277,
276,
276,
276,
276,
275,
275,
274,
274,
274,
274,
275,
275,
275,
275,
276,
276,
276,
276,
276,
276,
274,
274,
277,
277,
275,
275,
277,
277,
276,
276,
276,
276,
277,
277,
276,
276,
276,
276,
275,
275,
277,
277,
276,
276,
275,
275,
276,
276,
276,
276,
276,
276,
276,
276,
275,
275,
277,
277,
276,
276,
277,
277,
277,
277,
277,
277,
278,
278,
276,
276,
276,
276,
277,
277,
277,
277,
277,
277,
278,
278,
278,
278,
276,
276,
278,
278,
278,
278,
277,
277,
277,
277,
277,
277,
279,
279,
277,
277,
279,
279,
278,
278,
280,
280,
279,
279,
279,
279,
277,
277,
277,
277,
279,
279,
280,
280,
278,
278,
279,
279,
278,
278,
278,
278,
279,
279,
279,
279,
279,
279,
279,
279,
278,
278,
281,
281,
279,
279,
280,
280,
278,
278,
278,
278,
281,
281,
278,
278,
279,
279,
280,
280,
278,
278,
278,
278,
279,
279,
279,
279,
278,
278,
278,
278,
281,
281,
281,
281,
279,
279,
280,
280,
279,
279,
279,
279,
278,
278,
279,
279,
281,
281,
280,
280,
279,
279,
281,
281,
280,
280,
282,
282,
280,
280,
281,
281,
280,
280,
280,
280,
282,
282,
281,
281,
279,
279,
281,
281,
280,
280,
282,
282,
282,
282,
284,
284,
282,
282,
281,
281,
281,
281,
281,
281,
280,
280,
281,
281,
281,
281,
280,
280,
280,
280,
283,
283,
280,
280,
282,
282,
283,
283,
282,
282,
280,
280,
281,
281,
281,
281,
281,
281,
281,
281,
281,
281,
283,
283,
281,
281,
281,
281,
282,
282,
282,
282,
282,
282,
282,
282,
283,
283,
281,
281,
282,
282,
283,
283,
281,
281,
281,
281,
281,
281,
283,
283,
284,
284,
281,
281,
284,
284,
284,
284,
282,
282,
283,
283,
284,
284,
285,
285,
284,
284,
284,
284,
284,
284,
283,
283,
282,
282,
283,
283,
283,
283,
284,
284,
283,
283,
282,
282,
284,
284,
284,
284,
283,
283,
283,
283,
284,
284,
284,
284,
283,
283,
282,
282,
285,
285,
284,
284,
284,
284,
283,
283,
285,
285,
284,
284,
285,
285,
284,
284,
286,
286,
284,
284,
286,
286,
285,
285,
285,
285,
284,
284,
285,
285,
285,
285,
285,
285,
284,
284,
285,
285,
285,
285,
285,
285,
286,
286,
285,
285,
286,
286,
286,
286,
286,
286,
285,
285,
285,
285,
285,
285,
284,
284,
284,
284,
285,
285,
285,
285,
284,
284,
285,
285,
285,
285,
286,
286,
286,
286,
288,
288,
286,
286,
287,
287,
286,
286,
287,
287,
286,
286,
286,
286,
287,
287,
287,
287,
286,
286,
287,
287,
286,
286,
287,
287,
287,
287,
288,
288,
286,
286,
284,
284,
287,
287,
286,
286,
287,
287,
287,
287,
288,
288,
287,
287,
287,
287,
288,
288,
288,
288,
288,
288,
287,
287,
288,
288,
289,
289,
288,
288,
287,
287,
287,
287,
287,
287,
288,
288,
288,
288,
287,
287,
288,
288,
287,
287,
288,
288,
288,
288,
288,
288,
289,
289,
286,
286,
287,
287,
290,
290,
288,
288,
289,
289,
288,
288,
290,
290,
288,
288,
289,
289,
289,
289,
291,
291,
289,
289,
289,
289,
288,
288,
289,
289,
290,
290,
288,
288,
289,
289,
289,
289,
289,
289,
290,
290,
289,
289,
288,
288,
290,
290,
289,
289,
290,
290,
289,
289,
288,
288,
289,
289,
289,
289,
290,
290,
290,
290,
290,
290,
290,
290,
290,
290,
291,
291,
290,
290,
289,
289,
291,
291,
290,
290,
289,
289,
291,
291,
292,
292,
290,
290,
290,
290,
290,
290,
289,
289,
292,
292,
292,
292,
290,
290,
290,
290,
291,
291,
291,
291,
291,
291,
292,
292,
290,
290,
291,
291,
292,
292,
291,
291,
290,
290,
291,
291,
292,
292,
292,
292,
289,
289,
292,
292,
292,
292,
291,
291,
293,
293,
292,
292,
293,
293,
293,
293,
290,
290,
292,
292,
292,
292,
292,
292,
292,
292,
292,
292,
292,
292,
292,
292,
292,
292,
293,
293,
293,
293,
291,
291,
291,
291,
291,
291,
292,
292,
293,
293,
293,
293,
295,
295,
293,
293,
294,
294,
291,
291,
293,
293,
293,
293,
294,
294,
295,
295,
293,
293,
293,
293,
294,
294,
293,
293,
294,
294,
293,
293,
294,
294,
292,
292,
294,
294,
294,
294,
293,
293,
293,
293,
295,
295,
294,
294,
295,
295,
294,
294,
293,
293,
293,
293,
294,
294,
293,
293,
295,
295,
296,
296,
294,
294,
294,
294,
296,
296,
297,
297,
294,
294,
295,
295,
295,
295,
295,
295,
295,
295,
294,
294,
295,
295,
295,
295,
296,
296,
298,
298,
295,
295,
294,
294,
294,
294,
296,
296,
296,
296,
297,
297,
295,
295,
294,
294,
296,
296,
295,
295,
296,
296,
295,
295,
296,
296,
296,
296,
296,
296,
295,
295,
294,
294,
295,
295,
295,
295,
295,
295,
296,
296,
296,
296,
297,
297,
295,
295,
295,
295,
296,
296,
295,
295,
296,
296,
297,
297,
297,
297,
297,
297,
298,
298,
296,
296,
297,
297,
296,
296,
296,
296,
298,
298,
296,
296,
298,
298,
297,
297,
297,
297,
297,
297,
297,
297,
297,
297,
298,
298,
296,
296,
297,
297,
297,
297,
296,
296,
298,
298,
297,
297,
298,
298,
297,
297,
297,
297,
300,
300,
298,
298,
298,
298,
298,
298,
298,
298,
298,
298,
297,
297,
298,
298,
297,
297,
298,
298,
299,
299,
297,
297,
298,
298,
297,
297,
299,
299,
299,
299,
299,
299,
298,
298,
299,
299,
298,
298,
300,
300,
298,
298,
300,
300,
299,
299,
299,
299,
300,
300,
298,
298,
299,
299,
299,
299,
298,
298,
301,
301,
298,
298,
300,
300,
299,
299,
299,
299,
300,
300,
299,
299,
299,
299,
300,
300,
300,
300,
299,
299,
300,
300,
300,
300,
300,
300,
300,
300,
299,
299,
300,
300,
302,
302,
301,
301,
300,
300,
302,
302,
301,
301,
302,
302,
300,
300,
301,
301,
301,
301,
300,
300,
301,
301,
302,
302,
301,
301,
302,
302,
300,
300,
302,
302,
300,
300,
302,
302,
303,
303,
302,
302,
302,
302,
300,
300,
302,
302,
303,
303,
301,
301,
301,
301,
302,
302,
301,
301,
300,
300,
300,
300,
302,
302,
303,
303,
300,
300,
303,
303,
302,
302,
303,
303,
303,
303,
303,
303,
300,
300,
302,
302,
304,
304,
301,
301,
302,
302,
302,
302,
301,
301,
303,
303,
303,
303,
302,
302,
303,
303,
303,
303,
304,
304,
303,
303,
303,
303,
302,
302,
303,
303,
304,
304,
303,
303,
303,
303,
303,
303,
304,
304,
303,
303,
303,
303,
304,
304,
303,
303,
304,
304,
304,
304,
304,
304,
304,
304,
304,
304,
304,
304,
305,
305,
304,
304,
305,
305,
305,
305,
303,
303,
306,
306,
306,
306,
306,
306,
304,
304,
305,
305,
308,
308,
305,
305,
304,
304,
305,
305,
305,
305,
306,
306,
304,
304,
306,
306,
305,
305,
305,
305,
304,
304,
306,
306,
304,
304,
305,
305,
306,
306,
305,
305,
306,
306,
304,
304,
307,
307,
306,
306,
307,
307,
306,
306,
307,
307,
305,
305,
306,
306,
306,
306,
305,
305,
304,
304,
306,
306,
307,
307,
306,
306,
306,
306,
306,
306,
306,
306,
307,
307,
307,
307,
306,
306,
306,
306,
304,
304,
307,
307,
306,
306,
306,
306,
306,
306,
308,
308,
306,
306,
308,
308,
307,
307,
306,
306,
307,
307,
307,
307,
308,
308,
306,
306,
308,
308,
307,
307,
307,
307,
307,
307,
307,
307,
307,
307,
308,
308,
308,
308,
307,
307,
308,
308,
308,
308,
308,
308,
308,
308,
308,
308,
307,
307,
306,
306,
307,
307,
308,
308,
308,
308,
308,
308,
309,
309,
309,
309,
310,
310,
309,
309,
309,
309,
310,
310,
309,
309,
309,
309,
309,
309,
309,
309,
309,
309,
308,
308,
309,
309,
308,
308,
309,
309,
310,
310,
309,
309,
309,
309,
310,
310,
310,
310,
309,
309,
308,
308,
309,
309,
309,
309,
310,
310,
308,
308,
309,
309,
310,
310,
310,
310,
310,
310,
310,
310,
310,
310,
310,
310,
311,
311,
310,
310,
311,
311,
310,
310,
310,
310,
310,
310,
311,
311,
310,
310,
311,
311,
311,
311,
309,
309,
311,
311,
310,
310,
310,
310,
310,
310,
310,
310,
311,
311,
311,
311,
312,
312,
310,
310,
312,
312,
311,
311,
311,
311,
311,
311,
312,
312,
310,
310,
312,
312,
311,
311,
311,
311,
311,
311,
311,
311,
311,
311,
311,
311,
312,
312,
311,
311,
311,
311,
311,
311,
312,
312,
312,
312,
312,
312,
312,
312,
312,
312,
312,
312,
314,
314,
312,
312,
313,
313,
313,
313,
313,
313,
312,
312,
312,
312,
313,
313,
313,
313,
314,
314,
314,
314,
312,
312,
314,
314,
312,
312,
311,
311,
314,
314,
312,
312,
313,
313,
314,
314,
314,
314,
312,
312,
313,
313,
312,
312,
314,
314,
312,
312,
312,
312,
313,
313,
314,
314,
314,
314,
314,
314,
315,
315,
314,
314,
314,
314,
314,
314,
312,
312,
313,
313,
315,
315,
313,
313,
314,
314,
313,
313,
314,
314,
314,
314,
316,
316,
315,
315,
314,
314,
315,
315,
314,
314,
314,
314,
314,
314,
313,
313,
314,
314,
316,
316,
314,
314,
315,
315,
313,
313,
314,
314,
313,
313,
313,
313,
313,
313,
312,
312,
312,
312,
311,
311,
312,
312,
310,
310,
310,
310,
308,
308,
308,
308,
310,
310,
307,
307,
307,
307,
304,
304,
305,
305,
304,
304,
304,
304,
305,
305,
302,
302,
302,
302,
303,
303,
299,
299,
301,
301,
299,
299,
299,
299,
301,
301,
298,
298,
298,
298,
298,
298,
296,
296,
298,
298,
296,
296,
295,
295,
295,
295,
295,
295,
293,
293,
294,
294,
293,
293,
292,
292,
292,
292,
294,
294,
291,
291,
290,
290,
290,
290,
290,
290,
288,
288,
289,
289,
287,
287,
286,
286,
289,
289,
288,
288,
286,
286,
285,
285,
286,
286,
285,
285,
283,
283,
283,
283,
282,
282,
281,
281,
283,
283,
281,
281,
281,
281,
280,
280,
279,
279,
280,
280,
277,
277,
278,
278,
277,
277,
277,
277,
279,
279,
275,
275,
275,
275,
275,
275,
274,
274,
273,
273,
273,
273,
272,
272,
271,
271,
270,
270,
272,
272,
271,
271,
271,
271,
270,
270,
269,
269,
270,
270,
267,
267,
266,
266,
268,
268,
265,
265,
267,
267,
264,
264,
267,
267,
266,
266,
263,
263,
263,
263,
263,
263,
262,
262,
263,
263,
262,
262,
260,
260,
260,
260,
261,
261,
260,
260,
259,
259,
257,
257,
257,
257,
257,
257,
257,
257,
257,
257,
255,
255,
257,
257,
254,
254,
255,
255,
253,
253,
251,
251,
253,
253,
253,
253,
252,
252,
249,
249,
249,
249,
248,
248,
250,
250,
249,
249,
249,
249,
247,
247,
247,
247,
245,
245,
245,
245,
246,
246,
247,
247,
245,
245,
244,
244,
244,
244,
242,
242,
242,
242,
243,
243,
242,
242,
240,
240,
240,
240,
241,
241,
241,
241,
238,
238,
236,
236,
236,
236,
237,
237,
238,
238,
238,
238,
235,
235,
234,
234,
234,
234,
232,
232,
234,
234,
232,
232,
234,
234,
232,
232,
231,
231,
229,
229,
233,
233,
229,
229,
229,
229,
229,
229,
227,
227,
228,
228,
228,
228,
227,
227,
225,
225,
226,
226,
226,
226,
224,
224,
224,
224,
225,
225,
226,
226,
225,
225,
222,
222,
221,
221,
222,
222,
221,
221,
221,
221,
219,
219,
220,
220,
218,
218,
219,
219,
217,
217,
217,
217,
215,
215,
217,
217,
216,
216,
216,
216,
213,
213,
215,
215,
213,
213,
213,
213,
213,
213,
210,
210,
212,
212,
211,
211,
210,
210,
211,
211,
209,
209,
209,
209,
210,
210,
207,
207,
208,
208,
207,
207,
207,
207,
205,
205,
205,
205,
206,
206,
205,
205,
203,
203,
202,
202,
203,
203,
204,
204,
199,
199,
202,
202,
201,
201,
200,
200,
201,
201,
200,
200,
198,
198,
198,
198,
199,
199,
197,
197,
195,
195,
196,
196,
195,
195,
194,
194,
194,
194,
194,
194,
193,
193,
193,
193,
192,
192,
191,
191,
191,
191,
192,
192,
190,
190,
190,
190,
190,
190,
188,
188,
189,
189,
187,
187,
187,
187,
186,
186,
185,
185,
186,
186,
184,
184,
185,
185,
184,
184,
184,
184,
184,
184,
182,
182,
183,
183,
181,
181,
181,
181,
181,
181,
181,
181,
179,
179,
179,
179,
178,
178,
178,
178,
180,
180,
178,
178,
176,
176,
177,
177,
175,
175,
176,
176,
175,
175,
174,
174,
175,
175,
174,
174,
174,
174,
171,
171,
173,
173,
171,
171,
170,
170,
169,
169,
169,
169,
169,
169,
169,
169,
168,
168,
167,
167,
168,
168,
169,
169,
166,
166,
165,
165,
166,
166,
164,
164,
163,
163,
165,
165,
164,
164,
162,
162,
163,
163,
162,
162,
161,
161,
160,
160,
160,
160,
160,
160,
159,
159,
160,
160,
159,
159,
158,
158,
157,
157,
155,
155,
156,
156,
157,
157,
155,
155,
154,
154,
154,
154,
154,
154,
153,
153,
153,
153,
152,
152,
152,
152,
151,
151,
151,
151,
150,
150,
151,
151,
151,
151,
147,
147,
149,
149,
147,
147,
148,
148,
147,
147,
146,
146,
147,
147,
145,
145,
145,
145,
145,
145,
145,
145,
144,
144,
144,
144,
143,
143,
142,
142,
142,
142,
140,
140,
141,
141,
141,
141,
141,
141,
138,
138,
138,
138,
136,
136,
138,
138,
137,
137,
138,
138,
136,
136,
136,
136,
134,
134,
135,
135,
134,
134,
133,
133,
133,
133,
132,
132,
133,
133,
132,
132,
131,
131,
130,
130,
130,
130,
129,
129,
130,
130,
128,
128,
128,
128,
128,
128,
128,
128,
128,
128,
126,
126,
126,
126,
126,
126,
126,
126,
125,
125,
123,
123,
124,
124,
122,
122,
123,
123,
121,
121,
122,
122,
121,
121,
121,
121,
121,
121,
120,
120,
119,
119,
119,
119,
118,
118,
118,
118,
117,
117,
116,
116,
117,
117,
115,
115,
117,
117,
114,
114,
115,
115,
113,
113,
114,
114,
114,
114,
113,
113,
111,
111,
112,
112,
112,
112,
111,
111,
110,
110,
110,
110,
108,
108,
109,
109,
107,
107,
107,
107,
107,
107,
106,
106,
107,
107,
106,
106,
106,
106,
105,
105,
105,
105,
103,
103,
104,
104,
103,
103,
103,
103,
101,
101,
102,
102,
102,
102,
102,
102,
102,
102,
100,
100,
101,
101,
100,
100,
100,
100,
100,
100,
100,
100,
100,
100,
100,
100,
100,
100,
100,
100,
100,
100,
100,
100,
100,
100,
100,
100,
100,
100,
100,
100,
100,
100,
100,
100,
100,
100,
100,
100,
100,
100,
100,
100,
100,
100,
100,
100,
100,
100,
100,
100,
100,
100,
100,
100,
100,
100,
100,
100,
100,
100,
100,
100,
100,
100,
100,
100,
100,
100,
100,
100,
100,
100,
100,
100,
100,
100,
100,
100,
100,
100,
100,
100,
100,
100,
100,
100,
100,
100,
100,
100,
100,
100,
100,
100,
100,
100,
100,
100,
100,
100,
100,
100,
100,
100,
100,
100,
100,
100,
100,
100,
100,
100,
100,
100,
100,
100,
100,
100,
100,
100,
100,
100,
100,
100,
100,
100,
100,
100,
100,
100,
100,
100,
100,
100,
100,
100,
100,
100,
100,
100,
100,
100,
100,
100,
100,
100,
100,
100,
100,
100,
100,
100,
100,
100,
100,
100,
100,
100,
100,
100,
100,
100,
100,
100,
100,
100,
100,
100,
100,
100,
100,
100,
100,
100,
100,
100,
100,
100,
100,
100,
100,
100,
100,
100,
100,
100,
100,
100,
100,
100,
100,
100,
100,
100,
100,
100,
100,
100,
100,
100,
100,
100,
100,
100,
100,
100,
100,
100,
100,
100,
100,
100,
100,
100,
100,
100,
100,
100,
100,
100,
100,
100,
100,
100,
100,
100,
100,
100,
100,
100,
100,
100,
100,
100,
100,
100,
100,
100,
100,
100,
100,
100,
100,
100,
100,
100,
100,
100,
100,
100,
100,
100,
100,
100,
100,
100,
100,
100,
100,
100,
100,
100,
100,
100,
100,
100,
100,
100,
100,
100,
100,
100,
100,
100,
100,
100,
100,
100,
100,
100,
100,
100,
100,
100,
100,
100,
100,
100,
100,
100,
100,
100,
100,
100,
100,
100,
100,
100,
100,
100,
100,
100,
100,
100,
100,
100,
100,
100,
100,
100,
100,
100,
100,
100,
100,
100,
100,
100,
100,
100,
100,
100,
100,
100,
100,
100,
100,
100,
100,
100,
100,
100,
100,
100,
100,
100,
100,
100,
100,
100,
100,
100,
100,
100,
100,
100,
100,
100,
100,
100,
100,
100,
100,
100,
100,
100,
100,
100,
100,
100,
100,
100,
100,
100,
100,
100,
100,
100,
100,
100,
100,
100,
100,
100,
100,
100,
100,
100,
100,
100,
100,
100,
100,
100,
100,
100,
100,
100,
100,
100,
100,
100,
100,
100,
100,
100,
100,
100,
100,
100,
100,
100,
100,
100,
100,
100,
100,
100,
100,
100,
100,
100,
100,
100,
100,
100,
100,
100,
100,
100,
100,
100,
100,
100,
100,
100,
100,
100,
100,
100,
100,
100,
100,
100,
100,
100,
100,
100,
100,
100,
100,
100,
100,
100,
100,
100,
100,
100,
100,
100,
100,
100,
100,
100,
100,
100,
100,
100,
100,
100,
100,
100,
100,
100,
100,
100,
100,
100,
100,
100,
100,
100,
100,
100,
100,
100,
100,
100,
100,
100,
100,
100,
100,
100,
100,
100,
100,
100,
100,
100,
100,
100,
100,
100,
100,
100,
100,
100,
100,
100,
100,
100,
100,
100,
100,
100,
100,
100,
100,
100,
100,
100,
100,
100,
100,
100,
100,
100,
100,
100,
100,
100,
100,
100,
100,
100,
100,
100,
100,
100,
100,
100,
100,
100,
100,
100,
100,
100,
100,
100,
100,
100,
100,
100,
100,
100,
100,
100,
100,
100,
100,
100,
100,
100,
100,
100,
100,
100,
100,
100,
100,
100,
100,
100,
100,
100,
100,
100,
100,
100,
100,
100,
100,
100,
100,
100,
100,
100,
100,
100,
100,
100,
100,
100,
100,
100,
100,
100,
100,
100,
100,
100,
100,
100,
100,
100,
100,
100,
100,
100,
100,
100,
100,
100,
100,
100,
100,
100,
100,
100,
100,
100,
100,
100,
100,
100,
100,
100,
100,
100,
100,
100,
100,
100,
100,
100,
100,
100,
100,
100,
100,
100,
100,
100,
100,
100,
100,
100,
100,
100,
100,
100,
100,
100,
100,
100,
100,
100,
100,
100,
100,
100,
100,
100,
100,
100,
100,
100,
100,
100,
100,
100,
100,
100,
100,
100,
100,
100,
100,
100,
100,
100,
100,
100,
100,
100,
100,
100,
100,
100,
100,
100,
100,
100,
100,
100,
100,
100,
100,
100,
100,
100,
100,
100,
100,
100,
100,
100,
100,
100,
100,
100,
100,
100,
100,
100,
100,
100,
100,
100,
100,
100,
100,
100,
100,
100,
100,
100,
100,
100,
100,
100,
100,
100,
100,
100,
100,
100,
100,
100,
100,
100,
100,
100,
100,
100,
100,
100,
100,
100,
100,
100,
100,
100,
100,
100,
100,
100,
100,
100,
100,
100,
100,
100,
100,
100,
100,
100,
100,
100,
100,
100,
100,
100,
100,
100,
100,
100,
100,
100,
100,
100,
100,
100,
100,
100,
100,
100,
100,
100,
100,
100,
100,
100,
100,
100,
100,
100,
100,
100,
100,
100,
100,
100,
100,
100,
100,
100,
100,
100,
100,
100,
100,
100,
100,
100,
100,
100,
100,
100,
100,
100,
100,
100,
100,
100,
100,
100,
100,
100,
100,
100,
100,
100,
100,
100,
100,
100,
100,
100,
100,
100,
100,
100,
100,
100,
100,
100,
100,
100,
100,
100,
100,
100,
100,
100,
100,
100,
100,
100,
100,
100,
100,
100,
100,
100,
100,
100,
100,
100,
100,
100,
100,
100,
100,
100,
100,
100,
100,
100,
100,
100,
100,
100,
100,
100,
100,
100,
100,
100,
100,
100,
100,
100,
100,
100,
100,
100,
100,
100,
100,
100,
100,
100,
100,
100,
100,
100,
100,
100,
100,
100,
100,
100,
100,
100,
100,
100,
100,
100,
100,
100,
100,
100,
100,
100,
100,
100,
100,
100,
100,
100,
100,
100,
100,
100,
100,
100,
100,
100,
100,
100,
100,
100,
100,
100,
100,
100,
100,
100,
100,
100,
100,
100,
100,
100,
100,
100,
100,
100,
100,
100,
100,
100,
100,
100,
100,
100,
100,
100,
100,
100,
100,
100,
100,
100,
100,
100,
100,
100,
100,
100,
100,
100,
100,
100,
100,
100,
100,
100,
100,
100,
100,
100,
100,
100,
100,
100,
100,
100,
100,
100,
100,
100,
100,
100,
100,
100,
100,
100,
100,
100,
100,
100,
100,
100,
100,
100,
100,
100,
100,
100,
100,
100,
100,
100,
100,
100,
100,
100,
100,
100,
100,
100,
100,
100,
100,
100,
100,
100,
100,
100,
100,
100,
100,
100,
100,
100,
100,
100,
100,
100,
100,
100,
100,
100,
100,
100,
100,
100,
100,
100,
100,
100,
100,
100,
100,
100,
100,
100,
100,
100,
100,
100,
100,
100,
100,
100,
100,
100,
100,
100,
100,
100,
100,
100,
100,
100,
100,
100,
100,
100,
100,
100,
100,
100,
100,
100,
100,
100,
100,
100,
100,
100,
100,
100,
100,
100,
100,
100,
100,
100,
100,
100,
100,
100,
100,
100,
100,
100,
100,
100,
100,
100,
100,
100,
100,
100,
100,
100,
100,
100,
100,
100,
100,
100,
100,
100,
100,
100,
100,
100,
100,
100,
100,
100,
100,
100,
100,
100,
100,
100,
100,
100,
100,
100,
100,
100,
100,
100,
100,
100,
100,
100,
100,
100,
100,
100,
100,
100,
100,
100,
100,
100,
100,
100,
100,
100,
100,
100,
100,
100,
100,
100,
100,
100,
100,
100,
100,
100,
100,
100,
100,
100,
100,
100,
100,
100,
100,
100,
100,
100,
100,
100,
100,
100,
100,
100,
100,
100,
100,
100,
100,
100,
100,
100,
100,
100,
100,
100,
100,
100,
100,
100,
100,
100,
100,
100,
100,
100,
100,
100,
100,
100,
100,
100,
100,
100,
100,
100,
100,
100,
100,
100,
100,
100,
100,
100,
100,
100,
100,
100,
100,
100,
100,
100,
100,
100,
100,
100,
100,
100,
100,
100,
100,
100,
100,
100,
100,
100,
100,
100,
100,
100,
100,
100,
100,
100,
100,
100,
100,
100,
100,
100,
100,
100,
100,
100,
100,
100,
100,
100,
100,
100,
100,
100,
100,
100,
100,
100,
100,
100,
100,
100,
100,
100,
100,
100,
100,
100,
100,
100,
100,
100,
100,
100,
100,
100,
100,
100,
100,
100,
100,
100,
100,
100,
100,
100,
100,
100,
100,
100,
100,
100,
100,
100,
100,
100,
100,
100,
100,
100,
100,
100,
100,
100,
100,
100,
100,
100,
100,
100,
100,
100,
100,
100,
100,
100,
100,
100,
100,
100,
100,
100,
100,
100,
100,
100,
100,
100,
100,
100,
100,
100,
100,
100,
100,
100,
100,
100,
100,
100,
100,
100,
100,
100,
100,
100,
100,
100,
100,
100,
100,
100,
100,
100,
100,
100,
100,
100,
100,
100,
100,
100,
100,
100,
100,
100,
100,
100,
100,
100,
100,
100,
100,
100,
100,
100,
100,
100,
100,
100,
100,
100,
100,
100,
100,
100,
100,
100,
100,
100,
100,
100,
100,
100,
100,
100,
100,
100,
100,
100,
100,
100,
100,
100,
100,
100,
100,
100,
100,
100,
100,
100,
100,
100,
100,
100,
100,
100,
100,
100,
100,
100,
100,
100,
100,
100,
100,
100,
100,
100,
100,
100,
100,
100,
100,
100,
100,
100,
100,
100,
100,
100,
100,
100,
100,
100,
100,
100,
100,
100,
100,
100,
100,
100,
100,
100,
100,
100,
100,
100,
100,
100,
100,
100,
100,
100,
100,
100,
100,
100,
100,
100,
100,
100,
100,
100,
100,
100,
100,
100,
100,
100,
100,
100,
100,
100,
100,
100,
100,
100,
100,
