6-anwendungen-opAmps/daten/ALL0042/A0042CH2.CSV

Memory Length,4000,
Trigger Level,6.18000e+02,
Source,CH2,
Probe,1.0X,
Vertical Units,V,
Vertical Scale,2.00000e-01,
Vertical Position,0.00000e+00,
Horizontal Units,S,
Horizontal Scale,5.00000e-04,
Horizontal Position,-7.0000000e-04,
Horizontal Mode,XY Mode,
Sampling Period,2.00000e-06,
Firmware,V1.14,
Time, ,
Mode,Fast,
Waveform Data,
22,
22,
22,
21,
21,
16,
16,
13,
13,
8,
-4,
-1,
-1,
1,
1,
2,
2,
3,
3,
9,
9,
12,
12,
17,
30,
30,
30,
25,
25,
27,
27,
23,
23,
20,
20,
17,
17,
13,
-2,
-1,
-1,
2,
2,
2,
2,
7,
7,
10,
10,
17,
17,
22,
33,
31,
31,
27,
27,
25,
25,
24,
24,
18,
18,
18,
7,
10,
-3,
-1,
-1,
2,
2,
5,
5,
7,
7,
10,
10,
16,
31,
29,
29,
23,
23,
23,
23,
21,
21,
19,
19,
15,
15,
10,
-4,
-2,
-2,
-1,
-1,
2,
2,
3,
3,
8,
8,
14,
14,
21,
21,
21,
21,
21,
21,
19,
19,
15,
15,
12,
-1,
1,
1,
-4,
-4,
-5,
-5,
1,
1,
2,
2,
5,
17,
16,
16,
20,
20,
19,
19,
18,
18,
15,
15,
8,
8,
1,
-10,
-7,
-7,
-7,
-7,
-6,
-6,
-2,
-2,
2,
2,
4,
21,
20,
20,
12,
12,
16,
16,
12,
12,
6,
6,
1,
-12,
-10,
-10,
-9,
-9,
-10,
-10,
-6,
-6,
-3,
-3,
0,
18,
16,
16,
10,
10,
8,
8,
7,
7,
3,
3,
0,
-17,
-16,
-16,
-13,
-13,
-11,
-11,
-6,
-6,
-3,
-3,
4,
15,
12,
12,
8,
8,
5,
5,
4,
4,
3,
-10,
-9,
-9,
-16,
-16,
-13,
-13,
-10,
-10,
-7,
-7,
-3,
12,
10,
10,
5,
5,
5,
5,
4,
4,
2,
-9,
-8,
-8,
-14,
-14,
-16,
-16,
-11,
-11,
-8,
-8,
-4,
8,
6,
6,
3,
3,
5,
5,
0,
0,
-3,
-3,
-6,
-19,
-18,
-18,
-17,
-17,
-15,
-15,
-10,
-10,
-5,
11,
10,
-1,
4,
4,
4,
4,
0,
0,
-3,
-3,
-4,
-21,
-19,
-19,
-15,
-15,
-15,
-15,
-7,
-7,
-4,
11,
9,
9,
3,
3,
3,
3,
1,
1,
-4,
-16,
-14,
-14,
-16,
-16,
-15,
-15,
-10,
-10,
-5,
-5,
2,
2,
4,
4,
6,
6,
3,
3,
1,
-10,
-9,
-20,
-19,
-19,
-15,
-15,
-10,
-10,
-10,
-10,
-2,
12,
2,
2,
8,
8,
2,
2,
0,
0,
-7,
-20,
-17,
-17,
-14,
-14,
-10,
-10,
-9,
-9,
-1,
13,
1,
1,
8,
8,
3,
3,
-1,
-1,
-3,
-19,
-16,
-16,
-11,
-11,
-12,
-12,
-4,
10,
8,
8,
2,
2,
5,
5,
4,
4,
0,
0,
-4,
-18,
-15,
-15,
-10,
-10,
-11,
-11,
-2,
11,
9,
9,
3,
3,
4,
4,
1,
1,
-1,
-1,
-9,
-9,
-14,
-14,
-12,
-12,
-5,
-5,
3,
15,
13,
1,
8,
8,
6,
6,
0,
0,
-2,
-17,
-13,
-13,
-11,
-11,
-7,
-7,
-2,
10,
7,
7,
5,
5,
6,
6,
3,
3,
1,
-17,
-14,
-14,
-12,
-12,
-9,
-9,
-2,
13,
11,
11,
6,
6,
10,
10,
5,
5,
2,
-14,
-10,
-10,
-11,
-11,
-6,
-6,
-5,
-5,
2,
16,
3,
3,
9,
9,
4,
4,
0,
-16,
-15,
-15,
-12,
-12,
-8,
-8,
-4,
14,
13,
2,
4,
4,
9,
9,
3,
3,
-1,
-13,
-10,
-10,
-9,
-9,
-7,
-7,
-1,
16,
15,
2,
6,
6,
10,
10,
3,
3,
-3,
-16,
-14,
-14,
-8,
-8,
-6,
-6,
1,
17,
11,
11,
8,
8,
6,
6,
3,
3,
-6,
-6,
-11,
-11,
-9,
-9,
-4,
9,
8,
8,
2,
2,
9,
9,
4,
4,
-1,
-16,
-13,
-13,
-9,
-9,
-5,
-5,
5,
16,
14,
1,
8,
8,
5,
5,
0,
-16,
-12,
-12,
-10,
-10,
-9,
-9,
-1,
16,
9,
9,
9,
9,
5,
5,
0,
0,
-8,
-8,
-11,
-11,
-8,
-8,
-5,
10,
9,
9,
6,
6,
4,
4,
0,
-13,
-12,
-12,
-12,
-12,
-8,
-8,
-4,
13,
12,
0,
5,
5,
6,
6,
4,
-13,
-13,
-13,
-11,
-11,
-9,
-9,
-5,
13,
11,
11,
8,
8,
6,
6,
2,
-15,
-12,
-12,
-10,
-10,
-8,
-8,
-3,
15,
10,
-1,
8,
8,
4,
4,
0,
-16,
-14,
-14,
-11,
-11,
-6,
-6,
-2,
16,
7,
7,
8,
8,
3,
3,
1,
-17,
-15,
-15,
-10,
-10,
-6,
6,
4,
15,
5,
5,
8,
8,
4,
-9,
-6,
-17,
-12,
-12,
-8,
-8,
-2,
16,
11,
-1,
8,
8,
3,
3,
1,
-16,
-15,
-15,
-8,
-8,
-8,
6,
5,
16,
3,
3,
6,
6,
1,
-14,
-14,
-14,
-11,
-11,
-10,
-10,
-2,
15,
7,
7,
7,
7,
3,
3,
-2,
-17,
-12,
-12,
-8,
-8,
-5,
15,
11,
-1,
9,
9,
3,
3,
-1,
-17,
-13,
-13,
-9,
-9,
-6,
12,
9,
9,
8,
8,
8,
8,
1,
-17,
-16,
-16,
-11,
-11,
-8,
10,
9,
9,
2,
2,
2,
2,
-1,
-12,
-12,
-12,
-12,
-12,
-6,
7,
6,
6,
4,
4,
8,
8,
1,
-16,
-12,
-12,
-10,
-10,
-7,
12,
11,
0,
1,
1,
4,
4,
1,
-14,
-13,
-13,
-9,
-9,
-4,
13,
13,
-1,
4,
4,
6,
6,
1,
-15,
-12,
-12,
-9,
-9,
-6,
16,
14,
-1,
3,
3,
2,
2,
-1,
-17,
-12,
-12,
-9,
-9,
-2,
16,
14,
-1,
8,
8,
2,
-10,
-9,
-9,
-12,
-12,
-8,
7,
4,
16,
2,
2,
5,
5,
1,
-14,
-14,
-14,
-11,
-11,
-7,
15,
13,
-2,
7,
7,
5,
-7,
-5,
-17,
-10,
-10,
-9,
-9,
-4,
16,
8,
8,
4,
4,
0,
-13,
-9,
-9,
-9,
-9,
-8,
16,
14,
-2,
5,
5,
5,
5,
-5,
-17,
-11,
-11,
-8,
8,
6,
6,
-1,
-1,
6,
6,
1,
-16,
-15,
-15,
-9,
-9,
-5,
16,
10,
-2,
5,
5,
3,
-16,
-15,
-15,
-8,
-8,
-6,
8,
6,
6,
6,
6,
2,
2,
-5,
-17,
-11,
-11,
-8,
6,
5,
16,
0,
0,
3,
3,
0,
-17,
-13,
-13,
-9,
-9,
-3,
16,
6,
6,
5,
5,
-2,
-17,
-14,
-14,
-9,
-9,
-5,
16,
2,
2,
7,
7,
2,
-17,
-15,
-15,
-9,
-9,
-4,
17,
13,
-2,
5,
5,
1,
-16,
-15,
-15,
-12,
-12,
-8,
16,
13,
-2,
5,
5,
1,
-17,
-15,
-15,
-9,
-9,
-7,
16,
2,
2,
6,
6,
1,
-16,
-13,
-13,
-8,
-8,
-3,
16,
13,
-2,
6,
6,
1,
-17,
-15,
-15,
-9,
-9,
-4,
16,
1,
1,
3,
3,
0,
-17,
-14,
-14,
-8,
12,
12,
-2,
4,
4,
4,
-11,
-10,
-10,
-8,
-8,
-8,
14,
12,
-2,
3,
3,
5,
-9,
-8,
-8,
-10,
-10,
-7,
16,
7,
7,
5,
5,
0,
-16,
-15,
-15,
-9,
2,
2,
16,
6,
6,
5,
-8,
-6,
-17,
-10,
-10,
-9,
16,
14,
-2,
3,
3,
2,
-17,
-15,
-15,
-9,
-9,
-2,
16,
3,
3,
3,
3,
-5,
-17,
-15,
-15,
-8,
10,
8,
8,
3,
3,
4,
-14,
-13,
-13,
-8,
-8,
-5,
16,
1,
1,
3,
3,
-5,
-17,
-10,
-10,
-8,
14,
12,
-2,
3,
3,
2,
-10,
-11,
-11,
-10,
7,
7,
7,
1,
1,
3,
3,
-1,
-17,
-12,
-12,
-5,
15,
13,
-2,
5,
5,
-2,
-18,
-10,
-10,
-7,
14,
15,
-2,
3,
3,
1,
-13,
-8,
-8,
-7,
-7,
3,
16,
2,
2,
4,
4,
0,
-17,
-9,
-9,
-3,
16,
-1,
-1,
4,
4,
1,
-18,
-12,
-12,
-6,
15,
12,
-2,
3,
3,
1,
-17,
-15,
-15,
-9,
16,
15,
-3,
3,
3,
0,
-18,
-14,
-14,
-10,
10,
9,
-3,
0,
0,
5,
-17,
-15,
-15,
-9,
-9,
0,
16,
-1,
-1,
4,
-13,
-12,
-12,
-8,
-8,
-2,
16,
5,
5,
5,
-14,
-14,
-14,
-10,
-10,
-6,
16,
4,
4,
4,
-13,
-9,
-9,
-9,
4,
-1,
16,
1,
1,
5,
-17,
-16,
-16,
-9,
-9,
-6,
16,
0,
0,
5,
-16,
-15,
-15,
-11,
-11,
-7,
16,
1,
1,
4,
-15,
-14,
-14,
-9,
3,
2,
16,
0,
0,
3,
-13,
-14,
-14,
-9,
15,
14,
-3,
3,
3,
0,
-18,
-16,
-16,
-7,
16,
15,
-3,
3,
3,
1,
-18,
-13,
-13,
-10,
16,
13,
-3,
3,
3,
-1,
-18,
-14,
-3,
-3,
16,
4,
4,
3,
-10,
-9,
-9,
-6,
-6,
-4,
16,
1,
1,
3,
-18,
-16,
-16,
-9,
13,
12,
-3,
0,
0,
1,
-18,
-15,
-15,
-6,
16,
14,
-3,
5,
-11,
-11,
-11,
-9,
-9,
-5,
16,
0,
0,
1,
-17,
-14,
-14,
-9,
-9,
0,
16,
0,
0,
-1,
-18,
-17,
-5,
-8,
17,
3,
3,
5,
-13,
-10,
-10,
-8,
-8,
1,
16,
2,
2,
5,
-18,
-13,
-13,
-7,
15,
12,
-3,
2,
2,
-1,
-18,
-7,
-7,
-4,
16,
2,
2,
3,
-18,
-14,
-14,
-8,
16,
10,
-3,
3,
3,
-5,
-18,
-14,
-3,
-2,
16,
1,
1,
2,
-18,
-17,
-5,
-10,
13,
13,
-3,
5,
-13,
-11,
-11,
-7,
-7,
-6,
16,
3,
3,
1,
-18,
-12,
-12,
-7,
15,
12,
-3,
4,
4,
-3,
-18,
-9,
7,
6,
6,
2,
2,
-1,
-18,
-14,
-14,
-6,
16,
12,
-3,
5,
-13,
-9,
-9,
-6,
9,
10,
-3,
4,
4,
0,
-18,
-11,
9,
6,
17,
-1,
-1,
3,
-16,
-12,
-12,
-7,
16,
14,
-3,
5,
5,
0,
-18,
-8,
4,
4,
16,
0,
0,
3,
-17,
-13,
-1,
-3,
17,
6,
6,
4,
-16,
-13,
-13,
-7,
10,
9,
-3,
4,
4,
-1,
-18,
-12,
-12,
-4,
17,
1,
1,
3,
-18,
-12,
-12,
-7,
16,
7,
7,
3,
-10,
-8,
-8,
-9,
6,
3,
17,
3,
3,
-2,
-17,
-10,
-10,
-4,
17,
2,
2,
5,
-12,
-8,
-8,
-6,
14,
12,
-2,
3,
3,
1,
-17,
-14,
0,
-1,
17,
2,
2,
3,
-15,
-12,
-12,
-6,
18,
14,
-2,
3,
3,
2,
-18,
-5,
12,
12,
-1,
1,
1,
2,
-18,
-14,
-3,
-5,
17,
5,
5,
4,
-17,
-14,
-14,
-6,
18,
15,
-1,
3,
3,
3,
-16,
-12,
-12,
-5,
19,
18,
1,
8,
8,
0,
-14,
-9,
-9,
-3,
21,
17,
3,
9,
9,
4,
-12,
-7,
-7,
-2,
-2,
2,
22,
10,
10,
12,
12,
5,
-12,
-9,
-9,
-3,
-3,
4,
22,
14,
14,
13,
13,
9,
-10,
-8,
-8,
-3,
-3,
0,
14,
16,
16,
11,
11,
14,
14,
10,
-6,
-3,
-3,
-4,
-4,
-1,
-1,
6,
18,
16,
16,
11,
11,
16,
16,
13,
13,
7,
-9,
-4,
-4,
-1,
-1,
1,
1,
6,
6,
12,
24,
21,
21,
16,
16,
16,
16,
12,
12,
11,
-5,
-3,
-3,
-3,
-3,
1,
1,
1,
1,
7,
7,
9,
20,
17,
17,
27,
27,
20,
20,
20,
20,
16,
16,
13,
13,
8,
8,
4,
-10,
-8,
-8,
-8,
-8,
-5,
-5,
-1,
-1,
1,
1,
6,
6,
10,
10,
11,
11,
17,
17,
22,
22,
28,
28,
33,
33,
29,
29,
28,
28,
24,
24,
22,
22,
20,
20,
16,
16,
9,
9,
6,
6,
2,
2,
0,
0,
-5,
-5,
-13,
-13,
-15,
-15,
-22,
-22,
-26,
-26,
-30,
-30,
-37,
-37,
-40,
-40,
-45,
-56,
-53,
-53,
-50,
-50,
-49,
-49,
-45,
-45,
-44,
-44,
-39,
-39,
-36,
-36,
-32,
-32,
-27,
-27,
-22,
-22,
-19,
-19,
-15,
-15,
-11,
-11,
-6,
-6,
2,
2,
6,
6,
10,
10,
13,
13,
20,
20,
24,
24,
27,
27,
35,
35,
39,
39,
43,
43,
48,
48,
52,
52,
55,
55,
61,
61,
67,
67,
70,
70,
73,
73,
78,
78,
83,
83,
86,
86,
88,
88,
90,
90,
91,
91,
94,
94,
96,
96,
94,
94,
96,
96,
96,
96,
99,
99,
96,
96,
95,
95,
97,
97,
94,
94,
94,
94,
92,
92,
89,
89,
89,
89,
86,
86,
84,
84,
85,
85,
81,
81,
80,
80,
76,
76,
76,
76,
71,
71,
70,
70,
69,
69,
64,
64,
60,
60,
61,
61,
56,
56,
56,
56,
54,
54,
51,
51,
49,
49,
45,
45,
45,
45,
42,
42,
40,
40,
35,
35,
34,
34,
32,
32,
32,
32,
28,
28,
27,
27,
27,
27,
24,
24,
22,
22,
22,
22,
17,
17,
17,
17,
17,
17,
14,
14,
14,
14,
13,
13,
10,
10,
8,
8,
8,
8,
6,
6,
9,
9,
8,
8,
7,
7,
5,
5,
5,
5,
5,
5,
5,
5,
4,
4,
4,
4,
2,
2,
2,
2,
1,
1,
3,
3,
1,
1,
3,
3,
-1,
-1,
3,
3,
1,
1,
0,
0,
0,
0,
-1,
-1,
2,
2,
-1,
-1,
-1,
-1,
0,
0,
2,
2,
0,
0,
1,
1,
2,
2,
2,
2,
1,
1,
1,
1,
0,
0,
-2,
-2,
3,
3,
-1,
-1,
0,
0,
-1,
-1,
-1,
-1,
3,
3,
1,
1,
1,
1,
0,
0,
0,
0,
-1,
-1,
-1,
-1,
2,
2,
-2,
-2,
0,
0,
2,
2,
-1,
-1,
-1,
-1,
0,
0,
2,
2,
-1,
-1,
0,
0,
0,
0,
1,
1,
-1,
-1,
1,
1,
1,
1,
1,
1,
-1,
-1,
0,
0,
-1,
-1,
0,
0,
2,
2,
-2,
-2,
1,
1,
1,
1,
-2,
-2,
0,
0,
1,
1,
-1,
-1,
0,
0,
-1,
-1,
-2,
-2,
-2,
-2,
-3,
-3,
-2,
-2,
0,
0,
-3,
-3,
0,
0,
-1,
-1,
-1,
-1,
-1,
-1,
0,
0,
-3,
-3,
-2,
-2,
1,
1,
-1,
-1,
-1,
-1,
-2,
-2,
-1,
-1,
-1,
-1,
1,
1,
-3,
-3,
-1,
-1,
1,
1,
1,
1,
-1,
-1,
0,
0,
-2,
-2,
-1,
-1,
1,
1,
0,
0,
0,
0,
0,
0,
0,
0,
0,
0,
-1,
-1,
-1,
-1,
0,
0,
-2,
-2,
0,
0,
1,
1,
0,
0,
2,
2,
-4,
-4,
-1,
-1,
1,
1,
-1,
-1,
0,
0,
-3,
-3,
0,
0,
0,
0,
0,
0,
2,
2,
-1,
-1,
-2,
-2,
1,
1,
0,
0,
-1,
-1,
-1,
-1,
1,
1,
0,
0,
2,
2,
1,
1,
-1,
-1,
-1,
-1,
-1,
-1,
-1,
-1,
2,
2,
-1,
-1,
0,
0,
0,
0,
0,
0,
1,
1,
0,
0,
1,
1,
-2,
-2,
0,
0,
0,
0,
0,
0,
1,
1,
0,
0,
1,
1,
0,
0,
-1,
-1,
1,
1,
0,
0,
0,
0,
0,
0,
-2,
-2,
0,
0,
0,
0,
1,
1,
-1,
-1,
1,
1,
-2,
-2,
0,
0,
-1,
-1,
0,
0,
-1,
-1,
-1,
-1,
1,
1,
-1,
-1,
-1,
-1,
1,
1,
-1,
-1,
1,
1,
0,
0,
0,
0,
-1,
-1,
0,
0,
1,
1,
-1,
-1,
-1,
-1,
-1,
-1,
2,
2,
-3,
-3,
1,
1,
1,
1,
-1,
-1,
-3,
-3,
-2,
-2,
-1,
-1,
1,
1,
0,
0,
0,
0,
0,
0,
-2,
-2,
-2,
-2,
-4,
-4,
-1,
-1,
0,
0,
-1,
-1,
2,
2,
0,
0,
-1,
-1,
-1,
-1,
-2,
-2,
1,
1,
0,
0,
-3,
-3,
-1,
-1,
0,
0,
2,
2,
-1,
-1,
-1,
-1,
0,
0,
0,
0,
0,
0,
-1,
-1,
0,
0,
-3,
-3,
0,
0,
0,
0,
-1,
-1,
0,
0,
0,
0,
-1,
-1,
-2,
-2,
1,
1,
0,
0,
0,
0,
1,
1,
-2,
-2,
0,
0,
1,
1,
0,
0,
0,
0,
-1,
-1,
-1,
-1,
-1,
-1,
-3,
-3,
-1,
-1,
-1,
-1,
-2,
-2,
2,
2,
-1,
-1,
-1,
-1,
-1,
-1,
0,
0,
0,
0,
1,
1,
0,
0,
-1,
-1,
0,
0,
-1,
-1,
-1,
-1,
0,
0,
1,
1,
0,
0,
-1,
-1,
0,
0,
-1,
-1,
-2,
-2,
1,
1,
0,
0,
-1,
-1,
1,
1,
-3,
-3,
-2,
-2,
-2,
-2,
-2,
-2,
-2,
-2,
-2,
-2,
-1,
-1,
-2,
-2,
1,
1,
1,
1,
-1,
-1,
1,
1,
0,
0,
1,
1,
-1,
-1,
0,
0,
-2,
-2,
2,
2,
-3,
-3,
1,
1,
-1,
-1,
-1,
-1,
-2,
-2,
0,
0,
-1,
-1,
-1,
-1,
0,
0,
0,
0,
1,
1,
-2,
-2,
-1,
-1,
-1,
-1,
0,
0,
0,
0,
3,
3,
2,
2,
-2,
-2,
-2,
-2,
0,
0,
1,
1,
0,
0,
0,
0,
0,
0,
-1,
-1,
-1,
-1,
0,
0,
-3,
-3,
0,
0,
-1,
-1,
0,
0,
-2,
-2,
-1,
-1,
0,
0,
-1,
-1,
0,
0,
0,
0,
-1,
-1,
-1,
-1,
1,
1,
-1,
-1,
0,
0,
-1,
-1,
0,
0,
2,
2,
-1,
-1,
1,
1,
0,
0,
-1,
-1,
-1,
-1,
-1,
-1,
0,
0,
0,
0,
-2,
-2,
-1,
-1,
-2,
-2,
-1,
-1,
1,
1,
-1,
-1,
-1,
-1,
0,
0,
-1,
-1,
1,
1,
1,
1,
-2,
-2,
-1,
-1,
0,
0,
0,
0,
-1,
-1,
0,
0,
1,
1,
-2,
-2,
-1,
-1,
-1,
-1,
1,
1,
2,
2,
-1,
-1,
-2,
-2,
-2,
-2,
0,
0,
1,
1,
1,
1,
-1,
-1,
0,
0,
-1,
-1,
0,
0,
-2,
-2,
0,
0,
1,
1,
-1,
-1,
0,
0,
-1,
-1,
-2,
-2,
-2,
-2,
0,
0,
0,
0,
-1,
-1,
1,
1,
0,
0,
-1,
-1,
-2,
-2,
0,
0,
-1,
-1,
0,
0,
-1,
-1,
-2,
-2,
-1,
-1,
0,
0,
1,
1,
-1,
-1,
2,
2,
2,
2,
-1,
-1,
0,
0,
-1,
-1,
0,
0,
1,
1,
1,
1,
2,
2,
0,
0,
1,
1,
0,
0,
-1,
-1,
0,
0,
-2,
-2,
-2,
-2,
0,
0,
-1,
-1,
-1,
-1,
2,
2,
0,
0,
0,
0,
0,
0,
0,
0,
1,
1,
-1,
-1,
-1,
-1,
1,
1,
0,
0,
-1,
-1,
0,
0,
0,
0,
-1,
-1,
-1,
-1,
2,
2,
1,
1,
-1,
-1,
1,
1,
0,
0,
0,
0,
-1,
-1,
-1,
-1,
-1,
-1,
-1,
-1,
1,
1,
1,
1,
-1,
-1,
-1,
-1,
0,
0,
0,
0,
0,
0,
-1,
-1,
-3,
-3,
-1,
-1,
-2,
-2,
-2,
-2,
-2,
-2,
-3,
-3,
0,
0,
-1,
-1,
2,
2,
0,
0,
0,
0,
1,
1,
1,
1,
-1,
-1,
1,
1,
-1,
-1,
0,
0,
-1,
-1,
-1,
-1,
0,
0,
1,
1,
-1,
-1,
-1,
-1,
-1,
-1,
-1,
-1,
-1,
-1,
0,
0,
-2,
-2,
0,
0,
-1,
-1,
0,
0,
-1,
-1,
-1,
-1,
0,
0,
-2,
-2,
1,
1,
0,
0,
0,
0,
1,
1,
0,
0,
1,
1,
0,
0,
1,
1,
0,
0,
-1,
-1,
1,
1,
0,
0,
0,
0,
-1,
-1,
0,
0,
-1,
-1,
0,
0,
1,
1,
-2,
-2,
-3,
-3,
0,
0,
-2,
-2,
1,
1,
1,
1,
2,
2,
-1,
-1,
-2,
-2,
2,
2,
-1,
-1,
0,
0,
1,
1,
-2,
-2,
1,
1,
-1,
-1,
1,
1,
1,
1,
-1,
-1,
0,
0,
2,
2,
0,
0,
1,
1,
-3,
-3,
-3,
-3,
-1,
-1,
-1,
-1,
-2,
-2,
0,
0,
-1,
-1,
0,
0,
-1,
-1,
1,
1,
-1,
-1,
-1,
-1,
-2,
-2,
1,
1,
-2,
-2,
1,
1,
-2,
-2,
0,
0,
-2,
-2,
-1,
-1,
0,
0,
0,
0,
1,
1,
0,
0,
-2,
-2,
-1,
-1,
-1,
-1,
-2,
-2,
-2,
-2,
0,
0,
1,
1,
-1,
-1,
-1,
-1,
0,
0,
1,
1,
0,
0,
0,
0,
0,
0,
1,
1,
-1,
-1,
1,
1,
0,
0,
1,
1,
-1,
-1,
0,
0,
-1,
-1,
1,
1,
-2,
-2,
1,
1,
-1,
-1,
-3,
-3,
0,
0,
-2,
-2,
-2,
-2,
1,
1,
-1,
-1,
2,
2,
0,
0,
0,
0,
-1,
-1,
-1,
-1,
1,
1,
-1,
-1,
2,
2,
0,
0,
-1,
-1,
0,
0,
0,
0,
-1,
-1,
-1,
-1,
-1,
-1,
-1,
-1,
-2,
-2,
-1,
-1,
-1,
-1,
0,
0,
0,
0,
-1,
-1,
0,
0,
1,
1,
0,
0,
-1,
-1,
0,
0,
-1,
-1,
-3,
-3,
2,
2,
0,
0,
0,
0,
0,
0,
1,
1,
-1,
-1,
-1,
-1,
-1,
-1,
0,
0,
0,
0,
2,
2,
-2,
-2,
-1,
-1,
0,
0,
0,
0,
1,
1,
-1,
-1,
-1,
-1,
-1,
-1,
0,
0,
2,
2,
1,
1,
0,
0,
-2,
-2,
0,
0,
-1,
-1,
0,
0,
-1,
-1,
-2,
-2,
1,
1,
1,
1,
0,
0,
-1,
-1,
1,
1,
-2,
-2,
0,
0,
-1,
-1,
-2,
-2,
-1,
-1,
0,
0,
0,
0,
0,
0,
1,
1,
2,
2,
1,
1,
-1,
-1,
1,
1,
1,
1,
1,
1,
1,
1,
1,
1,
0,
0,
-1,
-1,
1,
1,
1,
1,
-3,
-3,
-1,
-1,
-1,
-1,
-2,
-2,
2,
2,
0,
0,
-1,
-1,
-1,
-1,
0,
0,
-1,
-1,
-2,
-2,
0,
0,
-2,
-2,
-1,
-1,
1,
1,
-2,
-2,
-1,
-1,
1,
1,
2,
2,
1,
1,
1,
1,
-1,
-1,
0,
0,
0,
0,
1,
1,
2,
2,
-1,
-1,
0,
0,
0,
0,
-3,
-3,
-1,
-1,
1,
1,
0,
0,
0,
0,
0,
0,
1,
1,
1,
1,
-1,
-1,
-2,
-2,
-4,
-4,
0,
0,
0,
0,
0,
0,
-2,
-2,
-2,
-2,
-2,
-2,
-4,
-4,
1,
1,
-1,
-1,
0,
0,
0,
0,
2,
2,
0,
0,
0,
0,
-2,
-2,
-1,
-1,
1,
1,
-2,
-2,
0,
0,
2,
2,
-1,
-1,
0,
0,
0,
0,
-1,
-1,
-2,
-2,
-2,
-2,
-2,
-2,
0,
0,
-1,
-1,
-1,
-1,
2,
2,
-1,
-1,
0,
0,
0,
0,
0,
0,
1,
1,
-1,
-1,
-1,
-1,
-2,
-2,
0,
0,
-2,
-2,
1,
1,
0,
0,
0,
0,
-1,
-1,
1,
1,
-3,
-3,
0,
0,
-1,
-1,
-1,
-1,
0,
0,
-1,
-1,
0,
0,
-1,
-1,
0,
0,
0,
0,
1,
1,
-1,
-1,
-1,
-1,
-1,
-1,
-1,
-1,
-2,
-2,
0,
0,
2,
2,
0,
0,
-1,
-1,
1,
1,
0,
0,
1,
1,
1,
1,
-4,
-4,
-1,
-1,
-1,
-1,
-3,
-3,
-2,
-2,
0,
0,
0,
0,
1,
1,
-1,
-1,
-1,
-1,
-1,
-1,
2,
2,
-1,
-1,
-1,
-1,
0,
0,
1,
1,
0,
0,
0,
0,
-2,
-2,
-1,
-1,
1,
1,
-1,
-1,
-1,
-1,
-2,
-2,
-1,
-1,
-1,
-1,
0,
0,
-1,
-1,
1,
1,
0,
0,
-1,
-1,
0,
0,
0,
0,
-1,
-1,
0,
0,
0,
0,
-1,
-1,
0,
0,
0,
0,
1,
1,
0,
0,
-1,
-1,
-1,
-1,
-2,
-2,
1,
1,
0,
0,
1,
1,
0,
0,
-1,
-1,
0,
0,
-1,
-1,
1,
1,
-2,
-2,
0,
0,
-2,
-2,
-2,
-2,
1,
1,
0,
0,
-2,
-2,
2,
2,
1,
1,
1,
1,
0,
0,
0,
0,
-2,
-2,
-3,
-3,
-1,
-1,
-2,
-2,
-1,
-1,
-1,
-1,
-1,
-1,
-2,
-2,
0,
0,
1,
1,
-2,
-2,
1,
1,
-2,
-2,
-1,
-1,
-2,
-2,
1,
1,
1,
1,
0,
0,
1,
1,
2,
2,
-1,
-1,
-2,
-2,
2,
2,
1,
1,
0,
0,
-1,
-1,
-1,
-1,
2,
2,
2,
2,
0,
0,
0,
0,
-1,
-1,
0,
0,
-2,
-2,
2,
2,
-2,
-2,
0,
0,
-2,
-2,
1,
1,
0,
0,
1,
1,
1,
1,
-2,
-2,
0,
0,
0,
0,
0,
0,
-1,
-1,
0,
0,
1,
1,
-2,
-2,
0,
0,
0,
0,
-1,
-1,
-2,
-2,
-2,
-2,
0,
0,
0,
0,
-3,
-3,
-2,
-2,
-1,
-1,
1,
1,
1,
1,
1,
1,
-1,
-1,
-1,
-1,
-1,
-1,
1,
1,
-2,
-2,
1,
1,
0,
0,
-2,
-2,
1,
1,
-1,
-1,
0,
0,
0,
0,
0,
0,
0,
0,
0,
0,
-1,
-1,
0,
0,
-1,
-1,
0,
0,
0,
0,
1,
1,
0,
0,
-1,
-1,
-2,
-2,
-1,
-1,
0,
0,
-1,
-1,
-1,
-1,
-2,
-2,
0,
0,
0,
0,
-2,
-2,
-2,
-2,
-1,
-1,
2,
2,
0,
0,
0,
0,
0,
0,
1,
1,
-2,
-2,
1,
1,
1,
1,
1,
1,
1,
1,
-1,
-1,
-2,
-2,
-1,
-1,
-1,
-1,
-1,
-1,
-1,
-1,
2,
2,
0,
0,
-2,
-2,
-2,
-2,
-2,
-2,
0,
0,
1,
1,
-1,
-1,
-1,
-1,
0,
0,
-3,
-3,
-1,
-1,
-2,
-2,
-1,
-1,
1,
1,
-1,
-1,
2,
2,
-1,
-1,
1,
1,
0,
0,
-1,
-1,
-2,
-2,
0,
0,
0,
0,
-1,
-1,
0,
0,
-2,
-2,
2,
2,
-2,
-2,
0,
0,
-2,
-2,
0,
0,
-1,
-1,
0,
0,
-2,
-2,
1,
1,
0,
0,
-1,
-1,
-3,
-3,
0,
0,
0,
0,
-1,
-1,
0,
0,
0,
0,
-2,
-2,
-1,
-1,
-2,
-2,
-1,
-1,
-1,
-1,
1,
1,
-1,
-1,
0,
0,
-1,
-1,
-1,
-1,
-1,
-1,
-1,
-1,
0,
0,
0,
0,
-1,
-1,
1,
1,
-3,
