5-grundlagen-opAmps/data/ALL0001/A0001CH1.CSV

Memory Length,4000,
Trigger Level,0.00000e+00,
Source,CH1,
Probe,1.0X,
Vertical Units,V,
Vertical Scale,5.00000e-02,
Vertical Position,0.00000e+00,
Horizontal Units,S,
Horizontal Scale,1.00000e-07,
Horizontal Position,1.0000000e-07,
Horizontal Mode,Main,
Sampling Period,2.00000e-09,
Firmware,V1.14,
Time, ,
Mode,Fast,
Waveform Data,
-4,
-4,
-8,
-10,
-9,
-11,
-11,
-12,
-16,
-18,
-19,
-17,
-19,
-19,
-25,
-28,
-24,
-21,
-23,
-29,
-35,
-30,
-22,
-22,
-31,
-37,
-35,
-26,
-20,
-27,
-38,
-41,
-32,
-20,
-21,
-32,
-39,
-33,
-21,
-18,
-25,
-30,
-30,
-22,
-15,
-16,
-23,
-26,
-19,
-10,
-7,
-13,
-16,
-13,
-8,
-2,
-2,
-4,
-9,
-8,
0,
8,
6,
1,
-1,
2,
10,
16,
12,
5,
6,
11,
20,
21,
13,
9,
12,
20,
22,
19,
15,
17,
21,
24,
23,
16,
16,
19,
23,
21,
17,
14,
17,
17,
18,
15,
14,
15,
12,
10,
11,
12,
11,
7,
4,
0,
2,
6,
4,
-1,
-7,
-8,
-4,
0,
-6,
-14,
-16,
-13,
-9,
-11,
-18,
-20,
-21,
-18,
-15,
-19,
-26,
-28,
-24,
-20,
-22,
-27,
-34,
-33,
-27,
-24,
-25,
-32,
-38,
-34,
-28,
-23,
-28,
-35,
-36,
-31,
-23,
-24,
-29,
-32,
-31,
-24,
-20,
-19,
-26,
-28,
-21,
-15,
-13,
-19,
-24,
-15,
-9,
-5,
-10,
-15,
-12,
-7,
1,
0,
-5,
-6,
-2,
6,
6,
4,
4,
5,
10,
10,
12,
10,
13,
16,
15,
17,
12,
17,
22,
19,
17,
15,
17,
21,
24,
19,
16,
18,
20,
23,
21,
16,
15,
17,
20,
19,
14,
11,
12,
15,
17,
11,
7,
2,
5,
10,
11,
6,
-4,
-6,
0,
5,
3,
-7,
-15,
-14,
-6,
-2,
-9,
-18,
-22,
-15,
-8,
-11,
-22,
-32,
-25,
-15,
-15,
-24,
-36,
-33,
-23,
-18,
-22,
-35,
-39,
-33,
-21,
-20,
-31,
-39,
-36,
-28,
-22,
-26,
-32,
-35,
-31,
-26,
-25,
-25,
-28,
-29,
-26,
-20,
-19,
-20,
-22,
-23,
-17,
-12,
-12,
-13,
-17,
-14,
-4,
-2,
-6,
-11,
-9,
0,
6,
4,
0,
-1,
2,
7,
11,
9,
7,
9,
12,
15,
13,
15,
16,
17,
16,
14,
17,
20,
21,
18,
16,
19,
21,
24,
20,
15,
15,
20,
24,
20,
13,
11,
16,
21,
19,
10,
6,
9,
16,
14,
10,
3,
1,
5,
10,
8,
0,
-5,
-5,
-3,
0,
-4,
-10,
-12,
-11,
-10,
-8,
-12,
-19,
-21,
-15,
-16,
-17,
-23,
-28,
-25,
-22,
-20,
-27,
-32,
-32,
-29,
-24,
-25,
-31,
-36,
-34,
-27,
-25,
-30,
-35,
-33,
-28,
-26,
-28,
-29,
-29,
-28,
-26,
-26,
-27,
-26,
-22,
-20,
-21,
-22,
-21,
-16,
-15,
-15,
-15,
-12,
-10,
-8,
-8,
-8,
-7,
-3,
0,
0,
-1,
-2,
3,
9,
9,
6,
4,
5,
12,
17,
16,
11,
7,
11,
20,
22,
18,
13,
14,
19,
25,
25,
19,
14,
15,
22,
26,
23,
15,
10,
17,
23,
23,
14,
7,
8,
18,
23,
17,
4,
-1,
6,
16,
16,
3,
-7,
-4,
5,
9,
2,
-9,
-13,
-7,
1,
-3,
-12,
-20,
-18,
-8,
-10,
-17,
-25,
-26,
-17,
-17,
-19,
-28,
-32,
-25,
-24,
-21,
-26,
-31,
-34,
-32,
-27,
-25,
-29,
-32,
-33,
-33,
-30,
-27,
-28,
-31,
-32,
-31,
-24,
-25,
-28,
-28,
-28,
-22,
-21,
-25,
-24,
-21,
-17,
-15,
-16,
-17,
-15,
-11,
-10,
-11,
-10,
-6,
-4,
-4,
-5,
-3,
3,
5,
2,
-1,
2,
10,
13,
12,
7,
4,
11,
20,
21,
12,
8,
14,
22,
25,
19,
14,
13,
21,
25,
21,
17,
14,
18,
24,
22,
18,
14,
14,
18,
20,
19,
14,
9,
10,
13,
16,
14,
7,
2,
4,
7,
9,
4,
-2,
-4,
-2,
0,
0,
-6,
-12,
-11,
-8,
-6,
-13,
-17,
-16,
-16,
-16,
-20,
-24,
-23,
-21,
-20,
-25,
-28,
-27,
-26,
-26,
-27,
-29,
-30,
-28,
-28,
-31,
-35,
-31,
-27,
-27,
-32,
-37,
-31,
-25,
-22,
-28,
-32,
-32,
-27,
-19,
-18,
-25,
-28,
-25,
-16,
-13,
-17,
-21,
-19,
-13,
-8,
-7,
-11,
-14,
-10,
-2,
3,
-1,
-5,
-6,
1,
10,
9,
6,
2,
1,
10,
18,
19,
7,
3,
10,
21,
26,
19,
12,
9,
19,
27,
25,
17,
11,
15,
27,
26,
20,
11,
9,
21,
28,
24,
13,
6,
13,
20,
23,
16,
5,
4,
12,
16,
12,
3,
0,
1,
5,
4,
0,
-4,
-6,
-4,
-4,
-6,
-9,
-13,
-12,
-12,
-13,
-16,
-18,
-18,
-20,
-20,
-23,
-23,
-24,
-25,
-26,
-25,
-25,
-27,
-29,
-31,
-28,
-29,
-28,
-30,
-30,
-31,
-32,
-30,
-29,
-28,
-29,
-31,
-31,
-30,
-25,
-21,
-25,
-30,
-29,
-23,
-16,
-17,
-24,
-24,
-19,
-13,
-10,
-16,
-19,
-14,
-4,
-2,
-6,
-13,
-11,
-1,
6,
4,
-2,
-3,
2,
9,
12,
8,
3,
5,
12,
16,
16,
13,
11,
14,
18,
20,
20,
17,
16,
18,
20,
23,
20,
18,
17,
19,
21,
22,
19,
13,
15,
19,
20,
18,
11,
10,
15,
16,
14,
8,
5,
6,
9,
7,
4,
1,
0,
0,
-2,
-4,
-4,
-3,
-4,
-10,
-15,
-14,
-9,
-7,
-16,
-23,
-22,
-16,
-15,
-19,
-27,
-29,
-23,
-18,
-21,
-30,
-36,
-30,
-21,
-23,
-29,
-40,
-38,
-27,
-22,
-27,
-36,
-38,
-30,
-24,
-24,
-28,
-34,
-33,
-27,
-19,
-20,
-27,
-32,
-27,
-18,
-14,
-15,
-22,
-24,
-18,
-8,
-5,
-11,
-17,
-13,
-3,
3,
0,
-8,
-10,
0,
8,
12,
4,
-4,
0,
12,
20,
13,
4,
4,
12,
21,
20,
13,
11,
13,
22,
25,
17,
14,
16,
22,
26,
21,
17,
16,
18,
21,
21,
19,
16,
14,
16,
19,
17,
14,
12,
12,
13,
10,
10,
10,
8,
3,
1,
2,
1,
2,
1,
-3,
-6,
-7,
-7,
-5,
-8,
-11,
-15,
-16,
-13,
-14,
-16,
-21,
-22,
-21,
-19,
-21,
-24,
-29,
-27,
-24,
-24,
-27,
-35,
-34,
-28,
-22,
-26,
-35,
-37,
-34,
-25,
-24,
-28,
-36,
-37,
-29,
-23,
-23,
-30,
-33,
-27,
-21,
-19,
-24,
-27,
-24,
-18,
-13,
-14,
-18,
-19,
-13,
-6,
-7,
-8,
-10,
-9,
-3,
-1,
0,
1,
-1,
-1,
4,
8,
9,
7,
5,
8,
12,
16,
16,
13,
10,
14,
18,
21,
19,
16,
16,
19,
21,
22,
18,
18,
20,
20,
19,
19,
18,
18,
17,
17,
17,
18,
18,
15,
11,
11,
15,
16,
10,
2,
3,
8,
12,
7,
-4,
-8,
-4,
5,
6,
-6,
-15,
-16,
-8,
-1,
-9,
-19,
-24,
-16,
-9,
-12,
-24,
-28,
-26,
-19,
-16,
-23,
-30,
-33,
-27,
-21,
-23,
-30,
-35,
-34,
-28,
-23,
-26,
-32,
-38,
-35,
-28,
-19,
-25,
-34,
-37,
-30,
-21,
-19,
-27,
-34,
-28,
-19,
-14,
-16,
-26,
-25,
-15,
-7,
-11,
-17,
-19,
-12,
-2,
-2,
-8,
-11,
-6,
1,
4,
3,
-2,
1,
6,
9,
8,
8,
10,
11,
13,
12,
12,
16,
19,
18,
15,
16,
17,
19,
23,
21,
16,
17,
19,
21,
21,
18,
19,
17,
18,
19,
18,
16,
13,
15,
19,
18,
12,
7,
7,
12,
14,
9,
3,
-2,
1,
6,
6,
1,
-8,
-10,
-3,
1,
-3,
-13,
-20,
-15,
-8,
-9,
-16,
-24,
-24,
-18,
-12,
-18,
-27,
-31,
-27,
-19,
-21,
-28,
-34,
-32,
-25,
-24,
-28,
-33,
-36,
-32,
-27,
-26,
-30,
-34,
-33,
-29,
-27,
-26,
-28,
-31,
-29,
-26,
-25,
-23,
-23,
-24,
-22,
-19,
-17,
-15,
-16,
-15,
-15,
-12,
-7,
-8,
-9,
-10,
-5,
1,
1,
-1,
-2,
0,
4,
7,
9,
8,
5,
6,
12,
15,
14,
13,
12,
13,
15,
23,
23,
16,
12,
16,
21,
27,
22,
14,
13,
18,
26,
26,
17,
11,
13,
23,
26,
18,
7,
6,
16,
22,
16,
5,
0,
5,
14,
15,
6,
-4,
-6,
2,
8,
3,
-7,
-12,
-10,
-4,
-3,
-10,
-15,
-17,
-15,
-13,
-14,
-17,
-23,
-23,
-20,
-18,
-20,
-27,
-30,
-28,
-22,
-22,
-28,
-35,
-36,
-30,
-24,
-27,
-33,
-36,
-33,
-25,
-26,
-30,
-35,
-31,
-25,
-24,
-28,
-30,
-27,
-22,
-21,
-24,
-27,
-22,
-15,
-15,
-19,
-20,
-16,
-10,
-9,
-11,
-13,
-8,
-4,
-3,
-4,
-6,
-3,
2,
7,
6,
0,
1,
7,
14,
12,
8,
8,
9,
15,
18,
18,
16,
12,
16,
20,
21,
21,
15,
16,
20,
25,
26,
18,
14,
14,
20,
27,
21,
12,
8,
16,
22,
20,
12,
5,
7,
17,
18,
12,
0,
-2,
5,
12,
9,
-4,
-8,
-5,
0,
2,
-4,
-12,
-13,
-11,
-8,
-9,
-15,
-19,
-18,
-16,
-16,
-20,
-22,
-25,
-23,
-22,
-23,
-28,
-27,
-30,
-30,
-27,
-28,
-29,
-32,
-33,
-31,
-27,
-27,
-29,
-33,
-33,
-30,
-27,
-25,
-28,
-29,
-30,
-27,
-22,
-22,
-24,
-23,
-22,
-21,
-15,
-13,
-16,
-18,
-16,
-12,
-7,
-8,
-10,
-11,
-6,
0,
3,
-1,
-7,
-3,
5,
12,
9,
2,
2,
6,
18,
19,
13,
5,
7,
17,
24,
23,
13,
8,
17,
25,
26,
19,
13,
15,
25,
26,
23,
16,
14,
18,
25,
24,
15,
10,
12,
17,
20,
16,
9,
6,
8,
12,
13,
8,
2,
0,
3,
4,
3,
-3,
-5,
-6,
-6,
-4,
-8,
-10,
-14,
-14,
-11,
-13,
-19,
-21,
-20,
-15,
-20,
-25,
-28,
-25,
-21,
-23,
-27,
-32,
-29,
-26,
-28,
-30,
-34,
-32,
-26,
-27,
-31,
-37,
-34,
-24,
-23,
-29,
-35,
-33,
-23,
-19,
-24,
-30,
-31,
-24,
-15,
-14,
-21,
-25,
-21,
-12,
-9,
-14,
-16,
-15,
-9,
-3,
-3,
-4,
-10,
-6,
3,
5,
5,
-1,
-1,
3,
11,
15,
12,
5,
4,
11,
22,
23,
13,
7,
12,
22,
27,
23,
12,
12,
20,
27,
26,
16,
13,
17,
24,
27,
18,
11,
14,
20,
23,
18,
12,
9,
12,
16,
15,
12,
6,
5,
8,
7,
6,
3,
0,
-1,
-4,
-3,
-2,
-4,
-9,
-13,
-10,
-9,
-9,
-13,
-18,
-19,
-19,
-17,
-18,
-23,
-25,
-26,
-23,
-23,
-26,
-28,
-29,
-27,
-26,
-29,
-29,
-31,
-31,
-32,
-29,
-27,
-29,
-34,
-37,
-31,
-23,
-24,
-28,
-33,
-31,
-26,
-20,
-18,
-27,
-29,
-24,
-15,
-11,
-18,
-24,
-19,
-10,
-6,
-8,
-15,
-14,
-6,
3,
2,
-4,
-9,
-4,
8,
10,
5,
-1,
0,
8,
14,
16,
10,
6,
9,
16,
21,
18,
15,
14,
17,
20,
19,
18,
16,
19,
19,
21,
20,
18,
18,
19,
21,
19,
17,
16,
15,
18,
17,
16,
13,
10,
10,
12,
10,
7,
5,
4,
5,
1,
0,
0,
0,
-2,
-4,
-8,
-9,
-7,
-6,
-8,
-15,
-19,
-17,
-10,
-11,
-19,
-27,
-25,
-19,
-15,
-21,
-32,
-32,
-26,
-20,
-24,
-33,
-38,
-33,
-25,
-22,
-30,
-39,
-39,
-29,
-21,
-25,
-34,
-39,
-31,
-23,
-20,
-23,
-31,
-32,
-25,
-17,
-16,
-21,
-28,
-23,
-15,
-11,
-11,
-16,
-19,
-13,
-4,
-2,
-8,
-14,
-9,
0,
9,
4,
-4,
-5,
2,
12,
15,
9,
1,
4,
13,
20,
15,
9,
11,
16,
22,
19,
16,
15,
17,
20,
20,
20,
18,
19,
23,
18,
18,
19,
19,
20,
17,
14,
18,
19,
17,
12,
12,
13,
15,
14,
5,
3,
5,
8,
11,
4,
-3,
-4,
0,
0,
-2,
-6,
-8,
-10,
-10,
-9,
-10,
-12,
-17,
-19,
-20,
-17,
-18,
-21,
-25,
-28,
-22,
-21,
-25,
-29,
-35,
-27,
-25,
-23,
-31,
-39,
-35,
-26,
-22,
-27,
-39,
-38,
-28,
-21,
-25,
-32,
-35,
-31,
-24,
-19,
-25,
-30,
-27,
-19,
-17,
-18,
-22,
-20,
-15,
-13,
-12,
-14,
-14,
-11,
-7,
-4,
-6,
-6,
-5,
-3,
1,
3,
4,
5,
4,
3,
7,
10,
11,
10,
10,
12,
14,
16,
18,
17,
17,
16,
19,
17,
21,
21,
19,
17,
16,
19,
24,
22,
18,
14,
17,
21,
21,
17,
13,
12,
15,
19,
16,
8,
3,
6,
15,
15,
5,
-3,
-4,
4,
9,
3,
-8,
-12,
-8,
1,
3,
-9,
-20,
-19,
-13,
-5,
-12,
-21,
-27,
-23,
-15,
-16,
-24,
-32,
-29,
-23,
-19,
-23,
-32,
-36,
-32,
-24,
-21,
-30,
-37,
-37,
-29,
-23,
-24,
-31,
-36,
-35,
-28,
-19,
-25,
-32,
-33,
-28,
-19,
-18,
-24,
-28,
-23,
-18,
-12,
-15,
-21,
-20,
-11,
-6,
-8,
-12,
-12,
-7,
-1,
-1,
-2,
-3,
2,
3,
6,
6,
5,
8,
9,
10,
10,
11,
17,
17,
13,
11,
13,
19,
23,
22,
14,
13,
20,
24,
25,
18,
14,
17,
23,
24,
17,
13,
16,
20,
20,
17,
13,
11,
13,
16,
15,
12,
7,
4,
7,
10,
8,
4,
-1,
-4,
-2,
2,
1,
-4,
-13,
-14,
-6,
-3,
-8,
-18,
-24,
-15,
-9,
-13,
-21,
-28,
-25,
-17,
-18,
-27,
-34,
-32,
-26,
-20,
-27,
-34,
-33,
-29,
-25,
-28,
-32,
-32,
-31,
-30,
-30,
-29,
-30,
-29,
-28,
-28,
-28,
-26,
-24,
-24,
-25,
-26,
-24,
-19,
-16,
-18,
-19,
-17,
-13,
-11,
-10,
-9,
-10,
-8,
-4,
-2,
-2,
-4,
-3,
1,
4,
6,
6,
4,
4,
8,
15,
15,
9,
5,
11,
19,
23,
19,
12,
9,
18,
28,
26,
17,
10,
13,
25,
29,
21,
11,
12,
20,
28,
24,
13,
8,
12,
22,
23,
13,
4,
3,
13,
19,
13,
3,
-2,
0,
8,
10,
4,
-7,
-9,
-5,
0,
1,
-7,
-16,
-16,
-11,
-7,
-11,
-16,
-24,
-20,
-14,
-15,
-19,
-29,
-27,
-23,
-19,
-24,
-32,
-35,
-30,
-23,
-24,
-31,
-35,
-34,
-29,
-26,
-28,
-31,
-35,
-32,
-26,
-27,
-28,
-29,
-28,
-25,
-26,
-26,
-24,
-21,
-19,
-21,
-20,
-21,
-15,
-11,
-13,
-16,
-16,
-10,
-5,
-7,
-9,
-8,
-3,
3,
2,
-1,
-2,
2,
8,
12,
8,
2,
5,
13,
17,
15,
10,
11,
13,
19,
23,
17,
15,
14,
18,
23,
24,
20,
16,
16,
21,
23,
23,
20,
15,
16,
19,
23,
17,
11,
10,
15,
19,
16,
8,
3,
6,
13,
13,
7,
-3,
-4,
2,
6,
3,
-7,
-11,
-8,
-5,
-7,
-13,
-15,
-14,
-14,
-14,
-19,
-20,
-20,
-19,
-20,
-27,
-24,
-24,
-23,
-24,
-29,
-31,
-28,
-27,
-29,
-34,
-33,
-28,
-27,
-29,
-33,
-32,
-30,
-26,
-26,
-30,
-31,
-32,
-26,
-21,
-23,
-28,
-29,
-27,
-20,
-16,
-16,
-20,
-22,
-19,
-11,
-7,
-10,
-15,
-14,
-8,
1,
0,
-7,
-11,
-3,
7,
13,
6,
-6,
-2,
10,
21,
14,
3,
2,
10,
25,
24,
14,
5,
10,
21,
27,
22,
12,
10,
19,
28,
26,
17,
13,
15,
22,
25,
21,
15,
13,
16,
20,
21,
15,
10,
9,
12,
16,
12,
7,
3,
2,
6,
9,
5,
-3,
-6,
-3,
0,
0,
-6,
-10,
-11,
-9,
-9,
-13,
-16,
-17,
-16,
-16,
-19,
-22,
-23,
-17,
-20,
-25,
-27,
-27,
-24,
-24,
-28,
-32,
-31,
-27,
-29,
-31,
-33,
-32,
-26,
-27,
-29,
-34,
-35,
-28,
-23,
-23,
-30,
-33,
-28,
-20,
-19,
-24,
-28,
-25,
-20,
-12,
-13,
-18,
-21,
-16,
-8,
-6,
-9,
-10,
-10,
-3,
0,
0,
-1,
-3,
-1,
5,
9,
7,
2,
4,
8,
15,
18,
14,
9,
9,
15,
23,
21,
15,
11,
15,
21,
23,
20,
16,
15,
21,
23,
24,
18,
16,
18,
20,
21,
16,
13,
14,
16,
17,
14,
12,
10,
10,
9,
7,
6,
7,
3,
2,
-2,
-1,
1,
0,
-3,
-11,
-11,
-6,
-4,
-9,
-17,
-21,
-15,
-11,
-13,
-20,
-27,
-26,
-19,
-15,
-22,
-27,
-32,
-28,
-23,
-23,
-30,
-35,
-31,
-26,
-25,
-28,
-32,
-35,
-34,
-28,
-20,
-26,
-34,
-37,
-29,
-19,
-19,
-26,
-35,
-30,
-21,
-13,
-14,
-27,
-29,
-18,
-9,
-7,
-17,
-24,
-15,
-2,
1,
-5,
-12,
-11,
-1,
8,
6,
-3,
-7,
3,
12,
12,
8,
4,
5,
13,
16,
17,
14,
11,
14,
18,
21,
19,
18,
17,
19,
21,
20,
20,
18,
17,
19,
22,
21,
18,
16,
17,
20,
19,
15,
12,
12,
14,
15,
12,
8,
7,
8,
10,
5,
1,
2,
3,
3,
-4,
-7,
-4,
-1,
-3,
-11,
-15,
-14,
-9,
-7,
-13,
-22,
-24,
-19,
-11,
-17,
-25,
-32,
-28,
-19,
-21,
-28,
-35,
-32,
-25,
-25,
-29,
-34,
-36,
-32,
-25,
-24,
-32,
-36,
-35,
-29,
-22,
-24,
-30,
-33,
-29,
-24,
-20,
-20,
-25,
-27,
-24,
-15,
-14,
-18,
-21,
-18,
-13,
-8,
-8,
-11,
-12,
-8,
-1,
1,
-3,
-6,
-3,
5,
7,
5,
3,
3,
8,
13,
14,
13,
9,
10,
14,
18,
18,
17,
19,
17,
17,
19,
19,
22,
20,
17,
17,
18,
23,
22,
19,
15,
14,
20,
21,
20,
12,
10,
17,
17,
16,
9,
3,
9,
13,
13,
6,
-3,
-3,
2,
8,
4,
-7,
-12,
-9,
-3,
-2,
-9,
-16,
-18,
-14,
-12,
-11,
-17,
-26,
-24,
-20,
-17,
-19,
-28,
-30,
-28,
-21,
-21,
-29,
-34,
-36,
-28,
-24,
-25,
-35,
-40,
-34,
-24,
-22,
-30,
-38,
-36,
-27,
-20,
-24,
-31,
-32,
-28,
-20,
-17,
-24,
-26,
-24,
-15,
-13,
-18,
-19,
-15,
-9,
-9,
-9,
-9,
-10,
-5,
-1,
-2,
-2,
-2,
1,
3,
5,
5,
5,
9,
7,
8,
11,
13,
16,
13,
13,
16,
15,
18,
19,
19,
18,
17,
18,
17,
21,
23,
21,
17,
13,
18,
24,
23,
16,
10,
13,
18,
23,
16,
7,
7,
12,
18,
15,
2,
0,
3,
13,
11,
-2,
-9,
-6,
4,
5,
-3,
-13,
-15,
-9,
-5,
-7,
-15,
-22,
-20,
-14,
-13,
-19,
-25,
-27,
-23,
-20,
-22,
-28,
-29,
-30,
-27,
-24,
-26,
-30,
-35,
-33,
-28,
-25,
-29,
-35,
-35,
-30,
-25,
-25,
-30,
-33,
-32,
-26,
-19,
-22,
-27,
-29,
-24,
-19,
-18,
-19,
-19,
-18,
-15,
-13,
-12,
-11,
-9,
-6,
-8,
-8,
-5,
-1,
0,
-1,
-1,
4,
7,
7,
4,
3,
8,
14,
15,
13,
8,
10,
17,
23,
21,
13,
11,
16,
24,
26,
21,
13,
13,
21,
26,
24,
17,
13,
16,
23,
24,
18,
11,
12,
16,
20,
18,
10,
5,
7,
14,
16,
8,
0,
-3,
3,
9,
5,
-3,
-11,
-9,
-2,
0,
-4,
-14,
-17,
-14,
-8,
-8,
-18,
-24,
-21,
-16,
-15,
-22,
-28,
-28,
-23,
-21,
-24,
-30,
-32,
-30,
-25,
-26,
-29,
-36,
-34,
-28,
-26,
-28,
-32,
-32,
-28,
-28,
-29,
-29,
-27,
-25,
-25,
-27,
-28,
-24,
-20,
-16,
-21,
-23,
-20,
-15,
-10,
-13,
-16,
-14,
-11,
-6,
-4,
-5,
-7,
-5,
-1,
3,
2,
0,
2,
5,
7,
10,
11,
6,
7,
11,
18,
20,
12,
9,
12,
20,
28,
24,
12,
11,
18,
28,
29,
18,
10,
14,
24,
29,
20,
9,
11,
18,
26,
22,
12,
5,
11,
19,
20,
12,
1,
2,
12,
14,
8,
0,
-4,
-1,
2,
2,
-3,
-7,
-11,
-9,
-6,
-7,
-10,
-17,
-18,
-18,
-13,
-14,
-20,
-21,
-25,
-21,
-21,
-24,
-29,
-32,
-27,
-25,
-23,
-30,
-34,
-31,
-27,
-26,
-29,
-33,
-32,
-31,
-28,
-28,
-29,
-31,
-31,
-29,
-29,
-26,
-22,
-24,
-25,
-28,
-25,
-15,
-15,
-19,
-23,
-19,
-12,
-8,
-10,
-13,
-15,
-8,
0,
0,
-6,
-8,
-3,
5,
7,
5,
0,
2,
9,
15,
14,
8,
5,
9,
18,
20,
17,
12,
11,
16,
21,
25,
21,
15,
13,
18,
25,
25,
19,
14,
16,
23,
22,
18,
14,
11,
17,
19,
18,
11,
5,
9,
16,
16,
9,
1,
0,
6,
10,
5,
-2,
-5,
-3,
-1,
-2,
-7,
-10,
-11,
-9,
-11,
-14,
-16,
-16,
-13,
-18,
-21,
-25,
-23,
-20,
-21,
-25,
-30,
-28,
-24,
-25,
-28,
-31,
-32,
-28,
-26,
-29,
-34,
-33,
-29,
-26,
-28,
-33,
-33,
-30,
-26,
-24,
-25,
-31,
-32,
-25,
-18,
-18,
-22,
-28,
-24,
-17,
-13,
-12,
-16,
-19,
-15,
-7,
-2,
-6,
-14,
-10,
-3,
5,
4,
-3,
-5,
1,
11,
16,
8,
0,
2,
14,
22,
17,
8,
5,
12,
25,
25,
16,
8,
11,
21,
29,
23,
15,
12,
19,
24,
23,
18,
16,
19,
20,
19,
19,
16,
13,
14,
14,
15,
13,
9,
7,
7,
10,
9,
7,
0,
-2,
0,
3,
4,
-3,
-8,
-8,
-7,
-6,
-8,
-13,
-15,
-15,
-15,
-16,
-16,
-20,
-22,
-21,
-24,
-24,
-24,
-24,
-26,
-30,
-30,
-27,
-24,
-29,
-34,
-33,
-28,
-23,
-28,
-35,
-34,
-28,
-23,
-25,
-32,
-38,
-32,
-21,
-17,
-25,
-33,
-32,
-23,
-15,
-16,
-24,
-25,
-18,
-12,
-10,
-12,
-17,
-15,
-8,
-4,
-4,
-7,
-5,
-3,
1,
3,
4,
1,
1,
3,
9,
14,
10,
6,
7,
13,
19,
19,
15,
11,
13,
18,
24,
19,
15,
14,
20,
24,
21,
18,
16,
20,
22,
19,
17,
16,
19,
19,
17,
12,
13,
15,
17,
13,
7,
7,
11,
11,
7,
1,
1,
5,
5,
1,
-5,
-8,
-4,
0,
-1,
-9,
-17,
-17,
-11,
-8,
-12,
-20,
-25,
-20,
-17,
-16,
-24,
-28,
-29,
-24,
-19,
-24,
-31,
-35,
-32,
-27,
-22,
-29,
-36,
-36,
-29,
-24,
-24,
-32,
-39,
-35,
-26,
-18,
-25,
-36,
-35,
-28,
-17,
-18,
-27,
-31,
-27,
-16,
-9,
-12,
-22,
-24,
-14,
-5,
-6,
-11,
-16,
-11,
-1,
2,
0,
-7,
-6,
2,
9,
10,
2,
0,
5,
13,
16,
13,
10,
9,
12,
17,
20,
16,
16,
16,
17,
20,
21,
20,
18,
20,
19,
20,
23,
20,
18,
16,
17,
20,
19,
15,
15,
13,
14,
15,
13,
10,
8,
7,
7,
8,
6,
3,
1,
-1,
-1,
0,
0,
-5,
-11,
-11,
-7,
-4,
-11,
-18,
-20,
-16,
-11,
-13,
-20,
-27,
-27,
-19,
-13,
-20,
-31,
-32,
-27,
-19,
-23,
-34,
-37,
-31,
-23,
-25,
-32,
-36,
-34,
-28,
-25,
-27,
-32,
-34,
-28,
-24,
-25,
-27,
-28,
-27,
-25,
-22,
-20,
-19,
-22,
-21,
-20,
-14,
-12,
-14,
-14,
-14,
-9,
-6,
-6,
-6,
-7,
-2,
1,
1,
-1,
-1,
4,
8,
7,
6,
7,
11,
13,
13,
13,
14,
18,
18,
16,
14,
15,
21,
23,
20,
13,
13,
21,
27,
25,
15,
13,
18,
26,
26,
16,
9,
13,
19,
24,
16,
6,
4,
12,
19,
13,
3,
-1,
3,
10,
9,
3,
-5,
-8,
-3,
4,
0,
-9,
-16,
-15,
-9,
-6,
-9,
-19,
-25,
-21,
-15,
-13,
-18,
-29,
-29,
-24,
-17,
-21,
-30,
-35,
-30,
-21,
-21,
-31,
-37,
-36,
-27,
-21,
-26,
-36,
-40,
-32,
-23,
-22,
-30,
-35,
-33,
-25,
-20,
-24,
-27,
-28,
-24,
-19,
-16,
-19,
-19,
-19,
-15,
-12,
-13,
-13,
-11,
-8,
-7,
-4,
-3,
-3,
-3,
0,
4,
3,
3,
5,
5,
8,
8,
12,
14,
13,
11,
12,
16,
18,
18,
18,
16,
15,
18,
21,
22,
19,
17,
18,
19,
22,
23,
19,
15,
15,
19,
22,
20,
12,
9,
16,
18,
16,
9,
4,
6,
12,
14,
6,
-1,
-3,
2,
9,
3,
-6,
-13,
-9,
-1,
-2,
-10,
-16,
-17,
-12,
-10,
-13,
-20,
-24,
-21,
-18,
-19,
-23,
-26,
-28,
-24,
-24,
-28,
-29,
-30,
-29,
-28,
-30,
-28,
-31,
-32,
-32,
-29,
-28,
-28,
-31,
-32,
-30,
-26,
-24,
-24,
-29,
-29,
-26,
-20,
-19,
-22,
-20,
-20,
-19,
-17,
-16,
-12,
-11,
-13,
-13,
-9,
-4,
-1,
-4,
-6,
-6,
1,
8,
5,
1,
-2,
5,
16,
13,
6,
1,
9,
20,
22,
16,
7,
10,
20,
28,
27,
13,
9,
17,
26,
29,
19,
11,
12,
21,
27,
22,
16,
10,
15,
21,
22,
15,
10,
11,
13,
16,
15,
8,
1,
3,
9,
13,
8,
-4,
-10,
-4,
5,
4,
-5,
-15,
-15,
-6,
-3,
-8,
-18,
-23,
-18,
-12,
-12,
-23,
-28,
-24,
-19,
-19,
-25,
-32,
-28,
-24,
-24,
-28,
-32,
-31,
-29,
-28,
-31,
-33,
-33,
-30,
-30,
-30,
-30,
-29,
-27,
-27,
-28,
-30,
-26,
-21,
-23,
-25,
-27,
-23,
-20,
-16,
-15,
-18,
-18,
-16,
-12,
-8,
-9,
-9,
-10,
-7,
-3,
-1,
0,
-3,
-2,
4,
7,
9,
3,
3,
7,
13,
16,
12,
7,
10,
16,
23,
21,
13,
10,
16,
24,
26,
19,
12,
12,
22,
26,
24,
16,
12,
16,
22,
25,
16,
13,
12,
16,
20,
15,
11,
9,
10,
13,
11,
7,
2,
1,
4,
4,
2,
-3,
-4,
-4,
-5,
-5,
-7,
-7,
-12,
-15,
-14,
-13,
-13,
-18,
-21,
-23,
-22,
-20,
-24,
-24,
-27,
-28,
-25,
-27,
-25,
-31,
-33,
-29,
-28,
-28,
-31,
-33,
-31,
-32,
-28,
-28,
-29,
-32,
-32,
-28,
-23,
-23,
-27,
-29,
-28,
-22,
-16,
-17,
-26,
-28,
-19,
-10,
-7,
-15,
-24,
-19,
-7,
0,
-2,
-12,
-16,
-6,
6,
8,
-2,
-8,
0,
10,
15,
9,
1,
3,
12,
18,
18,
11,
6,
10,
20,
24,
19,
15,
13,
17,
25,
25,
21,
15,
14,
18,
24,
24,
18,
14,
13,
20,
21,
18,
12,
9,
13,
18,
16,
8,
3,
6,
12,
12,
3,
-4,
-3,
3,
3,
-1,
