6-anwendungen-opAmps/daten/ALL0018/A0018CH1.CSV

Memory Length,4000,
Trigger Level,4.00000e+00,
Source,CH1,
Probe,1.0X,
Vertical Units,V,
Vertical Scale,1.00000e-01,
Vertical Position,0.00000e+00,
Horizontal Units,S,
Horizontal Scale,1.00000e-04,
Horizontal Position,1.1200000e-04,
Horizontal Mode,Main,
Sampling Period,4.00000e-07,
Firmware,V1.14,
Time, ,
Mode,Fast,
Waveform Data,
34,
34,
34,
35,
35,
37,
37,
37,
37,
38,
38,
38,
38,
40,
40,
39,
39,
40,
40,
40,
40,
40,
40,
41,
41,
40,
40,
39,
39,
39,
39,
36,
36,
35,
35,
27,
27,
18,
1,
2,
-15,
-15,
-27,
-26,
-26,
-36,
-36,
-40,
-40,
-44,
-44,
-45,
-45,
-45,
-45,
-48,
-48,
-48,
-48,
-48,
-48,
-46,
-46,
-47,
-47,
-47,
-47,
-48,
-48,
-48,
-48,
-45,
-45,
-46,
-46,
-45,
-45,
-44,
-44,
-44,
-44,
-43,
-43,
-43,
-43,
-42,
-42,
-40,
-40,
-39,
-39,
-39,
-39,
-35,
-35,
-35,
-35,
-33,
-33,
-28,
-28,
-26,
-26,
-21,
-21,
-16,
-16,
-12,
-12,
-9,
-9,
-2,
-2,
1,
1,
7,
7,
11,
11,
17,
17,
21,
21,
23,
23,
26,
26,
29,
29,
29,
29,
32,
32,
32,
32,
34,
34,
36,
36,
35,
35,
36,
36,
39,
39,
38,
38,
37,
37,
41,
41,
40,
40,
41,
41,
41,
41,
40,
40,
41,
41,
40,
40,
38,
38,
34,
34,
31,
31,
25,
14,
14,
1,
3,
-14,
-14,
-27,
-25,
-36,
-36,
-36,
-39,
-39,
-44,
-44,
-45,
-45,
-45,
-45,
-47,
-47,
-47,
-47,
-48,
-48,
-48,
-48,
-48,
-48,
-48,
-48,
-46,
-46,
-47,
-47,
-44,
-44,
-45,
-45,
-45,
-45,
-44,
-44,
-44,
-44,
-44,
-44,
-41,
-41,
-41,
-41,
-40,
-40,
-38,
-38,
-37,
-37,
-37,
-37,
-34,
-34,
-33,
-33,
-30,
-30,
-25,
-25,
-20,
-20,
-16,
-16,
-13,
-13,
-6,
-6,
-1,
-1,
3,
3,
5,
5,
11,
11,
16,
16,
20,
20,
25,
25,
26,
26,
28,
28,
30,
30,
32,
32,
32,
32,
33,
33,
35,
35,
36,
36,
38,
38,
38,
38,
38,
38,
40,
40,
40,
40,
40,
40,
40,
40,
41,
41,
41,
41,
40,
40,
39,
39,
38,
38,
35,
35,
33,
33,
25,
12,
15,
-2,
0,
-15,
-14,
-28,
-27,
-27,
-35,
-35,
-40,
-40,
-46,
-46,
-45,
-45,
-46,
-46,
-46,
-46,
-47,
-47,
-48,
-48,
-48,
-48,
-48,
-48,
-46,
-46,
-46,
-46,
-47,
-47,
-46,
-46,
-44,
-44,
-45,
-45,
-44,
-44,
-43,
-43,
-41,
-41,
-44,
-44,
-42,
-42,
-42,
-42,
-38,
-38,
-37,
-37,
-35,
-35,
-35,
-35,
-32,
-32,
-28,
-28,
-26,
-26,
-19,
-19,
-17,
-17,
-11,
-11,
-7,
-7,
-1,
-1,
3,
3,
7,
7,
14,
14,
17,
17,
20,
20,
26,
26,
26,
26,
27,
27,
30,
30,
32,
32,
32,
32,
35,
35,
37,
37,
35,
35,
36,
36,
38,
38,
39,
39,
39,
39,
39,
39,
39,
39,
39,
39,
40,
40,
42,
42,
38,
38,
40,
40,
39,
39,
36,
36,
32,
32,
26,
14,
14,
-2,
-1,
-20,
-20,
-32,
-32,
-32,
-38,
-38,
-40,
-40,
-45,
-45,
-46,
-46,
-47,
-47,
-47,
-47,
-47,
-47,
-47,
-47,
-48,
-48,
-48,
-48,
-47,
-47,
-47,
-47,
-46,
-46,
-46,
-46,
-45,
-45,
-44,
-44,
-45,
-45,
-45,
-45,
-42,
-42,
-42,
-42,
-40,
-40,
-41,
-41,
-38,
-38,
-36,
-36,
-35,
-35,
-34,
-34,
-33,
-33,
-31,
-31,
-24,
-24,
-19,
-19,
-17,
-17,
-11,
-11,
-8,
-8,
-1,
-1,
4,
4,
8,
8,
11,
11,
19,
19,
21,
21,
24,
24,
29,
29,
28,
28,
32,
32,
32,
32,
33,
33,
35,
35,
36,
36,
36,
36,
37,
37,
39,
39,
39,
39,
39,
39,
38,
38,
40,
40,
41,
41,
41,
41,
41,
41,
41,
41,
39,
39,
38,
38,
34,
34,
31,
31,
25,
13,
13,
-2,
-2,
-22,
-18,
-31,
-29,
-29,
-37,
-37,
-40,
-40,
-45,
-45,
-45,
-45,
-45,
-45,
-48,
-48,
-46,
-46,
-48,
-48,
-47,
-47,
-50,
-50,
-48,
-48,
-49,
-49,
-48,
-48,
-46,
-46,
-44,
-44,
-44,
-44,
-45,
-45,
-44,
-44,
-42,
-42,
-41,
-41,
-41,
-41,
-40,
-40,
-39,
-39,
-36,
-36,
-35,
-35,
-35,
-35,
-30,
-30,
-29,
-29,
-25,
-25,
-19,
-19,
-16,
-16,
-12,
-12,
-5,
-5,
1,
1,
3,
3,
8,
8,
13,
13,
18,
18,
23,
23,
23,
23,
28,
28,
29,
29,
31,
31,
31,
31,
34,
34,
35,
35,
36,
36,
36,
36,
38,
38,
39,
39,
38,
38,
38,
38,
39,
39,
40,
40,
41,
41,
44,
44,
40,
40,
40,
40,
40,
40,
38,
38,
33,
33,
33,
33,
24,
11,
12,
-7,
-5,
-19,
-17,
-33,
-32,
-32,
-37,
-37,
-42,
-42,
-44,
-44,
-47,
-47,
-47,
-47,
-47,
-47,
-48,
-48,
-50,
-50,
-47,
-47,
-46,
-46,
-47,
-47,
-46,
-46,
-46,
-46,
-45,
-45,
-46,
-46,
-45,
-45,
-43,
-43,
-45,
-45,
-43,
-43,
-41,
-41,
-39,
-39,
-40,
-40,
-39,
-39,
-37,
-37,
-35,
-35,
-33,
-33,
-32,
-32,
-28,
-28,
-22,
-22,
-19,
-19,
-16,
-16,
-11,
-11,
-3,
-3,
0,
0,
5,
5,
10,
10,
12,
12,
18,
18,
21,
21,
25,
25,
27,
27,
29,
29,
31,
31,
32,
32,
35,
35,
35,
35,
35,
35,
36,
36,
40,
40,
39,
39,
39,
39,
40,
40,
40,
40,
40,
40,
40,
40,
43,
43,
41,
41,
40,
40,
39,
39,
38,
38,
34,
34,
29,
29,
24,
8,
9,
-7,
-7,
-24,
-24,
-35,
-33,
-33,
-39,
-39,
-42,
-42,
-45,
-45,
-46,
-46,
-47,
-47,
-45,
-45,
-47,
-47,
-47,
-47,
-47,
-47,
-47,
-47,
-48,
-48,
-46,
-46,
-46,
-46,
-46,
-46,
-44,
-44,
-45,
-45,
-44,
-44,
-43,
-43,
-44,
-44,
-41,
-41,
-40,
-40,
-41,
-41,
-38,
-38,
-35,
-35,
-35,
-35,
-34,
-34,
-32,
-32,
-26,
-26,
-24,
-24,
-18,
-18,
-14,
-14,
-11,
-11,
-5,
-5,
-1,
-1,
6,
6,
11,
11,
14,
14,
17,
17,
23,
23,
25,
25,
27,
27,
28,
28,
31,
31,
32,
32,
33,
33,
34,
34,
37,
37,
37,
37,
36,
36,
38,
38,
38,
38,
40,
40,
39,
39,
40,
40,
41,
41,
41,
41,
41,
41,
41,
41,
40,
40,
36,
36,
32,
32,
29,
29,
21,
7,
8,
-9,
-6,
-23,
-21,
-35,
-34,
-34,
-38,
-38,
-43,
-43,
-46,
-46,
-45,
-45,
-47,
-47,
-45,
-45,
-47,
-47,
-48,
-48,
-48,
-48,
-47,
-47,
-45,
-45,
-45,
-45,
-46,
-46,
-46,
-46,
-44,
-44,
-45,
-45,
-44,
-44,
-44,
-44,
-41,
-41,
-42,
-42,
-41,
-41,
-40,
-40,
-38,
-38,
-35,
-35,
-35,
-35,
-33,
-33,
-32,
-32,
-28,
-28,
-24,
-24,
-18,
-18,
-13,
-13,
-10,
-10,
-4,
-4,
1,
1,
7,
7,
10,
10,
13,
13,
19,
19,
21,
21,
26,
26,
29,
29,
29,
29,
31,
31,
31,
31,
34,
34,
35,
35,
36,
36,
35,
35,
37,
37,
38,
38,
39,
39,
39,
39,
39,
39,
39,
39,
41,
41,
39,
39,
41,
41,
40,
40,
38,
38,
37,
37,
33,
33,
29,
29,
22,
7,
8,
-13,
-13,
-27,
-24,
-24,
-34,
-34,
-39,
-39,
-40,
-40,
-45,
-45,
-47,
-47,
-46,
-46,
-47,
-47,
-48,
-48,
-49,
-49,
-48,
-48,
-48,
-48,
-48,
-48,
-46,
-46,
-45,
-45,
-45,
-45,
-43,
-43,
-45,
-45,
-44,
-44,
-41,
-41,
-43,
-43,
-41,
-41,
-41,
-41,
-40,
-40,
-37,
-37,
-36,
-36,
-33,
-33,
-32,
-32,
-30,
-30,
-27,
-27,
-23,
-23,
-17,
-17,
-13,
-13,
-10,
-10,
-3,
-3,
2,
2,
7,
7,
13,
13,
16,
16,
21,
21,
22,
22,
26,
26,
28,
28,
31,
31,
30,
30,
30,
30,
35,
35,
35,
35,
37,
37,
35,
35,
37,
37,
38,
38,
38,
38,
41,
41,
41,
41,
39,
39,
41,
41,
42,
42,
41,
41,
41,
41,
40,
40,
35,
35,
32,
32,
28,
28,
19,
4,
5,
-12,
-12,
-27,
-25,
-37,
-36,
-36,
-41,
-41,
-43,
-43,
-46,
-46,
-46,
-46,
-47,
-47,
-47,
-47,
-50,
-50,
-47,
-47,
-47,
-47,
-47,
-47,
-45,
-45,
-48,
-48,
-46,
-46,
-46,
-46,
-46,
-46,
-44,
-44,
-44,
-44,
-44,
-44,
-42,
-42,
-41,
-41,
-41,
-41,
-38,
-38,
-38,
-38,
-36,
-36,
-33,
-33,
-32,
-32,
-30,
-30,
-25,
-25,
-22,
-22,
-17,
-17,
-13,
-13,
-7,
-7,
-2,
-2,
3,
3,
5,
5,
13,
13,
15,
15,
20,
20,
24,
24,
27,
27,
29,
29,
30,
30,
31,
31,
34,
34,
36,
36,
36,
36,
35,
35,
37,
37,
37,
37,
37,
37,
39,
39,
39,
39,
39,
39,
38,
38,
41,
41,
40,
40,
41,
41,
41,
41,
37,
37,
35,
35,
31,
31,
26,
14,
15,
-1,
0,
-13,
-12,
-27,
-28,
-28,
-37,
-37,
-40,
-40,
-42,
-42,
-45,
-45,
-48,
-48,
-47,
-47,
-48,
-48,
-49,
-49,
-48,
-48,
-47,
-47,
-46,
-46,
-48,
-48,
-46,
-46,
-48,
-48,
-46,
-46,
-46,
-46,
-45,
-45,
-46,
-46,
-44,
-44,
-41,
-41,
-41,
-41,
-40,
-40,
-37,
-37,
-39,
-39,
-37,
-37,
-35,
-35,
-32,
-32,
-29,
-29,
-24,
-24,
-21,
-21,
-19,
-19,
-10,
-10,
-9,
-9,
-3,
-3,
1,
1,
6,
6,
12,
12,
18,
18,
20,
20,
23,
23,
25,
25,
30,
30,
29,
29,
32,
32,
31,
31,
34,
34,
35,
35,
36,
36,
36,
36,
38,
38,
37,
37,
37,
37,
40,
40,
40,
40,
38,
38,
40,
40,
41,
41,
40,
40,
39,
39,
37,
37,
35,
35,
32,
32,
24,
24,
17,
2,
3,
-15,
-16,
-31,
-31,
-31,
-37,
-37,
-41,
-41,
-43,
-43,
-46,
-46,
-48,
-48,
-46,
-46,
-48,
-48,
-47,
-47,
-47,
-47,
-47,
-47,
-48,
-48,
-48,
-48,
-47,
-47,
-46,
-46,
-47,
-47,
-47,
-47,
-45,
-45,
-44,
-44,
-44,
-44,
-43,
-43,
-42,
-42,
-40,
-40,
-39,
-39,
-37,
-37,
-36,
-36,
-33,
-33,
-32,
-32,
-28,
-28,
-26,
-26,
-22,
-22,
-16,
-16,
-11,
-11,
-5,
-5,
-3,
-3,
4,
4,
8,
8,
14,
14,
15,
15,
22,
22,
24,
24,
27,
27,
27,
27,
29,
29,
31,
31,
34,
34,
34,
34,
34,
34,
36,
36,
37,
37,
36,
36,
38,
38,
40,
40,
39,
39,
41,
41,
41,
41,
40,
40,
42,
42,
40,
40,
40,
40,
36,
36,
34,
34,
30,
30,
26,
12,
13,
0,
-2,
-19,
-18,
-33,
-32,
-32,
-38,
-38,
-42,
-42,
-45,
-45,
-45,
-45,
-47,
-47,
-47,
-47,
-48,
-48,
-48,
-48,
-48,
-48,
-48,
-48,
-47,
-47,
-46,
-46,
-48,
-48,
-47,
-47,
-45,
-45,
-43,
-43,
-43,
-43,
-43,
-43,
-42,
-42,
-42,
-42,
-40,
-40,
-41,
-41,
-38,
-38,
-38,
-38,
-36,
-36,
-33,
-33,
-31,
-31,
-28,
-28,
-27,
-27,
-19,
-19,
-15,
-15,
-10,
-10,
-5,
-5,
-1,
-1,
4,
4,
9,
9,
15,
15,
19,
19,
20,
20,
24,
24,
27,
27,
28,
28,
29,
29,
31,
31,
34,
34,
35,
35,
37,
37,
38,
38,
38,
38,
39,
39,
38,
38,
39,
39,
41,
41,
41,
41,
40,
40,
42,
42,
40,
40,
41,
41,
41,
41,
37,
37,
34,
34,
30,
30,
22,
8,
8,
-4,
-4,
-21,
-22,
-34,
-32,
-32,
-38,
-38,
-41,
-41,
-45,
-45,
-47,
-47,
-46,
-46,
-46,
-46,
-48,
-48,
-47,
-47,
-47,
-47,
-47,
-47,
-48,
-48,
-47,
-47,
-45,
-45,
-45,
-45,
-44,
-44,
-46,
-46,
-44,
-44,
-44,
-44,
-42,
-42,
-42,
-42,
-40,
-40,
-41,
-41,
-39,
-39,
-37,
-37,
-36,
-36,
-32,
-32,
-30,
-30,
-27,
-27,
-24,
-24,
-19,
-19,
-16,
-16,
-12,
-12,
-5,
-5,
0,
0,
4,
4,
12,
12,
16,
16,
17,
17,
21,
21,
24,
24,
26,
26,
28,
28,
31,
31,
32,
32,
31,
31,
36,
36,
36,
36,
37,
37,
37,
37,
38,
38,
39,
39,
39,
39,
38,
38,
40,
40,
41,
41,
41,
41,
41,
41,
39,
39,
38,
38,
38,
38,
34,
34,
29,
29,
22,
9,
10,
-4,
-4,
-22,
-19,
-35,
-33,
-33,
-38,
-38,
-42,
-42,
-44,
-44,
-46,
-46,
-49,
-49,
-47,
-47,
-49,
-49,
-49,
-49,
-48,
-48,
-47,
-47,
-47,
-47,
-46,
-46,
-47,
-47,
-45,
-45,
-45,
-45,
-46,
-46,
-45,
-45,
-42,
-42,
-41,
-41,
-41,
-41,
-40,
-40,
-38,
-38,
-40,
-40,
-37,
-37,
-35,
-35,
-33,
-33,
-31,
-31,
-27,
-27,
-24,
-24,
-20,
-20,
-13,
-13,
-10,
-10,
-3,
-3,
0,
0,
5,
5,
10,
10,
15,
15,
19,
19,
22,
22,
26,
26,
29,
29,
29,
29,
32,
32,
32,
32,
34,
34,
33,
33,
36,
36,
36,
36,
37,
37,
39,
39,
37,
37,
38,
38,
40,
40,
40,
40,
40,
40,
41,
41,
41,
41,
40,
40,
37,
37,
36,
36,
34,
34,
28,
28,
20,
8,
8,
-6,
-6,
-24,
-24,
-36,
-34,
-34,
-40,
-40,
-42,
-42,
-45,
-45,
-46,
-46,
-47,
-47,
-45,
-45,
-48,
-48,
-47,
-47,
-48,
-48,
-48,
-48,
-45,
-45,
-46,
-46,
-47,
-47,
-47,
-47,
-44,
-44,
-45,
-45,
-45,
-45,
-42,
-42,
-43,
-43,
-41,
-41,
-40,
-40,
-38,
-38,
-37,
-37,
-36,
-36,
-35,
-35,
-33,
-33,
-29,
-29,
-27,
-27,
-24,
-24,
-17,
-17,
-14,
-14,
-9,
-9,
-3,
-3,
1,
1,
6,
6,
10,
10,
15,
15,
20,
20,
21,
21,
26,
26,
28,
28,
29,
29,
31,
31,
32,
32,
35,
35,
34,
34,
35,
35,
38,
38,
37,
37,
38,
38,
39,
39,
41,
41,
39,
39,
40,
40,
40,
40,
42,
42,
39,
39,
40,
40,
38,
38,
35,
35,
32,
32,
28,
17,
19,
1,
1,
-13,
-12,
-29,
-27,
-27,
-35,
-35,
-40,
-40,
-44,
-44,
-43,
-43,
-46,
-46,
-47,
-47,
-48,
-48,
-48,
-48,
-46,
-46,
-48,
-48,
-48,
-48,
-46,
-46,
-45,
-45,
-48,
-48,
-45,
-45,
-47,
-47,
-45,
-45,
-43,
-43,
-43,
-43,
-43,
-43,
-42,
-42,
-39,
-39,
-39,
-39,
-38,
-38,
-36,
-36,
-35,
-35,
-33,
-33,
-31,
-31,
-26,
-26,
-20,
-20,
-16,
-16,
-12,
-12,
-9,
-9,
-1,
-1,
2,
2,
6,
6,
12,
12,
17,
17,
21,
21,
24,
24,
24,
24,
29,
29,
30,
30,
31,
31,
32,
32,
33,
33,
34,
34,
36,
36,
37,
37,
37,
37,
39,
39,
37,
37,
39,
39,
40,
40,
40,
40,
43,
43,
41,
41,
40,
40,
38,
38,
35,
35,
34,
34,
30,
30,
27,
27,
17,
0,
0,
-11,
-12,
-27,
-25,
-37,
-37,
-37,
-41,
-41,
-44,
-44,
-46,
-46,
-45,
-45,
-48,
-48,
-48,
-48,
-47,
-47,
-47,
-47,
-47,
-47,
-47,
-47,
-46,
-46,
-45,
-45,
-46,
-46,
-45,
-45,
-45,
-45,
-45,
-45,
-43,
-43,
-42,
-42,
-45,
-45,
-41,
-41,
-41,
-41,
-39,
-39,
-36,
-36,
-36,
-36,
-33,
-33,
-34,
-34,
-29,
-29,
-24,
-24,
-20,
-20,
-18,
-18,
-12,
-12,
-7,
-7,
-3,
-3,
5,
5,
6,
6,
13,
13,
17,
17,
22,
22,
23,
23,
27,
27,
27,
27,
30,
30,
32,
32,
33,
33,
32,
32,
35,
35,
36,
36,
36,
36,
38,
38,
40,
40,
38,
38,
38,
38,
41,
41,
39,
39,
40,
40,
41,
41,
40,
40,
39,
39,
39,
39,
35,
35,
33,
33,
25,
13,
12,
0,
3,
-17,
-16,
-29,
-28,
-28,
-37,
-37,
-42,
-42,
-43,
-43,
-47,
-47,
-47,
-47,
-47,
-47,
-47,
-47,
-49,
-49,
-50,
-50,
-48,
-48,
-48,
-48,
-46,
-46,
-46,
-46,
-47,
-47,
-45,
-45,
-45,
-45,
-45,
-45,
-45,
-45,
-44,
-44,
-43,
-43,
-41,
-41,
-39,
-39,
-38,
-38,
-37,
-37,
-36,
-36,
-35,
-35,
-32,
-32,
-27,
-27,
-26,
-26,
-22,
-22,
-17,
-17,
-11,
-11,
-6,
-6,
-1,
-1,
5,
5,
8,
8,
14,
14,
17,
17,
21,
21,
24,
24,
26,
26,
28,
28,
30,
30,
32,
32,
33,
33,
34,
34,
37,
37,
35,
35,
37,
37,
37,
37,
39,
39,
40,
40,
38,
38,
40,
40,
40,
40,
40,
40,
40,
40,
41,
41,
39,
39,
38,
38,
36,
36,
31,
31,
24,
11,
11,
-5,
-5,
-21,
-19,
-31,
-30,
-30,
-37,
-37,
-42,
-42,
-44,
-44,
-45,
-45,
-46,
-46,
-47,
-47,
-48,
-48,
-48,
-48,
-47,
-47,
-47,
-47,
-47,
-47,
-48,
-48,
-46,
-46,
-45,
-45,
-45,
-45,
-45,
-45,
-45,
-45,
-44,
-44,
-43,
-43,
-41,
-41,
-41,
-41,
-41,
-41,
-38,
-38,
-37,
-37,
-35,
-35,
-34,
-34,
-31,
-31,
-27,
-27,
-24,
-24,
-19,
-19,
-16,
-16,
-11,
-11,
-6,
-6,
0,
0,
5,
5,
9,
9,
14,
14,
18,
18,
22,
22,
25,
25,
27,
27,
29,
29,
30,
30,
32,
32,
34,
34,
35,
35,
37,
37,
35,
35,
38,
38,
38,
38,
40,
40,
37,
37,
40,
40,
40,
40,
41,
41,
42,
42,
39,
39,
40,
40,
38,
38,
35,
35,
33,
33,
29,
29,
21,
10,
10,
-4,
-4,
-21,
-21,
-32,
-31,
-31,
-37,
-37,
-43,
-43,
-44,
-44,
-45,
-45,
-48,
-48,
-47,
-47,
-48,
-48,
-48,
-48,
-48,
-48,
-49,
-49,
-47,
-47,
-47,
-47,
-47,
-47,
-47,
-47,
-46,
-46,
-45,
-45,
-45,
-45,
-44,
-44,
-44,
-44,
-42,
-42,
-41,
-41,
-42,
-42,
-40,
-40,
-36,
-36,
-35,
-35,
-31,
-31,
-32,
-32,
-28,
-28,
-22,
-22,
-19,
-19,
-15,
-15,
-11,
-11,
-4,
-4,
0,
0,
5,
5,
9,
9,
14,
14,
16,
16,
20,
20,
24,
24,
27,
27,
29,
29,
29,
29,
32,
32,
33,
33,
34,
34,
35,
35,
38,
38,
38,
38,
39,
39,
39,
39,
39,
39,
40,
40,
39,
39,
40,
40,
43,
43,
40,
40,
40,
40,
40,
40,
37,
37,
34,
34,
29,
29,
22,
5,
5,
-7,
-7,
-21,
-22,
-33,
-31,
-31,
-38,
-38,
-43,
-43,
-45,
-45,
-47,
-47,
-47,
-47,
-49,
-49,
-47,
-47,
-50,
-50,
-47,
-47,
-50,
-50,
-47,
-47,
-46,
-46,
-45,
-45,
-46,
-46,
-45,
-45,
-44,
-44,
-44,
-44,
-43,
-43,
-43,
-43,
-41,
-41,
-41,
-41,
-38,
-38,
-37,
-37,
-36,
-36,
-36,
-36,
-33,
-33,
-30,
-30,
-27,
-27,
-24,
-24,
-20,
-20,
-13,
-13,
-10,
-10,
-5,
-5,
0,
0,
6,
6,
10,
10,
16,
16,
19,
19,
22,
22,
26,
26,
27,
27,
29,
29,
31,
31,
32,
32,
33,
33,
37,
37,
35,
35,
37,
37,
38,
38,
38,
38,
38,
38,
39,
39,
37,
37,
40,
40,
42,
42,
42,
42,
39,
39,
41,
41,
38,
38,
36,
36,
33,
33,
29,
29,
21,
7,
9,
-9,
-8,
-27,
-26,
-26,
-35,
-35,
-39,
-39,
-43,
-43,
-44,
-44,
-45,
-45,
-48,
-48,
-46,
-46,
-48,
-48,
-49,
-49,
-49,
-49,
-48,
-48,
-46,
-46,
-49,
-49,
-47,
-47,
-45,
-45,
-46,
-46,
-44,
-44,
-45,
-45,
-44,
-44,
-42,
-42,
-40,
-40,
-40,
-40,
-40,
-40,
-39,
-39,
-35,
-35,
-34,
-34,
-34,
-34,
-29,
-29,
-28,
-28,
-24,
-24,
-17,
-17,
-13,
-13,
-9,
-9,
-4,
-4,
2,
2,
6,
6,
9,
9,
15,
15,
19,
19,
23,
23,
25,
25,
27,
27,
29,
29,
32,
32,
33,
33,
33,
33,
35,
35,
37,
37,
36,
36,
38,
38,
38,
38,
38,
38,
38,
38,
39,
39,
41,
41,
41,
41,
41,
41,
42,
42,
41,
41,
38,
38,
35,
35,
32,
32,
27,
27,
18,
6,
7,
-9,
-9,
-29,
-26,
-26,
-33,
-33,
-39,
-39,
-42,
-42,
-45,
-45,
-45,
-45,
-46,
-46,
-48,
-48,
-47,
-47,
-48,
-48,
-47,
-47,
-47,
-47,
-48,
-48,
-45,
-45,
-45,
-45,
-45,
-45,
-45,
-45,
-46,
-46,
-43,
-43,
-45,
-45,
-44,
-44,
-41,
-41,
-41,
-41,
-40,
-40,
-39,
-39,
-37,
-37,
-35,
-35,
-33,
-33,
-30,
-30,
-26,
-26,
-23,
-23,
-17,
-17,
-15,
-15,
-8,
-8,
-4,
-4,
1,
1,
5,
5,
11,
11,
16,
16,
19,
19,
24,
24,
26,
26,
28,
28,
30,
30,
30,
30,
32,
32,
33,
33,
35,
35,
37,
37,
36,
36,
38,
38,
40,
40,
39,
39,
38,
38,
40,
40,
41,
41,
41,
41,
42,
42,
41,
41,
41,
41,
38,
38,
37,
37,
32,
32,
31,
19,
19,
4,
4,
-13,
-13,
-24,
-23,
-37,
-35,
-35,
-40,
-40,
-43,
-43,
-46,
-46,
-47,
-47,
-46,
-46,
-48,
-48,
-48,
-48,
-47,
-47,
-48,
-48,
-48,
-48,
-48,
-48,
-45,
-45,
-45,
-45,
-45,
-45,
-45,
-45,
-44,
-44,
-45,
-45,
-43,
-43,
-43,
-43,
-43,
-43,
-41,
-41,
-40,
-40,
-36,
-36,
-37,
-37,
-33,
-33,
-34,
-34,
-29,
-29,
-26,
-26,
-20,
-20,
-19,
-19,
-13,
-13,
-8,
-8,
-2,
-2,
3,
3,
9,
9,
12,
12,
16,
16,
20,
20,
21,
21,
27,
27,
29,
29,
30,
30,
30,
30,
34,
34,
36,
36,
37,
37,
34,
34,
36,
36,
38,
38,
39,
39,
40,
40,
38,
38,
40,
40,
40,
40,
41,
41,
41,
41,
42,
42,
40,
40,
37,
37,
37,
37,
31,
31,
27,
27,
19,
1,
3,
-14,
-14,
-30,
-31,
-31,
-35,
-35,
-40,
-40,
-42,
-42,
-44,
-44,
-46,
-46,
-47,
-47,
-47,
-47,
-48,
-48,
-49,
-49,
-48,
-48,
-49,
-49,
-48,
-48,
-45,
-45,
-45,
-45,
-46,
-46,
-45,
-45,
-43,
-43,
-44,
-44,
-42,
-42,
-43,
-43,
-41,
-41,
-41,
-41,
-38,
-38,
-39,
-39,
-37,
-37,
-34,
-34,
-33,
-33,
-29,
-29,
-26,
-26,
-21,
-21,
-16,
-16,
-12,
-12,
-7,
-7,
0,
0,
2,
2,
7,
7,
12,
12,
16,
16,
21,
21,
23,
23,
27,
27,
27,
27,
29,
29,
32,
32,
33,
33,
33,
33,
36,
36,
37,
37,
36,
36,
37,
37,
39,
39,
38,
38,
40,
40,
40,
40,
39,
39,
41,
41,
42,
42,
38,
38,
39,
39,
39,
39,
36,
36,
31,
31,
26,
26,
17,
0,
0,
-15,
-13,
-30,
-27,
-38,
-35,
-35,
-41,
-41,
-42,
-42,
-46,
-46,
-48,
-48,
-48,
-48,
-48,
-48,
-48,
-48,
-47,
-47,
-48,
-48,
-46,
-46,
-45,
-45,
-45,
-45,
-47,
-47,
-44,
-44,
-46,
-46,
-43,
-43,
-44,
-44,
-44,
-44,
-41,
-41,
-41,
-41,
-41,
-41,
-40,
-40,
-37,
-37,
-35,
-35,
-35,
-35,
-33,
-33,
-31,
-31,
-25,
-25,
-21,
-21,
-16,
-16,
-11,
-11,
-7,
-7,
-3,
-3,
4,
4,
9,
9,
13,
13,
15,
15,
20,
20,
25,
25,
27,
27,
30,
30,
30,
30,
33,
33,
33,
33,
33,
33,
36,
36,
37,
37,
36,
36,
37,
37,
39,
39,
38,
38,
41,
41,
39,
39,
40,
40,
41,
41,
40,
40,
40,
40,
39,
39,
37,
37,
35,
35,
29,
29,
25,
25,
18,
1,
2,
-19,
-17,
-31,
-30,
-30,
-37,
-37,
-38,
-38,
-43,
-43,
-45,
-45,
-49,
-49,
-48,
-48,
-47,
-47,
-48,
-48,
-47,
-47,
-48,
-48,
-47,
-47,
-47,
-47,
-45,
-45,
-47,
-47,
-45,
-45,
-45,
-45,
-45,
-45,
-44,
-44,
-43,
-43,
-43,
-43,
-42,
-42,
-41,
-41,
-39,
-39,
-37,
-37,
-35,
-35,
-34,
-34,
-31,
-31,
-29,
-29,
-24,
-24,
-20,
-20,
-15,
-15,
-11,
-11,
-8,
-8,
-1,
-1,
3,
3,
9,
9,
13,
13,
18,
18,
21,
21,
24,
24,
26,
26,
29,
29,
30,
30,
31,
31,
35,
35,
35,
35,
34,
34,
36,
36,
36,
36,
39,
39,
38,
38,
40,
40,
38,
38,
40,
40,
40,
40,
40,
40,
40,
40,
40,
40,
39,
39,
38,
38,
35,
35,
30,
30,
25,
25,
16,
-1,
-1,
-17,
-15,
-33,
-28,
-39,
-37,
-37,
-41,
-41,
-43,
-43,
-46,
-46,
-46,
-46,
-47,
-47,
-46,
-46,
-49,
-49,
-47,
-47,
-48,
-48,
-49,
-49,
-47,
-47,
-45,
-45,
-46,
-46,
-45,
-45,
-45,
-45,
-44,
-44,
-42,
-42,
-43,
-43,
-43,
-43,
-41,
-41,
-41,
-41,
-39,
-39,
-37,
-37,
-35,
-35,
-33,
-33,
-32,
-32,
-30,
-30,
-24,
-24,
-20,
-20,
-14,
-14,
-8,
-8,
-5,
-5,
0,
0,
5,
5,
8,
8,
15,
15,
18,
18,
20,
20,
26,
26,
26,
26,
28,
28,
31,
31,
30,
30,
33,
33,
32,
32,
35,
35,
37,
37,
38,
38,
38,
38,
39,
39,
40,
40,
39,
39,
41,
41,
40,
40,
41,
41,
40,
40,
41,
41,
40,
40,
37,
37,
32,
32,
30,
30,
20,
20,
10,
-5,
-6,
-19,
-17,
-31,
-32,
-32,
-40,
-40,
-43,
-43,
-44,
-44,
-45,
-45,
-47,
-47,
-47,
-47,
-49,
-49,
-48,
-48,
-47,
-47,
-47,
-47,
-47,
-47,
-47,
-47,
-47,
-47,
-47,
-47,
-46,
-46,
-43,
-43,
-45,
-45,
-44,
-44,
-44,
-44,
-40,
-40,
-41,
-41,
-39,
-39,
-39,
-39,
-38,
-38,
-36,
-36,
-33,
-33,
-29,
-29,
-28,
-28,
-24,
-24,
-20,
-20,
-15,
-15,
-10,
-10,
-6,
-6,
-2,
-2,
5,
5,
9,
9,
12,
12,
19,
