1-signale-auf-leitern/tag_1_daten/daten_versuch1/ALL0005/A0005CH1.CSV

Memory Length,4000,
Trigger Level,1.60000e+02,
Source,CH1,
Probe,1.0X,
Vertical Units,V,
Vertical Scale,2.00000e-01,
Vertical Position,0.00000e+00,
Horizontal Units,S,
Horizontal Scale,5.00000e-07,
Horizontal Position,1.3400000e-06,
Horizontal Mode,Main,
Sampling Period,2.00000e-09,
Firmware,V1.14,
Time, ,
Mode,Fast,
Waveform Data,
-1,
-1,
0,
-1,
-2,
-1,
0,
-1,
-1,
-1,
0,
-1,
-1,
-1,
-2,
0,
-1,
0,
0,
-1,
-1,
-1,
-1,
0,
-2,
-1,
0,
-1,
-1,
-2,
-1,
0,
-1,
-1,
-1,
-1,
-1,
-1,
-1,
0,
-1,
-2,
0,
-1,
-1,
0,
-2,
0,
-2,
-1,
-1,
-1,
-1,
-1,
-2,
-1,
-1,
-1,
-1,
0,
-1,
-1,
-2,
-1,
-1,
-1,
-1,
-1,
-1,
0,
0,
-1,
-2,
-2,
-1,
0,
-1,
-2,
-1,
0,
-1,
-1,
0,
0,
-1,
-2,
-1,
-1,
-1,
-1,
0,
0,
-1,
-1,
-1,
0,
-1,
-2,
-1,
-1,
0,
-1,
-1,
1,
-2,
-3,
-9,
-19,
-26,
-35,
-41,
-45,
-52,
-54,
-58,
-59,
-62,
-63,
-62,
-64,
-65,
-65,
-65,
-64,
-64,
-63,
-63,
-63,
-63,
-62,
-61,
-60,
-60,
-60,
-59,
-58,
-58,
-57,
-57,
-54,
-55,
-54,
-53,
-53,
-52,
-51,
-51,
-49,
-49,
-49,
-48,
-47,
-47,
-47,
-46,
-45,
-45,
-45,
-44,
-43,
-43,
-42,
-42,
-41,
-40,
-40,
-39,
-39,
-38,
-39,
-37,
-36,
-38,
-37,
-35,
-35,
-35,
-35,
-34,
-33,
-34,
-33,
-32,
-31,
-32,
-32,
-30,
-30,
-30,
-30,
-29,
-28,
-29,
-28,
-28,
-27,
-27,
-27,
-26,
-26,
-26,
-25,
-25,
-24,
-25,
-24,
-24,
-23,
-23,
-23,
-23,
-22,
-22,
-22,
-22,
-21,
-21,
-21,
-21,
-20,
-20,
-20,
-20,
-19,
-19,
-18,
-19,
-18,
-19,
-17,
-19,
-18,
-18,
-17,
-16,
-16,
-17,
-17,
-16,
-15,
-16,
-15,
-16,
-15,
-15,
-15,
-14,
-14,
-15,
-14,
-14,
-13,
-13,
-13,
-13,
-12,
-13,
-12,
-13,
-12,
-13,
-13,
-12,
-11,
-12,
-12,
-12,
-11,
-12,
-11,
-11,
-11,
-11,
-11,
-11,
-10,
-10,
-10,
-10,
-10,
-10,
-9,
-9,
-9,
-9,
-9,
-10,
-9,
-9,
-9,
-9,
-8,
-9,
-9,
-8,
-8,
-8,
-8,
-8,
-7,
-8,
-7,
-7,
-7,
-8,
-8,
-7,
-7,
-7,
-8,
-7,
-6,
-7,
-7,
-6,
-6,
-6,
-6,
-6,
-6,
-6,
-6,
-5,
-6,
-6,
-7,
-5,
-5,
-6,
-5,
-5,
-5,
-5,
-5,
-5,
-4,
-5,
-6,
-5,
-4,
-5,
-5,
-5,
-4,
-5,
-5,
-5,
-4,
-5,
-5,
-4,
-4,
-4,
-5,
-4,
-2,
-5,
-5,
-4,
-4,
-4,
-4,
-4,
-4,
-4,
-5,
-4,
-3,
-4,
-4,
-3,
-3,
-4,
-3,
-4,
-3,
-4,
-4,
-3,
-3,
-3,
-3,
-4,
-3,
-4,
-3,
-3,
-2,
-4,
-4,
-3,
-3,
-3,
-4,
-3,
-2,
-3,
-4,
-3,
-2,
-3,
-3,
-2,
-2,
-2,
-3,
-2,
-2,
-3,
-3,
-2,
-2,
-3,
-3,
-2,
-1,
-3,
-3,
-2,
-1,
-2,
-3,
-2,
-1,
-2,
-2,
-2,
-1,
-2,
-3,
-3,
-1,
-2,
-2,
-2,
-1,
-3,
-3,
-1,
-1,
-2,
-3,
-3,
-1,
-2,
-2,
-1,
-1,
-2,
-3,
-2,
-1,
-1,
-3,
-2,
-1,
-2,
-2,
-2,
-1,
-2,
-2,
-2,
-1,
-1,
-2,
-2,
-1,
-2,
-3,
-2,
-1,
-2,
-2,
-2,
-1,
-1,
-1,
-2,
-1,
-1,
-1,
-2,
-1,
-2,
-3,
-2,
-1,
-2,
-2,
-2,
-1,
-2,
-2,
-1,
-1,
-1,
-2,
-2,
0,
-1,
-2,
-1,
0,
-2,
-1,
-1,
-1,
-1,
-2,
-2,
-1,
-1,
-1,
-1,
0,
-2,
-1,
-1,
-1,
-1,
-2,
-1,
-1,
-1,
-1,
-2,
0,
-2,
-1,
-1,
-1,
-1,
-2,
-2,
0,
-1,
-1,
-1,
0,
-2,
-1,
-1,
-1,
-1,
-2,
-1,
-1,
-2,
-2,
-1,
0,
-1,
-2,
-1,
-1,
-1,
-2,
-1,
0,
-1,
-1,
-1,
0,
-2,
-1,
-1,
0,
-1,
-2,
-1,
0,
-2,
-1,
0,
-1,
-1,
-2,
-1,
-1,
-1,
-1,
-1,
0,
-1,
0,
0,
-1,
-2,
-1,
-1,
-1,
-1,
-1,
-1,
1,
-2,
-1,
-2,
0,
-1,
-2,
-1,
-1,
-1,
-1,
-1,
-1,
-1,
-1,
-1,
0,
0,
-1,
-1,
0,
0,
1,
0,
-1,
-2,
-1,
-1,
0,
-1,
-2,
-1,
-1,
-1,
-1,
-1,
0,
-1,
-1,
-1,
-1,
-1,
-1,
-1,
0,
-1,
-1,
0,
0,
-1,
-1,
-1,
-1,
-1,
-1,
-1,
-1,
-2,
-1,
-1,
-1,
-1,
-1,
0,
-1,
0,
-2,
-1,
0,
-1,
0,
-1,
-1,
-1,
-2,
-1,
0,
-1,
-1,
-1,
-1,
-1,
-1,
-1,
1,
-2,
-1,
-1,
-1,
-1,
0,
-2,
1,
-1,
-1,
-1,
-1,
0,
-1,
-1,
0,
-1,
-1,
-1,
0,
-1,
0,
-2,
-1,
-1,
-1,
-1,
0,
0,
1,
-2,
0,
-1,
-1,
0,
0,
-1,
-1,
-1,
-1,
-1,
-1,
0,
-1,
-1,
-1,
-1,
0,
-2,
-1,
0,
-1,
0,
-1,
-1,
0,
-1,
-1,
0,
0,
-1,
-1,
-1,
0,
-1,
-1,
0,
0,
-1,
-1,
-1,
-1,
-1,
-1,
0,
-1,
-1,
-1,
-1,
-1,
-1,
-1,
-1,
0,
0,
0,
-1,
0,
-1,
0,
-1,
-1,
-1,
-1,
-1,
0,
-1,
-1,
-1,
0,
-1,
-1,
-1,
0,
-1,
-1,
0,
-1,
-1,
0,
-1,
-1,
-1,
-1,
-1,
0,
-2,
-1,
-1,
-1,
0,
-1,
0,
-1,
-1,
0,
-2,
-1,
-2,
-1,
0,
-1,
-1,
-2,
-1,
0,
-1,
0,
-1,
0,
-1,
-2,
-1,
0,
-2,
-1,
0,
-1,
-1,
-1,
-2,
0,
-2,
-1,
0,
-1,
-1,
0,
-1,
1,
-1,
-2,
-1,
0,
-1,
0,
-1,
0,
-2,
-1,
0,
-1,
0,
-1,
-1,
0,
-1,
-1,
-1,
0,
-1,
1,
0,
-1,
0,
-1,
-1,
0,
-1,
0,
-1,
-1,
0,
-1,
0,
0,
-1,
0,
-1,
-1,
-1,
-1,
-1,
0,
-1,
-1,
-1,
0,
-1,
-1,
0,
0,
-1,
-1,
-1,
0,
-1,
0,
-1,
-1,
-1,
-2,
-2,
-1,
-2,
-1,
0,
-1,
-1,
-1,
-1,
0,
-2,
-2,
0,
-1,
-1,
-1,
0,
0,
-1,
-1,
-1,
-1,
-1,
-2,
0,
-1,
0,
-1,
-1,
0,
-2,
0,
0,
-1,
0,
-2,
-2,
0,
-1,
0,
0,
0,
-2,
-1,
-1,
-1,
0,
-1,
0,
0,
-1,
-1,
-1,
0,
-2,
-1,
0,
-1,
0,
-1,
-1,
0,
0,
0,
0,
-1,
-1,
-1,
-1,
-1,
-1,
-1,
-1,
1,
-2,
-1,
-1,
0,
-1,
-1,
0,
-1,
0,
0,
-1,
0,
-1,
-2,
-1,
-1,
-1,
-2,
0,
0,
0,
1,
-2,
0,
-2,
-1,
-1,
0,
-1,
-1,
-1,
0,
-1,
0,
0,
-1,
-1,
-1,
-1,
0,
-1,
-1,
0,
0,
-1,
0,
0,
-1,
0,
0,
-1,
0,
-1,
0,
0,
-1,
-1,
-1,
-1,
-1,
0,
-1,
-1,
0,
-1,
-2,
-1,
-1,
-1,
-1,
0,
0,
0,
-1,
-1,
0,
-1,
-1,
0,
-1,
-2,
-1,
-2,
-1,
-1,
-2,
-2,
-1,
-1,
-1,
-1,
0,
-2,
-1,
0,
-1,
-1,
-1,
-1,
0,
-1,
-1,
0,
-1,
-1,
-2,
-1,
-1,
-1,
-1,
-1,
0,
0,
-1,
-1,
-1,
-1,
-1,
0,
-1,
-1,
-1,
-1,
0,
-2,
-1,
-1,
0,
-2,
-1,
-1,
-1,
-1,
-1,
0,
0,
-1,
-1,
-1,
-1,
0,
-1,
0,
0,
-2,
-1,
-1,
0,
-1,
0,
0,
-1,
-1,
-1,
-1,
0,
-1,
0,
-1,
0,
-1,
-1,
-1,
0,
-1,
-1,
0,
-1,
-1,
0,
-2,
0,
-1,
-1,
-1,
-1,
-1,
-1,
0,
-1,
0,
-1,
-1,
-1,
-2,
-2,
-1,
-1,
-1,
-2,
-1,
0,
-1,
0,
0,
-1,
-1,
-1,
-1,
0,
-1,
-1,
0,
-1,
-1,
-2,
-1,
-1,
-1,
-1,
-1,
-1,
-1,
-1,
-1,
-1,
-1,
-1,
-1,
0,
-1,
-1,
0,
-1,
-1,
-1,
-2,
-1,
-1,
-2,
-1,
0,
-1,
-2,
-1,
0,
-1,
-2,
-1,
0,
-1,
0,
-1,
0,
-1,
-1,
-1,
0,
-2,
-1,
0,
0,
-1,
-1,
0,
-1,
-1,
-2,
-1,
-1,
0,
-1,
-1,
0,
-2,
-1,
-1,
0,
-1,
0,
-1,
0,
-2,
-1,
0,
0,
-1,
-1,
-1,
0,
-1,
-1,
-1,
-1,
-1,
-1,
0,
-1,
-1,
0,
-2,
-1,
-1,
0,
-1,
0,
-2,
-1,
0,
-1,
0,
-1,
-1,
0,
-2,
-1,
-2,
-1,
-2,
-1,
0,
-1,
-1,
-1,
0,
-1,
-1,
-1,
-1,
0,
-1,
-1,
0,
-1,
-1,
-1,
0,
0,
-1,
-1,
-1,
0,
-1,
-1,
0,
0,
-1,
-1,
-1,
-1,
0,
-1,
0,
-1,
-2,
-1,
-2,
0,
-1,
-1,
0,
-1,
2,
4,
11,
22,
30,
39,
45,
48,
52,
54,
57,
60,
61,
61,
62,
64,
64,
64,
63,
63,
63,
63,
61,
62,
61,
60,
60,
59,
58,
57,
56,
56,
55,
54,
53,
53,
52,
52,
50,
51,
48,
49,
48,
48,
47,
47,
45,
46,
45,
43,
43,
43,
42,
43,
41,
41,
40,
40,
39,
39,
39,
38,
37,
37,
36,
34,
35,
35,
35,
33,
34,
33,
32,
31,
32,
32,
31,
30,
30,
31,
29,
28,
28,
28,
28,
27,
26,
27,
27,
25,
25,
25,
25,
24,
24,
24,
24,
24,
22,
23,
22,
21,
21,
21,
22,
20,
20,
21,
20,
19,
19,
20,
19,
19,
18,
18,
17,
17,
17,
18,
17,
16,
16,
16,
16,
15,
16,
15,
15,
15,
15,
15,
13,
14,
13,
14,
13,
13,
13,
13,
13,
13,
12,
13,
12,
11,
12,
12,
11,
11,
11,
12,
11,
11,
11,
11,
10,
10,
9,
11,
10,
8,
9,
10,
9,
9,
9,
9,
9,
8,
8,
9,
9,
7,
7,
8,
8,
8,
7,
8,
8,
7,
6,
7,
6,
6,
7,
7,
6,
5,
6,
6,
6,
5,
5,
6,
5,
4,
5,
6,
5,
5,
4,
6,
5,
4,
4,
5,
5,
4,
4,
5,
4,
3,
4,
4,
4,
3,
4,
4,
4,
3,
4,
4,
4,
3,
3,
4,
3,
3,
3,
3,
4,
3,
2,
3,
3,
3,
2,
3,
3,
2,
2,
4,
3,
2,
2,
3,
2,
1,
2,
3,
2,
1,
2,
2,
2,
1,
2,
3,
2,
1,
2,
2,
2,
1,
1,
2,
1,
1,
1,
1,
1,
1,
1,
2,
2,
1,
1,
1,
1,
1,
1,
2,
1,
0,
1,
1,
1,
1,
1,
2,
1,
1,
0,
1,
1,
0,
1,
1,
1,
0,
0,
1,
1,
0,
0,
1,
1,
0,
0,
1,
1,
0,
0,
0,
0,
0,
1,
1,
1,
0,
0,
1,
1,
0,
1,
0,
0,
0,
1,
1,
0,
0,
0,
1,
0,
0,
0,
0,
1,
-1,
1,
0,
0,
0,
0,
0,
0,
-1,
0,
0,
1,
-1,
0,
1,
0,
0,
0,
0,
0,
-1,
0,
0,
0,
-1,
0,
0,
0,
-1,
0,
0,
0,
0,
0,
1,
0,
2,
0,
0,
0,
-1,
-1,
0,
0,
-1,
0,
0,
0,
0,
-1,
0,
0,
0,
0,
0,
-1,
-1,
-1,
0,
0,
0,
-1,
0,
-1,
-1,
0,
0,
0,
-1,
0,
0,
-1,
-1,
-1,
0,
-1,
0,
-1,
0,
0,
-1,
0,
0,
-1,
-1,
-1,
0,
0,
0,
-1,
0,
-1,
-1,
-1,
0,
0,
0,
0,
0,
-1,
0,
-1,
0,
0,
-1,
-1,
-1,
-1,
-1,
0,
0,
0,
0,
-1,
0,
-1,
-1,
-1,
0,
-1,
0,
-1,
0,
-1,
0,
0,
-1,
0,
-1,
0,
0,
-1,
-1,
0,
0,
-1,
-1,
-1,
0,
-1,
0,
-1,
0,
-1,
-1,
-1,
-1,
-2,
-1,
0,
0,
-2,
-2,
-1,
0,
-1,
-1,
-1,
-1,
0,
0,
-1,
0,
-1,
-1,
-1,
0,
0,
-1,
-1,
1,
-2,
0,
0,
0,
0,
0,
-1,
0,
-1,
-1,
-1,
0,
-1,
-1,
-1,
-1,
-1,
-1,
-1,
0,
0,
1,
-1,
-1,
-1,
-1,
0,
0,
0,
0,
-2,
0,
-1,
-1,
0,
-1,
-1,
-2,
-1,
0,
-1,
0,
0,
-1,
-1,
-1,
-1,
0,
-1,
-1,
0,
-1,
-1,
-1,
-1,
0,
-2,
-1,
0,
-1,
0,
-1,
-2,
-1,
-1,
-1,
-1,
0,
-2,
-1,
-1,
-1,
0,
-1,
-1,
0,
0,
0,
0,
0,
-1,
-1,
-1,
0,
-2,
-1,
-1,
-1,
-1,
0,
-1,
-1,
-1,
-1,
0,
-1,
-1,
-1,
-1,
0,
-1,
-1,
-1,
-1,
-1,
-1,
0,
-1,
-1,
-2,
-1,
-1,
-1,
-2,
-1,
0,
-1,
-1,
-1,
-1,
-1,
-1,
0,
0,
-1,
-1,
-1,
1,
-2,
-1,
0,
-1,
-1,
-1,
-1,
-1,
-1,
-1,
-1,
-1,
-1,
-1,
-1,
1,
-1,
-1,
-1,
-1,
0,
1,
0,
-1,
-1,
-1,
-1,
-1,
-1,
-2,
-1,
0,
-1,
-2,
-1,
0,
-1,
1,
-1,
-1,
-2,
-2,
-1,
0,
0,
-1,
0,
0,
-1,
-1,
-1,
0,
-1,
-1,
0,
-1,
0,
-1,
0,
0,
-2,
-1,
-1,
-1,
0,
-1,
-1,
0,
0,
0,
0,
0,
-2,
-1,
-2,
-1,
-1,
-1,
0,
-1,
0,
-1,
-1,
0,
-1,
-1,
-1,
-1,
0,
0,
-1,
-1,
0,
-1,
0,
-1,
-1,
-1,
-1,
0,
-1,
-2,
-1,
-1,
-1,
0,
0,
-1,
-1,
-2,
-1,
0,
-1,
-1,
-1,
0,
-2,
-1,
0,
0,
-1,
-1,
-1,
-1,
-1,
-1,
-1,
0,
-1,
-1,
-1,
0,
0,
-1,
-1,
0,
-1,
0,
0,
0,
-1,
-1,
-1,
0,
-1,
-2,
-1,
0,
-1,
-1,
-1,
-1,
-1,
-1,
0,
0,
0,
0,
-1,
0,
-1,
-1,
-1,
0,
-1,
-1,
-1,
-1,
-1,
-1,
0,
0,
-1,
-1,
-1,
-1,
-1,
-1,
0,
0,
-1,
0,
-2,
0,
-1,
0,
0,
-1,
0,
-1,
-1,
0,
-1,
-1,
-1,
0,
-1,
-1,
-2,
-1,
-1,
-1,
0,
-1,
-2,
-1,
-1,
0,
-1,
-1,
0,
0,
-2,
-1,
-1,
-1,
-1,
0,
0,
-1,
-1,
-1,
-1,
0,
-1,
-1,
-1,
-1,
-1,
-1,
-1,
0,
-1,
-1,
0,
-1,
-1,
-1,
-1,
0,
-1,
-1,
-1,
-1,
-1,
-2,
-1,
0,
-1,
-1,
-1,
-1,
-1,
-1,
-2,
1,
-1,
-1,
-1,
-1,
-1,
-1,
0,
0,
-1,
-1,
-1,
-1,
-1,
-1,
-1,
0,
-1,
-2,
-1,
-1,
-1,
1,
0,
-1,
-1,
-2,
-1,
0,
-1,
-1,
0,
-1,
-1,
-1,
-1,
0,
-1,
-1,
-2,
-1,
-1,
-1,
-1,
0,
-1,
-1,
0,
-1,
0,
-1,
-1,
0,
-1,
-2,
-1,
0,
-1,
-1,
0,
-1,
-1,
-2,
-1,
0,
-1,
0,
-1,
-1,
-1,
-1,
-1,
0,
-3,
-1,
0,
-1,
0,
-1,
-2,
1,
-2,
-1,
0,
-1,
-1,
-1,
-1,
0,
-1,
-2,
-1,
-1,
0,
-1,
-1,
0,
-1,
-2,
0,
0,
-1,
1,
-2,
0,
-1,
-2,
-1,
0,
-2,
-2,
-1,
-1,
-1,
-1,
0,
0,
-2,
-2,
-2,
-1,
-1,
-1,
0,
-1,
-2,
-1,
-1,
-1,
-1,
0,
-1,
0,
0,
-1,
-1,
0,
-2,
-1,
-1,
-1,
-1,
-1,
-1,
-1,
-1,
-1,
-1,
-1,
-1,
-1,
-1,
0,
-2,
-1,
-1,
0,
-1,
0,
-1,
-1,
-2,
-1,
0,
-1,
-1,
-1,
-1,
0,
-1,
-2,
-1,
0,
-1,
-1,
-1,
0,
-1,
-1,
-1,
0,
-2,
-1,
-1,
-1,
-1,
-1,
0,
-1,
-2,
-1,
-1,
-1,
0,
0,
-2,
0,
-2,
-1,
0,
-1,
-1,
-1,
-1,
-1,
-1,
-1,
-1,
0,
-2,
-1,
-1,
-1,
-1,
-1,
0,
0,
-1,
-1,
-2,
-1,
-1,
-1,
0,
0,
-1,
-1,
-1,
-1,
-1,
-2,
-1,
0,
-1,
-1,
-1,
0,
-1,
0,
0,
-1,
-1,
-2,
-2,
0,
-1,
0,
0,
-1,
-1,
-2,
-2,
0,
-1,
0,
-1,
-1,
-1,
-1,
-2,
0,
-2,
-1,
-1,
-1,
-1,
-1,
-1,
0,
-2,
-1,
0,
-1,
-1,
-1,
-1,
0,
-1,
-1,
0,
-1,
-1,
-1,
-1,
0,
-1,
-2,
-1,
0,
-1,
-1,
-1,
-1,
-1,
-2,
-1,
0,
-2,
-2,
-1,
-1,
-1,
-1,
0,
-1,
-2,
-1,
-1,
-1,
-1,
-1,
0,
0,
-2,
-1,
0,
0,
-1,
-1,
-1,
0,
-1,
-1,
0,
0,
0,
-1,
0,
-1,
-1,
-1,
-1,
-1,
-1,
0,
-1,
0,
-2,
-1,
0,
0,
-2,
-2,
-1,
-1,
-1,
-1,
-1,
0,
-1,
-1,
-1,
-1,
-1,
-1,
-1,
-1,
0,
-1,
-1,
-1,
-1,
0,
0,
0,
-2,
-2,
-1,
-1,
-1,
-1,
0,
0,
-2,
-1,
-1,
-1,
-1,
-1,
0,
0,
-1,
-4,
-9,
-16,
-26,
-32,
-39,
-46,
-50,
-54,
-58,
-59,
-62,
-61,
-62,
-65,
-65,
-65,
-65,
-64,
-65,
-64,
-62,
-63,
-63,
-63,
-61,
-61,
-60,
-60,
-59,
-57,
-58,
-56,
-56,
-56,
-55,
-54,
-53,
-52,
-52,
-51,
-51,
-50,
-50,
-49,
-47,
-47,
-47,
-47,
-46,
-45,
-45,
-45,
-44,
-43,
-43,
-43,
-42,
-41,
-41,
-41,
-40,
-39,
-38,
-38,
-38,
-37,
-38,
-37,
-35,
-35,
-36,
-35,
-34,
-33,
-34,
-33,
-32,
-31,
-31,
-32,
-30,
-30,
-31,
-30,
-30,
-28,
-29,
-28,
-28,
-27,
-27,
-26,
-26,
-26,
-26,
-25,
-25,
-25,
-25,
-24,
-24,
-23,
-24,
-23,
-23,
-22,
-23,
-22,
-22,
-21,
-21,
-21,
-21,
-20,
-21,
-20,
-20,
-20,
-20,
-18,
-19,
-18,
-19,
-18,
-18,
-17,
-18,
-17,
-17,
-16,
-17,
-16,
-16,
-16,
-16,
-16,
-15,
-15,
-16,
-15,
-14,
-15,
-15,
-15,
-14,
-13,
-14,
-14,
-14,
-13,
-12,
-12,
-13,
-12,
-12,
-12,
-12,
-12,
-12,
-12,
-12,
-12,
-12,
-11,
-11,
-10,
-12,
-11,
-11,
-10,
-10,
-10,
-10,
-9,
-10,
-9,
-9,
-9,
-9,
-10,
-9,
-8,
-9,
-9,
-8,
-7,
-9,
-9,
-8,
-8,
-9,
-7,
-7,
-7,
-7,
-8,
-7,
-6,
-8,
-8,
-7,
-7,
-7,
-7,
-7,
-6,
-6,
-6,
-6,
-5,
-6,
-6,
-6,
-5,
-6,
-7,
-7,
-5,
-6,
-7,
-5,
-5,
-6,
-6,
-6,
-4,
-5,
-6,
-5,
-5,
-6,
-6,
-5,
-5,
-6,
-5,
-5,
-4,
-4,
-5,
-5,
-4,
-5,
-5,
-4,
-4,
-4,
-5,
-4,
-3,
-4,
-5,
-5,
-4,
-4,
-5,
-4,
-4,
-4,
-4,
-3,
-3,
-4,
-4,
-3,
-3,
-3,
-3,
-3,
-3,
-2,
-4,
-4,
-3,
-5,
-4,
-3,
-2,
-3,
-3,
-3,
-2,
-3,
-3,
-3,
-3,
-4,
-3,
-3,
-3,
-4,
-3,
-2,
-2,
-3,
-3,
-2,
-2,
-2,
-3,
-3,
-2,
-3,
-3,
-2,
-2,
-3,
-3,
-2,
-2,
-2,
-3,
-3,
-1,
-2,
-3,
-3,
-2,
-3,
-3,
-2,
-1,
-2,
-2,
-2,
-1,
-2,
-3,
-2,
-2,
-3,
-3,
-2,
-1,
-2,
-2,
-2,
-1,
-2,
-2,
-1,
-1,
-2,
-3,
-2,
-1,
-2,
-2,
-2,
-1,
-2,
-2,
-1,
-1,
-2,
-2,
-2,
-1,
-1,
-2,
-2,
-1,
-2,
-2,
-1,
-1,
-1,
-2,
-2,
-1,
-2,
-1,
-2,
-1,
-2,
-2,
-2,
-1,
-2,
-2,
0,
-1,
-2,
-2,
-2,
-1,
-2,
-3,
-2,
-1,
-2,
-2,
-1,
0,
-2,
-2,
-1,
-1,
-2,
-1,
-2,
-1,
-1,
-2,
-2,
-1,
-2,
-1,
-1,
-1,
-2,
-3,
-1,
-1,
-1,
-1,
-1,
0,
-1,
-2,
-2,
-1,
-1,
-1,
-1,
-1,
-1,
-2,
-2,
0,
-2,
-2,
-1,
-1,
-1,
-1,
-1,
0,
-2,
-1,
-1,
-1,
-1,
-3,
-2,
0,
-1,
-2,
-1,
-1,
-1,
-1,
-1,
0,
-1,
-2,
-1,
-1,
-1,
-1,
-1,
0,
-2,
-2,
-1,
0,
-1,
-1,
-1,
-1,
0,
-1,
-1,
0,
-2,
-1,
-1,
-1,
0,
-1,
-1,
-1,
-1,
-1,
-1,
-1,
-1,
-1,
-1,
0,
-1,
-1,
0,
-1,
-1,
-1,
-2,
0,
-2,
-2,
-1,
-1,
-1,
-1,
0,
-1,
-1,
-1,
-1,
0,
-1,
-1,
-1,
-1,
-1,
-2,
0,
0,
-2,
0,
-1,
0,
-1,
-1,
-1,
-1,
-1,
-2,
-1,
-1,
-1,
0,
-1,
-1,
-1,
-2,
-2,
-1,
-1,
-1,
-1,
0,
-2,
-1,
0,
-1,
-2,
-1,
-1,
-1,
0,
-1,
-1,
0,
-2,
-1,
-1,
-1,
-1,
-1,
-1,
-1,
-1,
0,
0,
-1,
-1,
-1,
0,
0,
-1,
-1,
-1,
-1,
-1,
0,
-1,
0,
-2,
-1,
0,
-1,
0,
-1,
-1,
0,
-1,
-2,
-1,
0,
-1,
0,
0,
-1,
-1,
-2,
-1,
-1,
-1,
0,
-1,
0,
-1,
-1,
0,
0,
-2,
-1,
-1,
-1,
0,
-1,
-1,
1,
-1,
-1,
-1,
-1,
0,
-1,
-1,
0,
-1,
-2,
-1,
-1,
-1,
-1,
-1,
0,
-2,
-2,
-1,
-1,
0,
0,
-2,
0,
-1,
-1,
-1,
1,
-1,
0,
0,
-1,
0,
-1,
-1,
0,
-1,
-1,
-1,
-1,
-1,
-1,
0,
0,
-2,
-1,
-1,
-1,
0,
1,
-2,
-1,
-1,
-1,
0,
-1,
-1,
-1,
-1,
0,
-1,
-1,
-1,
0,
-2,
-1,
-1,
0,
-1,
-1,
0,
-1,
-1,
-1,
0,
0,
-1,
-1,
0,
-1,
-1,
-2,
-1,
-1,
0,
0,
-1,
0,
-1,
-1,
-1,
-1,
-1,
-1,
0,
0,
-2,
0,
-1,
0,
-1,
-1,
0,
-1,
-1,
-2,
-1,
-1,
-1,
0,
0,
-1,
-1,
-1,
-1,
0,
-1,
0,
1,
0,
-1,
-1,
-1,
1,
-1,
-2,
-1,
-1,
0,
-1,
0,
-1,
-2,
-1,
-1,
-1,
0,
-2,
-1,
0,
-1,
-2,
0,
1,
-1,
1,
-2,
-1,
0,
-1,
0,
-1,
-1,
-1,
-1,
0,
-2,
-1,
0,
-1,
-1,
-2,
-1,
-1,
0,
1,
-1,
-1,
-1,
-2,
-1,
0,
-1,
-1,
0,
-1,
0,
0,
-1,
0,
-2,
-1,
-1,
-1,
0,
-1,
0,
-1,
-1,
-1,
-1,
-1,
0,
-1,
0,
0,
-1,
-2,
0,
-1,
-1,
-1,
-1,
0,
-2,
-1,
-1,
-1,
-1,
-1,
0,
-1,
-1,
-1,
-1,
0,
-2,
-1,
-1,
-1,
0,
-1,
0,
-1,
-1,
0,
-1,
-1,
-1,
-1,
-1,
-1,
-1,
-2,
-1,
0,
-1,
-1,
-1,
0,
-2,
-1,
0,
-1,
-1,
-1,
-1,
-1,
-1,
-1,
0,
0,
-2,
-1,
-1,
-1,
-1,
-1,
-1,
0,
-2,
-1,
-1,
-1,
-1,
-1,
0,
-1,
0,
-1,
-1,
0,
-1,
-1,
-1,
0,
-2,
-2,
-1,
0,
0,
0,
-1,
0,
-2,
-1,
-1,
-1,
-1,
-1,
0,
-1,
-1,
-2,
-1,
0,
-1,
0,
0,
-1,
-1,
0,
-1,
0,
-2,
-1,
0,
-2,
0,
-1,
-1,
0,
-2,
-2,
-1,
-1,
0,
0,
-1,
-1,
-1,
-1,
-1,
0,
0,
-1,
-1,
-1,
-1,
-2,
-1,
1,
-1,
0,
0,
-1,
0,
-2,
-1,
-1,
-1,
-1,
-1,
0,
-1,
-1,
0,
0,
-1,
-1,
-2,
-1,
-1,
1,
-2,
1,
-2,
-1,
-1,
0,
-1,
-1,
0,
-1,
-1,
-2,
-1,
0,
-2,
0,
0,
-1,
-1,
-2,
-1,
-1,
-1,
1,
0,
-1,
-1,
-1,
-1,
0,
-2,
-1,
-1,
-1,
0,
0,
0,
0,
-2,
-1,
0,
-1,
-1,
-1,
-1,
-1,
-1,
-1,
-1,
-1,
-1,
-1,
-1,
0,
-1,
-1,
0,
-1,
-1,
-1,
-1,
0,
-1,
-2,
-2,
0,
-1,
-2,
-1,
-1,
-1,
-1,
-1,
0,
-2,
-1,
-1,
-1,
-1,
-2,
-2,
0,
-2,
0,
-1,
-1,
-1,
-1,
-1,
-1,
-1,
-1,
-1,
0,
-2,
-1,
-1,
0,
-2,
-2,
-1,
0,
0,
-1,
-1,
0,
-2,
-1,
0,
-1,
-1,
-1,
-1,
-1,
-1,
-2,
-1,
1,
-1,
0,
-1,
-1,
-1,
-1,
0,
0,
-1,
-1,
-2,
-1,
0,
-1,
-1,
0,
-1,
-1,
-1,
-1,
-1,
1,
0,
0,
-1,
-1,
-1,
-1,
-1,
-1,
0,
0,
-2,
-2,
-1,
0,
0,
0,
0,
-1,
-1,
-1,
-1,
0,
-2,
0,
0,
-1,
0,
-2,
-1,
1,
-2,
0,
-1,
-1,
-1,
-1,
0,
-1,
-1,
-1,
-1,
-1,
0,
0,
-1,
1,
-1,
-1,
-1,
-1,
0,
1,
-2,
-1,
-1,
-1,
-2,
0,
-1,
-1,
-1,
-1,
-1,
-2,
0,
0,
-1,
0,
-1,
0,
-1,
-1,
0,
-1,
-1,
-2,
-1,
-1,
-1,
-1,
-1,
0,
-1,
-2,
-1,
-1,
-1,
0,
0,
0,
-1,
0,
-1,
-1,
-1,
-1,
0,
-1,
-1,
-2,
-1,
0,
-2,
-1,
-1,
-1,
-1,
-1,
-1,
0,
-1,
-1,
0,
-1,
1,
4,
13,
22,
29,
37,
44,
49,
52,
56,
57,
60,
60,
61,
62,
64,
64,
63,
63,
64,
63,
62,
62,
62,
60,
60,
59,
59,
57,
57,
57,
55,
54,
53,
52,
53,
52,
52,
50,
51,
48,
49,
48,
47,
47,
46,
45,
47,
44,
44,
43,
43,
42,
42,
41,
41,
40,
39,
39,
39,
38,
38,
36,
36,
36,
35,
35,
35,
35,
32,
33,
34,
32,
31,
31,
32,
31,
29,
30,
31,
29,
28,
27,
28,
28,
27,
27,
27,
26,
25,
25,
25,
25,
25,
25,
24,
24,
23,
22,
22,
23,
21,
21,
22,
20,
20,
19,
20,
20,
19,
19,
20,
19,
18,
18,
18,
17,
17,
18,
18,
17,
16,
16,
16,
16,
15,
15,
15,
15,
14,
15,
15,
14,
13,
13,
14,
13,
13,
13,
14,
12,
13,
12,
12,
12,
12,
12,
13,
12,
11,
12,
11,
11,
10,
9,
11,
10,
10,
9,
10,
9,
9,
9,
10,
9,
9,
8,
10,
9,
8,
8,
9,
