1-signale-auf-leitern/tag_1_daten/daten_versuch1/ALL0011/A0011CH1.CSV

Memory Length,4000,
Trigger Level,3.76000e+01,
Source,CH1,
Probe,1.0X,
Vertical Units,V,
Vertical Scale,2.00000e-02,
Vertical Position,0.00000e+00,
Horizontal Units,S,
Horizontal Scale,2.50000e-08,
Horizontal Position,1.0000000e-07,
Horizontal Mode,Main,
Sampling Period,1.00000e-09,
Firmware,V1.14,
Time, ,
Mode,Fast,
Waveform Data,
-1,
0,
-1,
0,
1,
1,
-1,
-1,
0,
1,
0,
0,
-1,
-1,
0,
0,
-1,
0,
0,
0,
-1,
-1,
0,
2,
-1,
-1,
-1,
0,
-1,
-1,
-1,
-1,
0,
1,
1,
0,
0,
1,
-1,
-2,
-1,
-1,
-1,
0,
-1,
-1,
-1,
0,
1,
1,
-1,
-1,
-1,
-1,
0,
0,
-1,
-1,
0,
0,
-1,
0,
-1,
-1,
0,
0,
0,
0,
-1,
-1,
0,
1,
-2,
-1,
-1,
0,
0,
1,
-1,
-1,
0,
1,
0,
0,
-1,
-1,
-1,
0,
-1,
-2,
-1,
-1,
0,
1,
-1,
-1,
0,
0,
0,
0,
0,
0,
0,
1,
0,
0,
-1,
-1,
0,
1,
-2,
-2,
-1,
-1,
1,
1,
-1,
-1,
0,
1,
0,
1,
-1,
-1,
0,
0,
-1,
-1,
-1,
-1,
-1,
0,
-1,
-1,
0,
1,
0,
1,
0,
-1,
-1,
-1,
-1,
0,
-1,
-2,
0,
1,
0,
1,
-1,
-1,
0,
1,
-1,
-1,
-1,
-1,
0,
0,
-1,
-1,
0,
0,
0,
0,
-2,
-2,
-1,
0,
-1,
0,
-1,
-1,
-1,
0,
-1,
-1,
-1,
0,
0,
0,
-1,
-1,
-1,
-1,
-1,
0,
0,
0,
-1,
0,
0,
1,
-1,
-1,
0,
1,
-2,
-2,
0,
0,
1,
1,
-1,
-1,
-1,
0,
-2,
-1,
-1,
0,
0,
1,
-1,
-1,
-1,
0,
0,
0,
0,
0,
-1,
-1,
-1,
-1,
0,
0,
-1,
-1,
1,
1,
1,
0,
-2,
-1,
0,
-1,
-1,
0,
0,
1,
0,
0,
0,
1,
-1,
-2,
-1,
-1,
-1,
0,
0,
-1,
0,
2,
0,
1,
0,
0,
0,
1,
-1,
-2,
-1,
0,
-1,
0,
-1,
-2,
-1,
0,
-1,
-1,
1,
1,
-1,
0,
-1,
-1,
0,
0,
-1,
-1,
1,
1,
-1,
-1,
0,
1,
0,
0,
-1,
-1,
0,
1,
0,
-1,
-1,
-1,
0,
0,
-1,
0,
0,
0,
0,
0,
0,
1,
-1,
-1,
0,
0,
-1,
0,
-1,
-1,
0,
1,
-1,
-2,
0,
0,
-1,
0,
0,
0,
0,
1,
-1,
-1,
1,
1,
-1,
-1,
0,
0,
1,
1,
-1,
-1,
0,
1,
-1,
-1,
-1,
0,
-1,
-1,
-1,
0,
0,
1,
0,
0,
-1,
0,
-1,
-2,
-1,
0,
-1,
0,
-1,
-1,
-1,
0,
-1,
-1,
1,
1,
-1,
-1,
0,
1,
1,
1,
-1,
-1,
0,
1,
-2,
-2,
-1,
-1,
0,
0,
-1,
-1,
0,
1,
-1,
-1,
0,
0,
0,
0,
-1,
0,
0,
0,
1,
1,
0,
1,
-1,
-1,
-1,
0,
-1,
0,
-1,
-1,
0,
1,
-1,
-1,
0,
0,
-1,
0,
-1,
-2,
0,
1,
-1,
-1,
0,
0,
-1,
0,
0,
0,
1,
1,
-1,
-1,
1,
2,
0,
-1,
-2,
-1,
0,
0,
-1,
0,
0,
1,
0,
0,
0,
1,
-1,
-1,
-1,
0,
0,
0,
-1,
-1,
-1,
0,
-1,
-1,
0,
0,
-1,
-1,
0,
0,
-1,
0,
-1,
0,
0,
1,
-1,
-2,
-1,
-1,
0,
0,
-1,
-1,
0,
0,
-1,
-1,
-1,
-1,
0,
0,
-1,
0,
0,
1,
0,
0,
0,
1,
-1,
-1,
-1,
-1,
-1,
-1,
0,
0,
0,
1,
-1,
-1,
-1,
0,
0,
0,
-1,
-2,
0,
1,
0,
-1,
0,
0,
-1,
-1,
-1,
-1,
0,
0,
-2,
-2,
0,
1,
1,
0,
-1,
-1,
0,
0,
-1,
-1,
0,
1,
0,
0,
-1,
-1,
-1,
-1,
-1,
-2,
-1,
0,
0,
0,
-1,
0,
-1,
-1,
0,
0,
-1,
0,
-1,
-2,
0,
0,
-1,
-1,
-1,
-2,
0,
1,
-1,
-1,
1,
1,
-1,
0,
-1,
-1,
0,
0,
0,
0,
0,
1,
-1,
-1,
-1,
0,
-1,
-1,
0,
0,
0,
0,
-1,
-1,
-1,
-1,
-1,
-1,
0,
1,
0,
0,
1,
1,
0,
1,
-1,
-2,
-1,
0,
-1,
0,
-1,
-1,
0,
1,
-1,
-1,
0,
0,
0,
0,
-1,
0,
0,
1,
0,
-1,
0,
1,
-2,
-2,
-1,
0,
1,
1,
-1,
-1,
0,
1,
-1,
-1,
-1,
0,
0,
0,
-1,
0,
0,
1,
0,
0,
0,
1,
-2,
-3,
-1,
0,
-1,
-1,
-1,
-1,
0,
1,
0,
0,
0,
0,
-1,
-1,
-1,
0,
0,
1,
-1,
-1,
0,
1,
-1,
-2,
-1,
0,
0,
0,
-1,
-1,
0,
1,
1,
0,
-1,
0,
0,
-1,
-1,
0,
0,
0,
0,
0,
-1,
0,
-1,
-1,
-1,
-1,
-1,
0,
-1,
-1,
-1,
0,
-2,
-2,
-1,
0,
-1,
-1,
-2,
-1,
0,
1,
0,
-1,
0,
0,
-1,
0,
-1,
-1,
1,
1,
-1,
-1,
0,
0,
0,
0,
-1,
-1,
1,
1,
-2,
-2,
0,
0,
0,
0,
-1,
-1,
0,
0,
-1,
-1,
-1,
0,
-1,
-1,
0,
1,
-1,
-1,
-1,
-1,
0,
1,
-1,
-1,
0,
0,
-1,
-1,
-1,
-1,
0,
1,
-1,
-2,
1,
1,
-1,
-1,
0,
0,
1,
1,
-1,
-1,
1,
1,
-2,
-2,
0,
0,
1,
1,
-1,
-1,
-1,
0,
-1,
-1,
-1,
0,
-1,
-1,
0,
1,
0,
1,
0,
0,
-1,
0,
-1,
-1,
-1,
-1,
-1,
-1,
-1,
-1,
0,
1,
-1,
-1,
1,
1,
-1,
-1,
0,
0,
0,
1,
-1,
-1,
0,
1,
-2,
-2,
-1,
0,
0,
0,
-1,
-1,
0,
1,
-1,
-1,
-1,
-1,
0,
0,
-2,
-2,
0,
0,
0,
0,
0,
0,
0,
0,
-1,
-1,
-1,
0,
-1,
-1,
0,
1,
-1,
-1,
1,
1,
0,
0,
-1,
0,
-1,
0,
-1,
-1,
0,
1,
-2,
-2,
-1,
0,
0,
0,
-1,
-1,
0,
1,
-1,
-1,
-1,
0,
1,
1,
-1,
-2,
0,
0,
0,
0,
-1,
-1,
-1,
0,
-1,
-1,
0,
0,
-1,
-1,
0,
0,
-1,
-1,
-1,
0,
0,
-1,
0,
1,
0,
0,
-1,
-1,
0,
1,
-1,
-1,
-1,
-1,
-1,
0,
-1,
-1,
0,
1,
2,
1,
0,
0,
-1,
0,
-1,
-2,
-1,
-1,
-2,
-2,
-1,
-1,
-2,
-1,
-1,
-2,
-1,
0,
-1,
-1,
0,
1,
1,
0,
-1,
0,
0,
1,
-2,
-2,
-1,
0,
-1,
-1,
-1,
-1,
0,
1,
-1,
-1,
0,
0,
0,
0,
-1,
-2,
0,
0,
0,
0,
-1,
-1,
-1,
0,
-2,
-2,
-1,
-1,
-1,
-1,
0,
1,
-1,
-1,
1,
1,
-1,
-1,
-2,
-2,
-1,
0,
-1,
-1,
0,
1,
-1,
-2,
-1,
0,
0,
0,
-1,
-1,
0,
1,
0,
0,
1,
1,
0,
0,
-1,
-2,
-1,
0,
-1,
0,
0,
0,
0,
0,
-1,
-1,
-1,
0,
0,
0,
0,
1,
-1,
-2,
-1,
-1,
-1,
-1,
-1,
0,
0,
1,
0,
0,
-1,
-1,
0,
0,
0,
0,
0,
0,
0,
0,
-1,
-1,
-2,
-2,
1,
1,
0,
1,
-1,
-2,
-1,
0,
-1,
0,
-1,
-1,
-1,
-1,
-1,
-1,
1,
1,
-1,
-1,
0,
0,
0,
0,
-1,
-1,
-1,
-1,
-1,
0,
0,
0,
1,
1,
0,
1,
-1,
-1,
-1,
0,
-1,
0,
0,
0,
-1,
0,
0,
1,
0,
0,
0,
1,
-1,
-2,
-1,
-1,
-1,
-1,
-1,
-1,
0,
1,
-1,
-2,
0,
0,
-1,
-1,
0,
0,
-1,
-1,
-1,
-1,
0,
0,
-1,
-1,
0,
0,
0,
0,
-1,
-1,
0,
0,
0,
0,
-1,
0,
0,
1,
-1,
-1,
0,
0,
0,
0,
-1,
-1,
0,
0,
-2,
-2,
-1,
0,
0,
0,
-1,
0,
-1,
-1,
0,
0,
-1,
-1,
-1,
0,
0,
0,
-1,
-1,
-1,
-1,
0,
1,
0,
0,
0,
0,
-1,
-1,
0,
0,
0,
1,
-1,
-1,
0,
1,
-1,
-1,
0,
0,
0,
0,
-1,
-1,
0,
0,
0,
0,
-1,
-1,
-1,
-1,
0,
1,
-1,
-1,
-1,
0,
-1,
-1,
-1,
0,
-1,
-1,
-1,
-1,
0,
0,
-1,
0,
-1,
-2,
-1,
0,
-1,
-1,
-1,
0,
0,
1,
-1,
-1,
-1,
-1,
0,
0,
-1,
-1,
0,
0,
0,
0,
-2,
-2,
-1,
0,
-1,
0,
-1,
-1,
0,
0,
-1,
-1,
-1,
-1,
-1,
-1,
-1,
-1,
-1,
-1,
0,
0,
-1,
-1,
0,
0,
-1,
-1,
-1,
-1,
0,
1,
-1,
-1,
-1,
-1,
1,
1,
-1,
-1,
0,
1,
0,
0,
-1,
0,
0,
1,
-2,
-3,
-1,
-1,
1,
1,
-1,
-1,
0,
0,
-1,
-1,
-1,
0,
0,
0,
-1,
0,
-1,
-1,
-1,
0,
-1,
-1,
0,
1,
0,
1,
0,
-1,
-2,
-2,
-1,
0,
-1,
-1,
-1,
0,
0,
1,
-1,
-1,
-1,
0,
0,
-1,
0,
0,
-1,
-1,
-1,
-2,
0,
0,
-1,
-1,
0,
0,
-1,
0,
0,
0,
-1,
-1,
0,
1,
0,
0,
-1,
0,
0,
0,
-1,
-1,
-1,
-1,
-1,
0,
-1,
-1,
0,
1,
0,
0,
0,
-1,
0,
1,
-1,
-2,
-1,
-1,
-1,
-1,
-1,
-1,
0,
1,
-1,
-2,
0,
1,
-1,
-1,
-1,
-1,
-2,
-1,
-1,
0,
0,
1,
-2,
-2,
-1,
0,
-1,
0,
-1,
-2,
0,
1,
0,
0,
-1,
0,
0,
1,
-1,
-1,
0,
1,
0,
0,
-1,
-1,
-1,
-1,
-1,
-1,
-1,
0,
0,
0,
-1,
0,
-1,
-1,
-1,
0,
-1,
-1,
0,
1,
0,
1,
0,
-1,
-1,
-1,
-1,
0,
-1,
-1,
-1,
0,
-1,
-1,
-1,
0,
0,
0,
-1,
-1,
0,
1,
-2,
-2,
-1,
-1,
0,
0,
-1,
-1,
-1,
0,
-1,
0,
-1,
0,
-1,
-1,
0,
1,
-1,
0,
0,
0,
0,
1,
-2,
-3,
-1,
-1,
-1,
-1,
-1,
-1,
0,
1,
-1,
-1,
0,
0,
0,
1,
-1,
-2,
0,
0,
-1,
-1,
-1,
-1,
0,
1,
0,
0,
-1,
0,
-1,
-1,
-1,
0,
-1,
-1,
-1,
0,
0,
1,
-1,
-1,
0,
1,
-1,
-1,
0,
0,
-1,
-1,
-2,
-2,
-1,
-1,
-1,
-1,
-1,
1,
0,
1,
0,
0,
-1,
-1,
-1,
-1,
-1,
-1,
-1,
-1,
0,
1,
-2,
-2,
-1,
0,
-1,
0,
-1,
-2,
0,
1,
0,
1,
0,
-1,
0,
1,
-1,
-1,
-1,
0,
-1,
-1,
-1,
-1,
-1,
0,
-1,
-1,
0,
0,
0,
1,
-1,
-1,
-1,
-1,
-1,
0,
-1,
-2,
-1,
0,
0,
1,
-1,
-1,
-1,
-1,
-1,
0,
-1,
-2,
-1,
0,
0,
0,
-1,
0,
0,
0,
0,
0,
0,
1,
-2,
-2,
-1,
0,
-1,
-1,
0,
0,
0,
1,
0,
1,
-1,
-1,
-1,
-1,
0,
0,
-1,
0,
-1,
-1,
0,
1,
-2,
-2,
-2,
-1,
0,
0,
-1,
-1,
0,
2,
-1,
0,
0,
0,
-1,
-1,
0,
1,
0,
0,
-1,
-1,
0,
0,
-1,
0,
-1,
0,
-1,
-1,
-1,
-1,
0,
1,
-1,
-1,
1,
1,
0,
1,
-1,
-2,
0,
1,
0,
-1,
0,
-1,
-1,
0,
-1,
-1,
-1,
0,
0,
0,
-1,
-1,
-1,
-1,
-1,
0,
0,
0,
-1,
0,
-1,
0,
0,
0,
0,
0,
-1,
-1,
0,
0,
-1,
0,
-1,
-1,
-1,
0,
0,
1,
0,
0,
0,
0,
-1,
-2,
0,
0,
-1,
0,
0,
0,
-1,
0,
-1,
-1,
0,
0,
-1,
-1,
0,
0,
-1,
0,
-1,
-1,
-1,
-1,
-1,
0,
-1,
0,
-1,
-1,
0,
0,
-1,
0,
-1,
-1,
0,
0,
-1,
-1,
-1,
-1,
-1,
-1,
1,
1,
0,
1,
0,
-1,
0,
0,
-1,
-1,
-1,
-1,
0,
1,
-1,
-1,
0,
0,
-1,
-1,
-1,
-1,
-1,
0,
0,
0,
0,
1,
-1,
-2,
-1,
0,
0,
0,
-1,
-1,
0,
1,
-1,
-1,
-1,
0,
-1,
-1,
0,
1,
0,
1,
0,
-1,
-1,
0,
-1,
-2,
0,
0,
0,
0,
-1,
-1,
1,
2,
-1,
-2,
-1,
0,
1,
1,
6,
10,
21,
27,
44,
49,
64,
70,
75,
77,
74,
73,
64,
62,
52,
50,
43,
41,
32,
30,
27,
26,
24,
24,
23,
23,
19,
18,
15,
14,
13,
12,
10,
10,
8,
8,
7,
7,
5,
5,
4,
3,
3,
2,
2,
2,
1,
1,
1,
2,
0,
0,
2,
2,
1,
1,
0,
0,
1,
1,
-1,
-1,
-7,
-9,
-17,
-20,
-34,
-38,
-50,
-54,
-63,
-66,
-67,
-67,
-64,
-62,
-55,
-53,
-45,
-43,
-37,
-35,
-32,
-30,
-26,
-25,
-24,
-24,
-21,
-19,
-19,
-18,
-15,
-14,
-12,
-11,
-9,
-8,
-7,
-7,
-7,
-7,
-6,
-5,
-5,
-5,
-4,
-3,
-3,
-2,
-3,
-3,
-2,
-1,
-3,
-3,
-2,
-1,
-2,
-2,
-1,
-1,
-2,
-2,
-4,
-4,
-6,
-7,
-9,
-9,
-9,
-8,
-6,
-5,
-3,
-2,
2,
3,
4,
4,
4,
4,
2,
2,
1,
1,
0,
0,
1,
1,
0,
0,
0,
1,
0,
0,
0,
0,
0,
0,
-1,
-1,
0,
0,
0,
0,
0,
-1,
0,
0,
-2,
-1,
0,
0,
-1,
-1,
-1,
0,
0,
0,
0,
1,
-1,
-2,
-1,
1,
-2,
-2,
-3,
-3,
-2,
-2,
-1,
-1,
0,
1,
1,
1,
1,
1,
0,
1,
-1,
-1,
-1,
-1,
0,
0,
-2,
-3,
-1,
-1,
0,
0,
-1,
-1,
0,
1,
-1,
0,
-1,
-1,
0,
0,
-2,
-3,
-2,
-1,
0,
0,
-1,
-1,
0,
1,
-1,
-1,
-1,
0,
0,
0,
-1,
-1,
1,
1,
-2,
-2,
-1,
0,
-2,
-2,
-2,
-2,
0,
0,
-1,
-1,
0,
1,
-1,
-1,
-1,
-1,
-1,
0,
-2,
-3,
-1,
-1,
-1,
-1,
0,
0,
-1,
0,
-1,
-1,
0,
0,
-1,
-1,
-1,
0,
0,
0,
-1,
0,
0,
1,
-1,
-2,
0,
0,
-1,
0,
-1,
-1,
-1,
0,
-1,
-1,
0,
0,
-1,
-1,
-1,
-1,
0,
0,
-1,
0,
-1,
-1,
-1,
0,
-1,
-1,
-1,
0,
-1,
-1,
0,
1,
-1,
-1,
-1,
0,
-1,
-1,
-1,
0,
0,
0,
0,
0,
0,
1,
-2,
-3,
-1,
0,
-1,
-1,
-1,
-1,
0,
1,
-1,
-2,
-1,
0,
0,
1,
-1,
-2,
-1,
0,
-1,
0,
0,
0,
-1,
0,
-2,
-2,
0,
0,
-1,
-1,
0,
1,
-1,
-1,
-1,
0,
0,
0,
-1,
-1,
0,
0,
0,
0,
0,
1,
-1,
-1,
-1,
-1,
-1,
0,
-1,
-1,
-1,
0,
0,
1,
1,
0,
0,
1,
-1,
-2,
0,
0,
-1,
0,
0,
0,
-1,
0,
-1,
-1,
-1,
0,
-1,
-1,
0,
1,
-1,
-1,
-1,
-1,
0,
1,
-1,
-1,
0,
1,
0,
-1,
-2,
-2,
0,
1,
-1,
-1,
-1,
0,
0,
0,
0,
1,
0,
1,
0,
0,
0,
1,
-1,
-2,
-1,
0,
-1,
-1,
-1,
-1,
-1,
0,
-2,
-2,
-1,
0,
-1,
-1,
0,
1,
0,
1,
-1,
-1,
0,
0,
-2,
-2,
-1,
0,
-1,
-1,
-1,
-1,
0,
1,
-1,
-1,
-1,
-1,
-1,
-1,
-2,
-1,
0,
0,
0,
0,
0,
1,
-1,
-1,
-1,
-1,
-1,
0,
-1,
-1,
-1,
0,
-1,
-1,
0,
0,
-1,
-1,
-1,
0,
-1,
0,
-1,
0,
0,
1,
-2,
-2,
-1,
0,
0,
0,
-1,
-1,
0,
1,
-1,
-2,
-1,
0,
1,
1,
-2,
-2,
0,
1,
0,
-1,
-1,
-1,
0,
0,
-1,
-1,
-1,
-1,
-1,
-1,
0,
1,
-1,
-1,
-1,
0,
-1,
-1,
-1,
0,
0,
1,
-1,
-1,
0,
0,
-2,
-2,
-1,
-1,
0,
0,
-1,
-1,
0,
0,
1,
0,
-1,
-1,
0,
1,
-1,
-1,
0,
0,
1,
1,
-1,
-1,
-1,
-1,
-1,
-1,
-1,
0,
-1,
-1,
-1,
0,
-1,
-1,
-1,
0,
1,
1,
-1,
-2,
-1,
0,
-1,
-1,
-1,
-1,
0,
1,
-1,
-1,
-1,
0,
-1,
-1,
-1,
0,
0,
1,
0,
0,
0,
1,
-2,
-3,
-2,
-1,
0,
0,
-1,
-1,
-1,
0,
-1,
-1,
-1,
0,
-1,
-1,
0,
0,
1,
1,
0,
0,
0,
1,
-2,
-3,
-1,
-1,
-1,
-1,
-1,
-1,
0,
1,
-1,
-1,
-1,
0,
0,
1,
-1,
-1,
0,
1,
1,
0,
-1,
-1,
-1,
0,
-1,
-1,
-1,
-1,
-1,
-1,
0,
1,
-1,
-1,
0,
0,
0,
1,
-1,
-1,
0,
1,
-1,
-1,
-1,
0,
-1,
-1,
-1,
-2,
0,
0,
-1,
-1,
-1,
0,
0,
1,
0,
-1,
0,
1,
-1,
-2,
-1,
0,
0,
0,
-1,
-1,
0,
0,
-1,
-1,
-2,
-1,
-1,
-1,
0,
1,
0,
1,
0,
-1,
0,
1,
-1,
-2,
-1,
0,
-1,
-1,
0,
0,
0,
1,
-1,
-1,
-1,
0,
0,
0,
-1,
0,
-1,
0,
0,
-1,
0,
1,
-2,
-2,
0,
0,
0,
0,
-1,
-1,
0,
1,
-1,
-1,
-1,
0,
-1,
-1,
0,
1,
0,
1,
1,
0,
0,
1,
-2,
-3,
-2,
-1,
0,
0,
-1,
-1,
0,
1,
0,
-1,
-1,
0,
-1,
-1,
-1,
-1,
-1,
0,
-1,
-1,
0,
1,
-1,
-2,
-1,
-1,
1,
1,
-1,
-1,
0,
1,
-1,
-1,
-1,
-1,
0,
1,
-1,
-1,
0,
1,
0,
0,
-1,
0,
-1,
-1,
-1,
-1,
0,
0,
-1,
-1,
-1,
0,
-2,
-2,
-1,
0,
0,
1,
-1,
-1,
0,
1,
-1,
-1,
0,
0,
-1,
0,
-2,
-2,
0,
0,
-1,
-1,
-1,
0,
0,
1,
-1,
-1,
0,
1,
-1,
-1,
-1,
0,
-1,
-1,
0,
0,
0,
1,
-1,
-1,
0,
0,
0,
-1,
0,
0,
-1,
1,
0,
-1,
0,
1,
-1,
-2,
-1,
-1,
-1,
-1,
-1,
-1,
0,
0,
-1,
-1,
-1,
-1,
0,
0,
-1,
0,
0,
1,
0,
0,
0,
1,
-1,
-2,
-1,
0,
-1,
-1,
-1,
-1,
0,
1,
0,
-1,
-1,
0,
1,
1,
-1,
-1,
0,
1,
0,
-1,
0,
0,
-1,
0,
-1,
-1,
0,
0,
-1,
-1,
0,
1,
0,
0,
-1,
0,
0,
0,
-1,
0,
0,
0,
0,
0,
0,
1,
-1,
-2,
-1,
-1,
-1,
-1,
-1,
-1,
-1,
0,
1,
0,
0,
-1,
-1,
0,
-1,
-2,
-1,
0,
-1,
0,
-1,
-1,
0,
1,
0,
0,
0,
0,
-1,
-1,
-1,
0,
-1,
-1,
-1,
0,
1,
1,
-1,
-1,
0,
1,
0,
0,
-1,
-1,
1,
2,
0,
0,
0,
0,
0,
0,
-1,
0,
-1,
-1,
0,
0,
-1,
-1,
-1,
-1,
-1,
-1,
-1,
-1,
0,
1,
-1,
-1,
-1,
-1,
-1,
0,
-1,
-1,
0,
1,
1,
1,
-1,
-1,
-1,
-1,
0,
1,
-1,
-1,
1,
1,
0,
1,
-1,
-2,
-1,
0,
-1,
0,
0,
0,
-1,
0,
-1,
-1,
-1,
0,
-1,
-1,
-1,
0,
0,
0,
0,
0,
-1,
-1,
0,
0,
-1,
-1,
-1,
-1,
0,
0,
-1,
-1,
-1,
-1,
-1,
0,
-1,
-1,
-1,
0,
0,
1,
1,
0,
-1,
0,
-1,
-2,
-1,
0,
-1,
-1,
-1,
-1,
0,
1,
-1,
-1,
-1,
0,
0,
1,
-2,
-2,
-1,
-1,
-1,
0,
0,
0,
-1,
-1,
0,
0,
0,
0,
-1,
-1,
0,
0,
0,
0,
0,
0,
-1,
-1,
-1,
-1,
0,
0,
1,
1,
0,
1,
-2,
-2,
-2,
-1,
-1,
0,
-1,
-1,
-1,
0,
0,
1,
-1,
-1,
-1,
-1,
0,
1,
0,
0,
-1,
-1,
-1,
-1,
-1,
-1,
-1,
-1,
1,
1,
0,
0,
0,
1,
-1,
0,
-1,
0,
1,
1,
-1,
-2,
-1,
0,
0,
-1,
-1,
-1,
-1,
0,
-1,
-1,
-1,
0,
-1,
-1,
-1,
0,
-1,
-1,
0,
0,
0,
1,
-1,
-2,
-1,
0,
0,
0,
-1,
-1,
0,
1,
-1,
-1,
-1,
0,
0,
0,
0,
0,
1,
1,
0,
0,
0,
1,
-2,
-3,
-1,
-1,
-1,
-1,
0,
0,
0,
1,
-2,
-2,
-1,
0,
-1,
-1,
0,
1,
0,
1,
1,
0,
0,
1,
-1,
-1,
-2,
-1,
0,
0,
-1,
-1,
0,
1,
0,
0,
-1,
0,
0,
1,
-1,
-1,
0,
1,
0,
-1,
-1,
-1,
-1,
-1,
-1,
0,
0,
0,
0,
0,
0,
1,
-2,
-2,
-1,
0,
0,
1,
-1,
-1,
0,
1,
0,
0,
-1,
-1,
0,
1,
-1,
-1,
-1,
0,
0,
0,
-1,
0,
0,
1,
0,
-1,
-1,
-1,
-1,
-1,
0,
0,
0,
0,
-1,
0,
-1,
-1,
-1,
0,
-1,
-1,
-1,
-1,
0,
1,
0,
1,
0,
-1,
0,
1,
-1,
-2,
0,
0,
-1,
0,
-1,
-1,
0,
1,
-1,
-1,
0,
0,
-1,
-1,
-1,
-1,
0,
0,
0,
0,
-1,
-1,
-1,
-1,
-1,
-1,
-1,
0,
-1,
-1,
-1,
0,
-1,
-1,
0,
0,
0,
0,
-1,
0,
0,
0,
0,
0,
0,
1,
-1,
-2,
-1,
0,
-1,
0,
-1,
-1,
0,
1,
-1,
-1,
-1,
-1,
0,
1,
-2,
-2,
-1,
0,
0,
0,
-1,
-1,
-1,
0,
-1,
0,
-1,
-1,
-1,
-1,
0,
1,
-1,
-1,
-1,
-1,
-1,
-1,
-1,
0,
0,
1,
0,
0,
0,
1,
-1,
-2,
-1,
0,
-1,
0,
-1,
-1,
0,
1,
0,
1,
0,
0,
-1,
-1,
-1,
-1,
-1,
-1,
-1,
0,
0,
1,
-2,
-2,
-2,
-1,
-1,
-1,
-1,
-2,
0,
1,
-1,
-1,
-1,
0,
-1,
-1,
0,
1,
0,
1,
0,
0,
-1,
0,
-1,
0,
-1,
0,
0,
0,
0,
1,
-1,
-1,
-1,
0,
-1,
0,
-1,
-1,
-1,
0,
0,
1,
-1,
-1,
0,
0,
-1,
0,
-1,
-1,
0,
0,
-1,
-2,
0,
1,
-1,
0,
0,
0,
-1,
-1,
0,
1,
-1,
0,
0,
0,
0,
0,
-1,
0,
0,
0,
0,
0,
-1,
-1,
-1,
-1,
-1,
0,
-1,
-1,
0,
0,
-2,
-2,
-1,
0,
-1,
0,
-1,
-1,
0,
1,
-1,
0,
-1,
-1,
0,
0,
-1,
-1,
-1,
-1,
1,
1,
-1,
-1,
0,
0,
0,
0,
-1,
-1,
0,
0,
-1,
0,
-1,
-1,
0,
0,
-1,
-1,
-1,
-1,
-1,
0,
0,
0,
-1,
-1,
-1,
-1,
-1,
-1,
-1,
0,
0,
1,
-1,
-1,
0,
0,
0,
0,
-1,
-1,
0,
0,
0,
0,
0,
0,
-1,
0,
-1,
-2,
0,
0,
0,
0,
-1,
-1,
-1,
0,
-1,
-1,
-1,
-1,
0,
1,
-1,
-1,
-1,
-1,
-1,
-1,
-1,
-1,
-1,
0,
0,
1,
0,
-1,
-1,
-1,
-1,
0,
-1,
-1,
-1,
0,
0,
0,
0,
1,
0,
0,
0,
0,
0,
1,
-1,
-2,
-1,
-1,
-1,
0,
-1,
-1,
-1,
0,
0,
1,
0,
0,
-1,
-1,
0,
1,
0,
0,
0,
0,
0,
1,
-1,
-1,
-1,
0,
0,
0,
-1,
-2,
0,
1,
-1,
-1,
0,
0,
1,
1,
-2,
-2,
1,
2,
0,
0,
-2,
-2,
-1,
0,
-1,
0,
-1,
0,
-1,
-1,
0,
0,
-1,
-1,
-1,
0,
0,
0,
-1,
0,
0,
1,
0,
0,
0,
1,
-1,
-1,
-1,
0,
-1,
0,
-1,
-1,
0,
1,
1,
1,
-1,
-1,
0,
0,
0,
1,
-1,
0,
0,
0,
0,
1,
-1,
-1,
0,
0,
0,
0,
-2,
-2,
0,
1,
-1,
-1,
-1,
-1,
0,
-1,
-1,
0,
0,
0,
-1,
-1,
-1,
-1,
-1,
-1,
0,
0,
0,
0,
-1,
-1,
0,
0,
-1,
-1,
-1,
0,
-1,
-1,
-1,
0,
0,
1,
-1,
-1,
0,
1,
-2,
-2,
-1,
0,
0,
0,
-1,
-1,
0,
1,
0,
0,
-1,
0,
0,
0,
0,
0,
-1,
-1,
-1,
-1,
0,
1,
-1,
-1,
0,
0,
0,
0,
-1,
-1,
0,
1,
-1,
-1,
-1,
0,
-1,
-1,
-1,
-1,
0,
1,
-1,
-1,
-1,
-1,
-1,
0,
-1,
-1,
-1,
0,
0,
1,
-1,
-2,
-1,
0,
0,
0,
-1,
-1,
0,
1,
0,
1,
-1,
-1,
0,
0,
-1,
-1,
0,
0,
1,
1,
-1,
-1,
0,
0,
-1,
0,
0,
0,
0,
1,
-1,
-1,
-1,
-1,
-1,
0,
-1,
-1,
0,
1,
1,
2,
0,
0,
-1,
0,
-1,
-1,
-1,
-1,
-1,
-1,
-1,
-1,
-1,
0,
-2,
-1,
-1,
-1,
-1,
-1,
-1,
-1,
-2,
-1,
-1,
0,
0,
1,
-1,
-1,
0,
1,
0,
-1,
-1,
-1,
0,
1,
0,
0,
0,
0,
0,
1,
-1,
-1,
-1,
0,
-1,
-1,
-1,
-1,
-1,
0,
-2,
-1,
-1,
0,
-1,
-1,
-1,
0,
-1,
-1,
-1,
-1,
-1,
-1,
0,
1,
-1,
0,
-1,
-1,
-1,
-1,
-1,
0,
-1,
-2,
-1,
0,
0,
0,
-1,
0,
0,
0,
0,
0,
-1,
0,
-1,
-2,
-2,
-1,
-1,
-1,
0,
0,
-1,
0,
-1,
-1,
0,
0,
-1,
-1,
0,
1,
-1,
0,
0,
0,
0,
1,
-1,
-1,
0,
0,
-1,
-1,
-1,
-1,
0,
1,
0,
-1,
-1,
0,
0,
1,
-2,
-2,
-1,
-1,
1,
1,
-1,
-1,
-1,
-1,
-1,
0,
0,
0,
-1,
-1,
0,
1,
-2,
-2,
-1,
-1,
-1,
-1,
-1,
0,
0,
1,
0,
-1,
-1,
0,
-2,
-3,
