5-grundlagen-opAmps/data/ALL0057/A0057CH2.CSV

Memory Length,4000,
Trigger Level,0.00000e+00,
Source,CH2,
Probe,1.0X,
Vertical Units,V,
Vertical Scale,5.00000e-02,
Vertical Position,0.00000e+00,
Horizontal Units,S,
Horizontal Scale,1.00000e-07,
Horizontal Position,0.0000000e+00,
Horizontal Mode,Main,
Sampling Period,2.00000e-09,
Firmware,V1.14,
Time, ,
Mode,Fast,
Waveform Data,
-63,
-63,
-63,
-63,
-62,
-63,
-61,
-59,
-59,
-59,
-57,
-54,
-52,
-50,
-51,
-49,
-47,
-45,
-42,
-41,
-40,
-38,
-37,
-32,
-30,
-29,
-26,
-24,
-21,
-17,
-14,
-12,
-12,
-9,
-5,
-1,
1,
1,
1,
3,
7,
12,
13,
14,
15,
20,
27,
27,
25,
27,
31,
35,
36,
34,
35,
36,
39,
42,
42,
40,
41,
44,
49,
50,
47,
45,
48,
51,
51,
49,
48,
48,
46,
46,
47,
47,
45,
43,
44,
44,
44,
41,
40,
39,
38,
39,
38,
34,
28,
27,
27,
26,
23,
18,
16,
17,
16,
12,
9,
6,
4,
3,
2,
-1,
-6,
-9,
-12,
-14,
-15,
-17,
-20,
-24,
-26,
-27,
-29,
-29,
-32,
-38,
-39,
-38,
-37,
-42,
-48,
-50,
-51,
-49,
-49,
-56,
-60,
-59,
-56,
-54,
-58,
-64,
-65,
-62,
-58,
-62,
-65,
-68,
-65,
-63,
-61,
-64,
-66,
-65,
-64,
-59,
-58,
-59,
-60,
-59,
-54,
-53,
-52,
-53,
-53,
-50,
-47,
-44,
-43,
-44,
-43,
-40,
-32,
-31,
-31,
-29,
-27,
-21,
-17,
-17,
-18,
-18,
-12,
-8,
-6,
-7,
-5,
-1,
4,
6,
9,
10,
12,
17,
19,
22,
22,
25,
27,
30,
29,
30,
32,
37,
38,
39,
39,
42,
43,
45,
48,
46,
47,
49,
51,
52,
50,
49,
50,
51,
51,
51,
50,
51,
51,
52,
51,
49,
47,
47,
48,
46,
43,
40,
39,
39,
39,
38,
37,
34,
30,
31,
32,
28,
24,
19,
19,
19,
18,
11,
5,
4,
6,
7,
2,
-4,
-8,
-7,
-4,
-8,
-14,
-19,
-18,
-17,
-19,
-27,
-32,
-32,
-31,
-33,
-35,
-41,
-43,
-43,
-41,
-42,
-46,
-48,
-48,
-48,
-50,
-52,
-54,
-56,
-57,
-59,
-56,
-57,
-58,
-58,
-59,
-58,
-56,
-56,
-56,
-57,
-57,
-56,
-53,
-53,
-54,
-55,
-53,
-49,
-47,
-48,
-48,
-46,
-43,
-40,
-37,
-37,
-34,
-34,
-31,
-28,
-26,
-24,
-23,
-21,
-19,
-16,
-10,
-11,
-11,
-7,
-2,
2,
4,
3,
6,
10,
16,
19,
17,
17,
20,
25,
29,
27,
26,
28,
33,
39,
41,
39,
38,
43,
46,
48,
49,
47,
47,
51,
53,
55,
51,
51,
54,
56,
56,
54,
55,
55,
54,
56,
57,
55,
52,
51,
52,
52,
51,
49,
47,
48,
48,
47,
46,
43,
40,
41,
41,
38,
33,
30,
29,
29,
26,
20,
19,
19,
18,
15,
11,
7,
8,
8,
6,
1,
-4,
-7,
-5,
-8,
-14,
-19,
-20,
-18,
-20,
-25,
-30,
-30,
-28,
-31,
-34,
-39,
-42,
-40,
-38,
-41,
-47,
-49,
-49,
-47,
-47,
-52,
-54,
-54,
-52,
-52,
-53,
-57,
-58,
-57,
-55,
-54,
-55,
-57,
-57,
-56,
-52,
-52,
-51,
-54,
-52,
-49,
-44,
-44,
-46,
-47,
-45,
-38,
-36,
-39,
-38,
-38,
-32,
-27,
-26,
-27,
-26,
-22,
-15,
-13,
-13,
-14,
-10,
-5,
-2,
-1,
-1,
0,
4,
7,
11,
12,
13,
17,
18,
23,
26,
28,
31,
32,
35,
36,
40,
39,
39,
41,
44,
47,
48,
47,
49,
50,
52,
55,
55,
55,
53,
55,
57,
59,
56,
52,
53,
57,
57,
55,
56,
54,
52,
53,
54,
51,
49,
47,
48,
47,
46,
41,
41,
38,
38,
37,
38,
35,
28,
27,
27,
28,
24,
17,
15,
15,
15,
13,
7,
2,
1,
1,
2,
-3,
-10,
-13,
-11,
-9,
-13,
-20,
-23,
-25,
-24,
-26,
-32,
-37,
-38,
-39,
-36,
-40,
-44,
-46,
-48,
-45,
-46,
-51,
-51,
-52,
-53,
-55,
-55,
-57,
-57,
-57,
-58,
-58,
-58,
-59,
-58,
-58,
-58,
-54,
-55,
-55,
-55,
-55,
-51,
-51,
-52,
-52,
-52,
-49,
-48,
-49,
-47,
-42,
-39,
-38,
-36,
-36,
-31,
-28,
-26,
-27,
-26,
-20,
-18,
-16,
-16,
-17,
-12,
-6,
-2,
-3,
-2,
1,
6,
13,
13,
12,
13,
18,
23,
24,
23,
23,
27,
31,
34,
35,
35,
35,
39,
43,
44,
45,
44,
45,
49,
51,
51,
49,
49,
52,
52,
56,
55,
54,
50,
52,
57,
57,
53,
49,
49,
53,
52,
49,
46,
43,
45,
47,
47,
43,
38,
39,
40,
41,
36,
29,
29,
30,
29,
25,
19,
17,
16,
15,
13,
8,
6,
4,
3,
2,
0,
-4,
-5,
-6,
-11,
-14,
-16,
-16,
-20,
-25,
-27,
-29,
-28,
-32,
-35,
-37,
-39,
-39,
-39,
-42,
-46,
-47,
-46,
-48,
-51,
-53,
-56,
-54,
-54,
-53,
-56,
-58,
-58,
-57,
-56,
-55,
-57,
-61,
-61,
-58,
-57,
-56,
-55,
-58,
-57,
-53,
-51,
-50,
-50,
-50,
-48,
-44,
-41,
-44,
-44,
-42,
-38,
-35,
-34,
-35,
-31,
-27,
-23,
-20,
-20,
-20,
-16,
-10,
-7,
-7,
-5,
-4,
1,
3,
3,
6,
7,
11,
14,
17,
19,
20,
24,
27,
28,
30,
33,
35,
38,
39,
40,
42,
42,
44,
45,
48,
47,
49,
50,
52,
52,
53,
56,
57,
55,
57,
55,
56,
55,
53,
55,
55,
52,
52,
53,
54,
52,
51,
47,
47,
49,
49,
48,
43,
38,
39,
41,
39,
32,
27,
28,
30,
28,
24,
18,
16,
18,
19,
16,
9,
3,
2,
6,
3,
-5,
-12,
-11,
-8,
-9,
-16,
-21,
-24,
-23,
-21,
-22,
-29,
-33,
-36,
-35,
-36,
-38,
-44,
-45,
-46,
-45,
-44,
-48,
-53,
-52,
-52,
-49,
-50,
-54,
-57,
-59,
-57,
-54,
-55,
-59,
-61,
-57,
-55,
-54,
-58,
-58,
-57,
-53,
-49,
-52,
-52,
-52,
-50,
-47,
-47,
-47,
-46,
-44,
-43,
-38,
-38,
-35,
-33,
-30,
-28,
-26,
-23,
-21,
-17,
-18,
-17,
-13,
-8,
-8,
-8,
-7,
-1,
3,
5,
7,
7,
10,
15,
19,
21,
21,
23,
27,
28,
29,
30,
31,
34,
36,
41,
41,
43,
42,
43,
47,
50,
50,
49,
50,
50,
51,
53,
55,
51,
49,
52,
54,
57,
53,
50,
51,
54,
54,
52,
48,
48,
48,
47,
47,
43,
38,
39,
42,
41,
36,
32,
32,
34,
31,
27,
24,
22,
20,
18,
15,
11,
9,
8,
7,
3,
0,
-3,
-2,
-4,
-8,
-13,
-13,
-13,
-17,
-20,
-24,
-27,
-27,
-31,
-33,
-37,
-39,
-41,
-39,
-41,
-45,
-46,
-49,
-48,
-48,
-53,
-54,
-56,
-58,
-57,
-56,
-58,
-60,
-63,
-62,
-60,
-58,
-61,
-63,
-65,
-61,
-58,
-57,
-61,
-63,
-61,
-56,
-53,
-55,
-59,
-58,
-51,
-46,
-47,
-49,
-49,
-46,
-39,
-37,
-40,
-42,
-40,
-32,
-27,
-27,
-29,
-29,
-22,
-15,
-13,
-14,
-13,
-10,
-5,
0,
1,
1,
1,
5,
8,
11,
12,
14,
16,
19,
25,
28,
27,
28,
31,
34,
38,
38,
37,
39,
40,
43,
44,
43,
44,
44,
48,
52,
52,
50,
49,
51,
55,
52,
50,
50,
51,
51,
49,
48,
48,
49,
47,
47,
47,
45,
44,
43,
43,
40,
41,
41,
39,
34,
29,
29,
29,
27,
25,
20,
18,
18,
18,
15,
11,
7,
6,
7,
4,
0,
-6,
-7,
-6,
-10,
-13,
-16,
-20,
-20,
-23,
-25,
-28,
-30,
-33,
-33,
-35,
-36,
-40,
-42,
-45,
-46,
-45,
-47,
-49,
-53,
-53,
-53,
-52,
-54,
-57,
-58,
-57,
-55,
-57,
-61,
-63,
-60,
-58,
-58,
-60,
-62,
-61,
-57,
-56,
-56,
-56,
-54,
-53,
-51,
-52,
-51,
-49,
-46,
-47,
-46,
-45,
-42,
-39,
-38,
-37,
-34,
-31,
-24,
-22,
-23,
-23,
-19,
-14,
-12,
-11,
-12,
-8,
-5,
-2,
0,
1,
3,
7,
12,
15,
17,
17,
18,
22,
25,
28,
29,
31,
30,
33,
38,
38,
36,
38,
41,
45,
47,
45,
46,
45,
47,
52,
52,
50,
46,
47,
52,
56,
51,
45,
47,
51,
54,
52,
47,
44,
46,
49,
51,
44,
39,
39,
41,
44,
38,
31,
30,
33,
33,
31,
26,
23,
22,
21,
21,
17,
11,
7,
8,
7,
5,
1,
-4,
-5,
-6,
-8,
-8,
-13,
-16,
-18,
-21,
-21,
-24,
-31,
-32,
-35,
-33,
-36,
-39,
-44,
-44,
-45,
-45,
-45,
-51,
-52,
-51,
-51,
-54,
-57,
-59,
-59,
-58,
-62,
-62,
-63,
-62,
-62,
-62,
-62,
-62,
-62,
-57,
-59,
-61,
-60,
-59,
-57,
-56,
-59,
-59,
-56,
-52,
-52,
-53,
-53,
-49,
-45,
-43,
-43,
-41,
-40,
-35,
-32,
-31,
-31,
-30,
-27,
-23,
-22,
-20,
-17,
-14,
-12,
-8,
-5,
-3,
-1,
1,
5,
9,
11,
14,
14,
15,
18,
21,
24,
23,
24,
28,
33,
34,
35,
35,
36,
41,
43,
43,
43,
43,
45,
47,
48,
46,
45,
49,
51,
50,
49,
49,
51,
50,
49,
51,
50,
49,
48,
46,
45,
44,
46,
45,
42,
38,
39,
41,
40,
36,
32,
32,
32,
30,
25,
20,
17,
18,
18,
16,
11,
6,
6,
7,
6,
2,
-5,
-6,
-6,
-7,
-11,
-15,
-20,
-21,
-22,
-22,
-26,
-31,
-36,
-35,
-35,
-34,
-39,
-44,
-45,
-45,
-44,
-45,
-51,
-56,
-56,
-54,
-52,
-55,
-63,
-63,
-60,
-58,
-57,
-63,
-67,
-64,
-61,
-61,
-63,
-68,
-67,
-63,
-60,
-60,
-63,
-64,
-61,
-54,
-54,
-54,
-56,
-54,
-50,
-49,
-47,
-47,
-47,
-44,
-41,
-40,
-37,
-36,
-32,
-30,
-27,
-24,
-21,
-20,
-19,
-14,
-12,
-9,
-8,
-7,
-4,
-1,
1,
3,
5,
9,
12,
13,
17,
19,
23,
25,
26,
26,
29,
33,
35,
36,
34,
37,
39,
42,
44,
44,
45,
46,
48,
51,
51,
48,
48,
51,
55,
52,
50,
49,
51,
53,
53,
51,
50,
48,
49,
52,
50,
46,
44,
46,
45,
42,
39,
37,
36,
36,
35,
35,
32,
28,
26,
27,
24,
22,
19,
16,
15,
10,
9,
6,
2,
0,
-2,
-2,
-4,
-8,
-13,
-12,
-12,
-14,
-19,
-23,
-26,
-26,
-27,
-31,
-33,
-37,
-39,
-37,
-40,
-44,
-44,
-45,
-46,
-46,
-51,
-50,
-50,
-52,
-55,
-56,
-57,
-54,
-55,
-59,
-60,
-58,
-56,
-55,
-57,
-59,
-57,
-53,
-50,
-53,
-57,
-55,
-52,
-47,
-47,
-50,
-53,
-48,
-44,
-41,
-41,
-42,
-40,
-35,
-30,
-29,
-31,
-29,
-25,
-21,
-19,
-16,
-17,
-16,
-14,
-9,
-4,
-3,
-3,
-1,
4,
10,
12,
13,
13,
14,
20,
26,
24,
22,
25,
29,
35,
34,
33,
33,
37,
42,
44,
42,
42,
43,
47,
51,
51,
48,
47,
51,
55,
53,
52,
51,
52,
53,
53,
55,
54,
52,
53,
55,
52,
49,
48,
48,
46,
45,
44,
44,
43,
41,
39,
39,
37,
36,
33,
31,
27,
26,
25,
22,
19,
17,
13,
12,
11,
8,
5,
3,
0,
-2,
-4,
-4,
-8,
-12,
-17,
-17,
-16,
-19,
-25,
-30,
-30,
-28,
-31,
-36,
-40,
-41,
-40,
-39,
-42,
-47,
-49,
-49,
-47,
-49,
-55,
-58,
-58,
-54,
-53,
-59,
-62,
-62,
-58,
-57,
-59,
-61,
-64,
-61,
-60,
-57,
-58,
-58,
-59,
-57,
-55,
-54,
-51,
-52,
-51,
-49,
-46,
-44,
-44,
-44,
-42,
-40,
-37,
-35,
-35,
-33,
-32,
-27,
-23,
-20,
-20,
-18,
-15,
-12,
-9,
-7,
-4,
-3,
-1,
3,
3,
6,
7,
10,
14,
18,
19,
21,
24,
24,
29,
31,
34,
35,
33,
35,
38,
39,
41,
40,
41,
43,
46,
49,
49,
47,
47,
51,
55,
53,
49,
48,
51,
52,
52,
49,
45,
46,
49,
51,
48,
44,
43,
46,
47,
45,
41,
39,
38,
38,
35,
34,
28,
25,
26,
26,
24,
21,
15,
14,
15,
14,
13,
8,
2,
1,
1,
1,
-4,
-10,
-15,
-13,
-12,
-15,
-23,
-26,
-27,
-24,
-25,
-32,
-36,
-38,
-38,
-36,
-41,
-47,
-47,
-48,
-46,
-48,
-55,
-55,
-55,
-54,
-57,
-59,
-61,
-59,
-59,
-61,
-62,
-62,
-63,
-61,
-62,
-64,
-65,
-61,
-60,
-60,
-60,
-60,
-58,
-55,
-55,
-54,
-55,
-53,
-51,
-50,
-48,
-47,
-47,
-45,
-41,
-38,
-36,
-34,
-31,
-30,
-27,
-22,
-21,
-20,
-20,
-18,
-12,
-9,
-9,
-8,
-6,
-1,
5,
5,
3,
5,
11,
18,
21,
19,
17,
23,
27,
29,
29,
28,
32,
35,
38,
40,
39,
39,
43,
46,
49,
47,
46,
49,
51,
52,
51,
51,
51,
50,
52,
53,
56,
52,
52,
52,
54,
54,
52,
51,
48,
46,
46,
47,
45,
42,
41,
41,
42,
39,
35,
35,
33,
33,
31,
27,
23,
20,
18,
18,
16,
12,
9,
7,
5,
4,
1,
0,
-2,
-7,
-9,
-9,
-11,
-14,
-19,
-23,
-22,
-23,
-26,
-31,
-36,
-36,
-35,
-34,
-38,
-44,
-47,
-43,
-41,
-44,
-50,
-54,
-53,
-50,
-50,
-54,
-60,
-60,
-57,
-55,
-56,
-59,
-61,
-58,
-55,
-54,
-56,
-58,
-59,
-54,
-53,
-53,
-54,
-54,
-52,
-50,
-46,
-45,
-44,
-44,
-42,
-39,
-36,
-35,
-33,
-33,
-31,
-26,
-25,
-24,
-23,
-21,
-15,
-12,
-11,
-9,
-6,
-3,
1,
3,
3,
6,
9,
11,
14,
13,
15,
19,
23,
26,
27,
28,
33,
36,
37,
39,
38,
42,
44,
44,
43,
44,
46,
51,
51,
49,
49,
51,
56,
57,
53,
52,
54,
54,
57,
57,
55,
51,
51,
53,
52,
50,
47,
49,
49,
50,
48,
46,
45,
42,
43,
42,
39,
34,
30,
30,
32,
31,
26,
21,
18,
20,
20,
19,
11,
7,
8,
9,
7,
0,
-7,
-8,
-6,
-7,
-13,
-18,
-22,
-20,
-20,
-23,
-28,
-31,
-33,
-31,
-32,
-35,
-41,
-42,
-41,
-42,
-45,
-48,
-49,
-51,
-52,
-53,
-53,
-53,
-56,
-56,
-58,
-54,
-55,
-56,
-59,
-59,
-57,
-57,
-56,
-58,
-59,
-57,
-54,
-52,
-55,
-54,
-53,
-50,
-48,
-48,
-48,
-47,
-45,
-42,
-40,
-39,
-39,
-37,
-36,
-31,
-27,
-23,
-22,
-22,
-22,
-17,
-13,
-10,
-11,
-10,
-7,
-1,
1,
2,
1,
3,
10,
15,
16,
14,
16,
19,
26,
28,
28,
28,
31,
34,
37,
38,
36,
38,
41,
45,
47,
46,
44,
48,
51,
52,
51,
52,
51,
52,
53,
54,
55,
52,
52,
53,
55,
54,
52,
51,
51,
50,
49,
49,
48,
45,
43,
43,
43,
39,
38,
37,
36,
34,
31,
29,
27,
27,
25,
23,
18,
16,
14,
13,
9,
4,
2,
2,
1,
-4,
-7,
-9,
-8,
-10,
-15,
-19,
-21,
-21,
-23,
-24,
-33,
-38,
-35,
-34,
-37,
-42,
-48,
-45,
-41,
-43,
-47,
-51,
-54,
-52,
-51,
-52,
-57,
-60,
-59,
-57,
-57,
-60,
-63,
-63,
-61,
-57,
-57,
-57,
-61,
-60,
-58,
-55,
-54,
-55,
-57,
-56,
-53,
-49,
-50,
-52,
-53,
-46,
-41,
-38,
-40,
-40,
-39,
-33,
-27,
-26,
-30,
-27,
-23,
-18,
-17,
-17,
-17,
-13,
-7,
-4,
-3,
-2,
1,
6,
8,
11,
13,
13,
17,
18,
20,
24,
25,
27,
29,
31,
35,
37,
38,
39,
39,
42,
45,
49,
48,
46,
47,
50,
52,
52,
50,
51,
54,
54,
56,
54,
54,
53,
55,
55,
55,
51,
49,
51,
51,
50,
48,
48,
46,
44,
44,
46,
43,
39,
37,
37,
37,
34,
30,
27,
24,
24,
25,
22,
15,
12,
12,
13,
12,
4,
-1,
0,
1,
-1,
-7,
-13,
-15,
-14,
-16,
-18,
-24,
-27,
-27,
-26,
-28,
-33,
-38,
-37,
-37,
-39,
-44,
-45,
-46,
-48,
-48,
-51,
-53,
-53,
-56,
-54,
-57,
-55,
-57,
-58,
-58,
-58,
-59,
-61,
-60,
-60,
-62,
-61,
-60,
-58,
-59,
-59,
-56,
-54,
-55,
-53,
-50,
-50,
-49,
-50,
-48,
-44,
-43,
-41,
-41,
-41,
-38,
-34,
-30,
-29,
-31,
-25,
-20,
-16,
-17,
-16,
-16,
-11,
-6,
-3,
-4,
-4,
-1,
6,
8,
9,
9,
12,
18,
23,
26,
26,
25,
28,
33,
35,
35,
34,
35,
38,
44,
44,
45,
45,
47,
50,
53,
54,
52,
50,
52,
57,
59,
56,
52,
51,
56,
58,
57,
56,
52,
53,
57,
57,
54,
49,
47,
50,
51,
47,
41,
40,
42,
43,
39,
36,
34,
33,
33,
33,
28,
23,
20,
20,
19,
16,
11,
9,
7,
4,
0,
-1,
-3,
-4,
-9,
-11,
-13,
-14,
-16,
-20,
-25,
-27,
-30,
-31,
-32,
-38,
-41,
-41,
-40,
-42,
-47,
-50,
-50,
-48,
-51,
-53,
-57,
-58,
-58,
-57,
-59,
-62,
-63,
-64,
-63,
-62,
-62,
-62,
-62,
-62,
-61,
-58,
-58,
-59,
-60,
-61,
-57,
-54,
-53,
-55,
-57,
-53,
-49,
-47,
-47,
-47,
-45,
-38,
-35,
-35,
-37,
-35,
-29,
-24,
-24,
-24,
-25,
-21,
-17,
-13,
-13,
-12,
-8,
-4,
-1,
1,
3,
6,
7,
10,
12,
14,
17,
19,
17,
20,
23,
25,
27,
29,
29,
33,
34,
37,
38,
36,
38,
39,
42,
42,
40,
42,
43,
42,
43,
46,
45,
44,
43,
46,
47,
45,
44,
40,
41,
41,
41,
41,
39,
36,
36,
39,
39,
34,
29,
29,
32,
34,
29,
25,
19,
21,
25,
20,
15,
10,
10,
11,
12,
7,
0,
-1,
3,
3,
-1,
-5,
-10,
-8,
-8,
-8,
-13,
-19,
-21,
-21,
-19,
-21,
-27,
-29,
-29,
-26,
-26,
-29,
-35,
-35,
-37,
-36,
-35,
-39,
-43,
-43,
-42,
-40,
-43,
-45,
-48,
-47,
-45,
-43,
-45,
-47,
-49,
-47,
-43,
-42,
-47,
-47,
-46,
-44,
-43,
-43,
-42,
-41,
-39,
-37,
-37,
-36,
-36,
-34,
-32,
-32,
-31,
-29,
-27,
-26,
-26,
-22,
-19,
-16,
-15,
-13,
-10,
-8,
-5,
-4,
-3,
-3,
0,
4,
6,
6,
7,
9,
13,
17,
17,
19,
19,
22,
27,
30,
31,
31,
31,
33,
35,
35,
35,
36,
39,
39,
41,
44,
44,
44,
44,
45,
48,
47,
44,
43,
45,
45,
44,
42,
42,
42,
43,
43,
42,
38,
37,
38,
39,
36,
32,
32,
29,
29,
26,
22,
19,
18,
17,
15,
12,
9,
7,
7,
4,
1,
-2,
-3,
-3,
-7,
-12,
-14,
-15,
-18,
-22,
-26,
-29,
-28,
-31,
-33,
-39,
-40,
-42,
-40,
-41,
-47,
-49,
-53,
-52,
-51,
-56,
-57,
-59,
-60,
-60,
-59,
-62,
-63,
-66,
-65,
-63,
-62,
-65,
-67,
-68,
-66,
-63,
-62,
-65,
-68,
-65,
-61,
-58,
-58,
-62,
-59,
-54,
-49,
-49,
-53,
-53,
-50,
-43,
-40,
-42,
-44,
-43,
-36,
-30,
-29,
-31,
-29,
-22,
-17,
-14,
-13,
-13,
-10,
-5,
-3,
-1,
0,
1,
5,
9,
13,
15,
16,
19,
22,
28,
31,
32,
33,
33,
37,
42,
44,
42,
42,
45,
49,
50,
51,
50,
52,
55,
57,
59,
57,
58,
61,
62,
62,
60,
60,
61,
60,
61,
61,
61,
60,
61,
61,
60,
58,
59,
59,
56,
53,
50,
51,
52,
50,
46,
44,
44,
45,
42,
39,
35,
34,
36,
34,
28,
22,
19,
20,
20,
16,
9,
7,
7,
6,
1,
-1,
-5,
-7,
-7,
-9,
-13,
-17,
-21,
-22,
-24,
-27,
-32,
-34,
-37,
-37,
-39,
-41,
-44,
-46,
-48,
-49,
-49,
-51,
-56,
-59,
-59,
-58,
-60,
-61,
-65,
-66,
-65,
-64,
-64,
-67,
-69,
-67,
-65,
-67,
-68,
-68,
-67,
-65,
-65,
-65,
-64,
-62,
-62,
-61,
-61,
-58,
-55,
-53,
-53,
-53,
-49,
-48,
-45,
-44,
-45,
-43,
-40,
-35,
-33,
-35,
-29,
-26,
-20,
-17,
-18,
-17,
-15,
-9,
-4,
-4,
-5,
-3,
0,
5,
7,
10,
10,
12,
17,
20,
24,
23,
25,
28,
31,
34,
34,
34,
33,
35,
40,
45,
42,
40,
40,
44,
51,
49,
44,
44,
48,
52,
52,
48,
44,
43,
47,
51,
48,
40,
40,
45,
47,
47,
39,
37,
39,
41,
41,
37,
33,
30,
31,
31,
28,
23,
20,
20,
20,
19,
17,
13,
11,
11,
9,
8,
4,
1,
-3,
-4,
-4,
-6,
-10,
-13,
-14,
-16,
-17,
-18,
-23,
-25,
-25,
-25,
-27,
-30,
-36,
-35,
-35,
-36,
-39,
-45,
-41,
-42,
-46,
-46,
-47,
-47,
-46,
-47,
-50,
-51,
-49,
-47,
-48,
-52,
-52,
-51,
-49,
-48,
-51,
-53,
-49,
-44,
-45,
-45,
-48,
-47,
-41,
-40,
-40,
-41,
-41,
-38,
-35,
-34,
-35,
-34,
-31,
-26,
-24,
-23,
-20,
-19,
-18,
-12,
-10,
-9,
-9,
-8,
-5,
-3,
1,
3,
2,
3,
9,
14,
16,
16,
17,
19,
24,
26,
28,
27,
27,
31,
33,
35,
35,
36,
38,
42,
43,
43,
43,
46,
48,
48,
49,
49,
49,
49,
49,
50,
51,
52,
51,
49,
50,
49,
51,
52,
50,
46,
45,
47,
47,
43,
39,
38,
39,
40,
38,
33,
30,
32,
32,
32,
26,
21,
20,
20,
20,
16,
11,
7,
7,
8,
5,
1,
-4,
-6,
-6,
-5,
-7,
-12,
-17,
-18,
-19,
-19,
-23,
-28,
-31,
-31,
-31,
-31,
-36,
-42,
-44,
-41,
-38,
-39,
-47,
-50,
-48,
-45,
-45,
-49,
-54,
-55,
-51,
-49,
-51,
-56,
-57,
-54,
-48,
-48,
-52,
-53,
-50,
-46,
-46,
-46,
-48,
-47,
-45,
-42,
-41,
-42,
-41,
-39,
-36,
-32,
-32,
-29,
-27,
-23,
-21,
-21,
-16,
-14,
-14,
-10,
-9,
-7,
-3,
-4,
-1,
3,
4,
10,
11,
13,
15,
19,
22,
24,
27,
28,
32,
32,
32,
35,
38,
39,
41,
40,
44,
47,
48,
52,
50,
50,
53,
56,
59,
56,
53,
57,
60,
59,
58,
56,
57,
60,
61,
61,
58,
56,
58,
61,
58,
53,
50,
51,
52,
51,
47,
45,
45,
45,
45,
43,
39,
37,
36,
37,
34,
29,
26,
25,
20,
20,
18,
15,
12,
7,
5,
7,
5,
1,
-4,
-8,
-8,
-10,
-15,
-18,
-22,
-23,
-23,
-26,
-34,
-35,
-39,
-39,
-39,
-43,
-47,
-46,
-48,
-51,
-52,
-57,
-58,
-59,
-63,
-63,
-64,
-64,
-63,
-68,
-70,
-70,
-69,
-68,
-71,
-74,
-75,
-71,
-69,
-71,
-76,
-77,
-73,
-70,
-70,
-72,
-74,
-69,
-65,
-63,
-62,
-65,
-65,
-62,
-59,
-58,
-58,
-57,
-57,
-51,
-47,
-45,
-44,
-44,
-39,
-34,
-30,
-29,
-31,
-26,
-22,
-18,
-15,
-16,
-15,
-13,
-7,
-3,
-1,
-1,
-1,
5,
11,
15,
15,
14,
18,
23,
27,
28,
25,
25,
31,
35,
36,
35,
35,
39,
44,
44,
42,
43,
45,
48,
49,
49,
50,
49,
50,
51,
51,
48,
50,
50,
51,
49,
47,
49,
51,
48,
44,
45,
43,
42,
40,
40,
37,
36,
35,
35,
32,
29,
28,
28,
26,
23,
20,
18,
16,
12,
10,
9,
6,
4,
-1,
-1,
-2,
-5,
-8,
-10,
-13,
-12,
-13,
-18,
-24,
-26,
-27,
-26,
-27,
-33,
-39,
-39,
-37,
-35,
-41,
-46,
-46,
-44,
-43,
-46,
-50,
-54,
-52,
-49,
-50,
-55,
-59,
-57,
-54,
-53,
-55,
-56,
-58,
-55,
-52,
-51,
-52,
-52,
-52,
-50,
-49,
-48,
-49,
-47,
-47,
-46,
-44,
-41,
-39,
-37,
-38,
-34,
-29,
-27,
-27,
-29,
-24,
-20,
-17,
-17,
-17,
-16,
-12,
-9,
-6,
-5,
-4,
0,
3,
6,
8,
11,
15,
16,
17,
19,
22,
24,
25,
26,
28,
32,
33,
35,
34,
36,
41,
45,
47,
43,
41,
46,
51,
49,
45,
44,
47,
52,
53,
52,
49,
48,
52,
56,
55,
50,
48,
51,
52,
50,
45,
45,
44,
46,
47,
43,
41,
39,
39,
42,
41,
37,
33,
31,
32,
29,
27,
25,
21,
17,
17,
19,
16,
10,
6,
5,
7,
6,
1,
-3,
-5,
-6,
-6,
-8,
-16,
-19,
-18,
-19,
-21,
-26,
-31,
-30,
-29,
-30,
-33,
-37,
-37,
-36,
-38,
-41,
-42,
-44,
-44,
-43,
-47,
-49,
-48,
-48,
-47,
-50,
-52,
-51,
-49,
-48,
-50,
-53,
-51,
-49,
-47,
-47,
-49,
-49,
-48,
-45,
-42,
-41,
-43,
-41,
-37,
-35,
-35,
-34,
-35,
-31,
-31,
-25,
-25,
-25,
-24,
-21,
-16,
-12,
-12,
-12,
-9,
-6,
-2,
1,
-1,
-1,
2,
8,
11,
10,
9,
10,
18,
22,
24,
23,
23,
26,
33,
34,
33,
32,
33,
38,
40,
39,
37,
38,
42,
43,
44,
45,
44,
45,
47,
48,
48,
47,
45,
47,
46,
45,
44,
43,
42,
41,
41,
42,
42,
39,
37,
36,
37,
36,
33,
31,
29,
26,
27,
25,
20,
17,
15,
15,
14,
9,
5,
4,
3,
1,
-2,
-5,
-7,
-11,
-14,
-16,
-16,
-20,
-25,
-27,
-30,
-30,
-32,
-36,
-40,
-43,
-43,
-41,
-44,
-52,
-55,
-55,
-53,
-53,
-61,
-65,
-65,
-62,
-61,
-66,
-70,
-72,
-69,
-67,
-68,
-73,
-76,
-74,
-72,
-70,
-73,
-77,
-75,
-72,
-70,
-71,
-71,
-70,
-70,
-66,
-64,
-62,
-62,
-63,
-62,
-59,
-57,
-54,
-54,
-53,
-52,
-49,
-44,
-42,
-42,
-38,
-35,
-29,
-27,
-27,
-24,
-20,
-17,
-14,
-13,
-12,
-8,
-4,
-2,
0,
2,
6,
12,
15,
15,
18,
23,
26,
28,
30,
32,
36,
39,
39,
39,
40,
44,
48,
51,
50,
48,
51,
56,
58,
59,
58,
58,
59,
61,
63,
61,
58,
61,
65,
65,
64,
60,
60,
63,
63,
61,
62,
58,
56,
56,
58,
56,
52,
48,
48,
51,
50,
45,
42,
39,
41,
41,
38,
32,
24,
24,
27,
25,
19,
11,
11,
11,
12,
7,
2,
-3,
-3,
-2,
-4,
-10,
-17,
-20,
-17,
-18,
-22,
-31,
-32,
-32,
-31,
-35,
-38,
-42,
-42,
-43,
-44,
-45,
-49,
-51,
-53,
-53,
-55,
-56,
-56,
-59,
-61,
-61,
-58,
-61,
-60,
-63,
-63,
-61,
