5-grundlagen-opAmps/data/ALL0057/A0057CH1.CSV

Memory Length,4000,
Trigger Level,0.00000e+00,
Source,CH1,
Probe,1.0X,
Vertical Units,V,
Vertical Scale,5.00000e-02,
Vertical Position,0.00000e+00,
Horizontal Units,S,
Horizontal Scale,1.00000e-07,
Horizontal Position,0.0000000e+00,
Horizontal Mode,Main,
Sampling Period,2.00000e-09,
Firmware,V1.14,
Time, ,
Mode,Fast,
Waveform Data,
23,
23,
26,
29,
29,
28,
33,
36,
36,
37,
33,
38,
40,
42,
44,
40,
42,
45,
48,
46,
43,
44,
48,
47,
47,
47,
46,
46,
44,
44,
47,
46,
44,
41,
40,
42,
41,
41,
37,
32,
34,
38,
37,
29,
21,
23,
28,
29,
21,
12,
11,
15,
18,
16,
5,
-2,
0,
6,
5,
-2,
-10,
-11,
-8,
-7,
-13,
-19,
-20,
-21,
-20,
-24,
-26,
-30,
-34,
-32,
-31,
-31,
-37,
-42,
-43,
-41,
-40,
-41,
-46,
-51,
-50,
-48,
-44,
-49,
-55,
-57,
-52,
-50,
-51,
-52,
-58,
-56,
-53,
-52,
-50,
-54,
-56,
-53,
-51,
-49,
-48,
-49,
-49,
-48,
-46,
-44,
-41,
-42,
-44,
-42,
-37,
-31,
-33,
-35,
-33,
-28,
-25,
-20,
-22,
-25,
-23,
-16,
-10,
-8,
-14,
-14,
-7,
1,
3,
4,
-1,
1,
6,
15,
18,
13,
10,
14,
22,
29,
26,
22,
20,
29,
35,
39,
33,
29,
31,
40,
45,
42,
36,
36,
44,
49,
48,
44,
41,
43,
46,
51,
49,
43,
41,
44,
49,
49,
46,
41,
40,
43,
46,
47,
40,
34,
34,
37,
40,
35,
30,
27,
29,
32,
29,
23,
19,
20,
20,
19,
15,
9,
8,
11,
9,
3,
-2,
-3,
0,
-3,
-8,
-11,
-11,
-11,
-14,
-20,
-24,
-21,
-21,
-24,
-31,
-35,
-34,
-31,
-30,
-40,
-45,
-42,
-40,
-39,
-43,
-49,
-49,
-49,
-47,
-48,
-49,
-51,
-54,
-52,
-51,
-52,
-54,
-56,
-55,
-53,
-50,
-50,
-53,
-57,
-56,
-50,
-44,
-49,
-55,
-54,
-47,
-39,
-40,
-48,
-50,
-41,
-32,
-31,
-35,
-42,
-38,
-28,
-20,
-23,
-29,
-29,
-20,
-12,
-13,
-15,
-15,
-11,
-6,
-3,
-1,
-1,
0,
4,
7,
9,
10,
11,
12,
16,
18,
23,
24,
22,
20,
24,
31,
34,
33,
30,
32,
39,
42,
43,
38,
38,
40,
45,
47,
44,
43,
43,
47,
47,
47,
48,
47,
44,
44,
48,
47,
47,
43,
40,
44,
45,
45,
42,
36,
34,
35,
40,
38,
30,
26,
28,
33,
31,
22,
16,
15,
21,
23,
16,
8,
4,
5,
9,
9,
0,
-7,
-8,
-5,
-3,
-7,
-13,
-19,
-18,
-17,
-17,
-20,
-28,
-30,
-31,
-27,
-27,
-35,
-40,
-42,
-38,
-38,
-42,
-46,
-50,
-47,
-43,
-43,
-49,
-54,
-53,
-49,
-48,
-51,
-54,
-55,
-53,
-52,
-51,
-53,
-55,
-55,
-52,
-51,
-51,
-53,
-52,
-50,
-47,
-47,
-48,
-45,
-44,
-44,
-43,
-41,
-39,
-37,
-34,
-33,
-33,
-32,
-28,
-24,
-22,
-24,
-25,
-17,
-12,
-12,
-13,
-12,
-7,
-2,
3,
0,
-2,
0,
8,
15,
12,
7,
8,
16,
25,
26,
21,
19,
22,
30,
36,
33,
29,
29,
35,
41,
42,
40,
36,
37,
43,
46,
49,
44,
41,
41,
48,
52,
49,
42,
40,
45,
52,
51,
45,
38,
39,
46,
51,
47,
36,
32,
39,
45,
41,
33,
27,
28,
35,
34,
28,
22,
19,
21,
24,
21,
14,
11,
11,
11,
7,
6,
4,
1,
-3,
-6,
-6,
-6,
-9,
-14,
-16,
-16,
-15,
-18,
-25,
-30,
-29,
-27,
-28,
-32,
-39,
-40,
-37,
-35,
-38,
-45,
-48,
-46,
-44,
-45,
-47,
-49,
-51,
-54,
-53,
-48,
-50,
-53,
-57,
-58,
-54,
-50,
-50,
-54,
-58,
-56,
-48,
-45,
-51,
-58,
-55,
-48,
-41,
-45,
-51,
-51,
-43,
-35,
-36,
-39,
-43,
-40,
-30,
-26,
-29,
-33,
-29,
-24,
-16,
-17,
-20,
-19,
-15,
-9,
-7,
-4,
-4,
-5,
-2,
3,
7,
8,
7,
10,
12,
16,
20,
20,
19,
20,
25,
29,
30,
27,
28,
35,
36,
36,
36,
35,
39,
41,
43,
43,
41,
43,
45,
45,
45,
45,
48,
48,
45,
44,
44,
48,
49,
46,
44,
43,
44,
45,
45,
40,
36,
38,
41,
43,
35,
29,
28,
31,
34,
31,
24,
19,
18,
20,
22,
19,
9,
5,
10,
12,
8,
0,
-5,
-3,
-1,
0,
-8,
-15,
-18,
-15,
-10,
-13,
-23,
-31,
-28,
-24,
-22,
-28,
-37,
-39,
-38,
-34,
-34,
-41,
-47,
-48,
-47,
-41,
-44,
-50,
-53,
-53,
-48,
-47,
-51,
-56,
-57,
-53,
-49,
-48,
-55,
-61,
-56,
-51,
-45,
-50,
-57,
-55,
-50,
-46,
-46,
-49,
-49,
-48,
-42,
-41,
-41,
-42,
-40,
-37,
-35,
-33,
-31,
-29,
-27,
-29,
-25,
-19,
-17,
-17,
-19,
-15,
-10,
-5,
-4,
-6,
-6,
-1,
6,
9,
5,
4,
8,
15,
20,
17,
17,
17,
23,
27,
28,
29,
27,
29,
33,
37,
38,
36,
37,
35,
40,
45,
48,
45,
38,
38,
47,
51,
48,
43,
40,
45,
50,
50,
44,
40,
43,
48,
51,
45,
37,
36,
43,
46,
42,
34,
32,
36,
38,
34,
28,
26,
26,
26,
25,
22,
18,
16,
16,
12,
11,
9,
7,
5,
0,
-3,
-2,
-1,
-6,
-11,
-14,
-12,
-12,
-16,
-20,
-23,
-25,
-26,
-28,
-29,
-32,
-35,
-34,
-37,
-39,
-40,
-41,
-42,
-46,
-47,
-46,
-43,
-47,
-52,
-53,
-49,
-46,
-49,
-57,
-59,
-54,
-48,
-48,
-53,
-61,
-59,
-50,
-44,
-49,
-57,
-57,
-51,
-42,
-43,
-50,
-52,
-50,
-42,
-37,
-39,
-44,
-44,
-38,
-31,
-28,
-30,
-33,
-32,
-23,
-19,
-16,
-20,
-23,
-18,
-9,
-4,
-6,
-11,
-9,
-1,
7,
7,
4,
0,
5,
15,
20,
19,
12,
13,
21,
28,
30,
26,
23,
28,
33,
36,
37,
35,
35,
37,
42,
44,
42,
39,
40,
46,
47,
45,
44,
44,
46,
48,
50,
47,
45,
43,
44,
48,
46,
45,
44,
42,
42,
41,
43,
40,
37,
34,
33,
35,
34,
32,
28,
23,
23,
25,
24,
20,
13,
11,
13,
16,
11,
4,
0,
0,
2,
1,
-5,
-9,
-13,
-11,
-9,
-13,
-19,
-24,
-24,
-24,
-22,
-27,
-32,
-34,
-32,
-34,
-35,
-35,
-41,
-46,
-43,
-41,
-40,
-47,
-52,
-52,
-47,
-46,
-49,
-55,
-58,
-53,
-48,
-49,
-55,
-58,
-57,
-51,
-50,
-55,
-57,
-53,
-49,
-48,
-51,
-53,
-50,
-47,
-46,
-45,
-46,
-44,
-40,
-39,
-39,
-38,
-34,
-29,
-29,
-32,
-29,
-24,
-19,
-19,
-24,
-18,
-15,
-9,
-8,
-10,
-9,
-6,
0,
3,
3,
4,
4,
9,
13,
15,
18,
18,
17,
19,
24,
28,
30,
26,
25,
29,
37,
38,
36,
30,
35,
42,
49,
45,
36,
35,
44,
52,
50,
42,
36,
43,
52,
55,
48,
40,
39,
47,
53,
51,
41,
35,
40,
47,
46,
40,
36,
34,
36,
37,
37,
31,
26,
25,
27,
28,
26,
18,
15,
14,
20,
18,
12,
4,
1,
4,
8,
5,
-6,
-13,
-9,
-4,
-6,
-14,
-21,
-23,
-18,
-17,
-24,
-28,
-31,
-32,
-28,
-32,
-35,
-38,
-41,
-38,
-42,
-43,
-45,
-44,
-45,
-50,
-51,
-48,
-48,
-50,
-52,
-53,
-53,
-52,
-52,
-53,
-55,
-55,
-52,
-49,
-53,
-55,
-54,
-52,
-48,
-48,
-50,
-52,
-50,
-46,
-42,
-41,
-42,
-45,
-41,
-35,
-31,
-35,
-36,
-34,
-29,
-24,
-21,
-23,
-25,
-22,
-16,
-11,
-10,
-13,
-11,
-5,
1,
2,
2,
1,
3,
8,
12,
16,
13,
12,
18,
22,
25,
24,
23,
24,
31,
34,
37,
31,
32,
34,
38,
44,
41,
38,
40,
44,
46,
45,
45,
44,
45,
44,
45,
46,
46,
48,
48,
46,
44,
45,
47,
46,
43,
40,
42,
45,
41,
36,
35,
35,
38,
37,
29,
25,
25,
29,
31,
25,
15,
11,
16,
18,
15,
7,
4,
3,
4,
4,
1,
-3,
-10,
-11,
-7,
-7,
-12,
-19,
-24,
-23,
-19,
-19,
-26,
-32,
-38,
-32,
-28,
-29,
-40,
-46,
-44,
-35,
-35,
-46,
-55,
-52,
-44,
-41,
-46,
-56,
-59,
-54,
-47,
-45,
-56,
-62,
-58,
-50,
-47,
-52,
-57,
-57,
-53,
-49,
-48,
-49,
-52,
-52,
-48,
-46,
-44,
-45,
-46,
-44,
-40,
-37,
-35,
-37,
-38,
-35,
-29,
-24,
-25,
-29,
-27,
-19,
-12,
-13,
-15,
-15,
-10,
-4,
-3,
-4,
-4,
0,
5,
9,
7,
6,
12,
15,
17,
16,
18,
24,
28,
25,
24,
28,
33,
35,
35,
31,
33,
38,
44,
43,
38,
36,
42,
47,
46,
42,
41,
45,
49,
49,
48,
44,
44,
46,
50,
49,
45,
41,
41,
44,
46,
44,
40,
36,
36,
38,
40,
37,
31,
26,
28,
31,
30,
24,
17,
17,
18,
19,
15,
10,
5,
6,
9,
7,
1,
-5,
-6,
-4,
-6,
-9,
-15,
-17,
-17,
-18,
-20,
-22,
-25,
-27,
-29,
-29,
-31,
-34,
-35,
-40,
-39,
-40,
-41,
-42,
-47,
-49,
-48,
-47,
-46,
-48,
-52,
-53,
-53,
-50,
-49,
-52,
-56,
-57,
-55,
-48,
-50,
-55,
-57,
-56,
-50,
-47,
-51,
-52,
-54,
-48,
-41,
-43,
-46,
-50,
-45,
-37,
-31,
-37,
-42,
-39,
-32,
-25,
-24,
-26,
-28,
-26,
-20,
-12,
-12,
-16,
-16,
-11,
-3,
1,
0,
-4,
-2,
2,
12,
14,
9,
6,
11,
20,
25,
21,
18,
18,
26,
33,
36,
29,
26,
31,
40,
44,
38,
33,
35,
41,
48,
45,
40,
40,
44,
48,
49,
47,
43,
43,
47,
48,
47,
46,
45,
45,
43,
43,
44,
43,
42,
39,
38,
40,
36,
35,
32,
31,
33,
31,
28,
24,
21,
23,
22,
19,
13,
11,
11,
11,
7,
3,
4,
3,
-2,
-6,
-8,
-7,
-7,
-12,
-19,
-22,
-19,
-17,
-20,
-28,
-32,
-32,
-28,
-27,
-35,
-42,
-40,
-36,
-35,
-40,
-48,
-49,
-45,
-43,
-47,
-52,
-54,
-53,
-49,
-49,
-52,
-56,
-55,
-53,
-52,
-52,
-52,
-55,
-55,
-55,
-52,
-47,
-51,
-54,
-53,
-49,
-43,
-44,
-48,
-49,
-44,
-39,
-36,
-37,
-41,
-39,
-33,
-27,
-27,
-31,
-31,
-25,
-18,
-18,
-20,
-17,
-13,
-9,
-8,
-6,
-6,
-4,
0,
3,
4,
6,
11,
12,
10,
11,
18,
22,
22,
18,
19,
25,
33,
34,
30,
28,
31,
38,
43,
40,
35,
34,
40,
46,
46,
43,
41,
41,
47,
50,
50,
44,
41,
43,
49,
52,
47,
42,
40,
45,
49,
48,
41,
36,
37,
41,
45,
40,
30,
26,
30,
37,
34,
26,
19,
19,
23,
26,
20,
12,
7,
9,
12,
13,
4,
-3,
-4,
-1,
2,
-3,
-11,
-14,
-14,
-12,
-12,
-18,
-25,
-27,
-26,
-22,
-27,
-35,
-39,
-36,
-32,
-35,
-42,
-44,
-43,
-42,
-41,
-46,
-49,
-50,
-48,
-48,
-51,
-53,
-52,
-51,
-52,
-55,
-53,
-53,
-51,
-54,
-56,
-55,
-52,
-49,
-50,
-52,
-53,
-50,
-48,
-45,
-46,
-46,
-45,
-42,
-40,
-40,
-38,
-38,
-36,
-34,
-30,
-28,
-28,
-28,
-27,
-19,
-15,
-16,
-20,
-18,
-11,
-4,
0,
-4,
-8,
-5,
5,
11,
9,
3,
4,
14,
22,
21,
17,
15,
21,
29,
33,
29,
25,
28,
36,
40,
37,
34,
35,
37,
43,
44,
44,
43,
41,
42,
46,
48,
47,
44,
43,
45,
48,
50,
48,
44,
42,
45,
48,
48,
40,
36,
40,
44,
44,
37,
33,
32,
34,
36,
32,
27,
25,
25,
24,
22,
18,
17,
16,
13,
9,
8,
8,
8,
0,
-4,
-4,
0,
-3,
-10,
-15,
-16,
-11,
-12,
-19,
-26,
-30,
-26,
-20,
-26,
-35,
-41,
-38,
-32,
-31,
-40,
-46,
-47,
-42,
-40,
-44,
-48,
-53,
-50,
-49,
-47,
-51,
-55,
-56,
-55,
-50,
-50,
-52,
-56,
-57,
-54,
-50,
-48,
-53,
-58,
-54,
-47,
-44,
-48,
-53,
-52,
-44,
-39,
-39,
-44,
-46,
-42,
-33,
-30,
-32,
-35,
-34,
-28,
-20,
-22,
-24,
-20,
-17,
-13,
-11,
-11,
-10,
-9,
-4,
0,
1,
2,
4,
6,
10,
11,
13,
15,
18,
18,
22,
23,
25,
27,
28,
30,
31,
33,
37,
36,
37,
37,
37,
42,
43,
43,
43,
41,
42,
45,
50,
48,
43,
42,
47,
51,
49,
44,
41,
43,
45,
49,
45,
41,
37,
38,
43,
45,
37,
33,
32,
35,
36,
33,
27,
21,
22,
26,
27,
20,
11,
8,
13,
17,
13,
3,
-3,
0,
5,
3,
-4,
-11,
-14,
-11,
-8,
-12,
-20,
-26,
-24,
-20,
-22,
-28,
-34,
-33,
-31,
-33,
-37,
-37,
-42,
-43,
-42,
-42,
-43,
-47,
-48,
-50,
-49,
-48,
-50,
-52,
-56,
-56,
-51,
-49,
-50,
-57,
-60,
-54,
-50,
-49,
-54,
-56,
-54,
-49,
-47,
-49,
-51,
-51,
-47,
-43,
-43,
-42,
-42,
-41,
-39,
-37,
-34,
-30,
-31,
-33,
-31,
-23,
-19,
-19,
-20,
-21,
-15,
-7,
-5,
-10,
-13,
-8,
4,
10,
2,
-3,
1,
11,
19,
16,
11,
12,
20,
28,
28,
25,
22,
26,
32,
36,
34,
33,
31,
37,
40,
41,
43,
40,
41,
43,
46,
48,
45,
42,
42,
46,
49,
48,
44,
41,
44,
48,
51,
46,
39,
39,
44,
47,
42,
36,
36,
38,
40,
37,
30,
29,
29,
30,
27,
24,
21,
21,
20,
17,
12,
10,
12,
12,
5,
0,
0,
1,
0,
-3,
-9,
-12,
-10,
-11,
-15,
-18,
-22,
-23,
-23,
-24,
-28,
-33,
-36,
-33,
-32,
-34,
-37,
-43,
-43,
-42,
-41,
-42,
-47,
-52,
-52,
-47,
-44,
-49,
-54,
-57,
-52,
-47,
-48,
-55,
-60,
-58,
-51,
-46,
-51,
-58,
-58,
-53,
-44,
-46,
-52,
-54,
-51,
-43,
-39,
-41,
-46,
-46,
-40,
-33,
-31,
-38,
-38,
-33,
-26,
-22,
-24,
-26,
-26,
-21,
-13,
-10,
-12,
-14,
-12,
-4,
0,
1,
1,
-1,
4,
8,
11,
13,
12,
13,
16,
21,
25,
24,
25,
25,
29,
32,
36,
35,
32,
33,
36,
41,
44,
40,
39,
41,
45,
47,
48,
43,
42,
44,
49,
50,
46,
44,
44,
46,
48,
47,
44,
41,
42,
42,
45,
44,
39,
34,
35,
37,
38,
36,
29,
24,
25,
30,
30,
24,
14,
11,
16,
21,
15,
5,
3,
6,
10,
6,
-4,
-9,
-8,
-3,
-4,
-10,
-19,
-22,
-20,
-15,
-18,
-26,
-31,
-32,
-29,
-31,
-35,
-36,
-39,
-39,
-39,
-40,
-43,
-45,
-47,
-48,
-46,
-47,
-50,
-51,
-53,
-53,
-51,
-49,
-55,
-57,
-54,
-51,
-49,
-55,
-58,
-55,
-51,
-51,
-53,
-52,
-50,
-48,
-48,
-49,
-47,
-44,
-40,
-41,
-44,
-44,
-37,
-31,
-31,
-37,
-36,
-28,
-20,
-21,
-27,
-28,
-20,
-13,
-8,
-12,
-15,
-13,
-4,
4,
1,
-3,
-1,
5,
11,
12,
12,
11,
13,
18,
23,
26,
24,
20,
24,
30,
36,
35,
32,
29,
35,
41,
44,
41,
35,
35,
43,
50,
49,
41,
37,
43,
50,
52,
48,
41,
40,
46,
52,
50,
42,
38,
43,
48,
48,
41,
38,
37,
39,
40,
38,
33,
29,
29,
32,
31,
27,
21,
19,
20,
19,
18,
15,
10,
6,
5,
6,
8,
1,
-3,
-6,
-6,
-6,
-9,
-13,
-16,
-18,
-19,
-20,
-20,
-26,
-29,
-31,
-30,
-29,
-34,
-36,
-41,
-40,
-39,
-41,
-43,
-48,
-49,
-47,
-44,
-46,
-50,
-55,
-55,
-51,
-48,
-51,
-55,
-59,
-56,
-51,
-49,
-52,
-56,
-57,
-52,
-48,
-47,
-52,
-52,
-51,
-46,
-42,
-44,
-47,
-48,
-44,
-36,
-35,
-38,
-40,
-36,
-29,
-25,
-28,
-29,
-27,
-22,
-15,
-15,
-17,
-19,
-13,
-7,
-3,
-5,
-6,
-3,
2,
5,
7,
9,
10,
11,
15,
16,
19,
22,
23,
23,
25,
28,
31,
31,
33,
32,
34,
37,
39,
38,
40,
40,
42,
43,
44,
44,
45,
44,
45,
46,
47,
46,
45,
45,
45,
47,
49,
47,
41,
38,
43,
48,
46,
37,
32,
36,
41,
42,
36,
25,
25,
31,
36,
29,
17,
13,
19,
25,
22,
11,
4,
6,
11,
11,
4,
-4,
-6,
-4,
-2,
-3,
-10,
-16,
-18,
-15,
-15,
-19,
-25,
-29,
-30,
-27,
-27,
-29,
-39,
-43,
-39,
-33,
-35,
-42,
-51,
-50,
-43,
-40,
-44,
-53,
-57,
-54,
-48,
-44,
-53,
-60,
-56,
-51,
-49,
-54,
-58,
-55,
-51,
-48,
-52,
-54,
-53,
-52,
-49,
-48,
-49,
-47,
-47,
-45,
-44,
-42,
-38,
-36,
-40,
-39,
-35,
-28,
-26,
-28,
-30,
-27,
-20,
-16,
-16,
-17,
-17,
-13,
-7,
-4,
-3,
-5,
-3,
3,
7,
7,
7,
9,
12,
13,
17,
21,
21,
20,
21,
25,
31,
32,
28,
28,
33,
38,
40,
37,
36,
35,
43,
48,
45,
39,
39,
43,
49,
50,
48,
43,
42,
46,
51,
49,
45,
42,
44,
47,
46,
42,
40,
40,
41,
41,
40,
36,
33,
32,
34,
34,
29,
25,
24,
23,
22,
20,
18,
16,
13,
10,
11,
8,
5,
2,
0,
-2,
-3,
-5,
-7,
-11,
-15,
-17,
-16,
-16,
-19,
-26,
-29,
-29,
-27,
-28,
-33,
-36,
-41,
-39,
-36,
-36,
-43,
-48,
-48,
-46,
-45,
-46,
-52,
-54,
-52,
-49,
-49,
-51,
-57,
-58,
-53,
-47,
-49,
-56,
-60,
-56,
-48,
-46,
-51,
-58,
-58,
-49,
-42,
-40,
-49,
-54,
-49,
-39,
-32,
-40,
-45,
-43,
-35,
-26,
-28,
-33,
-33,
-29,
-21,
-15,
-19,
-22,
-19,
-12,
-7,
-7,
-7,
-7,
-4,
0,
6,
7,
5,
3,
8,
16,
21,
19,
15,
15,
22,
31,
33,
27,
25,
28,
37,
41,
37,
32,
34,
38,
45,
44,
40,
40,
43,
46,
48,
46,
43,
46,
49,
46,
43,
43,
48,
48,
45,
43,
44,
45,
43,
39,
37,
40,
43,
41,
36,
31,
32,
35,
36,
30,
22,
20,
24,
26,
21,
16,
11,
12,
12,
10,
7,
5,
1,
0,
0,
-2,
-6,
-10,
-13,
-13,
-14,
-14,
-16,
-24,
-27,
-26,
-25,
-27,
-35,
-39,
-36,
-33,
-32,
-40,
-48,
-46,
-41,
-40,
-45,
-51,
-53,
-50,
-47,
-48,
-53,
-57,
-55,
-52,
-52,
-54,
-55,
-53,
-53,
-54,
-53,
-52,
-52,
-53,
-52,
-51,
-49,
-47,
-48,
-47,
-47,
-46,
-41,
-40,
-41,
-41,
-39,
-33,
-30,
-31,
-32,
-29,
-26,
-21,
-20,
-18,
-19,
-18,
-14,
-9,
-6,
-7,
-7,
-4,
1,
6,
8,
6,
4,
6,
14,
20,
19,
14,
16,
21,
31,
31,
27,
25,
27,
35,
43,
37,
34,
32,
37,
47,
46,
41,
37,
38,
48,
50,
48,
42,
39,
44,
53,
53,
45,
37,
40,
48,
52,
48,
40,
36,
39,
45,
45,
40,
32,
31,
36,
40,
34,
27,
23,
25,
28,
26,
20,
17,
14,
16,
16,
13,
8,
3,
2,
3,
2,
-2,
-7,
-9,
-10,
-10,
-9,
-14,
-20,
-23,
-24,
-19,
-23,
-29,
-32,
-33,
-31,
-34,
-38,
-38,
-41,
-42,
-41,
-44,
-46,
-47,
-47,
-48,
-52,
-51,
-49,
-48,
-51,
-57,
-56,
-52,
-48,
-53,
-59,
-56,
-52,
-49,
-52,
-55,
-57,
-52,
-45,
-45,
-51,
-54,
-49,
-42,
-38,
-42,
-45,
-43,
-38,
-34,
-33,
-32,
-33,
-32,
-27,
-24,
-20,
-22,
-21,
-19,
-15,
-10,
-8,
-8,
-10,
-7,
0,
6,
4,
1,
2,
8,
16,
17,
13,
13,
18,
25,
28,
24,
22,
26,
31,
36,
33,
32,
31,
40,
41,
40,
41,
41,
43,
44,
43,
44,
44,
45,
45,
44,
45,
48,
51,
47,
42,
40,
46,
51,
47,
41,
38,
40,
45,
43,
39,
35,
34,
35,
38,
33,
26,
24,
24,
28,
26,
19,
17,
14,
13,
16,
15,
9,
1,
-2,
0,
6,
1,
-7,
-13,
-12,
-7,
-5,
-15,
-26,
-27,
-22,
-15,
-19,
-31,
-40,
-35,
-30,
-28,
-37,
-47,
-45,
-41,
-37,
-41,
-47,
-52,
-50,
-45,
-43,
-51,
-57,
-55,
-50,
-47,
-49,
-57,
-58,
-57,
-52,
-48,
-52,
-57,
-58,
-53,
-48,
-47,
-51,
-53,
-51,
-46,
-44,
-43,
-45,
-45,
-43,
-38,
-35,
-37,
-37,
-35,
-31,
-26,
-26,
-26,
-24,
-20,
-18,
-16,
-13,
-12,
-11,
-8,
-4,
-3,
-1,
0,
3,
5,
8,
11,
14,
14,
14,
16,
19,
22,
25,
26,
25,
26,
29,
36,
37,
34,
32,
35,
40,
44,
43,
40,
37,
41,
46,
49,
46,
41,
41,
49,
51,
47,
42,
42,
47,
50,
48,
43,
40,
40,
45,
46,
41,
35,
34,
37,
40,
36,
33,
28,
27,
28,
28,
27,
24,
17,
14,
17,
18,
14,
9,
4,
4,
6,
4,
1,
-5,
-9,
-7,
-6,
-10,
-15,
-20,
-19,
-17,
-20,
-25,
-29,
-29,
-30,
-32,
-35,
-34,
-38,
-39,
-40,
-41,
-41,
-43,
-46,
-50,
-51,
-49,
-45,
-47,
-54,
-57,
-55,
-47,
-49,
-54,
-59,
-56,
-50,
-47,
-51,
-59,
-59,
-52,
-48,
-47,
-52,
-56,
-52,
-44,
-41,
-45,
-47,
-45,
-41,
-37,
-35,
-34,
-38,
-37,
-32,
-26,
-22,
-25,
-29,
-26,
-18,
-9,
-8,
-14,
-16,
-13,
0,
5,
-2,
-6,
-3,
9,
16,
14,
6,
5,
17,
24,
25,
20,
17,
23,
30,
35,
32,
28,
28,
36,
41,
39,
38,
36,
40,
43,
44,
45,
44,
43,
45,
47,
48,
46,
45,
45,
45,
46,
49,
48,
45,
42,
44,
46,
44,
40,
39,
40,
38,
36,
36,
35,
33,
32,
28,
27,
26,
25,
24,
20,
15,
16,
16,
15,
10,
2,
4,
5,
3,
0,
-7,
-10,
-7,
-6,
-11,
-15,
-21,
-21,
-17,
-17,
-23,
-31,
-35,
-31,
-27,
-30,
-37,
-41,
-42,
-39,
-37,
-43,
-48,
-51,
-48,
-44,
-44,
-50,
-55,
-54,
-49,
-48,
-51,
-55,
-56,
-56,
-50,
-49,
-53,
-58,
-57,
-50,
-49,
-50,
-52,
-53,
-50,
-46,
-45,
-46,
-47,
-47,
-44,
-37,
-36,
-38,
-39,
-37,
-31,
-29,
-26,
-26,
-27,
-26,
-21,
-15,
-14,
-16,
-15,
-11,
-5,
-3,
-2,
-2,
1,
3,
8,
10,
11,
10,
12,
16,
20,
22,
23,
22,
21,
26,
35,
36,
30,
28,
33,
39,
46,
41,
35,
35,
42,
49,
49,
42,
37,
41,
50,
52,
47,
40,
41,
47,
52,
49,
43,
40,
43,
45,
47,
45,
39,
37,
39,
41,
39,
36,
30,
28,
32,
32,
31,
26,
18,
17,
23,
27,
19,
8,
4,
8,
13,
9,
2,
-6,
-5,
1,
0,
-5,
-16,
-18,
-13,
-11,
-17,
-25,
-27,
-25,
-23,
-27,
-35,
-35,
-35,
-35,
-38,
-41,
-42,
-43,
-42,
-44,
-46,
-47,
-47,
-47,
-51,
-54,
-52,
-49,
-51,
-54,
-56,
-54,
-52,
-53,
-53,
-54,
-54,
-53,
-52,
-50,
-51,
-52,
-50,
-51,
-47,
-46,
-44,
-45,
-46,
-46,
-39,
-33,
-35,
-39,
-40,
-31,
-24,
-23,
-28,
-31,
-23,
-17,
-14,
-17,
-20,
-16,
-7,
1,
-3,
-9,
-7,
1,
10,
11,
6,
5,
9,
16,
21,
21,
19,
17,
22,
29,
32,
30,
29,
29,
34,
37,
40,
40,
37,
38,
43,
46,
45,
42,
41,
45,
49,
50,
48,
43,
43,
46,
49,
49,
43,
40,
44,
47,
47,
43,
41,
40,
39,
41,
40,
38,
33,
30,
29,
32,
32,
29,
23,
20,
19,
21,
22,
17,
11,
8,
9,
11,
7,
2,
-3,
-4,
-2,
-3,
-8,
-12,
-17,
-17,
-15,
-15,
-21,
-29,
-31,
-26,
-23,
-28,
-37,
-41,
-40,
-35,
-33,
-39,
-47,
-50,
-45,
-41,
-44,
-52,
-58,
-52,
-47,
-48,
-52,
-56,
-55,
-54,
-51,
-50,
-55,
-58,
-55,
-51,
-50,
-53,
-55,
-55,
-52,
-48,
-45,
-47,
-49,
-48,
-44,
-40,
-39,
-42,
-43,
-39,
-31,
-30,
-32,
-33,
-31,
-25,
-20,
-17,
-21,
-22,
-15,
-10,
-10,
-11,
-9,
-4,
0,
1,
0,
2,
9,
11,
12,
11,
13,
18,
21,
23,
20,
20,
27,
33,
33,
28,
29,
35,
39,
39,
36,
33,
38,
43,
48,
44,
40,
40,
45,
49,
47,
44,
44,
44,
46,
48,
48,
46,
42,
42,
45,
48,
45,
40,
36,
37,
43,
43,
37,
28,
29,
34,
38,
35,
20,
16,
21,
28,
26,
15,
8,
10,
17,
17,
7,
0,
-3,
2,
4,
-1,
-10,
-14,
-13,
-10,
-11,
-16,
-20,
-24,
-26,
-25,
-27,
-28,
-31,
-37,
-36,
-37,
-36,
-40,
-45,
-44,
-45,
-42,
-44,
-47,
-51,
-51,
-48,
-46,
-51,
-56,
-55,
-54,
-50,
-52,
-55,
-55,
-54,
-53,
-52,
-52,
-53,
-53,
-52,
-50,
-48,
-47,
-47,
-48,
-48,
-46,
-40,
-38,
-42,
-45,
-41,
-33,
-28,
-30,
-34,
-32,
-25,
-19,
-16,
-19,
-22,
-19,
-10,
-6,
-7,
-11,
-9,
0,
5,
6,
3,
2,
7,
13,
19,
17,
13,
14,
19,
27,
30,
27,
25,
25,
33,
35,
37,
34,
33,
35,
41,
44,
42,
39,
42,
44,
47,
45,
44,
44,
45,
47,
49,
47,
45,
43,
45,
47,
47,
45,
41,
43,
41,
41,
41,
38,
37,
35,
37,
35,
31,
28,
27,
27,
26,
22,
20,
21,
18,
14,
11,
11,
12,
10,
4,
-1,
-3,
-2,
0,
-4,
-12,
-17,
-14,
-10,
-14,
-21,
-29,
-27,
-21,
-23,
-29,
-36,
-38,
-35,
-30,
-34,
-44,
-46,
-45,
-39,
-41,
-47,
-53,
-53,
-49,
-46,
-48,
-53,
-57,
-56,
-52,
-48,
-50,
-56,
-60,
-56,
-50,
-47,
-50,
-55,
-57,
-53,
-44,
-44,
-50,
-56,
-51,
-40,
-38,
-42,
-48,
-46,
-36,
-30,
-32,
-36,
-39,
-30,
-24,
-20,
-24,
-26,
-23,
-15,
-11,
-12,
-13,
-12,
-7,
-3,
0,
3,
4,
2,
4,
8,
13,
16,
16,
-1,
-1,
