6-anwendungen-opAmps/daten/ALL0012/A0012CH1.CSV

Memory Length,4000,
Trigger Level,4.00000e+00,
Source,CH1,
Probe,1.0X,
Vertical Units,V,
Vertical Scale,1.00000e-01,
Vertical Position,0.00000e+00,
Horizontal Units,S,
Horizontal Scale,2.50000e-05,
Horizontal Position,2.8000000e-05,
Horizontal Mode,Main,
Sampling Period,1.00000e-07,
Firmware,V1.14,
Time, ,
Mode,Fast,
Waveform Data,
49,
49,
49,
49,
49,
48,
48,
48,
48,
48,
48,
47,
47,
48,
48,
47,
47,
47,
47,
45,
45,
46,
46,
46,
46,
46,
46,
45,
45,
45,
45,
45,
45,
43,
43,
44,
44,
42,
42,
41,
41,
42,
42,
40,
40,
39,
39,
40,
40,
37,
37,
37,
37,
35,
35,
35,
35,
31,
31,
27,
27,
26,
26,
21,
21,
17,
17,
9,
9,
0,
0,
-6,
-6,
-13,
-24,
-24,
-24,
-29,
-29,
-34,
-34,
-38,
-38,
-41,
-41,
-41,
-41,
-43,
-43,
-45,
-45,
-45,
-45,
-46,
-46,
-48,
-48,
-48,
-48,
-49,
-49,
-49,
-49,
-47,
-47,
-50,
-50,
-49,
-49,
-50,
-50,
-52,
-52,
-52,
-52,
-51,
-51,
-52,
-52,
-53,
-53,
-53,
-53,
-52,
-52,
-55,
-55,
-55,
-55,
-55,
-55,
-54,
-54,
-54,
-54,
-56,
-56,
-55,
-55,
-56,
-56,
-56,
-56,
-57,
-57,
-54,
-54,
-54,
-54,
-56,
-56,
-56,
-56,
-56,
-56,
-58,
-58,
-58,
-58,
-56,
-56,
-57,
-57,
-57,
-57,
-58,
-58,
-57,
-57,
-58,
-58,
-57,
-57,
-57,
-57,
-56,
-56,
-57,
-57,
-57,
-57,
-57,
-57,
-56,
-56,
-56,
-56,
-56,
-56,
-56,
-56,
-55,
-55,
-55,
-55,
-55,
-55,
-56,
-56,
-56,
-56,
-56,
-56,
-53,
-53,
-54,
-54,
-54,
-54,
-54,
-54,
-54,
-54,
-55,
-55,
-53,
-53,
-53,
-53,
-54,
-54,
-53,
-53,
-52,
-52,
-53,
-53,
-52,
-52,
-52,
-52,
-52,
-52,
-51,
-51,
-50,
-50,
-51,
-51,
-52,
-52,
-50,
-50,
-51,
-51,
-51,
-51,
-50,
-50,
-51,
-51,
-48,
-48,
-47,
-47,
-49,
-49,
-48,
-48,
-47,
-47,
-47,
-47,
-47,
-47,
-45,
-45,
-44,
-44,
-44,
-44,
-43,
-43,
-43,
-43,
-43,
-43,
-42,
-42,
-40,
-40,
-38,
-38,
-35,
-35,
-34,
-34,
-32,
-32,
-30,
-30,
-27,
-27,
-23,
-23,
-16,
-16,
-12,
-12,
-5,
-5,
-1,
-1,
5,
5,
8,
8,
14,
14,
19,
19,
22,
22,
27,
27,
29,
29,
31,
31,
31,
31,
32,
32,
35,
35,
37,
37,
37,
37,
38,
38,
38,
38,
39,
39,
38,
38,
39,
39,
40,
40,
41,
41,
41,
41,
41,
41,
41,
41,
41,
41,
42,
42,
43,
43,
44,
44,
43,
43,
45,
45,
44,
44,
44,
44,
45,
45,
45,
45,
46,
46,
45,
45,
46,
46,
46,
46,
46,
46,
46,
46,
47,
47,
48,
48,
48,
48,
48,
48,
48,
48,
47,
47,
48,
48,
48,
48,
47,
47,
48,
48,
48,
48,
50,
50,
49,
49,
50,
50,
49,
49,
49,
49,
50,
50,
49,
49,
49,
49,
51,
51,
50,
50,
50,
50,
49,
49,
49,
49,
49,
49,
49,
49,
51,
51,
51,
51,
51,
51,
50,
50,
50,
50,
51,
51,
52,
52,
52,
52,
52,
52,
51,
51,
51,
51,
51,
51,
50,
50,
50,
50,
49,
49,
49,
49,
50,
50,
51,
51,
49,
49,
48,
48,
49,
49,
49,
49,
48,
48,
49,
49,
47,
47,
47,
47,
48,
48,
47,
47,
47,
47,
45,
45,
46,
46,
46,
46,
46,
46,
44,
44,
43,
43,
45,
45,
45,
45,
43,
43,
43,
43,
41,
41,
41,
41,
41,
41,
40,
40,
39,
39,
39,
39,
37,
37,
36,
36,
34,
34,
32,
32,
29,
29,
28,
28,
23,
23,
18,
18,
10,
10,
1,
1,
-6,
-6,
-12,
-12,
-22,
-22,
-28,
-28,
-34,
-34,
-36,
-36,
-40,
-40,
-40,
-40,
-43,
-43,
-44,
-44,
-44,
-44,
-46,
-46,
-47,
-47,
-47,
-47,
-49,
-49,
-49,
-49,
-48,
-48,
-49,
-49,
-50,
-50,
-51,
-51,
-51,
-51,
-51,
-51,
-50,
-50,
-52,
-52,
-53,
-53,
-52,
-52,
-53,
-53,
-52,
-52,
-53,
-53,
-54,
-54,
-54,
-54,
-54,
-54,
-55,
-55,
-56,
-56,
-56,
-56,
-55,
-55,
-54,
-54,
-55,
-55,
-55,
-55,
-58,
-58,
-56,
-56,
-55,
-55,
-55,
-55,
-56,
-56,
-61,
-61,
-57,
-57,
-57,
-57,
-59,
-59,
-57,
-57,
-58,
-58,
-57,
-57,
-57,
-57,
-55,
-55,
-56,
-56,
-58,
-58,
-55,
-55,
-55,
-55,
-55,
-55,
-56,
-56,
-57,
-57,
-57,
-57,
-56,
-56,
-56,
-56,
-56,
-56,
-55,
-55,
-55,
-55,
-54,
-54,
-54,
-54,
-55,
-55,
-56,
-56,
-53,
-53,
-52,
-52,
-54,
-54,
-53,
-53,
-55,
-55,
-54,
-54,
-54,
-54,
-53,
-53,
-53,
-53,
-53,
-53,
-52,
-52,
-51,
-51,
-51,
-51,
-51,
-51,
-51,
-51,
-49,
-49,
-51,
-51,
-50,
-50,
-49,
-49,
-51,
-51,
-50,
-50,
-49,
-49,
-48,
-48,
-48,
-48,
-47,
-47,
-47,
-47,
-45,
-45,
-44,
-44,
-45,
-45,
-45,
-45,
-43,
-43,
-43,
-43,
-42,
-42,
-41,
-41,
-40,
-40,
-39,
-39,
-37,
-37,
-35,
-35,
-33,
-33,
-31,
-31,
-26,
-26,
-21,
-21,
-17,
-17,
-13,
-13,
-9,
-9,
-1,
-1,
5,
5,
9,
9,
16,
16,
19,
19,
24,
24,
25,
25,
27,
27,
30,
30,
31,
31,
35,
35,
35,
35,
36,
36,
37,
37,
37,
37,
39,
39,
38,
38,
40,
40,
41,
41,
40,
40,
40,
40,
42,
42,
41,
41,
43,
43,
42,
42,
42,
42,
44,
44,
44,
44,
44,
44,
44,
44,
47,
47,
45,
45,
45,
45,
46,
46,
45,
45,
45,
45,
47,
47,
46,
46,
46,
46,
46,
46,
46,
46,
47,
47,
48,
48,
47,
47,
47,
47,
49,
49,
47,
47,
49,
49,
49,
49,
48,
48,
47,
47,
48,
48,
49,
49,
49,
49,
49,
49,
49,
49,
49,
49,
50,
50,
50,
50,
48,
48,
50,
50,
49,
49,
50,
50,
52,
52,
51,
51,
50,
50,
50,
50,
49,
49,
52,
52,
49,
49,
51,
51,
51,
51,
52,
52,
52,
52,
51,
51,
52,
52,
51,
51,
51,
51,
51,
51,
49,
49,
51,
51,
50,
50,
48,
48,
49,
49,
48,
48,
48,
48,
50,
50,
49,
49,
48,
48,
48,
48,
48,
48,
47,
47,
46,
46,
48,
48,
46,
46,
47,
47,
48,
48,
46,
46,
46,
46,
45,
45,
44,
44,
45,
45,
43,
43,
44,
44,
42,
42,
43,
43,
40,
40,
40,
40,
40,
40,
38,
38,
37,
37,
38,
38,
36,
36,
35,
35,
33,
33,
29,
29,
29,
29,
22,
22,
19,
19,
11,
11,
5,
-6,
-6,
-6,
-12,
-23,
-22,
-22,
-29,
-29,
-35,
-35,
-36,
-36,
-38,
-38,
-41,
-41,
-43,
-43,
-44,
-44,
-44,
-44,
-45,
-45,
-45,
-45,
-48,
-48,
-47,
-47,
-49,
-49,
-50,
-50,
-49,
-49,
-51,
-51,
-51,
-51,
-51,
-51,
-52,
-52,
-52,
-52,
-53,
-53,
-53,
-53,
-52,
-52,
-53,
-53,
-52,
-52,
-53,
-53,
-54,
-54,
-55,
-55,
-54,
-54,
-54,
-54,
-56,
-56,
-55,
-55,
-56,
-56,
-56,
-56,
-55,
-55,
-57,
-57,
-56,
-56,
-56,
-56,
-57,
-57,
-56,
-56,
-57,
-57,
-56,
-56,
-59,
-59,
-58,
-58,
-56,
-56,
-58,
-58,
-58,
-58,
-56,
-56,
-57,
-57,
-55,
-55,
-57,
-57,
-57,
-57,
-55,
-55,
-56,
-56,
-56,
-56,
-56,
-56,
-54,
-54,
-56,
-56,
-56,
-56,
-54,
-54,
-55,
-55,
-57,
-57,
-54,
-54,
-55,
-55,
-55,
-55,
-55,
-55,
-55,
-55,
-53,
-53,
-53,
-53,
-53,
-53,
-53,
-53,
-53,
-53,
-54,
-54,
-53,
-53,
-52,
-52,
-53,
-53,
-53,
-53,
-52,
-52,
-52,
-52,
-51,
-51,
-53,
-53,
-52,
-52,
-50,
-50,
-50,
-50,
-48,
-48,
-49,
-49,
-49,
-49,
-49,
-49,
-49,
-49,
-48,
-48,
-48,
-48,
-47,
-47,
-46,
-46,
-48,
-48,
-45,
-45,
-46,
-46,
-45,
-45,
-44,
-44,
-43,
-43,
-41,
-41,
-41,
-41,
-41,
-41,
-39,
-39,
-37,
-37,
-34,
-34,
-33,
-33,
-31,
-31,
-28,
-28,
-23,
-23,
-17,
-17,
-13,
-13,
-9,
-9,
-1,
-1,
3,
3,
9,
9,
14,
14,
18,
18,
21,
21,
25,
25,
30,
30,
29,
29,
32,
32,
32,
32,
35,
35,
37,
37,
37,
37,
36,
36,
40,
40,
40,
40,
39,
39,
40,
40,
41,
41,
40,
40,
40,
40,
43,
43,
41,
41,
41,
41,
45,
45,
43,
43,
44,
44,
43,
43,
44,
44,
46,
46,
46,
46,
45,
45,
44,
44,
46,
46,
46,
46,
45,
45,
46,
46,
45,
45,
46,
46,
47,
47,
48,
48,
48,
48,
47,
47,
47,
47,
48,
48,
48,
48,
49,
49,
48,
48,
48,
48,
48,
48,
47,
47,
48,
48,
47,
47,
49,
49,
50,
50,
50,
50,
49,
49,
48,
48,
49,
49,
50,
50,
50,
50,
51,
51,
50,
50,
51,
51,
50,
50,
51,
51,
50,
50,
49,
49,
51,
51,
51,
51,
50,
50,
52,
52,
51,
51,
50,
50,
51,
51,
50,
50,
51,
51,
51,
51,
51,
51,
49,
49,
49,
49,
50,
50,
48,
48,
49,
49,
49,
49,
51,
51,
49,
49,
48,
48,
48,
48,
49,
49,
47,
47,
47,
47,
48,
48,
47,
47,
45,
45,
45,
45,
47,
47,
46,
46,
45,
45,
46,
46,
45,
45,
45,
45,
43,
43,
42,
42,
44,
44,
41,
41,
41,
41,
40,
40,
39,
39,
37,
37,
37,
37,
36,
36,
35,
35,
32,
32,
32,
32,
28,
28,
25,
25,
19,
19,
13,
13,
5,
5,
-3,
-3,
-10,
-10,
-17,
-28,
-24,
-24,
-32,
-32,
-35,
-35,
-41,
-41,
-40,
-40,
-42,
-42,
-44,
-44,
-44,
-44,
-46,
-46,
-46,
-46,
-48,
-48,
-48,
-48,
-50,
-50,
-47,
-47,
-49,
-49,
-51,
-51,
-51,
-51,
-53,
-53,
-52,
-52,
-52,
-52,
-51,
-51,
-53,
-53,
-53,
-53,
-52,
-52,
-52,
-52,
-55,
-55,
-55,
-55,
-55,
-55,
-54,
-54,
-53,
-53,
-56,
-56,
-56,
-56,
-56,
-56,
-55,
-55,
-56,
-56,
-55,
-55,
-56,
-56,
-56,
-56,
-55,
-55,
-55,
-55,
-57,
-57,
-56,
-56,
-59,
-59,
-58,
-58,
-57,
-57,
-58,
-58,
-58,
-58,
-58,
-58,
-58,
-58,
-55,
-55,
-56,
-56,
-56,
-56,
-55,
-55,
-55,
-55,
-56,
-56,
-57,
-57,
-55,
-55,
-56,
-56,
-55,
-55,
-55,
-55,
-56,
-56,
-56,
-56,
-56,
-56,
-55,
-55,
-54,
-54,
-54,
-54,
-53,
-53,
-53,
-53,
-53,
-53,
-54,
-54,
-55,
-55,
-52,
-52,
-53,
-53,
-52,
-52,
-53,
-53,
-52,
-52,
-53,
-53,
-53,
-53,
-53,
-53,
-51,
-51,
-51,
-51,
-50,
-50,
-50,
-50,
-50,
-50,
-49,
-49,
-50,
-50,
-49,
-49,
-49,
-49,
-48,
-48,
-48,
-48,
-48,
-48,
-47,
-47,
-48,
-48,
-48,
-48,
-46,
-46,
-45,
-45,
-44,
-44,
-44,
-44,
-42,
-42,
-41,
-41,
-42,
-42,
-40,
-40,
-40,
-40,
-36,
-36,
-35,
-35,
-34,
-34,
-31,
-31,
-30,
-30,
-24,
-24,
-19,
-19,
-13,
-13,
-10,
-10,
-2,
-2,
1,
1,
8,
8,
12,
12,
18,
18,
21,
21,
26,
26,
29,
29,
30,
30,
30,
30,
31,
31,
35,
35,
35,
35,
37,
37,
37,
37,
39,
39,
39,
39,
40,
40,
39,
39,
41,
41,
41,
41,
41,
41,
42,
42,
41,
41,
41,
41,
42,
42,
43,
43,
45,
45,
45,
45,
46,
46,
45,
45,
45,
45,
45,
45,
45,
45,
47,
47,
45,
45,
46,
46,
47,
47,
45,
45,
46,
46,
47,
47,
47,
47,
47,
47,
48,
48,
48,
48,
48,
48,
48,
48,
48,
48,
48,
48,
49,
49,
48,
48,
49,
49,
49,
49,
49,
49,
49,
49,
48,
48,
48,
48,
49,
49,
50,
50,
51,
51,
50,
50,
50,
50,
50,
50,
49,
49,
51,
51,
49,
49,
51,
51,
51,
51,
52,
52,
50,
50,
49,
49,
51,
51,
51,
51,
51,
51,
51,
51,
53,
53,
50,
50,
51,
51,
50,
50,
52,
52,
48,
48,
50,
50,
52,
52,
49,
49,
49,
49,
48,
48,
48,
48,
49,
49,
48,
48,
48,
48,
49,
49,
48,
48,
48,
48,
47,
47,
48,
48,
46,
46,
47,
47,
47,
47,
46,
46,
45,
45,
45,
45,
43,
43,
45,
45,
45,
45,
43,
43,
42,
42,
41,
41,
41,
41,
41,
41,
40,
40,
38,
38,
38,
38,
37,
37,
34,
34,
32,
32,
32,
32,
29,
29,
27,
27,
22,
22,
16,
16,
7,
7,
-1,
-1,
-10,
-10,
-17,
-17,
-27,
-27,
-33,
-33,
-36,
-36,
-38,
-38,
-40,
-40,
-42,
-42,
-44,
-44,
-45,
-45,
-45,
-45,
-45,
-45,
-47,
-47,
-48,
-48,
-48,
-48,
-48,
-48,
-50,
-50,
-51,
-51,
-52,
-52,
-52,
-52,
-49,
-49,
-52,
-52,
-51,
-51,
-53,
-53,
-54,
-54,
-52,
-52,
-53,
-53,
-55,
-55,
-53,
-53,
-54,
-54,
-53,
-53,
-55,
-55,
-56,
-56,
-57,
-57,
-56,
-56,
-55,
-55,
-57,
-57,
-55,
-55,
-57,
-57,
-57,
-57,
-55,
-55,
-56,
-56,
-57,
-57,
-56,
-56,
-56,
-56,
-57,
-57,
-57,
-57,
-58,
-58,
-58,
-58,
-57,
-57,
-56,
-56,
-58,
-58,
-57,
-57,
-56,
-56,
-56,
-56,
-55,
-55,
-55,
-55,
-56,
-56,
-56,
-56,
-55,
-55,
-55,
-55,
-55,
-55,
-55,
-55,
-55,
-55,
-55,
-55,
-55,
-55,
-56,
-56,
-54,
-54,
-54,
-54,
-55,
-55,
-53,
-53,
-52,
-52,
-53,
-53,
-54,
-54,
-53,
-53,
-53,
-53,
-52,
-52,
-53,
-53,
-52,
-52,
-53,
-53,
-52,
-52,
-53,
-53,
-50,
-50,
-52,
-52,
-52,
-52,
-50,
-50,
-48,
-48,
-50,
-50,
-49,
-49,
-49,
-49,
-48,
-48,
-49,
-49,
-49,
-49,
-49,
-49,
-47,
-47,
-46,
-46,
-47,
-47,
-45,
-45,
-46,
-46,
-44,
-44,
-43,
-43,
-41,
-41,
-43,
-43,
-39,
-39,
-39,
-39,
-36,
-36,
-37,
-37,
-35,
-35,
-33,
-33,
-28,
-28,
-24,
-24,
-20,
-20,
-14,
-14,
-11,
-11,
-5,
-5,
2,
2,
8,
8,
11,
11,
18,
18,
20,
20,
27,
27,
27,
27,
29,
29,
31,
31,
33,
33,
36,
36,
34,
34,
36,
36,
35,
35,
37,
37,
39,
39,
40,
40,
39,
39,
41,
41,
41,
41,
42,
42,
41,
41,
43,
43,
41,
41,
44,
44,
44,
44,
43,
43,
43,
43,
44,
44,
44,
44,
45,
45,
46,
46,
45,
45,
46,
46,
45,
45,
46,
46,
46,
46,
47,
47,
47,
47,
47,
47,
47,
47,
46,
46,
48,
48,
48,
48,
48,
48,
48,
48,
49,
49,
48,
48,
48,
48,
48,
48,
49,
49,
50,
50,
48,
48,
48,
48,
49,
49,
49,
49,
49,
49,
49,
49,
50,
50,
50,
50,
51,
51,
51,
51,
50,
50,
50,
50,
50,
50,
51,
51,
50,
50,
50,
50,
50,
50,
50,
50,
53,
53,
51,
51,
51,
51,
50,
50,
51,
51,
51,
51,
50,
50,
51,
51,
51,
51,
50,
50,
50,
50,
49,
49,
48,
48,
48,
48,
49,
49,
49,
49,
48,
48,
49,
49,
48,
48,
47,
47,
48,
48,
47,
47,
47,
47,
48,
48,
46,
46,
47,
47,
47,
47,
45,
45,
45,
45,
44,
44,
45,
45,
43,
43,
44,
44,
44,
44,
42,
42,
43,
43,
41,
41,
39,
39,
39,
39,
38,
38,
39,
39,
37,
37,
33,
33,
32,
32,
32,
32,
30,
30,
24,
24,
19,
19,
15,
15,
5,
5,
-2,
-2,
-10,
-10,
-16,
-16,
-26,
-26,
-31,
-31,
-35,
-35,
-37,
-37,
-41,
-41,
-42,
-42,
-44,
-44,
-45,
-45,
-46,
-46,
-44,
-44,
-47,
-47,
-48,
-48,
-47,
-47,
-48,
-48,
-50,
-50,
-51,
-51,
-50,
-50,
-50,
-50,
-50,
-50,
-53,
-53,
-53,
-53,
-53,
-53,
-53,
-53,
-53,
-53,
-52,
-52,
-54,
-54,
-55,
-55,
-53,
-53,
-54,
-54,
-55,
-55,
-55,
-55,
-56,
-56,
-54,
-54,
-56,
-56,
-57,
-57,
-57,
-57,
-56,
-56,
-56,
-56,
-56,
-56,
-55,
-55,
-56,
-56,
-57,
-57,
-57,
-57,
-57,
-57,
-58,
-58,
-58,
-58,
-58,
-58,
-56,
-56,
-56,
-56,
-57,
-57,
-56,
-56,
-57,
-57,
-56,
-56,
-56,
-56,
-56,
-56,
-56,
-56,
-56,
-56,
-55,
-55,
-54,
-54,
-56,
-56,
-55,
-55,
-56,
-56,
-54,
-54,
-54,
-54,
-55,
-55,
-55,
-55,
-55,
-55,
-53,
-53,
-54,
-54,
-53,
-53,
-52,
-52,
-53,
-53,
-52,
-52,
-53,
-53,
-53,
-53,
-53,
-53,
-53,
-53,
-52,
-52,
-51,
-51,
-50,
-50,
-50,
-50,
-51,
-51,
-51,
-51,
-51,
-51,
-48,
-48,
-48,
-48,
-50,
-50,
-49,
-49,
-48,
-48,
-48,
-48,
-48,
-48,
-49,
-49,
-48,
-48,
-47,
-47,
-47,
-47,
-46,
-46,
-45,
-45,
-45,
-45,
-43,
-43,
-41,
-41,
-41,
-41,
-42,
-42,
-39,
-39,
-36,
-36,
-37,
-37,
-35,
-35,
-33,
-33,
-27,
-27,
-24,
-24,
-21,
-21,
-16,
-16,
-10,
-10,
-5,
-5,
0,
0,
7,
7,
11,
11,
16,
16,
21,
21,
26,
26,
25,
25,
29,
29,
29,
29,
33,
33,
34,
34,
35,
35,
36,
36,
37,
37,
39,
39,
38,
38,
39,
39,
40,
40,
41,
41,
41,
41,
42,
42,
41,
41,
42,
42,
43,
43,
43,
43,
43,
43,
43,
43,
44,
44,
43,
43,
45,
45,
45,
45,
45,
45,
45,
45,
46,
46,
46,
46,
47,
47,
45,
45,
45,
45,
46,
46,
47,
47,
48,
48,
47,
47,
47,
47,
47,
47,
48,
48,
48,
48,
48,
48,
49,
49,
49,
49,
49,
49,
48,
48,
48,
48,
49,
49,
48,
48,
48,
48,
50,
50,
49,
49,
50,
50,
49,
49,
50,
50,
49,
49,
51,
51,
51,
51,
50,
50,
51,
51,
51,
51,
50,
50,
51,
51,
51,
51,
49,
49,
52,
52,
50,
50,
51,
51,
50,
50,
50,
50,
51,
51,
52,
52,
52,
52,
49,
49,
51,
51,
51,
51,
49,
49,
49,
49,
48,
48,
50,
50,
50,
50,
47,
47,
48,
48,
47,
47,
48,
48,
48,
48,
49,
49,
48,
48,
47,
47,
47,
47,
46,
46,
44,
44,
45,
45,
45,
45,
47,
47,
45,
45,
43,
43,
43,
43,
41,
41,
43,
43,
41,
41,
41,
41,
40,
40,
40,
40,
39,
39,
37,
37,
36,
36,
35,
35,
34,
34,
31,
31,
29,
29,
24,
24,
21,
21,
14,
14,
9,
9,
0,
0,
-7,
-7,
-13,
-26,
-25,
-25,
-29,
-29,
-35,
-35,
-38,
-38,
-41,
-41,
-43,
-43,
-43,
-43,
-43,
-43,
-46,
-46,
-45,
-45,
-47,
-47,
-47,
-47,
-49,
-49,
-48,
-48,
-48,
-48,
-51,
-51,
-50,
-50,
-51,
-51,
-51,
-51,
-53,
-53,
-53,
-53,
-52,
-52,
-51,
-51,
-54,
-54,
-53,
-53,
-55,
-55,
-54,
-54,
-54,
-54,
-53,
-53,
-53,
-53,
-55,
-55,
-55,
-55,
-56,
-56,
-56,
-56,
-57,
-57,
-56,
-56,
-56,
-56,
-55,
-55,
-58,
-58,
-56,
-56,
-57,
-57,
-58,
-58,
-55,
-55,
-57,
-57,
-56,
-56,
-56,
-56,
-58,
-58,
-56,
-56,
-58,
-58,
-58,
-58,
-57,
-57,
-56,
-56,
-56,
-56,
-57,
-57,
-57,
-57,
-56,
-56,
-55,
-55,
-57,
-57,
-56,
-56,
-55,
-55,
-55,
-55,
-56,
-56,
-55,
-55,
-55,
-55,
-55,
-55,
-54,
-54,
-53,
-53,
-54,
-54,
-54,
-54,
-53,
-53,
-54,
-54,
-53,
-53,
-53,
-53,
-53,
-53,
-52,
-52,
-52,
-52,
-52,
-52,
-53,
-53,
-51,
-51,
-53,
-53,
-51,
-51,
-51,
-51,
-51,
-51,
-51,
-51,
-50,
-50,
-50,
-50,
-51,
-51,
-49,
-49,
-48,
-48,
-48,
-48,
-48,
-48,
-48,
-48,
-48,
-48,
-48,
-48,
-46,
-46,
-46,
-46,
-45,
-45,
-44,
-44,
-43,
-43,
-43,
-43,
-42,
-42,
-42,
-42,
-40,
-40,
-37,
-37,
-37,
-37,
-35,
-35,
-33,
-33,
-30,
-30,
-26,
-26,
-21,
-21,
-16,
-16,
-12,
-12,
-6,
-6,
0,
0,
5,
5,
11,
11,
14,
14,
19,
19,
25,
25,
27,
27,
29,
29,
30,
30,
32,
32,
32,
32,
34,
34,
35,
35,
36,
36,
38,
38,
37,
37,
40,
40,
40,
40,
39,
39,
40,
40,
41,
41,
42,
42,
41,
41,
41,
41,
44,
44,
42,
42,
43,
43,
44,
44,
43,
43,
45,
45,
45,
45,
45,
45,
45,
45,
44,
44,
46,
46,
46,
46,
46,
46,
48,
48,
46,
46,
46,
46,
47,
47,
46,
46,
47,
47,
47,
47,
47,
47,
48,
48,
48,
48,
48,
48,
47,
47,
48,
48,
48,
48,
49,
49,
50,
50,
48,
48,
49,
49,
50,
50,
48,
48,
49,
49,
49,
49,
49,
49,
50,
50,
49,
49,
48,
48,
49,
49,
51,
51,
51,
51,
50,
50,
49,
49,
51,
51,
50,
50,
51,
51,
50,
50,
50,
50,
51,
51,
51,
51,
51,
51,
51,
51,
50,
50,
50,
50,
51,
51,
50,
50,
49,
49,
50,
50,
48,
48,
49,
49,
49,
49,
49,
49,
48,
48,
48,
48,
48,
48,
49,
49,
49,
49,
47,
47,
46,
46,
47,
47,
47,
47,
46,
46,
45,
45,
45,
45,
44,
44,
45,
45,
43,
43,
43,
43,
42,
42,
45,
45,
42,
42,
43,
43,
41,
41,
39,
39,
40,
40,
39,
39,
38,
38,
35,
35,
35,
35,
32,
32,
29,
29,
26,
26,
21,
21,
15,
15,
11,
0,
1,
1,
-5,
-5,
-15,
-15,
-23,
-23,
-29,
-29,
-34,
-34,
-36,
-36,
-39,
-39,
-43,
-43,
-43,
-43,
-45,
-45,
-46,
-46,
-47,
-47,
-48,
-48,
-47,
-47,
-48,
-48,
-48,
-48,
-49,
-49,
-50,
-50,
-47,
-47,
-51,
-51,
-51,
-51,
-50,
-50,
-53,
-53,
-53,
-53,
-53,
-53,
-54,
-54,
-54,
-54,
-55,
-55,
-53,
-53,
-55,
-55,
-54,
-54,
-56,
-56,
-55,
-55,
-54,
-54,
-55,
-55,
-56,
-56,
-56,
-56,
-56,
-56,
-56,
-56,
-56,
-56,
-56,
-56,
-56,
-56,
-57,
-57,
-56,
-56,
-56,
-56,
-56,
-56,
-58,
-58,
-57,
-57,
-56,
-56,
-58,
-58,
-56,
-56,
-55,
-55,
-57,
-57,
-58,
-58,
-57,
-57,
-56,
-56,
-56,
-56,
-56,
-56,
-56,
-56,
-55,
-55,
-55,
-55,
-56,
-56,
-56,
-56,
-54,
-54,
-55,
-55,
-54,
-54,
-54,
-54,
-54,
-54,
-55,
-55,
-54,
-54,
-55,
-55,
-54,
-54,
-55,
-55,
-53,
-53,
-53,
-53,
-53,
-53,
-53,
-53,
-53,
-53,
-52,
-52,
-52,
-52,
-50,
-50,
-51,
-51,
-52,
-52,
-51,
-51,
-50,
-50,
-51,
-51,
-50,
-50,
-51,
-51,
-50,
-50,
-49,
-49,
-49,
-49,
-49,
-49,
-48,
-48,
-47,
-47,
-47,
-47,
-48,
-48,
-45,
-45,
-47,
-47,
-47,
-47,
-44,
-44,
-44,
-44,
-42,
-42,
-42,
-42,
-42,
-42,
-40,
-40,
-39,
-39,
-36,
-36,
-36,
-36,
-31,
-31,
-29,
-29,
-27,
-27,
-19,
-19,
-18,
-18,
-12,
-12,
-7,
-7,
-1,
-1,
5,
5,
10,
10,
14,
14,
20,
20,
24,
24,
26,
26,
28,
28,
31,
31,
31,
31,
33,
33,
35,
35,
35,
35,
36,
36,
38,
38,
38,
38,
39,
39,
39,
39,
40,
40,
41,
41,
42,
42,
42,
42,
43,
43,
43,
43,
41,
41,
43,
43,
44,
44,
43,
43,
43,
43,
45,
45,
45,
45,
45,
45,
45,
45,
44,
44,
46,
46,
47,
47,
47,
47,
45,
45,
46,
46,
46,
46,
47,
47,
47,
47,
46,
46,
46,
46,
48,
48,
48,
48,
49,
49,
47,
47,
48,
48,
49,
49,
49,
49,
49,
49,
48,
48,
50,
50,
49,
49,
49,
49,
50,
50,
48,
48,
49,
49,
50,
50,
48,
48,
50,
50,
49,
49,
50,
50,
50,
50,
51,
51,
51,
51,
50,
50,
51,
51,
51,
51,
50,
50,
51,
51,
50,
50,
51,
51,
52,
52,
51,
51,
51,
51,
50,
50,
49,
49,
51,
51,
49,
49,
49,
49,
50,
50,
50,
50,
49,
49,
48,
48,
49,
49,
47,
47,
48,
48,
49,
49,
49,
49,
48,
48,
47,
47,
46,
46,
48,
48,
47,
47,
47,
47,
46,
46,
47,
47,
45,
45,
45,
45,
45,
45,
44,
44,
44,
44,
43,
43,
43,
43,
41,
41,
39,
39,
40,
40,
40,
40,
40,
40,
38,
38,
35,
35,
35,
35,
32,
32,
30,
30,
27,
27,
21,
21,
16,
16,
13,
2,
3,
3,
-4,
-15,
-15,
-15,
-23,
-23,
-29,
-29,
-33,
-33,
-37,
-37,
-40,
-40,
-40,
-40,
-44,
-44,
-44,
-44,
-45,
-45,
-48,
-48,
-48,
-48,
-47,
-47,
-48,
-48,
-48,
-48,
-50,
-50,
-51,
-51,
-48,
-48,
-50,
-50,
-50,
-50,
-51,
-51,
-50,
-50,
-52,
-52,
-52,
-52,
-53,
-53,
-55,
-55,
-54,
-54,
-53,
-53,
-54,
-54,
-53,
-53,
-56,
-56,
-55,
-55,
-53,
-53,
-56,
-56,
-55,
-55,
-57,
-57,
-55,
-55,
-56,
-56,
-56,
-56,
-56,
-56,
-57,
-57,
-56,
-56,
-56,
-56,
-59,
-59,
-58,
-58,
-59,
-59,
-58,
-58,
-56,
-56,
-57,
-57,
-55,
-55,
-56,
-56,
-56,
-56,
-57,
-57,
-58,
-58,
-56,
-56,
-58,
-58,
-56,
-56,
-55,
-55,
-56,
-56,
-55,
-55,
-55,
-55,
-55,
-55,
-55,
-55,
-55,
-55,
-54,
-54,
-54,
-54,
-54,
-54,
-56,
-56,
-55,
-55,
-52,
-52,
-55,
-55,
-54,
-54,
-53,
-53,
-52,
-52,
-52,
