5-grundlagen-opAmps/data/ALL0042/A0042CH1.CSV

Memory Length,4000,
Trigger Level,0.00000e+00,
Source,CH1,
Probe,1.0X,
Vertical Units,V,
Vertical Scale,5.00000e-02,
Vertical Position,0.00000e+00,
Horizontal Units,S,
Horizontal Scale,2.50000e-05,
Horizontal Position,2.5000000e-05,
Horizontal Mode,Main,
Sampling Period,1.00000e-07,
Firmware,V1.14,
Time, ,
Mode,Fast,
Waveform Data,
-3,
-3,
-3,
-1,
10,
7,
-4,
2,
2,
7,
7,
4,
4,
9,
9,
3,
14,
11,
11,
16,
16,
15,
4,
13,
13,
12,
12,
13,
13,
16,
16,
14,
14,
14,
14,
16,
16,
14,
14,
18,
18,
20,
20,
18,
18,
16,
27,
17,
17,
21,
21,
25,
14,
18,
18,
26,
13,
19,
19,
18,
18,
20,
20,
14,
14,
18,
18,
12,
25,
23,
23,
17,
17,
15,
15,
12,
12,
15,
15,
19,
7,
18,
18,
13,
13,
20,
9,
13,
13,
4,
18,
10,
10,
7,
7,
10,
10,
5,
5,
12,
0,
2,
2,
4,
4,
0,
0,
4,
-7,
5,
-8,
-1,
-1,
-2,
-2,
-2,
-2,
-5,
-5,
-9,
-9,
-6,
-6,
-10,
-10,
-10,
-10,
-11,
-11,
-12,
-12,
-12,
-12,
-13,
-13,
-14,
-14,
-16,
-16,
-19,
-19,
-16,
-16,
-23,
-23,
-21,
-21,
-20,
-20,
-21,
-21,
-20,
-31,
-25,
-25,
-29,
-29,
-28,
-28,
-24,
-24,
-22,
-22,
-27,
-27,
-25,
-25,
-29,
-29,
-33,
-33,
-26,
-26,
-37,
-25,
-26,
-26,
-26,
-38,
-30,
-30,
-28,
-28,
-31,
-31,
-28,
-28,
-31,
-31,
-22,
-35,
-28,
-28,
-27,
-27,
-28,
-28,
-27,
-27,
-25,
-25,
-24,
-24,
-27,
-27,
-25,
-25,
-21,
-21,
-23,
-23,
-22,
-22,
-21,
-21,
-17,
-17,
-18,
-18,
-15,
-15,
-17,
-17,
-15,
-15,
-15,
-15,
-15,
-15,
-10,
-10,
-6,
-6,
-10,
-10,
-12,
-1,
-6,
-6,
-3,
-3,
-4,
-4,
-8,
4,
-5,
-5,
-4,
-4,
-1,
-1,
4,
4,
-1,
-1,
4,
4,
2,
2,
4,
4,
12,
0,
4,
17,
11,
11,
13,
13,
12,
12,
14,
14,
7,
18,
12,
23,
9,
9,
17,
17,
18,
18,
12,
23,
14,
25,
16,
16,
18,
18,
21,
21,
17,
17,
26,
15,
20,
20,
17,
17,
21,
21,
17,
17,
21,
21,
18,
18,
22,
22,
20,
20,
17,
17,
17,
17,
17,
17,
21,
21,
19,
19,
19,
19,
17,
17,
16,
16,
15,
15,
20,
8,
13,
13,
11,
11,
15,
15,
9,
9,
12,
12,
8,
8,
13,
2,
3,
3,
4,
4,
8,
-4,
2,
2,
-1,
-1,
5,
-7,
3,
-8,
7,
-8,
-5,
-5,
-11,
5,
-4,
-4,
-7,
-7,
-3,
-3,
-12,
-12,
-3,
-16,
-14,
-14,
-19,
-7,
-12,
-12,
-20,
-9,
-17,
-17,
-10,
-23,
-15,
-26,
-16,
-16,
-20,
-20,
-25,
-25,
-21,
-21,
-22,
-22,
-20,
-20,
-25,
-25,
-22,
-22,
-24,
-24,
-29,
-29,
-29,
-29,
-29,
-29,
-30,
-30,
-26,
-26,
-23,
-35,
-29,
-29,
-26,
-26,
-28,
-28,
-26,
-26,
-30,
-30,
-25,
-25,
-27,
-27,
-28,
-28,
-33,
-33,
-30,
-30,
-27,
-27,
-27,
-27,
-33,
-21,
-25,
-25,
-19,
-32,
-22,
-33,
-25,
-25,
-25,
-25,
-23,
-23,
-24,
-24,
-14,
-27,
-25,
-25,
-16,
-16,
-25,
-13,
-20,
-20,
-13,
-13,
-16,
-16,
-14,
-14,
-9,
-20,
-11,
-11,
-7,
-7,
-15,
-3,
-10,
-10,
-9,
-9,
-4,
-4,
-3,
-3,
-9,
4,
-1,
-1,
-2,
-2,
1,
1,
2,
2,
3,
3,
3,
3,
5,
5,
4,
4,
8,
8,
5,
5,
9,
9,
9,
9,
8,
20,
12,
12,
11,
11,
15,
15,
11,
22,
15,
15,
18,
18,
17,
17,
12,
24,
18,
18,
21,
21,
24,
12,
19,
19,
13,
25,
21,
21,
13,
27,
24,
24,
17,
30,
24,
24,
14,
26,
14,
26,
24,
24,
16,
16,
17,
17,
23,
11,
20,
20,
25,
12,
17,
17,
10,
21,
16,
16,
16,
16,
17,
6,
9,
9,
14,
14,
9,
9,
8,
8,
10,
10,
9,
9,
9,
9,
10,
10,
5,
5,
7,
7,
5,
5,
-1,
-1,
5,
-8,
3,
3,
-2,
-2,
-4,
-4,
-3,
-3,
-8,
-8,
-5,
-5,
-7,
-7,
-5,
-5,
-13,
-13,
-8,
-8,
-9,
-9,
-8,
-20,
-14,
-14,
-19,
-19,
-11,
-24,
-18,
-18,
-15,
-27,
-25,
-25,
-15,
-27,
-25,
-25,
-28,
-15,
-20,
-31,
-24,
-24,
-29,
-29,
-18,
-33,
-23,
-23,
-22,
-33,
-31,
-31,
-35,
-20,
-29,
-29,
-28,
-28,
-24,
-35,
-35,
-24,
-22,
-36,
-29,
-29,
-35,
-35,
-30,
-30,
-34,
-34,
-30,
-30,
-23,
-23,
-27,
-27,
-28,
-28,
-29,
-29,
-29,
-29,
-26,
-26,
-27,
-27,
-21,
-32,
-25,
-25,
-22,
-22,
-20,
-20,
-26,
-26,
-26,
-14,
-22,
-22,
-21,
-21,
-18,
-18,
-12,
-24,
-17,
-17,
-13,
-13,
-13,
-13,
-9,
-9,
-15,
-15,
-6,
-6,
-6,
-6,
-7,
-7,
-10,
2,
-9,
-9,
-5,
-5,
-3,
-3,
-8,
5,
-1,
-1,
7,
-5,
5,
5,
4,
4,
2,
2,
9,
9,
1,
15,
12,
12,
7,
7,
15,
2,
2,
16,
6,
17,
16,
16,
12,
12,
9,
20,
17,
17,
18,
18,
20,
20,
15,
15,
15,
26,
19,
19,
16,
16,
19,
19,
16,
16,
23,
23,
17,
17,
19,
19,
20,
20,
23,
23,
17,
17,
22,
22,
20,
20,
20,
20,
19,
19,
19,
19,
21,
21,
15,
15,
14,
14,
16,
16,
15,
15,
16,
16,
16,
16,
12,
12,
20,
8,
8,
8,
10,
10,
13,
13,
7,
7,
12,
12,
6,
6,
10,
10,
-2,
12,
4,
4,
4,
4,
2,
2,
-2,
-2,
-3,
-3,
-2,
-2,
1,
1,
-5,
-5,
-5,
-5,
-3,
-14,
-7,
-7,
-8,
-8,
-11,
-11,
-11,
-11,
-14,
-14,
-11,
-11,
-18,
-18,
-14,
-14,
-16,
-16,
-20,
-20,
-21,
-21,
-19,
-19,
-16,
-29,
-22,
-22,
-26,
-15,
-22,
-22,
-21,
-21,
-23,
-23,
-24,
-24,
-25,
-25,
-29,
-18,
-26,
-26,
-28,
-28,
-24,
-24,
-28,
-28,
-35,
-20,
-25,
-37,
-28,
-28,
-32,
-32,
-31,
-31,
-29,
-29,
-23,
-35,
-25,
-37,
-23,
-34,
-29,
-29,
-30,
-30,
-25,
-25,
-25,
-25,
-27,
-27,
-26,
-26,
-29,
-29,
-21,
-21,
-27,
-15,
-24,
-24,
-19,
-19,
-18,
-18,
-15,
-15,
-21,
-21,
-14,
-14,
-20,
-8,
-16,
-16,
-15,
-15,
-9,
-9,
-12,
-12,
-16,
-5,
-12,
-12,
-10,
-10,
-11,
-11,
-2,
-2,
-4,
-4,
-6,
-6,
-2,
-2,
-2,
-2,
2,
2,
1,
1,
0,
0,
3,
3,
4,
4,
11,
-3,
4,
4,
0,
16,
10,
10,
11,
11,
11,
11,
13,
13,
7,
18,
18,
7,
17,
17,
19,
19,
15,
15,
16,
16,
22,
10,
15,
15,
21,
21,
18,
18,
12,
26,
23,
12,
18,
18,
17,
28,
25,
25,
18,
18,
27,
15,
24,
13,
26,
14,
18,
18,
24,
24,
21,
21,
24,
13,
18,
18,
15,
26,
14,
14,
17,
17,
15,
15,
17,
17,
16,
16,
15,
15,
14,
14,
14,
14,
14,
14,
12,
12,
12,
12,
10,
10,
12,
12,
8,
8,
5,
5,
0,
0,
5,
5,
1,
1,
0,
0,
-1,
-1,
-3,
-3,
1,
1,
-1,
-1,
0,
-12,
-9,
-9,
-9,
-9,
-4,
-15,
-8,
-8,
-10,
-10,
-11,
-11,
-18,
-18,
-11,
-11,
-21,
-10,
-19,
-19,
-13,
-24,
-21,
-21,
-15,
-28,
-20,
-20,
-18,
-30,
-30,
-17,
-22,
-22,
-19,
-30,
-23,
-23,
-26,
-26,
-29,
-29,
-28,
-28,
-27,
-27,
-33,
-33,
-29,
-29,
-23,
-35,
-30,
-30,
-27,
-27,
-29,
-29,
-29,
-29,
-33,
-33,
-28,
-28,
-29,
-29,
-29,
-29,
-30,
-30,
-31,
-20,
-30,
-30,
-25,
-36,
-26,
-26,
-27,
-27,
-26,
-26,
-28,
-28,
-22,
-22,
-21,
-21,
-21,
-21,
-24,
-24,
-24,
-24,
-20,
-20,
-24,
-12,
-18,
-18,
-13,
-25,
-20,
-20,
-7,
-21,
-12,
-12,
-17,
-6,
-12,
-12,
-13,
-13,
-6,
-6,
-4,
-4,
-3,
-3,
-9,
2,
-8,
3,
-3,
-3,
-4,
-4,
-2,
-2,
3,
3,
1,
1,
10,
-3,
2,
2,
1,
13,
6,
6,
9,
9,
9,
9,
9,
9,
11,
11,
5,
17,
11,
11,
11,
11,
16,
16,
15,
15,
14,
14,
16,
16,
19,
19,
18,
18,
17,
17,
16,
16,
20,
20,
19,
19,
18,
18,
18,
18,
17,
17,
18,
18,
19,
19,
20,
20,
24,
11,
19,
19,
16,
16,
20,
20,
23,
23,
17,
17,
16,
16,
16,
16,
24,
11,
18,
18,
19,
19,
14,
14,
10,
21,
20,
9,
9,
9,
16,
16,
12,
12,
4,
4,
12,
12,
10,
10,
3,
14,
6,
6,
3,
3,
11,
-3,
4,
4,
7,
-7,
-2,
-2,
-3,
-3,
3,
-11,
-4,
-4,
-4,
-4,
-7,
-7,
-8,
-8,
-7,
-7,
-9,
-9,
-13,
-13,
-9,
-9,
-13,
-13,
-11,
-11,
-14,
-14,
-15,
-15,
-16,
-16,
-17,
-17,
-19,
-19,
-19,
-19,
-20,
-20,
-22,
-22,
-23,
-23,
-25,
-25,
-21,
-21,
-24,
-24,
-30,
-30,
-31,
-19,
-29,
-29,
-23,
-35,
-30,
-30,
-23,
-34,
-32,
-32,
-27,
-38,
-31,
-31,
-24,
-37,
-22,
-36,
-33,
-33,
-26,
-26,
-27,
-27,
-33,
-21,
-31,
-31,
-35,
-20,
-28,
-28,
-19,
-32,
-28,
-28,
-25,
-25,
-29,
-18,
-19,
-31,
-28,
-28,
-19,
-30,
-17,
-17,
-23,
-23,
-19,
-19,
-19,
-19,
-26,
-13,
-18,
-18,
-18,
-18,
-15,
-15,
-11,
-11,
-17,
-4,
-15,
-15,
-11,
-11,
-8,
-8,
-10,
-10,
-7,
-7,
-4,
-4,
-2,
-2,
-6,
-6,
0,
0,
-3,
-3,
-4,
9,
0,
0,
0,
0,
3,
3,
0,
11,
7,
7,
4,
4,
9,
9,
3,
15,
12,
12,
15,
15,
13,
13,
13,
13,
20,
7,
11,
23,
11,
22,
13,
13,
19,
19,
21,
10,
17,
17,
22,
22,
13,
25,
24,
12,
12,
27,
22,
22,
26,
12,
19,
19,
26,
14,
24,
24,
16,
27,
17,
17,
18,
18,
21,
21,
23,
23,
21,
21,
20,
20,
16,
16,
18,
18,
16,
16,
17,
17,
20,
20,
17,
17,
15,
15,
16,
16,
12,
12,
6,
6,
11,
11,
7,
7,
9,
9,
4,
4,
10,
-4,
3,
3,
2,
2,
3,
3,
7,
-4,
3,
-8,
-5,
7,
-3,
-3,
3,
-10,
-5,
-5,
-13,
-2,
-12,
-12,
-7,
-7,
-5,
-16,
-13,
-13,
-7,
-7,
-17,
-17,
-8,
-20,
-18,
-18,
-9,
-23,
-15,
-15,
-24,
-24,
-21,
-21,
-19,
-19,
-26,
-14,
-23,
-23,
-27,
-16,
-19,
-30,
-23,
-23,
-24,
-24,
-26,
-26,
-27,
-27,
-20,
-32,
-29,
-29,
-26,
-26,
-29,
-29,
-29,
-29,
-32,
-20,
-29,
-29,
-31,
-31,
-28,
-28,
-30,
-30,
-28,
-28,
-26,
-26,
-30,
-30,
-25,
-25,
-27,
-27,
-25,
-25,
-29,
-29,
-25,
-25,
-24,
-24,
-23,
-23,
-26,
-26,
-19,
-19,
-22,
-22,
-25,
-25,
-25,
-14,
-23,
-23,
-14,
-25,
-22,
-22,
-11,
-24,
-21,
-21,
-13,
-13,
-20,
-8,
-9,
-9,
-5,
-17,
-10,
-10,
-8,
-8,
-5,
-5,
-11,
0,
-10,
1,
-11,
1,
-6,
-6,
3,
3,
-3,
-3,
1,
1,
-4,
7,
4,
4,
-3,
10,
7,
7,
13,
0,
9,
9,
12,
12,
10,
10,
4,
16,
8,
8,
10,
10,
10,
10,
15,
15,
11,
11,
15,
15,
16,
16,
16,
16,
16,
16,
19,
19,
19,
19,
22,
22,
16,
16,
24,
24,
18,
18,
16,
16,
21,
21,
16,
16,
18,
18,
12,
27,
23,
12,
19,
19,
20,
20,
15,
27,
22,
22,
18,
18,
19,
19,
12,
23,
24,
11,
15,
15,
10,
10,
14,
14,
14,
14,
15,
15,
10,
10,
17,
6,
8,
8,
12,
12,
5,
16,
10,
10,
9,
-3,
6,
6,
1,
1,
4,
4,
0,
0,
0,
0,
1,
1,
0,
0,
-2,
-2,
-2,
-2,
-3,
-3,
-7,
-7,
-6,
-6,
-10,
-10,
-12,
-12,
-11,
-11,
-10,
-10,
-17,
-17,
-17,
-17,
-14,
-14,
-16,
-16,
-17,
-17,
-23,
-23,
-22,
-22,
-22,
-22,
-19,
-19,
-19,
-31,
-27,
-27,
-22,
-22,
-28,
-28,
-26,
-26,
-20,
-34,
-32,
-32,
-28,
-28,
-23,
-36,
-29,
-29,
-29,
-29,
-37,
-25,
-30,
-30,
-36,
-23,
-24,
-35,
-27,
-27,
-31,
-31,
-30,
-30,
-27,
-27,
-26,
-26,
-28,
-28,
-29,
-29,
-26,
-26,
-25,
-25,
-28,
-28,
-29,
-18,
-30,
-30,
-23,
-23,
-27,
-27,
-23,
-23,
-20,
-20,
-21,
-21,
-21,
-21,
-20,
-20,
-15,
-15,
-13,
-24,
-17,
-17,
-15,
-15,
-17,
-17,
-9,
-9,
-8,
-8,
-11,
-11,
-11,
-11,
-9,
-9,
-9,
-9,
0,
0,
-6,
-6,
-1,
-1,
-6,
6,
-4,
7,
8,
-5,
-1,
10,
4,
4,
7,
7,
8,
8,
14,
0,
5,
5,
3,
17,
8,
8,
12,
12,
15,
15,
8,
20,
14,
14,
11,
11,
14,
14,
21,
21,
15,
15,
22,
22,
23,
11,
17,
17,
23,
12,
19,
19,
17,
17,
22,
22,
24,
24,
20,
20,
18,
18,
20,
20,
19,
19,
21,
21,
21,
21,
21,
21,
18,
18,
22,
22,
19,
19,
21,
21,
18,
18,
15,
15,
19,
19,
17,
17,
19,
7,
11,
11,
17,
5,
10,
10,
9,
9,
12,
12,
6,
17,
4,
4,
13,
-1,
7,
7,
9,
-2,
0,
0,
-2,
-2,
-2,
-2,
2,
2,
6,
-9,
-7,
-7,
1,
-10,
-5,
-5,
-10,
1,
-8,
-8,
-15,
-15,
-10,
-10,
-7,
-7,
-12,
-12,
-13,
-13,
-18,
-18,
-16,
-16,
-19,
-19,
-16,
-16,
-16,
-16,
-19,
-19,
-19,
-19,
-21,
-21,
-22,
-22,
-25,
-25,
-26,
-26,
-27,
-27,
-27,
-27,
-22,
-22,
-27,
-27,
-26,
-26,
-27,
-27,
-27,
-27,
-31,
-31,
-26,
-26,
-27,
-27,
-29,
-29,
-37,
-22,
-30,
-30,
-24,
-36,
-30,
-30,
-33,
-22,
-27,
-27,
-24,
-35,
-22,
-33,
-32,
-19,
-31,
-19,
-25,
-25,
-29,
-18,
-22,
-22,
-30,
-18,
-20,
-20,
-32,
-18,
-24,
-13,
-15,
-27,
-21,
-21,
-22,
-22,
-12,
-25,
-18,
-18,
-12,
-23,
-21,
-21,
-18,
-18,
-15,
-15,
-11,
-11,
-13,
-13,
-15,
-4,
-8,
-8,
-9,
-9,
-5,
-5,
-2,
-2,
-1,
-1,
-2,
-2,
2,
2,
-1,
-1,
1,
1,
0,
0,
1,
1,
5,
5,
3,
3,
7,
7,
4,
4,
7,
7,
9,
9,
12,
12,
11,
11,
15,
15,
12,
12,
15,
15,
18,
18,
19,
8,
16,
16,
12,
25,
19,
19,
15,
15,
25,
14,
15,
27,
22,
11,
16,
16,
15,
27,
22,
22,
18,
18,
19,
19,
23,
11,
22,
22,
26,
12,
18,
18,
15,
15,
19,
19,
19,
19,
23,
12,
13,
13,
21,
10,
13,
13,
10,
10,
13,
13,
10,
10,
14,
14,
17,
17,
11,
11,
14,
14,
11,
11,
7,
7,
11,
0,
8,
8,
6,
6,
4,
4,
7,
-4,
1,
1,
-1,
-1,
-3,
-3,
-2,
-2,
-9,
4,
-3,
-3,
-3,
-3,
-5,
-5,
-4,
-15,
-8,
-8,
-5,
-18,
-15,
-15,
-12,
-12,
-13,
-13,
-11,
-23,
-19,
-19,
-20,
-20,
-19,
-19,
-17,
-30,
-30,
-13,
-20,
-20,
-16,
-29,
-20,
-20,
-22,
-22,
-27,
-27,
-22,
-22,
-33,
-19,
-24,
-24,
-31,
-31,
-21,
-37,
-34,
-34,
-32,
-20,
-27,
-27,
-28,
-28,
-33,
-33,
-26,
-37,
-25,
-25,
-28,
-28,
-30,
-30,
-33,
-33,
-30,
-30,
-31,
-31,
-28,
-28,
-30,
-30,
-28,
-28,
-27,
-27,
-27,
-27,
-29,
-29,
-21,
-21,
-21,
-21,
-25,
-25,
-23,
-23,
-25,
-25,
-19,
-19,
-18,
-18,
-17,
-17,
-20,
-20,
-17,
-17,
-15,
-15,
-17,
-17,
-11,
-11,
-10,
-10,
-16,
-4,
-4,
-15,
-8,
-8,
-12,
-1,
-5,
-5,
-4,
-4,
2,
-9,
-2,
-2,
5,
5,
-4,
8,
3,
3,
3,
3,
6,
6,
3,
3,
3,
3,
6,
6,
10,
10,
8,
8,
8,
8,
12,
12,
16,
16,
16,
16,
12,
12,
19,
19,
15,
15,
17,
17,
17,
17,
22,
22,
19,
19,
14,
14,
18,
29,
20,
20,
20,
20,
22,
22,
19,
19,
21,
21,
25,
25,
22,
22,
25,
25,
22,
22,
16,
16,
23,
12,
19,
19,
22,
22,
19,
19,
13,
24,
23,
10,
16,
16,
15,
15,
17,
17,
12,
12,
19,
19,
16,
4,
17,
5,
9,
9,
9,
9,
14,
3,
9,
9,
9,
9,
7,
7,
1,
1,
7,
-7,
-2,
-2,
2,
2,
3,
3,
-4,
-4,
-2,
-2,
-3,
-3,
-4,
-4,
-9,
-9,
-4,
-4,
-8,
-8,
-8,
-8,
-8,
-8,
-14,
-14,
-17,
-17,
-14,
-14,
-15,
-15,
-18,
-18,
-17,
-17,
-25,
-10,
-20,
-20,
-16,
-28,
-24,
-24,
-21,
-21,
-24,
-24,
-20,
-20,
-27,
-27,
-21,
-21,
-23,
-23,
-33,
-33,
-25,
-25,
-27,
-27,
-35,
-21,
-29,
-29,
-33,
-33,
-24,
-24,
-21,
-36,
-26,
-26,
-32,
-32,
-32,
-32,
-24,
-35,
-32,
-32,
-30,
-30,
-25,
-25,
-29,
-29,
-22,
-22,
-30,
-30,
-32,
-21,
-25,
-25,
-24,
-24,
-22,
-22,
-23,
-23,
-22,
-22,
-28,
-16,
-25,
-14,
-19,
-19,
-19,
-19,
-20,
-20,
-17,
-17,
-14,
-14,
-13,
-13,
-13,
-13,
-13,
-13,
-15,
-2,
-12,
-12,
-11,
-11,
-10,
-10,
-9,
-9,
-7,
-7,
-11,
4,
-4,
-4,
-6,
-6,
3,
3,
1,
1,
-1,
-1,
6,
6,
8,
-3,
3,
3,
2,
2,
0,
14,
11,
11,
12,
12,
12,
12,
12,
12,
6,
17,
17,
17,
7,
22,
20,
9,
19,
19,
12,
23,
22,
11,
20,
20,
12,
23,
18,
18,
15,
15,
24,
24,
22,
22,
22,
22,
20,
20,
19,
19,
24,
12,
17,
17,
22,
22,
20,
20,
19,
19,
20,
20,
24,
12,
17,
17,
16,
16,
19,
19,
18,
18,
18,
18,
15,
15,
19,
8,
15,
15,
16,
16,
13,
13,
15,
15,
12,
12,
8,
8,
7,
7,
13,
2,
8,
8,
0,
0,
4,
4,
4,
4,
6,
-5,
0,
0,
7,
-7,
-5,
-5,
1,
-10,
-5,
-5,
1,
-10,
-2,
-14,
-9,
-9,
-10,
-10,
-8,
-8,
-12,
-12,
-16,
-16,
-17,
-17,
-13,
-13,
-10,
-21,
-17,
-17,
-16,
-16,
-22,
-22,
-13,
-26,
-23,
-23,
-19,
-19,
-19,
-30,
-23,
-23,
-26,
-26,
-27,
-27,
-28,
-28,
-25,
-25,
-29,
-29,
-28,
-28,
-28,
-28,
-31,
-31,
-29,
-29,
-28,
-28,
-27,
-27,
-30,
-30,
-31,
-31,
-30,
-30,
-25,
-25,
-34,
-23,
-28,
-28,
-29,
-29,
-28,
-28,
-29,
-29,
-33,
-21,
-28,
-28,
-34,
-20,
-23,
-23,
-23,
-23,
-27,
-27,
-28,
-17,
-24,
-24,
-21,
-21,
-18,
-18,
-24,
-24,
-15,
-26,
-19,
-19,
-21,
-21,
-20,
-9,
-20,
-20,
-12,
-12,
-18,
-18,
-7,
-19,
-11,
-11,
-12,
0,
-13,
-2,
-7,
-7,
-2,
-2,
-2,
-2,
-1,
-1,
1,
1,
-5,
7,
-2,
-2,
3,
3,
2,
2,
5,
5,
4,
4,
8,
8,
8,
8,
6,
6,
8,
8,
6,
6,
11,
11,
18,
6,
12,
12,
15,
15,
16,
16,
14,
14,
24,
8,
12,
12,
11,
24,
17,
17,
19,
19,
21,
21,
14,
27,
24,
13,
16,
16,
17,
17,
26,
14,
15,
26,
21,
21,
28,
13,
17,
17,
25,
14,
16,
16,
14,
26,
19,
19,
23,
12,
16,
16,
14,
14,
19,
8,
17,
17,
15,
15,
15,
15,
13,
13,
11,
11,
17,
6,
12,
12,
12,
12,
10,
10,
5,
5,
10,
10,
6,
6,
7,
-4,
3,
3,
4,
4,
-1,
-1,
-2,
-2,
-1,
-1,
-5,
-5,
-8,
-8,
-1,
-12,
0,
-12,
-4,
-4,
-9,
-9,
-14,
-14,
-11,
-11,
-12,
-12,
-7,
-21,
-18,
-18,
-11,
-23,
-18,
-18,
-23,
-12,
-17,
-17,
-25,
-25,
-21,
-21,
-16,
-28,
-20,
-20,
-22,
-22,
-29,
-29,
-27,
-27,
-29,
-29,
-22,
-33,
-20,
-33,
-29,
-29,
-27,
-27,
-28,
-28,
-30,
-30,
-30,
-30,
-32,
-32,
-28,
-28,
-29,
-29,
-28,
-28,
-29,
-29,
-30,
-30,
-27,
-27,
-27,
-27,
-28,
-28,
-25,
-25,
-27,
-27,
-26,
-26,
-29,
-29,
-25,
-25,
-23,
-23,
-26,
-26,
-30,
-16,
-23,
-23,
-18,
-30,
-18,
-18,
-22,
-22,
-22,
-22,
-17,
-17,
-20,
-20,
-12,
-12,
-18,
-18,
-9,
-22,
-19,
-19,
-16,
-4,
-3,
-15,
-13,
-2,
-13,
-1,
-2,
-2,
-3,
-3,
0,
0,
-9,
2,
-7,
7,
-4,
-4,
-1,
-1,
3,
3,
-2,
10,
6,
6,
1,
12,
3,
3,
8,
8,
6,
6,
8,
8,
14,
14,
14,
14,
10,
10,
11,
11,
12,
12,
14,
14,
13,
13,
17,
17,
16,
16,
16,
16,
16,
16,
20,
20,
17,
17,
21,
21,
16,
27,
20,
20,
25,
14,
19,
19,
19,
19,
19,
19,
21,
21,
16,
16,
23,
23,
17,
17,
20,
20,
13,
27,
16,
16,
20,
20,
17,
17,
15,
15,
17,
17,
20,
20,
19,
19,
11,
11,
10,
10,
10,
10,
9,
9,
16,
2,
3,
15,
11,
-1,
1,
1,
3,
3,
8,
8,
3,
3,
3,
3,
3,
3,
-1,
-1,
2,
2,
-4,
-4,
-5,
-5,
-4,
-4,
-6,
-6,
-7,
-7,
-12,
-12,
-9,
-9,
-13,
-13,
-12,
-12,
-14,
-14,
-11,
-23,
-17,
-17,
-17,
-17,
-21,
-21,
-15,
-27,
-17,
-17,
-21,
-21,
-16,
-28,
-26,
-26,
-25,
-25,
-25,
-25,
-23,
-34,
-28,
-28,
-26,
-26,
-28,
-28,
-22,
-33,
-32,
-32,
-28,
-28,
-27,
-27,
-24,
-24,
-25,
-25,
-34,
-23,
-23,
-34,
-34,
-21,
-28,
-28,
-31,
-31,
-23,
-34,
-30,
-30,
-34,
-20,
-26,
-26,
-27,
-27,
-30,
-30,
-23,
-23,
-24,
-24,
-22,
-22,
-21,
-32,
-29,
-29,
-20,
-20,
-25,
-25,
-21,
-21,
-22,
-22,
-17,
-17,
-16,
-16,
-23,
-12,
-19,
-19,
-16,
-16,
-12,
-23,
-12,
-12,
-10,
-10,
-14,
-14,
-4,
-15,
-8,
-8,
-4,
-4,
-5,
-5,
-6,
-6,
0,
0,
-4,
-4,
5,
-7,
0,
0,
-8,
9,
6,
6,
5,
5,
3,
3,
8,
8,
2,
13,
14,
3,
14,
3,
16,
16,
11,
11,
13,
13,
19,
7,
13,
13,
17,
17,
16,
16,
11,
11,
19,
19,
16,
16,
15,
26,
22,
22,
18,
18,
21,
21,
23,
12,
21,
21,
20,
20,
23,
23,
22,
22,
23,
23,
22,
22,
19,
19,
19,
19,
18,
18,
20,
20,
18,
18,
17,
17,
16,
27,
17,
17,
20,
8,
16,
16,
18,
18,
12,
12,
18,
18,
12,
12,
15,
15,
15,
4,
7,
7,
11,
11,
8,
8,
4,
15,
3,
3,
-2,
11,
7,
-4,
7,
7,
4,
4,
-2,
-2,
-6,
-6,
5,
-8,
-5,
-5,
-3,
-3,
-2,
-14,
-9,
-9,
-5,
-5,
-13,
-13,
-15,
-15,
-10,
-21,
-17,
-17,
-15,
-15,
-13,
-13,
-18,
-18,
-19,
-19,
-20,
-20,
-17,
-17,
-22,
-22,
-20,
-20,
-23,
-23,
-22,
-22,
-26,
-26,
-24,
-24,
-27,
-27,
-27,
-27,
-33,
-21,
-30,
-30,
-26,
-26,
-34,
-21,
-26,
-26,
-31,
-20,
-26,
-26,
-35,
-21,
-26,
-26,
-25,
-36,
-33,
-33,
-28,
-28,
-23,
-35,
-35,
-22,
-32,
-32,
-36,
-23,
-27,
-27,
-20,
-35,
-28,
-28,
-24,
-24,
-29,
-29,
-19,
-31,
-31,
-17,
-19,
-19,
-15,
-30,
-23,
-23,
-17,
-17,
-18,
-18,
-26,
-14,
-19,
-19,
-20,
-20,
-16,
-16,
-8,
-8,
-14,
-14,
-13,
-13,
-12,
-12,
-7,
-7,
-10,
-10,
-8,
-8,
-1,
-12,
0,
0,
-4,
-4,
0,
0,
-4,
-4,
-4,
-4,
1,
1,
-2,
11,
5,
5,
0,
12,
7,
7,
3,
14,
8,
8,
8,
8,
11,
11,
15,
15,
15,
15,
12,
12,
18,
18,
12,
23,
8,
22,
12,
25,
14,
14,
19,
19,
14,
14,
19,
19,
12,
25,
23,
12,
13,
27,
24,
24,
26,
13,
21,
21,
22,
22,
21,
21,
15,
27,
18,
18,
16,
16,
22,
22,
20,
20,
18,
18,
17,
17,
14,
14,
20,
20,
13,
13,
16,
16,
17,
17,
17,
17,
14,
14,
17,
5,
11,
11,
10,
10,
11,
11,
6,
6,
6,
6,
4,
4,
8,
-3,
5,
5,
1,
1,
1,
1,
1,
1,
0,
0,
1,
1,
-5,
-5,
5,
-11,
-3,
-3,
-11,
0,
-8,
-8,
-12,
-12,
-8,
-8,
-13,
-13,
-3,
-19,
-15,
-15,
-15,
-15,
-19,
-19,
-12,
-23,
-14,
-25,
-19,
-19,
-21,
-21,
-15,
-26,
-21,
-21,
-28,
-17,
-24,
-24,
-24,
-24,
-21,
-21,
-26,
-26,
-21,
-32,
-29,
-29,
-26,
-26,
-30,
-30,
-26,
-26,
-24,
-36,
-28,
-28,
-30,
-30,
-30,
-30,
-29,
-29,
-31,
-31,
-29,
-29,
-31,
-31,
-28,
-28,
-28,
-28,
-27,
-27,
-25,
-25,
-28,
-28,
-24,
-24,
-25,
-25,
-28,
-28,
-21,
-21,
-31,
-18,
-26,
-26,
-19,
-31,
-22,
-22,
-18,
-18,
-27,
-14,
-23,
-11,
-24,
-13,
-15,
-15,
-13,
-13,
-17,
-17,
-11,
-11,
-12,
-12,
-14,
-14,
-9,
-9,
-17,
-3,
-7,
-7,
-5,
-5,
-7,
-7,
-6,
-6,
-7,
4,
-2,
-2,
-5,
6,
1,
