5-grundlagen-opAmps/data/ALL0066/A0066CH1.CSV

Memory Length,4000,
Trigger Level,-1.00000e+01,
Source,CH1,
Probe,1.0X,
Vertical Units,V,
Vertical Scale,5.00000e-02,
Vertical Position,0.00000e+00,
Horizontal Units,S,
Horizontal Scale,5.00000e-05,
Horizontal Position,0.0000000e+00,
Horizontal Mode,Main,
Sampling Period,2.00000e-07,
Firmware,V1.14,
Time, ,
Mode,Fast,
Waveform Data,
4,
4,
4,
10,
10,
12,
12,
9,
9,
12,
12,
13,
13,
12,
12,
11,
22,
18,
18,
19,
19,
23,
23,
18,
18,
22,
22,
23,
23,
25,
25,
23,
23,
24,
24,
29,
29,
32,
32,
27,
27,
32,
32,
25,
36,
33,
33,
33,
33,
35,
24,
34,
34,
34,
34,
38,
38,
40,
29,
37,
37,
38,
38,
42,
42,
41,
41,
41,
41,
41,
41,
38,
38,
42,
42,
42,
42,
43,
43,
41,
41,
49,
38,
41,
41,
46,
46,
44,
44,
44,
44,
41,
41,
46,
46,
50,
39,
46,
46,
46,
46,
48,
48,
43,
43,
44,
44,
49,
49,
50,
39,
47,
47,
48,
48,
48,
48,
51,
40,
50,
50,
46,
46,
48,
48,
46,
46,
50,
38,
43,
43,
43,
43,
43,
43,
47,
47,
45,
45,
41,
41,
46,
46,
39,
39,
41,
41,
44,
44,
37,
37,
36,
36,
44,
33,
44,
31,
35,
35,
39,
39,
36,
36,
34,
34,
33,
33,
36,
36,
37,
37,
36,
25,
32,
32,
32,
32,
33,
22,
32,
20,
28,
28,
29,
29,
28,
28,
28,
28,
19,
19,
19,
19,
20,
20,
27,
13,
19,
19,
19,
19,
18,
18,
13,
13,
12,
12,
20,
6,
12,
12,
9,
9,
15,
3,
9,
9,
6,
6,
6,
6,
2,
2,
1,
1,
4,
4,
4,
-7,
3,
3,
1,
1,
-2,
-2,
0,
-11,
-6,
-6,
-3,
-3,
-5,
-5,
-12,
-12,
-4,
-16,
-11,
-11,
-18,
-6,
-14,
-14,
-16,
-16,
-13,
-13,
-19,
-19,
-17,
-17,
-22,
-22,
-21,
-21,
-22,
-22,
-20,
-31,
-19,
-30,
-20,
-32,
-28,
-28,
-31,
-31,
-27,
-38,
-34,
-34,
-37,
-25,
-33,
-33,
-30,
-42,
-34,
-34,
-38,
-38,
-36,
-36,
-34,
-34,
-35,
-35,
-41,
-41,
-37,
-37,
-40,
-40,
-43,
-43,
-39,
-39,
-46,
-46,
-46,
-46,
-44,
-44,
-46,
-46,
-46,
-46,
-45,
-45,
-46,
-46,
-50,
-50,
-45,
-45,
-44,
-56,
-50,
-50,
-44,
-56,
-44,
-56,
-54,
-54,
-49,
-49,
-50,
-50,
-55,
-44,
-55,
-55,
-52,
-52,
-48,
-48,
-55,
-55,
-55,
-55,
-54,
-54,
-52,
-52,
-52,
-52,
-51,
-51,
-51,
-51,
-53,
-53,
-53,
-53,
-53,
-53,
-54,
-54,
-53,
-53,
-53,
-53,
-54,
-54,
-51,
-51,
-50,
-50,
-52,
-52,
-49,
-49,
-47,
-47,
-44,
-58,
-53,
-53,
-46,
-46,
-47,
-47,
-51,
-51,
-42,
-55,
-47,
-47,
-52,
-41,
-49,
-49,
-48,
-48,
-44,
-44,
-47,
-47,
-43,
-43,
-45,
-45,
-42,
-42,
-41,
-41,
-37,
-37,
-38,
-38,
-40,
-40,
-37,
-37,
-35,
-35,
-38,
-38,
-35,
-35,
-36,
-36,
-34,
-34,
-34,
-34,
-28,
-39,
-30,
-30,
-26,
-26,
-28,
-28,
-24,
-24,
-24,
-35,
-21,
-21,
-24,
-24,
-25,
-25,
-19,
-19,
-17,
-17,
-21,
-21,
-16,
-16,
-19,
-19,
-12,
-12,
-16,
-16,
-14,
-14,
-10,
-10,
-10,
-10,
-7,
-7,
-4,
-4,
-8,
-8,
-7,
-7,
1,
-10,
-2,
-2,
-5,
-5,
-2,
-2,
-4,
-4,
4,
4,
3,
3,
3,
3,
2,
2,
10,
10,
5,
5,
9,
9,
11,
11,
11,
11,
10,
10,
11,
11,
19,
19,
12,
12,
17,
17,
17,
17,
18,
18,
22,
22,
22,
22,
23,
23,
26,
26,
26,
26,
28,
28,
29,
29,
30,
30,
33,
33,
29,
29,
30,
30,
32,
32,
28,
28,
27,
40,
35,
35,
40,
29,
31,
45,
35,
35,
38,
38,
38,
38,
37,
37,
43,
43,
41,
41,
38,
38,
44,
44,
43,
43,
39,
39,
39,
39,
40,
40,
45,
45,
46,
46,
47,
47,
47,
47,
47,
47,
45,
45,
48,
48,
49,
49,
48,
48,
49,
49,
45,
45,
49,
49,
47,
47,
44,
44,
45,
45,
45,
45,
52,
41,
46,
46,
48,
48,
48,
48,
45,
45,
47,
47,
48,
48,
43,
43,
45,
45,
47,
47,
45,
45,
42,
42,
40,
40,
37,
49,
42,
42,
41,
41,
41,
41,
41,
41,
44,
33,
37,
37,
38,
38,
38,
38,
38,
38,
35,
35,
35,
35,
41,
26,
36,
36,
30,
30,
32,
32,
26,
37,
32,
32,
32,
32,
36,
21,
25,
25,
27,
27,
26,
26,
30,
18,
28,
17,
24,
24,
24,
24,
21,
21,
23,
23,
15,
26,
15,
15,
15,
15,
17,
17,
17,
17,
14,
14,
12,
12,
7,
7,
8,
8,
10,
10,
6,
6,
5,
5,
3,
3,
6,
-5,
3,
3,
2,
2,
0,
0,
-8,
-8,
-3,
-3,
0,
-12,
-4,
-4,
-6,
-6,
-6,
-6,
-5,
-16,
-11,
-11,
-10,
-10,
-10,
-21,
-14,
-14,
-11,
-23,
-15,
-15,
-22,
-22,
-24,
-24,
-21,
-21,
-18,
-30,
-24,
-24,
-24,
-24,
-26,
-26,
-27,
-27,
-26,
-26,
-27,
-27,
-28,
-28,
-33,
-33,
-32,
-32,
-30,
-41,
-36,
-36,
-36,
-36,
-36,
-36,
-37,
-37,
-39,
-39,
-36,
-36,
-40,
-40,
-41,
-41,
-40,
-40,
-39,
-39,
-44,
-44,
-39,
-51,
-42,
-42,
-50,
-50,
-44,
-44,
-44,
-44,
-49,
-49,
-47,
-47,
-50,
-50,
-46,
-46,
-49,
-49,
-51,
-51,
-52,
-52,
-45,
-57,
-46,
-57,
-52,
-52,
-48,
-48,
-48,
-59,
-52,
-52,
-50,
-50,
-56,
-56,
-56,
-56,
-58,
-58,
-49,
-49,
-52,
-52,
-54,
-54,
-57,
-57,
-54,
-54,
-53,
-53,
-52,
-52,
-55,
-55,
-50,
-50,
-50,
-50,
-57,
-57,
-52,
-52,
-53,
-53,
-52,
-52,
-52,
-52,
-54,
-54,
-49,
-49,
-50,
-50,
-51,
-51,
-50,
-50,
-43,
-57,
-40,
-55,
-51,
-51,
-43,
-43,
-43,
-43,
-48,
-48,
-44,
-44,
-46,
-46,
-50,
-39,
-46,
-46,
-41,
-41,
-40,
-40,
-44,
-33,
-44,
-33,
-43,
-43,
-38,
-38,
-37,
-37,
-36,
-36,
-32,
-32,
-32,
-32,
-36,
-36,
-30,
-30,
-35,
-35,
-30,
-30,
-32,
-32,
-29,
-29,
-27,
-27,
-26,
-26,
-29,
-18,
-22,
-22,
-17,
-30,
-15,
-28,
-25,
-25,
-15,
-15,
-15,
-15,
-22,
-10,
-15,
-15,
-14,
-14,
-18,
-18,
-14,
-14,
-9,
-9,
-8,
-8,
-14,
-2,
-10,
-10,
-10,
1,
-1,
-1,
0,
0,
-1,
-1,
2,
2,
0,
0,
1,
1,
2,
2,
-1,
-1,
7,
7,
4,
4,
13,
1,
8,
8,
10,
10,
6,
17,
12,
12,
15,
15,
16,
16,
13,
13,
15,
15,
20,
20,
15,
15,
19,
19,
18,
18,
23,
23,
24,
24,
28,
28,
24,
24,
20,
34,
24,
24,
28,
28,
33,
33,
32,
32,
29,
29,
34,
34,
34,
34,
33,
33,
30,
42,
35,
35,
36,
36,
35,
35,
42,
42,
40,
40,
36,
36,
36,
36,
37,
37,
39,
39,
38,
38,
43,
43,
38,
49,
42,
42,
45,
45,
39,
51,
40,
51,
49,
49,
45,
45,
48,
48,
43,
43,
44,
44,
44,
44,
46,
46,
47,
47,
46,
46,
41,
52,
46,
46,
48,
48,
44,
44,
45,
45,
46,
46,
45,
45,
47,
47,
47,
47,
47,
47,
42,
42,
45,
45,
40,
51,
42,
42,
40,
40,
46,
46,
40,
40,
42,
42,
44,
44,
34,
48,
40,
40,
44,
44,
38,
38,
43,
43,
38,
38,
36,
36,
33,
33,
37,
37,
36,
36,
34,
34,
30,
30,
31,
31,
32,
32,
28,
28,
30,
30,
26,
26,
28,
28,
31,
20,
29,
29,
25,
25,
21,
21,
24,
24,
18,
29,
22,
22,
18,
18,
18,
18,
18,
18,
21,
21,
13,
13,
8,
19,
12,
12,
11,
11,
7,
7,
13,
13,
11,
11,
4,
4,
2,
2,
3,
3,
4,
4,
0,
0,
-3,
8,
-3,
-3,
-2,
-2,
-4,
-4,
-6,
-6,
-9,
-9,
-6,
-6,
-6,
-6,
-9,
-9,
-12,
-12,
-10,
-10,
-11,
-11,
-17,
-17,
-12,
-24,
-15,
-15,
-21,
-21,
-17,
-17,
-14,
-27,
-23,
-23,
-25,
-25,
-22,
-22,
-25,
-25,
-25,
-25,
-26,
-26,
-28,
-28,
-32,
-32,
-31,
-31,
-35,
-35,
-33,
-33,
-37,
-37,
-37,
-37,
-37,
-37,
-37,
-37,
-38,
-38,
-44,
-32,
-39,
-39,
-37,
-37,
-40,
-40,
-42,
-42,
-45,
-45,
-40,
-40,
-45,
-45,
-46,
-46,
-44,
-44,
-46,
-46,
-52,
-40,
-47,
-47,
-47,
-47,
-51,
-51,
-47,
-47,
-49,
-49,
-48,
-48,
-45,
-57,
-51,
-51,
-55,
-55,
-50,
-50,
-49,
-49,
-56,
-56,
-52,
-52,
-53,
-53,
-55,
-55,
-53,
-53,
-50,
-50,
-56,
-56,
-59,
-46,
-48,
-60,
-53,
-53,
-53,
-53,
-54,
-54,
-54,
-54,
-54,
-54,
-56,
-56,
-56,
-56,
-51,
-51,
-54,
-54,
-54,
-54,
-54,
-54,
-52,
-52,
-50,
-50,
-52,
-52,
-55,
-44,
-46,
-46,
-47,
-47,
-47,
-47,
-55,
-42,
-47,
-47,
-48,
-48,
-47,
-47,
-44,
-44,
-43,
-43,
-53,
-38,
-43,
-43,
-41,
-41,
-49,
-38,
-43,
-43,
-39,
-39,
-42,
-42,
-37,
-37,
-40,
-40,
-39,
-39,
-40,
-29,
-37,
-37,
-42,
-28,
-30,
-41,
-34,
-34,
-32,
-32,
-29,
-29,
-27,
-27,
-29,
-29,
-32,
-21,
-28,
-28,
-23,
-23,
-26,
-26,
-21,
-21,
-22,
-22,
-20,
-20,
-23,
-23,
-19,
-19,
-13,
-13,
-13,
-13,
-22,
-5,
-13,
-13,
-10,
-10,
-17,
-4,
-8,
-8,
-12,
-12,
-8,
-8,
-4,
-4,
-3,
-3,
-6,
-6,
-6,
5,
-3,
-3,
-4,
8,
6,
6,
4,
4,
2,
2,
10,
-1,
11,
0,
4,
4,
5,
5,
9,
9,
11,
11,
9,
9,
16,
16,
16,
16,
13,
24,
11,
24,
17,
17,
22,
22,
21,
21,
18,
29,
21,
21,
23,
23,
22,
22,
22,
33,
23,
34,
30,
30,
30,
30,
31,
31,
28,
28,
30,
30,
30,
30,
30,
30,
38,
38,
38,
38,
31,
43,
40,
40,
40,
40,
35,
35,
39,
39,
38,
38,
40,
40,
41,
41,
46,
46,
43,
43,
37,
49,
38,
38,
40,
40,
43,
43,
43,
43,
45,
45,
42,
42,
46,
46,
46,
46,
39,
51,
43,
43,
48,
48,
42,
42,
50,
39,
45,
45,
44,
44,
41,
52,
47,
47,
48,
48,
46,
46,
43,
43,
46,
46,
43,
43,
46,
46,
44,
44,
41,
41,
46,
46,
48,
48,
47,
47,
43,
43,
43,
43,
43,
43,
39,
39,
45,
45,
43,
43,
40,
40,
42,
42,
43,
43,
37,
37,
33,
33,
37,
37,
36,
36,
33,
33,
39,
28,
38,
38,
31,
31,
26,
38,
31,
31,
32,
32,
30,
30,
28,
28,
24,
24,
27,
27,
27,
27,
22,
34,
16,
29,
24,
24,
20,
20,
27,
15,
17,
17,
15,
27,
14,
25,
16,
16,
19,
19,
14,
14,
11,
11,
16,
4,
14,
3,
6,
6,
6,
6,
5,
5,
3,
3,
3,
3,
6,
-5,
10,
-5,
-2,
-2,
-2,
-2,
-6,
-6,
-2,
-2,
-1,
-1,
-4,
-4,
-7,
-7,
-4,
-4,
-9,
-9,
-15,
-4,
-17,
-5,
-13,
-13,
-19,
-19,
-9,
-22,
-14,
-14,
-20,
-20,
-23,
-12,
-20,
-20,
-20,
-20,
-21,
-21,
-27,
-27,
-23,
-23,
-21,
-32,
-31,
-20,
-27,
-27,
-33,
-33,
-33,
-33,
-31,
-31,
-31,
-31,
-32,
-32,
-38,
-38,
-34,
-34,
-41,
-30,
-34,
-34,
-36,
-36,
-41,
-41,
-34,
-46,
-34,
-46,
-46,
-34,
-47,
-47,
-42,
-42,
-47,
-47,
-49,
-49,
-44,
-44,
-42,
-42,
-50,
-50,
-50,
-50,
-52,
-52,
-46,
-57,
-47,
-47,
-52,
-52,
-50,
-50,
-51,
-51,
-53,
-53,
-53,
-53,
-56,
-44,
-52,
-52,
-49,
-49,
-48,
-48,
-56,
-56,
-51,
-51,
-55,
-55,
-57,
-57,
-51,
-51,
-52,
-52,
-59,
-47,
-53,
-53,
-49,
-49,
-58,
-58,
-53,
-53,
-54,
-54,
-52,
-52,
-52,
-52,
-53,
-53,
-53,
-53,
-56,
-56,
-53,
-53,
-55,
-55,
-47,
-58,
-48,
-48,
-55,
-55,
-47,
-47,
-48,
-48,
-53,
-53,
-53,
-53,
-46,
-46,
-50,
-50,
-47,
-47,
-44,
-44,
-46,
-46,
-46,
-46,
-48,
-48,
-48,
-48,
-42,
-42,
-42,
-42,
-43,
-43,
-42,
-42,
-40,
-40,
-41,
-41,
-39,
-39,
-41,
-41,
-31,
-42,
-35,
-35,
-30,
-30,
-38,
-27,
-33,
-33,
-35,
-24,
-30,
-30,
-24,
-35,
-24,
-24,
-35,
-19,
-23,
-23,
-19,
-19,
-29,
-17,
-22,
-22,
-21,
-21,
-22,
-22,
-18,
-18,
-16,
-16,
-15,
-15,
-18,
-18,
-15,
-15,
-19,
-6,
-8,
-8,
-9,
-9,
-9,
-9,
-5,
-5,
-3,
-3,
-6,
-6,
-9,
4,
-4,
-4,
1,
1,
-2,
-2,
5,
5,
2,
2,
4,
4,
-1,
12,
5,
5,
12,
12,
12,
12,
4,
16,
12,
12,
14,
14,
10,
10,
17,
17,
13,
13,
18,
18,
20,
20,
23,
23,
18,
18,
17,
28,
21,
21,
20,
33,
28,
28,
29,
29,
23,
23,
31,
31,
31,
31,
26,
37,
27,
27,
31,
31,
32,
32,
33,
33,
39,
28,
35,
35,
33,
33,
31,
44,
35,
35,
39,
39,
35,
46,
39,
39,
37,
37,
38,
38,
41,
41,
37,
37,
40,
40,
47,
47,
45,
45,
46,
46,
41,
41,
43,
43,
42,
42,
45,
45,
47,
47,
47,
47,
42,
42,
46,
46,
46,
46,
45,
45,
46,
46,
46,
46,
47,
47,
51,
51,
48,
48,
46,
46,
45,
45,
45,
45,
44,
44,
44,
44,
43,
43,
45,
45,
40,
40,
45,
45,
46,
46,
38,
50,
41,
41,
45,
45,
41,
41,
46,
35,
39,
39,
38,
38,
38,
38,
40,
40,
37,
37,
32,
45,
37,
37,
34,
34,
33,
33,
36,
36,
32,
32,
33,
33,
36,
36,
35,
35,
31,
31,
29,
29,
32,
32,
29,
29,
27,
27,
27,
27,
26,
26,
20,
32,
22,
22,
24,
24,
19,
19,
18,
18,
20,
20,
18,
18,
19,
19,
16,
16,
13,
13,
11,
11,
14,
14,
5,
5,
9,
9,
7,
7,
7,
7,
4,
4,
7,
7,
0,
0,
-2,
-2,
0,
0,
1,
1,
-1,
-1,
-1,
-1,
-7,
-7,
-4,
-4,
-11,
-11,
-8,
-8,
-8,
-8,
-12,
-12,
-18,
-4,
-13,
-13,
-13,
-13,
-18,
-18,
-16,
-16,
-18,
-18,
-18,
-18,
-15,
-28,
-21,
-21,
-25,
-25,
-24,
-24,
-21,
-33,
-32,
-20,
-25,
-25,
-27,
-27,
-32,
-32,
-27,
-27,
-29,
-29,
-33,
-33,
-38,
-38,
-32,
-32,
-34,
-34,
-35,
-35,
-33,
-44,
-38,
-38,
-39,
-39,
-45,
-33,
-42,
-42,
-43,
-43,
-45,
-45,
-44,
-44,
-51,
-37,
-48,
-48,
-44,
-44,
-49,
-49,
-51,
-51,
-42,
-53,
-46,
-46,
-45,
-45,
-55,
-44,
-50,
-50,
-52,
-52,
-49,
-49,
-52,
-52,
-54,
-54,
-55,
-55,
-53,
-53,
-54,
-54,
-55,
-55,
-53,
-53,
-51,
-51,
-52,
-52,
-50,
-61,
-54,
-54,
-54,
-54,
-55,
-55,
-51,
-51,
-55,
-55,
-56,
-56,
-57,
-57,
-52,
-52,
-56,
-56,
-55,
-55,
-50,
-50,
-59,
-46,
-50,
-50,
-51,
-51,
-53,
-53,
-52,
-52,
-50,
-50,
-50,
-50,
-50,
-50,
-49,
-49,
-53,
-42,
-52,
-52,
-49,
-49,
-53,
-40,
-52,
-41,
-45,
-45,
-45,
-45,
-46,
-46,
-42,
-42,
-38,
-38,
-44,
-44,
-48,
-36,
-37,
-37,
-39,
-39,
-39,
-39,
-41,
-41,
-41,
-41,
-39,
-39,
-36,
-36,
-33,
-33,
-37,
-37,
-33,
-33,
-27,
-39,
-29,
-29,
-27,
-27,
-35,
-22,
-29,
-29,
-27,
-27,
-21,
-21,
-26,
-15,
-23,
-23,
-23,
-23,
-21,
-21,
-22,
-22,
-19,
-19,
-14,
-14,
-19,
-8,
-11,
-23,
-12,
-12,
-11,
-11,
-10,
-10,
-13,
-13,
-7,
-7,
-6,
-6,
-7,
-7,
-7,
-7,
-5,
-5,
-5,
-5,
-5,
7,
-3,
-3,
-2,
-2,
3,
3,
6,
6,
9,
9,
13,
1,
4,
15,
3,
14,
16,
3,
11,
11,
11,
11,
14,
14,
13,
13,
14,
25,
15,
15,
20,
20,
20,
20,
19,
19,
25,
25,
26,
26,
25,
25,
24,
24,
22,
33,
24,
24,
28,
28,
28,
28,
28,
28,
28,
28,
31,
31,
29,
29,
26,
39,
37,
37,
34,
34,
36,
36,
40,
40,
41,
41,
39,
39,
33,
44,
44,
44,
41,
41,
42,
42,
38,
38,
39,
39,
43,
43,
40,
40,
41,
41,
46,
46,
44,
44,
46,
46,
50,
50,
49,
38,
44,
44,
45,
45,
46,
46,
47,
47,
48,
48,
45,
45,
45,
45,
48,
48,
43,
43,
45,
45,
50,
50,
46,
46,
46,
46,
46,
46,
45,
45,
47,
47,
44,
44,
45,
45,
48,
48,
46,
46,
38,
50,
39,
39,
46,
46,
40,
40,
38,
49,
44,
44,
40,
40,
44,
33,
42,
42,
41,
41,
34,
45,
38,
38,
45,
30,
40,
40,
39,
39,
35,
35,
33,
33,
35,
35,
33,
33,
31,
31,
34,
34,
34,
23,
34,
23,
30,
30,
32,
20,
21,
33,
24,
24,
28,
28,
30,
16,
22,
22,
20,
20,
21,
21,
20,
20,
19,
19,
17,
17,
19,
19,
17,
17,
18,
6,
12,
12,
12,
12,
9,
9,
7,
7,
10,
10,
7,
7,
6,
6,
-2,
9,
-3,
9,
2,
2,
-5,
-5,
-5,
-5,
-2,
-2,
-4,
-4,
-1,
-14,
0,
-14,
-4,
-4,
-14,
-3,
-14,
-14,
-5,
-19,
-9,
-22,
-11,
-11,
-14,
-14,
-16,
-16,
-18,
-18,
-19,
-19,
-22,
-22,
-18,
-29,
-19,
-19,
-19,
-19,
-23,
-23,
-19,
-32,
-29,
-29,
-31,
-31,
-28,
-28,
-28,
-28,
-34,
-34,
-35,
-35,
-36,
-36,
-30,
-43,
-38,
-38,
-39,
-39,
-33,
-44,
-40,
-40,
-38,
-38,
-34,
-48,
-40,
-40,
-40,
-40,
-45,
-45,
-40,
-40,
-45,
-45,
-39,
-52,
-52,
-37,
-50,
-50,
-48,
-48,
-53,
-42,
-52,
-52,
-48,
-48,
-49,
-49,
-50,
-50,
-47,
-47,
-47,
-47,
-55,
-55,
-54,
-54,
-49,
-49,
-46,
-60,
-52,
-52,
-53,
-53,
-54,
-54,
-52,
-52,
-52,
-52,
-55,
-55,
-53,
-53,
-53,
-53,
-47,
-61,
-54,
-54,
-50,
-61,
-57,
-57,
-53,
-53,
-51,
-51,
-50,
-50,
-54,
-54,
-54,
-54,
-55,
-55,
-48,
-60,
-55,
-55,
-54,
-54,
-45,
-57,
-50,
-50,
-49,
-49,
-47,
-47,
-48,
-48,
-50,
-50,
-52,
-52,
-45,
-45,
-45,
-45,
-44,
-44,
-50,
-50,
-46,
-46,
-47,
-47,
-45,
-45,
-46,
-46,
-44,
-44,
-37,
-48,
-38,
-38,
-37,
-37,
-36,
-36,
-45,
-33,
-40,
-40,
-32,
-32,
-33,
-33,
-31,
-31,
-34,
-34,
-31,
-42,
-31,
-31,
-31,
-31,
-31,
-31,
-26,
-26,
-26,
-26,
-21,
-32,
-27,
-27,
-24,
-24,
-27,
-16,
-20,
-20,
-20,
-20,
-17,
-17,
-17,
-17,
-20,
-20,
-17,
-17,
-8,
-20,
-15,
-15,
-17,
-6,
-6,
-18,
-9,
-9,
-9,
-9,
-3,
-3,
-6,
-6,
-4,
-4,
-6,
-6,
1,
1,
-3,
-3,
6,
-7,
-2,
10,
0,
0,
6,
6,
3,
3,
5,
5,
9,
9,
11,
11,
12,
12,
12,
12,
13,
13,
9,
20,
16,
16,
16,
16,
21,
21,
21,
21,
19,
19,
21,
21,
25,
25,
23,
23,
21,
21,
31,
19,
27,
27,
28,
28,
26,
26,
28,
28,
32,
32,
33,
33,
32,
32,
33,
33,
36,
36,
26,
40,
32,
32,
40,
29,
34,
34,
35,
35,
38,
38,
41,
41,
40,
40,
41,
41,
40,
40,
36,
48,
43,
43,
47,
36,
47,
47,
48,
37,
44,
44,
46,
46,
45,
45,
47,
47,
47,
47,
45,
45,
48,
48,
51,
51,
42,
42,
46,
46,
42,
42,
50,
50,
48,
48,
51,
51,
45,
45,
48,
48,
50,
38,
49,
49,
48,
48,
45,
45,
48,
48,
48,
48,
44,
44,
42,
42,
44,
44,
46,
46,
43,
43,
45,
45,
40,
40,
45,
45,
41,
41,
42,
42,
42,
42,
41,
41,
41,
41,
39,
39,
41,
41,
36,
36,
37,
37,
35,
35,
34,
34,
35,
35,
33,
33,
33,
33,
33,
33,
37,
26,
36,
24,
30,
30,
36,
22,
31,
20,
25,
25,
28,
28,
25,
25,
20,
20,
20,
20,
23,
23,
25,
14,
17,
17,
14,
14,
16,
16,
15,
15,
17,
17,
14,
14,
12,
12,
13,
13,
11,
11,
6,
6,
1,
12,
3,
3,
-2,
10,
8,
-4,
5,
5,
-3,
-3,
-2,
-2,
0,
0,
-5,
-5,
-3,
-3,
-3,
-3,
-4,
-4,
-7,
-7,
-9,
-9,
-11,
-11,
-13,
-13,
-14,
-14,
-16,
-16,
-15,
-15,
-11,
-22,
-17,
-17,
-19,
-19,
-20,
-20,
-17,
-28,
-17,
-29,
-21,
-21,
-22,
-33,
-22,
-22,
-26,
-26,
-27,
-27,
-32,
-32,
-35,
-24,
-35,
-35,
-28,
-28,
-28,
-41,
-40,
-28,
-36,
-36,
-37,
-37,
-39,
-39,
-41,
-41,
-33,
-45,
-39,
-39,
-39,
-39,
-40,
-40,
-44,
-44,
-46,
-46,
-45,
-45,
-49,
-38,
-44,
-44,
-42,
-42,
-46,
-46,
-48,
-48,
-45,
-45,
-46,
-46,
-45,
-56,
-50,
-50,
-45,
-58,
-47,
-47,
-52,
-52,
-47,
-47,
-54,
-54,
-57,
-45,
-53,
-53,
-52,
-52,
-49,
-49,
-55,
-55,
-50,
-50,
-55,
-55,
-53,
-53,
-51,
-51,
-51,
-51,
-48,
-60,
-48,
-60,
-55,
-55,
-54,
-54,
-53,
-53,
-56,
-56,
-59,
-47,
-54,
-54,
-48,
-48,
-52,
-52,
-55,
-55,
-50,
-50,
-50,
-50,
-49,
-49,
-53,
-53,
-49,
-49,
-50,
-50,
-51,
-51,
-47,
-47,
-50,
-50,
-52,
-52,
-48,
-48,
-48,
-48,
-45,
-45,
-44,
-44,
-42,
-42,
-45,
-45,
-39,
-39,
-37,
-48,
-42,
-42,
-34,
-46,
-36,
-36,
-43,
-32,
-37,
-37,
-34,
-34,
-40,
-40,
-37,
-37,
-37,
-37,
-28,
-28,
-33,
-33,
-32,
-32,
-32,
-32,
-24,
-24,
-22,
-33,
-27,
-27,
-23,
-23,
-23,
-23,
-24,
-24,
-21,
-21,
-24,
-24,
-21,
-21,
-21,
-21,
-12,
-23,
-17,
-17,
-17,
-17,
-19,
-6,
-11,
-11,
-11,
-11,
-11,
-11,
-7,
-7,
-7,
-7,
-4,
-4,
-5,
-5,
-2,
-2,
-6,
-6,
-1,
-1,
-4,
7,
2,
2,
4,
4,
1,
1,
4,
4,
9,
9,
12,
12,
13,
13,
11,
11,
18,
6,
15,
15,
13,
13,
16,
16,
15,
15,
12,
25,
17,
17,
22,
22,
28,
15,
19,
19,
21,
21,
24,
24,
22,
33,
28,
28,
30,
30,
27,
27,
29,
29,
33,
33,
30,
30,
27,
40,
31,
31,
28,
28,
38,
38,
36,
36,
35,
35,
36,
36,
41,
41,
36,
36,
40,
40,
39,
39,
43,
43,
43,
43,
37,
37,
44,
44,
43,
43,
38,
50,
40,
40,
40,
40,
49,
37,
43,
43,
47,
47,
44,
44,
48,
48,
49,
49,
48,
48,
50,
50,
48,
48,
46,
46,
46,
46,
45,
45,
40,
52,
43,
43,
48,
48,
49,
49,
46,
46,
45,
45,
43,
43,
47,
47,
47,
47,
46,
46,
47,
47,
47,
47,
43,
43,
45,
45,
42,
42,
44,
44,
43,
43,
43,
43,
41,
41,
42,
42,
39,
39,
38,
38,
45,
30,
46,
33,
33,
33,
43,
32,
42,
31,
31,
43,
37,
37,
32,
32,
31,
31,
32,
32,
35,
23,
32,
32,
26,
26,
24,
24,
24,
24,
29,
29,
26,
26,
24,
24,
24,
24,
27,
16,
22,
22,
16,
16,
15,
15,
19,
19,
13,
13,
21,
10,
13,
13,
9,
9,
8,
19,
11,
11,
11,
11,
7,
7,
4,
4,
7,
7,
3,
3,
1,
1,
1,
1,
-1,
-1,
1,
1,
2,
2,
0,
0,
-5,
-5,
-4,
-4,
-9,
-9,
-9,
-9,
-7,
-7,
-7,
-7,
-14,
-14,
-12,
-12,
-9,
-22,
-17,
-17,
-18,
-18,
-18,
-18,
-18,
-18,
-21,
-21,
-17,
-31,
-22,
-22,
-29,
-17,
-28,
-28,
-27,
-27,
-27,
-27,
-30,
-30,
-30,
-30,
-33,
-33,
-33,
-33,
-33,
-33,
-39,
-27,
-39,
-39,
-35,
-35,
-37,
-37,
-33,
-44,
-40,
-40,
-39,
-39,
-44,
-44,
-41,
-41,
-41,
-41,
-44,
-44,
-44,
-44,
-45,
-45,
-45,
-45,
-48,
-48,
-49,
-49,
-49,
-49,
-45,
-45,
-46,
-46,
-46,
-46,
-49,
-49,
-53,
-53,
-51,
-51,
-54,
-54,
-48,
-48,
-50,
-50,
-53,
-53,
-53,
-53,
-52,
-52,
-52,
-52,
-57,
-57,
-58,
-58,
-52,
-52,
-55,
-55,
-47,
-59,
-55,
-55,
-58,
-47,
-59,
-48,
-55,
-55,
-55,
-55,
-59,
-47,
-55,
-55,
-56,
-56,
-53,
-53,
-53,
-53,
-56,
-56,
-54,
-54,
-49,
-49,
-50,
-50,
-51,
-51,
-53,
-53,
-52,
-52,
-49,
-49,
-51,
-51,
-46,
-46,
-48,
-48,
-51,
-51,
-47,
-47,
-46,
-46,
-47,
-47,
-48,
-48,
-44,
-44,
-45,
-45,
-42,
-42,
-40,
-40,
-42,
-42,
-43,
-43,
-41,
-41,
-43,
-43,
-43,
-32,
-44,
-31,
-36,
-36,
-40,
-29,
-34,
-34,
-33,
-33,
-37,
-26,
-32,
-32,
-27,
-27,
-31,
-31,
-28,
-28,
-31,
-31,
-25,
-25,
-25,
-25,
-21,
-21,
-27,
-27,
-26,
-15,
-24,
-24,
-22,
-22,
-21,
-21,
-18,
-18,
-15,
-15,
-12,
-12,
-13,
-13,
-7,
-18,
-15,
-3,
-12,
-12,
-4,
-4,
-1,
-13,
-6,
-6,
-6,
-6,
-4,
-4,
-3,
-3,
-1,
-1,
1,
1,
2,
2,
0,
0,
9,
-2,
5,
