5-grundlagen-opAmps/data/ALL0008/A0008CH2.CSV

Memory Length,4000,
Trigger Level,0.00000e+00,
Source,CH2,
Probe,1.0X,
Vertical Units,V,
Vertical Scale,5.00000e-02,
Vertical Position,0.00000e+00,
Horizontal Units,S,
Horizontal Scale,1.00000e-07,
Horizontal Position,1.0000000e-07,
Horizontal Mode,Main,
Sampling Period,2.00000e-09,
Firmware,V1.14,
Time, ,
Mode,Fast,
Waveform Data,
32,
32,
29,
27,
29,
31,
31,
28,
28,
25,
25,
26,
23,
20,
18,
17,
17,
19,
16,
13,
11,
11,
12,
13,
10,
6,
4,
5,
6,
3,
-2,
-4,
-5,
-3,
-4,
-9,
-13,
-13,
-12,
-10,
-12,
-16,
-20,
-19,
-15,
-16,
-22,
-26,
-26,
-25,
-23,
-25,
-31,
-32,
-30,
-31,
-30,
-30,
-31,
-34,
-33,
-32,
-34,
-35,
-35,
-36,
-35,
-36,
-35,
-35,
-34,
-35,
-34,
-31,
-31,
-33,
-33,
-31,
-29,
-27,
-29,
-29,
-28,
-27,
-25,
-24,
-24,
-23,
-20,
-19,
-16,
-17,
-14,
-14,
-14,
-11,
-11,
-6,
-6,
-7,
-7,
-5,
-3,
-1,
2,
1,
2,
7,
9,
9,
9,
11,
12,
15,
17,
16,
15,
16,
19,
23,
23,
19,
21,
25,
27,
28,
26,
25,
30,
32,
33,
31,
30,
31,
29,
33,
33,
33,
33,
31,
33,
34,
34,
31,
32,
32,
32,
31,
31,
27,
24,
28,
27,
26,
24,
24,
26,
24,
23,
21,
18,
18,
18,
15,
14,
12,
10,
11,
10,
8,
5,
4,
5,
3,
2,
-1,
-1,
-2,
-3,
-5,
-9,
-9,
-11,
-12,
-13,
-15,
-19,
-20,
-15,
-16,
-20,
-23,
-24,
-21,
-21,
-23,
-29,
-30,
-28,
-27,
-29,
-31,
-35,
-35,
-32,
-30,
-32,
-37,
-36,
-33,
-31,
-33,
-36,
-38,
-37,
-33,
-32,
-32,
-35,
-37,
-33,
-29,
-27,
-28,
-30,
-28,
-26,
-23,
-24,
-25,
-26,
-26,
-21,
-20,
-20,
-23,
-20,
-15,
-12,
-10,
-12,
-12,
-8,
-5,
-3,
-2,
-6,
-4,
1,
4,
2,
-1,
2,
5,
11,
13,
11,
12,
13,
17,
18,
18,
19,
19,
22,
22,
22,
23,
24,
25,
25,
27,
29,
31,
31,
30,
32,
32,
33,
33,
31,
32,
32,
32,
32,
32,
29,
29,
32,
33,
32,
31,
31,
32,
29,
29,
30,
28,
26,
25,
25,
24,
23,
19,
19,
19,
18,
18,
17,
15,
11,
12,
14,
14,
8,
6,
4,
3,
5,
1,
-3,
-6,
-5,
-3,
-5,
-9,
-12,
-12,
-9,
-9,
-15,
-19,
-19,
-18,
-18,
-20,
-23,
-26,
-24,
-24,
-26,
-28,
-28,
-31,
-30,
-28,
-30,
-33,
-33,
-32,
-33,
-34,
-33,
-35,
-35,
-35,
-35,
-34,
-34,
-35,
-34,
-32,
-30,
-33,
-32,
-31,
-30,
-31,
-30,
-28,
-30,
-27,
-27,
-28,
-26,
-25,
-21,
-20,
-19,
-20,
-18,
-15,
-12,
-13,
-13,
-14,
-10,
-8,
-6,
-7,
-8,
-4,
1,
3,
4,
2,
4,
6,
10,
11,
10,
10,
12,
16,
17,
16,
15,
16,
22,
24,
24,
25,
24,
27,
28,
31,
31,
27,
27,
30,
33,
33,
31,
29,
32,
35,
36,
33,
33,
33,
34,
35,
36,
34,
28,
30,
33,
35,
32,
27,
27,
28,
32,
30,
26,
24,
24,
27,
28,
24,
19,
15,
17,
19,
15,
13,
11,
10,
13,
11,
7,
5,
5,
5,
5,
2,
-2,
-4,
-4,
-5,
-8,
-11,
-9,
-11,
-14,
-16,
-17,
-16,
-17,
-18,
-21,
-22,
-22,
-23,
-23,
-26,
-27,
-27,
-29,
-28,
-31,
-33,
-32,
-31,
-31,
-33,
-32,
-32,
-33,
-34,
-35,
-35,
-34,
-36,
-35,
-34,
-31,
-35,
-34,
-35,
-31,
-28,
-26,
-28,
-30,
-31,
-26,
-24,
-25,
-25,
-26,
-22,
-20,
-20,
-19,
-20,
-17,
-15,
-9,
-9,
-12,
-11,
-9,
-3,
-4,
-7,
-4,
-2,
-1,
1,
2,
3,
6,
9,
11,
11,
13,
14,
15,
17,
17,
18,
21,
22,
21,
20,
24,
23,
25,
27,
27,
28,
28,
29,
31,
32,
32,
31,
33,
34,
34,
32,
32,
34,
33,
33,
35,
33,
32,
33,
34,
35,
33,
29,
29,
31,
29,
29,
25,
24,
25,
26,
27,
23,
18,
19,
24,
23,
20,
13,
12,
14,
14,
12,
6,
2,
5,
5,
6,
2,
-1,
-3,
-1,
1,
-2,
-7,
-9,
-9,
-11,
-11,
-13,
-18,
-20,
-18,
-16,
-17,
-20,
-23,
-23,
-21,
-23,
-25,
-26,
-30,
-28,
-26,
-29,
-31,
-34,
-35,
-33,
-31,
-32,
-36,
-35,
-35,
-30,
-32,
-32,
-35,
-33,
-31,
-31,
-30,
-32,
-35,
-32,
-30,
-29,
-31,
-30,
-28,
-25,
-23,
-23,
-22,
-20,
-21,
-19,
-17,
-17,
-16,
-15,
-13,
-14,
-13,
-10,
-8,
-6,
-6,
-4,
-2,
0,
1,
3,
3,
5,
8,
9,
9,
9,
9,
12,
16,
17,
16,
18,
19,
22,
25,
25,
23,
23,
25,
27,
29,
28,
28,
28,
31,
31,
32,
32,
32,
31,
33,
34,
35,
30,
31,
33,
35,
34,
30,
30,
29,
32,
32,
30,
27,
26,
29,
30,
28,
25,
25,
25,
24,
22,
19,
17,
17,
17,
16,
14,
13,
12,
12,
11,
10,
8,
6,
5,
3,
1,
-3,
-2,
-3,
-6,
-8,
-8,
-9,
-10,
-12,
-14,
-16,
-15,
-15,
-16,
-19,
-22,
-23,
-22,
-21,
-25,
-25,
-30,
-28,
-28,
-31,
-30,
-31,
-32,
-33,
-29,
-29,
-31,
-36,
-37,
-35,
-31,
-33,
-35,
-38,
-38,
-33,
-30,
-32,
-35,
-36,
-30,
-26,
-28,
-33,
-34,
-29,
-25,
-23,
-26,
-29,
-27,
-23,
-19,
-17,
-19,
-19,
-15,
-10,
-11,
-11,
-13,
-10,
-7,
-5,
-4,
-5,
-6,
-3,
1,
3,
5,
4,
7,
8,
12,
13,
14,
13,
13,
17,
20,
19,
18,
17,
22,
24,
25,
25,
25,
28,
31,
31,
30,
31,
31,
33,
34,
33,
32,
31,
33,
35,
34,
33,
35,
34,
35,
34,
33,
33,
34,
33,
32,
29,
28,
28,
29,
27,
25,
25,
26,
27,
24,
21,
22,
22,
21,
20,
17,
13,
11,
12,
11,
11,
6,
3,
4,
5,
5,
2,
1,
-1,
-2,
-3,
-4,
-8,
-11,
-12,
-12,
-12,
-14,
-18,
-21,
-19,
-18,
-20,
-20,
-24,
-25,
-23,
-24,
-25,
-28,
-31,
-31,
-29,
-30,
-33,
-35,
-35,
-33,
-33,
-33,
-35,
-34,
-35,
-33,
-32,
-35,
-36,
-35,
-34,
-33,
-35,
-33,
-32,
-32,
-31,
-30,
-29,
-25,
-25,
-25,
-25,
-26,
-23,
-21,
-22,
-22,
-21,
-19,
-16,
-15,
-16,
-13,
-12,
-7,
-6,
-7,
-7,
-5,
-1,
1,
1,
1,
0,
3,
5,
8,
9,
10,
11,
13,
17,
18,
18,
18,
19,
22,
24,
23,
23,
23,
24,
26,
30,
27,
26,
27,
31,
35,
35,
30,
30,
33,
38,
37,
33,
30,
31,
34,
35,
33,
28,
28,
32,
35,
35,
29,
28,
29,
33,
29,
27,
25,
24,
24,
25,
21,
19,
17,
17,
18,
17,
16,
13,
13,
13,
12,
9,
9,
5,
3,
2,
3,
0,
-4,
-5,
-5,
-5,
-7,
-8,
-11,
-11,
-11,
-12,
-15,
-17,
-18,
-19,
-19,
-21,
-23,
-25,
-22,
-24,
-26,
-29,
-30,
-28,
-29,
-31,
-33,
-32,
-30,
-32,
-33,
-36,
-36,
-36,
-32,
-32,
-34,
-37,
-35,
-30,
-30,
-31,
-33,
-35,
-30,
-27,
-30,
-31,
-31,
-31,
-27,
-25,
-26,
-27,
-25,
-22,
-18,
-18,
-17,
-17,
-17,
-13,
-11,
-10,
-12,
-14,
-9,
-7,
-6,
-5,
-5,
-3,
2,
4,
6,
4,
4,
8,
11,
14,
12,
12,
13,
15,
18,
17,
17,
19,
21,
25,
25,
26,
24,
26,
29,
31,
29,
29,
30,
29,
29,
31,
31,
33,
32,
31,
33,
33,
34,
34,
33,
32,
33,
32,
33,
32,
27,
27,
29,
31,
29,
27,
25,
24,
25,
27,
24,
20,
19,
18,
20,
18,
13,
11,
10,
13,
12,
9,
6,
3,
4,
5,
6,
1,
-3,
-3,
-4,
-3,
-6,
-12,
-13,
-11,
-12,
-12,
-14,
-19,
-19,
-19,
-15,
-17,
-23,
-27,
-24,
-22,
-22,
-25,
-32,
-31,
-29,
-27,
-30,
-35,
-34,
-33,
-31,
-30,
-33,
-37,
-36,
-34,
-32,
-35,
-37,
-36,
-34,
-33,
-32,
-33,
-32,
-31,
-29,
-28,
-27,
-27,
-27,
-27,
-25,
-25,
-25,
-25,
-23,
-23,
-19,
-17,
-17,
-16,
-13,
-12,
-9,
-10,
-9,
-7,
-5,
-4,
-3,
-2,
0,
0,
3,
2,
3,
5,
9,
11,
12,
11,
13,
17,
19,
19,
17,
17,
20,
24,
24,
23,
22,
26,
29,
32,
28,
27,
28,
32,
35,
33,
31,
31,
33,
33,
34,
33,
30,
31,
34,
35,
34,
31,
33,
33,
34,
33,
31,
29,
26,
28,
29,
26,
25,
21,
22,
23,
24,
24,
19,
18,
18,
17,
17,
13,
9,
9,
10,
10,
6,
2,
2,
2,
3,
1,
-2,
-3,
-4,
-5,
-6,
-7,
-12,
-14,
-13,
-14,
-17,
-18,
-18,
-20,
-22,
-23,
-22,
-22,
-23,
-25,
-29,
-27,
-26,
-31,
-31,
-34,
-32,
-33,
-32,
-34,
-36,
-37,
-35,
-32,
-32,
-34,
-34,
-35,
-32,
-31,
-33,
-32,
-35,
-34,
-32,
-29,
-30,
-33,
-32,
-29,
-26,
-25,
-24,
-26,
-23,
-20,
-17,
-17,
-20,
-20,
-16,
-12,
-12,
-14,
-16,
-13,
-7,
-5,
-3,
-5,
-6,
-2,
4,
5,
4,
3,
5,
9,
12,
11,
9,
11,
14,
17,
18,
17,
17,
19,
24,
24,
24,
25,
27,
28,
27,
28,
28,
28,
31,
31,
32,
32,
32,
33,
35,
35,
34,
32,
34,
35,
34,
30,
31,
32,
32,
31,
31,
29,
27,
30,
30,
28,
26,
26,
26,
26,
24,
20,
19,
18,
17,
17,
18,
15,
10,
11,
11,
12,
9,
6,
5,
4,
6,
0,
-3,
-6,
-4,
-4,
-4,
-8,
-14,
-12,
-11,
-8,
-14,
-20,
-19,
-17,
-16,
-19,
-23,
-28,
-26,
-23,
-25,
-28,
-30,
-31,
-30,
-29,
-30,
-33,
-33,
-32,
-31,
-33,
-32,
-35,
-35,
-36,
-33,
-34,
-33,
-35,
-37,
-35,
-30,
-31,
-31,
-32,
-31,
-31,
-27,
-28,
-29,
-27,
-28,
-24,
-25,
-24,
-24,
-23,
-18,
-17,
-17,
-15,
-14,
-13,
-11,
-11,
-8,
-7,
-7,
-6,
-7,
-5,
-1,
1,
2,
2,
4,
7,
11,
11,
9,
11,
15,
17,
17,
16,
15,
17,
23,
23,
21,
23,
24,
29,
29,
29,
28,
29,
29,
31,
33,
31,
29,
30,
32,
33,
34,
32,
31,
33,
34,
34,
35,
32,
30,
32,
34,
32,
28,
27,
28,
29,
28,
26,
22,
23,
23,
25,
26,
21,
17,
17,
19,
17,
13,
9,
9,
11,
10,
9,
5,
2,
4,
3,
3,
0,
-2,
-4,
-2,
-5,
-10,
-12,
-13,
-12,
-14,
-16,
-18,
-20,
-19,
-20,
-21,
-22,
-23,
-23,
-22,
-25,
-28,
-27,
-30,
-29,
-29,
-33,
-33,
-32,
-31,
-33,
-32,
-35,
-34,
-34,
-31,
-32,
-34,
-35,
-35,
-31,
-31,
-34,
-35,
-36,
-31,
-31,
-27,
-29,
-30,
-27,
-25,
-21,
-24,
-26,
-25,
-22,
-18,
-19,
-20,
-22,
-19,
-12,
-10,
-9,
-12,
-11,
-7,
-2,
-3,
-4,
-4,
-1,
3,
3,
2,
1,
4,
7,
13,
11,
11,
12,
14,
18,
19,
19,
20,
20,
22,
25,
25,
24,
23,
25,
28,
31,
29,
30,
31,
32,
33,
33,
34,
34,
32,
33,
34,
34,
32,
29,
32,
32,
32,
31,
31,
29,
31,
31,
31,
29,
28,
29,
28,
26,
24,
24,
24,
22,
18,
17,
19,
19,
14,
13,
11,
13,
13,
11,
7,
4,
6,
5,
2,
-1,
-4,
-4,
-3,
-3,
-8,
-12,
-11,
-9,
-10,
-13,
-15,
-19,
-18,
-16,
-19,
-21,
-23,
-25,
-26,
-24,
-26,
-31,
-31,
-30,
-28,
-29,
-31,
-32,
-33,
-35,
-32,
-31,
-33,
-37,
-36,
-35,
-32,
-35,
-37,
-36,
-32,
-32,
-30,
-30,
-32,
-33,
-29,
-28,
-29,
-31,
-31,
-27,
-25,
-25,
-26,
-25,
-21,
-20,
-18,
-17,
-17,
-17,
-13,
-13,
-14,
-12,
-10,
-8,
-7,
-7,
-6,
-3,
1,
3,
3,
2,
6,
7,
11,
11,
10,
11,
14,
16,
16,
15,
16,
18,
21,
25,
26,
24,
23,
27,
29,
31,
29,
27,
27,
31,
34,
32,
31,
29,
32,
34,
37,
35,
30,
31,
35,
36,
35,
31,
29,
31,
33,
32,
28,
26,
25,
29,
31,
27,
24,
21,
25,
27,
24,
20,
16,
16,
18,
17,
14,
10,
10,
9,
11,
10,
6,
2,
3,
4,
3,
0,
-2,
-5,
-7,
-7,
-8,
-9,
-13,
-15,
-14,
-14,
-16,
-17,
-19,
-21,
-19,
-20,
-21,
-25,
-27,
-27,
-27,
-27,
-29,
-32,
-32,
-32,
-31,
-33,
-32,
-35,
-33,
-35,
-35,
-35,
-34,
-35,
-36,
-35,
-35,
-35,
-33,
-33,
-33,
-35,
-31,
-28,
-28,
-28,
-31,
-28,
-26,
-24,
-25,
-27,
-24,
-23,
-20,
-21,
-23,
-20,
-15,
-10,
-11,
-13,
-12,
-8,
-6,
-5,
-4,
-5,
-4,
-1,
1,
1,
2,
3,
7,
8,
10,
11,
13,
15,
16,
17,
19,
19,
19,
20,
23,
23,
23,
25,
24,
26,
28,
30,
30,
28,
31,
33,
34,
34,
31,
31,
32,
34,
32,
31,
32,
34,
34,
32,
32,
32,
33,
33,
32,
29,
28,
28,
29,
26,
22,
21,
25,
26,
24,
19,
18,
19,
21,
19,
15,
12,
12,
14,
11,
8,
3,
1,
5,
5,
2,
-2,
-3,
-2,
-1,
-3,
-4,
-9,
-12,
-11,
-12,
-11,
-15,
-20,
-21,
-19,
-19,
-20,
-23,
-25,
-26,
-23,
-22,
-25,
-30,
-32,
-29,
-26,
-29,
-35,
-37,
-36,
-31,
-33,
-36,
-38,
-36,
-33,
-32,
-30,
-34,
-36,
-34,
-31,
-31,
-35,
-33,
-32,
-30,
-28,
-29,
-30,
-30,
-27,
-25,
-24,
-23,
-23,
-21,
-19,
-19,
-17,
-15,
-16,
-16,
-14,
-12,
-10,
-10,
-9,
-7,
-5,
-3,
-2,
1,
2,
4,
6,
6,
7,
8,
9,
11,
11,
13,
15,
16,
17,
18,
19,
23,
23,
23,
25,
25,
27,
28,
29,
27,
27,
29,
29,
32,
31,
29,
31,
33,
35,
35,
33,
31,
33,
34,
34,
32,
29,
29,
31,
33,
32,
28,
27,
28,
31,
28,
26,
26,
24,
24,
25,
22,
19,
17,
17,
17,
16,
13,
10,
11,
11,
10,
9,
7,
5,
3,
1,
2,
-1,
-6,
-5,
-5,
-8,
-10,
-11,
-12,
-13,
-13,
-14,
-15,
-16,
-18,
-20,
-19,
-21,
-23,
-24,
-25,
-25,
-28,
-31,
-30,
-30,
-29,
-31,
-32,
-32,
-30,
-32,
-33,
-35,
-36,
-35,
-33,
-32,
-37,
-38,
-35,
-31,
-31,
-36,
-35,
-32,
-27,
-26,
-29,
-31,
-31,
-27,
-24,
-24,
-26,
-28,
-25,
-21,
-19,
-19,
-18,
-16,
-14,
-12,
-11,
-11,
-11,
-11,
-6,
-4,
-5,
-7,
-7,
-2,
1,
3,
5,
4,
4,
11,
14,
15,
11,
12,
15,
18,
20,
17,
16,
18,
23,
26,
26,
25,
23,
28,
30,
32,
27,
28,
31,
34,
34,
31,
31,
32,
33,
34,
34,
32,
33,
33,
34,
34,
33,
32,
33,
32,
29,
29,
29,
27,
26,
25,
27,
26,
25,
25,
23,
21,
22,
20,
19,
18,
14,
13,
12,
11,
9,
9,
7,
4,
4,
3,
3,
1,
-2,
-2,
-3,
-3,
-7,
-10,
-11,
-12,
-12,
-13,
-16,
-19,
-21,
-19,
-18,
-20,
-23,
-27,
-24,
-22,
-25,
-26,
-32,
-30,
-28,
-31,
-31,
-35,
-34,
-34,
-32,
-31,
-34,
-36,
-33,
-32,
-32,
-35,
-35,
-36,
-33,
-33,
-34,
-31,
-33,
-32,
-31,
-28,
-27,
-28,
-26,
-26,
-25,
-25,
-23,
-23,
-23,
-21,
-20,
-21,
-19,
-17,
-14,
-14,
-12,
-9,
-7,
-6,
-6,
-4,
-3,
-1,
1,
-1,
2,
2,
4,
6,
8,
10,
11,
13,
15,
17,
18,
18,
18,
19,
22,
25,
24,
20,
21,
25,
28,
29,
26,
25,
29,
34,
35,
33,
29,
31,
35,
36,
35,
31,
29,
30,
35,
35,
32,
29,
30,
32,
34,
31,
29,
27,
28,
33,
31,
26,
23,
20,
25,
24,
22,
17,
15,
17,
18,
17,
14,
12,
9,
11,
13,
11,
5,
1,
1,
3,
2,
-1,
-5,
-8,
-6,
-4,
-7,
-12,
-15,
-14,
-10,
-11,
-17,
-20,
-19,
-19,
-19,
-23,
-25,
-25,
-24,
-25,
-29,
-29,
-30,
-30,
-29,
-30,
-31,
-33,
-32,
-31,
-34,
-36,
-34,
-34,
-34,
-36,
-35,
-35,
-32,
-32,
-32,
-30,
-31,
-33,
-31,
-29,
-30,
-31,
-27,
-28,
-26,
-25,
-25,
-25,
-24,
-21,
-17,
-16,
-16,
-17,
-15,
-13,
-10,
-9,
-13,
-9,
-8,
-5,
-3,
-5,
-4,
-1,
5,
7,
3,
5,
6,
11,
13,
14,
11,
12,
16,
19,
19,
18,
18,
20,
25,
26,
25,
25,
26,
29,
29,
30,
31,
31,
28,
31,
32,
32,
33,
32,
33,
34,
35,
33,
35,
35,
33,
32,
34,
32,
29,
29,
29,
28,
27,
29,
29,
25,
25,
26,
25,
24,
24,
20,
19,
21,
17,
15,
13,
11,
10,
12,
11,
7,
5,
4,
6,
5,
4,
-1,
-3,
-3,
-3,
-5,
-8,
-11,
-14,
-12,
-13,
-12,
-16,
-21,
-18,
-17,
-18,
-22,
-25,
-26,
-23,
-23,
-25,
-29,
-31,
-31,
-29,
-28,
-31,
-36,
-36,
-32,
-30,
-33,
-34,
-37,
-34,
-34,
-32,
-35,
-36,
-35,
-34,
-30,
-30,
-34,
-34,
-31,
-27,
-27,
-27,
-27,
-30,
-27,
-24,
-21,
-23,
-24,
-23,
-21,
-18,
-17,
-17,
-16,
-13,
-9,
-6,
-7,
-8,
-7,
-4,
-1,
-2,
-3,
0,
2,
4,
5,
6,
7,
10,
12,
13,
14,
15,
17,
18,
19,
19,
20,
24,
23,
22,
21,
25,
27,
28,
31,
29,
31,
32,
33,
35,
34,
33,
33,
34,
35,
34,
31,
31,
33,
34,
33,
33,
32,
30,
32,
35,
34,
32,
29,
29,
28,
30,
27,
22,
21,
22,
23,
24,
19,
16,
15,
19,
19,
16,
11,
10,
11,
11,
9,
5,
1,
2,
1,
1,
-3,
-6,
-7,
-5,
-6,
-8,
-11,
-11,
-12,
-13,
-16,
-17,
-19,
-20,
-21,
-23,
-24,
-24,
-24,
-26,
-27,
-28,
-30,
-27,
-29,
-32,
-33,
-33,
-31,
-33,
-36,
-36,
-36,
-34,
-35,
-35,
-36,
-34,
-34,
-33,
-32,
-33,
-35,
-34,
-32,
-31,
-32,
-32,
-31,
-31,
-29,
-27,
-25,
-26,
-26,
-23,
-19,
-18,
-20,
-19,
-19,
-15,
-13,
-13,
-14,
-15,
-11,
-6,
-5,
-6,
-7,
-4,
0,
5,
5,
3,
3,
7,
11,
13,
10,
10,
11,
14,
17,
18,
17,
18,
22,
25,
27,
27,
24,
24,
29,
30,
29,
27,
27,
30,
32,
32,
31,
31,
33,
33,
34,
35,
33,
32,
32,
35,
33,
30,
29,
29,
32,
32,
29,
28,
27,
28,
28,
28,
26,
24,
25,
25,
23,
19,
17,
18,
19,
16,
13,
11,
11,
12,
12,
8,
6,
5,
5,
5,
1,
-4,
-5,
-3,
-4,
-8,
-12,
-13,
-12,
-11,
-13,
-15,
-19,
-17,
-16,
-16,
-20,
-24,
-25,
-24,
-22,
-25,
-27,
-31,
-29,
-26,
-27,
-27,
-29,
-32,
-31,
-29,
-30,
-31,
-35,
-35,
-32,
-31,
-33,
-34,
-36,
-33,
-31,
-29,
-29,
-30,
-33,
-29,
-26,
-26,
-30,
-30,
-27,
-25,
-23,
-23,
-25,
-22,
-19,
-16,
-15,
-15,
-14,
-13,
-9,
-9,
-9,
-7,
-6,
-5,
-4,
-2,
-1,
0,
1,
4,
4,
7,
9,
11,
11,
12,
14,
16,
18,
17,
15,
19,
20,
21,
20,
23,
23,
25,
28,
28,
27,
28,
30,
31,
33,
33,
31,
32,
33,
33,
33,
33,
33,
32,
33,
35,
36,
34,
29,
30,
34,
34,
30,
28,
26,
26,
29,
29,
25,
22,
21,
27,
26,
21,
17,
15,
19,
18,
15,
11,
6,
9,
11,
9,
5,
1,
0,
3,
3,
1,
-4,
-5,
-5,
-6,
-7,
-10,
-13,
-14,
-15,
-14,
-16,
-19,
-21,
-21,
-21,
-21,
-23,
-23,
-25,
-26,
-25,
-29,
-29,
-31,
-33,
-32,
-34,
-33,
-36,
-35,
-33,
-33,
-33,
-35,
-35,
-33,
-33,
-33,
-35,
-34,
-35,
-31,
-32,
-35,
-34,
-33,
-29,
-31,
-31,
-31,
-27,
-23,
-23,
-23,
-25,
-22,
-20,
-18,
-16,
-20,
-19,
-15,
-13,
-12,
-13,
-12,
-9,
-6,
-3,
-3,
-4,
-3,
1,
5,
5,
4,
1,
6,
10,
12,
12,
11,
12,
16,
19,
21,
19,
19,
20,
27,
27,
26,
27,
24,
27,
31,
31,
31,
29,
29,
32,
36,
35,
31,
32,
33,
36,
36,
32,
32,
32,
33,
32,
32,
31,
28,
31,
32,
32,
29,
26,
28,
28,
26,
25,
23,
23,
21,
19,
19,
17,
17,
16,
13,
12,
12,
13,
12,
9,
6,
6,
4,
3,
0,
-4,
-3,
-5,
-5,
-9,
-10,
-13,
-13,
-11,
-13,
-14,
-16,
-19,
-19,
-17,
-20,
-24,
-25,
-25,
-26,
-25,
-29,
-30,
-30,
-33,
-29,
-29,
-32,
-36,
-35,
-35,
-32,
-33,
-37,
-38,
-37,
-35,
-33,
-35,
-38,
-39,
-33,
-30,
-31,
-35,
-36,
-32,
-30,
-28,
-31,
-35,
-30,
-28,
-26,
-27,
-28,
-26,
-23,
-19,
-18,
-20,
-16,
-16,
-14,
-12,
-13,
-10,
-11,
-7,
-7,
-7,
-4,
-3,
-1,
1,
4,
4,
6,
7,
9,
11,
11,
12,
13,
15,
17,
16,
17,
17,
19,
20,
22,
25,
25,
26,
28,
29,
30,
29,
28,
30,
33,
32,
28,
30,
33,
35,
35,
32,
31,
33,
35,
34,
33,
29,
28,
31,
32,
31,
25,
25,
29,
29,
28,
26,
22,
24,
24,
26,
25,
19,
17,
17,
16,
15,
12,
9,
9,
10,
10,
7,
5,
3,
3,
3,
5,
-1,
-4,
-6,
-5,
-4,
-8,
-11,
-15,
-14,
-12,
-14,
-15,
-19,
-19,
-19,
-18,
-19,
-23,
-25,
-25,
-24,
-25,
-30,
-29,
-31,
-29,
-30,
-32,
-31,
-32,
-33,
-32,
-30,
-32,
-36,
-34,
-34,
-33,
-35,
-33,
-32,
-33,
-34,
-32,
-31,
-28,
-30,
-29,
-29,
-27,
-25,
-24,
-23,
-25,
-23,
-22,
-21,
-21,
-22,
-18,
-16,
-14,
-11,
-10,
-10,
-9,
-7,
-4,
-3,
-4,
-5,
-3,
0,
3,
2,
2,
4,
6,
10,
12,
14,
12,
14,
18,
19,
20,
18,
18,
19,
23,
25,
22,
24,
23,
28,
30,
32,
28,
28,
32,
34,
34,
31,
30,
32,
34,
33,
32,
29,
28,
31,
33,
33,
29,
30,
31,
34,
32,
29,
28,
28,
26,
25,
25,
23,
22,
21,
20,
18,
17,
16,
18,
16,
13,
12,
12,
11,
10,
7,
5,
4,
2,
1,
0,
-3,
-5,
-6,
-5,
-7,
-10,
-11,
-13,
-13,
-13,
-15,
-18,
-20,
-22,
-20,
-19,
-22,
-27,
-29,
-26,
-24,
-25,
-31,
-33,
-32,
-28,
-28,
-31,
-37,
-36,
-35,
-32,
-32,
-39,
-41,
-36,
-32,
-31,
-35,
-37,
-36,
-32,
-31,
-32,
-33,
-35,
-33,
-30,
-28,
-30,
-33,
-32,
-28,
-23,
-23,
-23,
-23,
-22,
-18,
-16,
-15,
-16,
-17,
-14,
-13,
-10,
-11,
-12,
-9,
-6,
-3,
-1,
0,
0,
1,
5,
6,
6,
6,
9,
11,
12,
13,
13,
15,
16,
18,
19,
18,
20,
21,
25,
26,
25,
28,
27,
27,
28,
28,
30,
31,
31,
30,
32,
33,
34,
33,
32,
32,
33,
33,
35,
34,
29,
29,
29,
31,
32,
29,
29,
27,
27,
29,
28,
26,
23,
25,
25,
23,
20,
17,
16,
16,
16,
15,
11,
10,
9,
9,
9,
7,
6,
2,
3,
1,
0,
-3,
-7,
-7,
-6,
-7,
-9,
-13,
-14,
-15,
-13,
-13,
-18,
-21,
-20,
-18,
-20,
-23,
-25,
-25,
-25,
-25,
-27,
-30,
-31,
-31,
-31,
-31,
-31,
-34,
-32,
-30,
-32,
-36,
-35,
-35,
-33,
-34,
-34,
-36,
-32,
-34,
-32,
-32,
-31,
-30,
-29,
-27,
-29,
-31,
-29,
-26,
-25,
-25,
-25,
-25,
-23,
-20,
-18,
-19,
-16,
-16,
-11,
-9,
-9,
-9,
-12,
-6,
-4,
-4,
-3,
-5,
-4,
-1,
5,
7,
6,
4,
7,
11,
16,
15,
13,
14,
18,
20,
21,
17,
17,
22,
27,
31,
24,
24,
26,
31,
34,
31,
30,
29,
32,
36,
35,
33,
31,
31,
35,
36,
35,
33,
32,
35,
36,
35,
34,
33,
29,
31,
33,
30,
28,
28,
28,
27,
27,
27,
25,
23,
23,
25,
23,
19,
18,
15,
17,
15,
11,
11,
8,
9,
9,
7,
4,
2,
2,
1,
0,
-2,
-4,
-5,
-6,
-8,
-12,
-15,
-12,
-12,
-17,
-21,
-19,
-18,
-19,
-23,
-25,
-25,
-23,
-23,
-26,
-28,
-29,
-29,
-29,
-29,
-32,
-35,
-34,
-31,
-32,
-34,
-35,
-35,
-32,
-32,
-31,
-35,
-34,
-35,
-33,
-31,
-31,
-34,
-33,
-30,
-31,
-31,
-30,
-29,
-28,
-25,
-23,
-21,
-22,
-23,
-20,
-18,
-18,
-17,
-17,
-17,
-14,
-12,
-9,
-10,
-10,
-7,
-5,
-1,
-2,
-3,
0,
2,
5,
5,
6,
5,
8,
9,
10,
11,
13,
15,
17,
18,
20,
19,
24,
23,
23,
25,
25,
27,
27,
29,
27,
27,
29,
31,
32,
31,
31,
31,
33,
36,
33,
30,
31,
33,
33,
30,
30,
27,
29,
31,
33,
31,
26,
27,
29,
30,
27,
25,
24,
23,
22,
21,
19,
16,
13,
17,
17,
17,
12,
9,
10,
11,
12,
8,
3,
0,
3,
1,
0,
-5,
-8,
-9,
-5,
-5,
-11,
-16,
-16,
-13,
-12,
-15,
-17,
-22,
-20,
-18,
-19,
-24,
-26,
-27,
-27,
-24,
-27,
-31,
-32,
-30,
-29,
-31,
-31,
-32,
-33,
-34,
-33,
-31,
-35,
-36,
-36,
-34,
-33,
-35,
-34,
-34,
-30,
-31,
-30,
-30,
-31,
-33,
-29,
-27,
-28,
-28,
-26,
-27,
-23,
-22,
