5-grundlagen-opAmps/data/ALL0008/A0008CH1.CSV

Memory Length,4000,
Trigger Level,0.00000e+00,
Source,CH1,
Probe,1.0X,
Vertical Units,V,
Vertical Scale,5.00000e-02,
Vertical Position,0.00000e+00,
Horizontal Units,S,
Horizontal Scale,1.00000e-07,
Horizontal Position,1.0000000e-07,
Horizontal Mode,Main,
Sampling Period,2.00000e-09,
Firmware,V1.14,
Time, ,
Mode,Fast,
Waveform Data,
-18,
-18,
-22,
-28,
-29,
-27,
-23,
-24,
-27,
-31,
-34,
-28,
-24,
-24,
-30,
-35,
-32,
-28,
-26,
-29,
-34,
-35,
-30,
-26,
-26,
-31,
-36,
-30,
-24,
-22,
-27,
-33,
-33,
-25,
-19,
-20,
-25,
-30,
-26,
-17,
-13,
-19,
-24,
-24,
-16,
-11,
-12,
-16,
-17,
-16,
-10,
-6,
-7,
-11,
-11,
-5,
-1,
-2,
-3,
-3,
-1,
3,
3,
4,
1,
2,
4,
8,
10,
9,
7,
9,
12,
14,
14,
15,
13,
12,
15,
17,
19,
18,
17,
17,
18,
19,
22,
21,
18,
17,
19,
21,
22,
19,
18,
19,
20,
20,
18,
17,
17,
16,
18,
19,
16,
15,
14,
16,
17,
15,
13,
8,
8,
10,
12,
12,
5,
1,
1,
7,
10,
4,
-2,
-5,
0,
2,
0,
-6,
-10,
-8,
-3,
-3,
-9,
-17,
-16,
-8,
-8,
-12,
-21,
-24,
-17,
-13,
-15,
-22,
-24,
-25,
-21,
-19,
-23,
-27,
-29,
-28,
-26,
-26,
-28,
-30,
-30,
-29,
-28,
-29,
-29,
-31,
-32,
-31,
-29,
-30,
-32,
-30,
-30,
-29,
-29,
-32,
-31,
-29,
-28,
-28,
-28,
-28,
-26,
-21,
-25,
-25,
-26,
-25,
-17,
-20,
-23,
-22,
-19,
-14,
-14,
-17,
-18,
-15,
-8,
-6,
-9,
-15,
-14,
-4,
1,
-2,
-8,
-8,
-1,
4,
6,
1,
-2,
1,
7,
13,
8,
4,
3,
10,
16,
13,
10,
8,
11,
18,
19,
18,
14,
10,
15,
24,
25,
19,
13,
12,
20,
28,
24,
19,
11,
15,
25,
25,
22,
13,
12,
20,
25,
22,
14,
12,
16,
21,
22,
14,
9,
10,
15,
18,
14,
6,
5,
9,
10,
9,
6,
4,
3,
2,
3,
3,
0,
-2,
-2,
-4,
-3,
-4,
-5,
-7,
-10,
-11,
-12,
-9,
-12,
-15,
-17,
-18,
-15,
-15,
-18,
-17,
-23,
-22,
-21,
-24,
-24,
-26,
-27,
-25,
-24,
-25,
-30,
-30,
-29,
-27,
-26,
-29,
-32,
-35,
-32,
-27,
-26,
-30,
-36,
-34,
-29,
-26,
-27,
-32,
-33,
-29,
-26,
-25,
-27,
-31,
-30,
-25,
-20,
-22,
-27,
-29,
-23,
-19,
-18,
-20,
-24,
-20,
-15,
-11,
-13,
-18,
-19,
-13,
-7,
-6,
-11,
-13,
-9,
-4,
-1,
-2,
-4,
-3,
-1,
3,
4,
2,
2,
5,
6,
7,
6,
7,
10,
11,
11,
12,
12,
13,
15,
16,
16,
17,
16,
16,
16,
18,
18,
19,
19,
20,
19,
20,
19,
19,
23,
21,
20,
15,
16,
22,
22,
19,
14,
13,
17,
22,
22,
15,
10,
9,
16,
20,
15,
6,
4,
12,
16,
13,
4,
-2,
3,
10,
9,
3,
-5,
-6,
1,
5,
2,
-9,
-14,
-9,
-3,
-2,
-10,
-15,
-16,
-14,
-11,
-12,
-15,
-21,
-21,
-16,
-14,
-19,
-24,
-28,
-27,
-19,
-19,
-27,
-31,
-30,
-26,
-21,
-24,
-34,
-36,
-31,
-23,
-23,
-31,
-36,
-34,
-27,
-25,
-28,
-33,
-34,
-29,
-28,
-27,
-30,
-34,
-28,
-27,
-26,
-28,
-28,
-27,
-24,
-23,
-27,
-25,
-22,
-21,
-20,
-21,
-19,
-18,
-16,
-15,
-16,
-15,
-12,
-11,
-11,
-13,
-11,
-5,
-4,
-4,
-7,
-5,
-4,
0,
3,
1,
1,
1,
4,
8,
7,
8,
7,
7,
9,
11,
16,
13,
10,
10,
16,
20,
17,
13,
14,
17,
21,
20,
17,
14,
17,
22,
24,
20,
15,
14,
19,
24,
25,
18,
15,
16,
20,
23,
20,
16,
14,
17,
20,
17,
13,
11,
12,
15,
14,
11,
9,
8,
9,
8,
7,
6,
3,
3,
4,
4,
1,
-2,
-2,
-2,
-3,
-5,
-5,
-5,
-7,
-9,
-10,
-12,
-11,
-13,
-14,
-17,
-19,
-18,
-13,
-17,
-21,
-23,
-25,
-18,
-19,
-24,
-28,
-29,
-26,
-24,
-24,
-27,
-31,
-33,
-28,
-26,
-28,
-34,
-36,
-31,
-26,
-25,
-31,
-37,
-35,
-28,
-24,
-26,
-35,
-38,
-31,
-23,
-22,
-28,
-36,
-32,
-24,
-18,
-21,
-28,
-30,
-23,
-15,
-15,
-21,
-24,
-23,
-14,
-10,
-14,
-18,
-16,
-12,
-7,
-5,
-9,
-11,
-11,
-4,
1,
-1,
-5,
-5,
-1,
4,
5,
4,
1,
1,
5,
11,
12,
7,
4,
7,
14,
15,
14,
12,
11,
16,
18,
18,
14,
14,
18,
23,
19,
17,
16,
18,
21,
20,
18,
19,
20,
20,
19,
18,
18,
20,
20,
18,
16,
14,
19,
21,
18,
12,
10,
13,
18,
16,
11,
7,
9,
11,
11,
9,
5,
2,
4,
6,
5,
2,
-2,
-2,
-1,
1,
-2,
-5,
-8,
-8,
-7,
-6,
-7,
-14,
-16,
-15,
-10,
-11,
-16,
-24,
-20,
-17,
-14,
-16,
-27,
-26,
-24,
-20,
-19,
-27,
-30,
-29,
-24,
-23,
-27,
-32,
-31,
-27,
-26,
-28,
-33,
-31,
-31,
-30,
-28,
-31,
-32,
-32,
-30,
-29,
-29,
-32,
-29,
-29,
-29,
-29,
-27,
-26,
-26,
-27,
-27,
-24,
-22,
-21,
-20,
-24,
-23,
-20,
-16,
-15,
-16,
-19,
-16,
-12,
-9,
-9,
-11,
-11,
-9,
-4,
-2,
-3,
-7,
-5,
0,
4,
3,
0,
-2,
3,
8,
11,
8,
2,
2,
11,
18,
15,
9,
6,
9,
19,
22,
18,
12,
10,
18,
25,
24,
15,
10,
16,
23,
26,
19,
15,
15,
21,
26,
23,
16,
11,
16,
25,
25,
18,
10,
12,
17,
21,
18,
13,
9,
11,
15,
18,
13,
8,
6,
9,
12,
9,
5,
3,
2,
5,
4,
3,
-1,
-4,
-3,
-2,
-1,
-7,
-10,
-9,
-8,
-7,
-12,
-13,
-15,
-15,
-12,
-16,
-18,
-21,
-19,
-16,
-19,
-22,
-24,
-24,
-23,
-25,
-27,
-28,
-26,
-25,
-27,
-32,
-33,
-28,
-26,
-27,
-31,
-35,
-33,
-27,
-27,
-30,
-35,
-34,
-28,
-26,
-28,
-34,
-32,
-28,
-25,
-28,
-30,
-31,
-28,
-21,
-20,
-23,
-27,
-29,
-21,
-18,
-17,
-20,
-23,
-21,
-18,
-13,
-11,
-15,
-16,
-13,
-10,
-6,
-7,
-10,
-9,
-6,
-1,
1,
-1,
-6,
-3,
4,
7,
3,
0,
3,
9,
11,
10,
7,
8,
10,
13,
14,
13,
11,
13,
16,
17,
15,
17,
17,
19,
17,
16,
19,
20,
21,
18,
17,
19,
21,
23,
21,
17,
17,
19,
23,
21,
15,
15,
18,
19,
19,
16,
13,
13,
15,
17,
16,
11,
7,
8,
12,
13,
9,
2,
0,
5,
9,
7,
1,
-4,
-4,
0,
5,
2,
-7,
-14,
-11,
-3,
-3,
-11,
-17,
-17,
-10,
-8,
-12,
-19,
-24,
-18,
-11,
-12,
-22,
-29,
-27,
-20,
-17,
-22,
-32,
-32,
-28,
-22,
-24,
-28,
-34,
-33,
-28,
-24,
-28,
-33,
-35,
-32,
-28,
-28,
-31,
-35,
-31,
-29,
-27,
-27,
-30,
-33,
-29,
-25,
-25,
-27,
-29,
-27,
-23,
-22,
-24,
-25,
-24,
-22,
-19,
-17,
-19,
-20,
-19,
-14,
-15,
-15,
-13,
-11,
-9,
-9,
-10,
-11,
-7,
-3,
-2,
-3,
-6,
-3,
3,
5,
4,
0,
0,
5,
10,
9,
5,
5,
10,
14,
16,
12,
8,
11,
18,
22,
17,
10,
12,
20,
24,
23,
16,
12,
17,
21,
25,
23,
15,
13,
19,
25,
21,
17,
16,
17,
20,
21,
19,
16,
13,
16,
19,
19,
14,
9,
11,
15,
16,
13,
9,
6,
6,
8,
12,
8,
1,
-1,
4,
5,
3,
-2,
-5,
-3,
-1,
-2,
-4,
-8,
-10,
-9,
-11,
-11,
-13,
-14,
-13,
-16,
-19,
-19,
-19,
-16,
-19,
-24,
-23,
-22,
-21,
-25,
-28,
-27,
-23,
-23,
-27,
-32,
-31,
-29,
-24,
-24,
-33,
-36,
-32,
-27,
-24,
-29,
-36,
-35,
-31,
-27,
-26,
-29,
-32,
-34,
-29,
-27,
-25,
-29,
-32,
-29,
-23,
-20,
-24,
-28,
-27,
-22,
-16,
-15,
-21,
-27,
-24,
-12,
-7,
-14,
-20,
-19,
-11,
-4,
-4,
-10,
-15,
-10,
-1,
4,
-3,
-8,
-6,
3,
6,
5,
0,
0,
4,
8,
11,
8,
4,
7,
12,
15,
13,
9,
12,
16,
18,
16,
16,
16,
15,
18,
20,
21,
19,
17,
17,
20,
21,
20,
20,
18,
19,
20,
18,
19,
19,
18,
21,
16,
16,
16,
17,
19,
15,
12,
13,
13,
16,
14,
10,
7,
7,
10,
11,
6,
2,
2,
7,
8,
2,
-5,
-5,
0,
2,
0,
-8,
-11,
-9,
-6,
-5,
-9,
-17,
-18,
-14,
-8,
-13,
-19,
-25,
-19,
-15,
-16,
-20,
-26,
-26,
-22,
-19,
-23,
-27,
-32,
-29,
-25,
-25,
-28,
-34,
-33,
-28,
-26,
-27,
-32,
-35,
-33,
-30,
-26,
-28,
-33,
-35,
-32,
-27,
-26,
-28,
-32,
-32,
-28,
-26,
-25,
-26,
-28,
-27,
-24,
-21,
-22,
-25,
-20,
-20,
-18,
-18,
-18,
-17,
-16,
-14,
-13,
-11,
-11,
-12,
-10,
-9,
-7,
-4,
-4,
-6,
-7,
-4,
2,
4,
3,
0,
0,
4,
10,
12,
7,
3,
6,
12,
16,
12,
8,
8,
14,
19,
18,
13,
11,
15,
20,
22,
19,
13,
15,
20,
24,
22,
17,
16,
17,
22,
26,
23,
17,
13,
17,
24,
24,
19,
12,
12,
18,
21,
18,
12,
9,
12,
17,
18,
10,
4,
5,
12,
14,
7,
0,
0,
5,
8,
4,
-3,
-4,
-2,
1,
0,
-4,
-9,
-9,
-8,
-7,
-11,
-14,
-13,
-12,
-15,
-16,
-16,
-17,
-17,
-18,
-20,
-23,
-22,
-22,
-21,
-24,
-25,
-27,
-28,
-26,
-25,
-27,
-29,
-30,
-27,
-28,
-29,
-29,
-32,
-32,
-32,
-28,
-30,
-34,
-33,
-30,
-26,
-28,
-34,
-34,
-29,
-24,
-24,
-28,
-35,
-32,
-24,
-17,
-21,
-29,
-31,
-23,
-16,
-15,
-20,
-25,
-21,
-14,
-10,
-12,
-18,
-18,
-11,
-4,
-6,
-10,
-12,
-9,
-2,
0,
-2,
-4,
-6,
-2,
5,
6,
3,
0,
3,
8,
11,
10,
8,
5,
8,
13,
17,
15,
11,
11,
16,
20,
19,
16,
16,
18,
20,
19,
20,
17,
18,
18,
21,
21,
19,
19,
20,
20,
20,
19,
19,
19,
17,
17,
19,
19,
17,
14,
12,
14,
17,
17,
15,
10,
6,
8,
13,
13,
9,
2,
3,
5,
7,
4,
0,
-4,
-2,
2,
1,
-3,
-10,
-11,
-5,
-3,
-7,
-14,
-16,
-15,
-8,
-9,
-15,
-20,
-23,
-17,
-12,
-16,
-23,
-27,
-26,
-19,
-19,
-24,
-28,
-31,
-27,
-24,
-25,
-28,
-32,
-32,
-28,
-25,
-27,
-34,
-36,
-31,
-26,
-26,
-32,
-35,
-34,
-28,
-26,
-27,
-34,
-34,
-28,
-24,
-25,
-29,
-31,
-27,
-22,
-21,
-25,
-27,
-22,
-18,
-17,
-20,
-21,
-19,
-13,
-13,
-16,
-17,
-13,
-8,
-7,
-10,
-12,
-9,
-3,
-2,
-3,
-5,
-6,
0,
3,
3,
0,
0,
4,
9,
9,
6,
5,
8,
13,
14,
14,
11,
7,
13,
17,
22,
17,
12,
13,
17,
24,
24,
17,
11,
15,
22,
27,
23,
16,
14,
19,
27,
25,
16,
13,
16,
25,
26,
18,
11,
11,
18,
23,
20,
10,
6,
11,
17,
17,
11,
5,
5,
7,
11,
11,
4,
0,
1,
4,
5,
1,
-3,
-4,
-3,
-2,
-4,
-5,
-10,
-11,
-9,
-8,
-9,
-15,
-17,
-15,
-13,
-13,
-17,
-23,
-21,
-20,
-18,
-21,
-24,
-25,
-26,
-24,
-24,
-26,
-28,
-28,
-28,
-30,
-29,
-28,
-27,
-30,
-34,
-33,
-31,
-27,
-28,
-33,
-33,
-30,
-27,
-28,
-30,
-32,
-32,
-27,
-23,
-27,
-30,
-32,
-25,
-19,
-21,
-27,
-30,
-25,
-20,
-16,
-17,
-23,
-24,
-16,
-12,
-12,
-16,
-19,
-15,
-9,
-7,
-7,
-9,
-11,
-7,
-2,
0,
-3,
-5,
-3,
2,
5,
4,
2,
1,
3,
8,
11,
9,
6,
6,
12,
17,
14,
10,
12,
14,
17,
19,
16,
15,
15,
18,
20,
21,
17,
17,
21,
21,
20,
18,
19,
20,
20,
22,
18,
16,
19,
20,
21,
16,
13,
15,
19,
20,
14,
11,
12,
15,
15,
10,
7,
8,
10,
11,
8,
3,
1,
4,
9,
6,
0,
-6,
-4,
2,
2,
-3,
-8,
-10,
-8,
-5,
-6,
-10,
-16,
-16,
-10,
-12,
-14,
-19,
-24,
-18,
-16,
-16,
-25,
-27,
-27,
-23,
-16,
-20,
-29,
-35,
-30,
-23,
-20,
-28,
-37,
-35,
-28,
-23,
-25,
-34,
-38,
-34,
-26,
-24,
-32,
-37,
-35,
-28,
-25,
-29,
-33,
-34,
-27,
-24,
-25,
-27,
-29,
-27,
-24,
-23,
-21,
-24,
-24,
-20,
-19,
-17,
-16,
-19,
-19,
-17,
-13,
-10,
-11,
-14,
-14,
-9,
-6,
-6,
-5,
-6,
-6,
-2,
0,
0,
1,
1,
3,
4,
3,
5,
8,
9,
8,
7,
9,
12,
13,
11,
12,
15,
16,
18,
16,
12,
14,
20,
22,
20,
14,
12,
20,
24,
25,
18,
14,
16,
21,
25,
21,
15,
15,
18,
23,
21,
15,
13,
16,
20,
19,
15,
12,
10,
15,
16,
13,
10,
6,
6,
11,
11,
6,
3,
0,
3,
5,
4,
0,
-2,
-4,
-2,
0,
-4,
-8,
-11,
-8,
-8,
-9,
-14,
-14,
-14,
-15,
-16,
-19,
-19,
-19,
-18,
-19,
-20,
-22,
-24,
-23,
-23,
-23,
-29,
-28,
-26,
-25,
-28,
-30,
-30,
-27,
-27,
-32,
-32,
-34,
-30,
-27,
-27,
-34,
-36,
-30,
-26,
-25,
-30,
-36,
-33,
-27,
-24,
-25,
-30,
-32,
-29,
-21,
-19,
-23,
-28,
-27,
-19,
-15,
-18,
-24,
-25,
-18,
-12,
-9,
-13,
-20,
-18,
-8,
-4,
-4,
-12,
-13,
-8,
0,
2,
0,
-6,
-8,
-1,
8,
8,
2,
-2,
3,
11,
15,
11,
5,
5,
12,
17,
18,
11,
7,
12,
19,
24,
16,
11,
12,
20,
25,
20,
18,
14,
18,
22,
22,
21,
18,
17,
20,
21,
20,
19,
19,
17,
17,
17,
18,
19,
17,
14,
14,
16,
14,
12,
12,
11,
11,
11,
11,
7,
5,
5,
7,
6,
3,
2,
0,
-1,
1,
-2,
-2,
-4,
-8,
-9,
-8,
-5,
-7,
-11,
-15,
-16,
-12,
-11,
-13,
-19,
-22,
-20,
-13,
-16,
-23,
-26,
-28,
-20,
-19,
-26,
-31,
-31,
-26,
-23,
-27,
-31,
-35,
-31,
-26,
-26,
-30,
-35,
-33,
-30,
-26,
-29,
-33,
-32,
-31,
-29,
-28,
-28,
-28,
-30,
-28,
-27,
-26,
-26,
-28,
-27,
-25,
-24,
-21,
-24,
-24,
-22,
-19,
-18,
-18,
-20,
-19,
-13,
-13,
-15,
-15,
-12,
-9,
-8,
-8,
-6,
-6,
-4,
-4,
-3,
-3,
0,
4,
4,
1,
0,
5,
10,
11,
7,
3,
6,
13,
17,
14,
9,
7,
12,
21,
20,
14,
10,
15,
21,
25,
19,
13,
14,
21,
25,
24,
19,
12,
17,
24,
27,
21,
14,
13,
19,
26,
23,
18,
11,
12,
18,
22,
20,
10,
5,
12,
17,
17,
10,
5,
5,
9,
13,
9,
2,
-1,
1,
7,
6,
0,
-7,
-7,
1,
1,
-3,
-9,
-14,
-8,
-5,
-6,
-10,
-17,
-18,
-12,
-11,
-15,
-22,
-23,
-19,
-17,
-20,
-24,
-24,
-25,
-23,
-25,
-26,
-27,
-28,
-27,
-27,
-30,
-30,
-32,
-29,
-29,
-31,
-32,
-30,
-29,
-30,
-32,
-30,
-30,
-28,
-30,
-31,
-30,
-30,
-28,
-27,
-28,
-30,
-31,
-27,
-21,
-23,
-26,
-27,
-23,
-22,
-19,
-15,
-19,
-22,
-21,
-14,
-11,
-13,
-14,
-15,
-10,
-7,
-5,
-8,
-11,
-8,
-1,
1,
-2,
-7,
-4,
3,
9,
5,
1,
1,
5,
10,
12,
10,
5,
6,
14,
15,
13,
10,
12,
16,
17,
18,
16,
15,
18,
18,
20,
19,
19,
19,
18,
20,
19,
19,
20,
19,
18,
18,
21,
21,
18,
16,
16,
20,
19,
17,
16,
15,
14,
14,
16,
16,
12,
8,
9,
9,
10,
10,
8,
4,
1,
3,
7,
6,
0,
-6,
-4,
0,
1,
-3,
-8,
-11,
-7,
-4,
-7,
-15,
-19,
-14,
-5,
-8,
-17,
-25,
-24,
-15,
-13,
-17,
-25,
-30,
-24,
-18,
-18,
-24,
-31,
-32,
-27,
-21,
-24,
-30,
-35,
-31,
-26,
-24,
-29,
-33,
-35,
-31,
-26,
-25,
-32,
-38,
-34,
-27,
-23,
-27,
-36,
-35,
-27,
-21,
-24,
-28,
-31,
-30,
-21,
-18,
-22,
-28,
-27,
-20,
-16,
-16,
-20,
-20,
-17,
-13,
-12,
-12,
-14,
-13,
-8,
-7,
-7,
-8,
-7,
-3,
-2,
-2,
-2,
-1,
1,
2,
4,
4,
4,
4,
6,
10,
8,
8,
12,
12,
11,
10,
12,
17,
18,
18,
17,
13,
15,
17,
19,
21,
17,
15,
17,
22,
21,
19,
17,
17,
21,
24,
22,
17,
15,
17,
22,
22,
15,
12,
13,
17,
20,
17,
12,
8,
12,
17,
18,
12,
4,
2,
9,
12,
9,
2,
-1,
1,
5,
4,
-1,
-4,
-6,
-2,
0,
-4,
-9,
-11,
-8,
-7,
-9,
-14,
-15,
-14,
-14,
-15,
-17,
-19,
-21,
-19,
-20,
-19,
-22,
-23,
-25,
-27,
-25,
-26,
-26,
-26,
-30,
-31,
-32,
-27,
-25,
-29,
-33,
-32,
-28,
-27,
-29,
-31,
-34,
-32,
-29,
-29,
-29,
-30,
-32,
-28,
-27,
-26,
-27,
-30,
-30,
-27,
-24,
-20,
-25,
-29,
-26,
-18,
-15,
-17,
-26,
-26,
-18,
-11,
-8,
-15,
-21,
-17,
-8,
-1,
-7,
-14,
-13,
-5,
3,
1,
-4,
-8,
-3,
5,
8,
5,
-2,
0,
7,
13,
11,
6,
5,
6,
13,
17,
13,
12,
9,
13,
21,
19,
18,
12,
14,
20,
21,
22,
17,
14,
17,
22,
24,
20,
14,
16,
21,
25,
20,
16,
16,
19,
21,
20,
16,
13,
16,
19,
17,
13,
10,
10,
13,
14,
10,
8,
10,
10,
7,
4,
4,
4,
5,
3,
-1,
-4,
-2,
0,
-2,
-4,
-9,
-9,
-7,
-6,
-9,
-14,
-13,
-13,
-13,
-13,
-16,
-17,
-20,
-18,
-15,
-19,
-22,
-27,
-25,
-20,
-20,
-24,
-29,
-31,
-27,
-24,
-25,
-28,
-32,
-33,
-28,
-24,
-27,
-34,
-38,
-32,
-25,
-27,
-32,
-35,
-34,
-29,
-27,
-27,
-31,
-32,
-28,
-24,
-23,
-28,
-30,
-26,
-21,
-21,
-24,
-26,
-25,
-20,
-16,
-16,
-19,
-19,
-17,
-14,
-11,
-12,
-13,
-12,
-10,
-9,
-5,
-4,
-4,
-6,
-5,
-3,
-1,
0,
3,
3,
0,
2,
5,
8,
7,
6,
6,
10,
13,
13,
12,
12,
12,
16,
18,
16,
12,
13,
19,
21,
21,
17,
13,
16,
21,
25,
24,
18,
15,
17,
24,
25,
21,
15,
13,
20,
25,
23,
16,
11,
13,
19,
22,
16,
9,
10,
16,
20,
14,
6,
3,
5,
13,
14,
6,
-1,
-1,
5,
10,
5,
-6,
-8,
-3,
1,
0,
-7,
-11,
-11,
-8,
-7,
-9,
-12,
-16,
-16,
-13,
-15,
-17,
-20,
-24,
-18,
-19,
-20,
-24,
-26,
-25,
-23,
-25,
-26,
-30,
-30,
-27,
-24,
-26,
-31,
-33,
-31,
-27,
-27,
-32,
-32,
-29,
-29,
-29,
-32,
-33,
-29,
-27,
-28,
-31,
-34,
-29,
-23,
-23,
-29,
-32,
-29,
-21,
-20,
-25,
-28,
-26,
-20,
-14,
-16,
-22,
-23,
-16,
-10,
-12,
-16,
-19,
-12,
-8,
-5,
-8,
-11,
-9,
-6,
0,
2,
-3,
-6,
-4,
3,
6,
6,
4,
1,
4,
8,
13,
12,
5,
5,
11,
17,
15,
12,
11,
13,
19,
22,
16,
12,
13,
19,
24,
22,
17,
14,
17,
23,
24,
20,
16,
16,
20,
22,
21,
19,
15,
17,
20,
20,
17,
17,
16,
15,
14,
14,
16,
15,
10,
9,
9,
9,
9,
7,
7,
5,
4,
5,
4,
1,
-2,
-2,
0,
1,
-3,
-7,
-8,
-6,
-4,
-7,
-9,
-15,
-16,
-14,
-10,
-11,
-17,
-22,
-21,
-18,
-15,
-19,
-26,
-27,
-22,
-19,
-20,
-27,
-31,
-29,
-25,
-23,
-27,
-33,
-35,
-29,
-23,
-25,
-32,
-36,
-34,
-27,
-26,
-27,
-36,
-38,
-30,
-25,
-23,
-30,
-36,
-32,
-26,
-23,
-27,
-32,
-30,
-24,
-20,
-19,
-25,
-27,
-24,
-17,
-16,
-20,
-21,
-19,
-15,
-12,
-13,
-13,
-15,
-13,
-8,
-4,
-7,
-9,
-7,
-4,
-1,
0,
0,
-1,
-1,
1,
4,
5,
5,
6,
7,
9,
7,
8,
11,
14,
14,
12,
12,
13,
15,
18,
19,
16,
13,
17,
21,
21,
18,
14,
17,
22,
25,
19,
15,
17,
22,
26,
22,
14,
13,
18,
25,
24,
14,
8,
14,
20,
21,
16,
11,
8,
13,
17,
16,
10,
4,
6,
12,
12,
6,
0,
2,
4,
5,
4,
0,
-5,
-6,
-2,
0,
-2,
-10,
-13,
-10,
-6,
-7,
-13,
-20,
-16,
-13,
-11,
-13,
-20,
-25,
-22,
-16,
-16,
-22,
-28,
-28,
-24,
-21,
-26,
-29,
-30,
-27,
-27,
-30,
-29,
-30,
-29,
-29,
-29,
-31,
-32,
-31,
-30,
-31,
-31,
-29,
-29,
-30,
-33,
-32,
-28,
-26,
-26,
-32,
-31,
-26,
-23,
-20,
-24,
-26,
-27,
-24,
-16,
-18,
-21,
-24,
-18,
-15,
-13,
-12,
-15,
-16,
-14,
-8,
-4,
-9,
-11,
-9,
-4,
1,
0,
-4,
-5,
-2,
4,
9,
4,
-1,
-1,
6,
15,
12,
5,
3,
9,
17,
18,
14,
9,
9,
16,
21,
19,
14,
11,
17,
22,
22,
17,
14,
15,
21,
24,
21,
17,
16,
19,
23,
23,
19,
16,
18,
20,
21,
18,
16,
16,
15,
16,
17,
14,
12,
11,
13,
12,
10,
9,
10,
9,
6,
3,
4,
3,
5,
3,
0,
-2,
-4,
-2,
-2,
-3,
-7,
-11,
-8,
-6,
-9,
-14,
-15,
-14,
-13,
-13,
-15,
-22,
-22,
-18,
-14,
-17,
-24,
-29,
-27,
-19,
-17,
-25,
-33,
-34,
-27,
-21,
-24,
-29,
-37,
-33,
-27,
-24,
-30,
-37,
-35,
-29,
-25,
-28,
-34,
-36,
-31,
-26,
-27,
-29,
-35,
-34,
-27,
-23,
-25,
-31,
-32,
-28,
-21,
-19,
-21,
-26,
-26,
-22,
-16,
-14,
-18,
-22,
-20,
-14,
-8,
-11,
-14,
-12,
-11,
-6,
-4,
-7,
-9,
-8,
0,
1,
1,
-4,
-3,
3,
6,
6,
4,
4,
7,
9,
12,
11,
10,
10,
12,
13,
12,
15,
17,
16,
14,
14,
17,
21,
22,
18,
15,
18,
22,
24,
22,
16,
17,
18,
23,
23,
17,
16,
19,
21,
21,
17,
15,
15,
18,
19,
17,
14,
10,
12,
17,
16,
13,
7,
4,
8,
11,
11,
6,
1,
-1,
2,
7,
5,
-3,
-7,
-5,
0,
-1,
-6,
-11,
-12,
-7,
-7,
-10,
-15,
-18,
-15,
-10,
-13,
-19,
-23,
-21,
-16,
-16,
-23,
-28,
-27,
-24,
-21,
-25,
-27,
-29,
-28,
-28,
-28,
-28,
-30,
-29,
-29,
-30,
-32,
-32,
-29,
-29,
-31,
-33,
-32,
-30,
-29,
-29,
-29,
-30,
-30,
-28,
-27,
-25,
-28,
-29,
-26,
-23,
-23,
-25,
-25,
-23,
-21,
-18,
-18,
-21,
-23,
-16,
-11,
-11,
-16,
-19,
-15,
-7,
-4,
-6,
-10,
-11,
-7,
1,
3,
-3,
-7,
-4,
5,
9,
4,
0,
0,
7,
13,
14,
7,
4,
6,
16,
20,
14,
7,
9,
16,
21,
21,
13,
9,
15,
21,
25,
22,
14,
13,
19,
23,
23,
18,
16,
17,
21,
23,
22,
17,
14,
17,
20,
22,
17,
14,
15,
16,
17,
16,
13,
8,
10,
12,
14,
12,
5,
3,
6,
9,
7,
3,
1,
-1,
1,
0,
0,
-2,
-5,
-4,
-7,
-8,
-8,
-10,
-8,
-11,
-15,
-15,
-14,
-13,
-18,
-21,
-18,
-17,
-18,
-21,
-26,
-24,
-21,
-21,
-22,
-28,
-31,
-28,
-24,
-24,
-29,
-35,
-34,
-28,
-25,
-28,
-34,
-33,
-31,
-28,
-27,
-30,
-32,
-34,
-29,
-28,
-27,
-30,
-34,
-29,
-26,
-24,
-26,
-30,
-29,
-26,
-20,
-19,
-23,
-26,
-25,
-17,
-15,
-16,
-21,
-21,
-16,
-11,
-9,
-14,
-17,
-13,
-7,
-4,
-7,
-10,
-7,
-3,
-1,
-2,
-3,
0,
3,
3,
4,
3,
4,
8,
10,
8,
6,
8,
12,
14,
12,
10,
13,
16,
17,
16,
14,
15,
18,
20,
21,
17,
15,
18,
23,
24,
20,
17,
16,
18,
24,
24,
20,
15,
14,
17,
23,
23,
15,
11,
15,
17,
21,
16,
11,
9,
13,
18,
16,
6,
1,
5,
13,
15,
5,
-4,
-2,
4,
10,
4,
-5,
-9,
-4,
2,
3,
-7,
-15,
-15,
-7,
-3,
-9,
-16,
-23,
-15,
-11,
-12,
-18,
-23,
-22,
-19,
-15,
-18,
-25,
-28,
-27,
-20,
-21,
-26,
-32,
-31,
-27,
-25,
-26,
-30,
-32,
-32,
-28,
-26,
-29,
-32,
-33,
-32,
-28,
-28,
-31,
-32,
-30,
-30,
-29,
-28,
-27,
-28,
-28,
-28,
-26,
-26,
-27,
-23,
-22,
-24,
-24,
-20,
-18,
-18,
-20,
-18,
-16,
-14,
-12,
-14,
-15,
-12,
-8,
-5,
-9,
-12,
-8,
-3,
1,
-1,
-4,
-4,
-1,
4,
6,
3,
1,
1,
7,
12,
11,
6,
5,
11,
14,
16,
14,
12,
13,
16,
19,
17,
14,
14,
17,
21,
22,
18,
16,
16,
20,
23,
23,
19,
15,
17,
22,
23,
21,
16,
14,
17,
20,
20,
17,
13,
13,
16,
16,
15,
11,
10,
14,
14,
10,
6,
7,
9,
9,
6,
3,
2,
3,
2,
0,
-2,
-4,
-2,
-2,
-4,
-11,
-8,
-5,
-4,
-11,
-18,
-16,
-12,
-9,
-13,
-20,
-23,
-20,
-15,
-13,
-19,
-26,
-27,
-24,
-19,
-21,
-29,
-32,
-28,
-25,
-25,
-29,
-32,
-31,
-29,
-26,
-26,
-33,
-38,
-35,
-28,
-23,
-27,
-35,
-38,
-31,
-25,
-24,
-29,
-36,
-35,
-25,
-17,
-22,
-32,
-36,
-27,
-17,
-17,
-25,
-29,
-25,
-17,
-13,
-16,
-23,
-22,
-15,
-9,
-10,
-16,
-18,
-12,
-6,
-4,
-6,
-9,
-9,
-5,
1,
3,
-1,
-4,
-1,
3,
6,
6,
5,
4,
4,
8,
12,
11,
9,
8,
13,
16,
14,
14,
14,
16,
17,
18,
16,
16,
18,
19,
21,
