6-anwendungen-opAmps/daten/ALL0038/A0038CH1.CSV

Memory Length,4000,
Trigger Level,6.18000e+02,
Source,CH1,
Probe,1.0X,
Vertical Units,V,
Vertical Scale,5.00000e-02,
Vertical Position,-4.54000e-01,
Horizontal Units,S,
Horizontal Scale,5.00000e-04,
Horizontal Position,-7.0000000e-04,
Horizontal Mode,XY Mode,
Sampling Period,2.00000e-06,
Firmware,V1.14,
Time, ,
Mode,Fast,
Waveform Data,
100,
100,
100,
100,
100,
100,
100,
100,
100,
100,
100,
100,
100,
100,
100,
100,
100,
100,
100,
100,
100,
100,
100,
100,
100,
100,
100,
100,
100,
100,
100,
100,
100,
100,
100,
100,
100,
100,
100,
100,
100,
100,
100,
100,
100,
100,
100,
100,
100,
100,
100,
100,
100,
100,
100,
100,
100,
100,
100,
100,
100,
100,
100,
100,
100,
100,
100,
100,
100,
100,
100,
100,
100,
100,
100,
100,
100,
100,
100,
100,
100,
100,
100,
100,
100,
100,
100,
100,
100,
100,
100,
100,
100,
100,
100,
100,
100,
100,
100,
100,
100,
100,
100,
100,
100,
100,
100,
100,
100,
100,
100,
100,
100,
100,
100,
100,
100,
100,
100,
100,
100,
100,
100,
100,
100,
100,
100,
100,
100,
100,
100,
100,
100,
100,
100,
100,
100,
100,
100,
100,
100,
100,
100,
100,
100,
100,
100,
100,
100,
100,
100,
100,
100,
100,
100,
100,
100,
100,
100,
100,
100,
100,
100,
100,
100,
100,
100,
100,
100,
100,
100,
100,
100,
100,
100,
100,
100,
100,
100,
100,
100,
100,
100,
100,
100,
100,
100,
100,
100,
100,
100,
100,
100,
100,
100,
100,
100,
100,
100,
100,
100,
100,
100,
100,
100,
100,
100,
100,
100,
100,
100,
100,
100,
100,
100,
100,
100,
100,
100,
100,
100,
100,
100,
100,
100,
100,
100,
100,
100,
100,
100,
100,
100,
100,
100,
100,
100,
100,
100,
100,
100,
100,
100,
100,
100,
100,
100,
100,
100,
100,
100,
100,
100,
100,
100,
100,
100,
100,
100,
100,
100,
100,
100,
100,
100,
100,
100,
100,
100,
100,
100,
100,
100,
100,
100,
100,
100,
100,
100,
100,
100,
100,
100,
100,
100,
100,
100,
100,
100,
100,
100,
100,
100,
100,
100,
100,
100,
100,
100,
100,
100,
100,
100,
100,
100,
100,
100,
100,
100,
100,
100,
100,
100,
100,
100,
100,
100,
100,
100,
100,
100,
100,
100,
100,
100,
100,
100,
100,
100,
100,
100,
100,
100,
100,
100,
100,
100,
100,
100,
100,
100,
100,
100,
100,
100,
100,
100,
100,
100,
100,
100,
100,
100,
100,
100,
100,
100,
100,
100,
100,
100,
100,
100,
100,
100,
100,
100,
100,
100,
100,
100,
100,
100,
100,
100,
100,
100,
100,
100,
100,
100,
100,
100,
100,
100,
100,
100,
100,
100,
100,
100,
100,
100,
100,
100,
100,
100,
100,
100,
100,
100,
100,
100,
100,
100,
100,
100,
100,
100,
100,
100,
100,
100,
100,
100,
100,
100,
100,
100,
100,
100,
100,
100,
100,
100,
100,
100,
100,
100,
100,
100,
100,
100,
100,
100,
100,
100,
100,
100,
100,
100,
100,
100,
100,
100,
100,
100,
100,
100,
100,
100,
100,
100,
100,
100,
100,
100,
100,
100,
100,
100,
100,
100,
100,
100,
100,
100,
100,
100,
100,
100,
100,
100,
100,
100,
100,
100,
100,
100,
100,
100,
100,
100,
100,
100,
100,
100,
100,
100,
100,
100,
100,
100,
100,
100,
100,
100,
100,
100,
100,
100,
100,
100,
100,
100,
100,
100,
100,
100,
100,
100,
100,
100,
100,
100,
100,
100,
100,
100,
100,
100,
100,
100,
100,
100,
100,
100,
100,
100,
100,
100,
100,
100,
100,
100,
100,
100,
100,
100,
100,
100,
100,
100,
100,
100,
100,
100,
100,
100,
100,
100,
100,
100,
100,
100,
100,
100,
100,
100,
100,
100,
100,
100,
100,
100,
100,
100,
100,
100,
100,
100,
100,
100,
100,
100,
100,
100,
100,
100,
100,
100,
100,
100,
100,
100,
100,
100,
100,
100,
100,
100,
100,
100,
100,
100,
100,
100,
100,
100,
100,
100,
100,
100,
100,
100,
100,
100,
100,
100,
100,
100,
100,
100,
100,
100,
100,
100,
100,
100,
100,
100,
100,
100,
100,
100,
100,
100,
100,
100,
100,
100,
100,
100,
100,
100,
100,
100,
100,
100,
100,
100,
100,
100,
100,
100,
100,
100,
100,
100,
100,
100,
100,
100,
100,
100,
100,
100,
100,
100,
100,
100,
100,
100,
100,
100,
100,
100,
100,
100,
100,
100,
100,
100,
100,
100,
100,
100,
100,
100,
100,
100,
100,
100,
100,
100,
100,
100,
100,
100,
100,
100,
100,
100,
100,
100,
100,
100,
100,
100,
100,
100,
100,
100,
100,
100,
100,
100,
100,
100,
100,
100,
100,
100,
100,
100,
100,
100,
100,
100,
100,
100,
100,
100,
100,
100,
100,
100,
100,
100,
100,
100,
100,
100,
100,
100,
100,
100,
100,
100,
100,
100,
100,
100,
100,
100,
100,
100,
100,
100,
100,
100,
100,
100,
100,
100,
100,
100,
100,
100,
100,
100,
100,
100,
100,
100,
100,
100,
100,
100,
100,
100,
100,
100,
100,
100,
100,
100,
100,
100,
100,
100,
100,
100,
100,
100,
100,
100,
100,
100,
100,
100,
100,
100,
100,
100,
100,
100,
100,
100,
100,
100,
100,
100,
100,
100,
100,
100,
100,
100,
100,
100,
100,
100,
100,
100,
100,
100,
100,
100,
100,
100,
100,
100,
100,
100,
100,
100,
100,
100,
100,
100,
100,
100,
100,
100,
100,
100,
100,
100,
100,
100,
100,
100,
100,
100,
100,
100,
100,
100,
100,
100,
100,
100,
100,
100,
100,
100,
100,
100,
100,
100,
100,
100,
100,
100,
100,
100,
100,
100,
100,
100,
100,
100,
100,
100,
100,
100,
100,
100,
100,
100,
100,
100,
100,
100,
100,
100,
100,
100,
100,
100,
100,
100,
100,
100,
100,
100,
100,
100,
100,
100,
100,
100,
100,
100,
100,
100,
100,
100,
100,
100,
100,
100,
100,
100,
100,
100,
100,
100,
100,
100,
100,
100,
100,
100,
100,
100,
100,
100,
100,
100,
100,
100,
100,
100,
100,
100,
100,
100,
100,
100,
100,
100,
100,
100,
100,
100,
100,
100,
100,
100,
100,
100,
100,
100,
100,
100,
100,
100,
100,
100,
100,
100,
100,
100,
100,
100,
100,
100,
100,
100,
100,
100,
100,
100,
100,
100,
100,
100,
100,
100,
100,
100,
100,
100,
100,
100,
100,
100,
100,
100,
100,
100,
100,
100,
100,
100,
100,
100,
100,
100,
100,
100,
100,
100,
100,
100,
100,
100,
100,
100,
100,
100,
100,
100,
100,
100,
100,
100,
100,
100,
100,
100,
100,
100,
100,
100,
100,
100,
100,
100,
100,
100,
100,
100,
100,
100,
100,
100,
100,
100,
100,
100,
100,
100,
100,
100,
100,
100,
100,
100,
100,
100,
100,
100,
100,
100,
100,
100,
100,
100,
100,
100,
100,
100,
100,
100,
100,
100,
100,
100,
100,
100,
100,
100,
100,
100,
100,
100,
100,
100,
100,
100,
100,
100,
100,
100,
100,
100,
100,
100,
100,
100,
100,
100,
100,
100,
100,
100,
100,
100,
100,
100,
100,
100,
100,
100,
100,
100,
100,
100,
100,
100,
100,
100,
100,
100,
100,
100,
100,
100,
100,
100,
100,
100,
100,
100,
100,
100,
100,
100,
100,
100,
100,
100,
100,
100,
100,
100,
100,
100,
100,
100,
100,
100,
100,
100,
100,
100,
100,
100,
100,
100,
100,
100,
100,
100,
100,
100,
100,
100,
100,
100,
100,
100,
100,
100,
100,
100,
100,
100,
100,
100,
100,
100,
100,
100,
100,
100,
100,
100,
100,
100,
100,
100,
100,
100,
100,
100,
100,
100,
100,
100,
100,
100,
100,
100,
100,
100,
100,
100,
100,
100,
100,
100,
100,
100,
100,
100,
100,
100,
100,
100,
100,
100,
100,
100,
100,
100,
100,
100,
100,
100,
100,
100,
100,
100,
100,
100,
100,
100,
100,
100,
100,
100,
100,
100,
100,
100,
100,
100,
100,
100,
100,
100,
100,
100,
100,
100,
100,
100,
100,
100,
100,
100,
100,
100,
100,
100,
100,
100,
100,
100,
100,
100,
100,
100,
100,
100,
100,
100,
100,
100,
100,
100,
100,
100,
100,
100,
100,
100,
100,
100,
100,
100,
100,
100,
100,
100,
100,
100,
100,
100,
100,
100,
100,
100,
100,
100,
100,
100,
100,
100,
100,
100,
100,
100,
100,
100,
100,
100,
100,
100,
100,
100,
100,
100,
100,
100,
100,
100,
100,
100,
100,
100,
100,
100,
100,
100,
100,
100,
100,
100,
100,
100,
100,
100,
100,
100,
100,
100,
100,
100,
100,
100,
100,
100,
100,
100,
100,
100,
100,
100,
100,
100,
100,
100,
100,
100,
100,
100,
100,
100,
100,
100,
100,
100,
100,
100,
100,
100,
100,
100,
100,
100,
100,
100,
100,
100,
100,
100,
100,
100,
100,
100,
100,
100,
100,
100,
100,
100,
100,
100,
100,
100,
100,
100,
100,
100,
100,
100,
100,
100,
100,
100,
100,
100,
100,
100,
100,
100,
100,
100,
100,
100,
100,
100,
100,
100,
100,
100,
100,
100,
100,
100,
100,
100,
100,
100,
100,
100,
100,
100,
100,
100,
100,
100,
100,
100,
100,
100,
100,
100,
100,
100,
100,
100,
100,
100,
100,
100,
100,
100,
100,
100,
100,
100,
100,
100,
100,
100,
100,
100,
100,
100,
100,
100,
100,
100,
100,
100,
100,
100,
100,
100,
100,
100,
100,
100,
100,
100,
100,
100,
100,
100,
100,
100,
100,
100,
100,
100,
100,
100,
100,
100,
100,
100,
100,
100,
100,
100,
100,
100,
100,
100,
100,
100,
100,
100,
100,
100,
100,
100,
100,
100,
100,
100,
100,
100,
100,
100,
100,
100,
100,
100,
100,
100,
100,
100,
100,
100,
100,
100,
100,
100,
100,
100,
100,
100,
100,
100,
100,
100,
100,
100,
100,
100,
100,
100,
100,
100,
100,
100,
100,
100,
100,
100,
100,
100,
100,
100,
100,
100,
100,
100,
100,
100,
100,
100,
100,
100,
100,
100,
100,
100,
100,
100,
100,
100,
100,
100,
100,
100,
100,
100,
100,
100,
100,
100,
100,
100,
100,
100,
100,
100,
100,
100,
100,
100,
100,
100,
100,
100,
100,
100,
100,
100,
100,
100,
100,
100,
100,
100,
100,
100,
100,
100,
100,
100,
100,
100,
100,
100,
100,
100,
100,
100,
100,
100,
100,
100,
100,
100,
100,
100,
100,
100,
100,
100,
100,
100,
100,
100,
100,
100,
100,
100,
100,
100,
100,
100,
100,
100,
100,
100,
100,
100,
100,
100,
100,
100,
100,
100,
100,
100,
100,
100,
100,
100,
100,
100,
100,
100,
100,
100,
100,
100,
100,
100,
100,
100,
100,
100,
100,
100,
100,
100,
100,
100,
100,
100,
100,
100,
100,
100,
100,
100,
100,
100,
100,
100,
100,
100,
100,
100,
100,
100,
100,
100,
100,
100,
100,
100,
100,
100,
100,
100,
100,
100,
100,
100,
100,
100,
100,
100,
100,
100,
100,
100,
100,
100,
100,
100,
100,
100,
100,
100,
100,
100,
100,
100,
100,
100,
100,
100,
100,
100,
100,
100,
100,
100,
100,
100,
100,
100,
100,
100,
100,
100,
100,
100,
100,
100,
100,
100,
100,
100,
100,
100,
100,
100,
100,
100,
100,
100,
100,
100,
100,
100,
100,
100,
100,
100,
100,
100,
100,
100,
100,
100,
100,
100,
100,
100,
100,
100,
100,
100,
100,
100,
100,
100,
100,
100,
100,
100,
100,
100,
100,
100,
100,
100,
100,
100,
100,
100,
100,
100,
100,
100,
100,
100,
100,
100,
100,
100,
100,
100,
100,
100,
100,
100,
100,
100,
100,
100,
100,
100,
100,
100,
100,
100,
100,
100,
100,
100,
100,
100,
100,
100,
100,
100,
100,
100,
100,
100,
100,
100,
100,
100,
100,
100,
100,
100,
100,
100,
100,
100,
100,
100,
100,
100,
100,
100,
100,
100,
100,
100,
100,
100,
100,
100,
100,
100,
100,
100,
100,
100,
100,
100,
100,
100,
100,
100,
100,
100,
100,
100,
100,
100,
100,
100,
100,
100,
100,
100,
100,
100,
100,
100,
100,
100,
100,
100,
100,
100,
100,
100,
100,
100,
100,
100,
100,
100,
100,
100,
100,
100,
100,
100,
100,
100,
100,
100,
100,
100,
100,
100,
100,
100,
100,
100,
100,
100,
100,
100,
100,
100,
100,
100,
100,
100,
100,
100,
100,
100,
100,
100,
100,
100,
100,
100,
100,
100,
100,
100,
100,
100,
100,
100,
100,
100,
100,
100,
100,
100,
100,
100,
100,
100,
100,
100,
100,
100,
100,
100,
100,
100,
100,
100,
100,
100,
100,
100,
100,
100,
100,
100,
100,
100,
100,
100,
100,
100,
100,
100,
100,
100,
100,
100,
100,
100,
100,
100,
100,
100,
100,
100,
100,
100,
100,
100,
100,
100,
100,
100,
100,
100,
100,
100,
100,
100,
100,
100,
100,
100,
100,
100,
100,
100,
100,
100,
100,
100,
100,
100,
100,
100,
100,
100,
100,
100,
100,
100,
100,
100,
100,
100,
100,
100,
100,
100,
100,
100,
100,
100,
100,
100,
100,
100,
100,
100,
100,
100,
100,
100,
100,
100,
100,
100,
100,
100,
100,
100,
100,
100,
100,
100,
100,
100,
100,
100,
100,
100,
100,
100,
100,
100,
100,
100,
100,
100,
100,
100,
100,
100,
100,
100,
100,
100,
100,
100,
100,
100,
100,
100,
100,
100,
100,
100,
100,
100,
100,
100,
100,
100,
100,
100,
100,
100,
100,
100,
100,
100,
100,
100,
100,
100,
100,
100,
100,
100,
100,
100,
100,
100,
100,
100,
100,
100,
100,
100,
100,
100,
100,
100,
100,
100,
100,
100,
100,
100,
100,
100,
100,
100,
100,
100,
100,
100,
100,
100,
100,
100,
100,
100,
100,
100,
100,
100,
100,
100,
100,
100,
100,
100,
100,
100,
100,
100,
100,
100,
100,
100,
100,
100,
100,
100,
100,
100,
100,
100,
100,
100,
100,
100,
100,
100,
100,
100,
100,
100,
100,
100,
100,
100,
100,
100,
100,
100,
100,
100,
100,
100,
100,
100,
100,
100,
100,
100,
100,
100,
100,
100,
100,
100,
100,
100,
100,
100,
100,
100,
100,
100,
101,
101,
100,
100,
100,
100,
100,
100,
100,
100,
100,
100,
101,
101,
100,
100,
100,
100,
100,
100,
100,
100,
100,
100,
100,
100,
100,
100,
100,
100,
100,
100,
100,
100,
100,
100,
100,
100,
100,
100,
101,
101,
100,
100,
101,
101,
100,
100,
100,
100,
101,
101,
101,
101,
100,
100,
100,
100,
100,
100,
101,
101,
100,
100,
102,
102,
101,
101,
100,
100,
101,
101,
100,
100,
101,
101,
101,
101,
101,
101,
101,
101,
101,
101,
101,
101,
102,
102,
102,
102,
100,
100,
100,
100,
101,
101,
100,
100,
101,
101,
100,
100,
102,
102,
101,
101,
102,
102,
101,
101,
102,
102,
103,
103,
100,
100,
102,
102,
101,
101,
101,
101,
102,
102,
102,
102,
101,
101,
104,
104,
102,
102,
101,
101,
102,
102,
101,
101,
102,
102,
103,
103,
102,
102,
103,
103,
103,
103,
103,
103,
103,
103,
103,
103,
103,
103,
102,
102,
102,
102,
102,
102,
103,
103,
103,
103,
102,
102,
103,
103,
103,
103,
103,
103,
103,
103,
102,
102,
103,
103,
103,
103,
103,
103,
104,
104,
103,
103,
103,
103,
103,
103,
104,
104,
103,
103,
104,
104,
105,
105,
104,
104,
103,
103,
103,
103,
104,
104,
104,
104,
103,
103,
104,
104,
104,
104,
104,
104,
105,
105,
103,
103,
105,
105,
104,
104,
104,
104,
104,
104,
104,
104,
104,
104,
104,
104,
105,
105,
104,
104,
104,
104,
104,
104,
105,
105,
104,
104,
104,
104,
105,
105,
105,
105,
104,
104,
105,
105,
104,
104,
105,
105,
104,
104,
105,
105,
105,
105,
105,
105,
105,
105,
105,
105,
105,
105,
105,
105,
105,
105,
105,
105,
105,
105,
105,
105,
105,
105,
105,
105,
106,
106,
106,
106,
106,
106,
104,
104,
105,
105,
107,
107,
107,
107,
106,
106,
106,
106,
106,
106,
106,
106,
106,
106,
106,
106,
106,
106,
105,
105,
107,
107,
107,
107,
107,
107,
105,
105,
105,
105,
106,
106,
106,
106,
106,
106,
107,
107,
107,
107,
107,
107,
106,
106,
109,
109,
107,
107,
106,
106,
108,
108,
107,
107,
107,
107,
108,
108,
107,
107,
107,
107,
107,
107,
108,
108,
107,
107,
108,
108,
107,
107,
108,
108,
108,
108,
108,
108,
108,
108,
108,
108,
107,
107,
109,
109,
108,
108,
108,
108,
108,
108,
108,
108,
109,
109,
108,
108,
108,
108,
108,
108,
109,
109,
108,
108,
108,
108,
109,
109,
110,
110,
109,
109,
109,
109,
108,
108,
107,
107,
109,
109,
108,
108,
109,
109,
108,
108,
109,
109,
109,
109,
109,
109,
110,
110,
109,
109,
110,
110,
108,
108,
109,
109,
109,
109,
110,
110,
110,
110,
109,
109,
109,
109,
109,
109,
109,
109,
108,
108,
110,
110,
110,
110,
110,
110,
109,
109,
110,
110,
111,
111,
109,
109,
110,
110,
110,
110,
112,
112,
111,
111,
110,
110,
110,
110,
110,
110,
110,
110,
110,
110,
112,
112,
111,
111,
111,
111,
111,
111,
110,
110,
110,
110,
111,
111,
112,
112,
112,
112,
111,
111,
111,
111,
111,
111,
112,
112,
112,
112,
112,
112,
111,
111,
112,
112,
111,
111,
112,
112,
112,
112,
111,
111,
112,
112,
111,
111,
112,
112,
112,
112,
112,
112,
112,
112,
112,
112,
113,
113,
111,
111,
112,
112,
112,
112,
112,
112,
112,
112,
112,
112,
113,
113,
112,
112,
113,
113,
112,
112,
113,
113,
113,
113,
112,
112,
112,
112,
113,
113,
112,
112,
114,
114,
112,
112,
112,
112,
113,
113,
114,
114,
113,
113,
112,
112,
113,
113,
113,
113,
113,
113,
113,
113,
114,
114,
113,
113,
114,
114,
114,
114,
113,
113,
114,
114,
113,
113,
114,
114,
114,
114,
114,
114,
114,
114,
115,
115,
115,
115,
114,
114,
115,
115,
114,
114,
115,
115,
115,
115,
114,
114,
115,
115,
115,
115,
115,
115,
114,
114,
113,
113,
115,
115,
116,
116,
115,
115,
114,
114,
115,
115,
114,
114,
114,
114,
115,
115,
114,
114,
116,
116,
116,
116,
115,
115,
115,
115,
115,
115,
116,
116,
115,
115,
116,
116,
116,
116,
115,
115,
116,
116,
117,
117,
116,
116,
115,
115,
116,
116,
116,
116,
116,
116,
115,
115,
116,
116,
116,
116,
116,
116,
116,
116,
116,
116,
116,
116,
117,
117,
117,
117,
117,
117,
117,
117,
116,
116,
116,
116,
117,
117,
117,
117,
118,
118,
116,
116,
116,
116,
117,
117,
117,
117,
115,
115,
117,
117,
117,
117,
116,
116,
117,
117,
118,
118,
117,
117,
118,
118,
118,
118,
118,
118,
117,
117,
116,
116,
117,
117,
118,
118,
119,
119,
117,
117,
119,
119,
117,
117,
117,
117,
118,
118,
119,
119,
118,
118,
117,
117,
118,
118,
119,
119,
118,
118,
118,
118,
118,
118,
119,
119,
119,
119,
119,
119,
119,
119,
119,
119,
119,
119,
118,
118,
119,
119,
119,
119,
119,
119,
119,
119,
118,
118,
119,
119,
119,
119,
121,
121,
120,
120,
119,
119,
119,
119,
120,
120,
121,
121,
118,
118,
120,
120,
119,
119,
120,
120,
120,
120,
120,
120,
120,
120,
120,
120,
120,
120,
120,
120,
121,
121,
121,
121,
121,
121,
120,
120,
120,
120,
121,
121,
120,
120,
121,
121,
120,
120,
121,
121,
122,
122,
121,
121,
120,
120,
120,
120,
121,
121,
120,
120,
121,
121,
121,
121,
122,
122,
120,
120,
122,
122,
121,
121,
121,
121,
121,
121,
121,
121,
121,
121,
122,
122,
122,
122,
122,
122,
122,
122,
121,
121,
121,
121,
122,
122,
123,
123,
121,
121,
122,
122,
122,
122,
122,
122,
122,
122,
122,
122,
122,
122,
123,
123,
123,
123,
121,
121,
123,
123,
122,
122,
122,
122,
122,
122,
122,
122,
122,
122,
122,
122,
123,
123,
122,
122,
124,
124,
122,
122,
124,
124,
123,
123,
124,
124,
124,
124,
123,
123,
124,
124,
124,
124,
124,
124,
124,
124,
124,
124,
123,
123,
123,
123,
126,
126,
124,
124,
124,
124,
124,
124,
124,
124,
126,
126,
125,
125,
124,
124,
124,
124,
124,
124,
125,
125,
124,
124,
125,
125,
124,
124,
126,
126,
124,
124,
124,
124,
123,
123,
126,
126,
125,
125,
124,
124,
124,
124,
125,
125,
125,
125,
125,
125,
126,
126,
126,
126,
126,
126,
126,
126,
125,
125,
125,
125,
125,
125,
126,
126,
126,
126,
124,
124,
126,
126,
126,
126,
126,
126,
127,
127,
126,
126,
127,
127,
126,
126,
127,
127,
127,
127,
126,
126,
126,
126,
127,
127,
125,
125,
127,
127,
127,
127,
126,
126,
127,
127,
128,
128,
126,
126,
127,
127,
127,
127,
127,
127,
127,
127,
127,
127,
125,
125,
126,
126,
128,
128,
128,
128,
128,
128,
127,
127,
126,
126,
127,
127,
126,
126,
128,
128,
128,
128,
128,
128,
127,
127,
128,
128,
128,
128,
128,
128,
128,
128,
128,
128,
128,
128,
129,
129,
129,
129,
128,
128,
129,
129,
128,
128,
128,
128,
127,
127,
129,
129,
128,
128,
129,
129,
128,
128,
129,
129,
129,
129,
130,
130,
129,
129,
130,
130,
130,
130,
129,
129,
131,
131,
130,
130,
129,
129,
129,
129,
129,
129,
128,
128,
128,
128,
129,
129,
130,
130,
130,
130,
129,
129,
130,
130,
130,
130,
129,
129,
129,
129,
129,
129,
130,
130,
130,
130,
130,
130,
130,
130,
130,
130,
129,
129,
130,
130,
130,
130,
131,
131,
131,
131,
130,
130,
131,
131,
130,
130,
132,
132,
131,
131,
131,
131,
131,
131,
131,
131,
131,
131,
131,
131,
131,
131,
132,
132,
131,
131,
130,
130,
131,
131,
131,
131,
132,
132,
132,
132,
131,
131,
133,
133,
131,
131,
132,
132,
132,
132,
132,
132,
132,
132,
133,
133,
132,
132,
132,
132,
132,
132,
132,
132,
132,
132,
132,
132,
132,
132,
131,
131,
133,
133,
133,
133,
133,
133,
134,
134,
134,
134,
132,
132,
132,
132,
132,
132,
131,
131,
132,
132,
133,
133,
133,
133,
133,
133,
132,
132,
134,
134,
134,
134,
133,
133,
134,
134,
135,
135,
133,
133,
133,
133,
133,
133,
133,
133,
134,
134,
134,
134,
134,
134,
134,
134,
133,
133,
135,
135,
134,
134,
135,
135,
134,
134,
134,
134,
134,
134,
134,
134,
135,
135,
134,
134,
134,
134,
135,
135,
134,
134,
135,
135,
134,
134,
136,
136,
134,
134,
134,
134,
133,
133,
134,
134,
134,
134,
134,
134,
136,
136,
136,
136,
136,
136,
135,
135,
135,
135,
135,
135,
136,
136,
134,
134,
136,
136,
136,
136,
134,
134,
136,
136,
135,
135,
136,
136,
136,
136,
137,
137,
136,
136,
136,
136,
135,
135,
136,
136,
137,
137,
136,
136,
136,
136,
136,
136,
136,
136,
136,
136,
136,
136,
136,
136,
137,
137,
136,
136,
136,
136,
137,
137,
136,
136,
136,
136,
137,
137,
136,
136,
137,
137,
138,
138,
136,
136,
138,
138,
138,
138,
138,
138,
138,
138,
137,
137,
137,
137,
138,
138,
137,
137,
138,
138,
138,
138,
136,
136,
137,
137,
137,
137,
138,
138,
138,
138,
138,
138,
138,
138,
138,
138,
139,
139,
137,
137,
139,
139,
138,
138,
139,
139,
139,
139,
138,
138,
138,
138,
137,
137,
138,
138,
139,
139,
139,
139,
140,
140,
139,
139,
140,
140,
139,
139,
138,
138,
138,
138,
138,
138,
140,
140,
139,
139,
140,
140,
140,
140,
141,
141,
141,
141,
139,
139,
139,
139,
138,
138,
141,
141,
141,
141,
139,
139,
141,
141,
140,
140,
139,
139,
141,
141,
140,
140,
140,
140,
141,
141,
140,
140,
140,
140,
141,
141,
141,
141,
141,
141,
142,
142,
140,
140,
143,
143,
140,
140,
141,
141,
141,
141,
141,
141,
142,
142,
142,
142,
142,
142,
140,
140,
142,
142,
141,
141,
142,
142,
141,
141,
140,
140,
143,
143,
141,
141,
142,
142,
142,
142,
142,
142,
142,
142,
142,
142,
141,
141,
142,
142,
142,
142,
142,
142,
142,
142,
142,
142,
142,
142,
142,
142,
143,
143,
142,
142,
143,
143,
142,
142,
143,
143,
141,
141,
142,
142,
143,
143,
143,
143,
144,
144,
143,
143,
143,
