6-anwendungen-opAmps/daten/ALL0038/A0038CH2.CSV

Memory Length,4000,
Trigger Level,6.18000e+02,
Source,CH2,
Probe,1.0X,
Vertical Units,V,
Vertical Scale,1.00000e-01,
Vertical Position,0.00000e+00,
Horizontal Units,S,
Horizontal Scale,5.00000e-04,
Horizontal Position,-7.0000000e-04,
Horizontal Mode,XY Mode,
Sampling Period,2.00000e-06,
Firmware,V1.14,
Time, ,
Mode,Fast,
Waveform Data,
-68,
-68,
-68,
-67,
-67,
-72,
-72,
-68,
-68,
-71,
-71,
-69,
-69,
-72,
-72,
-72,
-72,
-67,
-67,
-68,
-68,
-71,
-71,
-68,
-68,
-67,
-67,
-69,
-69,
-72,
-72,
-67,
-67,
-66,
-66,
-73,
-73,
-68,
-68,
-71,
-71,
-69,
-69,
-69,
-69,
-70,
-70,
-68,
-68,
-69,
-69,
-72,
-72,
-71,
-71,
-70,
-70,
-68,
-68,
-69,
-69,
-70,
-70,
-70,
-70,
-67,
-67,
-67,
-67,
-72,
-72,
-71,
-71,
-70,
-70,
-70,
-70,
-68,
-68,
-72,
-72,
-71,
-71,
-71,
-71,
-70,
-70,
-69,
-69,
-71,
-71,
-69,
-69,
-71,
-71,
-73,
-73,
-71,
-71,
-70,
-70,
-71,
-71,
-70,
-70,
-70,
-70,
-69,
-69,
-72,
-72,
-68,
-68,
-70,
-70,
-71,
-71,
-69,
-69,
-68,
-68,
-69,
-69,
-70,
-70,
-72,
-72,
-71,
-71,
-70,
-70,
-70,
-70,
-67,
-67,
-70,
-70,
-70,
-70,
-71,
-71,
-71,
-71,
-69,
-69,
-69,
-69,
-69,
-69,
-70,
-70,
-70,
-70,
-70,
-70,
-70,
-70,
-72,
-72,
-68,
-68,
-67,
-67,
-69,
-69,
-72,
-72,
-72,
-72,
-68,
-68,
-68,
-68,
-70,
-70,
-70,
-70,
-68,
-68,
-70,
-70,
-68,
-68,
-72,
-72,
-69,
-69,
-68,
-68,
-70,
-70,
-69,
-69,
-70,
-70,
-67,
-67,
-70,
-70,
-67,
-67,
-69,
-69,
-70,
-70,
-69,
-69,
-70,
-70,
-68,
-68,
-69,
-69,
-71,
-71,
-70,
-70,
-69,
-69,
-69,
-69,
-71,
-71,
-69,
-69,
-72,
-72,
-70,
-70,
-70,
-70,
-68,
-68,
-71,
-71,
-70,
-70,
-71,
-71,
-70,
-70,
-71,
-71,
-67,
-67,
-68,
-68,
-73,
-73,
-73,
-73,
-69,
-69,
-71,
-71,
-67,
-67,
-71,
-71,
-69,
-69,
-71,
-71,
-69,
-69,
-69,
-69,
-71,
-71,
-71,
-71,
-69,
-69,
-68,
-68,
-72,
-72,
-70,
-70,
-69,
-69,
-72,
-72,
-67,
-67,
-68,
-68,
-71,
-71,
-67,
-67,
-70,
-70,
-70,
-70,
-70,
-70,
-67,
-67,
-69,
-69,
-68,
-68,
-70,
-70,
-70,
-70,
-69,
-69,
-71,
-71,
-68,
-68,
-69,
-69,
-68,
-68,
-72,
-72,
-69,
-69,
-72,
-72,
-67,
-67,
-71,
-71,
-71,
-71,
-70,
-70,
-69,
-69,
-70,
-70,
-70,
-70,
-70,
-70,
-70,
-70,
-69,
-69,
-67,
-67,
-66,
-66,
-69,
-69,
-70,
-70,
-70,
-70,
-72,
-72,
-69,
-69,
-71,
-71,
-68,
-68,
-69,
-69,
-69,
-69,
-72,
-72,
-70,
-70,
-69,
-69,
-69,
-69,
-72,
-72,
-68,
-68,
-68,
-68,
-68,
-68,
-67,
-67,
-70,
-70,
-67,
-67,
-71,
-71,
-70,
-70,
-72,
-72,
-67,
-67,
-71,
-71,
-68,
-68,
-71,
-71,
-70,
-70,
-69,
-69,
-72,
-72,
-68,
-68,
-70,
-70,
-72,
-72,
-72,
-72,
-71,
-71,
-69,
-69,
-68,
-68,
-71,
-71,
-67,
-67,
-67,
-67,
-69,
-69,
-70,
-70,
-68,
-68,
-67,
-67,
-72,
-72,
-67,
-67,
-70,
-70,
-70,
-70,
-69,
-69,
-68,
-68,
-70,
-70,
-70,
-70,
-68,
-68,
-71,
-71,
-66,
-66,
-71,
-71,
-68,
-68,
-70,
-70,
-68,
-68,
-67,
-67,
-67,
-67,
-70,
-70,
-69,
-69,
-69,
-69,
-68,
-68,
-71,
-71,
-68,
-68,
-67,
-67,
-69,
-69,
-68,
-68,
-70,
-70,
-70,
-70,
-71,
-71,
-71,
-71,
-71,
-71,
-69,
-69,
-67,
-67,
-67,
-67,
-69,
-69,
-70,
-70,
-69,
-69,
-71,
-71,
-68,
-68,
-71,
-71,
-71,
-71,
-67,
-67,
-68,
-68,
-69,
-69,
-67,
-67,
-68,
-68,
-69,
-69,
-68,
-68,
-70,
-70,
-68,
-68,
-70,
-70,
-68,
-68,
-71,
-71,
-71,
-71,
-72,
-72,
-69,
-69,
-72,
-72,
-71,
-71,
-67,
-67,
-69,
-69,
-69,
-69,
-73,
-73,
-72,
-72,
-70,
-70,
-69,
-69,
-68,
-68,
-72,
-72,
-70,
-70,
-70,
-70,
-70,
-70,
-67,
-67,
-72,
-72,
-69,
-69,
-70,
-70,
-71,
-71,
-73,
-73,
-71,
-71,
-69,
-69,
-68,
-68,
-70,
-70,
-68,
-68,
-68,
-68,
-68,
-68,
-70,
-70,
-69,
-69,
-70,
-70,
-72,
-72,
-69,
-69,
-70,
-70,
-70,
-70,
-67,
-67,
-69,
-69,
-70,
-70,
-67,
-67,
-67,
-67,
-69,
-69,
-67,
-67,
-68,
-68,
-70,
-70,
-70,
-70,
-69,
-69,
-70,
-70,
-70,
-70,
-71,
-71,
-68,
-68,
-69,
-69,
-69,
-69,
-68,
-68,
-69,
-69,
-69,
-69,
-68,
-68,
-70,
-70,
-71,
-71,
-70,
-70,
-68,
-68,
-69,
-69,
-69,
-69,
-69,
-69,
-68,
-68,
-69,
-69,
-68,
-68,
-68,
-68,
-71,
-71,
-72,
-72,
-68,
-68,
-69,
-69,
-69,
-69,
-69,
-69,
-70,
-70,
-67,
-67,
-68,
-68,
-69,
-69,
-69,
-69,
-71,
-71,
-70,
-70,
-68,
-68,
-70,
-70,
-67,
-67,
-70,
-70,
-69,
-69,
-69,
-69,
-69,
-69,
-68,
-68,
-70,
-70,
-71,
-71,
-69,
-69,
-68,
-68,
-67,
-67,
-70,
-70,
-69,
-69,
-69,
-69,
-69,
-69,
-70,
-70,
-73,
-73,
-70,
-70,
-71,
-71,
-68,
-68,
-70,
-70,
-72,
-72,
-68,
-68,
-68,
-68,
-68,
-68,
-68,
-68,
-70,
-70,
-67,
-67,
-71,
-71,
-68,
-68,
-71,
-71,
-69,
-69,
-71,
-71,
-72,
-72,
-68,
-68,
-71,
-71,
-69,
-69,
-67,
-67,
-71,
-71,
-72,
-72,
-68,
-68,
-71,
-71,
-68,
-68,
-72,
-72,
-72,
-72,
-72,
-72,
-67,
-67,
-67,
-67,
-66,
-66,
-69,
-69,
-71,
-71,
-71,
-71,
-70,
-70,
-69,
-69,
-69,
-69,
-71,
-71,
-70,
-70,
-72,
-72,
-70,
-70,
-70,
-70,
-67,
-67,
-70,
-70,
-71,
-71,
-68,
-68,
-67,
-67,
-72,
-72,
-71,
-71,
-71,
-71,
-69,
-69,
-69,
-69,
-69,
-69,
-68,
-68,
-70,
-70,
-73,
-73,
-68,
-68,
-68,
-68,
-68,
-68,
-69,
-69,
-70,
-70,
-73,
-73,
-67,
-67,
-72,
-72,
-69,
-69,
-73,
-73,
-70,
-70,
-70,
-70,
-67,
-67,
-69,
-69,
-68,
-68,
-69,
-69,
-69,
-69,
-68,
-68,
-70,
-70,
-71,
-71,
-67,
-67,
-70,
-70,
-67,
-67,
-70,
-70,
-68,
-68,
-70,
-70,
-68,
-68,
-66,
-66,
-67,
-67,
-71,
-71,
-69,
-69,
-69,
-69,
-68,
-68,
-71,
-71,
-69,
-69,
-71,
-71,
-68,
-68,
-70,
-70,
-72,
-72,
-72,
-72,
-69,
-69,
-70,
-70,
-69,
-69,
-69,
-69,
-71,
-71,
-68,
-68,
-67,
-67,
-68,
-68,
-69,
-69,
-70,
-70,
-70,
-70,
-70,
-70,
-68,
-68,
-71,
-71,
-70,
-70,
-71,
-71,
-72,
-72,
-72,
-72,
-70,
-70,
-72,
-72,
-70,
-70,
-67,
-67,
-73,
-73,
-68,
-68,
-70,
-70,
-69,
-69,
-68,
-68,
-69,
-69,
-70,
-70,
-72,
-72,
-68,
-68,
-66,
-66,
-72,
-72,
-72,
-72,
-72,
-72,
-70,
-70,
-68,
-68,
-72,
-72,
-71,
-71,
-68,
-68,
-71,
-71,
-71,
-71,
-70,
-70,
-71,
-71,
-69,
-69,
-69,
-69,
-69,
-69,
-71,
-71,
-69,
-69,
-69,
-69,
-68,
-68,
-67,
-67,
-70,
-70,
-70,
-70,
-70,
-70,
-71,
-71,
-68,
-68,
-72,
-72,
-71,
-71,
-69,
-69,
-72,
-72,
-67,
-67,
-71,
-71,
-68,
-68,
-70,
-70,
-67,
-67,
-70,
-70,
-72,
-72,
-73,
-73,
-72,
-72,
-69,
-69,
-67,
-67,
-70,
-70,
-72,
-72,
-67,
-67,
-69,
-69,
-70,
-70,
-68,
-68,
-69,
-69,
-68,
-68,
-69,
-69,
-69,
-69,
-67,
-67,
-71,
-71,
-72,
-72,
-70,
-70,
-71,
-71,
-71,
-71,
-71,
-71,
-70,
-70,
-71,
-71,
-72,
-72,
-72,
-72,
-69,
-69,
-71,
-71,
-67,
-67,
-69,
-69,
-69,
-69,
-71,
-71,
-70,
-70,
-71,
-71,
-67,
-67,
-71,
-71,
-69,
-69,
-70,
-70,
-70,
-70,
-68,
-68,
-69,
-69,
-72,
-72,
-67,
-67,
-67,
-67,
-69,
-69,
-67,
-67,
-70,
-70,
-71,
-71,
-70,
-70,
-69,
-69,
-72,
-72,
-67,
-67,
-70,
-70,
-69,
-69,
-72,
-72,
-71,
-71,
-69,
-69,
-69,
-69,
-68,
-68,
-72,
-72,
-70,
-70,
-69,
-69,
-68,
-68,
-72,
-72,
-70,
-70,
-69,
-69,
-69,
-69,
-71,
-71,
-70,
-70,
-67,
-67,
-69,
-69,
-72,
-72,
-71,
-71,
-71,
-71,
-72,
-72,
-74,
-74,
-68,
-68,
-70,
-70,
-67,
-67,
-73,
-73,
-70,
-70,
-68,
-68,
-67,
-67,
-67,
-67,
-67,
-67,
-73,
-73,
-68,
-68,
-69,
-69,
-71,
-71,
-71,
-71,
-67,
-67,
-71,
-71,
-68,
-68,
-72,
-72,
-70,
-70,
-71,
-71,
-69,
-69,
-70,
-70,
-69,
-69,
-69,
-69,
-70,
-70,
-70,
-70,
-70,
-70,
-69,
-69,
-71,
-71,
-68,
-68,
-71,
-71,
-68,
-68,
-72,
-72,
-68,
-68,
-69,
-69,
-68,
-68,
-73,
-73,
-70,
-70,
-70,
-70,
-72,
-72,
-67,
-67,
-68,
-68,
-67,
-67,
-67,
-67,
-69,
-69,
-68,
-68,
-68,
-68,
-69,
-69,
-70,
-70,
-67,
-67,
-69,
-69,
-69,
-69,
-68,
-68,
-70,
-70,
-69,
-69,
-68,
-68,
-67,
-67,
-72,
-72,
-70,
-70,
-67,
-67,
-69,
-69,
-69,
-69,
-71,
-71,
-69,
-69,
-71,
-71,
-68,
-68,
-70,
-70,
-73,
-73,
-70,
-70,
-69,
-69,
-72,
-72,
-71,
-71,
-69,
-69,
-71,
-71,
-70,
-70,
-73,
-73,
-72,
-72,
-69,
-69,
-70,
-70,
-71,
-71,
-68,
-68,
-71,
-71,
-68,
-68,
-71,
-71,
-69,
-69,
-70,
-70,
-70,
-70,
-71,
-71,
-71,
-71,
-72,
-72,
-68,
-68,
-69,
-69,
-71,
-71,
-70,
-70,
-69,
-69,
-73,
-73,
-69,
-69,
-72,
-72,
-68,
-68,
-68,
-68,
-67,
-67,
-69,
-69,
-67,
-67,
-70,
-70,
-70,
-70,
-68,
-68,
-70,
-70,
-68,
-68,
-69,
-69,
-72,
-72,
-67,
-67,
-68,
-68,
-67,
-67,
-69,
-69,
-68,
-68,
-69,
-69,
-73,
-73,
-68,
-68,
-66,
-66,
-69,
-69,
-69,
-69,
-73,
-73,
-71,
-71,
-73,
-73,
-69,
-69,
-72,
-72,
-69,
-69,
-68,
-68,
-68,
-68,
-69,
-69,
-69,
-69,
-71,
-71,
-69,
-69,
-72,
-72,
-68,
-68,
-72,
-72,
-72,
-72,
-67,
-67,
-71,
-71,
-68,
-68,
-69,
-69,
-69,
-69,
-68,
-68,
-68,
-68,
-71,
-71,
-70,
-70,
-69,
-69,
-70,
-70,
-67,
-67,
-68,
-68,
-70,
-70,
-68,
-68,
-69,
-69,
-68,
-68,
-71,
-71,
-70,
-70,
-72,
-72,
-68,
-68,
-70,
-70,
-68,
-68,
-70,
-70,
-69,
-69,
-70,
-70,
-71,
-71,
-67,
-67,
-69,
-69,
-70,
-70,
-68,
-68,
-71,
-71,
-67,
-67,
-68,
-68,
-70,
-70,
-67,
-67,
-72,
-72,
-70,
-70,
-72,
-72,
-71,
-71,
-71,
-71,
-67,
-67,
-71,
-71,
-69,
-69,
-70,
-70,
-69,
-69,
-69,
-69,
-69,
-69,
-72,
-72,
-69,
-69,
-70,
-70,
-67,
-67,
-69,
-69,
-69,
-69,
-67,
-67,
-68,
-68,
-70,
-70,
-69,
-69,
-71,
-71,
-69,
-69,
-68,
-68,
-70,
-70,
-67,
-67,
-71,
-71,
-69,
-69,
-67,
-67,
-70,
-70,
-68,
-68,
-70,
-70,
-69,
-69,
-71,
-71,
-70,
-70,
-69,
-69,
-71,
-71,
-70,
-70,
-71,
-71,
-68,
-68,
-69,
-69,
-68,
-68,
-67,
-67,
-68,
-68,
-72,
-72,
-70,
-70,
-71,
-71,
-72,
-72,
-73,
-73,
-71,
-71,
-69,
-69,
-73,
-73,
-72,
-72,
-71,
-71,
-70,
-70,
-69,
-69,
-68,
-68,
-67,
-67,
-69,
-69,
-70,
-70,
-68,
-68,
-71,
-71,
-70,
-70,
-71,
-71,
-67,
-67,
-68,
-68,
-72,
-72,
-71,
-71,
-69,
-69,
-70,
-70,
-69,
-69,
-68,
-68,
-70,
-70,
-70,
-70,
-70,
-70,
-72,
-72,
-69,
-69,
-68,
-68,
-69,
-69,
-68,
-68,
-67,
-67,
-72,
-72,
-66,
-66,
-70,
-70,
-72,
-72,
-69,
-69,
-68,
-68,
-67,
-67,
-71,
-71,
-71,
-71,
-69,
-69,
-73,
-73,
-69,
-69,
-67,
-67,
-69,
-69,
-71,
-71,
-70,
-70,
-70,
-70,
-68,
-68,
-72,
-72,
-70,
-70,
-70,
-70,
-69,
-69,
-72,
-72,
-71,
-71,
-71,
-71,
-72,
-72,
-70,
-70,
-70,
-70,
-66,
-66,
-72,
-72,
-69,
-69,
-71,
-71,
-71,
-71,
-67,
-67,
-70,
-70,
-69,
-69,
-71,
-71,
-72,
-72,
-66,
-66,
-70,
-70,
-71,
-71,
-72,
-72,
-72,
-72,
-71,
-71,
-68,
-68,
-70,
-70,
-68,
-68,
-71,
-71,
-71,
-71,
-70,
-70,
-71,
-71,
-68,
-68,
-68,
-68,
-71,
-71,
-68,
-68,
-73,
-73,
-72,
-72,
-69,
-69,
-71,
-71,
-68,
-68,
-70,
-70,
-68,
-68,
-67,
-67,
-69,
-69,
-68,
-68,
-71,
-71,
-68,
-68,
-70,
-70,
-67,
-67,
-72,
-72,
-70,
-70,
-70,
-70,
-71,
-71,
-69,
-69,
-71,
-71,
-69,
-69,
-67,
-67,
-72,
-72,
-68,
-68,
-73,
-73,
-69,
-69,
-71,
-71,
-70,
-70,
-70,
-70,
-66,
-66,
-72,
-72,
-69,
-69,
-70,
-70,
-68,
-68,
-70,
-70,
-71,
-71,
-68,
-68,
-72,
-72,
-70,
-70,
-71,
-71,
-70,
-70,
-73,
-73,
-68,
-68,
-70,
-70,
-74,
-74,
-71,
-71,
-71,
-71,
-68,
-68,
-68,
-68,
-68,
-68,
-70,
-70,
-67,
-67,
-71,
-71,
-69,
-69,
-69,
-69,
-73,
-73,
-69,
-69,
-69,
-69,
-70,
-70,
-70,
-70,
-73,
-73,
-69,
-69,
-70,
-70,
-71,
-71,
-70,
-70,
-71,
-71,
-71,
-71,
-70,
-70,
-72,
-72,
-68,
-68,
-69,
-69,
-70,
-70,
-71,
-71,
-68,
-68,
-69,
-69,
-69,
-69,
-70,
-70,
-69,
-69,
-72,
-72,
-69,
-69,
-69,
-69,
-69,
-69,
-71,
-71,
-68,
-80,
-68,
-68,
-69,
-69,
-69,
-69,
-70,
-70,
-71,
-71,
-68,
-68,
-72,
-72,
-71,
-71,
-70,
-70,
-70,
-70,
-73,
-60,
-71,
-71,
-69,
-69,
-67,
-67,
-69,
-69,
-70,
-70,
-71,
-71,
-68,
-68,
-71,
-71,
-71,
-71,
-72,
-72,
-71,
-71,
-73,
-61,
-70,
-70,
-70,
-70,
-72,
-72,
-72,
-72,
-69,
-69,
-71,
-71,
-68,
-68,
-68,
-68,
-68,
-68,
-71,
-71,
-70,
-70,
-68,
-68,
-73,
-73,
-70,
-70,
-71,
-71,
-68,
-68,
-68,
-68,
-69,
-69,
-71,
-71,
-72,
-72,
-68,
-68,
-71,
-71,
-71,
-71,
-70,
-70,
-71,
-71,
-67,
-67,
-68,
-68,
-68,
-68,
-68,
-68,
-71,
-71,
-72,
-72,
-67,
-67,
-69,
-69,
-71,
-71,
-69,
-69,
-68,
-68,
-67,
-67,
-69,
-69,
-69,
-69,
-71,
-71,
-73,
-73,
-69,
-69,
-68,
-68,
-69,
-69,
-69,
-69,
-68,
-68,
-69,
-69,
-70,
-70,
-68,
-68,
-72,
-72,
-69,
-69,
-68,
-68,
-72,
-72,
-68,
-68,
-68,
-68,
-68,
-68,
-69,
-69,
-68,
-68,
-71,
-71,
-70,
-70,
-72,
-72,
-71,
-71,
-69,
-69,
-72,
-72,
-71,
-71,
-71,
-71,
-70,
-70,
-68,
-68,
-72,
-72,
-71,
-71,
-70,
-70,
-70,
-70,
-71,
-71,
-71,
-71,
-73,
-73,
-72,
-72,
-68,
-68,
-68,
-68,
-70,
-70,
-70,
-70,
-72,
-72,
-68,
-68,
-71,
-71,
-72,
-72,
-70,
-70,
-68,
-68,
-69,
-69,
-70,
-70,
-68,
-68,
-70,
-70,
-67,
-67,
-68,
-68,
-68,
-68,
-72,
-72,
-67,
-67,
-69,
-69,
-72,
-72,
-72,
-72,
-68,
-68,
-70,
-70,
-71,
-71,
-71,
-71,
-71,
-71,
-70,
-70,
-71,
-71,
-72,
-72,
-72,
-72,
-70,
-70,
-68,
-68,
-69,
-69,
-69,
-69,
-69,
-69,
-68,
-68,
-70,
-70,
-71,
-71,
-70,
-70,
-72,
-72,
-68,
-68,
-70,
-70,
-67,
-67,
-69,
-69,
-69,
-69,
-72,
-72,
-68,
-68,
-69,
-69,
-72,
-72,
-67,
-67,
-71,
-71,
-69,
-69,
-70,
-70,
-71,
-71,
-68,
-68,
-70,
-70,
-70,
-70,
-71,
-71,
-69,
-69,
-70,
-70,
-69,
-69,
-68,
-68,
-69,
-69,
-71,
-71,
-70,
-70,
-70,
-70,
-68,
-68,
-68,
-68,
-69,
-69,
-72,
-72,
-68,
-68,
-71,
-71,
-70,
-70,
-67,
-67,
-72,
-72,
-70,
-70,
-68,
-68,
-72,
-72,
-72,
-72,
-72,
-72,
-73,
-73,
-69,
-69,
-72,
-72,
-72,
-72,
-72,
-72,
-70,
-70,
-71,
-71,
-71,
-71,
-68,
-68,
-70,
-70,
-70,
-70,
-72,
-72,
-69,
-69,
-69,
-69,
-70,
-70,
-69,
-69,
-71,
-71,
-69,
-69,
-70,
-70,
-69,
-69,
-70,
-70,
-70,
-70,
-70,
-70,
-69,
-69,
-68,
-68,
-68,
-68,
-72,
-72,
-72,
-72,
-70,
-70,
-67,
-67,
-71,
-71,
-66,
-66,
-71,
-71,
-68,
-68,
-71,
-71,
-72,
-72,
-71,
-71,
-69,
-69,
-70,
-70,
-70,
-70,
-72,
-72,
-72,
-72,
-66,
-66,
-72,
-72,
-71,
-71,
-69,
-69,
-71,
-71,
-72,
-72,
-70,
-70,
-70,
-70,
-71,
-71,
-71,
-71,
-70,
-70,
-69,
-69,
-68,
-68,
-69,
-69,
-69,
-69,
-71,
-71,
-69,
-69,
-71,
-71,
-68,
-68,
-73,
-73,
-68,
-68,
-67,
-67,
-70,
-70,
-70,
-70,
-69,
-69,
-66,
-66,
-70,
-70,
-71,
-71,
-70,
-70,
-71,
-71,
-70,
-70,
-71,
-71,
-68,
-68,
-69,
-69,
-72,
-72,
-70,
-70,
-72,
-72,
-71,
-71,
-67,
-67,
-69,
-69,
-69,
-69,
-72,
-72,
-68,
-68,
-68,
-68,
-71,
-71,
-68,
-68,
-68,
-68,
-71,
-71,
-70,
-70,
-73,
-73,
-68,
-68,
-71,
-71,
-67,
-67,
-71,
-71,
-69,
-69,
-69,
-69,
-72,
-72,
-66,
-79,
-69,
-69,
-70,
-70,
-69,
-69,
-68,
-68,
-69,
-69,
-69,
-69,
-73,
-73,
-67,
-67,
-70,
-70,
-69,
-69,
-69,
-69,
-70,
-70,
-68,
-68,
-70,
-70,
-72,
-72,
-69,
-69,
-70,
-70,
-67,
-67,
-72,
-72,
-72,
-72,
-71,
-71,
-67,
-67,
-71,
-71,
-70,
-70,
-69,
-69,
-69,
-69,
-68,
-68,
-68,
-68,
-68,
-68,
-68,
-68,
-67,
-67,
-69,
-69,
-70,
-70,
-71,
-71,
-70,
-70,
-69,
-69,
-67,
-67,
-68,
-68,
-68,
-68,
-67,
-67,
-69,
-69,
-70,
-70,
-70,
-70,
-69,
-69,
-68,
-68,
-68,
-68,
-69,
-69,
-69,
-69,
-71,
-71,
-67,
-67,
-71,
-71,
-68,
-68,
-70,
-70,
-72,
-72,
-67,
-67,
-68,
-68,
-68,
-68,
-70,
-70,
-71,
-71,
-71,
-71,
-71,
-71,
-68,
-68,
-68,
-68,
-68,
-68,
-69,
-69,
-69,
-69,
-69,
-69,
-68,
-68,
-69,
-69,
-73,
-73,
-71,
-71,
-70,
-70,
-68,
-68,
-67,
-67,
-69,
-69,
-70,
-70,
-73,
-73,
-72,
-72,
-68,
-68,
-72,
-72,
-70,
-70,
-72,
-72,
-69,
-69,
-71,
-71,
-71,
-71,
-73,
-73,
-67,
-67,
-72,
-72,
-69,
-69,
-70,
-70,
-72,
-72,
-68,
-68,
-70,
-70,
-68,
-68,
-73,
-73,
-69,
-69,
-70,
-70,
-67,
-67,
-71,
-71,
-68,
-68,
-71,
-71,
-69,
-69,
-71,
-71,
-69,
-69,
-67,
-67,
-72,
-72,
-67,
-67,
-70,
-70,
-69,
-69,
-69,
-69,
-71,
-71,
-68,
-68,
-69,
-69,
-72,
-72,
-72,
-72,
-67,
-67,
-70,
-70,
-68,
-68,
-68,
-68,
-69,
-69,
-69,
-69,
-71,
-71,
-71,
-71,
-70,
-70,
-69,
-69,
-69,
-69,
-68,
-68,
-71,
-71,
-69,
-69,
-70,
-70,
-70,
-70,
-69,
-69,
-69,
-69,
-69,
-69,
-70,
-70,
-67,
-67,
-69,
-69,
-69,
-69,
-70,
-70,
-68,
-68,
-68,
-68,
-71,
-71,
-72,
-72,
-72,
-72,
-67,
-67,
-72,
-72,
-69,
-69,
-71,
-71,
-68,
-68,
-73,
-73,
-68,
-68,
-69,
-69,
-72,
-72,
-71,
-71,
-72,
-72,
-72,
-72,
-67,
-67,
-71,
-71,
-70,
-70,
-69,
-69,
-70,
-70,
-72,
-72,
-70,
-70,
-72,
-72,
-71,
-71,
-71,
-71,
-71,
-71,
-72,
-72,
-67,
-67,
-72,
-72,
-69,
-69,
-69,
-69,
-72,
-72,
-67,
-67,
-71,
-71,
-69,
-69,
-71,
-71,
-68,
-68,
-69,
-69,
-70,
-70,
-67,
-67,
-70,
-70,
-72,
-72,
-69,
-69,
-69,
-69,
-71,
-71,
-69,
-69,
-70,
-70,
-69,
-69,
-72,
-72,
-68,
-68,
-70,
-70,
-70,
-70,
-70,
-70,
-68,
-68,
-68,
-68,
-69,
-69,
-68,
-68,
-70,
-70,
-70,
-70,
-68,
-68,
-71,
-71,
-72,
-72,
-72,
-72,
-72,
-72,
-69,
-69,
-67,
-67,
-71,
-71,
-69,
-69,
-70,
-70,
-68,
-68,
-68,
-68,
-67,
-67,
-67,
-67,
-67,
-67,
-70,
-70,
-68,
-68,
-71,
-71,
-69,
-69,
-68,
-68,
-69,
-69,
-71,
-71,
-72,
-72,
-68,
-68,
-71,
-71,
-70,
-70,
-68,
-68,
-69,
-69,
-72,
-72,
-68,
-68,
-68,
-68,
-72,
-72,
-71,
-71,
-68,
-68,
-70,
-70,
-67,
-67,
-70,
-70,
-69,
-69,
-72,
-72,
-72,
-72,
-71,
-71,
-68,
-68,
-68,
-68,
-72,
-72,
-71,
-71,
-71,
-71,
-70,
-70,
-70,
-70,
-70,
-70,
-68,
-68,
-73,
-73,
-67,
-67,
-70,
-70,
-68,
-68,
-68,
-68,
-68,
-68,
-70,
-70,
-70,
-70,
-68,
-68,
-71,
-71,
-70,
-70,
-73,
-73,
-69,
-69,
-72,
-72,
-71,
-71,
-68,
-68,
-70,
-70,
-73,
-73,
-71,
-71,
-71,
-71,
-71,
-71,
-73,
-73,
-71,
-71,
-71,
-71,
-72,
-72,
-72,
-72,
-71,
-71,
-67,
-67,
-70,
-70,
-69,
-69,
-69,
-69,
-69,
-69,
-71,
-71,
-71,
-71,
-70,
-70,
-67,
-67,
-70,
-70,
-70,
-70,
-69,
-69,
-71,
-71,
-67,
-67,
-68,
-68,
-68,
-68,
-69,
-69,
-72,
-72,
-72,
-72,
-72,
-72,
-72,
-72,
-71,
-71,
-72,
-72,
-70,
-70,
-72,
-72,
-68,
-68,
-71,
-71,
-73,
-73,
-69,
-69,
-74,
-74,
-73,
-73,
-72,
-72,
-68,
-68,
-71,
-71,
-70,
-70,
-71,
-71,
-70,
-70,
-71,
-71,
-67,
-67,
-68,
-68,
-67,
-67,
-69,
-69,
-72,
-72,
-69,
-69,
-70,
-70,
-72,
-72,
-69,
-69,
-71,
-71,
-69,
-69,
-69,
-69,
-71,
-71,
-70,
-70,
-72,
-72,
-72,
-72,
-68,
-68,
-69,
-69,
-69,
-69,
-69,
-69,
-68,
-68,
-70,
-70,
-68,
-68,
-69,
-69,
-68,
-68,
-69,
-69,
-72,
-72,
-69,
-69,
-73,
-73,
-71,
-71,
-72,
-72,
-67,
-67,
-73,
-73,
-71,
-71,
-68,
-68,
-69,
-69,
-71,
-71,
-69,
-69,
-69,
-69,
-71,
-71,
-69,
-69,
-70,
-70,
-73,
-73,
-70,
-70,
-71,
-71,
-68,
-68,
-71,
-71,
-69,
-69,
-70,
-70,
-70,
-70,
-69,
-69,
-69,
-69,
-70,
-70,
-71,
-71,
-72,
-72,
-70,
-70,
-70,
-70,
-70,
-70,
-73,
-73,
-72,
-72,
-69,
-69,
-72,
-72,
-71,
-71,
-68,
-68,
-73,
-73,
-69,
-69,
-68,
-68,
-74,
-74,
-72,
-72,
-68,
-68,
-72,
-72,
-69,
-69,
-72,
-72,
-69,
-69,
-70,
-70,
-68,
-68,
-69,
-69,
-69,
-69,
-67,
-67,
-71,
-71,
-68,
-68,
-71,
-71,
-72,
-72,
-70,
-70,
-70,
-70,
-66,
-77,
-70,
-70,
-70,
-70,
-68,
-68,
-72,
-72,
-69,
-69,
-70,
-70,
-68,
-68,
-69,
-69,
-70,
-70,
-70,
-70,
-70,
-70,
-71,
-71,
-70,
-70,
-70,
-70,
-69,
-69,
-70,
-70,
-71,
-71,
-69,
-69,
-71,
-71,
-70,
-70,
-72,
-72,
-70,
-70,
-69,
-69,
-73,
-73,
-68,
-68,
-72,
-72,
-69,
-69,
-73,
-73,
-70,
-70,
-69,
-69,
-71,
-71,
-69,
-69,
-69,
-69,
-69,
-69,
-69,
-69,
-71,
-71,
-69,
-69,
-69,
-69,
-72,
-72,
-69,
-69,
-71,
-71,
-71,
-71,
-70,
-70,
-71,
-71,
-73,
-73,
-70,
-70,
-70,
-70,
-67,
-67,
-68,
-68,
-69,
-69,
-69,
-69,
-68,
-68,
-70,
-70,
-71,
-71,
-67,
-67,
-74,
-74,
-71,
-71,
-72,
-72,
-70,
-70,
-69,
-69,
-73,
-73,
-69,
-69,
-71,
-71,
-72,
-72,
-72,
-72,
-71,
-71,
-68,
-68,
-70,
-70,
-69,
-69,
-69,
-69,
-71,
-71,
-68,
-68,
-70,
-70,
-72,
-72,
-70,
-70,
-70,
-70,
-72,
-72,
-72,
-72,
-69,
-69,
-72,
-72,
-70,
-70,
-73,
-73,
-69,
-69,
-69,
-69,
-69,
-69,
-69,
-69,
-69,
-69,
-70,
-70,
-71,
-71,
-67,
-67,
-69,
-69,
-68,
-68,
-71,
-71,
-72,
-72,
-69,
-69,
-68,
-68,
-69,
-69,
-72,
-72,
-71,
-71,
-69,
-69,
-72,
-72,
-70,
-70,
-70,
-70,
-71,
-71,
-73,
-73,
-71,
-71,
-72,
-72,
-68,
-68,
-70,
-70,
-69,
-69,
-70,
-70,
-69,
-69,
-67,
-67,
-72,
-72,
-68,
-68,
-68,
-68,
-71,
-71,
-68,
-68,
-72,
-72,
-70,
-70,
-70,
-70,
-69,
-69,
-71,
-71,
-73,
-73,
-72,
-72,
-72,
-72,
-71,
-71,
-67,
-67,
-69,
-69,
-68,
-68,
-72,
-72,
-70,
-70,
-71,
-71,
-68,
-68,
-70,
-70,
-68,
-68,
-69,
-69,
-70,
-70,
-72,
-72,
-72,
-72,
-68,
-68,
-68,
-68,
-68,
-68,
-70,
-70,
-67,
-67,
-69,
-69,
-70,
-70,
-69,
-69,
-70,
-70,
-70,
-70,
-69,
-69,
-68,
-68,
-72,
-72,
-72,
-72,
-70,
-70,
-71,
-71,
-72,
-72,
-68,
-68,
-71,
-71,
-70,
-70,
-71,
-71,
-72,
-72,
-73,
-73,
-69,
-69,
-70,
-70,
-70,
-70,
-69,
-69,
-67,
-67,
-69,
-69,
-68,
-68,
-71,
-71,
-71,
-71,
-71,
-71,
-71,
-71,
-70,
-70,
-69,
-69,
-69,
-69,
-68,
-68,
-72,
-72,
-71,
-71,
-73,
-73,
-69,
-69,
-69,
-69,
-72,
-72,
-73,
-73,
-70,
-70,
-69,
-69,
-71,
-71,
-70,
-70,
-73,
-73,
-71,
-71,
-73,
-73,
-71,
-71,
-70,
-70,
-72,
-72,
-67,
-67,
-72,
-72,
-67,
-67,
-72,
-72,
-69,
-69,
-69,
-69,
-71,
-71,
-69,
-69,
-69,
-69,
-73,
-73,
-69,
-69,
-71,
-71,
-73,
-73,
-71,
-71,
-69,
-69,
-71,
-71,
-68,
-68,
-70,
-70,
-70,
-70,
-69,
-69,
-71,
-71,
-67,
-67,
-71,
-71,
-69,
-69,
-69,
-69,
-69,
-69,
-68,
-68,
-72,
-72,
-71,
-71,
-69,
-69,
-70,
-70,
-69,
-69,
-68,
-68,
-69,
-69,
-69,
-69,
-71,
-71,
-72,
-72,
-68,
-68,
-71,
-71,
-73,
-73,
-71,
-71,
-68,
-68,
-72,
-72,
-69,
-69,
-71,
-71,
-71,
-71,
-73,
-73,
-74,
-74,
-71,
-71,
-71,
-71,
-71,
-71,
-70,
-70,
-69,
-69,
-71,
-71,
-71,
-71,
-71,
-71,
-71,
-71,
-69,
-69,
-71,
-71,
-69,
-69,
-73,
-73,
-72,
-72,
-68,
-68,
-71,
-71,
-73,
-73,
-69,
-69,
-72,
-72,
-69,
-69,
-71,
-71,
-70,
-70,
-70,
-70,
-69,
-69,
-68,
-68,
-69,
-69,
-71,
-71,
-71,
-71,
-69,
-69,
-72,
-72,
-72,
-72,
-69,
-69,
-69,
-69,
-72,
-72,
-71,
-71,
-69,
-69,
-72,
