5-grundlagen-opAmps/data/ALL0006/A0006CH1.CSV

Memory Length,4000,
Trigger Level,0.00000e+00,
Source,CH1,
Probe,1.0X,
Vertical Units,V,
Vertical Scale,5.00000e-02,
Vertical Position,0.00000e+00,
Horizontal Units,S,
Horizontal Scale,1.00000e-07,
Horizontal Position,1.0000000e-07,
Horizontal Mode,Main,
Sampling Period,2.00000e-09,
Firmware,V1.14,
Time, ,
Mode,Fast,
Waveform Data,
1,
1,
0,
4,
3,
-3,
-8,
-7,
-2,
-3,
-7,
-13,
-12,
-9,
-9,
-12,
-17,
-19,
-16,
-13,
-16,
-21,
-25,
-23,
-18,
-19,
-24,
-30,
-28,
-24,
-24,
-28,
-31,
-31,
-31,
-28,
-27,
-28,
-32,
-34,
-31,
-27,
-27,
-29,
-32,
-35,
-31,
-25,
-24,
-30,
-34,
-30,
-24,
-21,
-25,
-31,
-28,
-21,
-18,
-19,
-24,
-23,
-19,
-13,
-11,
-17,
-20,
-16,
-10,
-6,
-11,
-12,
-10,
-6,
-3,
-4,
-4,
-3,
0,
3,
1,
2,
4,
5,
8,
5,
7,
10,
13,
14,
9,
11,
13,
17,
18,
17,
16,
15,
18,
19,
20,
18,
16,
19,
22,
21,
19,
16,
19,
20,
23,
23,
17,
17,
17,
21,
23,
18,
14,
12,
17,
19,
18,
13,
8,
8,
13,
16,
14,
5,
2,
5,
10,
10,
2,
-4,
-3,
1,
5,
0,
-7,
-12,
-8,
-2,
-2,
-11,
-19,
-16,
-11,
-6,
-13,
-24,
-25,
-19,
-14,
-11,
-24,
-29,
-27,
-21,
-17,
-25,
-31,
-31,
-27,
-23,
-27,
-30,
-32,
-30,
-29,
-28,
-29,
-33,
-32,
-32,
-28,
-28,
-30,
-32,
-30,
-27,
-27,
-27,
-28,
-28,
-28,
-28,
-23,
-22,
-24,
-22,
-23,
-19,
-19,
-20,
-18,
-16,
-15,
-14,
-15,
-13,
-11,
-8,
-8,
-11,
-9,
-4,
1,
-3,
-8,
-4,
3,
6,
5,
0,
1,
4,
9,
12,
7,
4,
7,
16,
17,
11,
7,
12,
19,
21,
18,
12,
13,
19,
22,
23,
19,
15,
17,
20,
22,
21,
18,
17,
18,
20,
22,
22,
19,
14,
16,
19,
21,
17,
11,
13,
15,
17,
16,
10,
5,
9,
12,
12,
5,
1,
1,
5,
7,
2,
-5,
-5,
-1,
0,
-4,
-8,
-9,
-8,
-8,
-9,
-12,
-14,
-14,
-12,
-16,
-19,
-19,
-18,
-16,
-21,
-26,
-24,
-23,
-21,
-25,
-31,
-29,
-25,
-24,
-28,
-32,
-31,
-29,
-26,
-27,
-31,
-34,
-32,
-27,
-26,
-30,
-34,
-32,
-30,
-26,
-26,
-28,
-30,
-32,
-27,
-23,
-21,
-26,
-29,
-25,
-19,
-16,
-19,
-24,
-23,
-18,
-10,
-9,
-17,
-20,
-15,
-5,
-2,
-7,
-12,
-12,
-2,
3,
3,
-4,
-7,
-2,
7,
11,
3,
-3,
1,
10,
15,
13,
8,
6,
10,
16,
18,
14,
12,
14,
17,
21,
19,
17,
16,
20,
20,
22,
20,
17,
20,
20,
22,
21,
18,
17,
19,
21,
19,
18,
16,
16,
17,
18,
17,
15,
13,
14,
13,
12,
10,
9,
9,
9,
7,
4,
4,
4,
5,
2,
-1,
-3,
-1,
-1,
-1,
-5,
-11,
-11,
-8,
-4,
-10,
-18,
-19,
-15,
-11,
-13,
-21,
-25,
-22,
-17,
-15,
-20,
-28,
-28,
-24,
-19,
-23,
-32,
-35,
-29,
-23,
-24,
-32,
-36,
-31,
-27,
-25,
-28,
-34,
-35,
-32,
-26,
-26,
-30,
-32,
-32,
-28,
-26,
-26,
-27,
-28,
-27,
-25,
-19,
-22,
-26,
-26,
-19,
-16,
-15,
-19,
-22,
-19,
-13,
-9,
-11,
-16,
-15,
-9,
-4,
-4,
-7,
-7,
-3,
1,
1,
0,
0,
1,
3,
7,
5,
6,
8,
11,
11,
7,
10,
16,
17,
15,
10,
13,
18,
21,
19,
15,
15,
20,
24,
21,
17,
15,
18,
24,
23,
18,
16,
18,
22,
25,
19,
16,
15,
17,
19,
20,
17,
12,
11,
15,
16,
16,
10,
7,
6,
9,
12,
11,
3,
-1,
0,
6,
8,
0,
-7,
-8,
-2,
1,
-3,
-11,
-15,
-11,
-6,
-7,
-14,
-21,
-20,
-12,
-11,
-18,
-25,
-25,
-19,
-17,
-20,
-27,
-29,
-27,
-25,
-25,
-26,
-29,
-31,
-29,
-28,
-28,
-29,
-32,
-30,
-29,
-31,
-31,
-29,
-29,
-29,
-29,
-29,
-29,
-29,
-30,
-26,
-26,
-27,
-27,
-27,
-23,
-24,
-24,
-20,
-22,
-21,
-20,
-19,
-18,
-18,
-14,
-11,
-13,
-15,
-13,
-8,
-3,
-5,
-8,
-8,
-4,
0,
3,
1,
-3,
-2,
5,
11,
7,
3,
3,
9,
14,
14,
11,
8,
10,
17,
19,
18,
11,
10,
19,
24,
21,
16,
12,
17,
25,
24,
21,
16,
14,
19,
24,
23,
17,
14,
16,
20,
22,
20,
16,
13,
15,
18,
17,
15,
10,
10,
12,
15,
11,
6,
7,
5,
7,
6,
4,
0,
-2,
0,
3,
1,
-4,
-10,
-8,
-5,
-6,
-9,
-11,
-12,
-14,
-14,
-14,
-15,
-16,
-18,
-19,
-20,
-22,
-22,
-23,
-24,
-26,
-27,
-27,
-23,
-26,
-30,
-33,
-28,
-25,
-27,
-31,
-34,
-30,
-26,
-27,
-30,
-35,
-35,
-28,
-24,
-29,
-34,
-35,
-29,
-22,
-24,
-29,
-31,
-28,
-23,
-21,
-19,
-25,
-27,
-22,
-18,
-15,
-16,
-20,
-19,
-15,
-11,
-8,
-11,
-12,
-13,
-6,
0,
-3,
-8,
-8,
-2,
5,
6,
0,
-3,
1,
8,
14,
9,
3,
4,
11,
19,
15,
9,
10,
13,
18,
18,
14,
14,
17,
20,
23,
17,
16,
18,
21,
21,
19,
17,
20,
22,
21,
18,
17,
18,
20,
19,
19,
15,
17,
16,
16,
16,
13,
13,
12,
13,
12,
9,
7,
7,
7,
6,
6,
4,
0,
-1,
3,
3,
-1,
-6,
-9,
-5,
-1,
-3,
-12,
-16,
-15,
-10,
-8,
-14,
-21,
-23,
-16,
-13,
-16,
-25,
-29,
-24,
-17,
-19,
-27,
-31,
-30,
-24,
-21,
-26,
-31,
-35,
-32,
-24,
-26,
-31,
-36,
-35,
-30,
-26,
-28,
-31,
-35,
-32,
-28,
-24,
-27,
-32,
-30,
-28,
-23,
-24,
-27,
-27,
-26,
-22,
-20,
-19,
-22,
-23,
-16,
-13,
-13,
-16,
-17,
-13,
-9,
-8,
-8,
-10,
-9,
-6,
-3,
0,
-2,
-2,
-1,
1,
3,
4,
5,
6,
6,
6,
8,
10,
12,
11,
12,
12,
13,
16,
19,
18,
14,
15,
19,
21,
20,
16,
16,
20,
25,
23,
19,
16,
17,
23,
25,
21,
14,
14,
18,
24,
21,
15,
12,
14,
18,
19,
16,
9,
7,
10,
15,
15,
7,
3,
4,
6,
8,
5,
2,
-2,
-2,
1,
0,
-3,
-8,
-11,
-6,
-5,
-7,
-13,
-17,
-15,
-11,
-10,
-15,
-22,
-22,
-18,
-13,
-16,
-25,
-29,
-27,
-20,
-21,
-28,
-31,
-29,
-26,
-26,
-29,
-31,
-30,
-28,
-29,
-30,
-34,
-32,
-28,
-27,
-30,
-34,
-32,
-27,
-26,
-29,
-32,
-29,
-25,
-25,
-27,
-28,
-26,
-22,
-20,
-20,
-23,
-24,
-21,
-14,
-14,
-17,
-16,
-16,
-11,
-9,
-8,
-9,
-11,
-10,
-5,
0,
-1,
-5,
-5,
-2,
6,
8,
4,
0,
0,
6,
16,
13,
5,
2,
11,
19,
17,
11,
7,
12,
22,
25,
17,
9,
10,
19,
28,
22,
15,
12,
17,
25,
26,
20,
16,
17,
20,
24,
21,
18,
15,
16,
19,
19,
17,
15,
14,
13,
15,
14,
12,
9,
6,
7,
11,
11,
3,
0,
3,
4,
5,
0,
-4,
-4,
-3,
-1,
-5,
-8,
-11,
-11,
-9,
-9,
-15,
-17,
-15,
-15,
-18,
-19,
-20,
-18,
-19,
-22,
-25,
-26,
-21,
-24,
-28,
-29,
-30,
-26,
-25,
-27,
-30,
-33,
-31,
-27,
-28,
-32,
-34,
-31,
-27,
-27,
-30,
-34,
-31,
-28,
-25,
-24,
-31,
-32,
-29,
-24,
-20,
-24,
-28,
-27,
-22,
-18,
-16,
-19,
-23,
-20,
-13,
-12,
-13,
-17,
-15,
-11,
-7,
-6,
-8,
-9,
-6,
-2,
0,
0,
-1,
-3,
3,
6,
5,
5,
4,
6,
9,
11,
12,
9,
10,
10,
16,
17,
13,
13,
15,
18,
19,
19,
18,
17,
19,
20,
19,
19,
18,
21,
22,
20,
18,
18,
23,
22,
17,
15,
16,
20,
20,
17,
14,
13,
17,
16,
13,
10,
7,
11,
13,
11,
5,
1,
4,
5,
6,
2,
-3,
-3,
-3,
0,
0,
-6,
-10,
-13,
-8,
-5,
-8,
-14,
-20,
-16,
-13,
-12,
-15,
-26,
-26,
-22,
-13,
-15,
-26,
-32,
-30,
-20,
-18,
-26,
-35,
-35,
-26,
-21,
-26,
-33,
-38,
-33,
-25,
-23,
-31,
-38,
-35,
-27,
-23,
-27,
-33,
-33,
-29,
-25,
-27,
-27,
-29,
-28,
-25,
-23,
-23,
-23,
-22,
-21,
-19,
-18,
-16,
-16,
-17,
-16,
-14,
-10,
-10,
-13,
-12,
-7,
-3,
-4,
-5,
-5,
-3,
0,
3,
2,
0,
2,
5,
8,
7,
6,
9,
11,
11,
9,
12,
15,
17,
15,
12,
14,
18,
22,
21,
15,
13,
17,
23,
23,
18,
14,
17,
23,
25,
18,
15,
15,
21,
24,
19,
15,
13,
16,
22,
20,
15,
9,
10,
14,
16,
14,
11,
5,
6,
8,
11,
8,
2,
-1,
1,
3,
1,
-2,
-6,
-6,
-4,
-3,
-6,
-11,
-14,
-12,
-10,
-10,
-16,
-19,
-20,
-15,
-16,
-19,
-19,
-24,
-21,
-21,
-25,
-24,
-28,
-27,
-27,
-27,
-27,
-29,
-28,
-29,
-30,
-31,
-30,
-28,
-28,
-32,
-34,
-31,
-28,
-28,
-29,
-31,
-31,
-28,
-26,
-26,
-28,
-32,
-28,
-20,
-21,
-24,
-27,
-24,
-20,
-16,
-17,
-20,
-20,
-18,
-9,
-10,
-13,
-16,
-15,
-7,
-3,
-4,
-8,
-11,
-6,
0,
4,
3,
-4,
-2,
3,
9,
10,
6,
4,
5,
11,
15,
14,
10,
8,
12,
19,
22,
14,
9,
14,
21,
25,
22,
13,
12,
19,
26,
27,
19,
13,
16,
24,
27,
21,
14,
13,
19,
25,
22,
17,
12,
15,
18,
16,
15,
11,
11,
13,
13,
10,
6,
7,
8,
6,
4,
3,
3,
0,
-1,
-3,
0,
-2,
-6,
-8,
-8,
-8,
-8,
-9,
-12,
-15,
-15,
-14,
-14,
-18,
-20,
-18,
-19,
-21,
-23,
-25,
-23,
-22,
-27,
-29,
-26,
-23,
-26,
-30,
-32,
-29,
-26,
-27,
-30,
-35,
-34,
-28,
-23,
-29,
-36,
-35,
-28,
-22,
-26,
-32,
-34,
-27,
-22,
-25,
-28,
-31,
-27,
-20,
-17,
-20,
-26,
-25,
-18,
-16,
-15,
-16,
-17,
-15,
-14,
-10,
-9,
-9,
-12,
-8,
-5,
-3,
-3,
-5,
-4,
-1,
2,
5,
4,
1,
2,
8,
12,
10,
6,
6,
11,
15,
15,
13,
11,
14,
18,
18,
16,
17,
16,
21,
20,
18,
18,
19,
22,
18,
17,
19,
22,
22,
19,
17,
16,
20,
22,
20,
15,
13,
16,
18,
19,
13,
8,
11,
15,
15,
11,
6,
4,
6,
8,
8,
3,
-2,
-2,
4,
5,
0,
-7,
-9,
-6,
-3,
-3,
-9,
-15,
-18,
-13,
-9,
-10,
-19,
-24,
-20,
-16,
-15,
-20,
-27,
-27,
-21,
-17,
-21,
-29,
-32,
-30,
-24,
-21,
-28,
-34,
-34,
-29,
-23,
-26,
-34,
-36,
-31,
-27,
-26,
-29,
-35,
-34,
-28,
-24,
-27,
-31,
-34,
-27,
-23,
-24,
-25,
-28,
-23,
-21,
-20,
-19,
-22,
-20,
-16,
-15,
-16,
-17,
-16,
-11,
-9,
-10,
-9,
-9,
-5,
-4,
-4,
-3,
-2,
-1,
0,
1,
1,
2,
6,
9,
7,
6,
7,
9,
12,
13,
15,
12,
11,
14,
18,
21,
17,
14,
15,
16,
24,
22,
17,
17,
18,
23,
25,
21,
14,
15,
22,
25,
21,
14,
12,
17,
25,
23,
14,
9,
12,
18,
19,
16,
7,
5,
11,
15,
12,
5,
3,
4,
7,
6,
3,
-1,
-3,
-2,
-2,
-2,
-4,
-8,
-9,
-9,
-9,
-10,
-11,
-14,
-17,
-15,
-13,
-16,
-21,
-24,
-20,
-17,
-19,
-22,
-29,
-27,
-23,
-24,
-26,
-30,
-30,
-29,
-28,
-28,
-30,
-32,
-31,
-29,
-31,
-32,
-30,
-28,
-29,
-34,
-34,
-29,
-24,
-26,
-32,
-32,
-27,
-22,
-22,
-27,
-29,
-27,
-19,
-17,
-21,
-26,
-27,
-15,
-11,
-14,
-19,
-20,
-12,
-8,
-5,
-9,
-13,
-11,
-6,
1,
-1,
-5,
-6,
-3,
5,
7,
6,
2,
0,
4,
11,
15,
9,
5,
8,
15,
18,
16,
12,
10,
14,
21,
21,
17,
12,
14,
24,
25,
21,
14,
13,
20,
26,
24,
17,
14,
15,
21,
24,
20,
14,
15,
18,
20,
17,
13,
13,
15,
15,
13,
11,
8,
9,
9,
10,
8,
4,
3,
5,
4,
1,
-1,
-1,
-3,
-3,
-5,
-7,
-6,
-7,
-8,
-10,
-13,
-15,
-14,
-13,
-14,
-18,
-20,
-18,
-17,
-18,
-22,
-27,
-26,
-22,
-22,
-25,
-28,
-31,
-32,
-27,
-24,
-26,
-32,
-35,
-29,
-26,
-26,
-32,
-35,
-33,
-29,
-26,
-29,
-34,
-35,
-28,
-23,
-23,
-30,
-35,
-29,
-20,
-19,
-24,
-28,
-27,
-21,
-14,
-15,
-21,
-25,
-20,
-12,
-10,
-14,
-16,
-15,
-9,
-6,
-5,
-6,
-8,
-6,
-1,
0,
1,
-2,
0,
3,
4,
6,
7,
6,
7,
8,
12,
12,
13,
9,
11,
16,
17,
17,
15,
15,
17,
19,
20,
19,
18,
18,
19,
20,
19,
18,
20,
20,
19,
17,
21,
22,
18,
15,
15,
16,
20,
18,
15,
11,
13,
16,
17,
13,
6,
6,
11,
15,
8,
1,
-2,
4,
9,
5,
-2,
-7,
-4,
0,
3,
-3,
-11,
-14,
-9,
-5,
-8,
-14,
-19,
-16,
-15,
-14,
-16,
-20,
-22,
-23,
-19,
-17,
-21,
-26,
-28,
-28,
-21,
-24,
-28,
-33,
-32,
-27,
-25,
-27,
-35,
-36,
-31,
-23,
-27,
-34,
-36,
-33,
-25,
-24,
-32,
-32,
-31,
-26,
-24,
-27,
-29,
-28,
-25,
-20,
-23,
-25,
-25,
-17,
-17,
-20,
-20,
-17,
-14,
-13,
-13,
-14,
-14,
-9,
-8,
-5,
-9,
-8,
-4,
-1,
0,
-2,
-2,
1,
3,
5,
4,
5,
5,
7,
12,
12,
9,
9,
11,
14,
18,
16,
14,
11,
14,
19,
22,
19,
13,
14,
18,
25,
22,
18,
15,
17,
25,
26,
21,
16,
13,
19,
26,
20,
13,
10,
16,
21,
20,
14,
6,
8,
14,
18,
14,
5,
3,
4,
11,
11,
5,
-1,
-2,
2,
3,
1,
-5,
-7,
-7,
-4,
-4,
-8,
-13,
-13,
-12,
-11,
-13,
-18,
-19,
-18,
-18,
-18,
-21,
-20,
-23,
-23,
-22,
-24,
-26,
-27,
-29,
-28,
-26,
-27,
-29,
-30,
-30,
-32,
-28,
-28,
-29,
-31,
-34,
-30,
-30,
-29,
-29,
-28,
-30,
-31,
-28,
-26,
-25,
-29,
-32,
-27,
-22,
-21,
-24,
-25,
-23,
-18,
-15,
-16,
-21,
-21,
-15,
-7,
-10,
-15,
-16,
-13,
-3,
0,
-4,
-8,
-9,
-2,
5,
4,
0,
-3,
1,
8,
9,
6,
4,
6,
10,
14,
15,
11,
10,
11,
16,
19,
17,
15,
15,
17,
19,
21,
19,
16,
18,
19,
23,
24,
17,
15,
17,
23,
25,
19,
17,
15,
19,
23,
18,
14,
13,
16,
18,
16,
11,
10,
14,
13,
10,
5,
5,
9,
9,
6,
-1,
0,
2,
4,
0,
-6,
-7,
-5,
-3,
-4,
-11,
-14,
-11,
-6,
-9,
-16,
-19,
-17,
-14,
-14,
-19,
-23,
-25,
-24,
-19,
-20,
-25,
-29,
-29,
-27,
-23,
-25,
-28,
-32,
-34,
-28,
-26,
-27,
-34,
-37,
-32,
-26,
-23,
-31,
-36,
-35,
-26,
-22,
-28,
-33,
-34,
-26,
-20,
-20,
-28,
-33,
-28,
-17,
-16,
-20,
-27,
-25,
-17,
-13,
-13,
-16,
-18,
-15,
-10,
-8,
-10,
-11,
-11,
-5,
-3,
-3,
-2,
-4,
-2,
0,
4,
5,
3,
2,
4,
11,
11,
9,
8,
8,
12,
14,
16,
13,
12,
14,
17,
20,
18,
17,
17,
17,
20,
19,
20,
21,
19,
18,
19,
20,
20,
20,
19,
16,
17,
18,
21,
21,
13,
12,
16,
18,
17,
11,
9,
9,
13,
14,
11,
5,
3,
6,
11,
8,
1,
-5,
-1,
4,
3,
-3,
-10,
-9,
-6,
-3,
-6,
-12,
-18,
-15,
-10,
-9,
-17,
-21,
-20,
-18,
-16,
-19,
-27,
-27,
-23,
-21,
-21,
-27,
-29,
-29,
-27,
-26,
-27,
-31,
-33,
-32,
-28,
-27,
-29,
-31,
-31,
-32,
-28,
-27,
-28,
-33,
-32,
-28,
-25,
-27,
-29,
-29,
-27,
-24,
-25,
-26,
-25,
-23,
-19,
-19,
-22,
-21,
-16,
-12,
-15,
-19,
-18,
-12,
-7,
-8,
-13,
-13,
-8,
-2,
0,
-4,
-7,
-3,
5,
7,
1,
-2,
3,
9,
13,
8,
4,
3,
12,
18,
16,
11,
7,
13,
19,
22,
18,
12,
13,
17,
21,
22,
18,
16,
15,
19,
24,
23,
18,
14,
17,
24,
26,
20,
13,
12,
18,
24,
21,
12,
8,
11,
20,
21,
11,
3,
5,
12,
16,
10,
2,
-2,
4,
8,
6,
0,
-6,
-4,
0,
-1,
-4,
-9,
-9,
-8,
-8,
-12,
-13,
-14,
-15,
-15,
-16,
-16,
-18,
-21,
-20,
-22,
-20,
-22,
-25,
-26,
-27,
-26,
-25,
-25,
-29,
-32,
-29,
-28,
-28,
-30,
-32,
-30,
-30,
-31,
-31,
-29,
-28,
-30,
-33,
-32,
-28,
-25,
-27,
-29,
-31,
-29,
-24,
-23,
-25,
-28,
-26,
-18,
-17,
-20,
-25,
-24,
-16,
-12,
-13,
-16,
-18,
-14,
-6,
-5,
-9,
-14,
-10,
-2,
2,
0,
-5,
-3,
1,
5,
8,
6,
1,
3,
8,
13,
11,
8,
9,
11,
14,
16,
15,
15,
14,
16,
22,
18,
18,
16,
17,
21,
20,
19,
16,
18,
20,
22,
21,
20,
17,
17,
20,
20,
19,
18,
17,
17,
15,
16,
16,
14,
12,
11,
11,
11,
11,
8,
9,
6,
3,
3,
5,
5,
1,
-3,
-3,
0,
1,
-3,
-9,
-11,
-9,
-7,
-7,
-13,
-19,
-16,
-11,
-11,
-18,
-24,
-24,
-19,
-15,
-18,
-28,
-30,
-25,
-21,
-20,
-26,
-32,
-34,
-28,
-23,
-26,
-31,
-35,
-32,
-26,
-26,
-28,
-34,
-34,
-32,
-28,
-25,
-30,
-35,
-33,
-26,
-20,
-25,
-32,
-32,
-26,
-19,
-18,
-24,
-29,
-26,
-17,
-11,
-16,
-23,
-24,
-15,
-8,
-9,
-15,
-17,
-11,
-5,
-4,
-6,
-10,
-8,
0,
1,
0,
-2,
0,
4,
5,
3,
4,
8,
10,
10,
10,
9,
11,
14,
13,
14,
13,
16,
19,
18,
17,
16,
19,
21,
21,
18,
17,
19,
20,
21,
20,
19,
18,
18,
20,
20,
20,
19,
16,
15,
15,
19,
18,
15,
10,
9,
15,
17,
11,
6,
4,
10,
12,
8,
1,
-2,
2,
7,
7,
-2,
-9,
-7,
-2,
2,
-6,
-13,
-14,
-11,
-7,
-10,
-16,
-19,
-18,
-14,
-15,
-16,
-22,
-23,
-20,
-20,
-22,
-26,
-27,
-28,
-26,
-26,
-28,
-29,
-31,
-30,
-29,
-27,
-28,
-33,
-33,
-30,
-29,
-28,
-32,
-32,
-30,
-29,
-28,
-28,
-29,
-31,
-28,
-29,
-24,
-26,
-27,
-21,
-25,
-25,
-22,
-19,
-17,
-19,
-21,
-18,
-14,
-13,
-12,
-14,
-15,
-12,
-5,
-4,
-7,
-10,
-7,
-1,
2,
0,
-4,
-2,
3,
8,
9,
4,
2,
3,
12,
15,
12,
8,
7,
13,
19,
19,
14,
12,
12,
19,
24,
21,
13,
12,
18,
25,
25,
19,
16,
16,
21,
25,
23,
18,
14,
18,
23,
22,
17,
11,
13,
17,
20,
17,
12,
8,
10,
15,
16,
12,
3,
2,
7,
11,
8,
1,
-3,
-1,
3,
2,
-4,
-7,
-8,
-5,
-4,
-7,
-13,
-14,
-11,
-11,
-15,
-19,
-19,
-16,
-17,
-18,
-21,
-26,
-21,
-22,
-23,
-25,
-26,
-25,
-26,
-27,
-29,
-32,
-28,
-28,
-29,
-34,
-33,
-29,
-27,
-29,
-33,
-31,
-31,
-29,
-28,
-29,
-30,
-32,
-31,
-27,
-25,
-26,
-28,
-28,
-26,
-23,
-20,
-20,
-23,
-24,
-20,
-13,
-13,
-19,
-22,
-14,
-8,
-8,
-10,
-16,
-11,
-4,
0,
-2,
-11,
-10,
0,
5,
5,
-2,
-4,
3,
9,
11,
7,
5,
6,
11,
15,
14,
11,
10,
15,
17,
17,
16,
16,
19,
18,
18,
19,
19,
19,
17,
17,
21,
21,
20,
18,
17,
19,
21,
22,
17,
15,
17,
18,
19,
15,
13,
14,
13,
12,
11,
12,
11,
10,
6,
5,
7,
8,
6,
3,
-1,
0,
3,
3,
-2,
-9,
-9,
-4,
-1,
-7,
-15,
-15,
-10,
-7,
-11,
-18,
-20,
-17,
-13,
-11,
-20,
-27,
-27,
-22,
-15,
-22,
-29,
-33,
-29,
-21,
-23,
-28,
-33,
-34,
-28,
-27,
-26,
-31,
-35,
-34,
-28,
-25,
-31,
-35,
-34,
-30,
-24,
-26,
-29,
-31,
-31,
-25,
-20,
-23,
-29,
-29,
-23,
-18,
-17,
-25,
-24,
-21,
-16,
-12,
-14,
-18,
-18,
-11,
-9,
-8,
-9,
-12,
-8,
-4,
-3,
-4,
-3,
-1,
1,
3,
4,
1,
4,
7,
9,
9,
7,
9,
12,
14,
13,
12,
14,
16,
17,
16,
15,
15,
18,
22,
19,
17,
16,
18,
24,
24,
18,
16,
17,
20,
24,
21,
17,
15,
17,
23,
21,
17,
11,
12,
16,
17,
15,
11,
8,
9,
12,
13,
10,
3,
1,
5,
8,
6,
0,
-5,
-4,
1,
2,
-3,
-9,
-12,
-8,
-3,
-4,
-15,
-20,
-16,
-9,
-11,
-17,
-24,
-25,
-18,
-16,
-17,
-27,
-25,
-25,
-25,
-24,
-28,
-29,
-28,
-28,
-27,
-31,
-30,
-30,
-30,
-32,
-30,
-29,
-28,
-30,
-32,
-29,
-28,
-28,
-29,
-31,
-30,
-27,
-26,
-26,
-28,
-29,
-27,
-21,
-21,
-23,
-24,
-24,
-20,
-19,
-17,
-14,
-15,
-16,
-17,
-12,
-10,
-9,
-9,
-10,
-9,
-5,
0,
0,
-6,
-6,
1,
8,
5,
0,
-1,
3,
12,
14,
7,
3,
7,
15,
21,
17,
7,
6,
16,
23,
22,
15,
11,
16,
21,
24,
22,
17,
15,
19,
23,
22,
19,
16,
18,
20,
23,
22,
17,
15,
15,
18,
21,
16,
11,
10,
14,
17,
14,
8,
5,
8,
12,
12,
7,
0,
1,
4,
7,
4,
-3,
-5,
-3,
0,
-3,
-9,
-10,
-8,
-8,
-10,
-14,
-15,
-14,
-14,
-14,
-20,
-21,
-19,
-18,
-17,
-25,
-26,
-25,
-23,
-22,
-27,
-29,
-28,
-26,
-26,
-30,
-32,
-32,
-30,
-27,
-28,
-32,
-35,
-32,
-27,
-26,
-29,
-34,
-33,
-29,
-26,
-24,
-27,
-31,
-32,
-25,
-19,
-22,
-26,
-28,
-23,
-17,
-16,
-20,
-23,
-21,
-15,
-10,
-11,
-15,
-18,
-10,
-4,
-2,
-8,
-13,
-9,
-2,
2,
2,
-4,
-4,
0,
9,
11,
5,
1,
3,
10,
13,
11,
9,
8,
13,
17,
18,
15,
13,
15,
18,
21,
18,
16,
16,
20,
21,
20,
19,
19,
19,
19,
20,
21,
20,
19,
19,
17,
18,
20,
19,
17,
12,
14,
16,
17,
14,
9,
9,
10,
11,
11,
7,
5,
3,
4,
5,
4,
1,
-2,
-3,
-3,
-1,
-3,
-6,
-8,
-11,
-10,
-7,
-9,
-15,
-19,
-18,
-12,
-14,
-20,
-24,
-24,
-18,
-16,
-22,
-28,
-29,
-26,
-20,
-20,
-29,
-35,
-32,
-24,
-22,
-28,
-35,
-33,
-29,
-27,
-28,
-31,
-34,
-32,
-29,
-29,
-30,
-31,
-31,
-28,
-26,
-26,
-27,
-28,
-27,
-24,
-21,
-20,
-23,
-25,
-21,
-17,
-15,
-17,
-20,
-17,
-13,
-10,
-9,
-12,
-12,
-10,
-5,
-3,
-6,
-6,
-2,
1,
0,
-2,
-1,
4,
8,
6,
3,
4,
10,
14,
13,
9,
7,
10,
17,
18,
13,
10,
15,
21,
22,
17,
13,
16,
21,
24,
21,
17,
14,
19,
24,
24,
18,
14,
16,
21,
23,
22,
16,
14,
13,
18,
21,
17,
11,
8,
12,
15,
15,
9,
4,
4,
9,
11,
9,
-1,
-4,
0,
7,
5,
-4,
-10,
-9,
-1,
0,
-6,
-15,
-16,
-11,
-7,
-9,
-16,
-21,
-19,
-13,
-14,
-19,
-25,
-27,
-22,
-19,
-22,
-27,
-28,
-28,
-26,
-27,
-27,
-30,
-30,
-29,
-28,
-27,
-30,
-32,
-30,
-29,
-29,
-32,
-31,
-31,
-30,
-29,
-28,
-28,
-28,
-29,
-27,
-27,
-24,
-22,
-24,
-24,
-25,
-24,
-17,
-17,
-18,
-20,
-19,
-15,
-13,
-11,
-12,
-15,
-14,
-8,
-4,
-5,
-6,
-8,
-4,
-1,
2,
3,
-1,
0,
5,
8,
9,
4,
2,
6,
14,
17,
12,
8,
10,
15,
19,
20,
13,
10,
14,
23,
25,
18,
13,
14,
22,
25,
22,
18,
16,
20,
23,
22,
19,
17,
18,
19,
20,
16,
15,
17,
17,
17,
16,
15,
11,
11,
10,
12,
12,
8,
5,
6,
4,
5,
4,
3,
0,
-2,
-1,
0,
-3,
-7,
-7,
-8,
-7,
-10,
-13,
-13,
-11,
-14,
-18,
-19,
-17,
-16,
-17,
-20,
-26,
-22,
-19,
-20,
-24,
-30,
-30,
-24,
-20,
-28,
-35,
-35,
-26,
-23,
-29,
-36,
-36,
-29,
-23,
-28,
-32,
-38,
-34,
-26,
-24,
-29,
-34,
-34,
-26,
-22,
-23,
-28,
-31,
-26,
-22,
-20,
-19,
-23,
-24,
-21,
-15,
-14,
-16,
-19,
-19,
-12,
-8,
-8,
-10,
-13,
-10,
-2,
1,
-4,
-9,
-6,
1,
10,
6,
-1,
-1,
3,
10,
14,
9,
4,
5,
13,
17,
14,
10,
13,
17,
19,
18,
14,
16,
18,
18,
20,
19,
18,
18,
20,
21,
20,
19,
21,
20,
18,
18,
20,
19,
18,
17,
17,
17,
17,
16,
14,
12,
12,
13,
12,
12,
9,
6,
6,
6,
7,
7,
4,
1,
-1,
0,
4,
0,
-4,
-8,
-8,
-3,
-6,
-10,
-14,
-17,
-11,
-10,
-13,
-17,
-22,
-20,
-13,
-15,
-22,
-28,
-27,
-20,
-19,
-22,
-32,
-33,
-27,
-23,
-24,
-29,
-34,
-34,
-29,
-25,
-28,
-33,
-35,
-31,
-26,
-27,
-30,
-32,
-31,
-28,
-27,
-27,
-30,
-30,
-27,
-25,
-24,
-26,
-26,
-21,
-21,
-20,
-22,
-19,
-19,
-19,
-16,
-15,
-13,
-14,
-14,
-11,
-11,
-9,
-7,
-5,
-6,
-6,
-3,
-1,
1,
1,
1,
3,
1,
4,
7,
9,
9,
6,
6,
12,
15,
14,
12,
11,
13,
19,
21,
16,
13,
14,
22,
25,
20,
14,
13,
21,
28,
25,
16,
12,
17,
24,
27,
19,
11,
11,
20,
26,
20,
11,
10,
15,
19,
18,
12,
6,
7,
12,
14,
11,
4,
1,
3,
