5-grundlagen-opAmps/data/ALL0006/A0006CH2.CSV

Memory Length,4000,
Trigger Level,0.00000e+00,
Source,CH2,
Probe,1.0X,
Vertical Units,V,
Vertical Scale,5.00000e-02,
Vertical Position,0.00000e+00,
Horizontal Units,S,
Horizontal Scale,1.00000e-07,
Horizontal Position,1.0000000e-07,
Horizontal Mode,Main,
Sampling Period,2.00000e-09,
Firmware,V1.14,
Time, ,
Mode,Fast,
Waveform Data,
20,
20,
22,
23,
23,
24,
24,
27,
28,
26,
24,
27,
29,
32,
32,
28,
28,
32,
33,
32,
30,
27,
27,
30,
32,
27,
26,
26,
28,
28,
28,
25,
25,
25,
27,
26,
25,
19,
16,
17,
17,
18,
14,
12,
10,
10,
12,
10,
7,
2,
2,
5,
6,
1,
-4,
-7,
-4,
-3,
-6,
-11,
-13,
-13,
-12,
-13,
-15,
-20,
-18,
-18,
-18,
-20,
-23,
-25,
-23,
-22,
-24,
-26,
-29,
-28,
-28,
-31,
-32,
-29,
-28,
-31,
-32,
-30,
-28,
-27,
-27,
-30,
-32,
-31,
-27,
-26,
-30,
-33,
-30,
-27,
-24,
-25,
-25,
-25,
-22,
-20,
-18,
-19,
-18,
-19,
-15,
-13,
-11,
-12,
-13,
-11,
-8,
-4,
-3,
-3,
-5,
-3,
3,
7,
7,
2,
4,
9,
13,
13,
10,
8,
12,
18,
21,
18,
15,
17,
24,
27,
25,
23,
21,
25,
32,
30,
28,
24,
25,
31,
33,
32,
27,
27,
30,
33,
34,
29,
28,
27,
28,
30,
30,
25,
24,
26,
28,
27,
23,
21,
20,
24,
24,
21,
18,
16,
17,
16,
15,
11,
7,
7,
8,
7,
6,
1,
0,
2,
1,
-2,
-3,
-5,
-6,
-7,
-7,
-11,
-14,
-13,
-13,
-15,
-18,
-20,
-19,
-19,
-20,
-25,
-25,
-21,
-22,
-23,
-29,
-30,
-28,
-29,
-27,
-29,
-33,
-34,
-31,
-29,
-29,
-33,
-35,
-32,
-28,
-27,
-29,
-30,
-31,
-29,
-24,
-25,
-29,
-31,
-29,
-24,
-22,
-22,
-24,
-22,
-20,
-16,
-14,
-14,
-15,
-16,
-10,
-6,
-6,
-7,
-9,
-6,
-3,
-1,
0,
-1,
0,
4,
7,
8,
8,
8,
11,
14,
16,
15,
15,
16,
18,
20,
22,
20,
21,
25,
26,
25,
25,
27,
28,
31,
29,
30,
31,
31,
31,
30,
31,
32,
32,
30,
30,
28,
27,
31,
32,
29,
26,
27,
29,
31,
27,
24,
20,
23,
24,
20,
18,
16,
15,
18,
18,
16,
12,
9,
10,
12,
11,
6,
4,
1,
2,
2,
1,
-3,
-8,
-9,
-4,
-4,
-8,
-14,
-16,
-14,
-11,
-12,
-17,
-23,
-23,
-19,
-16,
-21,
-28,
-32,
-26,
-21,
-23,
-31,
-33,
-31,
-27,
-25,
-29,
-35,
-35,
-31,
-30,
-29,
-33,
-34,
-33,
-29,
-28,
-32,
-30,
-28,
-26,
-25,
-24,
-25,
-25,
-23,
-22,
-21,
-20,
-21,
-21,
-19,
-16,
-13,
-13,
-10,
-12,
-8,
-6,
-5,
-5,
-4,
0,
1,
1,
-1,
1,
3,
6,
7,
8,
8,
11,
14,
15,
16,
16,
19,
21,
20,
19,
19,
25,
27,
26,
25,
22,
25,
31,
31,
30,
27,
26,
32,
35,
34,
28,
27,
29,
33,
33,
28,
26,
26,
28,
29,
30,
26,
24,
25,
27,
28,
25,
19,
20,
22,
21,
19,
16,
11,
12,
15,
14,
11,
5,
4,
7,
9,
9,
2,
-1,
-2,
0,
-1,
-4,
-9,
-12,
-11,
-8,
-10,
-15,
-19,
-16,
-16,
-16,
-20,
-21,
-22,
-22,
-23,
-24,
-26,
-26,
-27,
-29,
-27,
-29,
-31,
-30,
-30,
-31,
-31,
-29,
-29,
-28,
-31,
-31,
-28,
-27,
-27,
-31,
-32,
-30,
-27,
-25,
-28,
-29,
-30,
-23,
-21,
-20,
-22,
-22,
-19,
-15,
-13,
-13,
-16,
-16,
-13,
-8,
-8,
-8,
-10,
-6,
-2,
2,
0,
-1,
1,
4,
9,
11,
11,
8,
8,
12,
16,
17,
13,
14,
17,
22,
25,
24,
20,
21,
27,
31,
29,
26,
25,
27,
32,
34,
29,
28,
27,
32,
34,
31,
28,
28,
31,
35,
33,
27,
27,
27,
28,
28,
27,
27,
26,
26,
25,
24,
23,
21,
19,
19,
18,
17,
15,
15,
12,
10,
11,
9,
7,
5,
3,
3,
2,
1,
-2,
-2,
-2,
-4,
-9,
-7,
-9,
-11,
-13,
-16,
-16,
-16,
-17,
-17,
-21,
-22,
-23,
-18,
-20,
-26,
-27,
-29,
-23,
-23,
-31,
-34,
-32,
-28,
-27,
-30,
-36,
-35,
-31,
-27,
-27,
-31,
-34,
-32,
-27,
-25,
-31,
-30,
-29,
-27,
-23,
-24,
-26,
-27,
-25,
-22,
-19,
-17,
-19,
-17,
-16,
-12,
-10,
-10,
-10,
-11,
-8,
-4,
-3,
-4,
-5,
-3,
1,
5,
5,
3,
4,
8,
13,
14,
13,
12,
14,
17,
19,
18,
17,
18,
20,
22,
25,
25,
25,
26,
27,
28,
29,
28,
31,
31,
31,
31,
31,
32,
33,
28,
28,
31,
32,
29,
28,
29,
29,
32,
31,
29,
26,
24,
27,
27,
24,
19,
16,
19,
23,
19,
15,
13,
12,
14,
15,
11,
8,
5,
5,
7,
6,
3,
-3,
-5,
-3,
-3,
-5,
-8,
-12,
-12,
-9,
-9,
-13,
-18,
-20,
-17,
-15,
-17,
-22,
-26,
-25,
-22,
-22,
-25,
-29,
-30,
-30,
-24,
-25,
-30,
-34,
-32,
-28,
-28,
-32,
-33,
-35,
-30,
-27,
-30,
-32,
-31,
-31,
-26,
-25,
-26,
-26,
-25,
-22,
-22,
-25,
-22,
-22,
-20,
-19,
-19,
-17,
-16,
-14,
-12,
-12,
-11,
-7,
-6,
-4,
-5,
-5,
-3,
1,
2,
1,
2,
2,
5,
11,
11,
11,
11,
12,
15,
18,
18,
17,
18,
19,
23,
25,
25,
24,
21,
25,
30,
31,
27,
25,
27,
32,
34,
31,
28,
28,
32,
35,
35,
27,
24,
28,
32,
32,
27,
24,
24,
27,
32,
28,
25,
23,
23,
28,
26,
20,
16,
15,
17,
18,
15,
11,
10,
8,
10,
11,
7,
4,
2,
1,
3,
3,
-2,
-7,
-8,
-6,
-5,
-7,
-12,
-14,
-15,
-13,
-13,
-18,
-20,
-21,
-18,
-17,
-20,
-25,
-25,
-24,
-23,
-26,
-30,
-30,
-29,
-31,
-30,
-30,
-30,
-30,
-30,
-30,
-29,
-28,
-27,
-28,
-30,
-35,
-29,
-25,
-26,
-29,
-31,
-29,
-25,
-23,
-23,
-25,
-23,
-20,
-16,
-16,
-18,
-19,
-16,
-10,
-10,
-12,
-12,
-10,
-8,
-5,
-2,
-1,
-3,
-1,
3,
5,
7,
5,
6,
8,
13,
15,
14,
13,
12,
15,
20,
22,
18,
17,
20,
24,
26,
26,
24,
24,
27,
31,
31,
28,
26,
29,
31,
32,
32,
28,
29,
32,
34,
31,
31,
28,
30,
31,
31,
26,
25,
27,
27,
28,
25,
24,
25,
23,
22,
20,
19,
19,
17,
16,
14,
11,
10,
9,
9,
6,
4,
3,
4,
4,
1,
-2,
-3,
-3,
-3,
-7,
-7,
-12,
-13,
-12,
-12,
-14,
-19,
-21,
-19,
-18,
-17,
-23,
-25,
-26,
-25,
-21,
-25,
-29,
-31,
-31,
-27,
-26,
-31,
-37,
-35,
-30,
-26,
-31,
-34,
-37,
-30,
-24,
-24,
-29,
-32,
-33,
-26,
-22,
-26,
-32,
-31,
-25,
-21,
-21,
-25,
-25,
-21,
-16,
-13,
-13,
-16,
-15,
-10,
-6,
-7,
-9,
-9,
-6,
-5,
-2,
0,
1,
1,
2,
7,
10,
11,
9,
10,
13,
16,
17,
17,
16,
16,
19,
23,
23,
20,
23,
27,
27,
27,
28,
27,
30,
29,
31,
30,
29,
32,
32,
32,
29,
28,
31,
32,
32,
28,
29,
31,
32,
31,
27,
28,
29,
31,
26,
21,
20,
22,
23,
21,
18,
13,
15,
19,
18,
12,
9,
9,
11,
12,
9,
3,
0,
1,
1,
1,
-2,
-5,
-7,
-6,
-7,
-8,
-11,
-13,
-15,
-15,
-13,
-14,
-19,
-22,
-22,
-18,
-19,
-22,
-26,
-30,
-26,
-23,
-27,
-29,
-31,
-30,
-28,
-26,
-30,
-32,
-33,
-32,
-28,
-31,
-34,
-33,
-30,
-29,
-31,
-31,
-28,
-26,
-26,
-26,
-26,
-25,
-24,
-22,
-22,
-22,
-20,
-18,
-16,
-18,
-17,
-15,
-10,
-8,
-8,
-9,
-8,
-5,
-3,
0,
-1,
-2,
-1,
3,
5,
5,
6,
7,
10,
15,
16,
15,
15,
15,
17,
24,
23,
20,
19,
21,
25,
27,
26,
24,
24,
27,
33,
32,
31,
26,
29,
33,
36,
33,
26,
26,
31,
34,
30,
27,
25,
26,
30,
32,
27,
23,
23,
26,
31,
26,
19,
18,
19,
21,
20,
15,
12,
11,
12,
15,
11,
7,
4,
6,
7,
8,
3,
-1,
-2,
-2,
-2,
-3,
-7,
-10,
-11,
-10,
-10,
-14,
-17,
-17,
-19,
-17,
-18,
-19,
-21,
-23,
-23,
-23,
-22,
-26,
-29,
-29,
-28,
-27,
-31,
-31,
-30,
-30,
-31,
-31,
-29,
-28,
-31,
-30,
-29,
-29,
-31,
-29,
-29,
-29,
-31,
-26,
-25,
-25,
-27,
-28,
-24,
-19,
-18,
-20,
-22,
-18,
-14,
-12,
-13,
-16,
-15,
-10,
-6,
-6,
-8,
-7,
-3,
0,
1,
2,
2,
4,
7,
9,
10,
10,
10,
12,
14,
16,
16,
16,
17,
18,
23,
25,
24,
22,
25,
27,
29,
29,
27,
27,
27,
31,
31,
31,
28,
28,
32,
33,
33,
28,
29,
31,
32,
31,
29,
29,
27,
27,
26,
26,
25,
24,
25,
23,
20,
21,
21,
23,
19,
15,
14,
16,
15,
10,
6,
5,
7,
10,
3,
0,
-2,
-1,
1,
0,
-4,
-9,
-9,
-6,
-6,
-12,
-16,
-17,
-17,
-16,
-17,
-19,
-23,
-23,
-22,
-20,
-20,
-24,
-30,
-31,
-26,
-24,
-28,
-32,
-35,
-31,
-27,
-26,
-32,
-36,
-37,
-31,
-25,
-27,
-34,
-35,
-31,
-25,
-25,
-29,
-32,
-31,
-25,
-23,
-25,
-28,
-28,
-23,
-18,
-17,
-19,
-20,
-17,
-14,
-12,
-10,
-10,
-10,
-8,
-5,
-4,
-5,
-4,
-3,
1,
3,
5,
5,
5,
7,
11,
13,
14,
14,
13,
16,
18,
19,
18,
19,
19,
23,
26,
26,
26,
24,
27,
28,
30,
29,
31,
32,
32,
32,
29,
31,
32,
29,
29,
30,
29,
31,
31,
30,
28,
28,
29,
30,
28,
24,
24,
25,
26,
23,
18,
17,
17,
19,
19,
15,
11,
10,
13,
13,
11,
6,
4,
5,
5,
6,
-1,
-5,
-4,
-3,
-4,
-5,
-9,
-12,
-12,
-11,
-10,
-14,
-18,
-18,
-17,
-17,
-20,
-22,
-25,
-24,
-24,
-24,
-23,
-27,
-31,
-30,
-27,
-26,
-29,
-31,
-32,
-30,
-31,
-30,
-31,
-31,
-33,
-30,
-28,
-29,
-32,
-30,
-27,
-26,
-25,
-25,
-25,
-25,
-25,
-23,
-22,
-20,
-20,
-19,
-19,
-18,
-14,
-13,
-10,
-12,
-12,
-7,
-3,
-4,
-6,
-4,
-1,
2,
3,
1,
0,
3,
9,
13,
11,
10,
10,
14,
19,
20,
17,
17,
19,
22,
25,
24,
23,
20,
25,
29,
30,
27,
26,
26,
31,
34,
32,
29,
28,
29,
33,
35,
33,
25,
25,
29,
31,
33,
26,
24,
24,
29,
31,
27,
20,
20,
24,
27,
23,
17,
13,
16,
18,
16,
12,
7,
7,
10,
11,
7,
3,
3,
3,
3,
1,
-2,
-5,
-5,
-5,
-8,
-10,
-10,
-13,
-15,
-14,
-15,
-16,
-18,
-21,
-19,
-20,
-20,
-23,
-24,
-25,
-26,
-27,
-30,
-29,
-29,
-31,
-31,
-31,
-31,
-31,
-30,
-28,
-30,
-32,
-30,
-28,
-27,
-31,
-34,
-29,
-27,
-27,
-27,
-30,
-29,
-25,
-20,
-21,
-23,
-23,
-20,
-15,
-15,
-18,
-17,
-16,
-13,
-11,
-9,
-12,
-12,
-8,
-3,
0,
-1,
-3,
-1,
3,
7,
7,
9,
6,
9,
13,
13,
15,
13,
14,
16,
21,
21,
20,
22,
22,
24,
28,
27,
25,
25,
27,
30,
31,
28,
27,
28,
31,
33,
31,
30,
29,
28,
31,
33,
31,
28,
28,
29,
27,
26,
27,
26,
24,
24,
25,
23,
21,
20,
19,
18,
18,
18,
16,
14,
10,
9,
9,
10,
7,
4,
1,
2,
4,
3,
-1,
-6,
-6,
-3,
-3,
-8,
-14,
-15,
-13,
-10,
-13,
-19,
-23,
-21,
-16,
-17,
-23,
-26,
-26,
-23,
-21,
-23,
-27,
-31,
-31,
-28,
-27,
-30,
-33,
-36,
-32,
-28,
-27,
-30,
-35,
-32,
-30,
-25,
-26,
-30,
-34,
-31,
-25,
-22,
-27,
-31,
-29,
-24,
-22,
-20,
-23,
-25,
-18,
-13,
-12,
-14,
-17,
-15,
-8,
-6,
-8,
-8,
-7,
-4,
-2,
-1,
-1,
1,
3,
7,
7,
8,
11,
11,
14,
14,
15,
17,
18,
18,
17,
19,
20,
22,
25,
26,
26,
25,
28,
29,
31,
29,
29,
29,
31,
32,
31,
30,
31,
26,
30,
32,
32,
28,
27,
29,
31,
32,
28,
26,
25,
26,
29,
26,
20,
17,
20,
23,
23,
14,
10,
14,
16,
16,
12,
7,
5,
8,
9,
7,
2,
-3,
-3,
1,
0,
-5,
-9,
-10,
-7,
-7,
-11,
-12,
-16,
-16,
-15,
-14,
-16,
-21,
-23,
-22,
-21,
-22,
-25,
-29,
-29,
-26,
-25,
-27,
-29,
-31,
-31,
-30,
-28,
-30,
-34,
-34,
-31,
-29,
-31,
-32,
-32,
-31,
-31,
-27,
-27,
-27,
-27,
-24,
-26,
-25,
-23,
-24,
-21,
-22,
-22,
-19,
-17,
-16,
-17,
-14,
-12,
-9,
-7,
-8,
-8,
-7,
-4,
0,
0,
-1,
-2,
1,
5,
6,
7,
6,
8,
12,
16,
16,
15,
15,
17,
23,
23,
20,
18,
22,
24,
26,
28,
24,
24,
26,
31,
32,
31,
28,
29,
31,
34,
34,
29,
27,
29,
29,
30,
31,
27,
25,
28,
32,
32,
26,
25,
24,
26,
27,
25,
20,
17,
20,
19,
18,
13,
10,
12,
13,
14,
8,
5,
4,
7,
7,
3,
0,
-3,
-1,
-2,
-5,
-7,
-10,
-9,
-9,
-13,
-16,
-17,
-14,
-13,
-18,
-21,
-21,
-20,
-19,
-22,
-25,
-26,
-25,
-25,
-29,
-29,
-31,
-31,
-29,
-29,
-30,
-33,
-32,
-29,
-28,
-27,
-30,
-30,
-30,
-31,
-30,
-27,
-28,
-33,
-29,
-26,
-24,
-24,
-27,
-27,
-22,
-17,
-15,
-19,
-22,
-20,
-13,
-9,
-11,
-17,
-15,
-9,
-5,
-5,
-6,
-8,
-5,
2,
5,
3,
1,
3,
9,
12,
11,
9,
10,
11,
16,
17,
16,
18,
17,
19,
25,
25,
23,
25,
26,
28,
28,
31,
28,
27,
27,
30,
33,
32,
28,
29,
32,
33,
33,
31,
28,
29,
32,
30,
28,
26,
26,
26,
27,
26,
23,
25,
24,
22,
20,
19,
20,
19,
17,
14,
14,
16,
13,
9,
5,
4,
6,
7,
3,
-1,
-1,
0,
1,
0,
-6,
-12,
-10,
-8,
-8,
-13,
-17,
-19,
-17,
-16,
-17,
-22,
-24,
-23,
-21,
-20,
-23,
-27,
-31,
-27,
-25,
-25,
-31,
-33,
-31,
-31,
-29,
-30,
-32,
-35,
-33,
-29,
-26,
-29,
-31,
-30,
-28,
-25,
-26,
-28,
-28,
-27,
-24,
-23,
-24,
-27,
-24,
-20,
-18,
-18,
-19,
-16,
-14,
-11,
-9,
-9,
-10,
-8,
-5,
-4,
-4,
-5,
-3,
0,
2,
3,
6,
7,
10,
11,
10,
12,
15,
17,
17,
18,
17,
17,
22,
23,
22,
20,
21,
24,
27,
30,
29,
26,
27,
31,
34,
32,
26,
28,
32,
33,
32,
28,
26,
29,
32,
31,
31,
27,
25,
29,
32,
32,
26,
24,
21,
25,
25,
20,
18,
14,
17,
19,
18,
14,
7,
9,
13,
16,
10,
2,
0,
2,
6,
2,
-3,
-8,
-7,
-3,
-4,
-7,
-13,
-15,
-13,
-9,
-13,
-19,
-21,
-21,
-18,
-19,
-22,
-25,
-26,
-25,
-24,
-25,
-25,
-30,
-31,
-30,
-28,
-27,
-29,
-30,
-32,
-33,
-30,
-29,
-32,
-34,
-33,
-30,
-28,
-29,
-31,
-29,
-26,
-25,
-24,
-26,
-25,
-24,
-22,
-23,
-22,
-21,
-20,
-19,
-19,
-17,
-13,
-12,
-10,
-12,
-9,
-5,
-2,
-3,
-3,
-3,
-2,
3,
6,
3,
2,
5,
10,
12,
11,
10,
11,
16,
20,
20,
18,
17,
20,
24,
26,
24,
21,
24,
26,
31,
27,
27,
27,
28,
32,
33,
31,
31,
29,
31,
33,
33,
29,
26,
28,
27,
29,
28,
26,
25,
25,
27,
27,
25,
22,
23,
25,
23,
20,
14,
14,
15,
16,
14,
10,
8,
8,
8,
7,
5,
3,
3,
2,
0,
-3,
-5,
-5,
-4,
-8,
-12,
-13,
-13,
-13,
-14,
-16,
-19,
-19,
-17,
-17,
-20,
-24,
-26,
-23,
-22,
-23,
-31,
-34,
-30,
-26,
-27,
-32,
-35,
-33,
-31,
-27,
-28,
-32,
-35,
-32,
-27,
-25,
-31,
-33,
-31,
-28,
-26,
-25,
-30,
-31,
-27,
-21,
-20,
-22,
-25,
-23,
-17,
-14,
-14,
-16,
-19,
-14,
-10,
-8,
-9,
-11,
-12,
-5,
1,
1,
-2,
-5,
1,
7,
10,
9,
5,
6,
12,
15,
15,
13,
13,
16,
21,
22,
20,
20,
22,
24,
28,
27,
26,
25,
29,
30,
31,
30,
29,
29,
31,
30,
31,
30,
31,
29,
30,
31,
31,
32,
28,
28,
26,
27,
28,
27,
24,
24,
25,
25,
23,
21,
19,
19,
18,
14,
15,
14,
12,
10,
6,
7,
8,
6,
2,
1,
0,
2,
0,
-3,
-5,
-7,
-5,
-5,
-9,
-16,
-17,
-14,
-13,
-15,
-22,
-23,
-22,
-18,
-19,
-22,
-28,
-26,
-23,
-23,
-24,
-29,
-32,
-31,
-27,
-29,
-33,
-32,
-33,
-32,
-32,
-31,
-31,
-30,
-31,
-30,
-26,
-27,
-29,
-31,
-29,
-27,
-25,
-25,
-26,
-26,
-25,
-21,
-20,
-19,
-20,
-18,
-14,
-12,
-12,
-12,
-9,
-8,
-7,
-6,
-7,
-5,
-3,
-2,
-1,
1,
3,
8,
7,
7,
9,
11,
14,
15,
14,
14,
18,
20,
20,
19,
17,
20,
25,
28,
26,
23,
25,
27,
31,
31,
28,
28,
27,
32,
33,
31,
27,
26,
30,
33,
33,
28,
25,
27,
31,
32,
30,
26,
25,
26,
29,
28,
23,
18,
17,
19,
23,
20,
12,
10,
14,
17,
16,
11,
4,
4,
7,
9,
4,
-1,
-5,
-4,
0,
-2,
-7,
-11,
-10,
-8,
-9,
-10,
-16,
-18,
-16,
-15,
-15,
-21,
-25,
-22,
-21,
-21,
-25,
-29,
-29,
-27,
-25,
-29,
-29,
-30,
-31,
-30,
-29,
-30,
-33,
-32,
-30,
-30,
-31,
-31,
-30,
-30,
-31,
-30,
-27,
-26,
-25,
-25,
-25,
-25,
-23,
-21,
-21,
-21,
-22,
-19,
-18,
-17,
-15,
-13,
-12,
-10,
-8,
-6,
-6,
-6,
-6,
-2,
0,
1,
-1,
0,
2,
6,
9,
10,
7,
9,
14,
17,
18,
16,
15,
18,
22,
24,
20,
21,
22,
24,
29,
27,
25,
25,
28,
32,
32,
28,
29,
30,
33,
33,
31,
30,
31,
29,
30,
32,
29,
27,
26,
28,
27,
27,
27,
24,
23,
24,
25,
25,
22,
18,
17,
16,
18,
14,
11,
10,
10,
10,
7,
7,
5,
3,
3,
2,
0,
-1,
-3,
-5,
-7,
-10,
-11,
-8,
-12,
-15,
-18,
-15,
-13,
-16,
-21,
-23,
-22,
-19,
-22,
-24,
-28,
-28,
-23,
-25,
-27,
-32,
-35,
-32,
-26,
-27,
-34,
-35,
-33,
-27,
-27,
-30,
-32,
-32,
-31,
-28,
-27,
-29,
-33,
-31,
-27,
-25,
-24,
-25,
-26,
-23,
-19,
-15,
-16,
-20,
-21,
-15,
-11,
-8,
-12,
-16,
-13,
-6,
-4,
-3,
-6,
-4,
-1,
6,
6,
3,
1,
6,
11,
12,
11,
9,
10,
15,
17,
17,
16,
17,
20,
25,
25,
24,
25,
25,
27,
27,
29,
28,
31,
28,
29,
31,
32,
30,
32,
33,
32,
32,
31,
30,
32,
29,
29,
28,
27,
27,
27,
26,
23,
23,
25,
25,
23,
20,
19,
20,
20,
17,
14,
12,
14,
12,
11,
7,
5,
4,
4,
6,
3,
0,
-3,
-2,
-1,
-1,
-7,
-11,
-12,
-12,
-9,
-13,
-17,
-21,
-20,
-16,
-17,
-22,
-27,
-24,
-21,
-22,
-23,
-30,
-31,
-27,
-26,
-27,
-31,
-32,
-33,
-31,
-28,
-30,
-35,
-33,
-30,
-26,
-28,
-29,
-29,
-30,
-27,
-26,
-26,
-26,
-27,
-26,
-25,
-24,
-23,
-22,
-19,
-19,
-18,
-15,
-13,
-13,
-13,
-12,
-9,
-7,
-7,
-7,
-5,
-4,
-3,
0,
1,
2,
1,
6,
6,
9,
11,
11,
12,
14,
17,
18,
18,
16,
16,
19,
23,
24,
23,
20,
23,
27,
30,
31,
26,
25,
30,
33,
34,
28,
26,
28,
33,
34,
29,
26,
26,
29,
33,
32,
27,
23,
27,
31,
31,
26,
23,
20,
23,
24,
23,
18,
16,
16,
17,
18,
16,
12,
9,
10,
13,
11,
7,
3,
1,
4,
2,
1,
-5,
-8,
-7,
-3,
-4,
-10,
-16,
-14,
-11,
-11,
-16,
-20,
-21,
-19,
-18,
-19,
-24,
-25,
-24,
-23,
-25,
-28,
-31,
-29,
-27,
-27,
-31,
-30,
-29,
-29,
-33,
-32,
-32,
-31,
-31,
-30,
-32,
-31,
-30,
-29,
-25,
-26,
-30,
-26,
-25,
-23,
-25,
-23,
-23,
-22,
-20,
-18,
-19,
-19,
-17,
-13,
-10,
-8,
-8,
-11,
-9,
-3,
-2,
0,
-1,
-4,
-1,
3,
7,
4,
1,
6,
12,
16,
14,
12,
13,
17,
21,
23,
18,
17,
20,
26,
27,
24,
23,
23,
27,
29,
30,
29,
27,
28,
31,
34,
32,
29,
29,
31,
33,
33,
29,
28,
28,
28,
29,
30,
27,
26,
27,
28,
30,
25,
24,
22,
20,
20,
19,
17,
15,
13,
13,
12,
11,
9,
6,
7,
6,
6,
3,
2,
-1,
-3,
-5,
-5,
-5,
-7,
-11,
-12,
-12,
-12,
-15,
-15,
-18,
-19,
-18,
-18,
-19,
-22,
-25,
-26,
-24,
-23,
-29,
-32,
-31,
-28,
-25,
-29,
-35,
-35,
-32,
-26,
-25,
-30,
-35,
-34,
-29,
-25,
-28,
-32,
-34,
-30,
-25,
-25,
-28,
-30,
-28,
-23,
-20,
-21,
-23,
-22,
-17,
-15,
-14,
-14,
-15,
-15,
-11,
-9,
-7,
-8,
-11,
-7,
-3,
2,
1,
0,
1,
4,
8,
11,
7,
6,
9,
13,
16,
15,
13,
14,
19,
22,
23,
19,
21,
24,
27,
28,
26,
25,
28,
30,
31,
28,
29,
31,
32,
32,
29,
29,
32,
34,
31,
30,
27,
31,
32,
32,
26,
24,
25,
28,
27,
25,
23,
22,
22,
23,
21,
18,
18,
16,
17,
16,
13,
9,
6,
6,
8,
8,
4,
1,
-1,
0,
2,
0,
-4,
-8,
-10,
-6,
-6,
-10,
-17,
-18,
-15,
-13,
-17,
-21,
-25,
-23,
-19,
-19,
-23,
-27,
-30,
-24,
-23,
-25,
-31,
-33,
-30,
-27,
-27,
-32,
-34,
-33,
-33,
-30,
-28,
-31,
-31,
-29,
-28,
-25,
-27,
-30,
-29,
-27,
-25,
-23,
-24,
-24,
-25,
-22,
-20,
-18,
-19,
-16,
-16,
-13,
-11,
-12,
-10,
-10,
-8,
-5,
-5,
-5,
-4,
-3,
0,
2,
4,
6,
6,
6,
9,
11,
15,
16,
15,
15,
17,
19,
19,
21,
18,
20,
25,
27,
30,
25,
25,
27,
32,
33,
31,
29,
27,
29,
33,
32,
29,
26,
27,
31,
34,
33,
27,
28,
30,
32,
31,
28,
25,
24,
28,
28,
24,
20,
17,
19,
22,
18,
14,
13,
12,
15,
14,
12,
9,
6,
7,
7,
5,
2,
-3,
-3,
-3,
-2,
-5,
-7,
-10,
-11,
-11,
-10,
-13,
-16,
-17,
-16,
-16,
-20,
-22,
-22,
-22,
-23,
-25,
-26,
-29,
-26,
-27,
-26,
-29,
-29,
-31,
-29,
-28,
-31,
-33,
-32,
-29,
-29,
-33,
-33,
-30,
-28,
-27,
-31,
-30,
-28,
-25,
-22,
-25,
-26,
-27,
-23,
-19,
-20,
-23,
-24,
-21,
-15,
-13,
-13,
-13,
-12,
-9,
-5,
-5,
-5,
-7,
-6,
0,
2,
1,
1,
1,
4,
9,
14,
12,
9,
11,
14,
19,
22,
17,
16,
18,
24,
28,
24,
19,
18,
26,
31,
31,
25,
25,
30,
35,
33,
30,
27,
30,
33,
33,
32,
28,
27,
29,
31,
31,
27,
26,
27,
28,
28,
27,
27,
25,
24,
25,
24,
23,
19,
17,
14,
16,
15,
13,
11,
10,
10,
7,
8,
6,
3,
1,
1,
1,
-1,
-3,
-5,
-7,
-10,
-11,
-10,
-12,
-13,
-17,
-17,
-16,
-16,
-19,
-21,
-22,
-21,
-20,
-21,
-25,
-28,
-27,
-26,
-26,
-29,
-34,
-35,
-29,
-26,
-31,
-32,
-34,
-31,
-26,
-26,
-29,
-32,
-33,
-30,
-26,
-28,
-33,
-32,
-29,
-25,
-24,
-24,
-25,
-22,
-20,
-16,
-16,
-18,
-19,
-17,
-14,
-12,
-12,
-13,
-12,
-9,
-6,
-3,
-2,
-3,
-2,
2,
5,
6,
5,
8,
10,
10,
11,
11,
14,
15,
16,
18,
18,
19,
19,
22,
23,
23,
25,
25,
27,
26,
27,
28,
31,
29,
31,
31,
28,
28,
32,
33,
31,
28,
29,
32,
34,
32,
27,
25,
26,
29,
29,
27,
23,
22,
26,
27,
24,
19,
17,
19,
23,
21,
13,
11,
10,
12,
13,
8,
4,
2,
4,
5,
3,
0,
-5,
-3,
-1,
-2,
-6,
-11,
-13,
-13,
-12,
-12,
-15,
-20,
-22,
-21,
-16,
-19,
-24,
-25,
-25,
-22,
-20,
-25,
-30,
-30,
-31,
-26,
-27,
-31,
-36,
-33,
-28,
-28,
-33,
-33,
-35,
-29,
-25,
-29,
-30,
-31,
-29,
-25,
-26,
-26,
-31,
-27,
-23,
-25,
-24,
-23,
-20,
-20,
-18,
-16,
-14,
-14,
-13,
-11,
-10,
-8,
-7,
-8,
-7,
-6,
-4,
-2,
0,
2,
1,
4,
6,
9,
11,
10,
12,
13,
15,
16,
18,
19,
17,
17,
20,
23,
25,
24,
24,
24,
28,
31,
31,
26,
27,
30,
33,
33,
29,
27,
27,
32,
33,
30,
27,
26,
30,
32,
31,
25,
26,
28,
30,
28,
23,
22,
21,
22,
24,
19,
17,
16,
16,
16,
16,
13,
12,
11,
10,
9,
7,
5,
3,
1,
-1,
-1,
-3,
-4,
-7,
-7,
-7,
-8,
-11,
-12,
-13,
-14,
-16,
-16,
-19,
-20,
-20,
-21,
-22,
-25,
-23,
-25,
-26,
-27,
-30,
-27,
-27,
-27,
-32,
-33,
-29,
-28,
-29,
-32,
-34,
-32,
-31,
-27,
-29,
-32,
-33,
-30,
-25,
-23,
-30,
-30,
-28,
-22,
-21,
-22,
-25,
-25,
-21,
-16,
-15,
-19,
-19,
-15,
-10,
-7,
-7,
-10,
-9,
-6,
-1,
0,
0,
-4,
-3,
4,
6,
6,
3,
5,
9,
13,
16,
14,
12,
16,
19,
