4-transistorverstaerker/data/ALL0081/A0081CH2.CSV

Memory Length,4000,
Trigger Level,5.20000e+01,
Source,CH2,
Probe,1.0X,
Vertical Units,V,
Vertical Scale,2.00000e-01,
Vertical Position,0.00000e+00,
Horizontal Units,S,
Horizontal Scale,2.50000e-07,
Horizontal Position,-3.5000000e-07,
Horizontal Mode,Main,
Sampling Period,2.00000e-09,
Firmware,V1.14,
Time, ,
Mode,Fast,
Waveform Data,
6,
6,
6,
6,
6,
6,
6,
5,
5,
6,
7,
5,
6,
6,
6,
6,
6,
5,
6,
5,
6,
5,
6,
5,
6,
5,
5,
4,
4,
5,
5,
3,
3,
3,
4,
3,
3,
2,
3,
3,
3,
2,
2,
2,
2,
2,
2,
1,
2,
2,
2,
0,
0,
0,
0,
0,
0,
0,
1,
0,
0,
-1,
-1,
-2,
-2,
-1,
0,
-3,
-2,
-2,
-2,
-3,
-2,
-4,
-2,
-4,
-3,
-3,
-3,
-4,
-2,
-4,
-2,
-5,
-4,
-4,
-4,
-6,
-6,
-6,
-5,
-5,
-5,
-6,
-6,
-6,
-6,
-6,
-6,
-6,
-6,
-6,
-5,
-7,
-7,
-7,
-6,
-7,
-6,
-7,
-7,
-8,
-8,
-6,
-5,
-8,
-8,
-8,
-7,
-8,
-8,
-8,
-7,
-7,
-6,
-7,
-6,
-8,
-7,
-7,
-6,
-8,
-7,
-7,
-7,
-7,
-6,
-7,
-7,
-7,
-6,
-7,
-6,
-7,
-6,
-6,
-5,
-7,
-6,
-6,
-5,
-6,
-6,
-6,
-5,
-6,
-5,
-5,
-4,
-5,
-4,
-5,
-4,
-4,
-3,
-4,
-3,
-4,
-3,
-4,
-3,
-4,
-3,
-3,
-2,
-3,
-2,
-2,
-1,
-2,
-2,
-1,
-1,
-1,
-1,
-1,
0,
0,
0,
0,
0,
0,
0,
1,
2,
1,
1,
0,
1,
2,
2,
2,
3,
2,
3,
3,
4,
2,
2,
3,
4,
2,
2,
4,
4,
4,
4,
3,
5,
4,
5,
5,
5,
4,
5,
5,
6,
5,
6,
6,
6,
5,
6,
5,
6,
5,
6,
5,
6,
6,
6,
6,
6,
6,
7,
7,
7,
6,
6,
6,
6,
5,
6,
6,
6,
5,
5,
5,
6,
6,
6,
5,
5,
6,
6,
5,
5,
5,
6,
5,
5,
4,
4,
4,
6,
4,
4,
4,
5,
4,
4,
3,
4,
3,
3,
4,
4,
2,
2,
2,
3,
2,
2,
2,
3,
2,
2,
1,
2,
1,
2,
1,
2,
0,
0,
0,
1,
0,
0,
-1,
0,
-1,
0,
-1,
-1,
-3,
-3,
-2,
-1,
-3,
-3,
-3,
-2,
-3,
-3,
-4,
-3,
-4,
-2,
-4,
-3,
-5,
-5,
-4,
-2,
-6,
-5,
-5,
-5,
-5,
-5,
-5,
-5,
-6,
-6,
-6,
-5,
-7,
-6,
-6,
-6,
-7,
-6,
-6,
-5,
-8,
-7,
-7,
-7,
-7,
-6,
-8,
-7,
-7,
-6,
-7,
-7,
-8,
-7,
-7,
-7,
-8,
-8,
-8,
-7,
-8,
-8,
-8,
-7,
-7,
-6,
-8,
-7,
-8,
-7,
-7,
-6,
-7,
-6,
-7,
-6,
-7,
-6,
-7,
-6,
-7,
-6,
-6,
-5,
-7,
-6,
-6,
-5,
-6,
-5,
-6,
-5,
-5,
-4,
-4,
-4,
-6,
-6,
-4,
-3,
-4,
-4,
-4,
-3,
-4,
-3,
-3,
-2,
-3,
-2,
-2,
-1,
-2,
-1,
-1,
0,
-2,
-1,
-1,
0,
-2,
-1,
0,
0,
-1,
0,
0,
1,
0,
1,
1,
1,
1,
2,
2,
2,
1,
2,
2,
3,
2,
2,
3,
4,
3,
4,
3,
4,
3,
4,
4,
4,
4,
4,
4,
5,
4,
5,
4,
6,
4,
5,
5,
6,
5,
6,
5,
6,
6,
6,
5,
5,
6,
6,
6,
6,
5,
6,
6,
7,
6,
6,
7,
7,
6,
7,
6,
7,
6,
6,
6,
7,
6,
6,
5,
6,
6,
6,
5,
6,
5,
6,
6,
6,
4,
4,
5,
5,
5,
5,
4,
4,
4,
5,
4,
4,
3,
3,
3,
4,
2,
3,
3,
4,
2,
2,
2,
3,
2,
2,
1,
2,
1,
2,
2,
2,
1,
1,
1,
1,
0,
0,
0,
0,
-1,
-1,
-1,
0,
-3,
-3,
-1,
0,
-3,
-2,
-2,
-2,
-3,
-3,
-3,
-3,
-3,
-2,
-4,
-2,
-5,
-3,
-4,
-3,
-5,
-5,
-5,
-4,
-6,
-6,
-5,
-4,
-6,
-6,
-6,
-5,
-6,
-6,
-6,
-5,
-7,
-6,
-7,
-6,
-8,
-7,
-7,
-6,
-7,
-6,
-7,
-7,
-8,
-7,
-7,
-7,
-8,
-8,
-8,
-7,
-8,
-8,
-8,
-7,
-8,
-8,
-7,
-7,
-8,
-8,
-8,
-7,
-7,
-6,
-7,
-6,
-8,
-7,
-7,
-7,
-7,
-6,
-7,
-7,
-7,
-6,
-7,
-6,
-7,
-6,
-6,
-5,
-6,
-5,
-5,
-4,
-6,
-6,
-5,
-4,
-5,
-4,
-5,
-4,
-5,
-4,
-4,
-3,
-4,
-3,
-4,
-3,
-3,
-2,
-3,
-2,
-3,
-3,
-2,
-1,
-3,
-2,
-1,
0,
-1,
-1,
-1,
0,
0,
0,
0,
0,
0,
1,
1,
2,
0,
0,
2,
3,
1,
2,
1,
1,
2,
2,
3,
3,
2,
3,
3,
3,
3,
3,
4,
4,
3,
4,
5,
5,
5,
6,
4,
6,
4,
4,
5,
6,
6,
6,
5,
5,
5,
6,
6,
6,
5,
6,
6,
7,
6,
6,
6,
7,
6,
6,
6,
6,
6,
6,
6,
6,
6,
7,
6,
6,
6,
6,
5,
6,
5,
6,
6,
6,
6,
6,
5,
6,
5,
5,
5,
5,
5,
6,
5,
6,
4,
5,
4,
5,
3,
3,
3,
4,
2,
3,
3,
4,
2,
2,
2,
3,
2,
2,
2,
2,
1,
1,
2,
2,
1,
2,
1,
2,
0,
1,
0,
1,
0,
0,
-1,
0,
-1,
-1,
-1,
0,
-2,
-2,
-2,
-1,
-3,
-3,
-3,
-2,
-4,
-3,
-3,
-3,
-4,
-3,
-4,
-2,
-5,
-4,
-5,
-4,
-6,
-5,
-5,
-4,
-6,
-6,
-6,
-5,
-6,
-6,
-5,
-5,
-6,
-6,
-6,
-5,
-7,
-7,
-6,
-5,
-7,
-6,
-7,
-7,
-7,
-7,
-7,
-7,
-7,
-6,
-7,
-7,
-8,
-7,
-7,
-6,
-8,
-8,
-8,
-7,
-8,
-7,
-7,
-6,
-8,
-7,
-7,
-6,
-8,
-8,
-8,
-7,
-7,
-6,
-7,
-6,
-7,
-6,
-6,
-6,
-7,
-6,
-6,
-5,
-6,
-6,
-6,
-5,
-6,
-6,
-5,
-5,
-6,
-5,
-5,
-4,
-5,
-5,
-4,
-3,
-4,
-3,
-4,
-3,
-4,
-3,
-3,
-3,
-4,
-3,
-2,
-1,
-2,
-2,
-2,
-1,
-2,
-2,
-1,
0,
-1,
0,
0,
0,
-1,
0,
1,
1,
0,
0,
1,
2,
1,
2,
1,
2,
2,
2,
2,
3,
2,
2,
3,
3,
2,
3,
4,
4,
3,
3,
3,
4,
4,
5,
3,
5,
5,
5,
5,
5,
4,
5,
5,
6,
5,
6,
5,
6,
5,
6,
6,
6,
5,
6,
6,
6,
6,
6,
6,
6,
6,
6,
6,
6,
6,
7,
6,
6,
5,
6,
6,
7,
6,
6,
5,
6,
5,
5,
5,
6,
5,
6,
5,
5,
4,
4,
5,
6,
4,
4,
4,
5,
4,
4,
4,
5,
4,
4,
3,
4,
3,
4,
3,
3,
2,
2,
2,
3,
2,
2,
2,
2,
1,
2,
1,
1,
1,
1,
0,
1,
0,
0,
-1,
0,
-1,
0,
-1,
0,
-3,
-2,
-2,
-1,
-3,
-2,
-2,
-2,
-3,
-3,
-4,
-3,
-3,
-2,
-4,
-3,
-4,
-3,
-3,
-2,
-6,
-6,
-5,
-4,
-6,
-6,
-5,
-4,
-5,
-6,
-6,
-6,
-7,
-6,
-6,
-5,
-7,
-6,
-7,
-5,
-8,
-8,
-7,
-6,
-7,
-6,
-8,
-7,
-8,
-7,
-7,
-7,
-8,
-7,
-8,
-7,
-7,
-7,
-8,
-7,
-8,
-7,
-7,
-7,
-8,
-7,
-7,
-6,
-7,
-6,
-7,
-7,
-7,
-6,
-7,
-6,
-7,
-6,
-7,
-7,
-7,
-6,
-6,
-5,
-7,
-6,
-6,
-5,
-6,
-6,
-5,
-5,
-6,
-5,
-5,
-4,
-5,
-4,
-4,
-4,
-5,
-4,
-4,
-3,
-4,
-3,
-4,
-3,
-3,
-3,
-3,
-2,
-2,
-1,
-2,
-1,
-2,
-2,
-1,
0,
-1,
-1,
-1,
0,
-1,
0,
0,
0,
0,
0,
1,
2,
1,
1,
1,
2,
1,
2,
2,
3,
2,
3,
3,
4,
2,
2,
3,
4,
2,
2,
4,
4,
4,
4,
4,
4,
5,
6,
4,
6,
4,
5,
5,
6,
5,
6,
5,
6,
6,
6,
6,
6,
6,
6,
5,
6,
6,
7,
6,
6,
5,
6,
7,
7,
5,
6,
6,
7,
6,
6,
6,
6,
5,
6,
5,
6,
6,
6,
6,
6,
5,
6,
6,
6,
5,
6,
4,
5,
5,
6,
5,
5,
4,
4,
4,
5,
3,
4,
3,
4,
3,
3,
3,
3,
2,
2,
2,
3,
2,
2,
2,
2,
2,
2,
1,
1,
1,
2,
1,
1,
0,
0,
0,
1,
-1,
0,
0,
0,
-1,
0,
-1,
-1,
-2,
-2,
-2,
-1,
-3,
-2,
-3,
-2,
-3,
-3,
-3,
-3,
-3,
-2,
-5,
-4,
-5,
-5,
-4,
-2,
-5,
-4,
-5,
-4,
-5,
-5,
-6,
-5,
-6,
-6,
-6,
-5,
-6,
-6,
-6,
-5,
-7,
-7,
-6,
-5,
-7,
-7,
-7,
-6,
-7,
-6,
-8,
-7,
-7,
-6,
-7,
-7,
-9,
-8,
-7,
-6,
-8,
-8,
-8,
-7,
-8,
-7,
-8,
-7,
-7,
-6,
-8,
-7,
-8,
-7,
-7,
-6,
-7,
-6,
-7,
-6,
-7,
-6,
-6,
-6,
-7,
-6,
-6,
-5,
-7,
-6,
-6,
-5,
-6,
-5,
-5,
-4,
-6,
-5,
-5,
-4,
-5,
-5,
-4,
-3,
-4,
-4,
-4,
-3,
-4,
-3,
-3,
-2,
-3,
-2,
-2,
-2,
-3,
-2,
-1,
0,
-2,
-2,
0,
1,
-1,
0,
-1,
0,
0,
1,
0,
1,
0,
1,
1,
1,
1,
2,
2,
3,
1,
2,
3,
3,
3,
4,
2,
3,
3,
4,
4,
4,
3,
4,
5,
5,
4,
4,
4,
5,
5,
6,
4,
5,
4,
5,
5,
5,
6,
6,
5,
5,
5,
6,
5,
5,
6,
6,
6,
7,
5,
6,
6,
6,
6,
6,
6,
7,
6,
7,
6,
6,
6,
7,
6,
7,
5,
6,
6,
6,
5,
6,
5,
6,
5,
6,
5,
5,
5,
5,
4,
5,
4,
4,
4,
4,
3,
4,
4,
4,
3,
4,
4,
4,
2,
2,
3,
3,
2,
2,
2,
3,
2,
2,
1,
2,
1,
2,
1,
1,
0,
0,
0,
1,
-1,
0,
0,
1,
-1,
-1,
-2,
-1,
-2,
-2,
-2,
-1,
-3,
-2,
-2,
-2,
-4,
-3,
-3,
-2,
-3,
-3,
-3,
-2,
-4,
-2,
-5,
-4,
-5,
-4,
-5,
-4,
-6,
-6,
-5,
-4,
-6,
-6,
-5,
-5,
-6,
-6,
-6,
-5,
-7,
-6,
-6,
-5,
-7,
-6,
-7,
-6,
-7,
-6,
-8,
-7,
-8,
-8,
-7,
-7,
-8,
-7,
-7,
-6,
-8,
-7,
-8,
-7,
-8,
-7,
-8,
-7,
-7,
-6,
-8,
-7,
-7,
-7,
-7,
-6,
-7,
-6,
-7,
-6,
-7,
-6,
-7,
-6,
-7,
-6,
-6,
-6,
-7,
-6,
-6,
-5,
-7,
-6,
-5,
-4,
-6,
-6,
-6,
-5,
-5,
-4,
-5,
-4,
-5,
-4,
-4,
-3,
-4,
-3,
-3,
-2,
-3,
-2,
-3,
-2,
-3,
-2,
-2,
-1,
-2,
-1,
-1,
0,
-1,
-1,
-1,
0,
-1,
0,
0,
0,
0,
1,
2,
2,
0,
0,
1,
2,
2,
2,
2,
2,
2,
3,
3,
3,
3,
4,
3,
4,
2,
2,
4,
4,
3,
4,
3,
5,
4,
5,
4,
4,
5,
6,
5,
6,
5,
6,
6,
6,
5,
6,
6,
7,
6,
7,
5,
6,
6,
7,
6,
7,
6,
7,
5,
6,
6,
6,
6,
6,
6,
7,
7,
7,
5,
6,
6,
7,
5,
6,
6,
6,
6,
6,
5,
6,
5,
6,
5,
5,
4,
5,
5,
5,
3,
3,
4,
5,
4,
4,
2,
3,
3,
4,
3,
3,
3,
3,
3,
3,
2,
2,
2,
3,
2,
2,
2,
2,
1,
1,
0,
1,
0,
0,
0,
1,
-1,
-1,
-1,
-1,
-1,
0,
-1,
0,
-2,
-2,
-2,
-1,
-3,
-2,
-3,
-2,
-3,
-3,
-2,
-1,
-3,
-1,
-4,
-3,
-5,
-4,
-4,
-3,
-6,
-5,
-5,
-5,
-6,
-6,
-6,
-5,
-6,
-6,
-6,
-5,
-6,
-6,
-6,
-5,
-7,
-6,
-6,
-5,
-8,
-7,
-7,
-6,
-7,
-7,
-8,
-7,
-7,
-6,
-7,
-7,
-8,
-8,
-8,
-7,
-8,
-8,
-8,
-7,
-8,
-8,
-7,
-7,
-7,
-7,
-8,
-7,
-8,
-7,
-7,
-7,
-7,
-7,
-7,
-6,
-7,
-6,
-6,
-6,
-7,
-6,
-6,
-5,
-6,
-6,
-6,
-5,
-6,
-6,
-5,
-5,
-6,
-5,
-5,
-4,
-6,
-5,
-4,
-3,
-5,
-4,
-3,
-2,
-4,
-3,
-3,
-2,
-3,
-2,
-3,
-2,
-3,
-2,
-2,
-2,
-2,
-1,
-1,
0,
-1,
-1,
-1,
0,
0,
0,
0,
1,
1,
2,
1,
1,
1,
2,
1,
2,
2,
2,
2,
3,
2,
3,
3,
4,
3,
4,
3,
4,
3,
3,
3,
4,
5,
6,
3,
5,
5,
6,
5,
5,
5,
6,
6,
7,
4,
5,
6,
7,
6,
6,
5,
6,
6,
7,
6,
6,
5,
6,
6,
6,
6,
6,
6,
7,
6,
6,
6,
7,
6,
6,
6,
6,
6,
6,
5,
6,
6,
6,
5,
5,
5,
5,
5,
5,
5,
6,
5,
5,
4,
4,
4,
4,
4,
5,
4,
4,
3,
3,
4,
4,
3,
3,
4,
4,
2,
2,
3,
3,
2,
2,
1,
2,
1,
2,
1,
1,
1,
2,
0,
0,
0,
0,
0,
0,
-1,
0,
-1,
-1,
-2,
-2,
-2,
-2,
-3,
-2,
-2,
-2,
-2,
-1,
-3,
-2,
-4,
-3,
-4,
-3,
-4,
-4,
-3,
-2,
-5,
-4,
-5,
-4,
-6,
-6,
-6,
-5,
-6,
-6,
-6,
-5,
-7,
-6,
-6,
-5,
-7,
-6,
-6,
-5,
-7,
-6,
-7,
-6,
-7,
-6,
-8,
-7,
-8,
-7,
-7,
-7,
-8,
-7,
-7,
-7,
-8,
-7,
-7,
-7,
-8,
-7,
-8,
-7,
-7,
-6,
-8,
-7,
-7,
-6,
-7,
-7,
-8,
-7,
-7,
-6,
-7,
-6,
-8,
-7,
-7,
-6,
-6,
-5,
-7,
-6,
-7,
-6,
-7,
-6,
-5,
-4,
-6,
-5,
-5,
-4,
-5,
-4,
-5,
-4,
-5,
-4,
-4,
-3,
-5,
-4,
-4,
-3,
-3,
-2,
-3,
-2,
-3,
-2,
-2,
-1,
-3,
-2,
-1,
0,
-1,
-1,
-1,
0,
0,
0,
0,
0,
1,
2,
0,
1,
0,
1,
1,
2,
1,
2,
2,
3,
2,
2,
3,
4,
2,
3,
3,
4,
3,
3,
4,
4,
4,
4,
5,
5,
4,
5,
4,
6,
5,
5,
5,
5,
5,
6,
5,
5,
6,
6,
5,
6,
6,
7,
6,
6,
6,
6,
6,
6,
5,
6,
6,
7,
6,
6,
5,
6,
6,
7,
5,
5,
6,
6,
5,
6,
5,
6,
6,
6,
5,
5,
5,
6,
6,
6,
5,
5,
4,
5,
5,
5,
4,
4,
5,
5,
4,
4,
4,
4,
4,
4,
3,
4,
2,
2,
3,
4,
2,
2,
2,
2,
2,
2,
1,
1,
1,
1,
0,
1,
0,
1,
0,
1,
0,
0,
-1,
0,
-1,
-1,
-2,
-2,
-2,
-1,
-2,
-2,
-4,
-4,
-2,
-2,
-4,
-3,
-4,
-3,
-4,
-2,
-4,
-2,
-5,
-4,
-5,
-4,
-5,
-4,
-5,
-4,
-6,
-6,
-6,
-5,
-6,
-6,
-6,
-5,
-6,
-6,
-6,
-5,
-7,
-6,
-6,
-6,
-7,
-6,
-6,
-5,
-8,
-8,
-7,
-7,
-7,
-6,
-8,
-7,
-9,
-8,
-7,
-6,
-7,
-7,
-8,
-7,
-7,
-6,
-8,
-7,
-8,
-7,
-7,
-6,
-7,
-6,
-7,
-6,
-7,
-7,
-7,
-6,
-6,
-6,
-7,
-6,
-7,
-6,
-5,
-5,
-7,
-6,
-5,
-4,
-6,
-6,
-5,
-4,
-5,
-5,
-5,
-4,
-5,
-4,
-4,
-3,
-4,
-4,
-4,
-3,
-4,
-3,
-3,
-2,
-4,
-3,
-3,
-2,
-3,
-2,
-1,
0,
-1,
-1,
-1,
0,
0,
0,
-1,
0,
-1,
0,
0,
1,
0,
0,
1,
2,
1,
1,
2,
3,
2,
2,
2,
3,
2,
3,
2,
3,
3,
4,
4,
4,
3,
3,
4,
6,
4,
4,
4,
6,
4,
5,
5,
5,
5,
6,
6,
6,
5,
5,
5,
6,
5,
6,
5,
6,
6,
7,
6,
7,
6,
6,
6,
6,
6,
7,
6,
6,
6,
7,
6,
7,
6,
7,
6,
6,
5,
5,
6,
7,
6,
6,
5,
6,
6,
6,
5,
5,
5,
6,
5,
5,
4,
5,
5,
5,
4,
4,
4,
6,
3,
3,
3,
4,
3,
3,
3,
3,
2,
3,
2,
3,
2,
2,
2,
3,
1,
1,
1,
2,
1,
1,
1,
1,
0,
0,
0,
1,
-1,
0,
-1,
0,
-2,
-2,
-2,
-1,
-3,
-2,
-2,
-2,
-4,
-3,
-3,
-2,
-4,
-3,
-4,
-3,
-3,
-2,
-4,
-2,
-6,
-5,
-5,
-4,
-6,
-6,
-5,
-4,
-6,
-6,
-6,
-6,
-6,
-6,
-6,
-5,
-7,
-6,
-6,
-5,
-7,
-7,
-6,
-5,
-7,
-7,
-8,
-7,
-7,
-7,
-8,
-7,
-8,
-7,
-7,
-7,
-8,
-7,
-7,
-6,
-7,
-6,
-7,
-7,
-8,
-7,
-8,
-7,
-8,
-7,
-8,
-7,
-7,
-6,
-7,
-7,
-7,
-6,
-6,
-5,
-7,
-6,
-6,
-5,
-7,
-6,
-5,
-4,
-6,
-6,
-5,
-4,
-6,
-6,
-5,
-5,
-4,
-3,
-5,
-4,
-5,
-4,
-4,
-3,
-4,
-4,
-3,
-2,
-3,
-3,
-3,
-2,
-2,
-2,
-2,
-1,
-2,
-1,
-1,
0,
-1,
0,
-1,
0,
0,
0,
0,
0,
0,
0,
0,
1,
1,
1,
1,
2,
1,
2,
2,
3,
2,
3,
3,
3,
2,
2,
3,
4,
2,
2,
4,
4,
4,
4,
4,
5,
4,
5,
4,
5,
5,
6,
5,
5,
5,
6,
5,
5,
5,
5,
5,
6,
6,
6,
5,
6,
6,
6,
6,
6,
6,
7,
6,
6,
5,
6,
6,
7,
6,
6,
6,
7,
6,
6,
6,
6,
6,
6,
6,
6,
5,
6,
6,
6,
5,
6,
5,
6,
5,
6,
5,
5,
4,
4,
4,
5,
3,
3,
3,
4,
3,
4,
3,
3,
2,
3,
3,
3,
2,
2,
2,
3,
2,
2,
1,
2,
1,
2,
1,
1,
0,
0,
0,
1,
-1,
0,
-1,
0,
-2,
-2,
-1,
-1,
-3,
-2,
-2,
-2,
-3,
-2,
-3,
-3,
-4,
-3,
-4,
-3,
-3,
-2,
-4,
-2,
-5,
-4,
-5,
-4,
-6,
-5,
-5,
-4,
-6,
-5,
-5,
-4,
-6,
-6,
-6,
-5,
-7,
-6,
-6,
-5,
-7,
-6,
-6,
-5,
-7,
-6,
-8,
-7,
-7,
-6,
-7,
-7,
-9,
-9,
-7,
-7,
-9,
-8,
-7,
-6,
-8,
-8,
-8,
-7,
-7,
-7,
-8,
-7,
-7,
-6,
-7,
-6,
-7,
-6,
-6,
-5,
-7,
-7,
-7,
-6,
-7,
-6,
-6,
-5,
-7,
-6,
-7,
-6,
-7,
-6,
-5,
-5,
-6,
-5,
-5,
-4,
-6,
-6,
-5,
-4,
-6,
-5,
-5,
-4,
-5,
-4,
-4,
-3,
-4,
-3,
-4,
-3,
-3,
-2,
-2,
-1,
-2,
-2,
-2,
-1,
-2,
-1,
0,
1,
-1,
-1,
-1,
1,
0,
0,
0,
0,
1,
2,
1,
1,
1,
2,
2,
3,
1,
2,
3,
3,
2,
2,
3,
4,
4,
6,
3,
4,
3,
3,
4,
4,
4,
4,
5,
5,
5,
6,
4,
5,
5,
6,
5,
6,
5,
6,
5,
6,
5,
6,
5,
6,
6,
7,
6,
6,
6,
6,
6,
6,
5,
6,
6,
7,
6,
6,
5,
6,
5,
6,
6,
6,
6,
6,
6,
6,
5,
6,
6,
6,
5,
5,
5,
6,
5,
5,
5,
5,
4,
5,
3,
4,
4,
4,
4,
5,
3,
3,
4,
4,
3,
3,
2,
3,
2,
2,
2,
2,
2,
2,
2,
3,
1,
2,
1,
2,
1,
1,
0,
1,
0,
0,
0,
1,
-1,
-1,
-1,
0,
-2,
-2,
-2,
-1,
-2,
-2,
-2,
-2,
-4,
-3,
-3,
-3,
-4,
-3,
-3,
-1,
-4,
-2,
-4,
-3,
-5,
-5,
-5,
-4,
-6,
-6,
-5,
-4,
-6,
-6,
-5,
-5,
-6,
-6,
-6,
-5,
-7,
-6,
-6,
-5,
-7,
-6,
-7,
-6,
-7,
-6,
-7,
-7,
-8,
-7,
-7,
-7,
-8,
-8,
-8,
-7,
-8,
-7,
-7,
-7,
-8,
-8,
-8,
-7,
-8,
-7,
-8,
-7,
-8,
-7,
-7,
-6,
-8,
-7,
-7,
-6,
-7,
-6,
-7,
-6,
-7,
-6,
-6,
-6,
-7,
-6,
-6,
-5,
-7,
-6,
-5,
-4,
-6,
-6,
-5,
-4,
-5,
-4,
-5,
-4,
-4,
-3,
-4,
-4,
-5,
-4,
-3,
-2,
-4,
-3,
-3,
-2,
-3,
-2,
-1,
0,
-2,
-2,
-1,
0,
-1,
-1,
-1,
0,
0,
0,
-1,
0,
-1,
0,
1,
1,
1,
2,
2,
3,
2,
2,
2,
3,
2,
2,
2,
3,
2,
3,
3,
4,
3,
4,
4,
4,
4,
4,
4,
6,
4,
4,
4,
5,
5,
6,
4,
4,
5,
6,
5,
6,
5,
6,
6,
6,
5,
6,
6,
6,
6,
6,
5,
6,
5,
6,
6,
6,
6,
7,
6,
6,
6,
7,
6,
6,
5,
6,
6,
6,
5,
6,
6,
6,
5,
5,
5,
5,
6,
6,
5,
5,
5,
6,
5,
5,
3,
4,
5,
5,
3,
3,
3,
4,
3,
3,
2,
3,
2,
3,
2,
3,
2,
2,
2,
3,
2,
2,
1,
2,
1,
1,
0,
1,
0,
0,
-1,
0,
0,
0,
-1,
0,
-1,
-1,
-1,
-1,
-3,
-2,
-2,
-1,
-3,
-2,
-3,
-2,
-3,
-1,
-4,
-2,
-4,
-3,
-4,
-2,
-5,
-4,
-5,
-4,
-6,
-5,
-5,
-4,
-6,
-6,
-5,
-4,
-6,
-6,
-6,
-5,
-6,
-6,
-7,
-6,
-7,
-6,
-6,
-5,
-7,
-6,
-7,
-6,
-7,
-7,
-7,
-7,
-7,
-7,
-8,
-7,
-8,
-8,
-8,
-7,
-8,
-7,
-8,
-7,
-8,
-7,
-7,
-6,
-7,
-7,
-8,
-7,
-7,
-6,
-7,
-6,
-7,
-6,
-7,
-7,
-7,
-6,
-6,
-6,
-7,
-6,
-6,
-5,
-7,
-6,
-5,
-4,
-6,
-6,
-5,
-4,
-6,
-5,
-5,
-4,
-5,
-4,
-4,
-4,
-5,
-4,
-4,
-3,
-4,
-4,
-4,
-2,
-3,
-3,
-3,
-2,
-2,
-2,
-2,
-1,
-1,
-1,
0,
0,
-1,
-1,
0,
1,
0,
0,
0,
1,
1,
2,
0,
1,
1,
1,
1,
2,
1,
2,
2,
3,
2,
2,
3,
4,
3,
4,
3,
4,
3,
3,
4,
4,
4,
4,
4,
5,
5,
6,
4,
5,
5,
6,
6,
6,
5,
6,
6,
6,
6,
6,
5,
6,
6,
7,
6,
6,
6,
7,
6,
6,
6,
7,
6,
6,
6,
6,
6,
7,
6,
6,
6,
6,
6,
6,
5,
6,
5,
6,
6,
6,
5,
6,
6,
6,
5,
6,
5,
6,
4,
5,
4,
4,
4,
4,
3,
4,
3,
3,
3,
3,
3,
3,
3,
3,
2,
2,
3,
4,
1,
1,
1,
2,
1,
2,
1,
2,
0,
1,
0,
0,
0,
0,
-1,
0,
-1,
0,
-1,
0,
-2,
-3,
-2,
-1,
-3,
-2,
-3,
-2,
-3,
-2,
-3,
-2,
-4,
-4,
-4,
-3,
-4,
-4,
-3,
-2,
-6,
-5,
-5,
-4,
-6,
-6,
-6,
-5,
-6,
-5,
-5,
-5,
-6,
-6,
-6,
-5,
-6,
-6,
-6,
-5,
-7,
-7,
-7,
-6,
-8,
-7,
-7,
-7,
-8,
-7,
-7,
-7,
-7,
-6,
-7,
-7,
-8,
-7,
-7,
-6,
-8,
-7,
-8,
-7,
-7,
-7,
-8,
-7,
-8,
-7,
-7,
-7,
-7,
-6,
-7,
-6,
-8,
-7,
-6,
-5,
-7,
-7,
-6,
-5,
-6,
-6,
-7,
-6,
-7,
-6,
-5,
-5,
-6,
-4,
-5,
-4,
-5,
-4,
-4,
-3,
-5,
-4,
-3,
-2,
-4,
-4,
-3,
-2,
-4,
-3,
-3,
-3,
-2,
-1,
-3,
-2,
-3,
-2,
-1,
0,
-2,
-2,
-1,
0,
0,
0,
-1,
0,
0,
1,
1,
1,
1,
2,
1,
2,
1,
2,
2,
3,
2,
2,
3,
4,
3,
3,
3,
4,
3,
3,
4,
4,
3,
4,
3,
4,
4,
5,
4,
6,
5,
6,
5,
6,
5,
6,
6,
6,
5,
6,
5,
6,
5,
6,
6,
6,
6,
7,
6,
6,
5,
6,
6,
6,
6,
6,
6,
6,
6,
6,
5,
6,
6,
7,
5,
5,
5,
6,
6,
6,
4,
5,
5,
6,
5,
6,
5,
5,
5,
6,
4,
4,
3,
4,
4,
5,
3,
4,
3,
4,
3,
4,
3,
4,
2,
2,
2,
3,
2,
2,
2,
2,
2,
2,
2,
2,
1,
2,
1,
1,
0,
0,
0,
1,
-1,
0,
-1,
0,
-1,
-1,
-2,
-1,
-2,
-2,
-2,
-2,
-3,
-2,
-3,
-3,
-4,
-3,
-3,
-3,
-4,
-3,
-4,
-2,
-6,
-5,
-5,
-4,
-5,
-5,
-5,
-5,
-6,
-5,
-5,
-4,
-6,
-6,
-6,
-5,
-6,
-6,
-7,
-6,
-7,
-6,
-7,
-6,
-7,
-6,
-7,
-6,
-7,
-6,
-8,
-7,
-8,
-8,
-7,
-7,
-8,
-8,
-8,
-7,
-8,
-8,
-8,
-7,
-8,
-7,
-8,
-7,
-7,
-6,
-8,
-7,
-8,
-7,
-7,
-6,
-7,
-7,
-7,
-6,
-7,
-6,
-7,
-6,
-7,
-6,
-6,
-5,
-6,
-6,
-5,
-5,
-7,
-6,
-5,
-4,
-6,
-6,
-5,
-4,
-5,
-4,
-5,
-4,
-4,
-3,
-4,
-3,
-4,
-3,
-3,
-2,
-3,
-2,
-3,
-2,
-2,
-2,
-2,
-1,
-1,
-1,
-1,
0,
-1,
-1,
-1,
0,
0,
0,
0,
1,
1,
2,
1,
1,
0,
0,
1,
2,
1,
2,
2,
3,
2,
2,
2,
3,
4,
6,
4,
4,
3,
4,
5,
5,
3,
4,
5,
6,
4,
5,
4,
5,
5,
6,
5,
5,
5,
6,
5,
5,
5,
6,
6,
6,
5,
6,
6,
7,
5,
4,
6,
6,
6,
6,
6,
6,
6,
