5-grundlagen-opAmps/data/ALL0055/A0055CH1.CSV

Memory Length,4000,
Trigger Level,0.00000e+00,
Source,CH1,
Probe,1.0X,
Vertical Units,V,
Vertical Scale,5.00000e-02,
Vertical Position,0.00000e+00,
Horizontal Units,S,
Horizontal Scale,1.00000e-05,
Horizontal Position,0.0000000e+00,
Horizontal Mode,Main,
Sampling Period,4.00000e-08,
Firmware,V1.14,
Time, ,
Mode,Fast,
Waveform Data,
38,
38,
38,
41,
30,
34,
34,
39,
39,
37,
37,
31,
31,
37,
37,
31,
31,
35,
35,
35,
35,
37,
25,
31,
31,
31,
31,
36,
36,
29,
29,
32,
32,
31,
31,
32,
32,
26,
26,
29,
29,
28,
28,
28,
28,
29,
29,
32,
32,
30,
30,
25,
25,
30,
30,
23,
34,
19,
32,
26,
26,
22,
22,
23,
23,
28,
28,
27,
27,
26,
26,
26,
26,
21,
21,
21,
21,
18,
18,
19,
19,
22,
22,
13,
26,
25,
14,
23,
23,
18,
18,
22,
22,
20,
20,
15,
15,
15,
15,
17,
17,
12,
12,
13,
13,
20,
9,
12,
12,
13,
13,
17,
17,
16,
16,
11,
11,
12,
12,
15,
15,
8,
8,
11,
11,
7,
7,
15,
4,
4,
16,
10,
10,
10,
10,
3,
15,
11,
11,
5,
5,
2,
2,
5,
5,
4,
4,
5,
5,
1,
1,
2,
2,
2,
2,
7,
7,
0,
0,
6,
6,
2,
2,
-1,
-1,
1,
1,
-4,
-4,
2,
2,
-1,
-1,
-3,
-3,
-2,
-2,
-5,
-5,
-8,
3,
1,
1,
-3,
-3,
-10,
-10,
-9,
-9,
-7,
-7,
-6,
-6,
-7,
-7,
-6,
-6,
-6,
-6,
-9,
-9,
-7,
-7,
-9,
-9,
-11,
-11,
-12,
-12,
-7,
-7,
-13,
-13,
-11,
-11,
-11,
-11,
-13,
-13,
-17,
-17,
-16,
-16,
-11,
-22,
-20,
-20,
-17,
-17,
-20,
-20,
-16,
-16,
-18,
-18,
-16,
-16,
-17,
-17,
-19,
-19,
-18,
-18,
-17,
-17,
-23,
-23,
-22,
-22,
-22,
-22,
-24,
-24,
-28,
-28,
-21,
-21,
-21,
-21,
-17,
-29,
-26,
-26,
-28,
-28,
-30,
-30,
-28,
-28,
-26,
-26,
-30,
-30,
-35,
-24,
-27,
-27,
-31,
-31,
-28,
-28,
-24,
-36,
-30,
-30,
-30,
-30,
-33,
-33,
-33,
-33,
-35,
-35,
-31,
-31,
-27,
-38,
-34,
-34,
-32,
-32,
-31,
-31,
-32,
-32,
-36,
-36,
-32,
-32,
-33,
-33,
-38,
-38,
-35,
-35,
-32,
-32,
-38,
-38,
-37,
-37,
-33,
-33,
-38,
-38,
-40,
-40,
-32,
-44,
-40,
-40,
-40,
-40,
-40,
-40,
-44,
-33,
-43,
-43,
-44,
-44,
-44,
-44,
-41,
-41,
-45,
-45,
-38,
-38,
-42,
-42,
-46,
-46,
-38,
-49,
-47,
-47,
-48,
-48,
-43,
-43,
-47,
-47,
-47,
-47,
-39,
-50,
-43,
-43,
-43,
-43,
-43,
-43,
-44,
-44,
-50,
-50,
-47,
-47,
-43,
-43,
-44,
-44,
-53,
-53,
-47,
-47,
-48,
-48,
-54,
-54,
-45,
-45,
-45,
-45,
-51,
-51,
-56,
-56,
-46,
-46,
-54,
-54,
-54,
-54,
-47,
-47,
-54,
-54,
-49,
-49,
-48,
-48,
-50,
-50,
-50,
-50,
-54,
-54,
-45,
-56,
-51,
-51,
-53,
-53,
-52,
-52,
-47,
-59,
-59,
-47,
-51,
-51,
-47,
-47,
-54,
-54,
-51,
-51,
-57,
-45,
-53,
-53,
-51,
-51,
-53,
-53,
-51,
-51,
-53,
-53,
-57,
-57,
-50,
-50,
-53,
-53,
-51,
-51,
-51,
-51,
-56,
-56,
-57,
-57,
-55,
-55,
-57,
-57,
-51,
-51,
-55,
-55,
-58,
-58,
-52,
-52,
-53,
-53,
-54,
-54,
-51,
-51,
-57,
-57,
-54,
-54,
-58,
-58,
-54,
-54,
-47,
-59,
-53,
-53,
-50,
-50,
-51,
-51,
-51,
-51,
-54,
-54,
-50,
-50,
-56,
-56,
-54,
-54,
-52,
-52,
-53,
-53,
-53,
-53,
-55,
-55,
-50,
-50,
-50,
-50,
-51,
-51,
-48,
-48,
-55,
-55,
-55,
-55,
-55,
-55,
-50,
-50,
-50,
-50,
-46,
-46,
-46,
-46,
-50,
-50,
-46,
-46,
-46,
-57,
-51,
-51,
-51,
-51,
-51,
-51,
-52,
-52,
-48,
-48,
-48,
-48,
-46,
-46,
-46,
-46,
-46,
-46,
-45,
-45,
-55,
-42,
-49,
-49,
-47,
-47,
-52,
-52,
-49,
-49,
-46,
-46,
-46,
-46,
-47,
-47,
-47,
-47,
-48,
-48,
-49,
-49,
-44,
-44,
-44,
-44,
-50,
-50,
-46,
-46,
-42,
-42,
-48,
-48,
-44,
-44,
-42,
-42,
-46,
-46,
-38,
-38,
-43,
-43,
-40,
-40,
-40,
-40,
-43,
-43,
-38,
-38,
-47,
-36,
-43,
-43,
-37,
-37,
-42,
-42,
-34,
-34,
-36,
-36,
-40,
-40,
-37,
-37,
-34,
-34,
-44,
-31,
-35,
-35,
-38,
-38,
-42,
-42,
-39,
-39,
-33,
-33,
-34,
-34,
-35,
-35,
-36,
-36,
-30,
-30,
-35,
-35,
-32,
-32,
-28,
-28,
-38,
-38,
-36,
-36,
-27,
-27,
-28,
-28,
-34,
-34,
-27,
-27,
-26,
-26,
-33,
-33,
-28,
-28,
-31,
-31,
-32,
-21,
-26,
-26,
-26,
-26,
-27,
-27,
-32,
-18,
-25,
-25,
-21,
-21,
-24,
-24,
-26,
-26,
-15,
-29,
-24,
-24,
-27,
-16,
-20,
-20,
-23,
-23,
-15,
-27,
-18,
-18,
-22,
-22,
-21,
-21,
-20,
-20,
-18,
-18,
-14,
-14,
-20,
-20,
-17,
-17,
-20,
-20,
-18,
-18,
-13,
-13,
-10,
-10,
-15,
-15,
-14,
-14,
-18,
-18,
-12,
-12,
-8,
-8,
-11,
-11,
-13,
-13,
-7,
-7,
-11,
-11,
-6,
-17,
-8,
-8,
-3,
-3,
-8,
-8,
-10,
-10,
-4,
-4,
-11,
-11,
-7,
-7,
-6,
-6,
-3,
-3,
-8,
-8,
-3,
-3,
2,
2,
-5,
-5,
-2,
-2,
-1,
-1,
-1,
-1,
-5,
-5,
-3,
-3,
-1,
-1,
-4,
-4,
3,
3,
1,
1,
4,
4,
0,
0,
5,
5,
2,
2,
-2,
9,
7,
7,
2,
2,
0,
11,
7,
7,
9,
9,
7,
7,
14,
3,
10,
10,
10,
10,
9,
9,
7,
7,
9,
9,
8,
8,
15,
15,
15,
15,
10,
10,
15,
15,
14,
14,
11,
11,
12,
12,
16,
16,
12,
12,
15,
15,
20,
20,
13,
13,
16,
16,
19,
19,
20,
20,
20,
20,
22,
22,
21,
21,
20,
20,
21,
21,
18,
18,
24,
24,
20,
20,
24,
24,
27,
27,
22,
22,
32,
17,
26,
26,
21,
21,
31,
19,
20,
20,
24,
24,
25,
25,
23,
23,
24,
24,
33,
22,
29,
29,
33,
33,
30,
30,
30,
30,
26,
26,
27,
27,
31,
31,
30,
30,
29,
29,
35,
35,
30,
30,
28,
28,
39,
28,
36,
36,
33,
33,
30,
41,
37,
37,
34,
34,
33,
33,
39,
39,
35,
35,
39,
39,
41,
41,
37,
37,
36,
36,
35,
35,
40,
40,
34,
34,
38,
38,
39,
39,
40,
40,
35,
35,
38,
38,
43,
43,
35,
35,
38,
38,
34,
48,
38,
38,
41,
41,
46,
46,
42,
42,
45,
45,
41,
41,
44,
44,
44,
44,
46,
46,
43,
43,
41,
41,
40,
40,
44,
44,
42,
42,
45,
45,
45,
45,
39,
39,
40,
40,
46,
46,
41,
41,
40,
40,
41,
52,
42,
42,
42,
42,
45,
45,
47,
47,
41,
41,
45,
45,
44,
44,
46,
46,
41,
41,
45,
45,
47,
47,
42,
42,
48,
48,
46,
46,
44,
44,
48,
48,
47,
47,
46,
46,
49,
49,
49,
49,
48,
48,
44,
44,
43,
43,
51,
51,
45,
45,
47,
47,
52,
39,
43,
43,
48,
48,
52,
41,
40,
40,
43,
43,
46,
46,
40,
40,
44,
44,
46,
46,
48,
48,
47,
47,
43,
43,
49,
49,
41,
41,
42,
42,
48,
48,
44,
44,
41,
41,
48,
48,
45,
45,
41,
41,
48,
48,
48,
48,
41,
41,
48,
37,
44,
44,
42,
42,
43,
43,
43,
43,
42,
42,
37,
37,
45,
45,
45,
45,
42,
42,
38,
38,
48,
48,
38,
38,
36,
47,
44,
44,
36,
36,
43,
43,
44,
44,
37,
37,
44,
44,
39,
39,
42,
42,
42,
42,
38,
38,
36,
36,
38,
38,
32,
44,
38,
38,
40,
40,
39,
39,
41,
41,
34,
34,
35,
35,
40,
40,
34,
34,
36,
36,
38,
38,
28,
39,
35,
35,
36,
36,
40,
29,
35,
35,
31,
31,
30,
30,
27,
27,
30,
30,
34,
34,
29,
29,
26,
26,
33,
33,
31,
31,
27,
27,
33,
33,
27,
27,
30,
30,
24,
24,
29,
29,
31,
31,
22,
22,
32,
32,
28,
28,
28,
28,
26,
26,
27,
27,
22,
22,
20,
20,
23,
23,
21,
21,
21,
21,
19,
19,
23,
23,
22,
22,
23,
23,
23,
23,
17,
17,
18,
18,
16,
16,
17,
17,
18,
18,
22,
22,
19,
19,
17,
17,
21,
21,
19,
19,
16,
16,
14,
14,
14,
14,
10,
10,
15,
15,
14,
14,
14,
14,
15,
15,
15,
15,
12,
12,
4,
16,
9,
9,
9,
9,
6,
6,
8,
8,
8,
8,
4,
4,
5,
5,
6,
6,
4,
4,
0,
0,
9,
-3,
7,
7,
0,
0,
2,
2,
4,
4,
-3,
-3,
2,
2,
4,
4,
-2,
-2,
3,
3,
-2,
-2,
1,
1,
0,
0,
-2,
-2,
2,
2,
-8,
-8,
-7,
-7,
1,
-10,
-8,
-8,
-4,
-4,
-1,
-1,
-7,
-7,
-4,
-4,
-3,
-3,
-14,
-2,
-9,
-9,
-11,
-11,
-13,
-13,
-11,
-11,
-9,
-9,
-9,
-9,
-9,
-9,
-14,
-14,
-9,
-9,
-15,
-15,
-14,
-14,
-9,
-9,
-19,
-19,
-19,
-19,
-10,
-10,
-13,
-24,
-18,
-18,
-13,
-13,
-14,
-14,
-19,
-19,
-16,
-16,
-20,
-20,
-21,
-21,
-22,
-22,
-20,
-20,
-19,
-19,
-29,
-15,
-21,
-21,
-20,
-20,
-24,
-24,
-27,
-27,
-17,
-29,
-25,
-25,
-31,
-18,
-22,
-22,
-27,
-27,
-19,
-32,
-26,
-26,
-30,
-30,
-29,
-29,
-31,
-31,
-27,
-27,
-27,
-27,
-31,
-31,
-29,
-29,
-32,
-32,
-33,
-33,
-29,
-29,
-26,
-39,
-32,
-32,
-30,
-30,
-38,
-38,
-31,
-31,
-29,
-29,
-34,
-34,
-34,
-34,
-35,
-35,
-37,
-37,
-30,
-42,
-35,
-35,
-35,
-35,
-36,
-36,
-42,
-30,
-37,
-37,
-43,
-43,
-38,
-38,
-38,
-38,
-39,
-39,
-44,
-44,
-41,
-41,
-40,
-40,
-40,
-40,
-40,
-40,
-43,
-43,
-41,
-41,
-45,
-45,
-46,
-46,
-40,
-40,
-45,
-45,
-42,
-42,
-41,
-41,
-44,
-44,
-46,
-46,
-45,
-45,
-47,
-47,
-49,
-49,
-45,
-45,
-49,
-49,
-47,
-47,
-45,
-45,
-45,
-45,
-44,
-44,
-45,
-45,
-48,
-48,
-49,
-49,
-53,
-42,
-50,
-50,
-49,
-49,
-51,
-51,
-43,
-54,
-44,
-44,
-47,
-47,
-45,
-45,
-48,
-48,
-54,
-43,
-51,
-51,
-52,
-52,
-53,
-53,
-50,
-50,
-45,
-56,
-49,
-49,
-50,
-50,
-49,
-49,
-46,
-57,
-57,
-45,
-49,
-49,
-51,
-51,
-58,
-58,
-54,
-54,
-54,
-54,
-50,
-50,
-53,
-53,
-50,
-50,
-49,
-49,
-58,
-58,
-49,
-49,
-51,
-51,
-59,
-48,
-52,
-52,
-53,
-53,
-54,
-54,
-57,
-57,
-51,
-51,
-55,
-55,
-48,
-48,
-57,
-57,
-46,
-60,
-52,
-52,
-54,
-54,
-51,
-51,
-56,
-56,
-49,
-60,
-50,
-50,
-55,
-55,
-54,
-54,
-54,
-54,
-55,
-55,
-51,
-51,
-52,
-52,
-57,
-57,
-55,
-55,
-53,
-53,
-56,
-56,
-53,
-53,
-53,
-53,
-51,
-51,
-53,
-53,
-53,
-53,
-49,
-49,
-51,
-51,
-53,
-53,
-46,
-57,
-55,
-55,
-52,
-52,
-47,
-47,
-47,
-47,
-56,
-56,
-52,
-52,
-48,
-48,
-54,
-54,
-53,
-53,
-55,
-55,
-49,
-49,
-51,
-51,
-49,
-49,
-47,
-47,
-54,
-54,
-52,
-52,
-47,
-47,
-51,
-51,
-50,
-50,
-47,
-47,
-49,
-49,
-57,
-43,
-47,
-47,
-48,
-48,
-44,
-44,
-50,
-50,
-51,
-51,
-48,
-48,
-49,
-49,
-44,
-44,
-47,
-47,
-53,
-42,
-44,
-44,
-47,
-47,
-46,
-46,
-40,
-40,
-43,
-43,
-43,
-43,
-47,
-47,
-50,
-39,
-44,
-44,
-42,
-42,
-39,
-39,
-41,
-41,
-43,
-43,
-39,
-39,
-37,
-48,
-45,
-45,
-39,
-39,
-36,
-36,
-44,
-33,
-41,
-41,
-39,
-39,
-40,
-40,
-37,
-37,
-33,
-33,
-38,
-38,
-39,
-39,
-33,
-33,
-35,
-35,
-35,
-35,
-35,
-35,
-36,
-36,
-39,
-39,
-38,
-38,
-35,
-35,
-32,
-32,
-34,
-34,
-28,
-39,
-32,
-32,
-36,
-36,
-27,
-27,
-35,
-35,
-37,
-37,
-31,
-31,
-32,
-32,
-32,
-32,
-25,
-36,
-27,
-27,
-24,
-24,
-24,
-24,
-27,
-27,
-29,
-18,
-29,
-29,
-24,
-24,
-24,
-24,
-31,
-17,
-20,
-20,
-21,
-21,
-27,
-27,
-18,
-29,
-23,
-23,
-24,
-24,
-26,
-26,
-22,
-22,
-23,
-23,
-21,
-21,
-13,
-24,
-21,
-21,
-19,
-19,
-18,
-18,
-14,
-14,
-16,
-16,
-17,
-17,
-9,
-22,
-18,
-18,
-17,
-17,
-16,
-16,
-7,
-21,
-16,
-16,
-11,
-11,
-8,
-8,
-15,
-15,
-8,
-8,
-14,
-3,
-14,
-14,
-9,
-9,
-10,
-10,
-4,
-4,
-11,
-11,
-10,
-10,
-7,
-7,
-5,
-5,
-6,
-6,
-1,
-1,
-8,
-8,
-9,
-9,
-4,
-4,
-6,
-6,
1,
1,
-3,
-3,
-4,
-4,
-1,
-1,
-3,
-3,
-4,
-4,
1,
1,
-2,
-2,
0,
0,
-2,
-2,
4,
4,
7,
7,
4,
4,
6,
6,
6,
6,
6,
6,
5,
5,
8,
8,
7,
7,
3,
14,
8,
8,
7,
7,
9,
9,
10,
10,
10,
10,
11,
11,
8,
8,
13,
13,
9,
9,
8,
8,
8,
8,
16,
16,
14,
14,
18,
18,
16,
16,
15,
15,
18,
18,
20,
8,
15,
15,
16,
16,
14,
14,
14,
14,
18,
18,
19,
19,
23,
23,
22,
22,
22,
22,
20,
20,
16,
16,
20,
20,
24,
24,
16,
28,
18,
29,
27,
27,
25,
25,
22,
22,
28,
28,
23,
23,
21,
21,
23,
23,
22,
33,
20,
31,
24,
24,
34,
21,
25,
25,
28,
28,
32,
32,
28,
28,
29,
29,
30,
30,
33,
33,
32,
32,
28,
28,
38,
24,
28,
28,
33,
33,
38,
27,
31,
31,
33,
33,
37,
37,
34,
34,
34,
34,
35,
35,
28,
39,
35,
35,
32,
32,
35,
35,
40,
40,
35,
35,
38,
38,
35,
35,
33,
33,
44,
33,
36,
36,
37,
37,
42,
42,
37,
37,
38,
38,
43,
43,
43,
43,
43,
43,
42,
42,
45,
45,
38,
38,
42,
42,
42,
42,
42,
42,
38,
38,
39,
39,
45,
45,
36,
47,
44,
44,
43,
43,
42,
42,
35,
46,
46,
46,
41,
41,
39,
39,
45,
45,
44,
44,
49,
38,
43,
43,
44,
44,
43,
43,
38,
51,
49,
49,
46,
46,
43,
43,
47,
47,
46,
46,
44,
44,
48,
48,
50,
50,
44,
44,
45,
45,
41,
41,
47,
47,
45,
45,
48,
48,
50,
50,
45,
45,
46,
46,
50,
50,
43,
43,
47,
47,
46,
46,
39,
52,
43,
43,
46,
46,
44,
44,
47,
47,
46,
46,
45,
45,
44,
44,
47,
47,
48,
48,
44,
44,
40,
40,
46,
46,
47,
47,
42,
42,
49,
49,
45,
45,
46,
46,
49,
49,
45,
45,
40,
40,
45,
45,
44,
44,
43,
43,
41,
41,
42,
42,
42,
42,
46,
46,
44,
44,
50,
38,
43,
43,
40,
40,
46,
46,
38,
38,
42,
42,
45,
45,
40,
40,
47,
47,
43,
43,
40,
40,
47,
47,
44,
44,
37,
37,
39,
39,
38,
38,
40,
40,
42,
42,
44,
44,
44,
44,
40,
40,
42,
42,
43,
32,
34,
34,
39,
39,
40,
40,
32,
32,
38,
38,
39,
39,
41,
41,
36,
36,
35,
35,
38,
38,
28,
43,
36,
36,
36,
36,
32,
32,
32,
32,
36,
36,
34,
34,
31,
31,
37,
37,
34,
34,
36,
36,
28,
28,
33,
33,
32,
32,
28,
28,
35,
35,
30,
30,
34,
23,
33,
33,
27,
27,
26,
26,
25,
25,
28,
28,
27,
27,
27,
27,
25,
25,
25,
25,
23,
23,
26,
26,
25,
25,
23,
23,
22,
22,
19,
30,
21,
21,
23,
23,
28,
15,
23,
23,
26,
26,
22,
22,
23,
23,
21,
21,
23,
23,
18,
18,
17,
17,
19,
19,
19,
19,
16,
16,
17,
17,
18,
18,
16,
16,
13,
13,
19,
19,
12,
12,
12,
12,
13,
13,
8,
19,
11,
11,
12,
12,
12,
12,
9,
9,
10,
10,
14,
14,
13,
13,
2,
13,
9,
9,
6,
6,
3,
3,
7,
7,
7,
7,
1,
1,
9,
9,
4,
4,
7,
7,
9,
-3,
6,
6,
3,
3,
-1,
-1,
1,
1,
4,
4,
-1,
-1,
2,
2,
3,
3,
-5,
-5,
3,
3,
4,
-7,
-8,
3,
-6,
-6,
-1,
-1,
-10,
1,
-5,
-5,
-3,
-3,
-3,
-3,
-3,
-3,
-5,
-5,
-5,
-5,
-11,
-11,
-9,
-9,
-3,
-15,
-12,
-12,
-12,
-12,
-5,
-16,
-9,
-9,
-16,
-16,
-10,
-10,
-8,
-8,
-16,
-16,
-9,
-9,
-16,
-16,
-16,
-16,
-13,
-13,
-16,
-16,
-17,
-17,
-20,
-20,
-17,
-17,
-15,
-15,
-16,
-16,
-20,
-20,
-14,
-14,
-21,
-21,
-26,
-14,
-19,
-19,
-25,
-25,
-17,
-17,
-20,
-20,
-28,
-28,
-21,
-21,
-25,
-25,
-23,
-23,
-22,
-22,
-29,
-17,
-27,
-27,
-27,
-27,
-30,
-30,
-25,
-25,
-26,
-26,
-24,
-24,
-28,
-28,
-33,
-33,
-29,
-29,
-25,
-25,
-29,
-29,
-30,
-30,
-28,
-28,
-36,
-36,
-29,
-29,
-34,
-34,
-27,
-27,
-33,
-33,
-37,
-37,
-33,
-33,
-39,
-39,
-36,
-36,
-36,
-36,
-36,
-36,
-39,
-39,
-35,
-35,
-33,
-44,
-40,
-40,
-36,
-36,
-39,
-39,
-39,
-39,
-44,
-44,
-39,
-39,
-38,
-38,
-43,
-43,
-39,
-39,
-36,
-36,
-37,
-37,
-42,
-42,
-39,
-39,
-46,
-46,
-47,
-47,
-44,
-44,
-44,
-44,
-44,
-44,
-43,
-43,
-44,
-44,
-42,
-42,
-43,
-43,
-43,
-43,
-47,
-47,
-47,
-47,
-46,
-46,
-46,
-46,
-48,
-48,
-41,
-53,
-45,
-45,
-46,
-46,
-41,
-53,
-43,
-43,
-48,
-48,
-50,
-50,
-48,
-48,
-52,
-52,
-47,
-47,
-46,
-46,
-49,
-49,
-48,
-48,
-45,
-45,
-48,
-48,
-54,
-54,
-50,
-50,
-48,
-48,
-54,
-54,
-50,
-50,
-52,
-52,
-50,
-50,
-56,
-56,
-51,
-51,
-53,
-53,
-55,
-55,
-49,
-49,
-51,
-51,
-58,
-58,
-53,
-53,
-53,
-53,
-55,
-55,
-51,
-51,
-54,
-54,
-57,
-57,
-47,
-47,
-54,
-54,
-50,
-50,
-48,
-48,
-52,
-52,
-50,
-50,
-57,
-57,
-54,
-54,
-52,
-52,
-58,
-58,
-51,
-51,
-51,
-51,
-57,
-57,
-51,
-51,
-52,
-52,
-62,
-46,
-54,
-54,
-53,
-53,
-55,
-55,
-54,
-54,
-50,
-50,
-53,
-53,
-52,
-52,
-54,
-54,
-49,
-49,
-55,
-55,
-52,
-52,
-48,
-48,
-55,
-55,
-55,
-55,
-51,
-51,
-49,
-49,
-55,
-55,
-51,
-51,
-47,
-59,
-55,
-55,
-49,
-49,
-54,
-54,
-53,
-53,
-51,
-51,
-53,
-53,
-49,
-49,
-57,
-46,
-51,
-51,
-48,
-48,
-51,
-51,
-52,
-52,
-45,
-45,
-54,
-54,
-55,
-55,
-50,
-50,
-50,
-50,
-43,
-57,
-49,
-49,
-52,
-52,
-51,
-51,
-54,
-43,
-49,
-49,
-47,
-47,
-53,
-53,
-46,
-46,
-51,
-51,
-51,
-51,
-44,
-44,
-45,
-45,
-46,
-46,
-48,
-48,
-51,
-51,
-45,
-45,
-44,
-44,
-43,
-43,
-47,
-47,
-45,
-45,
-46,
-46,
-40,
-51,
-45,
-45,
-40,
-40,
-44,
-44,
-47,
-47,
-43,
-43,
-46,
-46,
-48,
-48,
-44,
-44,
-39,
-39,
-46,
-46,
-38,
-38,
-37,
-37,
-39,
-39,
-40,
-40,
-40,
-40,
-40,
-40,
-41,
-41,
-44,
-33,
-38,
-38,
-39,
-39,
-36,
-36,
-34,
-34,
-37,
-37,
-40,
-40,
-34,
-34,
-40,
-40,
-38,
-38,
-35,
-35,
-39,
-39,
-38,
-38,
-32,
-32,
-31,
-31,
-31,
-31,
-27,
-27,
-33,
-33,
-35,
-35,
-33,
-33,
-30,
-30,
-33,
-33,
-35,
-35,
-25,
-25,
-26,
-26,
-32,
-32,
-22,
-35,
-26,
-26,
-29,
-29,
-31,
-31,
-24,
-24,
-27,
-27,
-23,
-23,
-19,
-30,
-26,
-26,
-23,
-23,
-18,
-18,
-18,
-18,
-25,
-25,
-22,
-22,
-17,
-17,
-21,
-21,
-18,
-18,
-23,
-12,
-17,
-17,
-23,
-23,
-18,
-18,
-14,
-14,
-22,
-10,
-11,
-11,
-17,
-17,
-19,
-19,
-13,
-13,
-16,
-16,
-14,
-14,
-13,
-13,
-13,
-13,
-13,
-13,
-6,
-6,
-11,
-11,
-9,
-9,
-11,
-11,
-10,
-10,
-9,
-9,
-12,
-12,
-9,
-9,
-7,
-7,
-10,
-10,
-6,
-6,
-5,
-5,
-11,
-11,
-4,
-4,
-4,
-4,
-6,
-6,
-6,
-6,
-2,
-2,
-2,
-2,
-6,
-6,
2,
2,
-2,
-2,
1,
1,
-1,
-1,
1,
1,
3,
3,
0,
0,
6,
6,
1,
1,
0,
0,
3,
3,
7,
7,
3,
3,
5,
5,
7,
7,
5,
5,
2,
14,
1,
12,
6,
6,
10,
10,
13,
13,
13,
13,
8,
8,
11,
11,
14,
14,
9,
9,
14,
14,
15,
15,
11,
11,
11,
11,
14,
14,
17,
17,
22,
9,
16,
16,
15,
15,
10,
22,
15,
15,
16,
16,
14,
14,
13,
13,
21,
21,
16,
16,
20,
20,
23,
23,
20,
20,
19,
19,
21,
21,
21,
21,
19,
19,
24,
24,
26,
26,
18,
18,
24,
24,
27,
27,
26,
26,
28,
28,
27,
27,
30,
30,
25,
25,
29,
29,
28,
28,
25,
25,
29,
29,
36,
20,
27,
27,
30,
30,
34,
34,
31,
31,
31,
31,
35,
35,
27,
27,
29,
29,
28,
39,
28,
28,
31,
31,
31,
31,
35,
35,
34,
34,
32,
32,
39,
39,
33,
33,
31,
31,
41,
41,
31,
31,
32,
32,
41,
41,
42,
42,
36,
36,
43,
43,
39,
39,
34,
45,
39,
39,
38,
38,
35,
35,
36,
36,
41,
41,
43,
43,
34,
34,
42,
42,
39,
39,
38,
38,
37,
37,
46,
46,
41,
41,
36,
36,
47,
35,
38,
38,
44,
44,
42,
42,
42,
42,
44,
44,
41,
41,
46,
46,
45,
45,
41,
41,
40,
40,
44,
44,
40,
40,
47,
47,
49,
38,
45,
45,
48,
48,
42,
42,
44,
44,
49,
49,
44,
44,
48,
48,
44,
44,
44,
44,
47,
47,
47,
47,
47,
47,
48,
48,
42,
42,
47,
47,
41,
41,
45,
45,
47,
47,
46,
46,
44,
44,
44,
44,
46,
46,
44,
44,
48,
48,
46,
46,
47,
47,
43,
43,
45,
45,
47,
47,
43,
43,
47,
47,
50,
50,
49,
49,
46,
46,
46,
46,
42,
42,
41,
41,
46,
46,
43,
43,
43,
43,
48,
48,
45,
45,
47,
47,
46,
46,
44,
44,
42,
42,
38,
38,
41,
41,
45,
45,
41,
41,
51,
37,
45,
45,
44,
44,
48,
48,
47,
47,
42,
42,
43,
43,
41,
41,
39,
39,
42,
42,
47,
47,
43,
43,
42,
42,
46,
46,
42,
42,
38,
38,
43,
43,
44,
44,
34,
48,
39,
39,
40,
40,
43,
43,
37,
37,
43,
43,
40,
40,
32,
44,
41,
41,
37,
37,
32,
32,
38,
38,
40,
40,
36,
36,
35,
35,
38,
38,
35,
35,
39,
39,
35,
35,
39,
39,
38,
38,
33,
33,
38,
38,
33,
33,
36,
36,
37,
37,
30,
30,
32,
32,
35,
35,
27,
27,
35,
35,
32,
32,
24,
24,
25,
36,
31,
31,
30,
30,
32,
32,
30,
30,
30,
30,
29,
29,
27,
27,
32,
21,
28,
28,
25,
25,
31,
31,
27,
27,
27,
27,
26,
26,
28,
28,
22,
22,
23,
23,
29,
29,
19,
19,
24,
24,
21,
21,
24,
24,
20,
20,
17,
17,
24,
24,
15,
15,
18,
18,
21,
21,
17,
17,
14,
14,
19,
19,
12,
12,
10,
10,
15,
15,
17,
17,
20,
20,
11,
11,
12,
12,
11,
11,
7,
19,
15,
15,
11,
11,
5,
5,
15,
3,
9,
9,
7,
7,
13,
13,
10,
10,
10,
10,
6,
6,
3,
3,
7,
7,
4,
4,
10,
10,
8,
8,
2,
2,
5,
5,
7,
7,
-1,
-1,
3,
3,
4,
4,
-4,
7,
-2,
-2,
2,
2,
-5,
6,
-1,
-1,
1,
1,
-2,
-2,
-2,
-2,
-2,
-2,
0,
0,
-6,
-6,
-6,
-6,
-5,
-5,
-4,
-4,
-12,
-12,
-3,
-3,
-5,
-5,
-8,
-8,
-3,
-3,
-10,
-10,
-13,
-13,
-8,
-8,
-13,
-13,
-12,
-12,
-14,
-14,
-15,
-15,
-13,
-13,
-11,
-11,
-13,
-13,
-7,
-21,
-12,
-12,
-16,
-16,
-17,
-17,
-19,
-19,
-12,
-24,
-15,
-15,
-23,
-23,
-16,
-16,
-17,
-17,
-20,
-20,
-13,
-13,
-19,
-19,
-22,
-22,
-28,
-16,
-24,
-24,
-19,
-19,
-20,
-20,
-18,
-18,
-21,
-21,
-25,
-25,
-22,
-22,
-19,
-30,
-29,
-29,
-27,
-27,
-23,
-23,
-29,
-29,
-24,
-35,
-27,
-27,
-25,
-25,
-31,
-31,
-31,
-31,
-27,
-27,
-36,
-24,
-29,
-29,
-32,
-32,
-32,
-32,
-34,
-34,
-30,
-30,
-30,
-30,
-33,
-33,
-31,
-31,
-33,
-33,
-33,
-33,
-38,
-38,
-36,
-36,
-36,
-36,
-39,
-39,
-33,
-33,
-34,
-34,
-34,
-34,
-37,
-37,
-39,
-39,
-41,
-41,
-42,
-42,
-39,
-39,
-43,
-43,
-43,
-43,
-40,
-40,
-39,
-39,
-40,
-40,
-38,
-38,
-41,
-41,
-42,
-42,
-43,
-43,
-45,
-45,
-45,
-45,
-44,
-44,
-38,
-51,
-41,
-41,
-42,
-42,
-42,
-42,
-43,
-43,
-46,
-46,
-44,
-44,
-45,
-45,
-49,
-49,
-44,
-44,
-43,
-43,
-48,
-48,
-47,
-47,
-43,
-43,
-47,
-47,
-52,
-52,
-44,
-44,
-49,
-49,
-52,
-52,
-48,
-48,
-52,
-52,
-47,
-47,
-50,
-50,
-49,
-49,
-50,
-50,
-53,
-53,
-45,
-45,
-47,
-47,
-56,
-56,
-49,
-49,
-52,
-52,
-55,
-55,
-52,
-52,
-51,
-51,
-53,
-53,
-46,
-57,
-53,
-53,
-49,
