2-diodenkennlinien/data/ALL0019/A0019CH1.CSV

Memory Length,4000,
Trigger Level,1.63990e+01,
Source,CH1,
Probe,1.0X,
Vertical Units,V,
Vertical Scale,1.00000e+01,
Vertical Position,2.00000e+00,
Horizontal Units,S,
Horizontal Scale,1.00000e-02,
Horizontal Position,4.0000000e-04,
Horizontal Mode,Main,
Sampling Period,4.00000e-05,
Firmware,V1.14,
Time, ,
Mode,Fast,
Waveform Data,
42,
42,
42,
43,
43,
43,
43,
44,
44,
44,
44,
45,
45,
46,
46,
46,
46,
46,
46,
46,
46,
47,
47,
47,
47,
48,
48,
48,
48,
48,
48,
48,
48,
49,
49,
50,
50,
49,
49,
49,
49,
50,
50,
50,
50,
50,
50,
50,
50,
50,
50,
50,
50,
50,
50,
50,
50,
50,
50,
50,
50,
50,
50,
50,
50,
50,
50,
50,
50,
50,
50,
49,
49,
49,
49,
48,
48,
48,
48,
48,
48,
48,
48,
49,
49,
49,
49,
48,
48,
48,
48,
47,
47,
48,
48,
48,
48,
47,
47,
47,
47,
47,
47,
47,
47,
47,
47,
47,
47,
47,
47,
47,
47,
47,
47,
46,
46,
46,
46,
46,
46,
46,
46,
46,
46,
46,
46,
46,
46,
46,
46,
46,
46,
46,
46,
46,
46,
46,
46,
46,
46,
46,
46,
46,
46,
45,
45,
46,
46,
45,
45,
46,
46,
44,
44,
45,
45,
44,
44,
45,
45,
45,
45,
44,
44,
44,
44,
44,
44,
45,
45,
44,
44,
44,
44,
44,
44,
44,
44,
44,
44,
43,
43,
43,
43,
43,
43,
44,
44,
44,
44,
43,
43,
43,
43,
43,
43,
43,
43,
43,
43,
43,
43,
43,
43,
43,
43,
42,
42,
42,
42,
42,
42,
42,
42,
42,
42,
42,
42,
42,
42,
42,
42,
41,
41,
41,
41,
42,
42,
42,
42,
42,
42,
42,
42,
42,
42,
42,
42,
41,
41,
41,
41,
41,
41,
41,
41,
41,
41,
40,
40,
41,
41,
40,
40,
40,
40,
41,
41,
40,
40,
40,
40,
40,
40,
39,
39,
40,
40,
39,
39,
40,
40,
40,
40,
39,
39,
40,
40,
39,
39,
39,
39,
40,
40,
39,
39,
39,
39,
39,
39,
39,
39,
38,
38,
39,
39,
38,
38,
39,
39,
39,
39,
38,
38,
37,
37,
39,
39,
38,
38,
38,
38,
38,
38,
38,
38,
38,
38,
38,
38,
38,
38,
38,
38,
37,
37,
38,
38,
38,
38,
37,
37,
37,
37,
38,
38,
37,
37,
38,
38,
37,
37,
37,
37,
37,
37,
36,
36,
37,
37,
36,
36,
37,
37,
37,
37,
36,
36,
36,
36,
36,
36,
37,
37,
37,
37,
35,
35,
36,
36,
36,
36,
36,
36,
36,
36,
36,
36,
35,
35,
35,
35,
35,
35,
35,
35,
35,
35,
35,
35,
36,
36,
35,
35,
35,
35,
35,
35,
35,
35,
35,
35,
34,
34,
34,
34,
34,
34,
34,
34,
34,
34,
34,
34,
34,
34,
34,
34,
34,
34,
34,
34,
34,
34,
34,
34,
34,
34,
34,
34,
34,
34,
34,
34,
34,
34,
33,
33,
34,
34,
34,
34,
34,
34,
34,
34,
33,
33,
33,
33,
34,
34,
32,
32,
33,
33,
33,
33,
33,
33,
33,
33,
32,
32,
34,
34,
34,
34,
34,
34,
34,
34,
35,
35,
35,
35,
36,
36,
36,
36,
37,
37,
36,
36,
38,
38,
38,
38,
39,
39,
39,
39,
40,
40,
41,
41,
41,
41,
42,
42,
42,
42,
43,
43,
43,
43,
44,
44,
44,
44,
45,
45,
44,
44,
46,
46,
46,
46,
47,
47,
47,
47,
48,
48,
47,
47,
48,
48,
49,
49,
48,
48,
49,
49,
49,
49,
50,
50,
50,
50,
49,
49,
50,
50,
49,
49,
50,
50,
50,
50,
50,
50,
50,
50,
50,
50,
50,
50,
50,
50,
49,
49,
50,
50,
50,
50,
49,
49,
50,
50,
49,
49,
50,
50,
49,
49,
49,
49,
49,
49,
49,
49,
48,
48,
48,
48,
48,
48,
48,
48,
47,
47,
48,
48,
48,
48,
47,
47,
47,
47,
47,
47,
47,
47,
47,
47,
47,
47,
47,
47,
47,
47,
47,
47,
46,
46,
47,
47,
46,
46,
47,
47,
46,
46,
46,
46,
46,
46,
46,
46,
46,
46,
46,
46,
46,
46,
46,
46,
45,
45,
46,
46,
46,
46,
46,
46,
46,
46,
46,
46,
45,
45,
45,
45,
44,
44,
44,
44,
45,
45,
45,
45,
45,
45,
44,
44,
44,
44,
44,
44,
44,
44,
44,
44,
44,
44,
44,
44,
44,
44,
44,
44,
44,
44,
44,
44,
44,
44,
43,
43,
43,
43,
43,
43,
42,
42,
43,
43,
43,
43,
42,
42,
42,
42,
43,
43,
42,
42,
42,
42,
43,
43,
42,
42,
42,
42,
42,
42,
42,
42,
42,
42,
42,
42,
42,
42,
42,
42,
42,
42,
42,
42,
42,
42,
41,
41,
41,
41,
42,
42,
40,
40,
41,
41,
41,
41,
41,
41,
41,
41,
41,
41,
41,
41,
40,
40,
40,
40,
40,
40,
40,
40,
41,
41,
40,
40,
40,
40,
40,
40,
40,
40,
40,
40,
40,
40,
40,
40,
40,
40,
40,
40,
40,
40,
39,
39,
40,
40,
39,
39,
39,
39,
39,
39,
40,
40,
39,
39,
39,
39,
39,
39,
38,
38,
38,
38,
38,
38,
38,
38,
38,
38,
38,
38,
38,
38,
38,
38,
38,
38,
38,
38,
38,
38,
37,
37,
38,
38,
38,
38,
38,
38,
38,
38,
38,
38,
38,
38,
37,
37,
37,
37,
37,
37,
37,
37,
38,
38,
36,
36,
38,
38,
36,
36,
37,
37,
36,
36,
37,
37,
37,
37,
36,
36,
36,
36,
36,
36,
36,
36,
36,
36,
36,
36,
36,
36,
36,
36,
35,
35,
36,
36,
36,
36,
35,
35,
36,
36,
36,
36,
35,
35,
35,
35,
36,
36,
35,
35,
35,
35,
35,
35,
35,
35,
34,
34,
34,
34,
34,
34,
35,
35,
34,
34,
34,
34,
34,
34,
34,
34,
34,
34,
35,
35,
34,
34,
34,
34,
34,
34,
34,
34,
34,
34,
34,
34,
34,
34,
34,
34,
33,
33,
33,
33,
33,
33,
33,
33,
34,
34,
32,
32,
33,
33,
33,
33,
32,
32,
33,
33,
33,
33,
34,
34,
33,
33,
33,
33,
34,
34,
34,
34,
34,
34,
34,
34,
35,
35,
36,
36,
36,
36,
37,
37,
38,
38,
38,
38,
39,
39,
40,
40,
40,
40,
40,
40,
41,
41,
42,
42,
42,
42,
42,
42,
44,
44,
43,
43,
44,
44,
45,
45,
45,
45,
46,
46,
46,
46,
46,
46,
48,
48,
47,
47,
48,
48,
49,
49,
48,
48,
49,
49,
49,
49,
50,
50,
49,
49,
49,
49,
50,
50,
50,
50,
49,
49,
50,
50,
50,
50,
50,
50,
50,
50,
50,
50,
48,
48,
49,
49,
50,
50,
50,
50,
50,
50,
49,
49,
50,
50,
49,
49,
49,
49,
48,
48,
49,
49,
49,
49,
49,
49,
49,
49,
48,
48,
48,
48,
48,
48,
49,
49,
48,
48,
48,
48,
48,
48,
47,
47,
47,
47,
48,
48,
48,
48,
47,
47,
47,
47,
47,
47,
46,
46,
47,
47,
46,
46,
47,
47,
46,
46,
47,
47,
46,
46,
46,
46,
46,
46,
46,
46,
46,
46,
46,
46,
46,
46,
46,
46,
46,
46,
46,
46,
46,
46,
46,
46,
46,
46,
45,
45,
46,
46,
45,
45,
45,
45,
45,
45,
45,
45,
44,
44,
44,
44,
44,
44,
44,
44,
44,
44,
45,
45,
44,
44,
44,
44,
43,
43,
44,
44,
44,
44,
44,
44,
44,
44,
44,
44,
44,
44,
43,
43,
43,
43,
43,
43,
43,
43,
43,
43,
42,
42,
43,
43,
42,
42,
42,
42,
42,
42,
42,
42,
42,
42,
42,
42,
42,
42,
42,
42,
42,
42,
42,
42,
42,
42,
41,
41,
42,
42,
42,
42,
42,
42,
41,
41,
41,
41,
41,
41,
42,
42,
40,
40,
41,
41,
42,
42,
41,
41,
41,
41,
41,
41,
40,
40,
40,
40,
40,
40,
40,
40,
40,
40,
39,
39,
40,
40,
39,
39,
40,
40,
39,
39,
39,
39,
40,
40,
39,
39,
40,
40,
39,
39,
40,
40,
39,
39,
39,
39,
40,
40,
39,
39,
38,
38,
38,
38,
38,
38,
38,
38,
38,
38,
38,
38,
38,
38,
38,
38,
38,
38,
38,
38,
38,
38,
38,
38,
37,
37,
38,
38,
38,
38,
38,
38,
38,
38,
37,
37,
38,
38,
38,
38,
37,
37,
37,
37,
38,
38,
37,
37,
37,
37,
38,
38,
37,
37,
36,
36,
36,
36,
37,
37,
36,
36,
37,
37,
37,
37,
36,
36,
36,
36,
36,
36,
36,
36,
35,
35,
37,
37,
36,
36,
36,
36,
36,
36,
36,
36,
36,
36,
35,
35,
36,
36,
35,
35,
35,
35,
35,
35,
35,
35,
35,
35,
35,
35,
34,
34,
34,
34,
34,
34,
35,
35,
34,
34,
34,
34,
34,
34,
34,
34,
34,
34,
34,
34,
34,
34,
33,
33,
34,
34,
34,
34,
34,
34,
34,
34,
34,
34,
34,
34,
34,
34,
34,
34,
34,
34,
34,
34,
33,
33,
34,
34,
33,
33,
34,
34,
33,
33,
33,
33,
33,
33,
34,
34,
32,
32,
32,
32,
34,
34,
34,
34,
34,
34,
34,
34,
34,
34,
35,
35,
35,
35,
36,
36,
36,
36,
38,
38,
38,
38,
38,
38,
39,
39,
39,
39,
40,
40,
40,
40,
40,
40,
42,
42,
42,
42,
42,
42,
43,
43,
44,
44,
44,
44,
45,
45,
44,
44,
46,
46,
46,
46,
46,
46,
47,
47,
47,
47,
48,
48,
48,
48,
48,
48,
48,
48,
49,
49,
49,
49,
49,
49,
49,
49,
50,
50,
50,
50,
50,
50,
50,
50,
50,
50,
50,
50,
50,
50,
50,
50,
50,
50,
50,
50,
49,
49,
50,
50,
50,
50,
50,
50,
49,
49,
49,
49,
50,
50,
48,
48,
48,
48,
49,
49,
49,
49,
48,
48,
48,
48,
48,
48,
48,
48,
47,
47,
48,
48,
48,
48,
48,
48,
47,
47,
48,
48,
47,
47,
47,
47,
46,
46,
46,
46,
47,
47,
47,
47,
46,
46,
46,
46,
46,
46,
46,
46,
46,
46,
46,
46,
46,
46,
46,
46,
46,
46,
46,
46,
46,
46,
46,
46,
46,
46,
46,
46,
46,
46,
45,
45,
45,
45,
46,
46,
45,
45,
45,
45,
45,
45,
44,
44,
45,
45,
44,
44,
44,
44,
44,
44,
45,
45,
44,
44,
44,
44,
44,
44,
44,
44,
43,
43,
44,
44,
44,
44,
44,
44,
43,
43,
43,
43,
44,
44,
43,
43,
43,
43,
43,
43,
43,
43,
42,
42,
43,
43,
42,
42,
43,
43,
42,
42,
42,
42,
42,
42,
42,
42,
42,
42,
42,
42,
42,
42,
42,
42,
42,
42,
42,
42,
42,
42,
42,
42,
42,
42,
42,
42,
41,
41,
42,
42,
41,
41,
42,
42,
42,
42,
41,
41,
40,
40,
41,
41,
40,
40,
41,
41,
41,
41,
40,
40,
40,
40,
40,
40,
41,
41,
41,
41,
40,
40,
39,
39,
39,
39,
40,
40,
40,
40,
40,
40,
39,
39,
39,
39,
39,
39,
39,
39,
39,
39,
39,
39,
38,
38,
39,
39,
39,
39,
39,
39,
39,
39,
38,
38,
39,
39,
38,
38,
39,
39,
38,
38,
38,
38,
38,
38,
38,
38,
38,
38,
38,
38,
38,
38,
38,
38,
37,
37,
38,
38,
38,
38,
38,
38,
38,
38,
38,
38,
38,
38,
38,
38,
37,
37,
37,
37,
36,
36,
37,
37,
37,
37,
37,
37,
36,
36,
37,
37,
37,
37,
36,
36,
36,
36,
36,
36,
36,
36,
36,
36,
36,
36,
36,
36,
36,
36,
36,
36,
36,
36,
36,
36,
36,
36,
36,
36,
36,
36,
36,
36,
35,
35,
35,
35,
34,
34,
35,
35,
35,
35,
35,
35,
35,
35,
34,
34,
34,
34,
34,
34,
35,
35,
34,
34,
34,
34,
34,
34,
33,
33,
34,
34,
34,
34,
34,
34,
33,
33,
34,
34,
34,
34,
34,
34,
33,
33,
34,
34,
34,
34,
34,
34,
34,
34,
34,
34,
34,
34,
33,
33,
33,
33,
33,
33,
33,
33,
33,
33,
33,
33,
33,
33,
33,
33,
33,
33,
33,
33,
34,
34,
34,
34,
35,
35,
35,
35,
35,
35,
35,
35,
36,
36,
36,
36,
37,
37,
38,
38,
39,
39,
39,
39,
40,
40,
40,
40,
41,
41,
42,
42,
42,
42,
42,
42,
43,
43,
43,
43,
44,
44,
45,
45,
45,
45,
46,
46,
46,
46,
46,
46,
46,
46,
47,
47,
48,
48,
48,
48,
47,
47,
48,
48,
49,
49,
49,
49,
49,
49,
49,
49,
49,
49,
50,
50,
50,
50,
50,
50,
50,
50,
50,
50,
50,
50,
50,
50,
50,
50,
50,
50,
50,
50,
50,
50,
50,
50,
50,
50,
50,
50,
49,
49,
50,
50,
50,
50,
49,
49,
49,
49,
48,
48,
48,
48,
48,
48,
48,
48,
49,
49,
48,
48,
48,
48,
48,
48,
47,
47,
47,
47,
47,
47,
47,
47,
47,
47,
46,
46,
47,
47,
47,
47,
46,
46,
47,
47,
47,
47,
46,
46,
46,
46,
46,
46,
46,
46,
46,
46,
46,
46,
46,
46,
46,
46,
46,
46,
46,
46,
46,
46,
46,
46,
45,
45,
46,
46,
45,
45,
45,
45,
46,
46,
46,
46,
45,
45,
44,
44,
45,
45,
44,
44,
44,
44,
45,
45,
45,
45,
45,
45,
44,
44,
44,
44,
44,
44,
44,
44,
44,
44,
44,
44,
44,
44,
44,
44,
44,
44,
44,
44,
42,
42,
43,
43,
44,
44,
43,
43,
43,
43,
43,
43,
42,
42,
43,
43,
42,
42,
42,
42,
42,
42,
42,
42,
42,
42,
42,
42,
42,
42,
42,
42,
42,
42,
42,
42,
42,
42,
42,
42,
42,
42,
42,
42,
42,
42,
42,
42,
42,
42,
41,
41,
42,
42,
41,
41,
40,
40,
41,
41,
40,
40,
41,
41,
40,
40,
40,
40,
41,
41,
40,
40,
41,
41,
40,
40,
40,
40,
40,
40,
41,
41,
40,
40,
40,
40,
40,
40,
39,
39,
39,
39,
39,
39,
40,
40,
40,
40,
39,
39,
39,
39,
39,
39,
40,
40,
39,
39,
38,
38,
38,
38,
39,
39,
39,
39,
39,
39,
39,
39,
38,
38,
38,
38,
38,
38,
38,
38,
38,
38,
37,
37,
38,
38,
38,
38,
38,
38,
38,
38,
38,
38,
38,
38,
38,
38,
38,
38,
37,
37,
37,
37,
38,
38,
37,
37,
37,
37,
37,
37,
37,
37,
37,
37,
37,
37,
37,
37,
36,
36,
36,
36,
36,
36,
36,
36,
36,
36,
36,
36,
36,
36,
36,
36,
36,
36,
36,
36,
35,
35,
36,
36,
35,
35,
36,
36,
35,
35,
36,
36,
36,
36,
35,
35,
36,
36,
35,
35,
35,
35,
35,
35,
35,
35,
35,
35,
35,
35,
35,
35,
34,
34,
34,
34,
34,
34,
34,
34,
34,
34,
34,
34,
34,
34,
34,
34,
34,
34,
33,
33,
34,
34,
34,
34,
34,
34,
33,
33,
34,
34,
33,
33,
34,
34,
34,
34,
33,
33,
34,
34,
34,
34,
33,
33,
32,
32,
33,
33,
33,
33,
33,
33,
33,
33,
33,
33,
32,
32,
33,
33,
34,
34,
35,
35,
35,
35,
35,
35,
36,
36,
36,
36,
37,
37,
38,
38,
38,
38,
38,
38,
39,
39,
39,
39,
39,
39,
41,
41,
41,
41,
42,
42,
42,
42,
43,
43,
43,
43,
44,
44,
44,
44,
45,
45,
44,
44,
46,
46,
46,
46,
47,
47,
46,
46,
48,
48,
47,
47,
48,
48,
48,
48,
48,
48,
50,
50,
48,
48,
50,
50,
50,
50,
50,
50,
50,
50,
50,
50,
50,
50,
50,
50,
50,
50,
50,
50,
50,
50,
50,
50,
50,
50,
50,
50,
49,
49,
49,
49,
49,
49,
49,
49,
50,
50,
50,
50,
49,
49,
49,
49,
49,
49,
48,
48,
48,
48,
49,
49,
48,
48,
48,
48,
48,
48,
49,
49,
48,
48,
48,
48,
48,
48,
47,
47,
47,
47,
47,
47,
47,
47,
47,
47,
48,
48,
46,
46,
47,
47,
47,
47,
47,
47,
46,
46,
46,
46,
46,
46,
46,
46,
46,
46,
46,
46,
46,
46,
46,
46,
46,
46,
46,
46,
46,
46,
46,
46,
46,
46,
46,
46,
45,
45,
45,
45,
46,
46,
45,
45,
45,
45,
46,
46,
45,
45,
44,
44,
45,
45,
44,
44,
44,
44,
44,
44,
44,
44,
44,
44,
43,
43,
44,
44,
44,
44,
45,
45,
44,
44,
43,
43,
43,
43,
42,
42,
42,
42,
43,
43,
43,
43,
43,
43,
43,
43,
42,
42,
43,
43,
42,
42,
42,
42,
42,
42,
42,
42,
42,
42,
42,
42,
42,
42,
42,
42,
42,
42,
42,
42,
42,
42,
42,
42,
42,
42,
41,
41,
41,
41,
42,
42,
41,
41,
41,
41,
41,
41,
41,
41,
41,
41,
41,
41,
41,
41,
40,
40,
40,
40,
40,
40,
40,
40,
40,
40,
40,
40,
40,
40,
40,
40,
40,
40,
39,
39,
40,
40,
39,
39,
39,
39,
40,
40,
40,
40,
39,
39,
39,
39,
39,
39,
39,
39,
39,
39,
39,
39,
38,
38,
39,
39,
39,
39,
38,
38,
39,
39,
38,
38,
38,
38,
38,
38,
38,
38,
38,
38,
38,
38,
38,
38,
37,
37,
39,
39,
38,
38,
38,
38,
38,
38,
38,
38,
38,
38,
37,
37,
37,
37,
37,
37,
37,
37,
37,
37,
37,
37,
38,
38,
37,
37,
38,
38,
37,
37,
36,
36,
38,
38,
36,
36,
38,
38,
36,
36,
36,
36,
37,
37,
36,
36,
36,
36,
36,
36,
35,
35,
36,
36,
36,
36,
36,
36,
35,
35,
36,
36,
36,
36,
35,
35,
34,
34,
35,
35,
35,
35,
35,
35,
34,
34,
34,
34,
35,
35,
34,
34,
35,
35,
34,
34,
34,
34,
34,
34,
34,
34,
35,
35,
34,
34,
34,
34,
34,
34,
34,
34,
34,
34,
34,
34,
34,
34,
34,
34,
34,
34,
34,
34,
33,
33,
34,
34,
34,
34,
34,
34,
33,
33,
32,
32,
33,
33,
33,
33,
33,
33,
33,
33,
33,
33,
33,
33,
32,
32,
33,
33,
34,
34,
34,
34,
34,
34,
34,
34,
34,
34,
36,
36,
36,
36,
36,
36,
37,
37,
37,
37,
38,
38,
38,
38,
39,
39,
40,
40,
40,
40,
41,
41,
41,
41,
42,
42,
42,
42,
42,
42,
44,
44,
44,
44,
44,
44,
44,
44,
46,
46,
46,
46,
46,
46,
46,
46,
47,
47,
48,
48,
47,
47,
48,
48,
48,
48,
49,
49,
49,
49,
50,
50,
50,
50,
49,
49,
50,
50,
50,
50,
50,
50,
50,
50,
50,
50,
50,
50,
50,
50,
50,
50,
50,
50,
49,
49,
50,
50,
50,
50,
49,
49,
50,
50,
50,
50,
49,
49,
49,
49,
48,
48,
49,
49,
48,
48,
49,
49,
48,
48,
48,
48,
49,
49,
48,
48,
48,
48,
48,
48,
48,
48,
47,
47,
47,
47,
47,
47,
47,
47,
47,
47,
48,
48,
47,
47,
47,
47,
47,
47,
46,
46,
46,
46,
46,
46,
46,
46,
47,
47,
46,
46,
46,
46,
46,
46,
46,
46,
47,
47,
46,
46,
46,
46,
46,
46,
46,
46,
46,
46,
45,
45,
46,
46,
46,
46,
45,
45,
45,
45,
45,
45,
45,
45,
44,
44,
44,
44,
44,
44,
45,
45,
44,
44,
44,
44,
45,
45,
44,
44,
44,
44,
43,
43,
44,
44,
43,
43,
43,
43,
44,
44,
43,
43,
43,
43,
43,
43,
43,
43,
43,
43,
42,
42,
43,
43,
43,
43,
42,
42,
42,
42,
43,
43,
42,
42,
42,
42,
42,
42,
42,
42,
42,
42,
42,
42,
42,
42,
42,
42,
42,
42,
42,
42,
42,
42,
42,
42,
42,
42,
42,
42,
42,
42,
41,
41,
41,
41,
42,
42,
41,
41,
42,
42,
41,
41,
40,
40,
41,
41,
40,
40,
40,
40,
40,
40,
40,
40,
40,
40,
40,
40,
40,
40,
40,
40,
40,
40,
40,
40,
40,
40,
40,
40,
40,
40,
39,
39,
39,
39,
39,
39,
39,
39,
39,
39,
39,
39,
39,
39,
40,
40,
38,
38,
39,
39,
39,
39,
38,
38,
38,
38,
38,
38,
38,
38,
38,
38,
38,
38,
38,
38,
37,
37,
38,
38,
38,
38,
38,
38,
38,
38,
38,
38,
38,
38,
38,
38,
38,
38,
38,
38,
38,
38,
37,
37,
37,
37,
37,
37,
36,
36,
37,
37,
37,
37,
38,
38,
36,
36,
36,
36,
36,
36,
37,
37,
36,
36,
35,
35,
36,
36,
35,
35,
36,
36,
35,
35,
36,
36,
36,
36,
36,
36,
36,
36,
35,
35,
36,
36,
35,
35,
35,
35,
35,
35,
35,
35,
34,
34,
35,
35,
35,
35,
34,
34,
35,
35,
35,
35,
34,
34,
35,
35,
35,
35,
35,
35,
34,
34,
34,
34,
34,
34,
34,
34,
34,
34,
34,
34,
34,
34,
34,
34,
34,
34,
34,
34,
34,
34,
34,
34,
34,
34,
34,
34,
33,
33,
32,
32,
33,
33,
33,
33,
33,
33,
33,
33,
33,
33,
33,
33,
33,
33,
33,
33,
32,
32,
33,
33,
33,
33,
34,
34,
34,
34,
35,
35,
35,
35,
35,
35,
36,
36,
36,
36,
36,
36,
37,
37,
38,
38,
38,
38,
39,
39,
40,
40,
40,
40,
41,
41,
42,
42,
41,
41,
42,
42,
42,
42,
44,
44,
44,
44,
45,
45,
45,
45,
45,
45,
45,
45,
46,
46,
47,
47,
47,
47,
48,
48,
48,
48,
48,
48,
49,
49,
48,
48,
49,
49,
50,
50,
49,
49,
50,
50,
50,
50,
50,
50,
50,
50,
50,
50,
50,
50,
50,
50,
50,
50,
50,
50,
50,
50,
50,
50,
49,
49,
49,
49,
50,
50,
50,
50,
50,
50,
49,
49,
49,
49,
49,
49,
49,
49,
48,
48,
48,
48,
48,
48,
48,
48,
48,
48,
47,
47,
48,
48,
47,
47,
48,
48,
48,
48,
48,
48,
47,
47,
47,
47,
46,
46,
47,
47,
47,
47,
47,
47,
47,
47,
46,
46,
46,
46,
46,
46,
46,
46,
46,
46,
46,
46,
46,
46,
46,
46,
46,
46,
46,
46,
46,
46,
46,
46,
46,
46,
46,
46,
46,
46,
46,
46,
45,
45,
45,
45,
46,
46,
45,
45,
44,
44,
45,
45,
44,
44,
44,
44,
44,
44,
46,
46,
44,
44,
45,
45,
44,
44,
44,
44,
44,
44,
44,
44,
44,
44,
43,
43,
44,
44,
44,
44,
44,
44,
43,
43,
42,
42,
43,
43,
43,
43,
43,
43,
43,
43,
42,
42,
42,
42,
42,
42,
42,
42,
42,
42,
42,
42,
42,
42,
42,
42,
42,
42,
42,
42,
42,
42,
42,
42,
42,
42,
42,
42,
42,
42,
42,
42,
41,
41,
42,
42,
42,
42,
41,
41,
42,
42,
42,
42,
41,
41,
41,
41,
40,
40,
41,
41,
40,
40,
40,
40,
41,
41,
40,
40,
39,
39,
40,
40,
40,
40,
39,
39,
40,
40,
39,
39,
40,
40,
40,
40,
40,
40,
40,
40,
39,
39,
39,
39,
40,
40,
39,
39,
39,
39,
39,
39,
39,
39,
38,
38,
39,
39,
38,
38,
38,
38,
38,
38,
39,
39,
38,
38,
38,
38,
38,
38,
38,
38,
38,
38,
38,
38,
38,
38,
38,
38,
37,
37,
38,
38,
38,
38,
38,
38,
38,
38,
38,
38,
37,
37,
37,
37,
36,
36,
36,
36,
37,
37,
37,
37,
37,
37,
36,
36,
37,
37,
37,
37,
37,
37,
37,
37,
38,
38,
36,
36,
36,
36,
37,
37,
37,
37,
36,
36,
36,
36,
36,
36,
36,
36,
36,
36,
35,
35,
34,
34,
35,
35,
35,
35,
34,
34,
34,
34,
35,
35,
35,
35,
35,
35,
35,
35,
34,
34,
35,
35,
35,
35,
35,
35,
34,
34,
34,
34,
34,
34,
34,
34,
34,
34,
34,
34,
34,
34,
34,
34,
34,
34,
34,
34,
34,
34,
34,
34,
33,
33,
33,
33,
33,
33,
34,
34,
34,
34,
34,
34,
33,
33,
34,
34,
33,
33,
33,
33,
34,
34,
33,
33,
33,
33,
33,
33,
33,
33,
33,
33,
33,
33,
34,
34,
33,
33,
34,
34,
34,
34,
35,
35,
36,
36,
36,
36,
37,
37,
37,
37,
38,
38,
38,
38,
38,
38,
39,
39,
39,
39,
40,
40,
41,
41,
42,
42,
42,
