5-grundlagen-opAmps/data/ALL0080/A0080CH1.CSV

Memory Length,4000,
Trigger Level,2.00000e+01,
Source,CH1,
Probe,1.0X,
Vertical Units,V,
Vertical Scale,5.00000e-01,
Vertical Position,0.00000e+00,
Horizontal Units,S,
Horizontal Scale,5.00000e-03,
Horizontal Position,0.0000000e+00,
Horizontal Mode,Main,
Sampling Period,2.00000e-05,
Firmware,V1.14,
Time, ,
Mode,Fast,
Waveform Data,
39,
39,
39,
40,
40,
39,
39,
38,
38,
38,
38,
38,
38,
40,
40,
38,
38,
38,
38,
38,
38,
38,
38,
38,
38,
40,
40,
37,
37,
40,
40,
38,
38,
38,
38,
37,
37,
37,
37,
37,
37,
37,
37,
37,
37,
38,
38,
38,
38,
38,
38,
38,
38,
37,
37,
38,
38,
38,
38,
37,
37,
37,
37,
38,
38,
37,
37,
38,
38,
38,
38,
37,
37,
37,
37,
39,
39,
38,
38,
37,
37,
38,
38,
38,
38,
38,
38,
38,
38,
37,
37,
37,
37,
39,
39,
37,
37,
37,
37,
37,
37,
38,
38,
37,
37,
37,
37,
37,
37,
38,
38,
37,
37,
38,
38,
38,
38,
38,
38,
38,
38,
38,
38,
37,
37,
37,
37,
38,
38,
37,
37,
37,
37,
37,
37,
38,
38,
37,
37,
37,
37,
36,
36,
39,
39,
37,
37,
37,
37,
37,
37,
38,
38,
38,
38,
37,
37,
37,
37,
37,
37,
37,
37,
37,
37,
38,
38,
38,
38,
37,
37,
37,
37,
38,
38,
37,
37,
38,
38,
37,
37,
38,
38,
37,
37,
38,
38,
37,
37,
38,
38,
37,
37,
38,
38,
37,
37,
38,
38,
38,
38,
37,
37,
37,
37,
38,
38,
38,
38,
37,
37,
38,
38,
37,
37,
37,
37,
38,
38,
38,
38,
38,
38,
38,
38,
39,
39,
38,
38,
38,
38,
39,
39,
39,
39,
39,
39,
37,
37,
39,
-48,
-47,
-47,
-46,
-46,
-45,
-45,
-46,
-46,
-46,
-46,
-45,
-45,
-46,
-46,
-44,
-44,
-45,
-45,
-45,
-45,
-45,
-45,
-45,
-45,
-45,
-45,
-45,
-45,
-47,
-47,
-45,
-45,
-45,
-45,
-44,
-44,
-45,
-45,
-46,
-46,
-45,
-45,
-45,
-45,
-45,
-45,
-45,
-45,
-45,
-45,
-45,
-45,
-45,
-45,
-44,
-44,
-45,
-45,
-44,
-44,
-45,
-45,
-45,
-45,
-45,
-45,
-44,
-44,
-44,
-44,
-45,
-45,
-44,
-44,
-46,
-46,
-45,
-45,
-45,
-45,
-45,
-45,
-45,
-45,
-45,
-45,
-45,
-45,
-44,
-44,
-45,
-45,
-45,
-45,
-45,
-45,
-44,
-44,
-45,
-45,
-44,
-44,
-44,
-44,
-44,
-44,
-44,
-44,
-45,
-45,
-45,
-45,
-46,
-46,
-44,
-44,
-44,
-44,
-45,
-45,
-45,
-45,
-45,
-45,
-44,
-44,
-45,
-45,
-44,
-44,
-44,
-44,
-46,
-46,
-45,
-45,
-45,
-45,
-44,
-44,
-44,
-44,
-46,
-46,
-44,
-44,
-45,
-45,
-45,
-45,
-44,
-44,
-44,
-44,
-45,
-45,
-44,
-44,
-44,
-44,
-45,
-45,
-45,
-45,
-45,
-45,
-45,
-45,
-45,
-45,
-45,
-45,
-45,
-45,
-45,
-45,
-45,
-45,
-44,
-44,
-44,
-44,
-45,
-45,
-46,
-46,
-45,
-45,
-45,
-45,
-45,
-45,
-45,
-45,
-45,
-45,
-45,
-45,
-44,
-44,
-45,
-45,
-45,
-45,
-45,
-45,
-45,
-45,
-45,
-45,
-45,
-45,
-45,
-45,
-44,
-44,
-46,
-46,
-44,
-44,
-46,
-46,
-45,
-45,
-45,
-45,
-46,
-46,
-44,
-44,
-45,
-45,
-45,
-45,
-45,
-45,
-45,
-45,
-45,
-45,
-46,
-46,
-46,
41,
38,
38,
39,
39,
40,
40,
39,
39,
39,
39,
38,
38,
39,
39,
40,
40,
38,
38,
38,
38,
40,
40,
38,
38,
38,
38,
39,
39,
39,
39,
39,
39,
38,
38,
39,
39,
38,
38,
38,
38,
37,
37,
38,
38,
38,
38,
37,
37,
37,
37,
37,
37,
37,
37,
37,
37,
38,
38,
37,
37,
37,
37,
38,
38,
37,
37,
38,
38,
38,
38,
37,
37,
38,
38,
39,
39,
37,
37,
37,
37,
39,
39,
38,
38,
37,
37,
37,
37,
37,
37,
38,
38,
37,
37,
38,
38,
38,
38,
38,
38,
37,
37,
38,
38,
37,
37,
37,
37,
37,
37,
37,
37,
38,
38,
38,
38,
38,
38,
37,
37,
37,
37,
37,
37,
38,
38,
38,
38,
38,
38,
38,
38,
38,
38,
38,
38,
37,
37,
37,
37,
37,
37,
38,
38,
38,
38,
37,
37,
39,
39,
37,
37,
37,
37,
38,
38,
37,
37,
38,
38,
39,
39,
38,
38,
38,
38,
38,
38,
37,
37,
38,
38,
37,
37,
37,
37,
37,
37,
38,
38,
38,
38,
38,
38,
37,
37,
37,
37,
38,
38,
37,
37,
37,
37,
38,
38,
38,
38,
40,
40,
38,
38,
37,
37,
38,
38,
38,
38,
38,
38,
37,
37,
38,
38,
38,
38,
37,
37,
38,
38,
38,
38,
37,
37,
39,
39,
39,
39,
37,
37,
39,
39,
38,
38,
38,
38,
38,
38,
38,
38,
37,
37,
38,
38,
39,
39,
38,
38,
39,
39,
37,
37,
38,
38,
39,
-47,
-46,
-46,
-47,
-47,
-46,
-46,
-46,
-46,
-47,
-47,
-46,
-46,
-46,
-46,
-47,
-47,
-46,
-46,
-46,
-46,
-46,
-46,
-45,
-45,
-46,
-46,
-45,
-45,
-46,
-46,
-46,
-46,
-47,
-47,
-44,
-44,
-45,
-45,
-46,
-46,
-46,
-46,
-46,
-46,
-45,
-45,
-45,
-45,
-45,
-45,
-45,
-45,
-45,
-45,
-45,
-45,
-44,
-44,
-45,
-45,
-45,
-45,
-45,
-45,
-45,
-45,
-45,
-45,
-45,
-45,
-44,
-44,
-45,
-45,
-44,
-44,
-45,
-45,
-45,
-45,
-45,
-45,
-44,
-44,
-45,
-45,
-44,
-44,
-45,
-45,
-44,
-44,
-45,
-45,
-44,
-44,
-45,
-45,
-45,
-45,
-45,
-45,
-45,
-45,
-44,
-44,
-45,
-45,
-45,
-45,
-44,
-44,
-45,
-45,
-44,
-44,
-44,
-44,
-45,
-45,
-44,
-44,
-45,
-45,
-45,
-45,
-44,
-44,
-45,
-45,
-44,
-44,
-44,
-44,
-45,
-45,
-45,
-45,
-44,
-44,
-45,
-45,
-44,
-44,
-45,
-45,
-45,
-45,
-44,
-44,
-44,
-44,
-45,
-45,
-45,
-45,
-44,
-44,
-45,
-45,
-45,
-45,
-44,
-44,
-44,
-44,
-45,
-45,
-45,
-45,
-44,
-44,
-45,
-45,
-45,
-45,
-45,
-45,
-44,
-44,
-44,
-44,
-45,
-45,
-46,
-46,
-45,
-45,
-44,
-44,
-45,
-45,
-45,
-45,
-44,
-44,
-44,
-44,
-46,
-46,
-45,
-45,
-47,
-47,
-44,
-44,
-44,
-44,
-45,
-45,
-45,
-45,
-45,
-45,
-44,
-44,
-45,
-45,
-45,
-45,
-45,
-45,
-45,
-45,
-45,
-45,
-45,
-45,
-45,
-45,
-45,
-45,
-47,
-47,
-44,
-44,
-46,
-46,
-45,
-45,
-46,
-46,
-45,
41,
40,
40,
39,
39,
40,
40,
39,
39,
39,
39,
40,
40,
39,
39,
39,
39,
39,
39,
37,
37,
39,
39,
38,
38,
38,
38,
39,
39,
39,
39,
38,
38,
38,
38,
38,
38,
38,
38,
38,
38,
38,
38,
38,
38,
37,
37,
37,
37,
37,
37,
38,
38,
37,
37,
37,
37,
38,
38,
38,
38,
37,
37,
38,
38,
37,
37,
37,
37,
39,
39,
38,
38,
38,
38,
37,
37,
38,
38,
39,
39,
37,
37,
37,
37,
37,
37,
37,
37,
37,
37,
37,
37,
37,
37,
36,
36,
38,
38,
37,
37,
38,
38,
38,
38,
36,
36,
38,
38,
39,
39,
37,
37,
37,
37,
37,
37,
37,
37,
38,
38,
37,
37,
38,
38,
39,
39,
38,
38,
37,
37,
38,
38,
37,
37,
37,
37,
37,
37,
37,
37,
37,
37,
37,
37,
37,
37,
37,
37,
37,
37,
38,
38,
37,
37,
37,
37,
37,
37,
38,
38,
39,
39,
38,
38,
37,
37,
37,
37,
37,
37,
38,
38,
37,
37,
38,
38,
38,
38,
37,
37,
38,
38,
37,
37,
37,
37,
36,
36,
37,
37,
38,
38,
38,
38,
37,
37,
38,
38,
37,
37,
38,
38,
37,
37,
38,
38,
39,
39,
37,
37,
38,
38,
38,
38,
39,
39,
38,
38,
38,
38,
38,
38,
37,
37,
39,
39,
38,
38,
37,
37,
37,
37,
38,
38,
38,
38,
37,
37,
38,
38,
38,
38,
37,
37,
38,
38,
38,
38,
36,
36,
39,
39,
38,
38,
37,
-47,
-46,
-46,
-45,
-45,
-45,
-45,
-45,
-45,
-46,
-46,
-47,
-47,
-47,
-47,
-46,
-46,
-45,
-45,
-46,
-46,
-45,
-45,
-45,
-45,
-46,
-46,
-45,
-45,
-46,
-46,
-45,
-45,
-45,
-45,
-45,
-45,
-46,
-46,
-44,
-44,
-45,
-45,
-45,
-45,
-45,
-45,
-45,
-45,
-45,
-45,
-45,
-45,
-44,
-44,
-45,
-45,
-45,
-45,
-45,
-45,
-45,
-45,
-44,
-44,
-45,
-45,
-45,
-45,
-45,
-45,
-45,
-45,
-44,
-44,
-45,
-45,
-45,
-45,
-45,
-45,
-45,
-45,
-44,
-44,
-45,
-45,
-45,
-45,
-44,
-44,
-44,
-44,
-45,
-45,
-45,
-45,
-44,
-44,
-46,
-46,
-45,
-45,
-44,
-44,
-44,
-44,
-44,
-44,
-45,
-45,
-45,
-45,
-45,
-45,
-44,
-44,
-45,
-45,
-44,
-44,
-45,
-45,
-45,
-45,
-45,
-45,
-45,
-45,
-44,
-44,
-45,
-45,
-45,
-45,
-44,
-44,
-45,
-45,
-44,
-44,
-44,
-44,
-45,
-45,
-44,
-44,
-44,
-44,
-45,
-45,
-46,
-46,
-45,
-45,
-45,
-45,
-44,
-44,
-45,
-45,
-44,
-44,
-45,
-45,
-44,
-44,
-44,
-44,
-45,
-45,
-44,
-44,
-45,
-45,
-45,
-45,
-45,
-45,
-44,
-44,
-45,
-45,
-45,
-45,
-46,
-46,
-46,
-46,
-46,
-46,
-45,
-45,
-45,
-45,
-45,
-45,
-45,
-45,
-45,
-45,
-45,
-45,
-44,
-44,
-45,
-45,
-45,
-45,
-45,
-45,
-45,
-45,
-45,
-45,
-45,
-45,
-47,
-47,
-45,
-45,
-46,
-46,
-45,
-45,
-45,
-45,
-45,
-45,
-45,
-45,
-45,
-45,
-45,
-45,
-45,
-45,
-45,
-45,
-45,
-45,
-45,
-45,
-46,
40,
39,
39,
38,
38,
38,
38,
39,
39,
38,
38,
38,
38,
39,
39,
39,
39,
39,
39,
40,
40,
39,
39,
38,
38,
38,
38,
38,
38,
37,
37,
39,
39,
39,
39,
38,
38,
38,
38,
38,
38,
38,
38,
38,
38,
38,
38,
39,
39,
37,
37,
39,
39,
38,
38,
37,
37,
39,
39,
38,
38,
38,
38,
39,
39,
37,
37,
37,
37,
37,
37,
37,
37,
40,
40,
38,
38,
38,
38,
38,
38,
38,
38,
37,
37,
37,
37,
37,
37,
37,
37,
37,
37,
36,
36,
37,
37,
37,
37,
39,
39,
37,
37,
37,
37,
38,
38,
37,
37,
36,
36,
38,
38,
38,
38,
37,
37,
37,
37,
37,
37,
38,
38,
38,
38,
39,
39,
39,
39,
38,
38,
37,
37,
38,
38,
37,
37,
38,
38,
38,
38,
37,
37,
38,
38,
37,
37,
37,
37,
38,
38,
38,
38,
37,
37,
37,
37,
37,
37,
37,
37,
38,
38,
39,
39,
37,
37,
38,
38,
38,
38,
37,
37,
37,
37,
38,
38,
38,
38,
38,
38,
39,
39,
38,
38,
37,
37,
37,
37,
37,
37,
37,
37,
38,
38,
37,
37,
38,
38,
37,
37,
37,
37,
38,
38,
38,
38,
37,
37,
37,
37,
38,
38,
38,
38,
38,
38,
38,
38,
37,
37,
37,
37,
38,
38,
37,
37,
37,
37,
37,
37,
37,
37,
37,
37,
38,
38,
39,
39,
38,
38,
38,
38,
37,
37,
39,
39,
37,
37,
39,
39,
37,
37,
37,
37,
37,
-47,
-46,
-46,
-46,
-46,
-46,
-46,
-46,
-46,
-47,
-47,
-47,
-47,
-46,
-46,
-47,
-47,
-47,
-47,
-45,
-45,
-45,
-45,
-47,
-47,
-46,
-46,
-46,
-46,
-45,
-45,
-45,
-45,
-45,
-45,
-45,
-45,
-45,
-45,
-46,
-46,
-47,
-47,
-45,
-45,
-45,
-45,
-45,
-45,
-46,
-46,
-46,
-46,
-46,
-46,
-45,
-45,
-45,
-45,
-45,
-45,
-45,
-45,
-45,
-45,
-45,
-45,
-46,
-46,
-44,
-44,
-46,
-46,
-45,
-45,
-45,
-45,
-45,
-45,
-46,
-46,
-45,
-45,
-45,
-45,
-45,
-45,
-45,
-45,
-45,
-45,
-45,
-45,
-44,
-44,
-45,
-45,
-45,
-45,
-45,
-45,
-45,
-45,
-45,
-45,
-45,
-45,
-44,
-44,
-47,
-47,
-45,
-45,
-45,
-45,
-44,
-44,
-45,
-45,
-46,
-46,
-44,
-44,
-45,
-45,
-46,
-46,
-44,
-44,
-44,
-44,
-45,
-45,
-44,
-44,
-45,
-45,
-45,
-45,
-46,
-46,
-45,
-45,
-45,
-45,
-45,
-45,
-45,
-45,
-45,
-45,
-46,
-46,
-45,
-45,
-46,
-46,
-45,
-45,
-45,
-45,
-44,
-44,
-45,
-45,
-45,
-45,
-44,
-44,
-45,
-45,
-46,
-46,
-45,
-45,
-45,
-45,
-45,
-45,
-44,
-44,
-45,
-45,
-45,
-45,
-45,
-45,
-45,
-45,
-44,
-44,
-44,
-44,
-44,
-44,
-45,
-45,
-45,
-45,
-46,
-46,
-45,
-45,
-45,
-45,
-46,
-46,
-45,
-45,
-45,
-45,
-45,
-45,
-45,
-45,
-46,
-46,
-44,
-44,
-46,
-46,
-45,
-45,
-46,
-46,
-45,
-45,
-45,
-45,
-46,
-46,
-45,
-45,
-46,
-46,
-46,
-46,
-46,
-46,
-45,
-45,
-45,
-45,
-45,
41,
38,
38,
38,
38,
40,
40,
39,
39,
39,
39,
40,
40,
39,
39,
40,
40,
38,
38,
40,
40,
38,
38,
39,
39,
38,
38,
39,
39,
39,
39,
37,
37,
38,
38,
38,
38,
38,
38,
37,
37,
38,
38,
37,
37,
37,
37,
38,
38,
38,
38,
38,
38,
39,
39,
38,
38,
38,
38,
37,
37,
38,
38,
38,
38,
38,
38,
38,
38,
37,
37,
38,
38,
39,
39,
36,
36,
37,
37,
38,
38,
37,
37,
38,
38,
38,
38,
37,
37,
38,
38,
37,
37,
37,
37,
36,
36,
38,
38,
37,
37,
39,
39,
38,
38,
38,
38,
37,
37,
37,
37,
37,
37,
39,
39,
38,
38,
37,
37,
37,
37,
38,
38,
37,
37,
38,
38,
37,
37,
36,
36,
39,
39,
39,
39,
38,
38,
38,
38,
38,
38,
38,
38,
37,
37,
38,
38,
39,
39,
39,
39,
38,
38,
38,
38,
37,
37,
38,
38,
38,
38,
37,
37,
37,
37,
38,
38,
38,
38,
37,
37,
37,
37,
38,
38,
38,
38,
38,
38,
37,
37,
39,
39,
37,
37,
36,
36,
38,
38,
37,
37,
37,
37,
37,
37,
38,
38,
37,
37,
38,
38,
38,
38,
38,
38,
37,
37,
39,
39,
39,
39,
37,
37,
38,
38,
37,
37,
38,
38,
38,
38,
37,
37,
37,
37,
37,
37,
37,
37,
37,
37,
38,
38,
38,
38,
39,
39,
38,
38,
38,
38,
38,
38,
38,
38,
37,
37,
40,
40,
37,
37,
37,
37,
39,
39,
39,
-48,
-46,
-46,
-46,
-46,
-44,
-44,
-45,
-45,
-45,
-45,
-46,
-46,
-46,
-46,
-46,
-46,
-46,
-46,
-46,
-46,
-47,
-47,
-45,
-45,
-46,
-46,
-45,
-45,
-45,
-45,
-46,
-46,
-44,
-44,
-46,
-46,
-45,
-45,
-46,
-46,
-45,
-45,
-45,
-45,
-45,
-45,
-45,
-45,
-45,
-45,
-44,
-44,
-44,
-44,
-45,
-45,
-45,
-45,
-44,
-44,
-45,
-45,
-45,
-45,
-45,
-45,
-45,
-45,
-45,
-45,
-45,
-45,
-44,
-44,
-44,
-44,
-44,
-44,
-44,
-44,
-45,
-45,
-45,
-45,
-45,
-45,
-45,
-45,
-45,
-45,
-45,
-45,
-45,
-45,
-45,
-45,
-45,
-45,
-45,
-45,
-44,
-44,
-44,
-44,
-44,
-44,
-45,
-45,
-44,
-44,
-45,
-45,
-45,
-45,
-44,
-44,
-45,
-45,
-44,
-44,
-45,
-45,
-44,
-44,
-45,
-45,
-45,
-45,
-44,
-44,
-45,
-45,
-44,
-44,
-44,
-44,
-45,
-45,
-45,
-45,
-45,
-45,
-45,
-45,
-44,
-44,
-45,
-45,
-45,
-45,
-45,
-45,
-45,
-45,
-45,
-45,
-45,
-45,
-45,
-45,
-44,
-44,
-45,
-45,
-45,
-45,
-44,
-44,
-46,
-46,
-45,
-45,
-45,
-45,
-45,
-45,
-44,
-44,
-44,
-44,
-44,
-44,
-47,
-47,
-45,
-45,
-45,
-45,
-46,
-46,
-46,
-46,
-45,
-45,
-44,
-44,
-46,
-46,
-45,
-45,
-45,
-45,
-45,
-45,
-45,
-45,
-44,
-44,
-45,
-45,
-46,
-46,
-46,
-46,
-46,
-46,
-45,
-45,
-45,
-45,
-46,
-46,
-45,
-45,
-47,
-47,
-45,
-45,
-46,
-46,
-45,
-45,
-45,
-45,
-45,
-45,
-45,
-45,
-47,
-47,
-46,
-46,
-45,
40,
39,
39,
37,
37,
39,
39,
39,
39,
40,
40,
37,
37,
39,
39,
37,
37,
39,
39,
38,
38,
38,
38,
39,
39,
38,
38,
39,
39,
38,
38,
38,
38,
38,
38,
38,
38,
38,
38,
37,
37,
37,
37,
37,
37,
37,
37,
37,
37,
37,
37,
39,
39,
37,
37,
38,
38,
39,
39,
38,
38,
37,
37,
37,
37,
38,
38,
39,
39,
38,
38,
38,
38,
38,
38,
38,
38,
38,
38,
37,
37,
37,
37,
38,
38,
39,
39,
37,
37,
38,
38,
37,
37,
39,
39,
37,
37,
37,
37,
38,
38,
38,
38,
38,
38,
38,
38,
38,
38,
37,
37,
38,
38,
38,
38,
36,
36,
38,
38,
37,
37,
37,
37,
38,
38,
37,
37,
38,
38,
36,
36,
38,
38,
37,
37,
37,
37,
36,
36,
38,
38,
37,
37,
38,
38,
37,
37,
38,
38,
39,
39,
37,
37,
37,
37,
38,
38,
37,
37,
38,
38,
37,
37,
37,
37,
37,
37,
37,
37,
38,
38,
37,
37,
37,
37,
38,
38,
38,
38,
37,
37,
37,
37,
37,
37,
38,
38,
38,
38,
37,
37,
38,
38,
38,
38,
37,
37,
38,
38,
37,
37,
37,
37,
38,
38,
37,
37,
37,
37,
38,
38,
38,
38,
38,
38,
39,
39,
37,
37,
38,
38,
37,
37,
38,
38,
38,
38,
38,
38,
38,
38,
37,
37,
39,
39,
37,
37,
38,
38,
38,
38,
37,
37,
38,
38,
39,
39,
38,
38,
38,
38,
37,
37,
38,
38,
38,
-48,
-46,
-46,
-47,
-47,
-46,
-46,
-46,
-46,
-47,
-47,
-45,
-45,
-46,
-46,
-47,
-47,
-47,
-47,
-45,
-45,
-46,
-46,
-46,
-46,
-47,
-47,
-45,
-45,
-47,
-47,
-46,
-46,
-46,
-46,
-47,
-47,
-45,
-45,
-45,
-45,
-44,
-44,
-44,
-44,
-46,
-46,
-46,
-46,
-47,
-47,
-45,
-45,
-45,
-45,
-45,
-45,
-45,
-45,
-45,
-45,
-45,
-45,
-46,
-46,
-44,
-44,
-44,
-44,
-45,
-45,
-45,
-45,
-45,
-45,
-45,
-45,
-45,
-45,
-45,
-45,
-45,
-45,
-45,
-45,
-46,
-46,
-45,
-45,
-44,
-44,
-45,
-45,
-45,
-45,
-44,
-44,
-46,
-46,
-45,
-45,
-43,
-43,
-44,
-44,
-45,
-45,
-45,
-45,
-45,
-45,
-45,
-45,
-44,
-44,
-45,
-45,
-44,
-44,
-44,
-44,
-44,
-44,
-45,
-45,
-44,
-44,
-45,
-45,
-45,
-45,
-44,
-44,
-46,
-46,
-45,
-45,
-45,
-45,
-45,
-45,
-46,
-46,
-45,
-45,
-44,
-44,
-45,
-45,
-44,
-44,
-45,
-45,
-44,
-44,
-44,
-44,
-45,
-45,
-46,
-46,
-45,
-45,
-44,
-44,
-44,
-44,
-44,
-44,
-45,
-45,
-45,
-45,
-45,
-45,
-45,
-45,
-44,
-44,
-45,
-45,
-44,
-44,
-45,
-45,
-45,
-45,
-45,
-45,
-45,
-45,
-44,
-44,
-45,
-45,
-46,
-46,
-45,
-45,
-45,
-45,
-45,
-45,
-45,
-45,
-45,
-45,
-44,
-44,
-45,
-45,
-46,
-46,
-44,
-44,
-45,
-45,
-45,
-45,
-46,
-46,
-46,
-46,
-45,
-45,
-47,
-47,
-46,
-46,
-45,
-45,
-45,
-45,
-46,
-46,
-45,
-45,
-46,
-46,
-45,
-45,
-45,
-45,
-46,
40,
38,
38,
40,
40,
39,
39,
39,
39,
38,
38,
40,
40,
40,
40,
39,
39,
39,
39,
37,
37,
38,
38,
39,
39,
39,
39,
38,
38,
38,
38,
37,
37,
38,
38,
39,
39,
39,
39,
38,
38,
38,
38,
38,
38,
39,
39,
38,
38,
38,
38,
39,
39,
38,
38,
39,
39,
37,
37,
38,
38,
38,
38,
37,
37,
37,
37,
38,
38,
37,
37,
37,
37,
38,
38,
38,
38,
39,
39,
37,
37,
37,
37,
39,
39,
37,
37,
38,
38,
39,
39,
37,
37,
37,
37,
37,
37,
37,
37,
38,
38,
37,
37,
37,
37,
37,
37,
37,
37,
37,
37,
36,
36,
37,
37,
37,
37,
37,
37,
38,
38,
38,
38,
38,
38,
40,
40,
37,
37,
38,
38,
37,
37,
37,
37,
38,
38,
40,
40,
37,
37,
38,
38,
38,
38,
37,
37,
37,
37,
38,
38,
37,
37,
37,
37,
37,
37,
38,
38,
37,
37,
37,
37,
37,
37,
38,
38,
37,
37,
37,
37,
38,
38,
37,
37,
37,
37,
38,
38,
38,
38,
37,
37,
38,
38,
37,
37,
38,
38,
38,
38,
38,
38,
37,
37,
38,
38,
38,
38,
37,
37,
38,
38,
38,
38,
37,
37,
38,
38,
38,
38,
37,
37,
37,
37,
37,
37,
37,
37,
37,
37,
38,
38,
38,
38,
38,
38,
38,
38,
38,
38,
39,
39,
38,
38,
38,
38,
38,
38,
37,
37,
37,
37,
37,
37,
38,
38,
38,
38,
38,
38,
38,
38,
38,
38,
39,
-47,
-46,
-46,
-45,
-45,
-46,
-46,
-46,
-46,
-46,
-46,
-47,
-47,
-45,
-45,
-45,
-45,
-45,
-45,
-46,
-46,
-45,
-45,
-46,
-46,
-46,
-46,
-46,
-46,
-45,
-45,
-46,
-46,
-46,
-46,
-45,
-45,
-46,
-46,
-44,
-44,
-45,
-45,
-46,
-46,
-45,
-45,
-45,
-45,
-47,
-47,
-45,
-45,
-44,
-44,
-46,
-46,
-47,
-47,
-45,
-45,
-45,
-45,
-46,
-46,
-46,
-46,
-45,
-45,
-44,
-44,
-44,
-44,
-45,
-45,
-45,
-45,
-45,
-45,
-44,
-44,
-45,
-45,
-46,
-46,
-44,
-44,
-45,
-45,
-45,
-45,
-45,
-45,
-46,
-46,
-45,
-45,
-45,
-45,
-45,
-45,
-44,
-44,
-44,
-44,
-45,
-45,
-45,
-45,
-44,
-44,
-44,
-44,
-45,
-45,
-45,
-45,
-45,
-45,
-45,
-45,
-45,
-45,
-44,
-44,
-44,
-44,
-44,
-44,
-44,
-44,
-44,
-44,
-45,
-45,
-45,
-45,
-44,
-44,
-45,
-45,
-45,
-45,
-44,
-44,
-45,
-45,
-45,
-45,
-45,
-45,
-45,
-45,
-46,
-46,
-44,
-44,
-44,
-44,
-44,
-44,
-45,
-45,
-44,
-44,
-45,
-45,
-45,
-45,
-45,
-45,
-44,
-44,
-46,
-46,
-44,
-44,
-46,
-46,
-44,
-44,
-45,
-45,
-44,
-44,
-47,
-47,
-44,
-44,
-44,
-44,
-45,
-45,
-45,
-45,
-45,
-45,
-45,
-45,
-45,
-45,
-44,
-44,
-46,
-46,
-45,
-45,
-45,
-45,
-45,
-45,
-46,
-46,
-45,
-45,
-44,
-44,
-45,
-45,
-45,
-45,
-45,
-45,
-46,
-46,
-45,
-45,
-46,
-46,
-46,
-46,
-46,
-46,
-45,
-45,
-45,
-45,
-46,
-46,
-46,
-46,
-45,
-45,
-45,
41,
38,
38,
39,
39,
38,
38,
38,
38,
40,
40,
39,
39,
38,
38,
40,
40,
38,
38,
40,
40,
39,
39,
38,
38,
40,
40,
39,
39,
38,
38,
39,
39,
37,
37,
37,
37,
38,
38,
38,
38,
38,
38,
38,
38,
38,
38,
38,
38,
37,
37,
39,
39,
39,
39,
38,
38,
38,
38,
37,
37,
37,
37,
38,
38,
37,
37,
38,
38,
38,
38,
38,
38,
37,
37,
39,
39,
37,
37,
37,
37,
37,
37,
37,
37,
37,
37,
37,
37,
38,
38,
37,
37,
37,
37,
37,
37,
37,
37,
37,
37,
38,
38,
37,
37,
38,
38,
38,
38,
37,
37,
39,
39,
37,
37,
38,
38,
37,
37,
37,
37,
37,
37,
37,
37,
37,
37,
37,
37,
37,
37,
37,
37,
38,
38,
37,
37,
39,
39,
37,
37,
39,
39,
37,
37,
36,
36,
37,
37,
37,
37,
38,
38,
37,
37,
38,
38,
37,
37,
37,
37,
37,
37,
38,
38,
37,
37,
38,
38,
38,
38,
39,
39,
38,
38,
39,
39,
38,
38,
38,
38,
38,
38,
38,
38,
37,
37,
37,
37,
38,
38,
37,
37,
38,
38,
38,
38,
37,
37,
37,
37,
37,
37,
39,
39,
38,
38,
37,
37,
38,
38,
38,
38,
37,
37,
38,
38,
37,
37,
38,
38,
38,
38,
37,
37,
37,
37,
37,
37,
38,
38,
37,
37,
37,
37,
37,
37,
38,
38,
39,
39,
37,
37,
37,
37,
39,
39,
38,
38,
38,
38,
38,
38,
37,
37,
37,
-47,
-46,
-46,
-45,
-45,
-46,
-46,
-44,
-44,
-47,
-47,
-45,
-45,
-46,
-46,
-45,
-45,
-45,
-45,
-45,
-45,
-45,
-45,
-45,
-45,
-45,
-45,
-45,
-45,
-46,
-46,
-44,
-44,
-45,
-45,
-45,
-45,
-45,
-45,
-45,
-45,
-46,
-46,
-45,
-45,
-45,
-45,
-44,
-44,
-46,
-46,
-45,
-45,
-45,
-45,
-45,
-45,
-46,
-46,
-45,
-45,
-46,
-46,
-45,
-45,
-45,
-45,
-45,
-45,
-44,
-44,
-45,
-45,
-45,
-45,
-45,
-45,
-45,
-45,
-45,
-45,
-45,
-45,
-45,
-45,
-44,
-44,
-44,
-44,
-44,
-44,
-45,
-45,
-44,
-44,
-45,
-45,
-44,
-44,
-45,
-45,
-45,
-45,
-45,
-45,
-45,
-45,
-45,
-45,
-44,
-44,
-45,
-45,
-45,
-45,
-44,
-44,
-45,
-45,
-45,
-45,
-45,
-45,
-45,
-45,
-45,
-45,
-45,
-45,
-45,
-45,
-44,
-44,
-45,
-45,
-45,
-45,
-44,
-44,
-44,
-44,
-45,
-45,
-44,
-44,
-44,
-44,
-44,
-44,
-44,
-44,
-44,
-44,
-44,
-44,
-45,
-45,
-44,
-44,
-44,
-44,
-45,
-45,
-44,
-44,
-45,
-45,
-45,
-45,
-44,
-44,
-45,
-45,
-45,
-45,
-44,
-44,
-45,
-45,
-44,
-44,
-45,
-45,
-44,
-44,
-44,
-44,
-45,
-45,
-45,
-45,
-45,
-45,
-45,
-45,
-45,
-45,
-45,
-45,
-44,
-44,
-45,
-45,
-45,
-45,
-44,
-44,
-45,
-45,
-44,
-44,
-44,
-44,
-45,
-45,
-45,
-45,
-44,
-44,
-45,
-45,
-45,
-45,
-44,
-44,
-45,
-45,
-45,
-45,
-44,
-44,
-46,
-46,
-45,
-45,
-45,
-45,
-45,
-45,
-45,
-45,
-44,
-44,
-45,
41,
39,
39,
40,
40,
40,
40,
40,
40,
39,
39,
39,
39,
40,
40,
40,
