7-logik-schaltungen/data/ALL0004/A0004CH2.CSV

Memory Length,4000,
Trigger Level,2.15900e+00,
Source,CH2,
Probe,1.0X,
Vertical Units,V,
Vertical Scale,1.00000e+00,
Vertical Position,-2.00000e+00,
Horizontal Units,S,
Horizontal Scale,5.00000e-03,
Horizontal Position,2.0000000e-03,
Horizontal Mode,XY Mode,
Sampling Period,2.00000e-05,
Firmware,V1.14,
Time, ,
Mode,Fast,
Waveform Data,
1,
1,
1,
0,
0,
1,
1,
1,
1,
0,
0,
1,
1,
1,
1,
1,
1,
0,
0,
0,
0,
1,
1,
0,
0,
1,
1,
0,
0,
0,
0,
0,
0,
0,
0,
0,
0,
1,
1,
1,
1,
0,
0,
0,
0,
1,
1,
0,
0,
1,
124,
123,
123,
123,
123,
123,
123,
123,
123,
123,
123,
123,
123,
123,
123,
123,
123,
123,
123,
122,
122,
123,
123,
122,
122,
123,
123,
123,
123,
123,
123,
123,
123,
123,
123,
124,
124,
123,
123,
122,
122,
123,
123,
123,
123,
124,
124,
123,
123,
123,
123,
123,
123,
122,
122,
123,
123,
123,
123,
123,
123,
123,
123,
123,
123,
122,
122,
122,
122,
122,
122,
122,
122,
121,
121,
120,
120,
114,
114,
107,
90,
90,
64,
64,
15,
16,
2,
3,
3,
2,
2,
2,
2,
1,
1,
2,
2,
1,
1,
1,
1,
1,
1,
1,
1,
1,
1,
1,
1,
1,
1,
1,
1,
1,
1,
0,
0,
0,
0,
1,
1,
1,
1,
1,
1,
0,
0,
1,
1,
0,
0,
0,
0,
0,
0,
0,
0,
0,
0,
0,
0,
0,
0,
0,
0,
0,
0,
0,
0,
0,
0,
1,
1,
0,
0,
0,
0,
1,
1,
0,
0,
0,
0,
1,
1,
0,
0,
0,
0,
1,
1,
0,
0,
0,
0,
1,
1,
0,
0,
0,
0,
0,
0,
0,
0,
0,
0,
1,
1,
0,
0,
0,
0,
0,
0,
1,
1,
1,
1,
0,
0,
1,
1,
0,
0,
0,
0,
0,
0,
0,
0,
0,
0,
0,
0,
1,
1,
1,
1,
0,
0,
0,
0,
1,
1,
0,
0,
0,
0,
0,
0,
0,
0,
0,
0,
1,
1,
1,
1,
1,
1,
1,
1,
1,
1,
0,
0,
0,
0,
0,
0,
1,
1,
0,
0,
0,
0,
0,
0,
0,
0,
0,
0,
1,
1,
0,
0,
0,
0,
1,
1,
1,
1,
0,
0,
1,
1,
1,
1,
1,
1,
0,
0,
0,
0,
0,
0,
0,
0,
0,
0,
1,
1,
0,
0,
0,
0,
1,
1,
1,
1,
1,
1,
0,
0,
0,
0,
0,
0,
1,
1,
1,
1,
0,
0,
0,
0,
1,
1,
0,
0,
0,
0,
1,
1,
0,
0,
0,
0,
0,
0,
0,
0,
0,
0,
0,
0,
0,
0,
0,
0,
0,
0,
0,
0,
0,
0,
0,
0,
0,
0,
0,
0,
0,
0,
1,
1,
0,
0,
1,
1,
1,
1,
1,
1,
0,
0,
0,
0,
0,
0,
0,
0,
0,
0,
0,
0,
0,
0,
0,
0,
1,
1,
0,
0,
0,
0,
0,
0,
1,
1,
0,
0,
1,
1,
0,
0,
0,
0,
0,
0,
0,
0,
0,
0,
0,
0,
0,
0,
1,
1,
0,
0,
-1,
-1,
0,
0,
0,
0,
1,
1,
0,
0,
0,
124,
123,
123,
123,
123,
123,
123,
123,
123,
123,
123,
123,
123,
123,
123,
124,
124,
122,
122,
123,
123,
123,
123,
123,
123,
123,
123,
123,
123,
122,
122,
122,
122,
123,
123,
122,
122,
123,
123,
123,
123,
123,
123,
123,
123,
122,
122,
122,
122,
123,
123,
123,
123,
123,
123,
123,
123,
123,
123,
123,
123,
122,
122,
123,
123,
123,
123,
121,
121,
122,
122,
122,
107,
121,
91,
117,
117,
113,
113,
104,
88,
89,
49,
49,
16,
16,
1,
3,
3,
2,
2,
1,
1,
2,
2,
1,
1,
1,
1,
1,
1,
1,
1,
1,
1,
1,
1,
1,
1,
1,
1,
1,
1,
1,
1,
0,
0,
1,
1,
1,
1,
0,
0,
0,
0,
0,
0,
0,
0,
1,
1,
0,
0,
0,
0,
0,
0,
1,
1,
0,
0,
0,
0,
1,
1,
0,
0,
0,
0,
0,
0,
1,
1,
0,
0,
1,
1,
0,
0,
0,
0,
1,
1,
0,
0,
0,
0,
0,
0,
0,
0,
0,
0,
0,
0,
0,
0,
0,
0,
0,
0,
0,
0,
1,
1,
0,
0,
0,
0,
0,
0,
1,
1,
0,
0,
1,
1,
1,
1,
0,
0,
0,
0,
1,
1,
0,
0,
0,
0,
0,
0,
1,
1,
1,
1,
0,
0,
0,
0,
1,
1,
0,
0,
0,
0,
0,
0,
1,
1,
0,
0,
1,
1,
-1,
-1,
0,
0,
1,
1,
1,
1,
0,
0,
1,
1,
1,
1,
0,
0,
0,
0,
0,
0,
0,
0,
0,
0,
0,
0,
0,
0,
0,
0,
1,
1,
1,
1,
1,
1,
0,
0,
0,
0,
1,
1,
0,
0,
0,
0,
0,
0,
1,
1,
1,
1,
1,
1,
1,
1,
0,
0,
0,
0,
1,
1,
1,
1,
1,
1,
1,
1,
0,
0,
0,
0,
1,
1,
0,
0,
1,
1,
2,
2,
1,
1,
1,
1,
0,
0,
0,
0,
0,
0,
1,
1,
0,
0,
0,
0,
0,
0,
0,
0,
0,
0,
0,
0,
0,
0,
0,
0,
0,
0,
0,
0,
1,
1,
1,
1,
0,
0,
1,
1,
0,
0,
0,
0,
1,
1,
0,
0,
0,
0,
0,
0,
0,
0,
0,
0,
0,
0,
1,
1,
0,
0,
1,
1,
0,
0,
0,
0,
1,
1,
0,
0,
1,
1,
1,
1,
1,
1,
1,
1,
0,
0,
1,
1,
0,
0,
1,
1,
0,
0,
1,
1,
0,
0,
1,
1,
0,
0,
0,
0,
0,
0,
0,
0,
1,
1,
0,
0,
0,
124,
123,
123,
123,
123,
123,
123,
123,
123,
122,
122,
123,
123,
123,
123,
123,
123,
123,
123,
123,
123,
123,
123,
123,
123,
123,
123,
123,
123,
123,
123,
123,
123,
123,
123,
124,
124,
123,
123,
123,
123,
122,
122,
123,
123,
123,
123,
122,
122,
123,
123,
123,
123,
122,
122,
123,
123,
122,
122,
122,
122,
123,
123,
123,
123,
123,
123,
122,
122,
122,
122,
122,
122,
122,
122,
120,
120,
118,
118,
111,
111,
102,
80,
80,
43,
44,
13,
15,
2,
2,
2,
2,
2,
1,
1,
1,
1,
1,
1,
1,
1,
1,
1,
1,
1,
1,
1,
1,
1,
0,
0,
1,
1,
1,
1,
0,
0,
0,
0,
1,
1,
1,
1,
1,
1,
0,
0,
1,
1,
1,
1,
1,
1,
1,
1,
0,
0,
1,
1,
0,
0,
1,
1,
1,
1,
0,
0,
0,
0,
0,
0,
1,
1,
0,
0,
0,
0,
0,
0,
0,
0,
0,
0,
0,
0,
1,
1,
0,
0,
0,
0,
1,
1,
1,
1,
0,
0,
1,
1,
0,
0,
0,
0,
0,
0,
0,
0,
0,
0,
0,
0,
0,
0,
1,
1,
0,
0,
0,
0,
0,
0,
0,
0,
1,
1,
1,
1,
1,
1,
0,
0,
1,
1,
1,
1,
0,
0,
1,
1,
1,
1,
0,
0,
1,
1,
0,
0,
0,
0,
1,
1,
0,
0,
1,
1,
1,
1,
1,
1,
0,
0,
0,
0,
0,
0,
0,
0,
0,
0,
0,
0,
1,
1,
0,
0,
1,
1,
0,
0,
0,
0,
1,
1,
0,
0,
0,
0,
0,
0,
0,
0,
1,
1,
1,
1,
1,
1,
0,
0,
0,
0,
0,
0,
0,
0,
1,
1,
0,
0,
0,
0,
0,
0,
0,
0,
0,
0,
1,
1,
1,
1,
0,
0,
0,
0,
1,
1,
0,
0,
1,
1,
1,
1,
1,
1,
0,
0,
1,
1,
0,
0,
0,
0,
0,
0,
1,
1,
1,
1,
1,
1,
0,
0,
0,
0,
0,
0,
0,
0,
0,
0,
0,
0,
1,
1,
1,
1,
0,
0,
1,
1,
0,
0,
1,
1,
0,
0,
0,
0,
1,
1,
1,
1,
1,
1,
0,
0,
0,
0,
0,
0,
0,
0,
1,
1,
1,
1,
1,
1,
1,
1,
0,
0,
0,
0,
0,
0,
0,
0,
0,
0,
0,
0,
0,
0,
1,
1,
1,
1,
1,
1,
0,
0,
1,
1,
0,
0,
0,
0,
1,
1,
0,
0,
0,
0,
0,
0,
1,
1,
0,
0,
0,
0,
0,
124,
123,
123,
123,
123,
123,
123,
123,
123,
123,
123,
122,
122,
123,
123,
123,
123,
123,
123,
123,
123,
122,
122,
122,
122,
123,
123,
123,
123,
122,
122,
123,
123,
122,
122,
123,
123,
123,
123,
123,
123,
123,
123,
123,
123,
123,
123,
123,
123,
123,
123,
123,
123,
123,
123,
123,
123,
123,
123,
123,
123,
122,
122,
124,
124,
123,
123,
123,
123,
123,
123,
122,
122,
122,
122,
120,
120,
115,
115,
111,
111,
102,
77,
78,
41,
41,
3,
4,
4,
3,
3,
2,
2,
2,
2,
1,
1,
1,
1,
1,
1,
1,
1,
1,
1,
1,
1,
1,
1,
0,
0,
0,
0,
0,
0,
1,
1,
0,
0,
0,
0,
1,
1,
1,
1,
0,
0,
0,
0,
0,
0,
0,
0,
1,
1,
0,
0,
1,
1,
0,
0,
0,
0,
0,
0,
1,
1,
0,
0,
0,
0,
0,
0,
0,
0,
0,
0,
0,
0,
0,
0,
0,
0,
0,
0,
1,
1,
0,
0,
0,
0,
0,
0,
0,
0,
1,
1,
0,
0,
0,
0,
1,
1,
0,
0,
1,
1,
1,
1,
0,
0,
0,
0,
0,
0,
1,
1,
0,
0,
0,
0,
0,
0,
0,
0,
0,
0,
1,
1,
1,
1,
1,
1,
0,
0,
0,
0,
1,
1,
1,
1,
0,
0,
0,
0,
0,
0,
1,
1,
1,
1,
1,
1,
1,
1,
1,
1,
0,
0,
1,
1,
0,
0,
0,
0,
1,
1,
0,
0,
0,
0,
0,
0,
2,
2,
1,
1,
1,
1,
1,
1,
0,
0,
0,
0,
1,
1,
1,
1,
0,
0,
2,
2,
0,
0,
0,
0,
1,
1,
0,
0,
1,
1,
0,
0,
0,
0,
1,
1,
1,
1,
1,
1,
1,
1,
0,
0,
0,
0,
1,
1,
0,
0,
1,
1,
0,
0,
0,
0,
0,
0,
1,
1,
0,
0,
1,
1,
1,
1,
1,
1,
1,
1,
0,
0,
1,
1,
0,
0,
0,
0,
0,
0,
1,
1,
1,
1,
0,
0,
1,
1,
1,
1,
1,
1,
0,
0,
1,
1,
0,
0,
1,
1,
1,
1,
0,
0,
0,
0,
0,
0,
0,
0,
1,
1,
0,
0,
1,
1,
1,
1,
1,
1,
1,
1,
1,
1,
1,
1,
0,
0,
0,
0,
1,
1,
0,
0,
1,
1,
0,
0,
0,
0,
1,
1,
1,
1,
1,
1,
1,
1,
0,
0,
0,
0,
0,
0,
0,
0,
0,
0,
1,
1,
0,
0,
0,
0,
0,
0,
0,
0,
0,
0,
1,
124,
123,
123,
123,
123,
122,
122,
123,
123,
123,
123,
123,
123,
123,
123,
124,
124,
123,
123,
123,
123,
123,
123,
123,
123,
123,
123,
123,
123,
122,
122,
123,
123,
122,
122,
123,
123,
123,
123,
122,
122,
122,
122,
123,
123,
123,
123,
123,
123,
123,
123,
123,
123,
123,
123,
123,
123,
123,
123,
123,
123,
122,
122,
123,
123,
123,
123,
123,
123,
123,
123,
122,
122,
121,
121,
120,
120,
117,
117,
112,
99,
100,
71,
72,
47,
47,
3,
3,
3,
2,
2,
2,
2,
2,
2,
2,
2,
2,
2,
1,
1,
0,
0,
1,
1,
2,
2,
1,
1,
1,
1,
0,
0,
0,
0,
0,
0,
0,
0,
1,
1,
0,
0,
0,
0,
0,
0,
0,
0,
0,
0,
0,
0,
1,
1,
0,
0,
1,
1,
0,
0,
0,
0,
0,
0,
1,
1,
0,
0,
1,
1,
0,
0,
1,
1,
1,
1,
0,
0,
0,
0,
0,
0,
0,
0,
0,
0,
1,
1,
0,
0,
0,
0,
1,
1,
1,
1,
0,
0,
0,
0,
0,
0,
0,
0,
1,
1,
0,
0,
1,
1,
0,
0,
1,
1,
0,
0,
0,
0,
0,
0,
0,
0,
0,
0,
1,
1,
1,
1,
0,
0,
1,
1,
0,
0,
0,
0,
0,
0,
0,
0,
1,
1,
0,
0,
0,
0,
-1,
-1,
1,
1,
0,
0,
0,
0,
1,
1,
0,
0,
0,
0,
1,
1,
0,
0,
0,
0,
1,
1,
0,
0,
1,
1,
0,
0,
0,
0,
0,
0,
0,
0,
0,
0,
0,
0,
0,
0,
1,
1,
1,
1,
1,
1,
0,
0,
0,
0,
0,
0,
0,
0,
1,
1,
0,
0,
0,
0,
0,
0,
1,
1,
1,
1,
1,
1,
1,
1,
1,
1,
0,
0,
1,
1,
1,
1,
1,
1,
0,
0,
0,
0,
0,
0,
0,
0,
0,
0,
1,
1,
0,
0,
0,
0,
0,
0,
1,
1,
0,
0,
0,
0,
0,
0,
1,
1,
1,
1,
0,
0,
1,
1,
0,
0,
1,
1,
0,
0,
1,
1,
0,
0,
0,
0,
0,
0,
1,
1,
0,
0,
1,
1,
1,
1,
0,
0,
0,
0,
1,
1,
1,
1,
1,
1,
1,
1,
0,
0,
0,
0,
1,
1,
0,
0,
0,
0,
1,
1,
1,
1,
0,
0,
0,
0,
0,
0,
1,
1,
0,
0,
0,
0,
1,
1,
1,
1,
1,
1,
1,
1,
1,
1,
0,
0,
1,
1,
0,
0,
0,
0,
1,
1,
1,
1,
0,
124,
123,
123,
123,
123,
123,
123,
123,
123,
123,
123,
123,
123,
123,
123,
123,
123,
123,
123,
123,
123,
122,
122,
124,
124,
123,
123,
122,
122,
123,
123,
123,
123,
123,
123,
122,
122,
123,
123,
123,
123,
123,
123,
123,
123,
123,
123,
123,
123,
123,
123,
123,
123,
123,
123,
123,
123,
122,
122,
123,
123,
123,
123,
123,
123,
123,
123,
123,
123,
122,
122,
122,
122,
121,
121,
119,
119,
115,
115,
108,
95,
95,
68,
69,
25,
25,
2,
3,
3,
2,
2,
2,
2,
2,
2,
1,
1,
1,
1,
1,
1,
1,
1,
1,
1,
0,
0,
1,
1,
1,
1,
0,
0,
0,
0,
0,
0,
1,
1,
0,
0,
0,
0,
1,
1,
1,
1,
0,
0,
0,
0,
1,
1,
0,
0,
0,
0,
0,
0,
0,
0,
0,
0,
0,
0,
0,
0,
1,
1,
1,
1,
1,
1,
0,
0,
1,
1,
0,
0,
0,
0,
0,
0,
-1,
-1,
0,
0,
0,
0,
0,
0,
0,
0,
0,
0,
0,
0,
1,
1,
0,
0,
0,
0,
0,
0,
0,
0,
0,
0,
0,
0,
1,
1,
0,
0,
1,
1,
0,
0,
0,
0,
1,
1,
0,
0,
0,
0,
0,
0,
0,
0,
1,
1,
0,
0,
0,
0,
0,
0,
1,
1,
0,
0,
1,
1,
0,
0,
1,
1,
0,
0,
0,
0,
1,
1,
1,
1,
0,
0,
0,
0,
1,
1,
1,
1,
0,
0,
0,
0,
0,
0,
1,
1,
0,
0,
0,
0,
1,
1,
0,
0,
0,
0,
1,
1,
0,
0,
0,
0,
1,
1,
0,
0,
1,
1,
-1,
-1,
1,
1,
0,
0,
1,
1,
1,
1,
1,
1,
1,
1,
0,
0,
1,
1,
0,
0,
1,
1,
0,
0,
1,
1,
0,
0,
1,
1,
0,
0,
0,
0,
1,
1,
0,
0,
0,
0,
0,
0,
1,
1,
0,
0,
1,
1,
0,
0,
0,
0,
0,
0,
0,
0,
1,
1,
0,
0,
1,
1,
1,
1,
0,
0,
0,
0,
0,
0,
0,
0,
1,
1,
0,
0,
1,
1,
1,
1,
0,
0,
1,
1,
0,
0,
1,
1,
1,
1,
1,
1,
1,
1,
1,
1,
0,
0,
1,
1,
0,
0,
1,
1,
1,
1,
1,
1,
1,
1,
1,
1,
0,
0,
1,
1,
0,
0,
1,
1,
0,
0,
1,
1,
1,
1,
0,
0,
0,
0,
1,
1,
1,
1,
1,
1,
0,
0,
1,
1,
0,
0,
1,
1,
0,
0,
0,
0,
1,
124,
122,
122,
123,
123,
123,
123,
123,
123,
123,
123,
123,
123,
123,
123,
123,
123,
123,
123,
123,
123,
123,
123,
122,
122,
123,
123,
123,
123,
123,
123,
122,
122,
123,
123,
123,
123,
123,
123,
123,
123,
123,
123,
123,
123,
123,
123,
122,
122,
123,
123,
122,
122,
123,
123,
123,
123,
123,
123,
122,
122,
123,
123,
123,
123,
123,
123,
123,
123,
122,
122,
121,
121,
121,
121,
119,
119,
115,
101,
105,
89,
91,
74,
75,
29,
33,
2,
4,
4,
2,
2,
2,
2,
1,
1,
1,
1,
1,
1,
1,
1,
0,
0,
1,
1,
1,
1,
1,
1,
0,
0,
1,
1,
1,
1,
0,
0,
0,
0,
0,
0,
0,
0,
0,
0,
1,
1,
1,
1,
0,
0,
0,
0,
0,
0,
0,
0,
0,
0,
0,
0,
0,
0,
0,
0,
1,
1,
0,
0,
0,
0,
0,
0,
0,
0,
1,
1,
0,
0,
0,
0,
0,
0,
0,
0,
1,
1,
-1,
-1,
0,
0,
0,
0,
1,
1,
0,
0,
0,
0,
0,
0,
1,
1,
1,
1,
0,
0,
0,
0,
1,
1,
0,
0,
0,
0,
0,
0,
1,
1,
1,
1,
0,
0,
0,
0,
1,
1,
1,
1,
0,
0,
1,
1,
1,
1,
1,
1,
0,
0,
0,
0,
1,
1,
0,
0,
0,
0,
1,
1,
1,
1,
0,
0,
1,
1,
0,
0,
0,
0,
0,
0,
0,
0,
1,
1,
0,
0,
0,
0,
1,
1,
1,
1,
1,
1,
0,
0,
0,
0,
0,
0,
1,
1,
0,
0,
0,
0,
0,
0,
0,
0,
0,
0,
0,
0,
1,
1,
0,
0,
1,
1,
1,
1,
0,
0,
0,
0,
0,
0,
0,
0,
1,
1,
0,
0,
0,
0,
0,
0,
0,
0,
1,
1,
0,
0,
0,
0,
0,
0,
1,
1,
0,
0,
1,
1,
1,
1,
0,
0,
1,
1,
0,
0,
1,
1,
1,
1,
0,
0,
1,
1,
1,
1,
1,
1,
1,
1,
1,
1,
0,
0,
1,
1,
1,
1,
1,
1,
0,
0,
0,
0,
0,
0,
0,
0,
0,
0,
0,
0,
0,
0,
0,
0,
0,
0,
0,
0,
1,
1,
1,
1,
0,
0,
0,
0,
0,
0,
0,
0,
0,
0,
1,
1,
0,
0,
0,
0,
0,
0,
1,
1,
0,
0,
1,
1,
1,
1,
0,
0,
1,
1,
-1,
-1,
0,
0,
1,
1,
0,
0,
0,
0,
0,
0,
0,
0,
0,
0,
0,
0,
0,
0,
1,
1,
0,
124,
123,
123,
123,
123,
123,
123,
123,
123,
123,
123,
123,
123,
124,
124,
123,
123,
122,
122,
122,
122,
123,
123,
123,
123,
123,
123,
123,
123,
122,
122,
123,
123,
123,
123,
122,
122,
123,
123,
123,
123,
123,
123,
123,
123,
123,
123,
122,
122,
123,
123,
123,
123,
123,
123,
123,
123,
123,
123,
123,
123,
123,
123,
123,
123,
123,
123,
123,
123,
122,
122,
122,
122,
121,
121,
119,
119,
116,
103,
104,
89,
90,
69,
70,
21,
22,
2,
3,
3,
2,
2,
1,
1,
2,
2,
2,
2,
1,
1,
1,
1,
1,
1,
0,
0,
1,
1,
1,
1,
1,
1,
1,
1,
0,
0,
1,
1,
1,
1,
1,
1,
0,
0,
0,
0,
0,
0,
0,
0,
0,
0,
1,
1,
0,
0,
0,
0,
0,
0,
0,
0,
0,
0,
0,
0,
0,
0,
1,
1,
0,
0,
0,
0,
0,
0,
1,
1,
0,
0,
0,
0,
0,
0,
0,
0,
0,
0,
0,
0,
0,
0,
0,
0,
0,
0,
0,
0,
0,
0,
0,
0,
0,
0,
0,
0,
0,
0,
0,
0,
1,
1,
-1,
-1,
0,
0,
1,
1,
1,
1,
1,
1,
0,
0,
0,
0,
0,
0,
0,
0,
0,
0,
0,
0,
0,
0,
0,
0,
0,
0,
1,
1,
1,
1,
1,
1,
1,
1,
1,
1,
0,
0,
1,
1,
0,
0,
0,
0,
1,
1,
0,
0,
0,
0,
1,
1,
1,
1,
0,
0,
1,
1,
0,
0,
0,
0,
0,
0,
1,
1,
0,
0,
1,
1,
0,
0,
1,
1,
0,
0,
1,
1,
0,
0,
0,
0,
0,
0,
0,
0,
1,
1,
1,
1,
0,
0,
1,
1,
1,
1,
1,
1,
0,
0,
0,
0,
1,
1,
1,
1,
0,
0,
0,
0,
0,
0,
1,
1,
0,
0,
0,
0,
1,
1,
0,
0,
0,
0,
0,
0,
0,
0,
1,
1,
1,
1,
0,
0,
1,
1,
0,
0,
1,
1,
0,
0,
0,
0,
0,
0,
1,
1,
0,
0,
0,
0,
1,
1,
0,
0,
0,
0,
0,
0,
0,
0,
0,
0,
0,
0,
0,
0,
0,
0,
1,
1,
1,
1,
1,
1,
0,
0,
0,
0,
1,
1,
0,
0,
0,
0,
1,
1,
0,
0,
0,
0,
0,
0,
1,
1,
1,
1,
0,
0,
0,
0,
1,
1,
0,
0,
1,
1,
0,
0,
0,
0,
0,
0,
0,
0,
0,
0,
0,
0,
1,
1,
1,
1,
1,
1,
1,
1,
1,
1,
0,
124,
123,
123,
122,
122,
123,
123,
123,
123,
123,
123,
122,
122,
123,
123,
123,
123,
123,
123,
122,
122,
122,
122,
123,
123,
123,
123,
122,
122,
123,
123,
123,
123,
122,
122,
123,
123,
122,
122,
123,
123,
123,
123,
123,
123,
122,
122,
123,
123,
123,
123,
123,
123,
123,
123,
122,
122,
124,
124,
123,
123,
122,
122,
123,
123,
122,
122,
122,
122,
123,
123,
122,
122,
120,
120,
119,
119,
112,
101,
101,
83,
83,
64,
65,
6,
6,
6,
3,
3,
2,
2,
2,
2,
2,
2,
1,
1,
1,
1,
1,
1,
1,
1,
1,
1,
1,
1,
1,
1,
0,
0,
0,
0,
1,
1,
1,
1,
1,
1,
0,
0,
0,
0,
0,
0,
0,
0,
1,
1,
0,
0,
0,
0,
0,
0,
0,
0,
1,
1,
0,
0,
0,
0,
1,
1,
0,
0,
0,
0,
1,
1,
0,
0,
0,
0,
0,
0,
0,
0,
0,
0,
1,
1,
1,
1,
0,
0,
0,
0,
0,
0,
0,
0,
0,
0,
0,
0,
1,
1,
0,
0,
1,
1,
0,
0,
0,
0,
0,
0,
1,
1,
1,
1,
-1,
-1,
0,
0,
0,
0,
1,
1,
0,
0,
0,
0,
0,
0,
1,
1,
0,
0,
0,
0,
0,
0,
0,
0,
1,
1,
1,
1,
0,
0,
1,
1,
0,
0,
0,
0,
0,
0,
0,
0,
1,
1,
0,
0,
1,
1,
0,
0,
0,
0,
1,
1,
0,
0,
0,
0,
1,
1,
0,
0,
0,
0,
1,
1,
0,
0,
1,
1,
0,
0,
1,
1,
1,
1,
0,
0,
0,
0,
0,
0,
0,
0,
0,
0,
0,
0,
0,
0,
1,
1,
0,
0,
1,
1,
0,
0,
1,
1,
1,
1,
0,
0,
0,
0,
-1,
-1,
0,
0,
1,
1,
0,
0,
0,
0,
0,
0,
0,
0,
0,
0,
0,
0,
0,
0,
0,
0,
0,
0,
1,
1,
1,
1,
0,
0,
0,
0,
0,
0,
0,
0,
0,
0,
0,
0,
0,
0,
0,
0,
0,
0,
0,
0,
0,
0,
0,
0,
0,
0,
1,
1,
1,
1,
0,
0,
0,
0,
0,
0,
1,
1,
1,
1,
0,
0,
1,
1,
0,
0,
0,
0,
0,
0,
0,
0,
0,
0,
1,
1,
1,
1,
1,
1,
0,
0,
1,
1,
0,
0,
1,
1,
0,
0,
1,
1,
1,
1,
1,
1,
1,
1,
0,
0,
1,
1,
0,
0,
1,
1,
0,
0,
0,
0,
-1,
-1,
0,
0,
0,
0,
0,
0,
1,
124,
122,
122,
123,
123,
122,
122,
123,
123,
122,
122,
123,
123,
123,
123,
123,
123,
123,
123,
123,
123,
123,
123,
122,
122,
122,
122,
122,
122,
122,
122,
123,
123,
123,
123,
123,
123,
122,
122,
122,
122,
123,
123,
123,
123,
123,
123,
122,
122,
123,
123,
123,
123,
123,
123,
123,
123,
122,
122,
123,
123,
123,
123,
123,
123,
122,
122,
122,
122,
122,
122,
122,
122,
120,
120,
118,
118,
112,
112,
105,
79,
79,
47,
47,
7,
9,
9,
2,
2,
1,
1,
1,
1,
1,
1,
2,
2,
1,
1,
1,
1,
1,
1,
0,
0,
0,
0,
0,
0,
1,
1,
1,
1,
0,
0,
1,
1,
0,
0,
0,
0,
1,
1,
0,
0,
0,
0,
0,
0,
0,
0,
0,
0,
0,
0,
0,
