1-signale-auf-leitern/tag_1_daten/daten_versuch1/ALL0013/A0013CH1.CSV

Memory Length,4000,
Trigger Level,5.52000e+01,
Source,CH1,
Probe,1.0X,
Vertical Units,V,
Vertical Scale,2.00000e-02,
Vertical Position,0.00000e+00,
Horizontal Units,S,
Horizontal Scale,2.50000e-08,
Horizontal Position,5.0000000e-08,
Horizontal Mode,Main,
Sampling Period,1.00000e-09,
Firmware,V1.14,
Time, ,
Mode,Fast,
Waveform Data,
0,
0,
0,
0,
1,
1,
-1,
-1,
0,
0,
0,
0,
-1,
0,
-1,
-1,
-1,
0,
0,
0,
-1,
0,
-1,
-1,
0,
1,
0,
1,
-1,
-1,
-1,
-1,
-1,
-1,
-1,
-2,
-1,
0,
0,
0,
-1,
0,
1,
1,
-1,
-1,
-1,
-1,
-1,
-1,
-1,
-1,
0,
0,
-1,
-1,
-1,
0,
-1,
-1,
-1,
0,
0,
0,
-1,
-1,
-1,
-1,
0,
0,
0,
1,
-1,
-2,
-1,
0,
0,
0,
-1,
-1,
-1,
0,
0,
0,
0,
0,
0,
1,
-1,
-2,
-1,
-1,
0,
0,
0,
0,
-1,
0,
-1,
0,
0,
0,
0,
0,
0,
1,
0,
0,
-1,
0,
-1,
-1,
0,
1,
0,
0,
0,
0,
-1,
-1,
-1,
0,
-1,
-1,
0,
0,
1,
1,
-2,
-2,
0,
1,
0,
0,
-1,
-1,
-1,
0,
-1,
-1,
-1,
0,
0,
0,
-1,
0,
-1,
-1,
0,
0,
-1,
-1,
-1,
0,
-1,
-1,
-1,
0,
0,
1,
-1,
-1,
-1,
0,
-1,
0,
0,
-1,
1,
2,
1,
1,
-1,
-1,
0,
0,
-1,
-1,
-1,
0,
-1,
-1,
-1,
-1,
1,
2,
6,
9,
23,
27,
46,
53,
66,
71,
75,
76,
72,
71,
64,
62,
53,
51,
44,
42,
33,
32,
27,
26,
24,
25,
23,
21,
19,
19,
15,
14,
12,
12,
9,
9,
7,
7,
6,
6,
5,
5,
4,
4,
3,
4,
2,
2,
1,
2,
1,
1,
1,
1,
1,
1,
1,
1,
1,
0,
0,
0,
-1,
-1,
-8,
-11,
-19,
-22,
-34,
-38,
-52,
-57,
-63,
-65,
-67,
-67,
-63,
-61,
-55,
-53,
-45,
-42,
-37,
-35,
-30,
-28,
-26,
-26,
-23,
-20,
-21,
-21,
-18,
-17,
-15,
-14,
-12,
-11,
-8,
-8,
-8,
-8,
-7,
-6,
-6,
-6,
-4,
-4,
-4,
-3,
-3,
-3,
-3,
-3,
-3,
-3,
-2,
-1,
-2,
-2,
-3,
-2,
-2,
-2,
-2,
-2,
-5,
-5,
-7,
-7,
-9,
-10,
-9,
-8,
-5,
-5,
-2,
-1,
0,
1,
3,
4,
3,
4,
3,
3,
2,
2,
2,
2,
1,
1,
-1,
0,
0,
0,
0,
0,
0,
0,
0,
0,
1,
1,
0,
1,
0,
0,
-1,
-1,
-1,
-1,
-1,
0,
-1,
-1,
-1,
0,
0,
0,
-1,
0,
-1,
-1,
-1,
0,
-1,
-1,
-1,
0,
-3,
-3,
-1,
1,
-1,
0,
0,
0,
2,
2,
1,
1,
-1,
-1,
-1,
-1,
-1,
0,
-2,
-3,
0,
0,
-1,
0,
-1,
-2,
0,
1,
-1,
-1,
-1,
-1,
0,
1,
-2,
-2,
-1,
-1,
-1,
-1,
-1,
-1,
0,
1,
-1,
-1,
-1,
-1,
0,
1,
-1,
-2,
1,
1,
0,
-1,
-1,
-1,
-1,
-1,
-1,
-1,
-1,
-1,
0,
0,
-1,
-1,
0,
0,
0,
0,
-1,
-1,
-1,
0,
-1,
0,
-1,
-1,
-1,
-1,
0,
1,
-1,
-1,
-1,
0,
-1,
-1,
0,
1,
0,
1,
0,
0,
-1,
0,
-2,
-2,
-1,
0,
-1,
-1,
-1,
-1,
-1,
0,
-1,
-1,
0,
0,
-1,
-1,
-1,
-1,
-1,
-1,
-1,
0,
0,
1,
-2,
-2,
-1,
0,
0,
0,
-1,
-1,
0,
1,
0,
0,
-1,
-1,
-1,
-1,
-1,
-1,
-1,
-1,
0,
0,
0,
1,
-1,
-2,
0,
0,
-1,
0,
-1,
-1,
0,
1,
-2,
-2,
-1,
0,
-1,
-1,
0,
1,
0,
1,
-1,
-1,
0,
0,
-1,
-1,
-2,
-2,
0,
0,
0,
1,
-1,
-2,
-1,
0,
-1,
0,
-1,
-1,
-1,
1,
0,
0,
0,
0,
0,
1,
-1,
-1,
-1,
0,
0,
0,
-1,
-1,
0,
1,
-1,
-1,
-1,
-1,
0,
1,
-2,
-2,
-1,
0,
-1,
0,
-1,
-1,
0,
1,
0,
0,
0,
0,
-1,
-1,
0,
0,
0,
0,
-1,
0,
-1,
-1,
-1,
0,
0,
1,
-1,
-1,
0,
0,
-1,
-1,
-1,
0,
0,
0,
-1,
-1,
0,
1,
0,
1,
0,
0,
0,
0,
0,
0,
0,
0,
0,
0,
-1,
-1,
-1,
0,
-1,
-1,
0,
0,
-1,
-1,
-1,
-1,
-2,
-1,
-1,
0,
-1,
-1,
-1,
-1,
-1,
0,
-1,
-1,
-1,
-1,
-1,
-1,
-2,
-1,
-1,
-1,
-1,
-1,
-1,
0,
-1,
-2,
0,
0,
0,
1,
-1,
-2,
0,
0,
0,
0,
-1,
-1,
-1,
0,
-1,
-1,
0,
0,
-1,
-1,
0,
1,
-1,
-1,
-1,
-1,
0,
1,
-1,
-2,
-1,
0,
-1,
-1,
-1,
-1,
-1,
0,
-2,
-2,
-1,
0,
-1,
-1,
0,
1,
0,
1,
0,
0,
0,
1,
-1,
-2,
-1,
0,
-1,
0,
-1,
-1,
-1,
0,
-1,
-1,
-1,
0,
0,
0,
-1,
0,
0,
1,
1,
1,
-1,
0,
-1,
-2,
-2,
-1,
-1,
0,
-1,
-1,
0,
1,
-1,
-1,
-1,
0,
0,
0,
0,
1,
0,
1,
0,
0,
0,
0,
-2,
-2,
-1,
0,
-1,
0,
-1,
-1,
0,
2,
-1,
-1,
-1,
0,
0,
1,
-2,
-3,
-1,
0,
0,
0,
0,
0,
-1,
0,
-1,
-1,
0,
0,
-1,
-1,
0,
1,
0,
0,
0,
0,
0,
0,
-1,
0,
-1,
0,
-1,
0,
0,
1,
-1,
-1,
-1,
0,
-1,
0,
0,
-1,
0,
1,
0,
1,
0,
0,
0,
1,
-1,
-2,
0,
0,
0,
0,
-1,
-1,
0,
1,
0,
0,
0,
0,
0,
0,
0,
1,
-1,
-1,
0,
0,
0,
0,
-1,
0,
0,
1,
0,
0,
-1,
-1,
0,
0,
-1,
-1,
-2,
-1,
0,
0,
0,
1,
0,
1,
-1,
-1,
-1,
-1,
-1,
0,
0,
0,
1,
1,
-1,
0,
-1,
-2,
0,
0,
-1,
0,
-1,
-1,
0,
1,
-1,
-1,
-1,
-1,
0,
0,
-2,
-2,
0,
0,
1,
1,
-1,
-2,
0,
1,
0,
0,
-1,
0,
-1,
-1,
-1,
0,
-1,
-1,
-1,
-1,
-1,
-1,
-1,
-1,
-1,
-1,
1,
1,
0,
1,
-1,
-2,
-1,
0,
0,
0,
-1,
-1,
0,
1,
-1,
-1,
-1,
-1,
0,
0,
-1,
-1,
0,
0,
1,
1,
0,
1,
-1,
-2,
-1,
0,
0,
0,
-1,
-1,
-1,
0,
-1,
-1,
-1,
0,
0,
-1,
0,
1,
0,
1,
0,
0,
-1,
0,
-1,
-1,
-1,
0,
0,
0,
-1,
-1,
0,
1,
0,
0,
-1,
0,
0,
0,
-1,
0,
0,
1,
0,
0,
0,
1,
-1,
-1,
-1,
-1,
-1,
0,
-1,
-1,
0,
1,
0,
0,
-1,
-1,
0,
0,
-1,
0,
0,
0,
0,
0,
0,
0,
-1,
-1,
0,
0,
1,
1,
0,
0,
1,
1,
0,
-1,
-2,
-1,
1,
1,
-1,
-1,
0,
1,
0,
0,
-1,
-1,
0,
1,
-1,
-1,
-1,
0,
0,
0,
-1,
-1,
0,
-1,
-1,
-1,
0,
0,
0,
1,
-2,
-2,
-2,
-2,
-10,
-12,
-30,
-37,
-53,
-59,
-72,
-74,
-76,
-76,
-66,
-62,
-55,
-52,
-48,
-47,
-43,
-41,
-39,
-37,
-33,
-31,
-25,
-24,
-19,
-18,
-18,
-16,
-16,
-16,
-14,
-13,
-13,
-11,
-10,
-9,
-8,
-8,
-6,
-6,
-5,
-5,
-3,
-3,
-4,
-3,
-3,
-2,
-3,
-3,
-3,
-1,
-2,
-2,
-2,
-1,
-2,
-2,
-1,
-1,
0,
1,
7,
9,
20,
24,
38,
44,
53,
57,
61,
62,
62,
62,
55,
54,
48,
46,
41,
40,
37,
36,
31,
31,
26,
25,
21,
20,
17,
16,
14,
14,
12,
12,
11,
11,
9,
8,
9,
9,
6,
6,
5,
5,
5,
5,
3,
3,
3,
2,
2,
3,
2,
2,
3,
2,
1,
2,
2,
3,
2,
1,
2,
3,
4,
4,
7,
8,
8,
9,
8,
8,
3,
2,
0,
0,
-3,
-4,
-4,
-3,
-3,
-3,
-2,
-2,
-3,
-3,
-3,
-3,
-3,
-2,
-1,
0,
-1,
-1,
-1,
0,
-1,
-1,
-1,
0,
-1,
-1,
0,
0,
0,
0,
0,
0,
0,
0,
0,
1,
1,
1,
1,
1,
0,
1,
-1,
-1,
0,
0,
0,
-1,
0,
0,
1,
2,
1,
1,
1,
1,
-1,
-1,
-2,
-2,
-3,
-3,
-2,
-1,
0,
0,
1,
2,
0,
0,
0,
0,
0,
0,
0,
1,
0,
0,
0,
0,
-1,
-1,
-1,
0,
0,
1,
0,
-1,
0,
0,
-1,
0,
0,
0,
1,
1,
0,
0,
-1,
-1,
0,
0,
0,
0,
0,
0,
0,
1,
0,
0,
1,
1,
-1,
-1,
0,
0,
-1,
0,
-1,
-1,
-1,
-1,
-1,
0,
0,
0,
0,
0,
0,
0,
-1,
0,
-1,
-1,
-1,
0,
0,
0,
0,
0,
0,
0,
1,
1,
-1,
-1,
0,
1,
-1,
-1,
-1,
0,
0,
0,
-1,
-1,
0,
0,
1,
1,
-1,
-1,
0,
0,
-1,
-1,
0,
0,
0,
1,
-1,
-2,
-1,
0,
-1,
-1,
-1,
-1,
0,
1,
-1,
-1,
-1,
0,
0,
1,
-1,
-2,
0,
0,
0,
0,
-1,
-1,
0,
1,
0,
0,
0,
0,
1,
1,
-2,
-3,
-1,
-1,
-1,
0,
-1,
-1,
-1,
0,
0,
1,
0,
0,
-1,
0,
-1,
-2,
-1,
0,
-1,
0,
-1,
-1,
0,
2,
0,
1,
0,
0,
-1,
-1,
0,
0,
-1,
-1,
-1,
0,
0,
1,
-1,
-1,
2,
2,
0,
0,
-1,
-1,
0,
1,
-1,
0,
-1,
0,
0,
0,
-1,
0,
0,
0,
0,
0,
-1,
-1,
0,
0,
-1,
0,
-1,
-1,
0,
1,
-1,
-1,
-1,
-1,
-1,
0,
-1,
-1,
0,
1,
0,
1,
1,
0,
-1,
-1,
0,
1,
0,
0,
0,
0,
-1,
-1,
0,
0,
0,
0,
-1,
-1,
-1,
-1,
0,
1,
-1,
-1,
1,
1,
0,
1,
-1,
-2,
0,
1,
-1,
-1,
0,
0,
0,
1,
-1,
0,
-1,
0,
-1,
-1,
-1,
0,
0,
0,
0,
0,
-1,
-1,
-1,
0,
-1,
-1,
1,
1,
0,
1,
-1,
-2,
-1,
-1,
-1,
-1,
0,
0,
-1,
0,
0,
1,
1,
0,
-1,
-1,
-1,
0,
0,
0,
0,
0,
-1,
-1,
-1,
0,
-1,
0,
0,
0,
0,
1,
0,
0,
0,
0,
-1,
0,
0,
0,
-1,
0,
0,
1,
0,
0,
-1,
-1,
0,
0,
0,
0,
-1,
-1,
-1,
-1,
0,
1,
-1,
-1,
-1,
-1,
0,
0,
-1,
0,
-1,
-2,
-1,
-1,
0,
0,
-1,
0,
0,
1,
1,
0,
-1,
-1,
-1,
-1,
-1,
0,
0,
0,
-1,
-1,
-1,
0,
-1,
-1,
1,
1,
0,
1,
-1,
-2,
-1,
0,
0,
0,
-1,
-1,
-1,
0,
-2,
-2,
-1,
0,
0,
0,
0,
0,
0,
0,
0,
0,
0,
0,
-1,
0,
-1,
-1,
-1,
0,
0,
1,
-1,
-1,
-1,
0,
-1,
0,
0,
0,
-1,
0,
0,
1,
0,
-1,
0,
1,
-1,
-1,
-1,
0,
-1,
-1,
-1,
-1,
-1,
0,
0,
0,
0,
0,
0,
1,
-2,
-2,
-1,
0,
-1,
0,
0,
-1,
0,
1,
0,
1,
0,
-1,
-1,
-1,
-1,
-1,
0,
0,
-1,
-1,
0,
0,
0,
1,
0,
1,
0,
0,
-1,
-1,
-1,
-1,
-1,
-1,
-1,
0,
0,
0,
0,
1,
0,
0,
-1,
-1,
0,
0,
-1,
-1,
-1,
-1,
-1,
0,
0,
0,
-1,
0,
0,
0,
0,
0,
-1,
-1,
0,
0,
-1,
-1,
-1,
-1,
0,
1,
-1,
-2,
0,
0,
1,
1,
-1,
-1,
0,
0,
0,
-1,
-1,
-1,
0,
1,
-2,
-2,
-1,
-1,
0,
0,
-1,
-1,
1,
2,
0,
0,
-1,
-1,
0,
1,
-1,
-1,
0,
0,
-1,
0,
-1,
-2,
0,
1,
0,
1,
-1,
-1,
0,
1,
-1,
-2,
-1,
0,
0,
0,
-1,
-1,
-1,
0,
0,
1,
0,
-1,
-1,
-1,
0,
1,
-1,
-1,
0,
1,
-1,
-1,
0,
0,
-1,
0,
-1,
-1,
0,
0,
0,
0,
-1,
-1,
-1,
0,
-1,
-1,
-1,
0,
0,
1,
0,
0,
-1,
0,
-1,
-1,
-1,
-1,
-1,
0,
0,
1,
-1,
-1,
-1,
-1,
-1,
0,
-1,
-1,
0,
1,
0,
0,
-1,
0,
0,
1,
-2,
-3,
-1,
0,
0,
0,
-1,
-1,
0,
1,
0,
0,
0,
0,
1,
1,
-1,
-1,
0,
1,
6,
8,
24,
30,
45,
53,
66,
71,
76,
76,
73,
72,
65,
64,
53,
50,
41,
39,
34,
32,
27,
27,
25,
25,
21,
20,
19,
19,
15,
15,
12,
11,
11,
11,
8,
7,
7,
7,
5,
5,
4,
4,
3,
3,
2,
2,
1,
1,
1,
2,
1,
1,
1,
2,
0,
0,
1,
1,
0,
0,
-2,
-2,
-6,
-8,
-19,
-22,
-35,
-39,
-51,
-55,
-63,
-66,
-67,
-66,
-63,
-62,
-54,
-51,
-44,
-42,
-36,
-33,
-31,
-30,
-27,
-25,
-24,
-23,
-21,
-20,
-19,
-18,
-15,
-12,
-10,
-10,
-10,
-10,
-9,
-8,
-7,
-8,
-6,
-5,
-4,
-4,
-4,
-4,
-4,
-2,
-3,
-3,
-3,
-2,
-2,
-3,
-2,
-2,
-2,
-2,
-2,
-1,
-3,
-3,
-5,
-5,
-7,
-7,
-10,
-10,
-9,
-9,
-7,
-5,
-2,
-1,
1,
2,
4,
4,
4,
4,
2,
2,
2,
2,
1,
0,
0,
1,
0,
0,
0,
0,
1,
1,
1,
1,
0,
0,
0,
0,
0,
0,
1,
1,
0,
0,
0,
0,
-1,
-1,
-1,
0,
0,
0,
-1,
0,
-1,
-1,
-1,
0,
-1,
0,
0,
1,
-3,
-3,
-2,
0,
-3,
-3,
-1,
0,
1,
1,
1,
2,
1,
2,
0,
0,
-1,
-1,
-1,
-1,
0,
-1,
-1,
0,
-1,
-1,
-1,
0,
-1,
-1,
-1,
-1,
-1,
-1,
-1,
-1,
-1,
0,
-1,
0,
-1,
0,
-2,
-2,
-2,
-2,
-1,
0,
-1,
-1,
0,
0,
1,
1,
0,
0,
-1,
0,
-1,
-1,
-1,
-1,
-1,
-1,
-1,
-1,
-1,
0,
0,
0,
0,
0,
-1,
-1,
0,
1,
-1,
-1,
-1,
-1,
0,
0,
-1,
-1,
-1,
0,
0,
0,
0,
0,
-1,
0,
-1,
-1,
-1,
0,
0,
1,
-1,
-1,
0,
0,
0,
0,
-2,
-2,
-1,
0,
0,
0,
-1,
0,
0,
0,
-2,
-2,
-1,
-1,
-1,
-1,
-1,
-1,
-1,
0,
-1,
0,
0,
0,
0,
1,
-1,
-1,
-1,
0,
-1,
0,
-1,
-1,
0,
1,
0,
1,
-1,
-1,
-1,
-1,
-1,
0,
-1,
-1,
-1,
0,
0,
0,
-2,
-2,
-1,
0,
0,
0,
-1,
-1,
0,
1,
-1,
-1,
-1,
0,
-1,
-1,
0,
1,
0,
1,
-1,
-1,
0,
0,
-1,
-1,
-1,
-1,
-1,
0,
0,
1,
-2,
-2,
-1,
0,
0,
0,
-1,
-1,
0,
1,
-1,
0,
0,
0,
0,
1,
-1,
-1,
-1,
-1,
-1,
-1,
-1,
-1,
-1,
0,
-1,
-1,
-1,
-1,
0,
1,
-2,
-2,
0,
0,
1,
1,
-2,
-2,
0,
1,
0,
1,
0,
-1,
0,
0,
-1,
0,
-1,
-1,
0,
0,
0,
1,
-2,
-2,
0,
1,
0,
0,
-1,
-1,
-1,
0,
-2,
-1,
-1,
0,
-1,
-1,
1,
2,
0,
1,
0,
-1,
-1,
-1,
-1,
-1,
-1,
0,
-1,
0,
1,
1,
-1,
-2,
-1,
0,
-1,
0,
-1,
-1,
0,
2,
0,
1,
-1,
-1,
0,
1,
-1,
-1,
-1,
-1,
-1,
-1,
-1,
-1,
0,
1,
-1,
-1,
1,
1,
-1,
-1,
0,
0,
-1,
-2,
-1,
0,
-1,
-1,
-1,
0,
1,
1,
0,
-1,
-1,
-1,
-1,
-1,
-2,
-2,
-1,
0,
1,
1,
-1,
-1,
0,
1,
0,
0,
-1,
-1,
0,
1,
-1,
-2,
-1,
-1,
0,
0,
-1,
-1,
-1,
-1,
0,
0,
-1,
-1,
0,
0,
-1,
-1,
-1,
0,
0,
1,
-1,
-1,
0,
0,
-1,
0,
-1,
-1,
0,
1,
0,
1,
-1,
-1,
0,
1,
-1,
-1,
-1,
-1,
0,
0,
-1,
-1,
-1,
-1,
-1,
0,
-1,
-1,
0,
0,
-1,
0,
-1,
-1,
-1,
0,
-1,
-1,
0,
1,
0,
1,
0,
-1,
-1,
-1,
-1,
-1,
-2,
-2,
-1,
0,
0,
1,
-1,
-1,
0,
1,
0,
-1,
-1,
-1,
0,
1,
-1,
-1,
0,
0,
0,
1,
-2,
-3,
-1,
0,
0,
0,
-1,
-1,
0,
1,
-1,
-1,
0,
0,
0,
1,
-1,
-1,
0,
0,
-1,
-1,
-1,
-1,
0,
1,
0,
0,
0,
0,
0,
1,
-1,
-1,
-2,
-2,
-1,
0,
0,
-1,
0,
1,
0,
1,
0,
-1,
0,
1,
-1,
-1,
0,
0,
0,
0,
-1,
-1,
-1,
0,
0,
1,
0,
0,
-1,
-1,
-1,
-1,
-2,
-1,
-1,
0,
1,
1,
0,
0,
0,
1,
0,
-1,
-1,
-1,
0,
1,
0,
-1,
-1,
0,
0,
0,
-1,
0,
0,
0,
0,
0,
-1,
-1,
-1,
0,
-1,
-1,
-1,
0,
0,
1,
-1,
-1,
-1,
0,
-1,
-1,
-1,
-1,
0,
1,
1,
1,
-1,
-1,
0,
1,
-1,
-2,
-1,
-1,
0,
0,
-2,
-2,
0,
1,
0,
0,
0,
0,
0,
1,
-1,
-1,
-1,
0,
-1,
0,
-1,
-1,
0,
1,
0,
1,
0,
0,
-1,
-1,
-1,
0,
-1,
-1,
-1,
0,
0,
1,
-1,
-1,
0,
1,
0,
0,
-1,
-1,
0,
1,
-1,
-1,
-1,
0,
0,
0,
-1,
0,
-1,
0,
-1,
-1,
0,
0,
-1,
0,
-1,
-1,
0,
0,
0,
1,
-1,
-1,
-1,
0,
-1,
-1,
-1,
-1,
0,
1,
0,
1,
-1,
-1,
0,
1,
-1,
-2,
0,
0,
1,
1,
-1,
-1,
0,
0,
0,
0,
0,
0,
0,
1,
-2,
-2,
-1,
0,
-1,
0,
0,
-1,
0,
1,
0,
1,
0,
-1,
0,
0,
0,
0,
-1,
-1,
-1,
0,
0,
0,
0,
1,
-1,
0,
-1,
-1,
0,
0,
-1,
-1,
-2,
-2,
0,
0,
-1,
-1,
0,
1,
0,
1,
0,
-1,
-1,
-1,
-1,
-1,
0,
0,
-1,
-1,
-1,
-1,
-7,
-10,
-19,
-24,
-41,
-46,
-66,
-71,
-75,
-76,
-72,
-70,
-61,
-59,
-51,
-50,
-46,
-45,
-41,
-39,
-35,
-33,
-28,
-27,
-22,
-19,
-17,
-16,
-16,
-15,
-15,
-14,
-13,
-11,
-11,
-10,
-8,
-7,
-6,
-6,
-5,
-6,
-5,
-4,
-4,
-4,
-4,
-3,
-3,
-1,
-2,
-2,
-2,
-1,
-2,
-2,
-2,
-2,
-2,
-2,
0,
1,
3,
5,
14,
19,
30,
34,
47,
50,
60,
63,
62,
62,
58,
57,
50,
48,
43,
42,
38,
37,
33,
32,
28,
27,
23,
22,
19,
18,
15,
15,
14,
13,
12,
11,
10,
10,
8,
8,
7,
7,
6,
5,
5,
5,
4,
4,
3,
3,
3,
3,
3,
3,
2,
2,
2,
3,
2,
1,
1,
2,
2,
2,
3,
4,
6,
7,
8,
9,
9,
9,
6,
5,
1,
0,
-2,
-2,
-3,
-3,
-3,
-3,
-3,
-2,
-2,
-2,
-2,
-2,
-3,
-2,
-1,
-1,
-2,
-1,
-1,
-1,
-1,
0,
-1,
-2,
0,
1,
0,
0,
-1,
0,
0,
0,
0,
0,
0,
1,
1,
1,
-1,
-1,
0,
0,
0,
0,
-1,
0,
0,
0,
0,
1,
0,
1,
2,
2,
1,
1,
0,
0,
-2,
-2,
-2,
-2,
-2,
-2,
0,
1,
1,
0,
0,
0,
0,
0,
-1,
0,
0,
0,
0,
0,
0,
0,
0,
0,
0,
0,
0,
0,
-1,
-1,
0,
1,
0,
0,
0,
0,
0,
1,
0,
1,
1,
1,
0,
0,
-1,
-1,
0,
1,
-1,
-1,
-1,
0,
-1,
-1,
-1,
0,
-1,
-1,
-1,
-1,
-1,
-1,
-1,
-1,
0,
0,
-1,
0,
0,
0,
0,
1,
0,
0,
-1,
0,
-1,
-1,
0,
1,
0,
1,
-1,
-1,
0,
1,
-1,
-1,
-1,
-1,
1,
1,
-1,
-1,
-1,
0,
-1,
-1,
-1,
0,
-1,
-1,
-1,
0,
0,
0,
0,
0,
0,
0,
0,
1,
1,
1,
0,
0,
-1,
-1,
-1,
-1,
-2,
-1,
-1,
-1,
0,
1,
0,
0,
0,
1,
0,
-1,
0,
-1,
-1,
-1,
-1,
-1,
0,
0,
-1,
-1,
0,
1,
-1,
-1,
0,
0,
0,
0,
-1,
0,
0,
0,
1,
1,
-1,
0,
-1,
-1,
-1,
-1,
-1,
-1,
-1,
-1,
0,
1,
0,
1,
0,
0,
0,
1,
-1,
-2,
0,
0,
-1,
0,
-1,
-1,
-1,
0,
-1,
-1,
-1,
0,
-1,
-1,
0,
1,
-1,
-1,
-1,
0,
1,
1,
-2,
-3,
0,
0,
0,
0,
-1,
-1,
0,
1,
-1,
-1,
-1,
-1,
-1,
-1,
0,
1,
0,
1,
0,
0,
0,
1,
-2,
-2,
-1,
0,
-1,
0,
0,
0,
0,
1,
-1,
-1,
-1,
0,
-1,
-1,
0,
1,
1,
1,
-1,
-1,
0,
1,
-2,
-2,
0,
0,
0,
0,
-2,
-2,
0,
1,
-1,
-1,
-1,
0,
0,
0,
0,
0,
0,
0,
-1,
-1,
0,
1,
-1,
-1,
0,
0,
-1,
0,
0,
-1,
-1,
0,
-1,
-1,
0,
0,
-1,
-1,
0,
1,
0,
1,
-1,
-1,
0,
1,
-1,
-1,
0,
0,
0,
0,
-1,
-1,
0,
1,
0,
0,
-1,
0,
0,
0,
-1,
0,
0,
0,
0,
0,
0,
1,
-1,
-2,
0,
0,
-1,
0,
0,
-1,
0,
1,
-1,
-1,
-1,
0,
0,
0,
-1,
0,
0,
1,
0,
0,
-1,
-1,
-1,
0,
0,
0,
0,
0,
-1,
-1,
-1,
0,
-1,
-1,
-1,
0,
0,
0,
-1,
0,
0,
1,
0,
0,
-1,
0,
-1,
-2,
0,
0,
-1,
0,
0,
-1,
0,
1,
0,
0,
0,
0,
0,
0,
0,
0,
-1,
-1,
-1,
0,
0,
0,
-1,
-1,
0,
0,
0,
0,
-1,
-1,
0,
1,
-1,
-1,
-1,
0,
0,
0,
-1,
0,
0,
0,
0,
0,
-1,
-1,
0,
1,
1,
0,
-1,
0,
0,
1,
-1,
-1,
-1,
-1,
1,
1,
-1,
-1,
0,
1,
0,
0,
-1,
0,
0,
1,
-1,
-1,
-1,
0,
0,
0,
-1,
-1,
0,
1,
1,
0,
-1,
0,
0,
0,
0,
1,
-1,
-1,
1,
1,
0,
1,
-1,
-1,
0,
1,
-1,
-1,
-1,
-1,
0,
1,
-1,
-2,
-1,
0,
0,
0,
-1,
0,
0,
1,
-1,
-1,
0,
0,
-1,
0,
0,
0,
0,
0,
-1,
0,
-1,
-1,
0,
0,
-1,
-1,
-1,
-1,
-1,
0,
0,
1,
0,
0,
0,
1,
-1,
-1,
-1,
0,
-1,
0,
-1,
-1,
-1,
0,
0,
0,
-1,
0,
-1,
-1,
-1,
0,
-1,
-1,
0,
0,
0,
0,
-1,
-1,
-1,
-1,
0,
0,
-1,
-1,
-1,
0,
-1,
-2,
-1,
0,
0,
0,
0,
1,
0,
1,
-1,
-1,
-1,
-1,
-1,
0,
0,
0,
0,
0,
0,
1,
-1,
-2,
-2,
-1,
-1,
-1,
0,
0,
-1,
0,
0,
0,
-1,
-1,
-1,
-1,
-1,
0,
-1,
-1,
0,
0,
0,
0,
0,
0,
0,
0,
-1,
-1,
-1,
-1,
-1,
-1,
-2,
-2,
-2,
-1,
0,
1,
-2,
-2,
0,
1,
0,
0,
-1,
-1,
0,
1,
0,
0,
0,
0,
0,
1,
-1,
-2,
-1,
0,
0,
0,
-1,
-1,
0,
1,
0,
0,
1,
1,
0,
1,
-1,
-1,
-1,
0,
-1,
0,
-1,
-1,
0,
0,
0,
1,
0,
-1,
0,
0,
0,
0,
-1,
-1,
-1,
0,
3,
5,
14,
20,
35,
42,
57,
61,
71,
75,
76,
77,
69,
67,
58,
56,
47,
45,
37,
35,
29,
28,
24,
23,
23,
23,
20,
20,
17,
16,
14,
13,
12,
12,
9,
9,
7,
6,
5,
5,
3,
3,
4,
4,
3,
3,
2,
3,
2,
1,
1,
2,
1,
1,
1,
1,
1,
1,
1,
0,
0,
0,
-3,
-4,
-12,
-15,
-27,
-30,
-43,
-47,
-58,
-60,
-66,
-68,
-66,
-65,
-59,
-58,
-49,
-47,
-41,
-39,
-33,
-31,
-28,
-26,
-25,
-24,
-22,
-23,
-18,
-15,
-16,
-16,
-14,
-13,
-12,
-11,
-9,
-9,
-6,
-6,
-6,
-6,
-4,
-4,
-4,
-4,
-4,
-3,
-3,
-3,
-3,
-3,
-2,
-1,
-2,
-2,
-2,
-1,
-1,
-1,
-2,
-2,
-3,
-4,
-5,
-6,
-8,
-9,
-9,
-9,
-8,
-7,
-5,
-4,
0,
1,
2,
3,
3,
4,
3,
3,
2,
2,
1,
2,
1,
1,
1,
1,
0,
0,
1,
1,
0,
0,
1,
1,
0,
0,
0,
0,
-1,
0,
0,
0,
0,
0,
-1,
0,
-1,
-1,
-1,
0,
-1,
-1,
-1,
0,
0,
0,
0,
1,
-1,
-2,
-1,
1,
-2,
-2,
-3,
-3,
-2,
-1,
0,
1,
0,
1,
1,
1,
0,
0,
-1,
-1,
-2,
-2,
-1,
-1,
-1,
0,
-2,
-2,
0,
0,
-1,
0,
-1,
-1,
0,
2,
-1,
0,
0,
0,
0,
0,
-2,
-3,
-1,
0,
-1,
-1,
-1,
-1,
-1,
0,
-2,
-2,
-1,
0,
0,
1,
-1,
-2,
0,
0,
1,
1,
-1,
-1,
-1,
0,
-1,
-1,
-1,
-1,
0,
0,
0,
0,
-1,
-1,
-1,
-1,
-1,
-1,
-1,
-1,
-1,
0,
0,
0,
0,
1,
-1,
-1,
-1,
0,
0,
0,
-1,
-1,
0,
1,
0,
1,
0,
0,
0,
1,
-2,
-3,
-1,
-1,
-1,
-1,
-1,
-1,
-1,
0,
1,
0,
0,
0,
-1,
-1,
