0-vorversuch/data_b/ALL0001/A0001CH1.CSV

Memory Length,4000,
Trigger Level,4.00000e+00,
Source,CH1,
Probe,1.0X,
Vertical Units,V,
Vertical Scale,5.00000e+00,
Vertical Position,0.00000e+00,
Horizontal Units,S,
Horizontal Scale,5.00000e-09,
Horizontal Position,2.2000000e-09,
Horizontal Mode,Main,
Sampling Period,2.00000e-10,
Firmware,V1.14,
Time, ,
Mode,Fast,
Waveform Data,
48,
47,
47,
47,
48,
47,
47,
47,
47,
48,
47,
47,
47,
47,
48,
47,
47,
47,
47,
47,
47,
47,
47,
47,
47,
48,
47,
48,
48,
48,
48,
48,
47,
47,
47,
47,
47,
47,
48,
48,
48,
48,
47,
47,
47,
47,
47,
47,
47,
47,
47,
47,
47,
47,
46,
47,
47,
47,
47,
47,
47,
47,
47,
48,
47,
47,
48,
47,
48,
47,
47,
47,
47,
47,
47,
47,
47,
47,
47,
47,
47,
47,
47,
47,
47,
47,
47,
47,
47,
47,
47,
47,
47,
47,
47,
47,
47,
47,
47,
47,
47,
47,
48,
47,
47,
47,
47,
47,
48,
48,
47,
47,
47,
47,
47,
47,
47,
47,
47,
48,
47,
47,
47,
47,
47,
47,
47,
47,
47,
47,
47,
47,
47,
47,
47,
47,
47,
47,
47,
47,
47,
47,
47,
48,
47,
48,
47,
47,
47,
47,
47,
48,
47,
47,
47,
47,
47,
47,
47,
48,
47,
47,
47,
47,
47,
47,
47,
47,
47,
47,
47,
47,
47,
47,
47,
47,
47,
47,
47,
47,
47,
47,
47,
48,
47,
48,
48,
47,
47,
48,
47,
48,
47,
47,
47,
47,
47,
47,
47,
48,
47,
47,
47,
47,
47,
47,
47,
47,
47,
47,
47,
47,
47,
47,
47,
47,
47,
47,
47,
47,
47,
47,
48,
48,
47,
47,
47,
47,
47,
48,
47,
47,
47,
47,
47,
48,
47,
47,
47,
47,
48,
47,
47,
48,
47,
47,
47,
47,
47,
47,
48,
47,
47,
47,
47,
47,
47,
47,
47,
47,
47,
47,
47,
47,
47,
47,
47,
48,
48,
47,
47,
47,
47,
47,
47,
47,
47,
47,
47,
47,
48,
47,
47,
47,
47,
47,
47,
47,
47,
47,
47,
47,
47,
47,
48,
47,
47,
47,
47,
47,
47,
47,
47,
48,
47,
47,
48,
47,
48,
47,
47,
48,
47,
47,
47,
47,
47,
47,
48,
47,
47,
48,
47,
47,
47,
47,
47,
47,
48,
47,
47,
47,
47,
47,
47,
46,
46,
47,
47,
47,
47,
47,
48,
47,
47,
47,
47,
47,
47,
47,
47,
48,
47,
47,
47,
47,
47,
47,
47,
47,
47,
47,
47,
47,
47,
47,
47,
47,
47,
47,
47,
47,
47,
47,
48,
47,
47,
47,
47,
47,
47,
47,
48,
47,
47,
47,
47,
47,
47,
47,
47,
47,
48,
47,
47,
47,
47,
47,
47,
47,
48,
48,
48,
48,
47,
47,
47,
47,
47,
47,
47,
47,
47,
48,
47,
47,
47,
47,
47,
47,
47,
47,
48,
47,
47,
48,
47,
47,
48,
48,
47,
48,
47,
47,
47,
47,
47,
47,
47,
47,
48,
47,
47,
47,
48,
47,
47,
47,
47,
47,
47,
47,
47,
47,
48,
47,
47,
47,
47,
47,
47,
47,
47,
47,
47,
47,
47,
47,
48,
48,
47,
47,
47,
48,
47,
47,
47,
47,
47,
47,
47,
47,
47,
47,
47,
47,
47,
47,
47,
47,
47,
47,
47,
47,
47,
47,
47,
47,
47,
47,
47,
47,
47,
47,
47,
47,
47,
47,
47,
48,
47,
47,
47,
47,
47,
48,
47,
47,
47,
47,
47,
47,
47,
47,
48,
46,
46,
46,
46,
47,
47,
47,
47,
47,
47,
47,
47,
47,
47,
47,
47,
47,
47,
48,
48,
48,
48,
47,
48,
48,
47,
48,
47,
47,
47,
47,
47,
47,
47,
48,
48,
48,
47,
47,
48,
47,
47,
47,
47,
47,
47,
47,
47,
47,
47,
47,
47,
47,
47,
47,
47,
47,
47,
48,
47,
48,
47,
48,
48,
48,
47,
47,
47,
48,
47,
47,
47,
47,
47,
47,
47,
47,
47,
47,
47,
47,
47,
47,
47,
47,
47,
47,
47,
47,
47,
47,
47,
47,
47,
47,
47,
47,
48,
48,
47,
48,
47,
48,
48,
47,
47,
48,
47,
47,
47,
47,
47,
47,
47,
47,
47,
47,
47,
48,
47,
47,
47,
47,
47,
47,
47,
47,
47,
47,
47,
47,
47,
47,
47,
47,
47,
47,
47,
47,
47,
48,
48,
48,
48,
48,
47,
47,
47,
47,
47,
47,
47,
47,
47,
47,
48,
47,
47,
47,
47,
47,
47,
47,
47,
47,
47,
47,
47,
47,
47,
47,
47,
47,
47,
47,
47,
47,
48,
48,
47,
47,
47,
48,
47,
48,
47,
48,
47,
46,
46,
46,
46,
46,
47,
46,
46,
45,
44,
45,
45,
44,
43,
42,
41,
41,
40,
39,
36,
37,
35,
34,
32,
31,
29,
29,
27,
23,
20,
22,
19,
16,
13,
11,
9,
9,
7,
2,
-2,
0,
-3,
-6,
-9,
-10,
-13,
-14,
-15,
-19,
-21,
-20,
-21,
-24,
-25,
-25,
-27,
-28,
-28,
-30,
-32,
-31,
-32,
-33,
-34,
-34,
-34,
-34,
-34,
-35,
-35,
-35,
-35,
-36,
-36,
-35,
-36,
-35,
-36,
-37,
-37,
-37,
-37,
-38,
-38,
-38,
-39,
-39,
-39,
-40,
-42,
-41,
-42,
-43,
-43,
-44,
-44,
-45,
-46,
-47,
-49,
-49,
-49,
-50,
-51,
-51,
-52,
-52,
-53,
-54,
-54,
-54,
-54,
-54,
-54,
-54,
-55,
-55,
-56,
-56,
-56,
-56,
-56,
-56,
-56,
-55,
-54,
-54,
-54,
-53,
-53,
-53,
-52,
-51,
-51,
-51,
-50,
-50,
-50,
-49,
-50,
-50,
-50,
-50,
-50,
-50,
-50,
-50,
-49,
-50,
-50,
-50,
-49,
-50,
-50,
-50,
-51,
-51,
-52,
-52,
-53,
-53,
-54,
-54,
-54,
-54,
-55,
-54,
-54,
-55,
-55,
-55,
-55,
-56,
-56,
-55,
-56,
-55,
-56,
-56,
-56,
-56,
-55,
-56,
-56,
-56,
-56,
-55,
-56,
-55,
-54,
-54,
-54,
-54,
-54,
-53,
-53,
-52,
-53,
-52,
-52,
-53,
-52,
-52,
-52,
-52,
-52,
-52,
-51,
-52,
-51,
-52,
-52,
-52,
-52,
-52,
-53,
-53,
-53,
-54,
-55,
-54,
-53,
-54,
-54,
-55,
-55,
-55,
-54,
-55,
-54,
-53,
-54,
-54,
-54,
-54,
-54,
-54,
-56,
-54,
-55,
-55,
-55,
-55,
-55,
-55,
-54,
-54,
-53,
-53,
-53,
-54,
-53,
-53,
-53,
-53,
-53,
-53,
-53,
-52,
-52,
-53,
-52,
-54,
-53,
-54,
-54,
-53,
-52,
-53,
-53,
-52,
-52,
-53,
-52,
-53,
-53,
-53,
-53,
-53,
-53,
-53,
-54,
-54,
-53,
-54,
-54,
-54,
-54,
-54,
-54,
-54,
-54,
-54,
-54,
-54,
-54,
-54,
-54,
-53,
-54,
-55,
-54,
-55,
-55,
-54,
-55,
-55,
-54,
-54,
-54,
-53,
-53,
-53,
-53,
-53,
-54,
-53,
-54,
-53,
-53,
-53,
-54,
-53,
-53,
-53,
-53,
-53,
-53,
-53,
-53,
-53,
-53,
-52,
-53,
-53,
-53,
-53,
-53,
-53,
-54,
-54,
-53,
-54,
-54,
-54,
-54,
-54,
-54,
-54,
-54,
-53,
-54,
-54,
-54,
-54,
-54,
-54,
-54,
-54,
-54,
-55,
-54,
-54,
-54,
-54,
-54,
-54,
-54,
-54,
-53,
-54,
-53,
-54,
-54,
-54,
-53,
-53,
-53,
-54,
-54,
-54,
-53,
-54,
-54,
-54,
-54,
-53,
-52,
-54,
-53,
-54,
-53,
-54,
-54,
-54,
-54,
-54,
-54,
-54,
-53,
-54,
-54,
-54,
-54,
-54,
-53,
-54,
-54,
-54,
-53,
-53,
-54,
-54,
-54,
-54,
-53,
-53,
-53,
-53,
-53,
-53,
-53,
-53,
-53,
-54,
-53,
-54,
-54,
-54,
-54,
-54,
-53,
-54,
-54,
-54,
-54,
-53,
-54,
-54,
-53,
-54,
-54,
-53,
-53,
-53,
-53,
-53,
-53,
-53,
-53,
-53,
-53,
-53,
-53,
-53,
-52,
-53,
-53,
-53,
-54,
-54,
-54,
-54,
-54,
-54,
-54,
-54,
-54,
-54,
-53,
-53,
-54,
-54,
-54,
-54,
-54,
-54,
-53,
-54,
-53,
-53,
-54,
-54,
-54,
-53,
-53,
-53,
-54,
-53,
-53,
-53,
-54,
-53,
-54,
-53,
-53,
-53,
-53,
-53,
-54,
-54,
-53,
-54,
-54,
-55,
-55,
-54,
-53,
-54,
-53,
-54,
-54,
-54,
-54,
-54,
-53,
-54,
-54,
-53,
-54,
-54,
-54,
-53,
-53,
-53,
-53,
-53,
-53,
-53,
-53,
-53,
-53,
-53,
-53,
-53,
-53,
-52,
-53,
-53,
-54,
-53,
-53,
-53,
-53,
-53,
-53,
-53,
-53,
-53,
-54,
-54,
-53,
-54,
-54,
-54,
-54,
-54,
-54,
-54,
-53,
-54,
-55,
-54,
-54,
-53,
-53,
-52,
-53,
-53,
-53,
-54,
-54,
-54,
-54,
-53,
-53,
-53,
-53,
-53,
-54,
-54,
-54,
-54,
-54,
-54,
-54,
-54,
-53,
-54,
-53,
-53,
-53,
-54,
-54,
-53,
-53,
-54,
-54,
-54,
-53,
-54,
-53,
-53,
-53,
-53,
-54,
-53,
-54,
-54,
-54,
-53,
-54,
-54,
-53,
-53,
-53,
-52,
-53,
-53,
-53,
-53,
-53,
-54,
-54,
-54,
-54,
-54,
-53,
-54,
-54,
-53,
-53,
-54,
-53,
-54,
-54,
-54,
-54,
-53,
-53,
-53,
-53,
-53,
-53,
-53,
-53,
-53,
-53,
-53,
-53,
-53,
-53,
-53,
-53,
-53,
-53,
-53,
-53,
-53,
-54,
-54,
-54,
-53,
-53,
-54,
-54,
-54,
-53,
-54,
-53,
-53,
-53,
-54,
-53,
-54,
-53,
-54,
-54,
-54,
-53,
-54,
-54,
-54,
-53,
-53,
-53,
-53,
-53,
-52,
-53,
-54,
-53,
-53,
-53,
-52,
-53,
-53,
-53,
-53,
-53,
-53,
-53,
-54,
-54,
-53,
-54,
-54,
-53,
-54,
-54,
-53,
-53,
-54,
-54,
-54,
-54,
-54,
-54,
-54,
-53,
-54,
-54,
-53,
-53,
-53,
-53,
-52,
-53,
-53,
-53,
-52,
-53,
-53,
-53,
-53,
-53,
-53,
-53,
-53,
-53,
-53,
-53,
-53,
-54,
-54,
-54,
-54,
-53,
-54,
-53,
-53,
-53,
-53,
-54,
-54,
-53,
-53,
-53,
-53,
-52,
-53,
-53,
-54,
-53,
-54,
-54,
-54,
-53,
-53,
-53,
-54,
-54,
-54,
-53,
-53,
-53,
-53,
-53,
-53,
-54,
-54,
-53,
-54,
-54,
-54,
-53,
-53,
-53,
-53,
-53,
-53,
-52,
-53,
-54,
-54,
-54,
-53,
-53,
-54,
-53,
-53,
-54,
-53,
-53,
-53,
-53,
-53,
-53,
-53,
-53,
-53,
-53,
-53,
-53,
-53,
-52,
-52,
-52,
-53,
-53,
-53,
-54,
-54,
-54,
-54,
-54,
-53,
-53,
-54,
-54,
-53,
-53,
-53,
-54,
-54,
-53,
-53,
-53,
-53,
-53,
-54,
-53,
-53,
-53,
-53,
-53,
-54,
-54,
-54,
-53,
-53,
-54,
-53,
-53,
-53,
-52,
-53,
-53,
-53,
-53,
-53,
-53,
-54,
-53,
-54,
-53,
-53,
-53,
-54,
-54,
-53,
-53,
-54,
-53,
-54,
-54,
-54,
-53,
-54,
-53,
-53,
-54,
-54,
-53,
-54,
-53,
-53,
-53,
-53,
-53,
-53,
-53,
-53,
-53,
-53,
-53,
-53,
-53,
-53,
-54,
-54,
-54,
-54,
-53,
-54,
-55,
-54,
-54,
-54,
-53,
-53,
-53,
-54,
-54,
-54,
-54,
-54,
-54,
-54,
-53,
-54,
-54,
-54,
-54,
-53,
-54,
-53,
-53,
-53,
-53,
-53,
-54,
-53,
-53,
-53,
-53,
-53,
-53,
-53,
-54,
-54,
-54,
-53,
-54,
-53,
-53,
-53,
-53,
-54,
-54,
-54,
-53,
-54,
-54,
-54,
-54,
-54,
-54,
-54,
-53,
-53,
-54,
-53,
-53,
-54,
-53,
-53,
-53,
-53,
-52,
-53,
-53,
-53,
-53,
-54,
-53,
-53,
-52,
-53,
-54,
-54,
-53,
-54,
-54,
-54,
-54,
-54,
-54,
-54,
-53,
-53,
-53,
-54,
-54,
-54,
-53,
-54,
-54,
-54,
-53,
-54,
-54,
-54,
-53,
-54,
-53,
-53,
-53,
-53,
-53,
-53,
-53,
-53,
-53,
-53,
-53,
-53,
-53,
-53,
-53,
-53,
-53,
-54,
-54,
-54,
-54,
-53,
-54,
-54,
-54,
-53,
-53,
-54,
-54,
-54,
-54,
-54,
-54,
-54,
-54,
-53,
-54,
-54,
-54,
-54,
-53,
-53,
-53,
-53,
-53,
-53,
-53,
-53,
-53,
-53,
-53,
-53,
-53,
-53,
-54,
-54,
-54,
-53,
-53,
-53,
-53,
-54,
-53,
-54,
-53,
-53,
-53,
-53,
-53,
-54,
-53,
-54,
-54,
-54,
-53,
-54,
-54,
-54,
-53,
-53,
-53,
-53,
-53,
-53,
-53,
-53,
-53,
-53,
-53,
-53,
-53,
-52,
-53,
-53,
-54,
-53,
-53,
-53,
-53,
-53,
-53,
-53,
-53,
-53,
-53,
-53,
-53,
-54,
-54,
-53,
-53,
-53,
-53,
-54,
-53,
-53,
-54,
-54,
-53,
-53,
-53,
-53,
-53,
-53,
-52,
-53,
-54,
-53,
-53,
-53,
-53,
-53,
-53,
-53,
-53,
-54,
-53,
-54,
-54,
-53,
-54,
-54,
-53,
-54,
-53,
-53,
-53,
-54,
-54,
-54,
-54,
-54,
-54,
-54,
-53,
-53,
-54,
-53,
-54,
-54,
-53,
-53,
-53,
-53,
-52,
-53,
-54,
-53,
-53,
-53,
-53,
-54,
-54,
-53,
-53,
-53,
-54,
-54,
-54,
-54,
-54,
-54,
-53,
-53,
-53,
-53,
-53,
-54,
-53,
-54,
-54,
-54,
-54,
-54,
-54,
-54,
-53,
-53,
-53,
-53,
-53,
-53,
-53,
-53,
-53,
-53,
-53,
-53,
-53,
-53,
-53,
-53,
-53,
-53,
-53,
-54,
-53,
-53,
-52,
-52,
-53,
-53,
-51,
-52,
-52,
-51,
-50,
-50,
-50,
-49,
-47,
-47,
-46,
-45,
-42,
-43,
-43,
-39,
-37,
-37,
-35,
-33,
-33,
-29,
-27,
-29,
-27,
-23,
-21,
-19,
-17,
-16,
-14,
-10,
-7,
-8,
-6,
-2,
0,
2,
4,
6,
6,
10,
13,
11,
13,
16,
18,
18,
19,
21,
22,
24,
26,
25,
26,
28,
30,
31,
31,
31,
30,
32,
33,
32,
32,
34,
34,
34,
35,
35,
35,
35,
35,
35,
36,
36,
36,
36,
36,
37,
38,
39,
39,
39,
39,
40,
40,
40,
41,
42,
41,
42,
43,
42,
42,
43,
43,
44,
45,
45,
45,
46,
45,
45,
46,
46,
46,
46,
47,
47,
47,
47,
47,
47,
48,
47,
48,
48,
47,
47,
47,
47,
47,
47,
47,
47,
47,
47,
47,
47,
47,
47,
47,
47,
47,
48,
47,
47,
47,
47,
48,
47,
47,
47,
47,
47,
47,
47,
47,
47,
48,
48,
49,
49,
48,
49,
48,
48,
48,
48,
48,
49,
49,
49,
49,
49,
49,
49,
49,
49,
49,
48,
49,
49,
48,
49,
50,
49,
49,
49,
49,
49,
49,
49,
49,
48,
48,
48,
49,
49,
49,
48,
48,
48,
48,
47,
47,
47,
48,
47,
47,
47,
48,
48,
48,
48,
48,
48,
48,
48,
48,
49,
49,
48,
48,
48,
48,
49,
49,
48,
48,
48,
49,
49,
49,
48,
48,
48,
48,
48,
49,
48,
48,
48,
48,
47,
47,
47,
47,
47,
47,
47,
48,
48,
48,
48,
48,
48,
48,
48,
48,
49,
48,
47,
47,
47,
47,
47,
47,
48,
47,
47,
47,
47,
47,
47,
47,
47,
47,
47,
47,
46,
47,
47,
48,
47,
47,
47,
47,
47,
47,
47,
48,
47,
47,
47,
48,
48,
49,
49,
48,
48,
47,
47,
47,
47,
47,
47,
48,
48,
47,
47,
47,
47,
47,
47,
47,
47,
47,
48,
47,
47,
47,
47,
47,
47,
47,
47,
47,
47,
47,
47,
48,
48,
47,
48,
47,
48,
47,
48,
47,
47,
48,
47,
47,
47,
47,
47,
47,
48,
48,
48,
47,
47,
48,
48,
47,
47,
47,
48,
47,
48,
47,
47,
48,
47,
48,
47,
47,
47,
47,
47,
47,
48,
47,
48,
47,
47,
48,
47,
47,
47,
47,
47,
47,
47,
47,
47,
47,
48,
47,
47,
47,
47,
47,
47,
47,
47,
47,
47,
48,
47,
47,
47,
47,
47,
47,
47,
47,
47,
47,
47,
47,
48,
47,
47,
47,
47,
48,
48,
47,
48,
47,
47,
47,
47,
47,
47,
48,
47,
47,
47,
47,
47,
47,
47,
47,
47,
47,
48,
47,
47,
47,
47,
47,
47,
47,
47,
47,
47,
47,
47,
48,
47,
47,
47,
46,
47,
48,
48,
47,
48,
47,
47,
47,
47,
47,
47,
47,
47,
47,
47,
47,
47,
47,
47,
47,
47,
47,
47,
47,
47,
47,
47,
47,
47,
47,
47,
47,
47,
47,
47,
47,
48,
47,
47,
48,
48,
48,
48,
47,
47,
47,
48,
47,
47,
47,
47,
47,
47,
48,
47,
47,
47,
48,
47,
47,
47,
47,
47,
47,
47,
47,
47,
47,
47,
47,
47,
47,
47,
47,
47,
48,
47,
47,
47,
48,
48,
48,
48,
47,
48,
47,
47,
47,
47,
48,
47,
47,
47,
47,
47,
47,
47,
48,
47,
47,
47,
47,
47,
47,
47,
47,
47,
47,
47,
47,
47,
47,
47,
47,
47,
47,
48,
47,
48,
47,
47,
47,
47,
47,
48,
48,
48,
47,
47,
47,
48,
47,
48,
47,
47,
47,
47,
48,
47,
48,
48,
47,
47,
47,
47,
47,
47,
47,
47,
47,
47,
47,
47,
47,
47,
48,
48,
47,
48,
48,
47,
48,
47,
47,
47,
47,
47,
47,
47,
47,
47,
47,
47,
48,
47,
47,
47,
47,
47,
47,
47,
47,
47,
47,
47,
47,
47,
47,
47,
47,
47,
47,
47,
47,
47,
48,
47,
47,
47,
48,
48,
48,
48,
47,
47,
47,
47,
47,
47,
47,
47,
47,
47,
48,
46,
47,
48,
48,
47,
47,
47,
47,
47,
47,
47,
47,
47,
47,
47,
47,
47,
47,
47,
47,
47,
48,
47,
47,
48,
47,
47,
48,
48,
47,
47,
47,
47,
47,
47,
47,
47,
47,
47,
48,
47,
47,
47,
47,
47,
47,
47,
47,
48,
47,
47,
47,
46,
47,
47,
47,
47,
47,
47,
47,
47,
48,
47,
47,
47,
47,
48,
48,
47,
47,
48,
47,
47,
47,
48,
48,
48,
48,
47,
47,
47,
47,
47,
48,
47,
47,
47,
47,
47,
47,
47,
47,
47,
47,
47,
47,
47,
47,
47,
47,
47,
47,
48,
47,
48,
47,
47,
48,
47,
47,
48,
48,
47,
47,
47,
47,
47,
47,
47,
47,
47,
47,
47,
48,
47,
47,
47,
47,
47,
47,
47,
47,
47,
47,
47,
47,
46,
46,
46,
47,
47,
47,
48,
47,
48,
48,
48,
48,
47,
47,
47,
47,
47,
47,
47,
48,
48,
48,
47,
47,
47,
47,
47,
47,
47,
47,
47,
47,
47,
47,
47,
47,
47,
47,
47,
47,
47,
47,
47,
47,
47,
47,
48,
47,
48,
47,
48,
48,
47,
47,
48,
48,
47,
47,
47,
47,
47,
47,
47,
47,
47,
48,
47,
48,
47,
47,
47,
47,
47,
48,
47,
47,
47,
48,
47,
47,
47,
47,
47,
48,
47,
48,
47,
47,
47,
48,
47,
47,
48,
48,
48,
49,
48,
47,
47,
47,
47,
47,
47,
48,
47,
47,
47,
47,
47,
47,
47,
47,
47,
47,
47,
47,
47,
47,
47,
47,
47,
47,
47,
47,
47,
48,
47,
48,
47,
47,
47,
47,
48,
47,
47,
48,
47,
47,
47,
47,
47,
47,
47,
48,
48,
47,
47,
47,
47,
47,
47,
47,
47,
47,
47,
47,
47,
48,
47,
47,
47,
47,
47,
47,
47,
47,
47,
48,
48,
47,
47,
48,
48,
47,
47,
47,
47,
47,
47,
47,
48,
47,
47,
47,
47,
47,
46,
47,
47,
47,
47,
47,
47,
47,
47,
47,
47,
47,
47,
47,
47,
47,
47,
47,
47,
48,
47,
47,
47,
47,
48,
48,
47,
47,
47,
47,
47,
47,
47,
47,
48,
47,
48,
47,
48,
47,
47,
48,
47,
47,
47,
47,
47,
47,
47,
47,
47,
47,
47,
47,
47,
47,
47,
47,
47,
47,
48,
47,
48,
48,
48,
48,
47,
48,
48,
47,
47,
47,
47,
47,
48,
47,
47,
47,
47,
47,
47,
47,
47,
47,
47,
47,
47,
47,
47,
47,
47,
47,
47,
47,
47,
47,
47,
47,
47,
47,
47,
47,
48,
48,
48,
47,
47,
47,
48,
47,
47,
47,
47,
47,
48,
47,
47,
48,
47,
47,
47,
48,
47,
47,
47,
47,
47,
48,
47,
47,
47,
47,
47,
47,
48,
47,
47,
48,
47,
47,
48,
47,
47,
48,
48,
47,
47,
47,
47,
47,
47,
47,
47,
47,
47,
47,
47,
48,
47,
47,
47,
47,
47,
47,
47,
48,
48,
48,
47,
47,
47,
47,
47,
47,
47,
47,
47,
47,
47,
48,
47,
47,
47,
47,
48,
47,
48,
47,
48,
47,
47,
47,
47,
47,
48,
48,
49,
48,
47,
47,
47,
48,
46,
46,
47,
47,
47,
47,
47,
47,
47,
48,
47,
47,
47,
47,
47,
47,
47,
47,
48,
47,
47,
47,
48,
48,
47,
47,
47,
47,
47,
47,
47,
47,
47,
47,
47,
48,
47,
47,
47,
47,
47,
47,
47,
47,
47,
47,
47,
47,
47,
47,
47,
47,
47,
47,
47,
47,
47,
48,
47,
47,
48,
48,
47,
48,
48,
47,
48,
47,
47,
47,
47,
47,
47,
48,
47,
47,
48,
48,
48,
47,
47,
47,
47,
48,
47,
47,
47,
47,
47,
47,
46,
46,
47,
47,
46,
46,
45,
45,
45,
44,
44,
43,
43,
43,
42,
41,
39,
36,
38,
36,
34,
33,
31,
30,
28,
27,
23,
20,
22,
19,
16,
14,
12,
10,
8,
7,
2,
-2,
1,
-2,
-6,
-8,
-10,
-12,
-13,
-14,
-19,
-20,
-18,
-21,
-23,
-24,
-26,
-26,
-28,
-28,
-30,
-31,
-30,
-32,
-33,
-33,
-33,
-33,
-33,
-35,
-35,
-35,
-34,
-35,
-35,
-35,
-36,
-35,
-36,
-37,
-37,
-37,
-36,
-37,
-38,
-38,
-38,
-38,
-39,
-39,
-41,
-41,
-40,
-41,
-42,
-43,
-44,
-45,
-46,
-46,
-47,
-49,
-48,
-49,
-50,
-51,
-51,
-52,
-52,
-52,
-53,
-54,
-53,
-54,
-54,
-55,
-56,
-56,
-55,
-56,
-56,
-56,
-56,
-56,
-56,
-56,
-56,
-56,
-55,
-54,
-54,
-52,
-53,
-53,
-53,
-52,
-52,
-52,
-51,
-51,
-49,
-49,
-50,
-50,
-50,
-49,
-50,
-49,
-49,
-50,
-50,
-49,
-49,
-49,
-50,
-51,
-51,
-51,
-51,
-51,
-52,
-53,
-52,
-53,
-54,
-54,
-54,
-55,
-55,
-54,
-56,
-56,
-55,
-56,
-56,
-56,
-57,
-57,
-56,
-56,
-56,
-56,
-56,
-56,
-56,
-55,
-55,
-55,
-54,
-55,
-54,
-53,
-54,
-54,
-53,
-54,
-53,
-53,
-53,
-53,
-52,
-52,
-52,
-52,
-52,
-52,
-52,
-52,
-52,
-52,
-53,
-52,
-52,
-52,
-52,
-52,
-52,
-52,
-52,
-53,
-53,
-53,
-53,
-54,
-54,
-54,
-54,
-54,
-54,
-53,
-54,
-54,
-54,
-53,
-54,
-54,
-55,
-54,
-54,
-54,
-54,
-55,
-56,
-55,
-56,
-56,
-56,
-55,
-55,
-54,
-55,
-53,
-53,
-53,
-53,
-53,
-53,
-52,
-53,
-54,
-52,
-53,
-53,
-53,
-53,
-53,
-53,
-53,
-52,
-52,
-52,
-52,
-52,
-52,
-53,
-53,
-52,
-53,
-53,
-53,
-53,
-54,
-53,
-53,
-54,
-54,
-54,
-54,
-54,
-53,
-54,
-54,
-54,
-54,
-54,
-54,
-54,
-54,
-54,
-54,
-54,
-54,
-55,
-55,
-54,
-54,
-53,
-54,
-53,
-53,
-53,
-53,
-53,
-53,
-53,
-53,
-53,
-53,
-53,
-53,
-53,
-53,
-53,
-53,
-53,
-53,
-53,
-53,
-53,
-54,
-54,
-53,
-53,
-53,
-54,
-53,
-54,
-53,
-54,
-54,
-54,
-53,
-54,
-54,
-54,
-53,
-54,
-54,
-53,
-54,
-53,
-54,
-54,
-54,
-53,
-53,
-54,
-53,
-53,
-54,
-53,
-54,
-54,
-54,
-54,
-54,
-54,
-53,
-54,
-53,
-54,
-54,
-53,
-54,
-54,
-54,
-54,
-53,
-54,
-54,
-54,
-53,
-54,
-54,
-54,
-53,
-53,
-52,
-53,
-53,
-53,
-53,
-54,
-54,
-53,
-53,
-53,
-53,
-53,
-53,
-53,
-54,
-54,
-53,
-54,
-54,
-54,
-53,
-54,
-54,
-54,
-54,
-54,
-53,
-54,
-54,
-54,
-54,
-54,
-53,
-53,
-54,
-54,
-54,
-54,
-54,
-53,
-53,
-54,
-54,
-54,
-54,
-53,
-55,
-53,
-53,
-53,
-53,
-53,
-53,
-53,
-54,
-54,
-53,
-54,
-54,
-54,
-54,
-54,
-53,
-54,
-54,
-53,
-54,
-54,
-54,
-54,
-54,
-54,
-54,
-53,
-53,
-53,
-54,
-54,
-54,
-53,
-53,
-53,
-53,
-54,
-54,
-53,
-53,
-53,
-53,
-53,
-53,
-53,
-53,
-54,
-54,
-54,
-54,
-53,
-53,
-55,
-54,
-54,
-53,
-53,
-54,
-54,
-54,
-54,
-54,
-54,
-54,
-54,
-54,
-54,
-53,
-54,
-54,
-54,
-53,
-54,
-53,
-53,
-52,
-53,
-53,
-53,
-53,
-53,
-53,
-53,
-53,
-53,
-53,
-53,
-54,
-54,
-53,
-54,
-54,
-53,
-54,
-54,
-53,
-54,
-54,
-53,
-53,
-54,
-54,
-54,
-54,
-54,
-54,
-54,
-54,
-53,
-53,
-53,
-54,
-54,
-54,
-53,
-53,
-53,
-53,
-53,
-53,
-53,
-53,
-53,
-53,
-53,
-53,
-53,
-54,
-54,
-53,
-54,
-54,
-54,
-54,
-54,
-54,
-54,
-54,
-53,
-53,
-53,
-54,
-53,
-53,
-54,
-54,
-53,
-53,
-53,
-54,
-54,
-54,
-53,
-54,
-54,
-53,
-53,
-53,
-54,
-54,
-53,
-53,
-53,
-53,
-53,
-53,
-53,
-53,
-53,
-53,
-53,
-53,
-54,
-54,
-54,
-53,
-53,
-53,
-53,
-53,
-54,
-54,
-54,
-54,
-54,
-53,
-54,
-54,
-54,
-54,
-53,
-54,
-53,
-53,
-53,
-53,
-53,
-53,
-53,
-53,
-53,
-53,
-53,
-53,
-53,
-53,
-53,
-54,
-54,
-54,
-54,
-54,
-54,
-54,
-54,
-53,
-54,
-54,
-53,
-54,
-54,
-54,
-54,
-54,
-53,
-54,
-53,
-53,
-53,
-53,
-53,
-53,
-53,
-53,
-53,
-53,
-52,
-53,
-53,
-54,
-53,
-53,
-53,
-53,
-53,
-53,
-53,
-54,
-53,
-53,
-53,
-54,
-53,
-54,
-54,
-54,
-54,
-54,
-54,
-53,
-53,
-54,
-54,
-54,
-53,
-54,
-53,
-53,
-54,
-54,
-53,
-53,
-54,
-54,
-53,
-53,
-53,
-53,
-54,
-54,
-53,
-53,
-53,
-53,
-53,
-53,
-53,
-53,
-54,
-54,
-54,
-53,
-54,
-53,
-54,
-53,
-53,
-54,
-53,
-53,
-53,
-53,
-54,
-53,
-54,
-54,
-54,
-53,
-53,
-54,
-53,
-53,
-53,
-53,
-53,
-53,
-53,
-53,
-53,
-53,
-53,
-53,
-53,
-53,
-53,
-53,
-53,
-53,
-53,
-53,
-54,
-54,
-54,
-54,
-53,
-53,
-54,
-53,
-52,
-53,
-54,
-54,
-53,
-53,
-54,
-54,
-54,
-53,
-53,
-53,
-54,
-54,
-54,
-54,
-53,
