2-diodenkennlinien/data/ALL0015/A0015CH1.CSV

Memory Length,4000,
Trigger Level,2.34389e+01,
Source,CH1,
Probe,1.0X,
Vertical Units,V,
Vertical Scale,2.00000e+00,
Vertical Position,-2.25600e+01,
Horizontal Units,S,
Horizontal Scale,2.50000e-03,
Horizontal Position,1.0000000e-04,
Horizontal Mode,Main,
Sampling Period,1.00000e-05,
Firmware,V1.14,
Time, ,
Mode,Fast,
Waveform Data,
291,
291,
291,
291,
291,
291,
291,
291,
291,
291,
291,
292,
292,
292,
292,
291,
291,
292,
292,
291,
291,
292,
292,
292,
292,
293,
293,
293,
293,
293,
293,
293,
293,
293,
293,
293,
293,
293,
293,
294,
294,
294,
294,
294,
294,
293,
293,
294,
294,
294,
294,
294,
294,
295,
295,
294,
294,
294,
294,
295,
295,
295,
295,
295,
295,
295,
295,
295,
295,
296,
296,
295,
295,
295,
295,
295,
295,
295,
295,
296,
296,
296,
296,
296,
296,
296,
296,
295,
295,
295,
295,
296,
296,
295,
295,
296,
296,
295,
295,
296,
296,
296,
296,
296,
296,
295,
295,
296,
296,
296,
296,
295,
295,
295,
295,
295,
295,
295,
295,
295,
295,
295,
295,
295,
295,
295,
295,
295,
295,
296,
296,
295,
295,
295,
295,
295,
295,
295,
295,
295,
295,
295,
295,
295,
295,
295,
295,
295,
295,
295,
295,
295,
295,
295,
295,
295,
295,
295,
295,
295,
295,
295,
295,
295,
295,
295,
295,
294,
294,
294,
294,
294,
294,
294,
294,
295,
295,
294,
294,
295,
295,
295,
295,
295,
295,
295,
295,
294,
294,
295,
295,
295,
295,
294,
294,
294,
294,
295,
295,
295,
295,
295,
295,
294,
294,
294,
294,
295,
295,
294,
294,
294,
294,
294,
294,
294,
294,
294,
294,
294,
294,
294,
294,
294,
294,
294,
294,
294,
294,
294,
294,
293,
293,
294,
294,
294,
294,
294,
294,
294,
294,
294,
294,
294,
294,
294,
294,
294,
294,
294,
294,
294,
294,
293,
293,
293,
293,
294,
294,
293,
293,
294,
294,
293,
293,
293,
293,
293,
293,
294,
294,
294,
294,
293,
293,
294,
294,
293,
293,
293,
293,
294,
294,
293,
293,
293,
293,
293,
293,
293,
293,
293,
293,
293,
293,
293,
293,
293,
293,
293,
293,
293,
293,
293,
293,
293,
293,
293,
293,
293,
293,
293,
293,
293,
293,
293,
293,
293,
293,
293,
293,
293,
293,
293,
293,
292,
292,
293,
293,
293,
293,
293,
293,
293,
293,
293,
293,
293,
293,
293,
293,
293,
293,
292,
292,
293,
293,
293,
293,
293,
293,
293,
293,
292,
292,
293,
293,
293,
293,
293,
293,
293,
293,
292,
292,
293,
293,
292,
292,
292,
292,
293,
293,
292,
292,
292,
292,
292,
292,
293,
293,
292,
292,
293,
293,
292,
292,
293,
293,
291,
291,
292,
292,
292,
292,
292,
292,
291,
291,
293,
293,
292,
292,
293,
293,
292,
292,
291,
291,
292,
292,
292,
292,
292,
292,
292,
292,
292,
292,
291,
291,
292,
292,
291,
291,
291,
291,
292,
292,
292,
292,
291,
291,
292,
292,
291,
291,
291,
291,
291,
291,
291,
291,
292,
292,
291,
291,
291,
291,
291,
291,
291,
291,
291,
291,
291,
291,
292,
292,
291,
291,
291,
291,
291,
291,
291,
291,
291,
291,
291,
291,
290,
290,
290,
290,
291,
291,
290,
290,
291,
291,
291,
291,
291,
291,
290,
290,
291,
291,
290,
290,
290,
290,
291,
291,
291,
291,
290,
290,
290,
290,
291,
291,
290,
290,
290,
290,
290,
290,
291,
291,
290,
290,
290,
290,
291,
291,
290,
290,
290,
290,
290,
290,
290,
290,
290,
290,
290,
290,
290,
290,
290,
290,
290,
290,
290,
290,
290,
290,
290,
290,
290,
290,
290,
290,
290,
290,
290,
290,
290,
290,
289,
289,
291,
291,
290,
290,
290,
290,
289,
289,
289,
289,
289,
289,
289,
289,
289,
289,
289,
289,
289,
289,
289,
289,
289,
289,
290,
290,
289,
289,
290,
290,
289,
289,
289,
289,
289,
289,
289,
289,
289,
289,
290,
290,
289,
289,
290,
290,
289,
289,
289,
289,
289,
289,
289,
289,
289,
289,
289,
289,
289,
289,
289,
289,
289,
289,
289,
289,
289,
289,
289,
289,
289,
289,
289,
289,
288,
288,
289,
289,
289,
289,
289,
289,
289,
289,
289,
289,
289,
289,
289,
289,
289,
289,
289,
289,
289,
289,
289,
289,
289,
289,
289,
289,
289,
289,
289,
289,
288,
288,
289,
289,
289,
289,
288,
288,
289,
289,
288,
288,
289,
289,
288,
288,
289,
289,
288,
288,
289,
289,
288,
288,
288,
288,
289,
289,
289,
289,
288,
288,
288,
288,
288,
288,
288,
288,
289,
289,
288,
288,
287,
287,
289,
289,
287,
287,
288,
288,
288,
288,
288,
288,
288,
288,
289,
289,
288,
288,
288,
288,
288,
288,
287,
287,
288,
288,
287,
287,
288,
288,
288,
288,
287,
287,
287,
287,
287,
287,
287,
287,
288,
288,
287,
287,
287,
287,
287,
287,
288,
288,
288,
288,
287,
287,
287,
287,
288,
288,
287,
287,
287,
287,
287,
287,
287,
287,
287,
287,
287,
287,
287,
287,
288,
288,
287,
287,
287,
287,
287,
287,
287,
287,
287,
287,
287,
287,
287,
287,
287,
287,
287,
287,
287,
287,
287,
287,
287,
287,
287,
287,
287,
287,
287,
287,
287,
287,
287,
287,
286,
286,
287,
287,
286,
286,
286,
286,
287,
287,
287,
287,
287,
287,
287,
287,
285,
285,
287,
287,
286,
286,
287,
287,
286,
286,
286,
286,
286,
286,
286,
286,
287,
287,
287,
287,
286,
286,
286,
286,
286,
286,
286,
286,
286,
286,
286,
286,
287,
287,
286,
286,
286,
286,
286,
286,
285,
285,
286,
286,
286,
286,
285,
285,
286,
286,
285,
285,
286,
286,
286,
286,
286,
286,
285,
285,
285,
285,
285,
285,
285,
285,
285,
285,
286,
286,
286,
286,
286,
286,
285,
285,
285,
285,
285,
285,
285,
285,
286,
286,
286,
286,
285,
285,
285,
285,
285,
285,
286,
286,
286,
286,
285,
285,
285,
285,
286,
286,
286,
286,
286,
286,
286,
286,
287,
287,
285,
285,
286,
286,
286,
286,
286,
286,
287,
287,
286,
286,
287,
287,
287,
287,
287,
287,
287,
287,
287,
287,
288,
288,
287,
287,
288,
288,
288,
288,
288,
288,
288,
288,
288,
288,
287,
287,
288,
288,
289,
289,
289,
289,
289,
289,
289,
289,
289,
289,
289,
289,
289,
289,
289,
289,
289,
289,
289,
289,
290,
290,
290,
290,
290,
290,
290,
290,
290,
290,
290,
290,
291,
291,
290,
290,
291,
291,
291,
291,
291,
291,
292,
292,
291,
291,
292,
292,
291,
291,
292,
292,
293,
293,
291,
291,
292,
292,
292,
292,
293,
293,
293,
293,
292,
292,
293,
293,
293,
293,
293,
293,
293,
293,
294,
294,
293,
293,
293,
293,
294,
294,
294,
294,
294,
294,
295,
295,
294,
294,
295,
295,
295,
295,
294,
294,
294,
294,
295,
295,
295,
295,
295,
295,
295,
295,
295,
295,
295,
295,
295,
295,
295,
295,
295,
295,
295,
295,
295,
295,
295,
295,
295,
295,
295,
295,
295,
295,
295,
295,
295,
295,
295,
295,
296,
296,
295,
295,
295,
295,
295,
295,
294,
294,
295,
295,
294,
294,
295,
295,
294,
294,
295,
295,
295,
295,
294,
294,
294,
294,
295,
295,
294,
294,
294,
294,
294,
294,
295,
295,
294,
294,
295,
295,
294,
294,
294,
294,
294,
294,
294,
294,
294,
294,
294,
294,
294,
294,
294,
294,
294,
294,
294,
294,
294,
294,
294,
294,
294,
294,
294,
294,
294,
294,
294,
294,
294,
294,
294,
294,
294,
294,
294,
294,
294,
294,
294,
294,
294,
294,
294,
294,
294,
294,
294,
294,
294,
294,
294,
294,
293,
293,
294,
294,
293,
293,
293,
293,
293,
293,
294,
294,
293,
293,
293,
293,
293,
293,
293,
293,
293,
293,
293,
293,
293,
293,
293,
293,
293,
293,
293,
293,
293,
293,
293,
293,
293,
293,
293,
293,
293,
293,
293,
293,
293,
293,
293,
293,
293,
293,
293,
293,
293,
293,
293,
293,
293,
293,
293,
293,
293,
293,
293,
293,
293,
293,
293,
293,
293,
293,
293,
293,
293,
293,
293,
293,
293,
293,
293,
293,
293,
293,
293,
293,
293,
293,
293,
293,
293,
293,
292,
292,
293,
293,
293,
293,
293,
293,
293,
293,
293,
293,
293,
293,
293,
293,
293,
293,
292,
292,
292,
292,
293,
293,
292,
292,
292,
292,
293,
293,
292,
292,
292,
292,
292,
292,
292,
292,
292,
292,
293,
293,
292,
292,
292,
292,
292,
292,
292,
292,
291,
291,
292,
292,
291,
291,
292,
292,
291,
291,
292,
292,
292,
292,
292,
292,
292,
292,
292,
292,
292,
292,
291,
291,
292,
292,
291,
291,
292,
292,
291,
291,
292,
292,
291,
291,
292,
292,
292,
292,
291,
291,
292,
292,
291,
291,
291,
291,
291,
291,
291,
291,
292,
292,
291,
291,
291,
291,
291,
291,
291,
291,
291,
291,
291,
291,
291,
291,
290,
290,
290,
290,
291,
291,
291,
291,
291,
291,
290,
290,
291,
291,
290,
290,
291,
291,
291,
291,
290,
290,
290,
290,
290,
290,
291,
291,
290,
290,
291,
291,
291,
291,
291,
291,
290,
290,
290,
290,
290,
290,
290,
290,
290,
290,
290,
290,
290,
290,
290,
290,
291,
291,
290,
290,
291,
291,
290,
290,
290,
290,
290,
290,
290,
290,
290,
290,
289,
289,
290,
290,
289,
289,
290,
290,
290,
290,
289,
289,
290,
290,
290,
290,
289,
289,
290,
290,
290,
290,
289,
289,
290,
290,
289,
289,
290,
290,
290,
290,
290,
290,
290,
290,
289,
289,
289,
289,
289,
289,
290,
290,
289,
289,
289,
289,
289,
289,
289,
289,
289,
289,
289,
289,
289,
289,
290,
290,
290,
290,
289,
289,
289,
289,
289,
289,
289,
289,
289,
289,
289,
289,
289,
289,
289,
289,
289,
289,
289,
289,
289,
289,
289,
289,
289,
289,
289,
289,
289,
289,
289,
289,
288,
288,
289,
289,
289,
289,
289,
289,
288,
288,
289,
289,
288,
288,
289,
289,
289,
289,
289,
289,
289,
289,
289,
289,
289,
289,
289,
289,
289,
289,
289,
289,
289,
289,
289,
289,
289,
289,
289,
289,
289,
289,
289,
289,
289,
289,
289,
289,
288,
288,
288,
288,
288,
288,
288,
288,
287,
287,
288,
288,
288,
288,
288,
288,
289,
289,
289,
289,
288,
288,
289,
289,
288,
288,
287,
287,
288,
288,
289,
289,
289,
289,
288,
288,
288,
288,
288,
288,
288,
288,
287,
287,
288,
288,
288,
288,
287,
287,
288,
288,
288,
288,
288,
288,
288,
288,
288,
288,
287,
287,
288,
288,
287,
287,
287,
287,
287,
287,
287,
287,
288,
288,
287,
287,
287,
287,
287,
287,
287,
287,
287,
287,
288,
288,
287,
287,
288,
288,
287,
287,
287,
287,
287,
287,
286,
286,
287,
287,
288,
288,
287,
287,
287,
287,
287,
287,
287,
287,
287,
287,
287,
287,
287,
287,
287,
287,
287,
287,
287,
287,
286,
286,
287,
287,
287,
287,
287,
287,
287,
287,
287,
287,
287,
287,
287,
287,
287,
287,
286,
286,
286,
286,
286,
286,
286,
286,
287,
287,
287,
287,
285,
285,
286,
286,
285,
285,
286,
286,
286,
286,
287,
287,
285,
285,
287,
287,
287,
287,
287,
287,
286,
286,
286,
286,
285,
285,
285,
285,
286,
286,
286,
286,
285,
285,
286,
286,
286,
286,
286,
286,
285,
285,
285,
285,
285,
285,
285,
285,
286,
286,
285,
285,
286,
286,
285,
285,
286,
286,
285,
285,
285,
285,
285,
285,
286,
286,
285,
285,
286,
286,
285,
285,
285,
285,
285,
285,
285,
285,
285,
285,
285,
285,
285,
285,
285,
285,
286,
286,
285,
285,
285,
285,
285,
285,
285,
285,
285,
285,
286,
286,
285,
285,
285,
285,
285,
285,
285,
285,
285,
285,
285,
285,
284,
284,
285,
285,
285,
285,
285,
285,
285,
285,
285,
285,
285,
285,
285,
285,
284,
284,
284,
284,
285,
285,
285,
285,
285,
285,
285,
285,
285,
285,
285,
285,
285,
285,
285,
285,
285,
285,
286,
286,
285,
285,
285,
285,
285,
285,
285,
285,
285,
285,
285,
285,
286,
286,
286,
286,
287,
287,
286,
286,
286,
286,
286,
286,
287,
287,
286,
286,
287,
287,
287,
287,
287,
287,
287,
287,
288,
288,
288,
288,
288,
288,
288,
288,
288,
288,
289,
289,
289,
289,
289,
289,
288,
288,
289,
289,
289,
289,
289,
289,
289,
289,
289,
289,
289,
289,
290,
290,
290,
290,
290,
290,
290,
290,
290,
290,
290,
290,
290,
290,
291,
291,
291,
291,
291,
291,
292,
292,
291,
291,
291,
291,
292,
292,
291,
291,
293,
293,
293,
293,
293,
293,
293,
293,
293,
293,
293,
293,
293,
293,
293,
293,
293,
293,
293,
293,
293,
293,
293,
293,
294,
294,
294,
294,
294,
294,
294,
294,
294,
294,
295,
295,
295,
295,
295,
295,
295,
295,
295,
295,
295,
295,
295,
295,
295,
295,
294,
294,
295,
295,
295,
295,
295,
295,
295,
295,
295,
295,
295,
295,
295,
295,
296,
296,
296,
296,
296,
296,
296,
296,
295,
295,
296,
296,
295,
295,
295,
295,
295,
295,
296,
296,
296,
296,
295,
295,
295,
295,
296,
296,
295,
295,
296,
296,
295,
295,
295,
295,
295,
295,
295,
295,
296,
296,
295,
295,
295,
295,
295,
295,
295,
295,
295,
295,
295,
295,
295,
295,
295,
295,
295,
295,
295,
295,
295,
295,
295,
295,
295,
295,
295,
295,
295,
295,
295,
295,
295,
295,
295,
295,
295,
295,
295,
295,
295,
295,
295,
295,
294,
294,
295,
295,
295,
295,
294,
294,
295,
295,
295,
295,
294,
294,
294,
294,
294,
294,
294,
294,
294,
294,
295,
295,
294,
294,
294,
294,
294,
294,
295,
295,
294,
294,
294,
294,
294,
294,
295,
295,
294,
294,
294,
294,
294,
294,
295,
295,
294,
294,
294,
294,
294,
294,
295,
295,
294,
294,
294,
294,
294,
294,
294,
294,
294,
294,
294,
294,
293,
293,
294,
294,
294,
294,
294,
294,
294,
294,
294,
294,
294,
294,
293,
293,
293,
293,
294,
294,
294,
294,
293,
293,
294,
294,
293,
293,
293,
293,
293,
293,
293,
293,
294,
294,
293,
293,
293,
293,
293,
293,
293,
293,
293,
293,
293,
293,
293,
293,
293,
293,
293,
293,
293,
293,
293,
293,
293,
293,
293,
293,
293,
293,
293,
293,
293,
293,
293,
293,
293,
293,
292,
292,
293,
293,
292,
292,
293,
293,
293,
293,
293,
293,
293,
293,
292,
292,
293,
293,
293,
293,
293,
293,
293,
293,
293,
293,
293,
293,
293,
293,
293,
293,
293,
293,
292,
292,
293,
293,
293,
293,
292,
292,
292,
292,
292,
292,
293,
293,
292,
292,
292,
292,
292,
292,
293,
293,
292,
292,
293,
293,
291,
291,
292,
292,
293,
293,
292,
292,
292,
292,
292,
292,
292,
292,
291,
291,
292,
292,
292,
292,
292,
292,
291,
291,
293,
293,
292,
292,
291,
291,
292,
292,
292,
292,
292,
292,
291,
291,
292,
292,
292,
292,
292,
292,
291,
291,
292,
292,
291,
291,
291,
291,
292,
292,
292,
292,
291,
291,
292,
292,
291,
291,
291,
291,
292,
292,
291,
291,
291,
291,
291,
291,
291,
291,
291,
291,
291,
291,
291,
291,
291,
291,
291,
291,
291,
291,
291,
291,
291,
291,
291,
291,
291,
291,
290,
290,
290,
290,
291,
291,
291,
291,
291,
291,
291,
291,
291,
291,
291,
291,
291,
291,
290,
290,
291,
291,
290,
290,
290,
290,
290,
290,
290,
290,
291,
291,
290,
290,
290,
290,
291,
291,
291,
291,
291,
291,
290,
290,
290,
290,
290,
290,
290,
290,
290,
290,
290,
290,
290,
290,
290,
290,
290,
290,
290,
290,
290,
290,
290,
290,
290,
290,
290,
290,
290,
290,
290,
290,
290,
290,
290,
290,
291,
291,
290,
290,
290,
290,
290,
290,
289,
289,
289,
289,
290,
290,
290,
290,
290,
290,
290,
290,
290,
290,
289,
289,
290,
290,
290,
290,
289,
289,
289,
289,
289,
289,
289,
289,
289,
289,
290,
290,
289,
289,
289,
289,
289,
289,
290,
290,
289,
289,
289,
289,
289,
289,
289,
289,
289,
289,
289,
289,
289,
289,
289,
289,
289,
289,
289,
289,
289,
289,
289,
289,
289,
289,
289,
289,
289,
289,
289,
289,
289,
289,
289,
289,
289,
289,
289,
289,
289,
289,
289,
289,
289,
289,
289,
289,
289,
289,
289,
289,
289,
289,
288,
288,
288,
288,
289,
289,
288,
288,
288,
288,
289,
289,
289,
289,
289,
289,
288,
288,
289,
289,
289,
289,
288,
288,
288,
288,
288,
288,
288,
288,
288,
288,
289,
289,
288,
288,
288,
288,
288,
288,
288,
288,
289,
289,
289,
289,
288,
288,
288,
288,
289,
289,
289,
289,
289,
289,
289,
289,
288,
288,
289,
289,
288,
288,
288,
288,
288,
288,
288,
288,
288,
288,
289,
289,
288,
288,
287,
287,
287,
287,
288,
288,
287,
287,
288,
288,
288,
288,
287,
287,
288,
288,
287,
287,
288,
288,
287,
287,
287,
287,
287,
287,
287,
287,
287,
287,
288,
288,
287,
287,
287,
287,
287,
287,
287,
287,
287,
287,
287,
287,
287,
287,
287,
287,
286,
286,
287,
287,
287,
287,
287,
287,
287,
287,
287,
287,
287,
287,
287,
287,
287,
287,
287,
287,
287,
287,
287,
287,
287,
287,
287,
287,
287,
287,
287,
287,
287,
287,
287,
287,
287,
287,
287,
287,
286,
286,
287,
287,
287,
287,
286,
286,
287,
287,
287,
287,
285,
285,
286,
286,
286,
286,
287,
287,
287,
287,
287,
287,
286,
286,
285,
285,
287,
287,
287,
287,
285,
285,
286,
286,
286,
286,
286,
286,
287,
287,
286,
286,
285,
285,
285,
285,
285,
285,
286,
286,
286,
286,
285,
285,
286,
286,
286,
286,
286,
286,
286,
286,
286,
286,
285,
285,
286,
286,
286,
286,
286,
286,
285,
285,
286,
286,
285,
285,
286,
286,
285,
285,
285,
285,
285,
285,
286,
286,
285,
285,
285,
285,
285,
285,
285,
285,
286,
286,
285,
285,
286,
286,
285,
285,
285,
285,
286,
286,
286,
286,
286,
286,
286,
286,
285,
285,
285,
285,
286,
286,
286,
286,
285,
285,
286,
286,
287,
287,
287,
287,
286,
286,
287,
287,
287,
287,
287,
287,
287,
287,
287,
287,
287,
287,
287,
287,
287,
287,
287,
287,
287,
287,
288,
288,
288,
288,
288,
288,
288,
288,
289,
289,
288,
288,
288,
288,
289,
289,
289,
289,
289,
289,
289,
289,
289,
289,
290,
290,
290,
290,
289,
289,
290,
290,
290,
290,
289,
289,
290,
290,
291,
291,
290,
290,
290,
290,
290,
290,
291,
291,
291,
291,
291,
291,
292,
292,
292,
292,
292,
292,
292,
292,
292,
292,
292,
292,
292,
292,
293,
293,
292,
292,
293,
293,
293,
293,
293,
293,
293,
293,
293,
293,
294,
294,
293,
293,
294,
294,
294,
294,
294,
294,
294,
294,
295,
295,
294,
294,
294,
294,
294,
294,
295,
295,
294,
294,
295,
295,
295,
295,
294,
294,
295,
295,
295,
295,
295,
295,
295,
295,
295,
295,
295,
295,
295,
295,
295,
295,
295,
295,
295,
295,
296,
296,
295,
295,
295,
295,
295,
295,
295,
295,
295,
295,
295,
295,
295,
295,
295,
295,
294,
294,
295,
295,
295,
295,
294,
294,
295,
295,
295,
295,
294,
294,
295,
295,
295,
295,
294,
294,
295,
295,
295,
295,
295,
295,
295,
295,
294,
294,
295,
295,
295,
295,
295,
295,
294,
294,
294,
294,
294,
294,
295,
295,
294,
294,
294,
294,
294,
294,
294,
294,
294,
294,
294,
294,
294,
294,
294,
294,
294,
294,
294,
294,
294,
294,
294,
294,
294,
294,
294,
294,
294,
294,
294,
294,
294,
294,
294,
294,
294,
294,
294,
294,
294,
294,
294,
294,
293,
293,
294,
294,
293,
293,
294,
294,
294,
294,
294,
294,
294,
294,
293,
293,
293,
293,
293,
293,
293,
293,
293,
293,
293,
293,
293,
293,
293,
293,
293,
293,
293,
293,
293,
293,
293,
293,
293,
293,
294,
294,
293,
293,
293,
293,
293,
293,
293,
293,
293,
293,
293,
293,
293,
293,
293,
293,
293,
293,
293,
293,
293,
293,
293,
293,
293,
293,
293,
293,
293,
293,
293,
293,
293,
293,
293,
293,
293,
293,
293,
293,
293,
293,
292,
292,
292,
292,
293,
293,
293,
293,
293,
293,
293,
293,
293,
293,
293,
293,
293,
293,
293,
293,
292,
292,
293,
293,
293,
293,
292,
292,
293,
293,
292,
292,
293,
293,
292,
292,
293,
293,
291,
291,
291,
291,
293,
293,
292,
292,
292,
292,
292,
292,
292,
292,
292,
292,
292,
292,
293,
293,
293,
293,
292,
292,
292,
292,
292,
292,
292,
292,
291,
291,
291,
291,
292,
292,
292,
292,
292,
292,
291,
291,
291,
291,
292,
292,
291,
291,
291,
291,
291,
291,
291,
291,
291,
291,
292,
292,
291,
291,
292,
292,
292,
292,
291,
291,
291,
291,
292,
292,
291,
291,
291,
291,
291,
291,
291,
291,
291,
291,
292,
292,
291,
291,
291,
291,
291,
291,
291,
291,
291,
291,
291,
291,
291,
291,
291,
291,
291,
291,
291,
291,
291,
291,
291,
291,
291,
291,
290,
290,
290,
290,
291,
291,
291,
291,
290,
290,
291,
291,
290,
290,
290,
290,
290,
290,
291,
291,
290,
290,
290,
290,
290,
290,
290,
290,
290,
290,
290,
290,
290,
290,
290,
290,
290,
290,
289,
289,
290,
290,
291,
291,
290,
290,
290,
290,
291,
291,
290,
290,
290,
290,
290,
290,
290,
290,
290,
290,
290,
290,
289,
289,
289,
289,
291,
291,
289,
289,
289,
289,
290,
290,
290,
290,
290,
290,
289,
289,
289,
289,
290,
290,
290,
290,
289,
289,
290,
290,
289,
289,
290,
290,
290,
290,
289,
289,
290,
290,
290,
290,
289,
289,
289,
289,
289,
289,
289,
289,
289,
289,
289,
289,
289,
289,
290,
290,
289,
289,
289,
289,
290,
290,
289,
289,
289,
289,
289,
289,
289,
289,
289,
289,
289,
289,
289,
289,
289,
289,
289,
289,
289,
289,
288,
288,
289,
289,
289,
289,
289,
289,
289,
289,
289,
289,
289,
289,
289,
289,
289,
289,
289,
289,
289,
289,
288,
288,
289,
289,
289,
289,
289,
289,
288,
288,
289,
289,
288,
288,
288,
288,
289,
289,
289,
289,
288,
288,
288,
288,
289,
289,
288,
288,
289,
289,
288,
288,
288,
288,
288,
288,
288,
288,
288,
288,
288,
288,
288,
288,
288,
288,
289,
289,
288,
288,
288,
288,
288,
288,
288,
288,
288,
288,
288,
288,
288,
288,
289,
289,
287,
287,
288,
288,
289,
289,
288,
288,
287,
287,
287,
287,
288,
288,
288,
288,
288,
288,
288,
288,
288,
288,
288,
288,
287,
287,
288,
288,
287,
287,
287,
287,
287,
287,
287,
287,
287,
287,
287,
287,
287,
287,
287,
287,
287,
287,
287,
287,
288,
288,
287,
287,
287,
287,
287,
287,
287,
287,
287,
287,
287,
287,
287,
287,
287,
287,
287,
287,
287,
287,
287,
287,
286,
286,
287,
287,
287,
287,
287,
287,
287,
287,
287,
287,
287,
287,
287,
287,
287,
287,
287,
287,
286,
286,
287,
287,
287,
287,
286,
286,
287,
287,
287,
287,
287,
287,
286,
286,
286,
286,
287,
287,
287,
287,
286,
286,
286,
286,
286,
286,
286,
286,
286,
286,
286,
286,
286,
286,
287,
287,
286,
286,
286,
286,
287,
287,
287,
287,
285,
285,
286,
286,
286,
286,
286,
286,
285,
285,
286,
286,
287,
287,
287,
287,
287,
287,
286,
286,
286,
286,
286,
286,
286,
286,
286,
286,
286,
286,
285,
285,
285,
285,
286,
286,
285,
285,
285,
285,
285,
285,
286,
286,
285,
285,
285,
285,
285,
285,
285,
285,
286,
286,
285,
285,
285,
285,
285,
285,
285,
285,
285,
285,
285,
285,
285,
285,
285,
285,
285,
285,
285,
285,
285,
285,
285,
285,
285,
285,
285,
285,
285,
285,
285,
285,
285,
285,
285,
285,
285,
285,
285,
285,
285,
285,
285,
285,
285,
285,
285,
285,
285,
285,
285,
285,
285,
285,
284,
284,
285,
285,
285,
285,
285,
285,
285,
285,
285,
285,
285,
285,
285,
285,
285,
285,
285,
285,
285,
285,
285,
285,
