5-grundlagen-opAmps/data/ALL0092/A0092CH2.CSV

Memory Length,4000,
Trigger Level,2.00000e+01,
Source,CH2,
Probe,1.0X,
Vertical Units,V,
Vertical Scale,1.00000e+00,
Vertical Position,0.00000e+00,
Horizontal Units,S,
Horizontal Scale,1.00000e-02,
Horizontal Position,0.0000000e+00,
Horizontal Mode,Main,
Sampling Period,4.00000e-05,
Firmware,V1.14,
Time, ,
Mode,Fast,
Waveform Data,
81,
81,
81,
81,
81,
81,
81,
81,
81,
81,
81,
82,
82,
81,
81,
82,
82,
81,
81,
81,
81,
82,
82,
82,
82,
81,
81,
82,
82,
82,
82,
81,
81,
81,
81,
81,
81,
81,
81,
81,
81,
81,
81,
81,
81,
80,
80,
80,
80,
80,
80,
81,
81,
80,
80,
79,
79,
79,
79,
81,
81,
79,
79,
79,
79,
80,
80,
78,
78,
78,
78,
79,
79,
78,
78,
78,
78,
77,
77,
77,
77,
77,
77,
76,
76,
76,
76,
77,
77,
76,
76,
75,
75,
75,
75,
75,
75,
75,
75,
75,
75,
75,
75,
74,
74,
74,
74,
72,
72,
71,
71,
72,
72,
72,
72,
72,
72,
72,
72,
71,
71,
71,
71,
70,
70,
70,
70,
70,
70,
70,
70,
70,
70,
69,
69,
69,
69,
68,
68,
69,
69,
67,
67,
67,
67,
67,
67,
67,
67,
66,
66,
65,
65,
65,
65,
66,
66,
65,
65,
65,
65,
64,
64,
64,
64,
63,
63,
63,
63,
63,
63,
63,
63,
62,
62,
62,
62,
62,
62,
62,
62,
62,
62,
61,
61,
61,
61,
61,
61,
60,
60,
60,
60,
60,
60,
60,
60,
59,
59,
59,
59,
59,
59,
59,
59,
59,
59,
59,
59,
59,
59,
58,
58,
59,
59,
58,
58,
58,
58,
58,
58,
57,
57,
58,
58,
57,
57,
57,
57,
57,
57,
57,
57,
57,
57,
57,
57,
57,
57,
57,
57,
56,
56,
57,
57,
57,
57,
57,
57,
57,
57,
56,
56,
57,
57,
58,
58,
57,
57,
56,
56,
57,
57,
57,
57,
56,
56,
57,
57,
57,
57,
57,
57,
57,
57,
57,
57,
58,
58,
58,
58,
58,
58,
58,
58,
58,
58,
58,
58,
58,
58,
59,
59,
59,
59,
59,
59,
59,
59,
59,
59,
59,
59,
59,
59,
60,
60,
60,
60,
61,
61,
61,
61,
62,
62,
61,
61,
62,
62,
62,
62,
62,
62,
62,
62,
62,
62,
63,
63,
63,
63,
65,
65,
63,
63,
64,
64,
65,
65,
65,
65,
65,
65,
66,
66,
65,
65,
65,
65,
66,
66,
67,
67,
67,
67,
67,
67,
67,
67,
68,
68,
68,
68,
69,
69,
68,
68,
69,
69,
70,
70,
71,
71,
71,
71,
71,
71,
70,
70,
72,
72,
72,
72,
72,
72,
72,
72,
73,
73,
73,
73,
75,
75,
74,
74,
74,
74,
74,
74,
74,
74,
75,
75,
75,
75,
75,
75,
76,
76,
76,
76,
78,
78,
77,
77,
77,
77,
77,
77,
77,
77,
78,
78,
78,
78,
79,
79,
77,
77,
79,
79,
79,
79,
79,
79,
79,
79,
79,
79,
79,
79,
79,
79,
79,
79,
81,
81,
80,
80,
80,
80,
80,
80,
80,
80,
81,
81,
81,
81,
81,
81,
80,
80,
81,
81,
81,
81,
80,
80,
81,
81,
81,
81,
81,
81,
81,
81,
81,
81,
81,
81,
81,
81,
81,
81,
81,
81,
81,
81,
81,
81,
81,
81,
81,
81,
81,
81,
81,
81,
81,
81,
81,
81,
81,
81,
81,
81,
80,
80,
81,
81,
81,
81,
80,
80,
79,
79,
79,
79,
79,
79,
80,
80,
79,
79,
79,
79,
79,
79,
79,
79,
78,
78,
78,
78,
78,
78,
78,
78,
78,
78,
78,
78,
78,
78,
76,
76,
76,
76,
76,
76,
77,
77,
76,
76,
76,
76,
75,
75,
75,
75,
75,
75,
74,
74,
74,
74,
73,
73,
74,
74,
75,
75,
75,
75,
73,
73,
72,
72,
72,
72,
71,
71,
71,
71,
70,
70,
69,
69,
69,
69,
69,
69,
70,
70,
70,
70,
68,
68,
69,
69,
68,
68,
68,
68,
67,
67,
67,
67,
65,
65,
67,
67,
66,
66,
65,
65,
65,
65,
65,
65,
65,
65,
64,
64,
63,
63,
64,
64,
63,
63,
63,
63,
64,
64,
63,
63,
63,
63,
62,
62,
62,
62,
62,
62,
62,
62,
61,
61,
60,
60,
61,
61,
60,
60,
61,
61,
60,
60,
60,
60,
59,
59,
59,
59,
59,
59,
59,
59,
59,
59,
58,
58,
59,
59,
59,
59,
58,
58,
59,
59,
58,
58,
58,
58,
57,
57,
55,
55,
57,
57,
57,
57,
56,
56,
57,
57,
57,
57,
57,
57,
57,
57,
57,
57,
57,
57,
57,
57,
57,
57,
56,
56,
57,
57,
57,
57,
56,
56,
57,
57,
57,
57,
57,
57,
57,
57,
57,
57,
57,
57,
57,
57,
57,
57,
57,
57,
58,
58,
57,
57,
57,
57,
58,
58,
59,
59,
59,
59,
59,
59,
58,
58,
59,
59,
58,
58,
59,
59,
59,
59,
59,
59,
59,
59,
60,
60,
60,
60,
59,
59,
60,
60,
61,
61,
61,
61,
61,
61,
61,
61,
61,
61,
62,
62,
62,
62,
63,
63,
63,
63,
63,
63,
64,
64,
63,
63,
63,
63,
64,
64,
65,
65,
65,
65,
65,
65,
65,
65,
66,
66,
65,
65,
67,
67,
67,
67,
67,
67,
67,
67,
67,
67,
69,
69,
68,
68,
69,
69,
69,
69,
70,
70,
70,
70,
70,
70,
71,
71,
71,
71,
71,
71,
72,
72,
71,
71,
73,
73,
72,
72,
73,
73,
73,
73,
73,
73,
74,
74,
74,
74,
75,
75,
75,
75,
75,
75,
75,
75,
75,
75,
76,
76,
76,
76,
77,
77,
77,
77,
77,
77,
78,
78,
77,
77,
78,
78,
77,
77,
78,
78,
78,
78,
79,
79,
78,
78,
79,
79,
79,
79,
80,
80,
80,
80,
79,
79,
80,
80,
79,
79,
80,
80,
80,
80,
81,
81,
81,
81,
80,
80,
79,
79,
81,
81,
82,
82,
80,
80,
81,
81,
82,
82,
81,
81,
81,
81,
83,
83,
81,
81,
80,
80,
81,
81,
81,
81,
81,
81,
81,
81,
79,
79,
81,
81,
81,
81,
81,
81,
81,
81,
82,
82,
81,
81,
81,
81,
81,
81,
81,
81,
80,
80,
80,
80,
80,
80,
80,
80,
80,
80,
79,
79,
80,
80,
79,
79,
79,
79,
79,
79,
79,
79,
79,
79,
78,
78,
78,
78,
78,
78,
77,
77,
77,
77,
77,
77,
77,
77,
78,
78,
77,
77,
76,
76,
76,
76,
76,
76,
75,
75,
75,
75,
74,
74,
74,
74,
75,
75,
74,
74,
73,
73,
73,
73,
73,
73,
73,
73,
72,
72,
72,
72,
71,
71,
71,
71,
71,
71,
70,
70,
71,
71,
70,
70,
70,
70,
69,
69,
70,
70,
69,
69,
69,
69,
68,
68,
67,
67,
67,
67,
65,
65,
66,
66,
65,
65,
65,
65,
65,
65,
65,
65,
65,
65,
66,
66,
65,
65,
63,
63,
64,
64,
64,
64,
63,
63,
63,
63,
63,
63,
62,
62,
62,
62,
62,
62,
61,
61,
62,
62,
61,
61,
61,
61,
61,
61,
60,
60,
60,
60,
60,
60,
61,
61,
59,
59,
59,
59,
59,
59,
59,
59,
59,
59,
58,
58,
58,
58,
59,
59,
59,
59,
58,
58,
58,
58,
58,
58,
57,
57,
57,
57,
58,
58,
56,
56,
57,
57,
58,
58,
57,
57,
57,
57,
56,
56,
57,
57,
57,
57,
57,
57,
56,
56,
56,
56,
56,
56,
56,
56,
57,
57,
57,
57,
57,
57,
59,
59,
57,
57,
57,
57,
57,
57,
58,
58,
57,
57,
58,
58,
57,
57,
57,
57,
58,
58,
58,
58,
57,
57,
57,
57,
59,
59,
58,
58,
59,
59,
59,
59,
59,
59,
58,
58,
59,
59,
60,
60,
59,
59,
59,
59,
60,
60,
60,
60,
61,
61,
61,
61,
61,
61,
61,
61,
62,
62,
62,
62,
62,
62,
63,
63,
62,
62,
64,
64,
63,
63,
64,
64,
65,
65,
65,
65,
65,
65,
64,
64,
65,
65,
65,
65,
65,
65,
65,
65,
65,
65,
67,
67,
67,
67,
68,
68,
67,
67,
68,
68,
69,
69,
69,
69,
69,
69,
69,
69,
70,
70,
70,
70,
71,
71,
71,
71,
72,
72,
72,
72,
72,
72,
73,
73,
73,
73,
73,
73,
73,
73,
73,
73,
75,
75,
75,
75,
75,
75,
75,
75,
74,
74,
75,
75,
75,
75,
75,
75,
77,
77,
76,
76,
77,
77,
78,
78,
78,
78,
78,
78,
78,
78,
79,
79,
79,
79,
79,
79,
79,
79,
79,
79,
80,
80,
79,
79,
79,
79,
79,
79,
81,
81,
80,
80,
80,
80,
80,
80,
80,
80,
80,
80,
81,
81,
81,
81,
81,
81,
82,
82,
81,
81,
81,
81,
80,
80,
82,
82,
81,
81,
81,
81,
81,
81,
82,
82,
80,
80,
82,
82,
81,
81,
81,
81,
82,
82,
80,
80,
82,
82,
81,
81,
81,
81,
81,
81,
81,
81,
82,
82,
80,
80,
80,
80,
80,
80,
80,
80,
80,
80,
80,
80,
81,
81,
79,
79,
80,
80,
80,
80,
79,
79,
79,
79,
79,
79,
78,
78,
79,
79,
78,
78,
78,
78,
78,
78,
78,
78,
77,
77,
77,
77,
76,
76,
76,
76,
77,
77,
76,
76,
76,
76,
75,
75,
75,
75,
75,
75,
75,
75,
74,
74,
74,
74,
73,
73,
73,
73,
74,
74,
73,
73,
72,
72,
72,
72,
72,
72,
71,
71,
71,
71,
71,
71,
70,
70,
71,
71,
70,
70,
70,
70,
69,
69,
69,
69,
68,
68,
67,
67,
68,
68,
67,
67,
68,
68,
67,
67,
67,
67,
67,
67,
65,
65,
65,
65,
64,
64,
64,
64,
64,
64,
64,
64,
63,
63,
64,
64,
64,
64,
62,
62,
61,
61,
61,
61,
62,
62,
62,
62,
61,
61,
61,
61,
61,
61,
61,
61,
61,
61,
60,
60,
60,
60,
59,
59,
60,
60,
60,
60,
59,
59,
59,
59,
59,
59,
59,
59,
58,
58,
59,
59,
59,
59,
59,
59,
58,
58,
58,
58,
58,
58,
57,
57,
58,
58,
59,
59,
57,
57,
57,
57,
56,
56,
58,
58,
58,
58,
57,
57,
56,
56,
57,
57,
57,
57,
56,
56,
57,
57,
57,
57,
56,
56,
57,
57,
57,
57,
57,
57,
57,
57,
57,
57,
58,
58,
57,
57,
57,
57,
57,
57,
58,
58,
58,
58,
58,
58,
57,
57,
58,
58,
58,
58,
58,
58,
59,
59,
59,
59,
59,
59,
59,
59,
59,
59,
59,
59,
59,
59,
59,
59,
60,
60,
60,
60,
61,
61,
61,
61,
60,
60,
61,
61,
61,
61,
61,
61,
61,
61,
62,
62,
62,
62,
63,
63,
63,
63,
63,
63,
64,
64,
64,
64,
64,
64,
65,
65,
65,
65,
66,
66,
66,
66,
66,
66,
65,
65,
66,
66,
67,
67,
67,
67,
67,
67,
67,
67,
68,
68,
68,
68,
69,
69,
68,
68,
69,
69,
70,
70,
70,
70,
70,
70,
70,
70,
70,
70,
71,
71,
72,
72,
72,
72,
72,
72,
72,
72,
73,
73,
72,
72,
74,
74,
74,
74,
74,
74,
75,
75,
75,
75,
75,
75,
75,
75,
75,
75,
75,
75,
76,
76,
77,
77,
77,
77,
77,
77,
77,
77,
77,
77,
77,
77,
77,
77,
78,
78,
78,
78,
79,
79,
78,
78,
79,
79,
78,
78,
80,
80,
79,
79,
80,
80,
80,
80,
80,
80,
79,
79,
81,
81,
81,
81,
81,
81,
81,
81,
81,
81,
80,
80,
82,
82,
81,
81,
81,
81,
81,
81,
81,
81,
82,
82,
81,
81,
81,
81,
81,
81,
81,
81,
82,
82,
81,
81,
81,
81,
82,
82,
81,
81,
82,
82,
80,
80,
80,
80,
81,
81,
80,
80,
80,
80,
81,
81,
81,
81,
80,
80,
81,
81,
80,
80,
80,
80,
80,
80,
80,
80,
80,
80,
79,
79,
79,
79,
80,
80,
79,
79,
78,
78,
78,
78,
78,
78,
78,
78,
78,
78,
78,
78,
77,
77,
77,
77,
77,
77,
77,
77,
76,
76,
76,
76,
75,
75,
75,
75,
75,
75,
75,
75,
74,
74,
74,
74,
74,
74,
73,
73,
73,
73,
72,
72,
73,
73,
72,
72,
72,
72,
71,
71,
71,
71,
71,
71,
70,
70,
70,
70,
70,
70,
70,
70,
69,
69,
69,
69,
69,
69,
69,
69,
68,
68,
68,
68,
68,
68,
67,
67,
67,
67,
67,
67,
65,
65,
66,
66,
64,
64,
64,
64,
64,
64,
65,
65,
64,
64,
64,
64,
64,
64,
63,
63,
63,
63,
63,
63,
63,
63,
62,
62,
61,
61,
62,
62,
62,
62,
60,
60,
61,
61,
61,
61,
61,
61,
60,
60,
60,
60,
60,
60,
59,
59,
59,
59,
58,
58,
58,
58,
59,
59,
60,
60,
58,
58,
58,
58,
58,
58,
58,
58,
58,
58,
59,
59,
58,
58,
58,
58,
57,
57,
57,
57,
57,
57,
57,
57,
57,
57,
57,
57,
57,
57,
57,
57,
57,
57,
56,
56,
57,
57,
57,
57,
57,
57,
57,
57,
57,
57,
56,
56,
56,
56,
57,
57,
57,
57,
57,
57,
57,
57,
57,
57,
57,
57,
57,
57,
58,
58,
57,
57,
58,
58,
58,
58,
59,
59,
58,
58,
58,
58,
59,
59,
59,
59,
59,
59,
59,
59,
59,
59,
59,
59,
59,
59,
60,
60,
60,
60,
60,
60,
61,
61,
61,
61,
62,
62,
61,
61,
61,
61,
62,
62,
62,
62,
63,
63,
63,
63,
63,
63,
63,
63,
63,
63,
64,
64,
65,
65,
65,
65,
64,
64,
64,
64,
65,
65,
66,
66,
65,
65,
67,
67,
67,
67,
67,
67,
67,
67,
68,
68,
68,
68,
69,
69,
69,
69,
69,
69,
69,
69,
69,
69,
70,
70,
71,
71,
71,
71,
71,
71,
71,
71,
72,
72,
72,
72,
72,
72,
73,
73,
74,
74,
74,
74,
73,
73,
74,
74,
75,
75,
75,
75,
75,
75,
75,
75,
75,
75,
76,
76,
76,
76,
77,
77,
77,
77,
77,
77,
77,
77,
78,
78,
77,
77,
78,
78,
78,
78,
77,
77,
78,
78,
79,
79,
79,
79,
79,
79,
78,
78,
79,
79,
80,
80,
80,
80,
80,
80,
80,
80,
80,
80,
81,
81,
79,
79,
80,
80,
80,
80,
81,
81,
81,
81,
81,
81,
81,
81,
81,
81,
81,
81,
82,
82,
81,
81,
81,
81,
81,
81,
82,
82,
81,
81,
82,
82,
81,
81,
82,
82,
81,
81,
81,
81,
81,
81,
81,
81,
80,
80,
81,
81,
81,
81,
81,
81,
80,
80,
81,
81,
80,
80,
80,
80,
81,
81,
80,
80,
80,
80,
80,
80,
79,
79,
79,
79,
79,
79,
79,
79,
79,
79,
79,
79,
79,
79,
77,
77,
78,
78,
78,
78,
78,
78,
78,
78,
78,
78,
76,
76,
76,
76,
76,
76,
75,
75,
75,
75,
75,
75,
75,
75,
75,
75,
75,
75,
73,
73,
73,
73,
75,
75,
73,
73,
73,
73,
73,
73,
72,
72,
72,
72,
72,
72,
71,
71,
71,
71,
71,
71,
71,
71,
70,
70,
70,
70,
69,
69,
70,
70,
69,
69,
69,
69,
68,
68,
67,
67,
67,
67,
67,
67,
66,
66,
66,
66,
65,
65,
66,
66,
65,
65,
65,
65,
64,
64,
65,
65,
64,
64,
64,
64,
63,
63,
62,
62,
63,
63,
62,
62,
62,
62,
61,
61,
62,
62,
60,
60,
61,
61,
61,
61,
61,
61,
60,
60,
60,
60,
60,
60,
60,
60,
59,
59,
59,
59,
59,
59,
59,
59,
59,
59,
58,
58,
58,
58,
58,
58,
58,
58,
58,
58,
58,
58,
57,
57,
57,
57,
58,
58,
57,
57,
56,
56,
57,
57,
57,
57,
57,
57,
57,
57,
57,
57,
57,
57,
55,
55,
57,
57,
57,
57,
56,
56,
57,
57,
57,
57,
57,
57,
57,
57,
57,
57,
57,
57,
57,
57,
57,
57,
56,
56,
57,
57,
57,
57,
57,
57,
57,
57,
57,
57,
57,
57,
58,
58,
58,
58,
58,
58,
59,
59,
59,
59,
59,
59,
58,
58,
59,
59,
59,
59,
60,
60,
59,
59,
60,
60,
60,
60,
60,
60,
60,
60,
60,
60,
61,
61,
61,
61,
61,
61,
61,
61,
63,
63,
62,
62,
62,
62,
62,
62,
63,
63,
64,
64,
63,
63,
64,
64,
64,
64,
65,
65,
65,
65,
65,
65,
65,
65,
65,
65,
65,
65,
66,
66,
67,
67,
67,
67,
68,
68,
67,
67,
69,
69,
68,
68,
68,
68,
69,
69,
69,
69,
70,
70,
69,
69,
71,
71,
71,
71,
71,
71,
71,
71,
71,
71,
72,
72,
73,
73,
73,
73,
73,
73,
74,
74,
74,
74,
73,
73,
75,
75,
74,
74,
75,
75,
75,
75,
75,
75,
76,
76,
77,
77,
76,
76,
76,
76,
77,
77,
77,
77,
77,
77,
77,
77,
78,
78,
78,
78,
79,
79,
79,
79,
79,
79,
79,
79,
79,
79,
79,
79,
81,
81,
80,
80,
79,
79,
80,
80,
80,
80,
80,
80,
80,
80,
81,
81,
81,
81,
81,
81,
80,
80,
81,
81,
81,
81,
82,
82,
81,
81,
81,
81,
81,
81,
81,
81,
81,
81,
82,
82,
81,
81,
82,
82,
81,
81,
81,
81,
82,
82,
81,
81,
81,
81,
81,
81,
80,
80,
81,
81,
81,
81,
81,
81,
81,
81,
81,
81,
81,
81,
80,
80,
81,
81,
80,
80,
80,
80,
80,
80,
79,
79,
80,
80,
79,
79,
79,
79,
78,
78,
78,
78,
78,
78,
78,
78,
78,
78,
78,
78,
78,
78,
78,
78,
76,
76,
78,
78,
76,
76,
76,
76,
75,
75,
76,
76,
76,
76,
75,
75,
74,
74,
74,
74,
74,
74,
74,
74,
74,
74,
74,
74,
73,
73,
73,
73,
72,
72,
71,
71,
71,
71,
71,
71,
71,
71,
71,
71,
70,
70,
69,
69,
70,
70,
69,
69,
70,
70,
69,
69,
69,
69,
69,
69,
67,
67,
67,
67,
67,
67,
66,
66,
67,
67,
66,
66,
66,
66,
65,
65,
64,
64,
65,
65,
65,
65,
62,
62,
63,
63,
63,
63,
63,
63,
63,
63,
62,
62,
63,
63,
62,
62,
61,
61,
61,
61,
62,
62,
60,
60,
60,
60,
60,
60,
60,
60,
60,
60,
59,
59,
59,
59,
59,
59,
59,
59,
59,
59,
59,
59,
59,
59,
58,
58,
58,
58,
58,
58,
58,
58,
56,
56,
58,
58,
58,
58,
57,
57,
57,
57,
57,
57,
57,
57,
57,
57,
57,
57,
57,
57,
56,
56,
57,
57,
57,
57,
56,
56,
57,
57,
57,
57,
56,
56,
57,
57,
57,
57,
56,
56,
56,
56,
57,
57,
57,
57,
57,
57,
56,
56,
58,
58,
57,
57,
58,
58,
57,
57,
57,
57,
58,
58,
57,
57,
58,
58,
58,
58,
59,
59,
58,
58,
59,
59,
58,
58,
58,
58,
59,
59,
60,
60,
60,
60,
60,
60,
60,
60,
60,
60,
60,
60,
59,
59,
60,
60,
60,
60,
61,
61,
62,
62,
63,
63,
63,
63,
62,
62,
62,
62,
62,
62,
64,
64,
65,
65,
64,
64,
63,
63,
65,
65,
65,
65,
66,
66,
65,
65,
65,
65,
65,
65,
66,
66,
67,
67,
67,
67,
68,
68,
68,
68,
69,
69,
68,
68,
69,
69,
69,
69,
70,
70,
69,
69,
71,
71,
71,
71,
71,
71,
71,
71,
72,
72,
72,
72,
71,
71,
72,
72,
72,
72,
73,
73,
73,
73,
74,
74,
75,
75,
75,
75,
74,
74,
75,
75,
75,
75,
75,
75,
77,
77,
74,
74,
76,
76,
77,
77,
78,
78,
77,
77,
77,
77,
78,
78,
78,
78,
78,
78,
78,
78,
79,
79,
79,
79,
79,
79,
79,
79,
79,
79,
79,
79,
81,
81,
80,
80,
80,
80,
80,
80,
81,
81,
81,
81,
80,
80,
81,
81,
81,
81,
81,
81,
81,
81,
81,
81,
82,
82,
81,
81,
81,
81,
81,
81,
81,
81,
82,
82,
81,
81,
81,
81,
82,
82,
81,
81,
81,
81,
81,
81,
82,
82,
81,
81,
81,
81,
81,
81,
81,
81,
81,
81,
81,
81,
81,
81,
80,
80,
81,
81,
80,
80,
80,
80,
80,
80,
80,
80,
80,
80,
81,
81,
79,
79,
79,
79,
79,
79,
79,
79,
79,
79,
78,
78,
78,
78,
78,
78,
78,
78,
78,
78,
77,
77,
77,
77,
77,
77,
77,
77,
77,
77,
76,
76,
76,
76,
75,
75,
75,
75,
75,
75,
75,
75,
74,
74,
73,
73,
73,
73,
74,
74,
73,
73,
72,
72,
73,
73,
71,
71,
72,
72,
71,
71,
71,
71,
71,
71,
70,
70,
70,
70,
70,
70,
69,
69,
69,
69,
69,
69,
69,
69,
67,
67,
69,
69,
67,
67,
67,
67,
66,
66,
66,
66,
66,
66,
65,
65,
65,
65,
65,
65,
65,
65,
64,
64,
65,
65,
64,
64,
63,
63,
63,
63,
63,
63,
63,
63,
62,
62,
62,
62,
62,
62,
62,
62,
61,
61,
61,
61,
61,
61,
60,
60,
60,
60,
60,
60,
60,
60,
60,
60,
60,
60,
59,
59,
57,
57,
59,
59,
59,
59,
59,
59,
58,
58,
57,
57,
59,
59,
58,
58,
58,
58,
58,
58,
57,
57,
58,
58,
59,
59,
57,
57,
57,
57,
57,
57,
57,
57,
57,
57,
56,
56,
58,
58,
56,
56,
57,
57,
57,
57,
56,
56,
56,
56,
57,
57,
57,
57,
58,
58,
56,
56,
57,
57,
57,
57,
57,
57,
57,
57,
57,
57,
57,
57,
58,
58,
58,
58,
57,
57,
58,
58,
58,
58,
58,
58,
59,
59,
58,
58,
58,
58,
59,
59,
58,
58,
59,
59,
59,
59,
59,
59,
60,
60,
59,
59,
61,
61,
60,
60,
60,
60,
61,
61,
60,
60,
61,
61,
61,
61,
62,
62,
62,
62,
63,
63,
63,
63,
63,
63,
64,
64,
63,
63,
63,
63,
64,
64,
65,
65,
64,
64,
65,
65,
66,
66,
65,
65,
66,
66,
66,
66,
66,
66,
67,
67,
68,
68,
67,
67,
68,
68,
68,
68,
69,
69,
69,
69,
69,
69,
70,
70,
70,
70,
71,
71,
71,
71,
71,
71,
71,
71,
71,
71,
72,
72,
73,
73,
72,
72,
73,
73,
73,
73,
75,
75,
74,
74,
74,
74,
74,
74,
74,
74,
75,
75,
75,
75,
75,
75,
76,
76,
76,
76,
77,
77,
77,
77,
77,
77,
77,
77,
77,
77,
78,
78,
78,
78,
78,
78,
79,
79,
78,
78,
80,
80,
79,
79,
80,
80,
79,
79,
79,
79,
80,
80,
80,
80,
80,
80,
79,
79,
81,
81,
82,
82,
80,
80,
81,
81,
80,
80,
81,
81,
81,
81,
82,
82,
81,
81,
81,
81,
82,
82,
81,
81,
81,
81,
81,
81,
82,
82,
82,
82,
81,
81,
82,
82,
81,
81,
82,
82,
81,
81,
81,
81,
81,
81,
81,
81,
81,
81,
81,
81,
81,
81,
81,
81,
81,
81,
81,
81,
81,
81,
81,
81,
80,
80,
80,
80,
80,
80,
80,
80,
79,
79,
79,
79,
79,
79,
79,
79,
79,
79,
79,
79,
78,
78,
78,
78,
77,
77,
77,
77,
77,
77,
77,
77,
77,
77,
76,
76,
75,
75,
76,
76,
75,
75,
75,
75,
75,
75,
75,
75,
75,
75,
74,
74,
74,
74,
74,
74,
74,
74,
73,
73,
73,
73,
72,
72,
71,
71,
73,
73,
71,
71,
71,
71,
71,
71,
71,
71,
70,
70,
70,
70,
70,
70,
69,
69,
69,
69,
69,
69,
68,
68,
68,
68,
67,
67,
67,
67,
66,
66,
66,
66,
65,
65,
65,
65,
65,
65,
64,
64,
64,
64,
65,
65,
63,
63,
65,
65,
63,
63,
63,
63,
63,
63,
63,
63,
62,
62,
62,
62,
61,
61,
61,
61,
62,
62,
61,
61,
60,
60,
61,
61,
60,
60,
60,
60,
59,
59,
59,
59,
59,
59,
59,
59,
59,
59,
59,
59,
59,
59,
58,
58,
59,
59,
58,
58,
59,
59,
57,
57,
58,
58,
58,
58,
58,
58,
57,
57,
57,
57,
57,
57,
57,
57,
56,
56,
57,
57,
57,
57,
56,
56,
56,
56,
57,
57,
58,
58,
57,
57,
57,
57,
57,
57,
55,
55,
57,
57,
57,
57,
56,
56,
57,
57,
57,
57,
57,
57,
57,
57,
58,
58,
57,
57,
57,
57,
58,
58,
57,
57,
57,
57,
58,
58,
58,
58,
58,
58,
58,
58,
59,
59,
59,
59,
59,
59,
60,
