2-diodenkennlinien/data/ALL0001/A0001CH1.CSV

Memory Length,4000,
Trigger Level,2.73000e+00,
Source,CH1,
Probe,1.0X,
Vertical Units,V,
Vertical Scale,2.00000e-01,
Vertical Position,0.00000e+00,
Horizontal Units,S,
Horizontal Scale,5.00000e-03,
Horizontal Position,0.0000000e+00,
Horizontal Mode,XY Mode,
Sampling Period,2.00000e-05,
Firmware,V1.14,
Time, ,
Mode,Fast,
Waveform Data,
-128,
-128,
-128,
-128,
-128,
-128,
-128,
-128,
-128,
-128,
-128,
-128,
-128,
-128,
-128,
-128,
-128,
-128,
-128,
-128,
-128,
-128,
-128,
-128,
-128,
-128,
-128,
-128,
-128,
-128,
-128,
-128,
-128,
-128,
-128,
-128,
-128,
-128,
-128,
-128,
-128,
-128,
-128,
-128,
-128,
-128,
-128,
-128,
-128,
-128,
-128,
-128,
-128,
-128,
-128,
-128,
-128,
-128,
-128,
-128,
-128,
-128,
-128,
-128,
-128,
-128,
-128,
-128,
-128,
-128,
-128,
-128,
-128,
-128,
-128,
-128,
-128,
-128,
-128,
-128,
-128,
-128,
-128,
-128,
-128,
-128,
-128,
-121,
-101,
-101,
-80,
-82,
-61,
-63,
-47,
-49,
-26,
-27,
1,
0,
16,
16,
37,
36,
58,
58,
58,
65,
65,
71,
71,
74,
74,
76,
76,
77,
77,
78,
78,
80,
80,
81,
81,
82,
82,
81,
81,
83,
83,
84,
84,
85,
85,
85,
85,
85,
85,
86,
86,
86,
86,
86,
86,
87,
87,
87,
87,
88,
88,
88,
88,
88,
88,
88,
88,
89,
89,
89,
89,
90,
90,
89,
89,
90,
90,
89,
89,
90,
90,
90,
90,
90,
90,
91,
91,
92,
92,
92,
92,
92,
92,
91,
91,
92,
92,
92,
92,
93,
93,
93,
93,
93,
93,
93,
93,
93,
93,
93,
93,
93,
93,
94,
94,
93,
93,
93,
93,
93,
93,
94,
94,
94,
94,
95,
95,
95,
95,
95,
95,
95,
95,
95,
95,
95,
95,
95,
-128,
-128,
-128,
-128,
-128,
-128,
-128,
-128,
-128,
-128,
-128,
-128,
-128,
-128,
-128,
-128,
-128,
-128,
-128,
-128,
-128,
-128,
-128,
-128,
-128,
-128,
-128,
-128,
-128,
-128,
-128,
-128,
-128,
-128,
-128,
-128,
-128,
-128,
-128,
-128,
-128,
-128,
-128,
-128,
-128,
-128,
-128,
-128,
-128,
-128,
-128,
-128,
-128,
-128,
-128,
-128,
-128,
-128,
-128,
-128,
-128,
-128,
-128,
-128,
-128,
-128,
-128,
-128,
-128,
-128,
-128,
-128,
-128,
-128,
-128,
-128,
-128,
-128,
-128,
-128,
-128,
-128,
-128,
-128,
-128,
-128,
-128,
-128,
-128,
-128,
-128,
-128,
-128,
-128,
-128,
-128,
-128,
-128,
-128,
-128,
-128,
-128,
-128,
-128,
-128,
-128,
-128,
-128,
-128,
-128,
-128,
-120,
-107,
-107,
-84,
-86,
-65,
-65,
-44,
-45,
-25,
-26,
-3,
-3,
13,
12,
36,
35,
57,
56,
67,
66,
66,
72,
72,
74,
74,
76,
76,
77,
77,
79,
79,
79,
79,
80,
80,
81,
81,
82,
82,
83,
83,
84,
84,
85,
85,
85,
85,
85,
85,
86,
86,
86,
86,
87,
87,
87,
87,
87,
87,
88,
88,
88,
88,
89,
89,
89,
89,
89,
89,
89,
89,
90,
90,
90,
90,
91,
91,
90,
90,
90,
90,
91,
91,
91,
91,
91,
91,
92,
92,
91,
91,
91,
91,
91,
91,
91,
91,
92,
92,
92,
92,
93,
93,
93,
93,
93,
93,
93,
93,
93,
93,
93,
93,
94,
94,
93,
93,
94,
94,
94,
94,
95,
95,
94,
94,
95,
95,
95,
95,
95,
95,
95,
95,
95,
95,
96,
-128,
-128,
-128,
-128,
-128,
-128,
-128,
-128,
-128,
-128,
-128,
-128,
-128,
-128,
-128,
-128,
-128,
-128,
-128,
-128,
-128,
-128,
-128,
-128,
-128,
-128,
-128,
-128,
-128,
-128,
-128,
-128,
-128,
-128,
-128,
-128,
-128,
-128,
-128,
-128,
-128,
-128,
-128,
-128,
-128,
-128,
-128,
-128,
-128,
-128,
-128,
-128,
-128,
-128,
-128,
-128,
-128,
-128,
-128,
-128,
-128,
-128,
-128,
-128,
-128,
-128,
-128,
-128,
-128,
-128,
-128,
-128,
-128,
-128,
-128,
-128,
-128,
-128,
-128,
-128,
-128,
-128,
-128,
-128,
-128,
-128,
-128,
-128,
-128,
-128,
-128,
-128,
-128,
-128,
-128,
-128,
-128,
-128,
-128,
-128,
-128,
-128,
-128,
-128,
-128,
-128,
-128,
-128,
-128,
-128,
-128,
-128,
-128,
-126,
-98,
-99,
-79,
-80,
-62,
-63,
-46,
-47,
-21,
-22,
-2,
-2,
18,
18,
37,
36,
51,
51,
65,
63,
63,
71,
71,
74,
74,
75,
75,
79,
79,
79,
79,
81,
81,
81,
81,
81,
81,
82,
82,
83,
83,
84,
84,
84,
84,
85,
85,
86,
86,
85,
85,
87,
87,
86,
86,
87,
87,
87,
87,
88,
88,
88,
88,
88,
88,
89,
89,
89,
89,
89,
89,
90,
90,
90,
90,
90,
90,
90,
90,
91,
91,
90,
90,
91,
91,
91,
91,
92,
92,
91,
91,
92,
92,
91,
91,
91,
91,
92,
92,
93,
93,
91,
91,
93,
93,
93,
93,
93,
93,
92,
92,
93,
93,
93,
93,
93,
93,
95,
95,
95,
95,
94,
94,
94,
94,
94,
94,
95,
95,
94,
94,
95,
95,
95,
95,
95,
-128,
-128,
-128,
-128,
-128,
-128,
-128,
-128,
-128,
-128,
-128,
-128,
-128,
-128,
-128,
-128,
-128,
-128,
-128,
-128,
-128,
-128,
-128,
-128,
-128,
-128,
-128,
-128,
-128,
-128,
-128,
-128,
-128,
-128,
-128,
-128,
-128,
-128,
-128,
-128,
-128,
-128,
-128,
-128,
-128,
-128,
-128,
-128,
-128,
-128,
-128,
-128,
-128,
-128,
-128,
-128,
-128,
-128,
-128,
-128,
-128,
-128,
-128,
-128,
-128,
-128,
-128,
-128,
-128,
-128,
-128,
-128,
-128,
-128,
-128,
-128,
-128,
-128,
-128,
-128,
-128,
-128,
-128,
-128,
-128,
-128,
-128,
-128,
-128,
-128,
-128,
-128,
-128,
-128,
-128,
-128,
-128,
-128,
-128,
-128,
-128,
-128,
-128,
-128,
-128,
-128,
-128,
-128,
-128,
-128,
-128,
-128,
-128,
-121,
-99,
-99,
-82,
-82,
-63,
-63,
-39,
-39,
-20,
-21,
-8,
-8,
15,
14,
35,
34,
53,
53,
65,
64,
64,
70,
70,
73,
73,
76,
76,
78,
78,
79,
79,
80,
80,
81,
81,
82,
82,
82,
82,
83,
83,
84,
84,
84,
84,
85,
85,
85,
85,
86,
86,
86,
86,
87,
87,
87,
87,
87,
87,
87,
87,
88,
88,
89,
89,
89,
89,
89,
89,
89,
89,
89,
89,
90,
90,
90,
90,
90,
90,
91,
91,
91,
91,
91,
91,
91,
91,
92,
92,
92,
92,
92,
92,
92,
92,
92,
92,
92,
92,
93,
93,
93,
93,
93,
93,
93,
93,
93,
93,
93,
93,
94,
94,
93,
93,
93,
93,
94,
94,
93,
93,
94,
94,
95,
95,
95,
95,
95,
95,
94,
94,
95,
95,
95,
95,
95,
-128,
-128,
-128,
-128,
-128,
-128,
-128,
-128,
-128,
-128,
-128,
-128,
-128,
-128,
-128,
-128,
-128,
-128,
-128,
-128,
-128,
-128,
-128,
-128,
-128,
-128,
-128,
-128,
-128,
-128,
-128,
-128,
-128,
-128,
-128,
-128,
-128,
-128,
-128,
-128,
-128,
-128,
-128,
-128,
-128,
-128,
-128,
-128,
-128,
-128,
-128,
-128,
-128,
-128,
-128,
-128,
-128,
-128,
-128,
-128,
-128,
-128,
-128,
-128,
-128,
-128,
-128,
-128,
-128,
-128,
-128,
-128,
-128,
-128,
-128,
-128,
-128,
-128,
-128,
-128,
-128,
-128,
-128,
-128,
-128,
-128,
-128,
-128,
-128,
-128,
-128,
-128,
-128,
-128,
-128,
-128,
-128,
-128,
-128,
-128,
-128,
-128,
-128,
-128,
-128,
-128,
-128,
-128,
-128,
-128,
-128,
-128,
-128,
-122,
-104,
-105,
-85,
-86,
-64,
-64,
-40,
-40,
-25,
-26,
1,
1,
21,
20,
37,
37,
53,
51,
66,
65,
65,
72,
72,
74,
74,
76,
76,
77,
77,
78,
78,
80,
80,
81,
81,
82,
82,
83,
83,
84,
84,
84,
84,
84,
84,
85,
85,
85,
85,
85,
85,
86,
86,
87,
87,
87,
87,
88,
88,
87,
87,
88,
88,
88,
88,
89,
89,
89,
89,
90,
90,
89,
89,
89,
89,
89,
89,
89,
89,
90,
90,
91,
91,
90,
90,
91,
91,
91,
91,
91,
91,
91,
91,
91,
91,
92,
92,
93,
93,
92,
92,
93,
93,
93,
93,
93,
93,
93,
93,
92,
92,
93,
93,
93,
93,
93,
93,
93,
93,
95,
95,
94,
94,
94,
94,
95,
95,
96,
96,
95,
95,
95,
95,
95,
95,
95,
-128,
-128,
-128,
-128,
-128,
-128,
-128,
-128,
-128,
-128,
-128,
-128,
-128,
-128,
-128,
-128,
-128,
-128,
-128,
-128,
-128,
-128,
-128,
-128,
-128,
-128,
-128,
-128,
-128,
-128,
-128,
-128,
-128,
-128,
-128,
-128,
-128,
-128,
-128,
-128,
-128,
-128,
-128,
-128,
-128,
-128,
-128,
-128,
-128,
-128,
-128,
-128,
-128,
-128,
-128,
-128,
-128,
-128,
-128,
-128,
-128,
-128,
-128,
-128,
-128,
-128,
-128,
-128,
-128,
-128,
-128,
-128,
-128,
-128,
-128,
-128,
-128,
-128,
-128,
-128,
-128,
-128,
-128,
-128,
-128,
-128,
-128,
-128,
-128,
-128,
-128,
-128,
-128,
-128,
-128,
-128,
-128,
-128,
-128,
-128,
-128,
-128,
-128,
-128,
-128,
-128,
-128,
-128,
-128,
-128,
-128,
-128,
-128,
-121,
-107,
-107,
-80,
-81,
-67,
-68,
-41,
-43,
-21,
-22,
1,
1,
18,
17,
36,
35,
58,
57,
57,
66,
66,
69,
69,
73,
73,
76,
76,
77,
77,
78,
78,
81,
81,
81,
81,
81,
81,
82,
82,
83,
83,
84,
84,
85,
85,
85,
85,
86,
86,
85,
85,
86,
86,
87,
87,
87,
87,
88,
88,
87,
87,
88,
88,
89,
89,
89,
89,
89,
89,
89,
89,
90,
90,
90,
90,
89,
89,
91,
91,
90,
90,
90,
90,
90,
90,
91,
91,
91,
91,
91,
91,
91,
91,
93,
93,
92,
92,
92,
92,
93,
93,
93,
93,
93,
93,
93,
93,
93,
93,
93,
93,
93,
93,
94,
94,
93,
93,
93,
93,
94,
94,
94,
94,
95,
95,
94,
94,
94,
94,
95,
95,
95,
95,
95,
95,
95,
-128,
-128,
-128,
-128,
-128,
-128,
-128,
-128,
-128,
-128,
-128,
-128,
-128,
-128,
-128,
-128,
-128,
-128,
-128,
-128,
-128,
-128,
-128,
-128,
-128,
-128,
-128,
-128,
-128,
-128,
-128,
-128,
-128,
-128,
-128,
-128,
-128,
-128,
-128,
-128,
-128,
-128,
-128,
-128,
-128,
-128,
-128,
-128,
-128,
-128,
-128,
-128,
-128,
-128,
-128,
-128,
-128,
-128,
-128,
-128,
-128,
-128,
-128,
-128,
-128,
-128,
-128,
-128,
-128,
-128,
-128,
-128,
-128,
-128,
-128,
-128,
-128,
-128,
-128,
-128,
-128,
-128,
-128,
-128,
-128,
-128,
-128,
-128,
-128,
-128,
-128,
-128,
-128,
-128,
-128,
-128,
-128,
-128,
-128,
-128,
-128,
-128,
-128,
-128,
-128,
-128,
-128,
-128,
-128,
-128,
-128,
-128,
-128,
-127,
-104,
-105,
-85,
-85,
-62,
-63,
-45,
-45,
-23,
-23,
-5,
-6,
15,
13,
35,
35,
57,
56,
56,
64,
64,
72,
72,
74,
74,
76,
76,
78,
78,
78,
78,
79,
79,
81,
81,
81,
81,
83,
83,
83,
83,
84,
84,
85,
85,
85,
85,
86,
86,
86,
86,
86,
86,
86,
86,
87,
87,
87,
87,
88,
88,
88,
88,
89,
89,
88,
88,
89,
89,
88,
88,
90,
90,
89,
89,
89,
89,
90,
90,
89,
89,
91,
91,
90,
90,
90,
90,
91,
91,
90,
90,
91,
91,
92,
92,
91,
91,
91,
91,
93,
93,
91,
91,
92,
92,
93,
93,
94,
94,
93,
93,
93,
93,
94,
94,
94,
94,
94,
94,
94,
94,
94,
94,
94,
94,
95,
95,
95,
95,
95,
95,
95,
95,
95,
95,
96,
96,
95,
-128,
-128,
-128,
-128,
-128,
-128,
-128,
-128,
-128,
-128,
-128,
-128,
-128,
-128,
-128,
-128,
-128,
-128,
-128,
-128,
-128,
-128,
-128,
-128,
-128,
-128,
-128,
-128,
-128,
-128,
-128,
-128,
-128,
-128,
-128,
-128,
-128,
-128,
-128,
-128,
-128,
-128,
-128,
-128,
-128,
-128,
-128,
-128,
-128,
-128,
-128,
-128,
-128,
-128,
-128,
-128,
-128,
-128,
-128,
-128,
-128,
-128,
-128,
-128,
-128,
-128,
-128,
-128,
-128,
-128,
-128,
-128,
-128,
-128,
-128,
-128,
-128,
-128,
-128,
-128,
-128,
-128,
-128,
-128,
-128,
-128,
-128,
-128,
-128,
-128,
-128,
-128,
-128,
-128,
-128,
-128,
-128,
-128,
-128,
-128,
-128,
-128,
-128,
-128,
-128,
-128,
-128,
-128,
-128,
-128,
-128,
-126,
-103,
-103,
-88,
-89,
-67,
-67,
-42,
-42,
-20,
-21,
-7,
-8,
19,
19,
33,
33,
56,
55,
67,
65,
65,
72,
72,
74,
74,
76,
76,
77,
77,
79,
79,
80,
80,
81,
81,
81,
81,
82,
82,
83,
83,
83,
83,
84,
84,
85,
85,
85,
85,
85,
85,
87,
87,
87,
87,
87,
87,
87,
87,
87,
87,
88,
88,
89,
89,
89,
89,
88,
88,
89,
89,
89,
89,
89,
89,
90,
90,
90,
90,
91,
91,
90,
90,
90,
90,
91,
91,
91,
91,
91,
91,
91,
91,
92,
92,
91,
91,
93,
93,
93,
93,
93,
93,
93,
93,
93,
93,
93,
93,
93,
93,
93,
93,
94,
94,
94,
94,
94,
94,
93,
93,
94,
94,
95,
95,
95,
95,
95,
95,
95,
95,
96,
96,
95,
95,
95,
-128,
-128,
-128,
-128,
-128,
-128,
-128,
-128,
-128,
-128,
-128,
-128,
-128,
-128,
-128,
-128,
-128,
-128,
-128,
-128,
-128,
-128,
-128,
-128,
-128,
-128,
-128,
-128,
-128,
-128,
-128,
-128,
-128,
-128,
-128,
-128,
-128,
-128,
-128,
-128,
-128,
-128,
-128,
-128,
-128,
-128,
-128,
-128,
-128,
-128,
-128,
-128,
-128,
-128,
-128,
-128,
-128,
-128,
-128,
-128,
-128,
-128,
-128,
-128,
-128,
-128,
-128,
-128,
-128,
-128,
-128,
-128,
-128,
-128,
-128,
-128,
-128,
-128,
-128,
-128,
-128,
-128,
-128,
-128,
-128,
-128,
-128,
-128,
-128,
-128,
-128,
-128,
-128,
-128,
-128,
-128,
-128,
-128,
-128,
-128,
-128,
-128,
-128,
-128,
-128,
-128,
-128,
-128,
-128,
-128,
-128,
-128,
-128,
-122,
-103,
-104,
-87,
-88,
-63,
-65,
-44,
-45,
-29,
-29,
-5,
-5,
15,
15,
37,
37,
53,
53,
66,
65,
65,
69,
69,
73,
73,
77,
77,
77,
77,
78,
78,
80,
80,
81,
81,
81,
81,
82,
82,
82,
82,
84,
84,
84,
84,
85,
85,
85,
85,
85,
85,
86,
86,
86,
86,
87,
87,
87,
87,
88,
88,
88,
88,
88,
88,
88,
88,
89,
89,
89,
89,
90,
90,
90,
90,
89,
89,
90,
90,
90,
90,
91,
91,
90,
90,
92,
92,
91,
91,
92,
92,
91,
91,
92,
92,
93,
93,
93,
93,
92,
92,
92,
92,
93,
93,
93,
93,
93,
93,
93,
93,
94,
94,
94,
94,
93,
93,
94,
94,
95,
95,
95,
95,
94,
94,
95,
95,
95,
95,
95,
95,
95,
95,
95,
95,
96,
-128,
-128,
-128,
-128,
-128,
-128,
-128,
-128,
-128,
-128,
-128,
-128,
-128,
-128,
-128,
-128,
-128,
-128,
-128,
-128,
-128,
-128,
-128,
-128,
-128,
-128,
-128,
-128,
-128,
-128,
-128,
-128,
-128,
-128,
-128,
-128,
-128,
-128,
-128,
-128,
-128,
-128,
-128,
-128,
-128,
-128,
-128,
-128,
-128,
-128,
-128,
-128,
-128,
-128,
-128,
-128,
-128,
-128,
-128,
-128,
-128,
-128,
-128,
-128,
-128,
-128,
-128,
-128,
-128,
-128,
-128,
-128,
-128,
-128,
-128,
-128,
-128,
-128,
-128,
-128,
-128,
-128,
-128,
-128,
-128,
-128,
-128,
-128,
-128,
-128,
-128,
-128,
-128,
-128,
-128,
-128,
-128,
-128,
-128,
-128,
-128,
-128,
-128,
-128,
-128,
-128,
-128,
-128,
-128,
-128,
-128,
-128,
-128,
-128,
-103,
-103,
-85,
-86,
-63,
-65,
-49,
-49,
-27,
-27,
-4,
-5,
11,
11,
33,
32,
56,
55,
67,
66,
66,
69,
69,
73,
73,
76,
76,
78,
78,
79,
79,
79,
79,
81,
81,
82,
82,
83,
83,
84,
84,
84,
84,
83,
83,
85,
85,
85,
85,
85,
85,
86,
86,
86,
86,
87,
87,
88,
88,
86,
86,
89,
89,
89,
89,
89,
89,
89,
89,
90,
90,
89,
89,
89,
89,
90,
90,
91,
91,
90,
90,
90,
90,
91,
91,
91,
91,
91,
91,
91,
91,
91,
91,
92,
92,
92,
92,
92,
92,
93,
93,
93,
93,
92,
92,
93,
93,
93,
93,
93,
93,
94,
94,
93,
93,
94,
94,
93,
93,
95,
95,
94,
94,
93,
93,
95,
95,
95,
95,
94,
94,
95,
95,
95,
95,
95,
95,
95,
-128,
-128,
-128,
-128,
-128,
-128,
-128,
-128,
-128,
-128,
-128,
-128,
-128,
-128,
-128,
-128,
-128,
-128,
-128,
-128,
-128,
-128,
-128,
-128,
-128,
-128,
-128,
-128,
-128,
-128,
-128,
-128,
-128,
-128,
-128,
-128,
-128,
-128,
-128,
-128,
-128,
-128,
-128,
-128,
-128,
-128,
-128,
-128,
-128,
-128,
-128,
-128,
-128,
-128,
-128,
-128,
-128,
-128,
-128,
-128,
-128,
-128,
-128,
-128,
-128,
-128,
-128,
-128,
-128,
-128,
-128,
-128,
-128,
-128,
-128,
-128,
-128,
-128,
-128,
-128,
-128,
-128,
-128,
-128,
-128,
-128,
-128,
-128,
-128,
-128,
-128,
-128,
-128,
-128,
-128,
-128,
-128,
-128,
-128,
-128,
-128,
-128,
-128,
-128,
-128,
-128,
-128,
-128,
-128,
-128,
-128,
-128,
-106,
-107,
-88,
-89,
-66,
-67,
-47,
-48,
-21,
-22,
-4,
-5,
12,
11,
36,
35,
54,
53,
53,
63,
63,
70,
70,
73,
73,
76,
76,
77,
77,
79,
79,
80,
80,
81,
81,
81,
81,
83,
83,
83,
83,
84,
84,
85,
85,
85,
85,
85,
85,
85,
85,
87,
87,
86,
86,
87,
87,
87,
87,
87,
87,
89,
89,
89,
89,
89,
89,
89,
89,
89,
89,
89,
89,
89,
89,
89,
89,
91,
91,
90,
90,
91,
91,
90,
90,
91,
91,
91,
91,
91,
91,
92,
92,
91,
91,
92,
92,
92,
92,
92,
92,
93,
93,
93,
93,
92,
92,
93,
93,
93,
93,
93,
93,
93,
93,
94,
94,
93,
93,
93,
93,
94,
94,
94,
94,
94,
94,
95,
95,
94,
94,
95,
95,
95,
95,
95,
-128,
-128,
-128,
-128,
-128,
-128,
-128,
-128,
-128,
-128,
-128,
-128,
-128,
-128,
-128,
-128,
-128,
-128,
-128,
-128,
-128,
-128,
-128,
-128,
-128,
-128,
-128,
-128,
-128,
-128,
-128,
-128,
-128,
-128,
-128,
-128,
-128,
-128,
-128,
-128,
-128,
-128,
-128,
-128,
-128,
-128,
-128,
-128,
-128,
-128,
-128,
-128,
-128,
-128,
-128,
-128,
-128,
-128,
-128,
-128,
-128,
-128,
-128,
-128,
-128,
-128,
-128,
-128,
-128,
-128,
-128,
-128,
-128,
-128,
-128,
-128,
-128,
-128,
-128,
-128,
-128,
-128,
-128,
-128,
-128,
-128,
-128,
-128,
-128,
-128,
-128,
-128,
-128,
-128,
-128,
-128,
-128,
-128,
-128,
-128,
-128,
-128,
-128,
-128,
-128,
-128,
-128,
-128,
-128,
-128,
-128,
-128,
-128,
-125,
-105,
-107,
-84,
-84,
-67,
-69,
-44,
-44,
-28,
-28,
-3,
-3,
15,
14,
36,
36,
50,
49,
65,
63,
63,
70,
70,
73,
73,
76,
76,
77,
77,
79,
79,
80,
80,
81,
81,
81,
81,
82,
82,
83,
83,
84,
84,
84,
84,
85,
85,
85,
85,
86,
86,
85,
85,
87,
87,
87,
87,
86,
86,
89,
89,
89,
89,
88,
88,
89,
89,
89,
89,
89,
89,
89,
89,
89,
89,
90,
90,
91,
91,
90,
90,
91,
91,
91,
91,
90,
90,
91,
91,
92,
92,
91,
91,
91,
91,
91,
91,
92,
92,
92,
92,
93,
93,
93,
93,
92,
92,
93,
93,
93,
93,
93,
93,
93,
93,
94,
94,
94,
94,
94,
94,
94,
94,
95,
95,
95,
95,
95,
95,
94,
94,
95,
95,
95,
95,
95,
-128,
-128,
-128,
-128,
-128,
-128,
-128,
-128,
-128,
-128,
-128,
-128,
-128,
-128,
-128,
-128,
-128,
-128,
-128,
-128,
-128,
-128,
-128,
-128,
-128,
-128,
-128,
-128,
-128,
-128,
-128,
-128,
-128,
-128,
-128,
-128,
-128,
-128,
-128,
-128,
-128,
-128,
-128,
-128,
-128,
-128,
-128,
-128,
-128,
-128,
-128,
-128,
-128,
-128,
-128,
-128,
-128,
-128,
-128,
-128,
-128,
-128,
-128,
-128,
-128,
-128,
-128,
-128,
-128,
-128,
-128,
-128,
-128,
-128,
-128,
-128,
-128,
-128,
-128,
-128,
-128,
-128,
-128,
-128,
-128,
-128,
-128,
-128,
-128,
-128,
-128,
-128,
-128,
-128,
-128,
-128,
-128,
-128,
-128,
-128,
-128,
-128,
-128,
-128,
-128,
-128,
-128,
-128,
-128,
-128,
-128,
-128,
-128,
-125,
-102,
-103,
-83,
-83,
-62,
-62,
-42,
-42,
-29,
-30,
-7,
-8,
11,
10,
34,
33,
51,
51,
66,
65,
65,
71,
71,
73,
73,
75,
75,
77,
77,
79,
79,
80,
80,
81,
81,
82,
82,
83,
83,
83,
83,
84,
84,
85,
85,
85,
85,
85,
85,
85,
85,
87,
87,
87,
87,
87,
87,
87,
87,
87,
87,
87,
87,
89,
89,
89,
89,
89,
89,
90,
90,
89,
89,
89,
89,
89,
89,
89,
89,
91,
91,
90,
90,
91,
91,
91,
91,
92,
92,
92,
92,
91,
91,
92,
92,
91,
91,
93,
93,
93,
93,
93,
93,
93,
93,
93,
93,
94,
94,
94,
94,
93,
93,
94,
94,
94,
94,
94,
94,
94,
94,
93,
93,
95,
95,
94,
94,
94,
94,
95,
95,
95,
95,
94,
94,
95,
-128,
-128,
-128,
-128,
-128,
-128,
-128,
-128,
-128,
-128,
-128,
-128,
-128,
-128,
-128,
-128,
-128,
-128,
-128,
-128,
-128,
-128,
-128,
-128,
-128,
-128,
-128,
-128,
-128,
-128,
-128,
-128,
-128,
-128,
-128,
-128,
-128,
-128,
-128,
-128,
-128,
-128,
-128,
-128,
-128,
-128,
-128,
-128,
-128,
-128,
-128,
-128,
-128,
-128,
-128,
-128,
-128,
-128,
-128,
-128,
-128,
-128,
-128,
-128,
-128,
-128,
-128,
-128,
-128,
-128,
-128,
-128,
-128,
-128,
-128,
-128,
-128,
-128,
-128,
-128,
-128,
-128,
-128,
-128,
-128,
-128,
-128,
-128,
-128,
-128,
-128,
-128,
-128,
-128,
-128,
-128,
-128,
-128,
-128,
-128,
-128,
-128,
-128,
-128,
-128,
-128,
-128,
-128,
-128,
-128,
-128,
-128,
-128,
-121,
-102,
-103,
-82,
-83,
-61,
-63,
-46,
-47,
-26,
-26,
-6,
-6,
15,
15,
32,
32,
54,
53,
64,
64,
64,
71,
71,
73,
73,
76,
76,
78,
78,
79,
79,
80,
80,
81,
81,
81,
81,
82,
82,
84,
84,
83,
83,
85,
85,
85,
85,
85,
85,
85,
85,
86,
86,
86,
86,
87,
87,
87,
87,
88,
88,
87,
87,
89,
89,
89,
89,
88,
88,
89,
89,
89,
89,
90,
90,
91,
91,
90,
90,
90,
90,
91,
91,
90,
90,
91,
91,
92,
92,
92,
92,
92,
92,
92,
92,
92,
92,
92,
92,
92,
92,
93,
93,
93,
93,
92,
92,
93,
93,
93,
93,
93,
93,
93,
93,
93,
93,
94,
94,
94,
94,
94,
94,
95,
95,
95,
95,
94,
94,
94,
94,
94,
94,
95,
95,
96,
-128,
-128,
-128,
-128,
-128,
-128,
-128,
-128,
-128,
-128,
-128,
-128,
-128,
-128,
-128,
-128,
-128,
-128,
-128,
-128,
-128,
-128,
-128,
-128,
-128,
-128,
-128,
-128,
-128,
-128,
-128,
-128,
-128,
-128,
-128,
-128,
-128,
-128,
-128,
-128,
-128,
-128,
-128,
-128,
-128,
-128,
-128,
-128,
-128,
-128,
-128,
-128,
-128,
-128,
-128,
-128,
-128,
-128,
-128,
-128,
-128,
-128,
-128,
-128,
-128,
-128,
-128,
-128,
-128,
-128,
-128,
-128,
-128,
-128,
-128,
-128,
-128,
-128,
-128,
-128,
-128,
-128,
-128,
-128,
-128,
-128,
-128,
-128,
-128,
-128,
-128,
-128,
-128,
-128,
-128,
-128,
-128,
-128,
-128,
-128,
-128,
-128,
-128,
-128,
-128,
-128,
-128,
-128,
-128,
-128,
-128,
-128,
-128,
-123,
-100,
-100,
-85,
-85,
-60,
-61,
-46,
-46,
-25,
-26,
-3,
-3,
17,
17,
37,
37,
56,
55,
55,
63,
63,
71,
71,
73,
73,
75,
75,
77,
77,
79,
79,
80,
80,
81,
81,
82,
82,
82,
82,
84,
84,
83,
83,
85,
85,
85,
85,
86,
86,
85,
85,
86,
86,
86,
86,
87,
87,
87,
87,
87,
87,
87,
87,
88,
88,
88,
88,
89,
89,
89,
89,
89,
89,
89,
89,
90,
90,
89,
89,
91,
91,
91,
91,
91,
91,
92,
92,
92,
92,
91,
91,
92,
92,
93,
93,
91,
91,
93,
93,
92,
92,
93,
93,
93,
93,
93,
93,
93,
93,
93,
93,
93,
93,
94,
94,
93,
93,
93,
93,
94,
94,
94,
94,
94,
94,
95,
95,
95,
95,
95,
95,
94,
94,
95,
95,
95,
-128,
-128,
-128,
-128,
-128,
-128,
-128,
-128,
-128,
-128,
-128,
-128,
-128,
-128,
-128,
-128,
-128,
-128,
-128,
-128,
-128,
-128,
-128,
-128,
-128,
-128,
-128,
-128,
-128,
-128,
-128,
-128,
-128,
-128,
-128,
-128,
-128,
-128,
-128,
-128,
-128,
-128,
-128,
-128,
-128,
-128,
-128,
-128,
-128,
-128,
-128,
-128,
-128,
-128,
-128,
-128,
-128,
-128,
-128,
-128,
-128,
-128,
-128,
-128,
-128,
-128,
-128,
-128,
-128,
-128,
-128,
-128,
-128,
-128,
-128,
-128,
-128,
-128,
-128,
-128,
-128,
-128,
-128,
-128,
-128,
-128,
-128,
-128,
-128,
-128,
-128,
-128,
-128,
-128,
-128,
-128,
-128,
-128,
-128,
-128,
-128,
-128,
-128,
-128,
-128,
-128,
-128,
-128,
-128,
-128,
-128,
-128,
-128,
-123,
-103,
-104,
-86,
-87,
-65,
-65,
-43,
-43,
-20,
-21,
-3,
-3,
17,
17,
39,
37,
53,
53,
65,
65,
65,
70,
70,
73,
73,
76,
76,
77,
77,
78,
78,
81,
81,
81,
81,
82,
82,
82,
82,
83,
83,
83,
83,
85,
85,
85,
85,
85,
85,
86,
86,
86,
86,
86,
86,
86,
86,
88,
88,
87,
87,
89,
89,
89,
89,
89,
89,
89,
89,
89,
89,
90,
90,
89,
89,
89,
89,
90,
90,
90,
90,
90,
90,
91,
91,
91,
91,
91,
91,
92,
92,
92,
92,
92,
92,
92,
92,
92,
92,
93,
93,
93,
93,
93,
93,
93,
93,
93,
93,
93,
93,
93,
93,
93,
93,
93,
93,
93,
93,
94,
94,
94,
94,
94,
94,
95,
95,
95,
95,
95,
95,
95,
95,
95,
95,
95,
