2-diodenkennlinien/data/ALL0001/A0001CH2.CSV

Memory Length,4000,
Trigger Level,2.73000e+00,
Source,CH2,
Probe,1.0X,
Vertical Units,V,
Vertical Scale,2.00000e-01,
Vertical Position,0.00000e+00,
Horizontal Units,S,
Horizontal Scale,5.00000e-03,
Horizontal Position,0.0000000e+00,
Horizontal Mode,XY Mode,
Sampling Period,2.00000e-05,
Firmware,V1.14,
Time, ,
Mode,Fast,
Waveform Data,
2,
2,
2,
3,
3,
3,
3,
3,
3,
2,
2,
3,
3,
2,
2,
3,
3,
3,
3,
3,
3,
2,
2,
3,
3,
2,
2,
2,
2,
3,
3,
2,
2,
2,
2,
2,
2,
2,
2,
2,
2,
2,
2,
2,
2,
2,
2,
2,
2,
2,
2,
1,
1,
2,
2,
2,
2,
2,
2,
2,
2,
2,
2,
1,
1,
2,
2,
2,
2,
3,
3,
2,
2,
2,
2,
1,
1,
2,
2,
1,
1,
2,
2,
0,
0,
2,
2,
2,
2,
0,
0,
2,
2,
1,
1,
2,
2,
0,
0,
0,
0,
1,
1,
0,
0,
3,
3,
9,
20,
19,
19,
29,
40,
40,
40,
50,
64,
63,
80,
80,
92,
92,
92,
100,
113,
112,
125,
125,
125,
125,
125,
125,
125,
125,
125,
125,
125,
125,
125,
125,
125,
125,
125,
125,
125,
125,
125,
125,
125,
125,
125,
125,
125,
125,
125,
125,
125,
125,
125,
125,
125,
125,
125,
125,
125,
125,
125,
125,
125,
125,
125,
125,
125,
125,
125,
125,
125,
125,
125,
125,
125,
125,
125,
125,
125,
125,
125,
125,
125,
125,
125,
125,
125,
125,
125,
125,
125,
125,
125,
125,
125,
125,
125,
125,
125,
125,
125,
125,
125,
125,
125,
125,
125,
125,
125,
125,
125,
125,
125,
125,
125,
125,
125,
125,
125,
125,
-11,
4,
4,
3,
3,
3,
3,
3,
3,
3,
3,
3,
3,
3,
3,
4,
4,
3,
3,
3,
3,
3,
3,
3,
3,
3,
3,
3,
3,
3,
3,
3,
3,
2,
2,
3,
3,
3,
3,
3,
3,
2,
2,
3,
3,
2,
2,
3,
3,
2,
2,
2,
2,
2,
2,
3,
3,
2,
2,
2,
2,
2,
2,
3,
3,
2,
2,
3,
3,
2,
2,
2,
2,
2,
2,
2,
2,
2,
2,
2,
2,
2,
2,
2,
2,
2,
2,
1,
1,
1,
1,
2,
2,
2,
2,
2,
2,
2,
2,
2,
2,
2,
2,
2,
2,
2,
2,
1,
1,
1,
1,
2,
2,
2,
2,
2,
2,
1,
1,
0,
0,
1,
1,
1,
1,
1,
1,
1,
1,
2,
2,
9,
21,
20,
31,
31,
31,
40,
53,
53,
65,
65,
78,
78,
78,
87,
103,
103,
118,
117,
117,
125,
125,
125,
125,
125,
125,
125,
125,
125,
125,
125,
125,
125,
125,
125,
125,
125,
125,
125,
125,
125,
125,
125,
125,
125,
125,
125,
125,
125,
125,
125,
125,
125,
125,
125,
125,
125,
125,
125,
125,
125,
125,
125,
125,
125,
125,
125,
125,
125,
125,
125,
125,
125,
125,
125,
125,
125,
125,
125,
125,
125,
125,
125,
125,
125,
125,
125,
125,
125,
125,
125,
125,
125,
125,
125,
125,
125,
125,
125,
125,
125,
125,
125,
125,
125,
125,
125,
125,
125,
125,
125,
125,
125,
125,
125,
125,
125,
125,
125,
-10,
4,
4,
3,
3,
4,
4,
3,
3,
3,
3,
3,
3,
4,
4,
4,
4,
2,
2,
2,
2,
4,
4,
3,
3,
3,
3,
3,
3,
3,
3,
3,
3,
2,
2,
3,
3,
3,
3,
3,
3,
3,
3,
3,
3,
2,
2,
3,
3,
2,
2,
2,
2,
3,
3,
3,
3,
2,
2,
2,
2,
2,
2,
2,
2,
2,
2,
3,
3,
3,
3,
2,
2,
2,
2,
2,
2,
2,
2,
2,
2,
2,
2,
2,
2,
1,
1,
2,
2,
2,
2,
2,
2,
2,
2,
1,
1,
1,
1,
2,
2,
2,
2,
2,
2,
1,
1,
1,
1,
1,
1,
1,
1,
1,
1,
2,
2,
0,
0,
1,
1,
1,
1,
0,
0,
1,
1,
1,
1,
0,
0,
7,
20,
20,
20,
27,
41,
41,
55,
55,
66,
66,
79,
79,
90,
90,
103,
102,
102,
112,
125,
125,
125,
125,
125,
125,
125,
125,
125,
125,
125,
125,
125,
125,
125,
125,
125,
125,
125,
125,
125,
125,
125,
125,
125,
125,
125,
125,
125,
125,
125,
125,
125,
125,
125,
125,
125,
125,
125,
125,
125,
125,
125,
125,
125,
125,
125,
125,
125,
125,
125,
125,
125,
125,
125,
125,
125,
125,
125,
125,
125,
125,
125,
125,
125,
125,
125,
125,
125,
125,
125,
125,
125,
125,
125,
125,
125,
125,
125,
125,
125,
125,
125,
125,
125,
125,
125,
125,
125,
125,
125,
125,
125,
125,
125,
125,
125,
125,
125,
125,
-11,
5,
5,
3,
3,
2,
2,
3,
3,
3,
3,
3,
3,
3,
3,
2,
2,
4,
4,
3,
3,
4,
4,
3,
3,
2,
2,
3,
3,
2,
2,
3,
3,
3,
3,
3,
3,
3,
3,
2,
2,
3,
3,
2,
2,
3,
3,
3,
3,
3,
3,
2,
2,
2,
2,
2,
2,
3,
3,
2,
2,
2,
2,
2,
2,
2,
2,
2,
2,
2,
2,
2,
2,
2,
2,
2,
2,
2,
2,
3,
3,
2,
2,
2,
2,
2,
2,
1,
1,
2,
2,
2,
2,
2,
2,
2,
2,
1,
1,
1,
1,
1,
1,
2,
2,
2,
2,
2,
2,
1,
1,
0,
0,
1,
1,
0,
0,
1,
1,
1,
1,
1,
1,
0,
0,
1,
1,
2,
2,
1,
1,
7,
18,
18,
18,
26,
41,
39,
54,
53,
67,
66,
80,
80,
92,
92,
92,
101,
115,
114,
125,
125,
125,
125,
125,
125,
125,
125,
125,
125,
125,
125,
125,
125,
125,
125,
125,
125,
125,
125,
125,
125,
125,
125,
125,
125,
125,
125,
125,
125,
125,
125,
125,
125,
125,
125,
125,
125,
125,
125,
125,
125,
125,
125,
125,
125,
125,
125,
125,
125,
125,
125,
125,
125,
125,
125,
125,
125,
125,
125,
125,
125,
125,
125,
125,
125,
125,
125,
125,
125,
125,
125,
125,
125,
125,
125,
125,
125,
125,
125,
125,
125,
125,
125,
125,
125,
125,
125,
125,
125,
125,
125,
125,
125,
125,
125,
125,
125,
125,
125,
-12,
4,
4,
3,
3,
4,
4,
3,
3,
4,
4,
3,
3,
3,
3,
3,
3,
3,
3,
4,
4,
2,
2,
3,
3,
3,
3,
4,
4,
3,
3,
3,
3,
2,
2,
3,
3,
3,
3,
3,
3,
3,
3,
2,
2,
2,
2,
2,
2,
3,
3,
2,
2,
2,
2,
2,
2,
3,
3,
3,
3,
2,
2,
2,
2,
2,
2,
2,
2,
3,
3,
2,
2,
2,
2,
2,
2,
2,
2,
2,
2,
2,
2,
2,
2,
2,
2,
1,
1,
2,
2,
2,
2,
1,
1,
2,
2,
2,
2,
2,
2,
1,
1,
2,
2,
2,
2,
0,
0,
2,
2,
2,
2,
0,
0,
2,
2,
1,
1,
1,
1,
1,
1,
1,
1,
1,
1,
1,
1,
2,
2,
9,
9,
18,
30,
29,
40,
40,
40,
49,
64,
62,
80,
80,
80,
88,
102,
102,
118,
118,
118,
125,
125,
125,
125,
125,
125,
125,
125,
125,
125,
125,
125,
125,
125,
125,
125,
125,
125,
125,
125,
125,
125,
125,
125,
125,
125,
125,
125,
125,
125,
125,
125,
125,
125,
125,
125,
125,
125,
125,
125,
125,
125,
125,
125,
125,
125,
125,
125,
125,
125,
125,
125,
125,
125,
125,
125,
125,
125,
125,
125,
125,
125,
125,
125,
125,
125,
125,
125,
125,
125,
125,
125,
125,
125,
125,
125,
125,
125,
125,
125,
125,
125,
125,
125,
125,
125,
125,
125,
125,
125,
125,
125,
125,
125,
125,
125,
125,
125,
125,
-10,
4,
4,
4,
4,
2,
2,
3,
3,
3,
3,
3,
3,
3,
3,
3,
3,
3,
3,
3,
3,
3,
3,
3,
3,
3,
3,
3,
3,
3,
3,
3,
3,
2,
2,
2,
2,
3,
3,
3,
3,
2,
2,
2,
2,
2,
2,
2,
2,
2,
2,
2,
2,
2,
2,
3,
3,
3,
3,
3,
3,
2,
2,
3,
3,
2,
2,
2,
2,
2,
2,
2,
2,
2,
2,
2,
2,
2,
2,
1,
1,
2,
2,
2,
2,
2,
2,
2,
2,
2,
2,
2,
2,
2,
2,
2,
2,
2,
2,
2,
2,
1,
1,
1,
1,
1,
1,
1,
1,
2,
2,
1,
1,
0,
0,
0,
0,
1,
1,
2,
2,
1,
1,
0,
0,
1,
1,
0,
0,
3,
3,
8,
8,
15,
28,
27,
40,
39,
51,
51,
63,
63,
78,
78,
78,
87,
102,
101,
116,
116,
116,
125,
125,
125,
125,
125,
125,
125,
125,
125,
125,
125,
125,
125,
125,
125,
125,
125,
125,
125,
125,
125,
125,
125,
125,
125,
125,
125,
125,
125,
125,
125,
125,
125,
125,
125,
125,
125,
125,
125,
125,
125,
125,
125,
125,
125,
125,
125,
125,
125,
125,
125,
125,
125,
125,
125,
125,
125,
125,
125,
125,
125,
125,
125,
125,
125,
125,
125,
125,
125,
125,
125,
125,
125,
125,
125,
125,
125,
125,
125,
125,
125,
125,
125,
125,
125,
125,
125,
125,
125,
125,
125,
125,
125,
125,
125,
125,
125,
125,
125,
-10,
3,
3,
2,
2,
3,
3,
3,
3,
3,
3,
4,
4,
3,
3,
3,
3,
2,
2,
4,
4,
3,
3,
3,
3,
3,
3,
3,
3,
3,
3,
3,
3,
3,
3,
2,
2,
2,
2,
3,
3,
2,
2,
3,
3,
3,
3,
3,
3,
3,
3,
3,
3,
2,
2,
2,
2,
2,
2,
3,
3,
3,
3,
2,
2,
2,
2,
3,
3,
2,
2,
2,
2,
2,
2,
2,
2,
2,
2,
2,
2,
3,
3,
1,
1,
2,
2,
2,
2,
2,
2,
1,
1,
2,
2,
1,
1,
2,
2,
1,
1,
2,
2,
2,
2,
2,
2,
2,
2,
1,
1,
0,
0,
1,
1,
2,
2,
2,
2,
0,
0,
1,
1,
1,
1,
1,
1,
1,
1,
3,
3,
7,
20,
20,
31,
30,
41,
41,
41,
50,
66,
64,
78,
78,
90,
90,
102,
102,
102,
111,
125,
125,
125,
125,
125,
125,
125,
125,
125,
125,
125,
125,
125,
125,
125,
125,
125,
125,
125,
125,
125,
125,
125,
125,
125,
125,
125,
125,
125,
125,
125,
125,
125,
125,
125,
125,
125,
125,
125,
125,
125,
125,
125,
125,
125,
125,
125,
125,
125,
125,
125,
125,
125,
125,
125,
125,
125,
125,
125,
125,
125,
125,
125,
125,
125,
125,
125,
125,
125,
125,
125,
125,
125,
125,
125,
125,
125,
125,
125,
125,
125,
125,
125,
125,
125,
125,
125,
125,
125,
125,
125,
125,
125,
125,
125,
125,
125,
125,
125,
125,
-11,
4,
4,
3,
3,
3,
3,
3,
3,
4,
4,
3,
3,
2,
2,
3,
3,
2,
2,
2,
2,
3,
3,
3,
3,
3,
3,
3,
3,
3,
3,
3,
3,
3,
3,
3,
3,
3,
3,
4,
4,
3,
3,
3,
3,
3,
3,
2,
2,
2,
2,
2,
2,
2,
2,
3,
3,
2,
2,
2,
2,
2,
2,
2,
2,
1,
1,
3,
3,
2,
2,
3,
3,
2,
2,
2,
2,
2,
2,
1,
1,
3,
3,
1,
1,
1,
1,
2,
2,
2,
2,
2,
2,
2,
2,
2,
2,
1,
1,
2,
2,
2,
2,
2,
2,
1,
1,
2,
2,
2,
2,
1,
1,
2,
2,
1,
1,
1,
1,
1,
1,
0,
0,
1,
1,
2,
2,
1,
1,
2,
2,
9,
20,
19,
30,
28,
40,
39,
56,
55,
66,
66,
66,
73,
88,
88,
101,
100,
114,
112,
125,
125,
125,
125,
125,
125,
125,
125,
125,
125,
125,
125,
125,
125,
125,
125,
125,
125,
125,
125,
125,
125,
125,
125,
125,
125,
125,
125,
125,
125,
125,
125,
125,
125,
125,
125,
125,
125,
125,
125,
125,
125,
125,
125,
125,
125,
125,
125,
125,
125,
125,
125,
125,
125,
125,
125,
125,
125,
125,
125,
125,
125,
125,
125,
125,
125,
125,
125,
125,
125,
125,
125,
125,
125,
125,
125,
125,
125,
125,
125,
125,
125,
125,
125,
125,
125,
125,
125,
125,
125,
125,
125,
125,
125,
125,
125,
125,
125,
125,
125,
-11,
4,
4,
4,
4,
3,
3,
3,
3,
4,
4,
2,
2,
3,
3,
3,
3,
3,
3,
3,
3,
3,
3,
4,
4,
3,
3,
4,
4,
3,
3,
3,
3,
2,
2,
3,
3,
3,
3,
3,
3,
3,
3,
2,
2,
2,
2,
2,
2,
3,
3,
2,
2,
2,
2,
2,
2,
2,
2,
2,
2,
2,
2,
3,
3,
2,
2,
2,
2,
2,
2,
2,
2,
2,
2,
2,
2,
2,
2,
2,
2,
1,
1,
2,
2,
2,
2,
2,
2,
2,
2,
2,
2,
2,
2,
2,
2,
2,
2,
2,
2,
2,
2,
1,
1,
1,
1,
2,
2,
0,
0,
1,
1,
2,
2,
1,
1,
0,
0,
2,
2,
1,
1,
1,
1,
2,
2,
0,
0,
1,
1,
8,
8,
16,
28,
28,
40,
40,
54,
54,
54,
62,
81,
80,
92,
92,
92,
102,
102,
112,
125,
125,
125,
125,
125,
125,
125,
125,
125,
125,
125,
125,
125,
125,
125,
125,
125,
125,
125,
125,
125,
125,
125,
125,
125,
125,
125,
125,
125,
125,
125,
125,
125,
125,
125,
125,
125,
125,
125,
125,
125,
125,
125,
125,
125,
125,
125,
125,
125,
125,
125,
125,
125,
125,
125,
125,
125,
125,
125,
125,
125,
125,
125,
125,
125,
125,
125,
125,
125,
125,
125,
125,
125,
125,
125,
125,
125,
125,
125,
125,
125,
125,
125,
125,
125,
125,
125,
125,
125,
125,
125,
125,
125,
125,
125,
125,
125,
125,
125,
125,
-11,
3,
3,
3,
3,
3,
3,
4,
4,
2,
2,
3,
3,
3,
3,
3,
3,
3,
3,
3,
3,
3,
3,
4,
4,
3,
3,
3,
3,
3,
3,
3,
3,
3,
3,
3,
3,
3,
3,
2,
2,
3,
3,
2,
2,
3,
3,
3,
3,
2,
2,
3,
3,
2,
2,
2,
2,
2,
2,
3,
3,
3,
3,
2,
2,
2,
2,
2,
2,
2,
2,
1,
1,
2,
2,
2,
2,
2,
2,
2,
2,
2,
2,
2,
2,
2,
2,
2,
2,
1,
1,
2,
2,
2,
2,
1,
1,
2,
2,
1,
1,
2,
2,
1,
1,
1,
1,
2,
2,
1,
1,
2,
2,
1,
1,
1,
1,
2,
2,
1,
1,
0,
0,
0,
0,
0,
0,
1,
1,
2,
2,
8,
8,
16,
30,
30,
30,
38,
54,
53,
66,
65,
80,
79,
90,
90,
102,
101,
117,
117,
117,
125,
125,
125,
125,
125,
125,
125,
125,
125,
125,
125,
125,
125,
125,
125,
125,
125,
125,
125,
125,
125,
125,
125,
125,
125,
125,
125,
125,
125,
125,
125,
125,
125,
125,
125,
125,
125,
125,
125,
125,
125,
125,
125,
125,
125,
125,
125,
125,
125,
125,
125,
125,
125,
125,
125,
125,
125,
125,
125,
125,
125,
125,
125,
125,
125,
125,
125,
125,
125,
125,
125,
125,
125,
125,
125,
125,
125,
125,
125,
125,
125,
125,
125,
125,
125,
125,
125,
125,
125,
125,
125,
125,
125,
125,
125,
125,
125,
125,
125,
-10,
4,
4,
4,
4,
3,
3,
2,
2,
3,
3,
3,
3,
3,
3,
4,
4,
3,
3,
3,
3,
3,
3,
3,
3,
2,
2,
2,
2,
3,
3,
2,
2,
3,
3,
3,
3,
3,
3,
3,
3,
2,
2,
3,
3,
3,
3,
3,
3,
3,
3,
3,
3,
2,
2,
3,
3,
3,
3,
2,
2,
2,
2,
2,
2,
3,
3,
2,
2,
1,
1,
2,
2,
2,
2,
2,
2,
2,
2,
2,
2,
2,
2,
2,
2,
2,
2,
1,
1,
2,
2,
1,
1,
2,
2,
1,
1,
2,
2,
2,
2,
2,
2,
2,
2,
1,
1,
1,
1,
2,
2,
1,
1,
1,
1,
1,
1,
1,
1,
0,
0,
1,
1,
2,
2,
2,
2,
2,
2,
2,
2,
6,
17,
17,
28,
28,
40,
40,
52,
52,
65,
65,
76,
75,
89,
88,
102,
101,
116,
116,
116,
125,
125,
125,
125,
125,
125,
125,
125,
125,
125,
125,
125,
125,
125,
125,
125,
125,
125,
125,
125,
125,
125,
125,
125,
125,
125,
125,
125,
125,
125,
125,
125,
125,
125,
125,
125,
125,
125,
125,
125,
125,
125,
125,
125,
125,
125,
125,
125,
125,
125,
125,
125,
125,
125,
125,
125,
125,
125,
125,
125,
125,
125,
125,
125,
125,
125,
125,
125,
125,
125,
125,
125,
125,
125,
125,
125,
125,
125,
125,
125,
125,
125,
125,
125,
125,
125,
125,
125,
125,
125,
125,
125,
125,
125,
125,
125,
125,
125,
125,
-10,
4,
4,
3,
3,
3,
3,
3,
3,
2,
2,
2,
2,
2,
2,
3,
3,
3,
3,
3,
3,
3,
3,
3,
3,
3,
3,
2,
2,
3,
3,
2,
2,
3,
3,
3,
3,
2,
2,
3,
3,
2,
2,
2,
2,
3,
3,
2,
2,
3,
3,
2,
2,
2,
2,
2,
2,
2,
2,
2,
2,
2,
2,
2,
2,
2,
2,
2,
2,
2,
2,
2,
2,
2,
2,
2,
2,
2,
2,
2,
2,
2,
2,
2,
2,
2,
2,
2,
2,
2,
2,
1,
1,
2,
2,
2,
2,
1,
1,
2,
2,
2,
2,
2,
2,
1,
1,
1,
1,
2,
2,
2,
2,
1,
1,
0,
0,
1,
1,
1,
1,
1,
1,
1,
1,
2,
2,
1,
1,
1,
1,
6,
18,
18,
18,
25,
38,
38,
54,
53,
66,
66,
66,
75,
91,
91,
91,
100,
116,
115,
115,
125,
125,
125,
125,
125,
125,
125,
125,
125,
125,
125,
125,
125,
125,
125,
125,
125,
125,
125,
125,
125,
125,
125,
125,
125,
125,
125,
125,
125,
125,
125,
125,
125,
125,
125,
125,
125,
125,
125,
125,
125,
125,
125,
125,
125,
125,
125,
125,
125,
125,
125,
125,
125,
125,
125,
125,
125,
125,
125,
125,
125,
125,
125,
125,
125,
125,
125,
125,
125,
125,
125,
125,
125,
125,
125,
125,
125,
125,
125,
125,
125,
125,
125,
125,
125,
125,
125,
125,
125,
125,
125,
125,
125,
125,
125,
125,
125,
125,
125,
-11,
3,
3,
3,
3,
4,
4,
3,
3,
4,
4,
3,
3,
3,
3,
2,
2,
3,
3,
3,
3,
3,
3,
3,
3,
3,
3,
3,
3,
3,
3,
3,
3,
3,
3,
3,
3,
3,
3,
3,
3,
3,
3,
3,
3,
3,
3,
3,
3,
2,
2,
3,
3,
3,
3,
3,
3,
2,
2,
3,
3,
3,
3,
2,
2,
2,
2,
2,
2,
2,
2,
1,
1,
2,
2,
2,
2,
1,
1,
3,
3,
2,
2,
2,
2,
2,
2,
2,
2,
2,
2,
2,
2,
2,
2,
1,
1,
2,
2,
1,
1,
1,
1,
2,
2,
2,
2,
2,
2,
2,
2,
2,
2,
1,
1,
0,
0,
0,
0,
2,
2,
1,
1,
1,
1,
1,
1,
1,
1,
2,
2,
9,
9,
17,
17,
26,
40,
40,
52,
52,
52,
62,
76,
75,
89,
88,
102,
102,
114,
113,
125,
125,
125,
125,
125,
125,
125,
125,
125,
125,
125,
125,
125,
125,
125,
125,
125,
125,
125,
125,
125,
125,
125,
125,
125,
125,
125,
125,
125,
125,
125,
125,
125,
125,
125,
125,
125,
125,
125,
125,
125,
125,
125,
125,
125,
125,
125,
125,
125,
125,
125,
125,
125,
125,
125,
125,
125,
125,
125,
125,
125,
125,
125,
125,
125,
125,
125,
125,
125,
125,
125,
125,
125,
125,
125,
125,
125,
125,
125,
125,
125,
125,
125,
125,
125,
125,
125,
125,
125,
125,
125,
125,
125,
125,
125,
125,
125,
125,
125,
125,
-10,
4,
4,
3,
3,
3,
3,
3,
3,
3,
3,
3,
3,
3,
3,
2,
2,
3,
3,
3,
3,
3,
3,
3,
3,
2,
2,
3,
3,
3,
3,
2,
2,
2,
2,
3,
3,
3,
3,
3,
3,
2,
2,
2,
2,
2,
2,
3,
3,
3,
3,
3,
3,
2,
2,
2,
2,
2,
2,
2,
2,
3,
3,
2,
2,
3,
3,
2,
2,
2,
2,
2,
2,
2,
2,
2,
2,
2,
2,
2,
2,
2,
2,
1,
1,
2,
2,
2,
2,
3,
3,
2,
2,
2,
2,
2,
2,
2,
2,
2,
2,
2,
2,
2,
2,
0,
0,
2,
2,
1,
1,
0,
0,
1,
1,
1,
1,
1,
1,
0,
0,
1,
1,
0,
0,
1,
1,
1,
1,
2,
2,
6,
18,
17,
28,
28,
40,
40,
40,
50,
63,
62,
77,
76,
76,
86,
100,
99,
115,
115,
115,
125,
125,
125,
125,
125,
125,
125,
125,
125,
125,
125,
125,
125,
125,
125,
125,
125,
125,
125,
125,
125,
125,
125,
125,
125,
125,
125,
125,
125,
125,
125,
125,
125,
125,
125,
125,
125,
125,
125,
125,
125,
125,
125,
125,
125,
125,
125,
125,
125,
125,
125,
125,
125,
125,
125,
125,
125,
125,
125,
125,
125,
125,
125,
125,
125,
125,
125,
125,
125,
125,
125,
125,
125,
125,
125,
125,
125,
125,
125,
125,
125,
125,
125,
125,
125,
125,
125,
125,
125,
125,
125,
125,
125,
125,
125,
125,
125,
125,
125,
-11,
3,
3,
4,
4,
4,
4,
4,
4,
3,
3,
4,
4,
3,
3,
4,
4,
3,
3,
3,
3,
3,
3,
4,
4,
3,
3,
2,
2,
2,
2,
3,
3,
2,
2,
3,
3,
3,
3,
3,
3,
2,
2,
2,
2,
3,
3,
2,
2,
3,
3,
2,
2,
2,
2,
2,
2,
2,
2,
2,
2,
2,
2,
2,
2,
2,
2,
2,
2,
2,
2,
2,
2,
2,
2,
2,
2,
2,
2,
2,
2,
2,
2,
1,
1,
2,
2,
2,
2,
1,
1,
1,
1,
2,
2,
2,
2,
2,
2,
2,
2,
2,
2,
2,
2,
0,
0,
2,
2,
2,
2,
1,
1,
1,
1,
1,
1,
0,
0,
1,
1,
0,
0,
1,
1,
2,
2,
0,
0,
2,
2,
6,
6,
16,
16,
26,
39,
38,
50,
50,
66,
65,
77,
76,
87,
86,
102,
101,
114,
114,
114,
124,
124,
125,
125,
125,
125,
125,
125,
125,
125,
125,
125,
125,
125,
125,
125,
125,
125,
125,
125,
125,
125,
125,
125,
125,
125,
125,
125,
125,
125,
125,
125,
125,
125,
125,
125,
125,
125,
125,
125,
125,
125,
125,
125,
125,
125,
125,
125,
125,
125,
125,
125,
125,
125,
125,
125,
125,
125,
125,
125,
125,
125,
125,
125,
125,
125,
125,
125,
125,
125,
125,
125,
125,
125,
125,
125,
125,
125,
125,
125,
125,
125,
125,
125,
125,
125,
125,
125,
125,
125,
125,
125,
125,
125,
125,
125,
125,
125,
125,
-10,
4,
4,
3,
3,
3,
3,
4,
4,
3,
3,
3,
3,
3,
3,
4,
4,
3,
3,
3,
3,
3,
3,
3,
3,
3,
3,
4,
4,
3,
3,
2,
2,
3,
3,
3,
3,
2,
2,
3,
3,
3,
3,
3,
3,
3,
3,
3,
3,
3,
3,
3,
3,
3,
3,
2,
2,
2,
2,
3,
3,
2,
2,
2,
2,
3,
3,
2,
2,
2,
2,
1,
1,
3,
3,
3,
3,
2,
2,
1,
1,
2,
2,
2,
2,
2,
2,
2,
2,
2,
2,
2,
2,
1,
1,
1,
1,
2,
2,
2,
2,
2,
2,
2,
2,
1,
1,
2,
2,
1,
1,
0,
0,
0,
0,
1,
1,
0,
0,
1,
1,
2,
2,
1,
1,
1,
1,
1,
1,
0,
0,
6,
6,
16,
29,
28,
28,
38,
52,
52,
52,
60,
77,
77,
88,
88,
102,
100,
112,
111,
125,
124,
124,
125,
125,
125,
125,
125,
125,
125,
125,
125,
125,
125,
125,
125,
125,
125,
125,
125,
125,
125,
125,
125,
125,
125,
125,
125,
125,
125,
125,
125,
125,
125,
125,
125,
125,
125,
125,
125,
125,
125,
125,
125,
125,
125,
125,
125,
125,
125,
125,
125,
125,
125,
125,
125,
125,
125,
125,
125,
125,
125,
125,
125,
125,
125,
125,
125,
125,
125,
125,
125,
125,
125,
125,
125,
125,
125,
125,
125,
125,
125,
125,
125,
125,
125,
125,
125,
125,
125,
125,
125,
125,
125,
125,
125,
125,
125,
125,
125,
-10,
3,
3,
2,
2,
4,
4,
3,
3,
3,
3,
4,
4,
3,
3,
3,
3,
3,
3,
3,
3,
3,
3,
3,
