6-anwendungen-opAmps/daten/ALL0040/A0040CH1.CSV

Memory Length,4000,
Trigger Level,6.18000e+02,
Source,CH1,
Probe,1.0X,
Vertical Units,V,
Vertical Scale,5.00000e-02,
Vertical Position,-4.54000e-01,
Horizontal Units,S,
Horizontal Scale,5.00000e-04,
Horizontal Position,-7.0000000e-04,
Horizontal Mode,XY Mode,
Sampling Period,2.00000e-06,
Firmware,V1.14,
Time, ,
Mode,Fast,
Waveform Data,
236,
236,
236,
234,
234,
235,
235,
235,
235,
235,
235,
237,
237,
237,
237,
237,
237,
236,
236,
237,
237,
237,
237,
237,
237,
236,
236,
234,
234,
237,
237,
237,
237,
237,
237,
237,
237,
237,
237,
236,
236,
237,
237,
237,
237,
237,
237,
238,
238,
237,
237,
237,
237,
238,
238,
237,
237,
238,
238,
238,
238,
235,
235,
238,
238,
239,
239,
237,
237,
237,
237,
237,
237,
237,
237,
237,
237,
238,
238,
238,
238,
238,
238,
238,
238,
237,
237,
238,
238,
239,
239,
239,
239,
238,
238,
239,
239,
239,
239,
237,
237,
238,
238,
238,
238,
239,
239,
238,
238,
239,
239,
237,
237,
241,
241,
238,
238,
239,
239,
238,
238,
238,
238,
238,
238,
238,
238,
238,
238,
239,
239,
240,
240,
240,
240,
238,
238,
240,
240,
240,
240,
237,
237,
241,
241,
240,
240,
240,
240,
242,
242,
241,
241,
240,
240,
240,
240,
240,
240,
240,
240,
238,
238,
241,
241,
240,
240,
241,
241,
241,
241,
239,
239,
241,
241,
240,
240,
241,
241,
242,
242,
242,
242,
239,
239,
241,
241,
242,
242,
241,
241,
241,
241,
241,
241,
241,
241,
241,
241,
242,
242,
243,
243,
241,
241,
243,
243,
242,
242,
240,
240,
242,
242,
240,
240,
240,
240,
241,
241,
242,
242,
241,
241,
239,
239,
242,
242,
242,
242,
243,
243,
242,
242,
243,
243,
243,
243,
241,
241,
243,
243,
242,
242,
242,
242,
241,
241,
242,
242,
242,
242,
243,
243,
242,
242,
243,
243,
241,
241,
242,
242,
242,
242,
241,
241,
243,
243,
243,
243,
244,
244,
243,
243,
243,
243,
241,
241,
243,
243,
243,
243,
243,
243,
242,
242,
243,
243,
244,
244,
244,
244,
244,
244,
243,
243,
243,
243,
242,
242,
243,
243,
244,
244,
244,
244,
243,
243,
243,
243,
245,
245,
244,
244,
245,
245,
244,
244,
244,
244,
242,
242,
245,
245,
243,
243,
244,
244,
245,
245,
244,
244,
245,
245,
245,
245,
244,
244,
245,
245,
243,
243,
246,
246,
244,
244,
246,
246,
246,
246,
243,
243,
245,
245,
245,
245,
244,
244,
243,
243,
245,
245,
245,
245,
244,
244,
246,
246,
245,
245,
245,
245,
245,
245,
246,
246,
246,
246,
244,
244,
244,
244,
247,
247,
246,
246,
246,
246,
245,
245,
246,
246,
247,
247,
245,
245,
246,
246,
246,
246,
246,
246,
246,
246,
247,
247,
246,
246,
245,
245,
248,
248,
245,
245,
246,
246,
245,
245,
246,
246,
247,
247,
247,
247,
246,
246,
246,
246,
247,
247,
246,
246,
247,
247,
247,
247,
247,
247,
246,
246,
247,
247,
247,
247,
247,
247,
247,
247,
246,
246,
247,
247,
249,
249,
246,
246,
246,
246,
247,
247,
247,
247,
248,
248,
246,
246,
250,
250,
247,
247,
249,
249,
249,
249,
246,
246,
248,
248,
249,
249,
248,
248,
248,
248,
248,
248,
249,
249,
248,
248,
249,
249,
247,
247,
249,
249,
249,
249,
248,
248,
249,
249,
249,
249,
247,
247,
249,
249,
250,
250,
248,
248,
249,
249,
249,
249,
250,
250,
251,
251,
250,
250,
248,
248,
248,
248,
249,
249,
250,
250,
250,
250,
250,
250,
250,
250,
249,
249,
251,
251,
249,
249,
250,
250,
249,
249,
252,
252,
249,
249,
250,
250,
249,
249,
253,
253,
250,
250,
250,
250,
250,
250,
249,
249,
250,
250,
251,
251,
251,
251,
250,
250,
252,
252,
250,
250,
250,
250,
251,
251,
250,
250,
251,
251,
250,
250,
250,
250,
254,
254,
250,
250,
252,
252,
251,
251,
253,
253,
250,
250,
252,
252,
251,
251,
252,
252,
251,
251,
251,
251,
251,
251,
251,
251,
251,
251,
252,
252,
253,
253,
251,
251,
252,
252,
251,
251,
252,
252,
252,
252,
253,
253,
252,
252,
251,
251,
252,
252,
252,
252,
253,
253,
254,
254,
253,
253,
254,
254,
253,
253,
252,
252,
254,
254,
253,
253,
252,
252,
254,
254,
255,
255,
254,
254,
252,
252,
255,
255,
252,
252,
253,
253,
254,
254,
254,
254,
253,
253,
253,
253,
253,
253,
254,
254,
253,
253,
254,
254,
254,
254,
254,
254,
253,
253,
254,
254,
256,
256,
253,
253,
255,
255,
255,
255,
254,
254,
254,
254,
255,
255,
254,
254,
256,
256,
255,
255,
257,
257,
254,
254,
254,
254,
254,
254,
254,
254,
254,
254,
256,
256,
254,
254,
254,
254,
255,
255,
256,
256,
256,
256,
256,
256,
255,
255,
256,
256,
256,
256,
254,
254,
257,
257,
256,
256,
255,
255,
257,
257,
255,
255,
256,
256,
256,
256,
256,
256,
256,
256,
258,
258,
256,
256,
257,
257,
257,
257,
256,
256,
258,
258,
256,
256,
254,
254,
257,
257,
257,
257,
257,
257,
255,
255,
256,
256,
256,
256,
257,
257,
255,
255,
257,
257,
254,
254,
257,
257,
257,
257,
257,
257,
256,
256,
257,
257,
258,
258,
259,
259,
259,
259,
256,
256,
257,
257,
257,
257,
258,
258,
259,
259,
258,
258,
256,
256,
258,
258,
257,
257,
258,
258,
259,
259,
257,
257,
258,
258,
257,
257,
256,
256,
258,
258,
258,
258,
261,
261,
257,
257,
258,
258,
260,
260,
258,
258,
259,
259,
259,
259,
258,
258,
259,
259,
258,
258,
260,
260,
259,
259,
258,
258,
259,
259,
259,
259,
259,
259,
258,
258,
259,
259,
260,
260,
259,
259,
261,
261,
259,
259,
259,
259,
260,
260,
260,
260,
261,
261,
261,
261,
260,
260,
259,
259,
260,
260,
260,
260,
261,
261,
261,
261,
261,
261,
261,
261,
260,
260,
260,
260,
260,
260,
259,
259,
262,
262,
259,
259,
261,
261,
258,
258,
261,
261,
261,
261,
260,
260,
262,
262,
262,
262,
260,
260,
262,
262,
262,
262,
261,
261,
260,
260,
261,
261,
262,
262,
261,
261,
262,
262,
261,
261,
262,
262,
261,
261,
262,
262,
261,
261,
262,
262,
260,
260,
263,
263,
260,
260,
260,
260,
262,
262,
261,
261,
264,
264,
264,
264,
263,
263,
262,
262,
262,
262,
262,
262,
261,
261,
263,
263,
263,
263,
262,
262,
262,
262,
262,
262,
264,
264,
263,
263,
263,
263,
264,
264,
262,
262,
262,
262,
263,
263,
261,
261,
263,
263,
263,
263,
264,
264,
262,
262,
263,
263,
264,
264,
264,
264,
264,
264,
263,
263,
263,
263,
262,
262,
263,
263,
263,
263,
264,
264,
263,
263,
262,
262,
265,
265,
262,
262,
262,
262,
263,
263,
263,
263,
264,
264,
262,
262,
263,
263,
263,
263,
264,
264,
264,
264,
264,
264,
265,
265,
265,
265,
265,
265,
265,
265,
265,
265,
263,
263,
265,
265,
266,
266,
266,
266,
265,
265,
264,
264,
266,
266,
263,
263,
265,
265,
265,
265,
264,
264,
264,
264,
264,
264,
266,
266,
266,
266,
265,
265,
265,
265,
266,
266,
265,
265,
267,
267,
265,
265,
265,
265,
266,
266,
267,
267,
266,
266,
266,
266,
266,
266,
267,
267,
267,
267,
265,
265,
266,
266,
267,
267,
265,
265,
267,
267,
267,
267,
267,
267,
267,
267,
268,
268,
268,
268,
265,
265,
267,
267,
267,
267,
265,
265,
266,
266,
267,
267,
266,
266,
267,
267,
267,
267,
266,
266,
268,
268,
269,
269,
268,
268,
266,
266,
267,
267,
267,
267,
266,
266,
268,
268,
267,
267,
267,
267,
267,
267,
269,
269,
269,
269,
269,
269,
269,
269,
268,
268,
269,
269,
270,
270,
267,
267,
268,
268,
268,
268,
270,
270,
268,
268,
267,
267,
267,
267,
269,
269,
270,
270,
268,
268,
268,
268,
269,
269,
269,
269,
269,
269,
269,
269,
268,
268,
269,
269,
269,
269,
270,
270,
269,
269,
269,
269,
270,
270,
269,
269,
270,
270,
270,
270,
268,
268,
269,
269,
270,
270,
268,
268,
270,
270,
269,
269,
269,
269,
271,
271,
270,
270,
270,
270,
270,
270,
271,
271,
270,
270,
270,
270,
271,
271,
271,
271,
270,
270,
270,
270,
271,
271,
269,
269,
269,
269,
271,
271,
270,
270,
269,
269,
271,
271,
272,
272,
272,
272,
271,
271,
273,
273,
271,
271,
271,
271,
270,
270,
271,
271,
273,
273,
272,
272,
272,
272,
270,
270,
270,
270,
272,
272,
271,
271,
272,
272,
271,
271,
273,
273,
271,
271,
272,
272,
272,
272,
273,
273,
272,
272,
272,
272,
273,
273,
272,
272,
272,
272,
273,
273,
273,
273,
273,
273,
273,
273,
271,
271,
272,
272,
271,
271,
273,
273,
273,
273,
273,
273,
273,
273,
275,
275,
273,
273,
274,
274,
273,
273,
273,
273,
274,
274,
273,
273,
274,
274,
273,
273,
273,
273,
273,
273,
273,
273,
274,
274,
274,
274,
274,
274,
274,
274,
273,
273,
274,
274,
272,
272,
275,
275,
273,
273,
275,
275,
274,
274,
274,
274,
275,
275,
274,
274,
273,
273,
275,
275,
274,
274,
274,
274,
275,
275,
274,
274,
275,
275,
275,
275,
274,
274,
277,
277,
275,
275,
274,
274,
275,
275,
274,
274,
276,
276,
276,
276,
277,
277,
275,
275,
276,
276,
277,
277,
275,
275,
276,
276,
275,
275,
276,
276,
275,
275,
275,
275,
273,
273,
277,
277,
274,
274,
276,
276,
275,
275,
276,
276,
273,
273,
277,
277,
275,
275,
276,
276,
275,
275,
276,
276,
276,
276,
274,
274,
276,
276,
275,
275,
276,
276,
275,
275,
278,
278,
277,
277,
276,
276,
277,
277,
278,
278,
276,
276,
276,
276,
276,
276,
276,
276,
278,
278,
277,
277,
277,
277,
277,
277,
276,
276,
278,
278,
278,
278,
278,
278,
279,
279,
277,
277,
279,
279,
277,
277,
278,
278,
278,
278,
277,
277,
278,
278,
279,
279,
278,
278,
278,
278,
278,
278,
278,
278,
278,
278,
278,
278,
278,
278,
280,
280,
277,
277,
279,
279,
278,
278,
278,
278,
278,
278,
279,
279,
278,
278,
277,
277,
278,
278,
278,
278,
279,
279,
278,
278,
278,
278,
278,
278,
279,
279,
278,
278,
279,
279,
279,
279,
278,
278,
278,
278,
279,
279,
279,
279,
278,
278,
279,
279,
279,
279,
277,
277,
280,
280,
279,
279,
279,
279,
279,
279,
280,
280,
280,
280,
281,
281,
280,
280,
280,
280,
279,
279,
281,
281,
280,
280,
280,
280,
281,
281,
281,
281,
282,
282,
280,
280,
279,
279,
281,
281,
280,
280,
278,
278,
280,
280,
280,
280,
282,
282,
280,
280,
281,
281,
280,
280,
282,
282,
279,
279,
280,
280,
282,
282,
280,
280,
281,
281,
281,
281,
281,
281,
281,
281,
280,
280,
282,
282,
280,
280,
282,
282,
280,
280,
281,
281,
281,
281,
281,
281,
280,
280,
281,
281,
281,
281,
282,
282,
281,
281,
282,
282,
283,
283,
281,
281,
282,
282,
280,
280,
282,
282,
282,
282,
282,
282,
283,
283,
282,
282,
282,
282,
283,
283,
281,
281,
282,
282,
283,
283,
283,
283,
282,
282,
283,
283,
283,
283,
284,
284,
283,
283,
284,
284,
283,
283,
283,
283,
284,
284,
285,
285,
283,
283,
283,
283,
282,
282,
282,
282,
284,
284,
284,
284,
285,
285,
286,
286,
284,
284,
283,
283,
284,
284,
283,
283,
282,
282,
286,
286,
284,
284,
282,
282,
284,
284,
283,
283,
282,
282,
283,
283,
283,
283,
286,
286,
285,
285,
285,
285,
285,
285,
284,
284,
283,
283,
286,
286,
284,
284,
286,
286,
285,
285,
284,
284,
286,
286,
283,
283,
284,
284,
284,
284,
286,
286,
286,
286,
285,
285,
285,
285,
285,
285,
288,
288,
285,
285,
285,
285,
285,
285,
285,
285,
287,
287,
285,
285,
287,
287,
285,
285,
286,
286,
286,
286,
287,
287,
287,
287,
286,
286,
287,
287,
284,
284,
286,
286,
287,
287,
287,
287,
287,
287,
286,
286,
287,
287,
286,
286,
288,
288,
287,
287,
287,
287,
288,
288,
288,
288,
288,
288,
287,
287,
289,
289,
287,
287,
288,
288,
286,
286,
289,
289,
289,
289,
287,
287,
288,
288,
287,
287,
287,
287,
287,
287,
287,
287,
290,
290,
289,
289,
287,
287,
286,
286,
288,
288,
289,
289,
286,
286,
289,
289,
289,
289,
288,
288,
290,
290,
288,
288,
288,
288,
289,
289,
289,
289,
289,
289,
288,
288,
288,
288,
289,
289,
289,
289,
288,
288,
288,
288,
289,
289,
288,
288,
290,
290,
289,
289,
289,
289,
290,
290,
289,
289,
290,
290,
289,
289,
290,
290,
290,
290,
291,
291,
289,
289,
288,
288,
289,
289,
291,
291,
291,
291,
290,
290,
290,
290,
291,
291,
290,
290,
291,
291,
291,
291,
290,
290,
289,
289,
291,
291,
289,
289,
292,
292,
289,
289,
291,
291,
291,
291,
290,
290,
290,
290,
292,
292,
290,
290,
289,
289,
290,
290,
290,
290,
292,
292,
291,
291,
291,
291,
289,
289,
290,
290,
291,
291,
292,
292,
291,
291,
292,
292,
291,
291,
291,
291,
290,
290,
292,
292,
291,
291,
293,
293,
292,
292,
293,
293,
291,
291,
292,
292,
291,
291,
292,
292,
292,
292,
292,
292,
293,
293,
291,
291,
293,
293,
292,
292,
292,
292,
292,
292,
294,
294,
293,
293,
293,
293,
292,
292,
291,
291,
293,
293,
294,
294,
292,
292,
293,
293,
292,
292,
292,
292,
294,
294,
291,
291,
291,
291,
293,
293,
293,
293,
293,
293,
294,
294,
293,
293,
293,
293,
292,
292,
293,
293,
293,
293,
293,
293,
293,
293,
294,
294,
292,
292,
293,
293,
292,
292,
292,
292,
292,
292,
294,
294,
294,
294,
293,
293,
294,
294,
295,
295,
296,
296,
295,
295,
294,
294,
295,
295,
294,
294,
295,
295,
294,
294,
294,
294,
295,
295,
295,
295,
294,
294,
295,
295,
293,
293,
295,
295,
293,
293,
294,
294,
294,
294,
294,
294,
296,
296,
293,
293,
297,
297,
295,
295,
295,
295,
296,
296,
294,
294,
296,
296,
295,
295,
295,
295,
296,
296,
296,
296,
296,
296,
296,
296,
297,
297,
294,
294,
296,
296,
296,
296,
296,
296,
296,
296,
297,
297,
296,
296,
296,
296,
295,
295,
299,
299,
298,
298,
297,
297,
297,
297,
298,
298,
296,
296,
297,
297,
296,
296,
297,
297,
297,
297,
296,
296,
297,
297,
297,
297,
298,
298,
297,
297,
298,
298,
296,
296,
297,
297,
299,
299,
296,
296,
297,
297,
297,
297,
297,
297,
296,
296,
296,
296,
296,
296,
297,
297,
297,
297,
296,
296,
297,
297,
297,
297,
298,
298,
297,
297,
298,
298,
297,
297,
297,
297,
300,
300,
298,
298,
299,
299,
300,
300,
299,
299,
298,
298,
299,
299,
300,
300,
298,
298,
298,
298,
298,
298,
299,
299,
298,
298,
299,
299,
297,
297,
299,
299,
300,
300,
299,
299,
300,
300,
297,
297,
299,
299,
300,
300,
299,
299,
300,
300,
299,
299,
300,
300,
300,
300,
300,
300,
298,
298,
299,
299,
300,
300,
299,
299,
301,
301,
300,
300,
299,
299,
300,
300,
299,
299,
300,
300,
300,
300,
302,
302,
302,
302,
302,
302,
301,
301,
302,
302,
300,
300,
301,
301,
302,
302,
300,
300,
301,
301,
301,
301,
301,
301,
301,
301,
301,
301,
302,
302,
300,
300,
300,
300,
302,
302,
301,
301,
302,
302,
300,
300,
302,
302,
302,
302,
301,
301,
303,
303,
301,
301,
302,
302,
302,
302,
301,
301,
302,
302,
302,
302,
303,
303,
302,
302,
303,
303,
301,
301,
302,
302,
303,
303,
302,
302,
302,
302,
302,
302,
303,
303,
302,
302,
303,
303,
301,
301,
301,
301,
304,
304,
301,
301,
303,
303,
304,
304,
303,
303,
302,
302,
305,
305,
304,
304,
303,
303,
302,
302,
301,
301,
305,
305,
302,
302,
304,
304,
304,
304,
303,
303,
304,
304,
304,
304,
303,
303,
304,
304,
304,
304,
305,
305,
305,
305,
304,
304,
304,
304,
303,
303,
304,
304,
305,
305,
303,
303,
303,
303,
305,
305,
304,
304,
305,
305,
305,
305,
305,
305,
305,
305,
306,
306,
305,
305,
304,
304,
306,
306,
304,
304,
306,
306,
304,
304,
307,
307,
305,
305,
305,
305,
306,
306,
306,
306,
305,
305,
305,
305,
306,
306,
307,
307,
307,
307,
307,
307,
306,
306,
307,
307,
305,
305,
303,
303,
304,
304,
306,
306,
306,
306,
305,
305,
305,
305,
302,
302,
308,
308,
305,
305,
306,
306,
307,
307,
306,
306,
307,
307,
306,
306,
308,
308,
305,
305,
304,
304,
306,
306,
306,
306,
307,
307,
307,
307,
308,
308,
305,
305,
306,
306,
307,
307,
307,
307,
308,
308,
307,
307,
308,
308,
307,
307,
306,
306,
308,
308,
307,
307,
308,
308,
308,
308,
308,
308,
308,
308,
307,
307,
308,
308,
308,
308,
308,
308,
309,
309,
309,
309,
309,
309,
308,
308,
307,
307,
308,
308,
308,
308,
310,
310,
308,
308,
307,
307,
308,
308,
309,
309,
307,
307,
307,
307,
309,
309,
309,
309,
308,
308,
309,
309,
310,
310,
309,
309,
310,
310,
309,
309,
308,
308,
309,
309,
309,
309,
309,
309,
310,
310,
310,
310,
308,
308,
309,
309,
311,
311,
309,
309,
311,
311,
309,
309,
310,
310,
309,
309,
309,
309,
309,
309,
309,
309,
311,
311,
311,
311,
311,
311,
309,
309,
309,
309,
310,
310,
310,
310,
309,
309,
311,
311,
311,
311,
310,
310,
310,
310,
309,
309,
310,
310,
310,
310,
310,
310,
313,
313,
313,
313,
312,
312,
310,
310,
312,
312,
310,
310,
310,
310,
311,
311,
311,
311,
311,
311,
311,
311,
310,
310,
312,
312,
312,
312,
312,
312,
312,
312,
310,
310,
312,
312,
313,
313,
311,
311,
310,
310,
310,
310,
311,
311,
311,
311,
312,
312,
312,
312,
310,
310,
310,
310,
313,
313,
311,
311,
313,
313,
314,
314,
312,
312,
313,
313,
313,
313,
313,
313,
314,
314,
312,
312,
313,
313,
313,
313,
312,
312,
314,
314,
312,
312,
311,
311,
313,
313,
314,
314,
313,
313,
312,
312,
314,
314,
312,
312,
312,
312,
312,
312,
313,
313,
315,
315,
312,
312,
313,
313,
313,
313,
315,
315,
314,
314,
314,
314,
312,
312,
314,
314,
313,
313,
314,
314,
315,
315,
313,
313,
313,
313,
314,
314,
315,
315,
313,
313,
316,
316,
315,
315,
313,
313,
314,
314,
316,
316,
314,
314,
315,
315,
314,
314,
315,
315,
313,
313,
316,
316,
316,
316,
313,
313,
315,
315,
314,
314,
314,
314,
315,
315,
312,
312,
313,
313,
312,
312,
314,
314,
313,
313,
312,
312,
310,
310,
312,
312,
310,
310,
309,
309,
309,
309,
307,
307,
308,
308,
308,
308,
307,
307,
306,
306,
305,
305,
305,
305,
306,
306,
304,
304,
302,
302,
303,
303,
302,
302,
303,
303,
301,
301,
301,
301,
300,
300,
298,
298,
301,
301,
298,
298,
298,
298,
299,
299,
298,
298,
295,
295,
295,
295,
294,
294,
296,
296,
294,
294,
294,
294,
293,
293,
292,
292,
292,
292,
291,
291,
291,
291,
290,
290,
290,
290,
291,
291,
288,
288,
290,
290,
289,
289,
286,
286,
287,
287,
287,
287,
286,
286,
286,
286,
284,
284,
285,
285,
284,
284,
282,
282,
281,
281,
281,
281,
281,
281,
281,
281,
279,
279,
279,
279,
279,
279,
279,
279,
279,
279,
278,
278,
278,
278,
275,
275,
277,
277,
276,
276,
275,
275,
275,
275,
272,
272,
272,
272,
273,
273,
274,
274,
272,
272,
273,
273,
271,
271,
271,
271,
271,
271,
271,
271,
269,
269,
269,
269,
267,
267,
268,
268,
268,
268,
267,
267,
266,
266,
266,
266,
265,
265,
265,
265,
264,
264,
263,
263,
262,
262,
262,
262,
261,
261,
261,
261,
261,
261,
261,
261,
260,
260,
261,
261,
259,
259,
258,
258,
257,
257,
258,
258,
257,
257,
256,
256,
255,
255,
255,
255,
255,
255,
256,
256,
253,
253,
251,
251,
252,
252,
252,
252,
251,
251,
249,
249,
248,
248,
249,
249,
251,
251,
248,
248,
247,
247,
247,
247,
247,
247,
245,
245,
246,
246,
245,
245,
244,
244,
244,
244,
243,
243,
244,
244,
243,
243,
242,
242,
242,
242,
241,
241,
240,
240,
240,
240,
239,
239,
239,
239,
237,
237,
239,
239,
236,
236,
237,
237,
238,
238,
238,
238,
235,
235,
235,
235,
234,
234,
234,
234,
234,
234,
234,
234,
232,
232,
233,
233,
230,
230,
231,
231,
230,
230,
230,
230,
229,
229,
227,
227,
226,
226,
227,
227,
226,
226,
227,
227,
225,
225,
226,
226,
226,
226,
225,
225,
223,
223,
223,
223,
222,
222,
222,
222,
222,
222,
221,
221,
221,
221,
221,
221,
220,
220,
220,
220,
219,
219,
219,
219,
218,
218,
218,
218,
217,
217,
215,
215,
217,
217,
215,
215,
213,
213,
215,
215,
214,
214,
214,
214,
212,
212,
212,
212,
212,
212,
212,
212,
211,
211,
209,
209,
210,
210,
209,
209,
209,
209,
207,
207,
210,
210,
207,
207,
208,
208,
205,
205,
207,
207,
204,
204,
207,
207,
204,
204,
205,
205,
205,
205,
201,
201,
201,
201,
201,
201,
200,
200,
201,
201,
201,
201,
198,
198,
198,
211,
196,
196,
197,
197,
197,
197,
196,
196,
196,
196,
195,
195,
195,
195,
194,
194,
195,
195,
194,
194,
193,
193,
192,
192,
192,
192,
192,
192,
190,
190,
191,
191,
191,
191,
191,
191,
189,
189,
189,
189,
189,
189,
187,
187,
186,
186,
187,
187,
186,
186,
186,
186,
187,
187,
184,
184,
182,
182,
185,
185,
183,
183,
183,
183,
183,
183,
183,
183,
182,
182,
181,
181,
181,
181,
180,
180,
179,
179,
178,
178,
179,
179,
178,
178,
178,
178,
177,
177,
175,
175,
176,
176,
177,
177,
175,
175,
172,
172,
174,
174,
173,
173,
173,
173,
172,
172,
170,
170,
173,
173,
171,
171,
171,
171,
170,
170,
169,
169,
168,
168,
169,
169,
167,
167,
167,
167,
167,
167,
167,
167,
165,
165,
164,
164,
165,
165,
164,
164,
163,
163,
164,
164,
163,
163,
161,
161,
162,
162,
161,
161,
162,
162,
160,
160,
160,
160,
159,
159,
159,
159,
157,
157,
158,
158,
156,
156,
158,
158,
156,
156,
155,
155,
157,
157,
154,
154,
155,
155,
153,
153,
155,
155,
152,
152,
152,
152,
152,
152,
151,
151,
150,
150,
151,
151,
150,
150,
147,
147,
149,
149,
150,
150,
148,
148,
148,
148,
147,
147,
146,
146,
145,
145,
146,
146,
146,
146,
144,
144,
144,
144,
143,
143,
143,
143,
140,
140,
143,
143,
141,
141,
142,
142,
140,
140,
139,
139,
139,
139,
140,
140,
140,
140,
139,
139,
136,
136,
138,
138,
136,
136,
135,
135,
135,
135,
135,
135,
133,
133,
133,
133,
133,
133,
132,
132,
131,
131,
132,
132,
130,
130,
131,
131,
130,
130,
131,
131,
129,
129,
129,
129,
127,
127,
129,
129,
127,
127,
128,
128,
126,
126,
126,
126,
125,
125,
124,
124,
124,
124,
126,
126,
125,
125,
123,
123,
124,
124,
122,
122,
121,
121,
122,
122,
121,
121,
120,
120,
119,
119,
119,
119,
118,
118,
119,
119,
115,
115,
118,
118,
117,
117,
115,
115,
115,
115,
115,
115,
115,
115,
114,
114,
113,
113,
114,
114,
112,
112,
113,
113,
112,
112,
112,
112,
111,
111,
111,
111,
111,
111,
108,
108,
109,
109,
108,
108,
109,
109,
108,
108,
109,
109,
107,
107,
107,
107,
106,
106,
108,
108,
105,
105,
104,
104,
104,
104,
104,
104,
105,
105,
103,
103,
103,
103,
103,
103,
102,
102,
101,
101,
101,
101,
101,
101,
100,
100,
101,
101,
100,
100,
100,
100,
100,
100,
101,
101,
100,
100,
100,
100,
100,
100,
100,
100,
100,
100,
100,
100,
100,
100,
100,
100,
100,
100,
100,
100,
100,
100,
100,
100,
100,
100,
100,
100,
100,
100,
100,
100,
100,
100,
100,
100,
100,
100,
100,
