1-signale-auf-leitern/tag_1_daten/daten_versuch1/ALL0026/A0026CH1.CSV

Memory Length,4000,
Trigger Level,6.40000e+00,
Source,CH1,
Probe,1.0X,
Vertical Units,V,
Vertical Scale,5.00000e+00,
Vertical Position,0.00000e+00,
Horizontal Units,S,
Horizontal Scale,1.00000e-06,
Horizontal Position,2.1600000e-06,
Horizontal Mode,Main,
Sampling Period,4.00000e-09,
Firmware,V1.14,
Time, ,
Mode,Fast,
Waveform Data,
-51,
-51,
-50,
-51,
-50,
-51,
-50,
-51,
-50,
-51,
-50,
-50,
-50,
-51,
-50,
-51,
-49,
-51,
-50,
-51,
-50,
-51,
-50,
-51,
-50,
-50,
-49,
-50,
-49,
-50,
-49,
-50,
-49,
-50,
-49,
-50,
-50,
-49,
-49,
-50,
-50,
-50,
-48,
-48,
-50,
-49,
-50,
-49,
-49,
-49,
-49,
-49,
-49,
-49,
-49,
-49,
-49,
-49,
-49,
-49,
-49,
-50,
-49,
-50,
-49,
-49,
-49,
-49,
-49,
-49,
-49,
-50,
-49,
-49,
-49,
-50,
-49,
-49,
-49,
-50,
-49,
-49,
-50,
-49,
-49,
-49,
-50,
-50,
-49,
-49,
-50,
-49,
-49,
-49,
-49,
-49,
-48,
-50,
-49,
-49,
-49,
-49,
-49,
-50,
-49,
-50,
-50,
-50,
-49,
-49,
-49,
-50,
-48,
-49,
-49,
-48,
-49,
-49,
-49,
-49,
-48,
-50,
-49,
-49,
-50,
-49,
-49,
-49,
-49,
-50,
-48,
-50,
-49,
-49,
-49,
-49,
-48,
-49,
-48,
-49,
-47,
-49,
-49,
-49,
-48,
-49,
-48,
-49,
-48,
-49,
-47,
-49,
-47,
-49,
-48,
-48,
-48,
-47,
-48,
-47,
-47,
-48,
-46,
-47,
-47,
-47,
-48,
-48,
-47,
-47,
-47,
-47,
-46,
-47,
-46,
-46,
-45,
-47,
-46,
-49,
-46,
-47,
-47,
-48,
-45,
-48,
-46,
-47,
-46,
-48,
-46,
-48,
-47,
-47,
-46,
-47,
-46,
-48,
-47,
-47,
-47,
-48,
-47,
-48,
-46,
-48,
-46,
-47,
-47,
-48,
-47,
-48,
-47,
-48,
-47,
-47,
-46,
-48,
-46,
-48,
-47,
-49,
-47,
-48,
-47,
-47,
-47,
-48,
-48,
-48,
-47,
-48,
-48,
-49,
-48,
-49,
-48,
-49,
-48,
-49,
-48,
-49,
-47,
-49,
-49,
-49,
-48,
-49,
-48,
-49,
-49,
-49,
-49,
-48,
-49,
-49,
-49,
-49,
-48,
-49,
-49,
-50,
-47,
-49,
-49,
-49,
-50,
-49,
-49,
-49,
-49,
-49,
-49,
-48,
-48,
-49,
-49,
-49,
-49,
-49,
-49,
-49,
-49,
-50,
-49,
-49,
-49,
-50,
-49,
-49,
-50,
-49,
-49,
-49,
-49,
-49,
-48,
-49,
-49,
-49,
-48,
-49,
-49,
-49,
-48,
-48,
-47,
-49,
-48,
-48,
-48,
-49,
-48,
-48,
-47,
-48,
-47,
-47,
-46,
-46,
-47,
-47,
-46,
-46,
-46,
-47,
-46,
-46,
-45,
-47,
-46,
-47,
-45,
-45,
-45,
-45,
-45,
-45,
-44,
-45,
-43,
-45,
-44,
-45,
-43,
-45,
-43,
-43,
-43,
-45,
-42,
-44,
-42,
-44,
-42,
-43,
-43,
-44,
-42,
-44,
-42,
-43,
-42,
-42,
-42,
-42,
-41,
-41,
-41,
-41,
-41,
-41,
-41,
-41,
-41,
-41,
-40,
-40,
-41,
-40,
-39,
-41,
-41,
-41,
-41,
-41,
-40,
-40,
-39,
-40,
-40,
-41,
-40,
-40,
-41,
-41,
-41,
-41,
-41,
-41,
-41,
-41,
-40,
-41,
-41,
-40,
-40,
-41,
-41,
-41,
-41,
-42,
-41,
-41,
-41,
-42,
-42,
-41,
-42,
-42,
-42,
-42,
-43,
-42,
-42,
-42,
-42,
-42,
-42,
-43,
-42,
-44,
-42,
-44,
-43,
-44,
-43,
-44,
-43,
-44,
-44,
-45,
-44,
-45,
-43,
-45,
-43,
-45,
-45,
-46,
-44,
-45,
-44,
-45,
-44,
-45,
-45,
-46,
-45,
-47,
-45,
-46,
-46,
-46,
-46,
-45,
-46,
-47,
-46,
-48,
-47,
-47,
-46,
-47,
-47,
-48,
-46,
-47,
-46,
-48,
-46,
-47,
-47,
-48,
-46,
-47,
-46,
-48,
-47,
-48,
-47,
-48,
-46,
-48,
-47,
-48,
-47,
-49,
-46,
-47,
-46,
-48,
-47,
-48,
-47,
-48,
-47,
-48,
-47,
-49,
-48,
-47,
-47,
-49,
-46,
-49,
-47,
-47,
-48,
-49,
-48,
-49,
-47,
-48,
-47,
-47,
-47,
-48,
-48,
-49,
-47,
-49,
-48,
-48,
-47,
-47,
-47,
-49,
-48,
-48,
-48,
-47,
-47,
-49,
-48,
-48,
-46,
-48,
-47,
-48,
-47,
-48,
-47,
-47,
-47,
-47,
-47,
-48,
-46,
-47,
-47,
-48,
-48,
-48,
-47,
-47,
-46,
-48,
-47,
-47,
-46,
-48,
-48,
-48,
-47,
-48,
-47,
-48,
-47,
-49,
-48,
-48,
-48,
-48,
-47,
-49,
-48,
-48,
-49,
-49,
-47,
-49,
-48,
-49,
-48,
-49,
-49,
-49,
-49,
-49,
-49,
-49,
-49,
-50,
-49,
-51,
-49,
-49,
-49,
-49,
-49,
-49,
-50,
-50,
-49,
-50,
-50,
-51,
-50,
-49,
-49,
-50,
-48,
-51,
-50,
-50,
-49,
-50,
-50,
-50,
-49,
-50,
-49,
-49,
-49,
-50,
-50,
-50,
-49,
-49,
-49,
-49,
-49,
-51,
-49,
-50,
-49,
-49,
-49,
-49,
-49,
-50,
-50,
-49,
-49,
-49,
-49,
-49,
-49,
-49,
-49,
-49,
-49,
-49,
-49,
-49,
-49,
-50,
-49,
-49,
-48,
-49,
-49,
-48,
-48,
-49,
-48,
-49,
-48,
-49,
-48,
-49,
-49,
-49,
-49,
-49,
-49,
-49,
-48,
-49,
-49,
-50,
-49,
-48,
-49,
-49,
-48,
-49,
-49,
-49,
-48,
-49,
-48,
-50,
-50,
-49,
-48,
-49,
-49,
-49,
-49,
-49,
-49,
-48,
-50,
-49,
-49,
-50,
-49,
-50,
-49,
-49,
-48,
-49,
-50,
-49,
-49,
-49,
-49,
-49,
-49,
-49,
-49,
-49,
-49,
-49,
-50,
-49,
-49,
-50,
-50,
-49,
-50,
-49,
-49,
-49,
-50,
-49,
-49,
-49,
-49,
-50,
-50,
-51,
-50,
-50,
-50,
-51,
-50,
-50,
-49,
-51,
-51,
-51,
-51,
-51,
-51,
-51,
-50,
-51,
-50,
-51,
-50,
-51,
-50,
-51,
-51,
-52,
-51,
-51,
-50,
-51,
-51,
-51,
-51,
-51,
-51,
-51,
-50,
-51,
-51,
-52,
-51,
-52,
-52,
-52,
-51,
-52,
-51,
-51,
-52,
-51,
-51,
-52,
-51,
-51,
-52,
-51,
-51,
-51,
-51,
-51,
-52,
-53,
-52,
-52,
-51,
-53,
-52,
-54,
-51,
-53,
-53,
-52,
-52,
-53,
-52,
-53,
-52,
-52,
-53,
-53,
-52,
-53,
-52,
-53,
-52,
-53,
-53,
-55,
-52,
-53,
-53,
-53,
-53,
-54,
-54,
-54,
-51,
-53,
-51,
-51,
-49,
-48,
-46,
-45,
-43,
-42,
-41,
-39,
-38,
-37,
-36,
-36,
-34,
-34,
-32,
-33,
-30,
-29,
-28,
-28,
-25,
-25,
-25,
-24,
-24,
-23,
-22,
-22,
-21,
-21,
-19,
-19,
-18,
-17,
-17,
-16,
-16,
-15,
-15,
-14,
-13,
-13,
-12,
-13,
-12,
-11,
-11,
-9,
-10,
-9,
-10,
-9,
-8,
-9,
-8,
-7,
-7,
-7,
-5,
-6,
-4,
-5,
-5,
-5,
-5,
-5,
-4,
-5,
-3,
-3,
-3,
-3,
-2,
-3,
-2,
-2,
-1,
-1,
-1,
-2,
-1,
-1,
-1,
-1,
0,
-1,
0,
-1,
1,
-1,
0,
0,
1,
0,
1,
1,
1,
1,
1,
0,
1,
1,
2,
1,
1,
1,
2,
2,
3,
2,
3,
2,
2,
1,
3,
3,
3,
3,
2,
3,
3,
3,
3,
3,
3,
3,
4,
3,
4,
3,
4,
3,
5,
3,
5,
4,
5,
3,
4,
4,
5,
4,
5,
4,
4,
4,
4,
4,
5,
4,
5,
4,
6,
5,
6,
4,
6,
5,
6,
5,
7,
5,
5,
5,
6,
5,
7,
5,
7,
5,
6,
5,
7,
5,
7,
6,
7,
5,
6,
5,
7,
7,
7,
5,
6,
5,
6,
4,
7,
5,
6,
5,
6,
5,
6,
5,
6,
5,
7,
5,
5,
6,
6,
5,
6,
5,
6,
6,
6,
5,
5,
6,
7,
5,
6,
4,
5,
3,
5,
4,
5,
5,
6,
3,
6,
4,
6,
4,
5,
4,
4,
5,
4,
4,
5,
3,
5,
4,
5,
3,
5,
3,
4,
3,
3,
4,
5,
3,
3,
3,
4,
4,
4,
3,
5,
3,
4,
3,
3,
3,
4,
2,
4,
3,
5,
3,
4,
3,
4,
2,
3,
4,
3,
2,
4,
2,
3,
3,
3,
3,
4,
1,
3,
3,
2,
2,
3,
2,
2,
3,
3,
3,
3,
3,
3,
3,
3,
3,
3,
2,
3,
2,
3,
2,
3,
3,
3,
3,
3,
3,
3,
1,
4,
2,
3,
3,
4,
2,
3,
3,
3,
3,
4,
3,
3,
3,
5,
3,
3,
3,
4,
3,
4,
3,
3,
3,
5,
3,
3,
2,
3,
2,
3,
3,
3,
3,
5,
3,
3,
2,
4,
3,
4,
3,
4,
2,
3,
3,
3,
3,
3,
3,
3,
4,
5,
4,
4,
3,
5,
3,
4,
3,
4,
3,
4,
4,
4,
4,
4,
4,
4,
4,
5,
3,
5,
4,
6,
5,
5,
5,
6,
5,
6,
5,
7,
7,
6,
6,
7,
7,
8,
6,
8,
7,
8,
8,
8,
8,
7,
7,
8,
8,
8,
9,
9,
8,
8,
9,
8,
8,
11,
8,
10,
8,
9,
8,
9,
9,
9,
10,
9,
10,
10,
9,
11,
8,
9,
8,
10,
8,
11,
9,
11,
9,
9,
10,
9,
9,
10,
9,
10,
8,
10,
8,
9,
8,
9,
8,
8,
8,
8,
7,
9,
8,
8,
8,
8,
7,
8,
7,
8,
7,
7,
5,
7,
6,
7,
7,
7,
6,
7,
7,
7,
6,
6,
5,
7,
5,
7,
5,
6,
5,
6,
5,
6,
5,
7,
5,
7,
6,
6,
5,
7,
5,
6,
5,
6,
6,
7,
5,
7,
6,
7,
5,
7,
6,
7,
7,
7,
7,
8,
7,
8,
8,
8,
8,
8,
8,
8,
8,
8,
8,
10,
9,
11,
9,
11,
10,
11,
10,
11,
11,
12,
12,
12,
12,
12,
12,
13,
12,
14,
13,
15,
14,
15,
13,
16,
15,
16,
16,
18,
17,
18,
17,
19,
19,
19,
19,
20,
19,
20,
20,
20,
20,
21,
22,
22,
22,
23,
24,
23,
23,
24,
24,
25,
24,
26,
25,
27,
25,
26,
26,
27,
27,
29,
28,
29,
28,
30,
28,
31,
29,
31,
30,
32,
31,
32,
31,
32,
31,
34,
33,
33,
33,
35,
33,
36,
33,
35,
35,
36,
35,
37,
37,
37,
36,
38,
37,
39,
38,
39,
38,
40,
37,
39,
39,
40,
40,
40,
40,
41,
39,
42,
41,
41,
41,
42,
41,
40,
41,
42,
41,
42,
41,
42,
41,
42,
41,
42,
42,
42,
42,
42,
42,
43,
42,
43,
42,
43,
42,
43,
42,
42,
42,
43,
42,
43,
42,
43,
43,
43,
42,
43,
42,
43,
42,
43,
43,
43,
42,
42,
42,
43,
42,
43,
41,
43,
42,
43,
42,
43,
42,
43,
42,
43,
42,
42,
42,
43,
42,
44,
42,
43,
42,
43,
43,
43,
43,
43,
43,
43,
43,
43,
42,
43,
43,
44,
42,
43,
44,
44,
43,
43,
43,
44,
43,
44,
43,
44,
44,
44,
43,
44,
44,
45,
43,
44,
43,
44,
44,
45,
44,
44,
44,
45,
45,
45,
44,
47,
44,
46,
45,
46,
45,
45,
44,
47,
45,
47,
45,
46,
46,
47,
46,
47,
46,
47,
46,
47,
47,
46,
47,
47,
47,
48,
46,
47,
46,
47,
45,
46,
46,
47,
47,
47,
47,
48,
45,
47,
47,
47,
47,
47,
46,
47,
47,
47,
47,
48,
47,
47,
46,
48,
46,
47,
47,
46,
47,
47,
46,
47,
46,
47,
47,
47,
47,
47,
46,
48,
45,
47,
46,
47,
46,
46,
45,
47,
46,
47,
46,
47,
46,
46,
47,
47,
46,
46,
44,
45,
46,
45,
45,
45,
44,
47,
45,
46,
47,
45,
46,
46,
46,
45,
45,
46,
46,
46,
46,
47,
45,
46,
45,
45,
46,
47,
44,
46,
45,
46,
45,
45,
46,
46,
45,
46,
46,
45,
44,
46,
45,
46,
46,
45,
45,
46,
45,
46,
44,
46,
44,
46,
45,
46,
45,
45,
44,
46,
45,
46,
44,
45,
45,
45,
45,
46,
46,
45,
45,
47,
45,
45,
45,
45,
46,
46,
45,
47,
45,
45,
45,
45,
45,
44,
46,
45,
45,
45,
45,
46,
45,
45,
46,
46,
45,
45,
45,
45,
45,
46,
44,
45,
46,
45,
45,
45,
44,
44,
45,
44,
43,
45,
44,
44,
44,
44,
43,
44,
43,
44,
43,
43,
43,
43,
43,
43,
43,
43,
42,
43,
43,
42,
41,
43,
42,
42,
41,
42,
42,
43,
42,
42,
41,
43,
42,
42,
41,
42,
41,
41,
39,
42,
40,
41,
41,
41,
40,
41,
40,
40,
39,
41,
40,
40,
40,
40,
39,
39,
39,
39,
39,
40,
39,
40,
39,
40,
39,
40,
39,
40,
39,
41,
39,
39,
40,
39,
39,
39,
39,
40,
38,
40,
39,
39,
39,
39,
38,
39,
38,
40,
38,
39,
39,
39,
38,
40,
38,
40,
39,
40,
37,
39,
39,
40,
39,
40,
38,
39,
38,
38,
38,
39,
38,
39,
39,
40,
39,
39,
37,
39,
38,
39,
37,
39,
37,
39,
37,
38,
37,
39,
38,
39,
38,
38,
37,
38,
37,
38,
37,
38,
37,
38,
37,
39,
38,
38,
35,
38,
37,
38,
36,
38,
37,
37,
36,
38,
37,
39,
37,
37,
37,
37,
37,
38,
36,
38,
37,
38,
36,
38,
37,
38,
38,
37,
37,
38,
37,
38,
36,
38,
37,
39,
37,
37,
39,
39,
38,
38,
37,
39,
38,
38,
39,
39,
39,
40,
37,
39,
39,
39,
39,
40,
38,
39,
39,
40,
40,
40,
39,
39,
39,
40,
40,
40,
39,
40,
40,
40,
40,
41,
41,
42,
40,
40,
41,
42,
42,
41,
42,
42,
41,
42,
42,
42,
42,
42,
42,
43,
43,
43,
43,
42,
42,
44,
42,
43,
43,
44,
44,
42,
42,
44,
43,
44,
44,
43,
44,
44,
44,
43,
43,
44,
43,
45,
44,
44,
43,
45,
44,
44,
44,
44,
44,
44,
44,
44,
44,
45,
44,
45,
45,
46,
43,
45,
44,
45,
44,
45,
45,
46,
46,
46,
45,
45,
45,
46,
45,
46,
45,
46,
45,
45,
45,
47,
47,
47,
46,
46,
47,
46,
45,
47,
46,
46,
46,
48,
47,
47,
46,
46,
47,
48,
47,
47,
46,
48,
47,
47,
47,
47,
47,
47,
47,
48,
46,
47,
47,
47,
46,
48,
46,
47,
47,
48,
47,
48,
47,
48,
47,
47,
47,
46,
46,
46,
47,
47,
45,
47,
46,
48,
46,
46,
46,
46,
45,
47,
46,
47,
46,
47,
45,
45,
45,
47,
47,
47,
44,
46,
46,
47,
46,
47,
45,
47,
46,
46,
46,
46,
46,
46,
45,
46,
45,
47,
45,
47,
45,
47,
47,
46,
44,
45,
45,
46,
46,
47,
45,
47,
46,
46,
45,
46,
45,
47,
46,
46,
45,
47,
45,
47,
45,
47,
45,
45,
47,
47,
45,
47,
45,
47,
45,
46,
46,
46,
46,
47,
46,
46,
45,
47,
46,
47,
45,
47,
46,
46,
46,
46,
44,
47,
45,
46,
46,
46,
45,
47,
46,
46,
46,
46,
45,
46,
45,
46,
46,
46,
45,
46,
47,
46,
45,
46,
46,
46,
45,
46,
45,
46,
45,
47,
46,
45,
45,
46,
46,
45,
45,
46,
47,
46,
46,
47,
46,
47,
46,
46,
46,
46,
45,
47,
46,
47,
45,
47,
46,
47,
46,
47,
46,
47,
45,
48,
45,
47,
46,
47,
46,
47,
46,
47,
47,
47,
46,
48,
45,
47,
47,
45,
47,
47,
47,
48,
47,
48,
47,
48,
47,
47,
47,
48,
47,
48,
47,
47,
47,
48,
48,
49,
48,
49,
48,
49,
49,
49,
50,
50,
48,
49,
48,
49,
49,
50,
49,
49,
49,
50,
49,
50,
49,
51,
49,
50,
49,
51,
49,
50,
49,
50,
49,
51,
50,
50,
51,
51,
50,
51,
50,
51,
50,
51,
50,
51,
50,
51,
50,
51,
50,
51,
51,
51,
51,
52,
50,
51,
51,
51,
50,
51,
50,
51,
50,
52,
51,
51,
51,
52,
51,
51,
50,
51,
50,
52,
50,
51,
51,
51,
51,
52,
49,
51,
50,
52,
49,
51,
51,
51,
51,
51,
51,
50,
48,
48,
45,
44,
43,
41,
39,
39,
37,
36,
33,
33,
32,
31,
29,
30,
27,
27,
25,
25,
24,
23,
23,
22,
20,
18,
17,
19,
16,
16,
15,
15,
12,
13,
11,
11,
10,
11,
10,
9,
9,
9,
7,
7,
6,
6,
4,
5,
3,
5,
3,
3,
3,
3,
1,
2,
1,
1,
0,
1,
1,
1,
-1,
0,
-1,
-1,
-1,
-1,
-2,
-2,
-4,
-2,
-2,
-2,
-2,
-1,
-3,
-2,
-3,
-3,
-4,
-4,
-4,
-3,
-5,
-3,
-4,
-3,
-4,
-4,
-4,
-4,
-5,
-5,
-5,
-5,
-4,
-4,
-5,
-5,
-6,
-5,
-4,
-4,
-6,
-4,
-4,
-5,
-7,
-5,
-5,
-4,
-4,
-4,
-5,
-5,
-5,
-3,
-6,
-5,
-5,
-5,
-6,
-4,
-7,
-5,
-5,
-5,
-6,
-5,
-7,
-5,
-6,
-5,
-6,
-5,
-7,
-5,
-8,
-6,
-7,
-6,
-7,
-6,
-6,
-5,
-6,
-6,
-7,
-5,
-7,
-6,
-7,
-6,
-7,
-7,
-7,
-8,
-7,
-6,
-8,
-7,
-8,
-7,
-8,
-7,
-8,
-7,
-9,
-8,
-8,
-7,
-8,
-9,
-8,
-8,
-8,
-8,
-9,
-8,
-9,
-8,
-9,
-8,
-9,
-9,
-9,
-9,
-9,
-8,
-10,
-8,
-10,
-8,
-9,
-9,
-9,
-8,
-9,
-9,
-9,
-9,
-10,
-9,
-9,
-10,
-9,
-9,
-9,
-9,
-9,
-8,
-9,
-8,
-10,
-8,
-9,
-8,
-9,
-10,
-9,
-9,
-9,
-9,
-9,
-7,
-9,
-8,
-9,
-8,
-9,
-9,
-9,
-8,
-8,
-9,
-9,
-8,
-7,
-8,
-7,
-8,
-8,
-8,
-8,
-8,
-8,
-9,
-9,
-8,
-7,
-8,
-8,
-8,
-9,
-8,
-8,
-7,
-8,
-8,
-7,
-8,
-8,
-8,
-7,
-7,
-8,
-7,
-8,
-7,
-8,
-7,
-7,
-7,
-7,
-7,
-7,
-6,
-7,
-5,
-7,
-6,
-7,
-5,
-6,
-6,
-7,
-6,
-7,
-5,
-6,
-6,
-7,
-5,
-6,
-6,
-6,
-6,
-7,
-6,
-8,
-5,
-6,
-5,
-6,
-7,
-7,
-7,
-8,
-7,
-8,
-6,
-8,
-5,
-6,
-7,
-7,
-6,
-8,
-7,
-8,
-8,
-8,
-8,
-8,
-7,
-8,
-7,
-8,
-8,
-8,
-8,
-10,
-8,
-9,
-9,
-9,
-10,
-9,
-8,
-9,
-9,
-9,
-9,
-9,
-10,
-8,
-10,
-9,
-10,
-9,
-10,
-10,
-10,
-10,
-9,
-9,
-10,
-10,
-9,
-10,
-8,
-11,
-10,
-9,
-10,
-9,
-9,
-9,
-10,
-9,
-9,
-9,
-10,
-9,
-9,
-9,
-9,
-9,
-10,
-9,
-8,
-9,
-9,
-8,
-8,
-8,
-8,
-9,
-7,
-8,
-8,
-9,
-8,
-9,
-8,
-9,
-8,
-9,
-7,
-8,
-8,
-9,
-6,
-8,
-8,
-8,
-8,
-7,
-7,
-8,
-8,
-8,
-8,
-8,
-8,
-8,
-8,
-8,
-8,
-9,
-9,
-9,
-8,
-9,
-8,
-8,
-8,
-9,
-9,
-9,
-9,
-9,
-9,
-9,
-10,
-9,
-9,
-10,
-11,
-10,
-11,
-10,
-10,
-11,
-11,
-12,
-10,
-11,
-12,
-13,
-12,
-12,
-12,
-13,
-12,
-13,
-13,
-15,
-15,
-14,
-14,
-15,
-16,
-16,
-15,
-14,
-16,
-16,
-16,
-17,
-17,
-17,
-17,
-19,
-17,
-18,
-19,
-18,
-20,
-20,
-20,
-21,
-20,
-21,
-21,
-21,
-22,
-22,
-22,
-23,
-23,
-22,
-23,
-25,
-23,
-25,
-25,
-25,
-25,
-26,
-26,
-27,
-26,
-27,
-26,
-27,
-28,
-28,
-28,
-29,
-29,
-31,
-29,
-32,
-29,
-32,
-31,
-32,
-31,
-33,
-31,
-34,
-32,
-33,
-33,
-34,
-34,
-34,
-35,
-36,
-34,
-36,
-35,
-36,
-35,
-36,
-35,
-36,
-37,
-38,
-37,
-38,
-37,
-37,
-38,
-39,
-37,
-38,
-38,
-40,
-39,
-40,
-40,
-40,
-40,
-40,
-40,
-42,
-41,
-41,
-40,
-42,
-41,
-42,
-42,
-42,
-42,
-41,
-42,
-43,
-42,
-42,
-43,
-44,
-43,
-45,
-43,
-45,
-43,
-45,
-43,
-45,
-44,
-45,
-45,
-46,
-45,
-45,
-45,
-45,
-44,
-47,
-45,
-47,
-45,
-47,
-45,
-47,
-45,
-46,
-45,
-47,
-45,
-47,
-46,
-47,
-47,
-49,
-47,
-49,
-48,
-47,
-48,
-48,
-47,
-49,
-48,
-49,
-47,
-48,
-48,
-49,
-49,
-50,
-50,
-50,
-49,
-49,
-49,
-50,
-50,
-50,
-49,
-50,
-50,
-51,
-50,
-51,
-50,
-51,
-50,
-51,
-51,
-51,
-50,
-51,
-50,
-51,
-50,
-52,
-52,
-51,
-51,
-51,
-50,
-51,
-52,
-51,
-51,
-51,
-50,
-52,
-52,
-51,
-51,
-51,
-50,
-51,
-51,
-52,
-52,
-51,
-51,
-51,
-51,
-51,
-50,
-51,
-51,
-50,
-50,
-49,
-50,
-51,
-50,
-51,
-51,
-51,
-50,
-51,
-50,
-50,
-49,
-51,
-49,
-51,
-50,
-50,
-50,
-50,
-50,
-50,
-50,
-50,
-50,
-49,
-49,
-50,
-49,
-49,
-50,
-50,
-49,
-49,
-50,
-50,
-48,
-49,
-50,
-49,
-48,
-50,
-49,
-50,
-49,
-49,
-49,
-49,
-49,
-49,
-49,
-49,
-49,
-49,
-50,
-49,
-49,
-49,
-50,
-50,
-50,
-49,
-49,
-49,
-49,
-49,
-50,
-49,
-49,
-50,
-50,
-49,
-50,
-50,
-50,
-49,
-49,
-50,
-48,
-49,
-50,
-49,
-48,
-50,
-49,
-49,
-49,
-50,
-49,
-49,
-49,
-49,
-49,
-49,
-50,
-50,
-50,
-49,
-49,
-50,
-49,
-49,
-50,
-49,
-50,
-50,
-49,
-49,
-49,
-50,
-49,
-49,
-49,
-50,
-49,
-49,
-49,
-49,
-49,
-49,
-49,
-49,
-49,
-49,
-49,
-49,
-49,
-50,
-48,
-49,
-49,
-49,
-48,
-49,
-49,
-49,
-47,
-49,
-49,
-49,
-48,
-49,
-47,
-48,
-49,
-47,
-47,
-49,
-48,
-48,
-47,
-47,
-47,
-47,
-47,
-48,
-47,
-47,
-46,
-48,
-47,
-48,
-46,
-48,
-47,
-47,
-46,
-47,
-45,
-47,
-46,
-47,
-46,
-47,
-46,
-47,
-46,
-46,
-47,
-47,
-46,
-47,
-46,
-47,
-46,
-47,
-46,
-47,
-46,
-47,
-46,
-48,
-46,
-48,
-46,
-48,
-47,
-48,
-47,
-48,
-47,
-49,
-47,
-48,
-47,
-48,
-47,
-48,
-48,
-49,
-48,
-49,
-48,
-47,
-47,
-49,
-48,
-49,
-48,
-49,
-48,
-48,
-48,
-49,
-48,
-48,
-48,
-48,
-48,
-49,
-46,
-48,
-48,
-49,
-49,
-49,
-48,
-49,
-48,
-49,
-48,
-49,
-49,
-49,
-48,
-49,
-49,
-49,
-48,
-49,
-49,
-49,
-49,
-49,
-49,
-49,
-49,
-49,
-48,
-49,
-49,
-50,
-49,
-50,
-49,
-49,
-49,
-50,
-49,
-51,
-48,
-49,
-49,
-49,
-49,
-49,
-49,
-50,
-48,
-49,
-49,
-49,
-49,
-49,
-49,
-49,
-48,
-49,
-49,
-49,
-49,
-49,
-49,
-49,
-49,
-49,
-49,
-49,
-48,
-49,
-47,
-49,
-47,
-48,
-47,
-48,
-47,
-47,
-48,
-48,
-48,
-47,
-46,
-47,
-46,
-47,
-47,
-47,
-46,
-47,
-46,
-45,
-45,
-47,
-45,
-45,
-45,
-45,
-45,
-45,
-44,
-45,
-43,
-45,
-44,
-45,
-44,
-45,
-43,
-44,
-43,
-44,
-43,
-44,
-42,
-43,
-43,
-43,
-42,
-43,
-42,
-42,
-41,
-41,
-42,
-41,
-41,
-42,
-41,
-42,
-41,
-41,
-41,
-41,
-41,
-41,
-39,
-41,
-41,
-41,
-41,
-41,
-40,
-41,
-40,
-40,
-40,
-40,
-41,
-41,
-40,
-41,
-40,
-41,
-40,
-41,
-39,
-39,
-40,
-40,
-40,
-41,
-41,
-40,
-39,
-41,
-41,
-41,
-41,
-41,
-41,
-41,
-40,
-40,
-40,
-41,
-41,
-41,
-41,
-41,
-41,
-41,
-41,
-42,
-42,
-42,
-43,
-42,
-41,
-43,
-42,
-44,
-42,
-42,
-43,
-43,
-43,
-44,
-43,
-45,
-43,
-44,
-43,
-44,
-43,
-44,
-43,
-44,
-43,
-45,
-43,
-45,
-43,
-45,
-44,
-45,
-45,
-45,
-45,
-45,
-45,
-47,
-44,
-47,
-45,
-46,
-45,
-47,
-45,
-47,
-45,
-47,
-46,
-47,
-45,
-47,
-46,
-47,
-46,
-47,
-47,
-47,
-46,
-47,
-46,
-47,
-47,
-48,
-46,
-48,
-46,
-47,
-46,
-47,
-47,
-48,
-46,
-48,
-46,
-47,
-46,
-48,
-47,
-48,
-46,
-48,
-46,
-49,
-47,
-49,
-46,
-48,
-47,
-48,
-47,
-48,
-47,
-48,
-48,
-49,
-47,
-48,
-47,
-48,
-47,
-48,
-47,
-47,
-48,
-48,
-48,
-48,
-47,
-48,
-47,
-48,
-48,
-48,
-49,
-49,
-46,
-48,
-47,
-48,
-47,
-48,
-47,
-48,
-47,
-47,
-46,
-48,
-47,
-47,
-47,
-47,
-47,
-48,
-47,
-47,
-47,
-48,
-47,
-47,
-47,
-47,
-46,
-48,
-46,
-48,
-48,
-48,
-46,
-48,
-47,
-47,
-49,
-49,
-47,
-47,
-47,
-48,
-46,
-47,
-47,
-49,
-48,
-48,
-48,
-49,
-48,
-48,
-48,
-49,
-47,
-49,
-48,
-49,
-48,
-49,
-49,
-50,
-49,
-49,
-48,
-49,
-50,
-50,
-48,
-49,
-49,
-49,
-49,
-49,
-49,
-48,
-49,
-49,
-49,
-50,
-49,
-50,
-50,
-50,
-49,
-49,
-50,
-50,
-49,
-49,
-50,
-50,
-50,
-50,
-50,
-49,
-49,
-50,
-50,
-50,
-49,
-49,
-49,
-50,
-50,
-49,
-49,
-50,
-49,
-50,
-50,
-49,
-47,
-49,
-49,
-50,
-49,
-50,
-49,
-49,
-49,
-49,
-49,
-49,
-49,
-49,
-49,
-49,
-49,
-50,
-49,
-48,
-48,
-49,
-49,
-49,
-48,
-49,
-48,
-49,
-48,
-49,
-49,
-49,
-48,
-49,
-47,
-49,
-49,
-49,
-49,
-49,
-48,
-49,
-49,
-50,
-48,
-49,
-49,
-49,
-49,
-49,
-49,
-49,
-49,
-49,
-49,
-50,
-49,
-49,
-50,
-49,
-49,
-49,
-49,
-48,
-48,
-49,
-50,
-49,
-49,
-49,
-49,
-50,
-50,
-49,
-49,
-49,
-49,
-49,
-48,
-50,
-49,
-49,
-49,
-50,
-50,
-50,
-49,
-50,
-49,
-49,
-50,
-50,
-49,
-49,
-49,
-49,
-50,
-50,
-49,
-51,
-49,
-49,
-50,
-51,
-50,
-51,
-49,
-50,
-50,
-49,
-50,
-51,
-50,
-52,
-50,
-51,
-50,
-50,
-51,
-52,
-50,
-51,
-51,
-53,
-51,
-51,
-50,
-51,
-50,
-52,
-51,
-51,
-52,
-52,
-51,
-52,
-51,
-51,
-50,
-51,
-51,
-51,
-50,
-51,
-51,
-51,
-51,
-52,
-52,
-52,
-51,
-52,
-50,
-53,
-51,
-52,
-51,
-51,
-51,
-52,
-52,
-52,
-51,
-51,
-51,
-53,
-52,
-53,
-51,
-53,
-52,
-52,
-52,
-52,
-52,
-53,
-52,
-53,
-52,
-53,
-52,
-53,
-52,
-53,
-52,
-53,
-53,
-54,
-52,
-54,
-53,
-53,
-53,
-54,
-53,
-53,
-53,
-54,
-53,
-55,
-53,
-52,
-50,
-50,
-48,
-47,
-45,
-45,
-41,
-41,
-40,
-39,
-37,
-37,
-34,
-35,
-32,
-33,
-31,
-30,
-29,
-28,
-27,
-27,
-27,
-25,
