5-grundlagen-opAmps/data/ALL0016/A0016CH1.CSV

Memory Length,4000,
Trigger Level,0.00000e+00,
Source,CH1,
Probe,1.0X,
Vertical Units,V,
Vertical Scale,5.00000e-02,
Vertical Position,0.00000e+00,
Horizontal Units,S,
Horizontal Scale,2.50000e-05,
Horizontal Position,2.5000000e-05,
Horizontal Mode,Main,
Sampling Period,1.00000e-07,
Firmware,V1.14,
Time, ,
Mode,Fast,
Waveform Data,
-23,
-23,
-37,
-34,
-23,
-32,
-32,
-24,
-24,
-26,
-26,
-22,
-34,
-34,
-20,
-19,
-32,
-25,
-25,
-27,
-27,
-26,
-26,
-24,
-24,
-29,
-29,
-25,
-25,
-21,
-21,
-17,
-28,
-25,
-14,
-21,
-21,
-17,
-29,
-17,
-17,
-18,
-18,
-22,
-22,
-17,
-17,
-12,
-12,
-13,
-13,
-18,
-18,
-12,
-12,
-13,
-13,
-14,
-14,
-15,
-3,
-9,
-9,
-6,
-18,
-8,
-8,
-11,
0,
-8,
-8,
-5,
-5,
-3,
-3,
-5,
-5,
-4,
-4,
-4,
-4,
-1,
-1,
-2,
-2,
6,
-5,
3,
3,
3,
3,
7,
7,
6,
6,
0,
12,
2,
2,
5,
5,
14,
2,
4,
4,
15,
2,
6,
17,
8,
8,
17,
5,
12,
12,
13,
13,
13,
13,
18,
7,
18,
18,
10,
23,
13,
13,
19,
19,
20,
20,
22,
11,
11,
26,
22,
22,
19,
19,
17,
17,
18,
18,
23,
23,
17,
17,
15,
15,
15,
26,
20,
20,
20,
20,
24,
24,
18,
29,
19,
19,
21,
21,
21,
21,
20,
20,
20,
20,
15,
15,
18,
18,
18,
18,
24,
11,
19,
19,
11,
24,
20,
20,
20,
8,
16,
16,
13,
13,
9,
21,
18,
7,
15,
15,
16,
16,
8,
8,
9,
9,
16,
5,
7,
7,
17,
1,
12,
1,
8,
8,
12,
-1,
7,
7,
0,
13,
7,
7,
1,
1,
8,
8,
-1,
-1,
5,
5,
-3,
-3,
2,
2,
4,
-7,
-1,
-1,
-3,
-3,
-5,
-5,
-1,
-1,
-6,
-6,
-8,
-8,
-9,
-9,
-8,
-8,
-9,
-9,
-10,
-10,
-15,
-15,
-11,
-11,
-14,
-14,
-12,
-12,
-13,
-13,
-10,
-23,
-17,
-17,
-20,
-20,
-18,
-18,
-22,
-22,
-20,
-20,
-19,
-19,
-22,
-22,
-22,
-22,
-22,
-22,
-24,
-24,
-26,
-26,
-27,
-14,
-29,
-29,
-23,
-23,
-26,
-26,
-22,
-22,
-26,
-26,
-29,
-29,
-27,
-27,
-28,
-28,
-30,
-30,
-29,
-29,
-35,
-21,
-25,
-36,
-31,
-31,
-27,
-27,
-35,
-22,
-34,
-34,
-25,
-36,
-35,
-22,
-27,
-27,
-25,
-37,
-28,
-28,
-23,
-37,
-32,
-32,
-34,
-23,
-26,
-26,
-35,
-21,
-24,
-24,
-33,
-20,
-23,
-34,
-30,
-30,
-27,
-27,
-22,
-22,
-27,
-27,
-24,
-24,
-23,
-23,
-21,
-21,
-19,
-19,
-26,
-26,
-27,
-16,
-18,
-30,
-22,
-22,
-20,
-20,
-23,
-23,
-20,
-20,
-19,
-19,
-15,
-15,
-16,
-16,
-14,
-14,
-15,
-15,
-14,
-14,
-12,
-12,
-10,
-10,
-8,
-8,
-13,
-13,
-12,
-12,
-8,
-8,
-10,
-10,
-8,
-8,
-7,
-7,
-6,
-6,
-7,
-7,
-3,
-3,
-2,
-2,
2,
2,
2,
2,
1,
1,
5,
-7,
4,
4,
-1,
11,
-1,
-1,
1,
1,
9,
9,
3,
15,
10,
10,
3,
15,
1,
19,
15,
15,
7,
21,
14,
14,
15,
15,
13,
13,
20,
7,
12,
12,
10,
21,
16,
16,
14,
14,
22,
9,
9,
24,
23,
10,
16,
16,
13,
13,
20,
20,
16,
16,
17,
17,
20,
20,
18,
18,
23,
23,
20,
20,
20,
20,
20,
20,
19,
19,
20,
20,
19,
19,
19,
19,
21,
21,
20,
20,
16,
16,
19,
19,
22,
9,
17,
17,
13,
26,
17,
17,
24,
9,
17,
17,
13,
13,
14,
14,
15,
15,
16,
16,
11,
11,
12,
12,
11,
11,
14,
14,
9,
9,
17,
4,
12,
12,
6,
6,
10,
10,
14,
1,
3,
3,
0,
12,
1,
1,
9,
-3,
3,
3,
6,
-6,
-3,
8,
-4,
8,
7,
-7,
-2,
-2,
4,
4,
0,
0,
-2,
-2,
-2,
-2,
-8,
-8,
-10,
-10,
-7,
-7,
-10,
-10,
-3,
-14,
-14,
-3,
-5,
-17,
-16,
-16,
-15,
-15,
-9,
-20,
-14,
-14,
-15,
-15,
-17,
-17,
-18,
-18,
-17,
-17,
-21,
-21,
-19,
-19,
-18,
-18,
-20,
-20,
-20,
-20,
-21,
-21,
-23,
-23,
-22,
-22,
-23,
-23,
-26,
-26,
-26,
-26,
-23,
-23,
-26,
-26,
-32,
-18,
-30,
-30,
-23,
-35,
-24,
-24,
-32,
-32,
-35,
-22,
-31,
-31,
-23,
-38,
-33,
-33,
-32,
-21,
-32,
-32,
-27,
-39,
-34,
-34,
-20,
-38,
-24,
-38,
-33,
-33,
-30,
-30,
-25,
-36,
-34,
-22,
-32,
-21,
-35,
-23,
-25,
-36,
-30,
-30,
-29,
-29,
-36,
-20,
-28,
-28,
-19,
-33,
-30,
-18,
-23,
-23,
-21,
-32,
-22,
-22,
-25,
-25,
-25,
-25,
-30,
-17,
-23,
-23,
-23,
-23,
-20,
-20,
-21,
-21,
-20,
-20,
-21,
-21,
-16,
-16,
-14,
-14,
-14,
-14,
-17,
-17,
-16,
-16,
-14,
-14,
-20,
-6,
-11,
-11,
-12,
-12,
-14,
-14,
-9,
-9,
-11,
-11,
-6,
-6,
-11,
-11,
-7,
-7,
-7,
-7,
-2,
-2,
-4,
-4,
-1,
-1,
-1,
-1,
-5,
10,
-1,
-1,
4,
4,
2,
2,
-2,
10,
-2,
10,
5,
5,
8,
8,
4,
4,
2,
15,
2,
15,
14,
2,
2,
15,
14,
14,
17,
5,
9,
9,
15,
15,
13,
13,
10,
21,
12,
12,
7,
21,
15,
15,
15,
15,
15,
15,
12,
12,
14,
26,
21,
21,
12,
24,
20,
20,
25,
12,
19,
19,
20,
20,
19,
19,
14,
25,
21,
21,
16,
16,
17,
17,
17,
17,
14,
26,
17,
17,
21,
21,
20,
20,
17,
28,
18,
18,
21,
21,
17,
17,
16,
16,
22,
22,
14,
14,
14,
14,
17,
17,
11,
24,
17,
17,
9,
22,
15,
15,
13,
13,
14,
14,
11,
11,
13,
13,
13,
13,
7,
18,
6,
6,
15,
3,
6,
6,
0,
14,
3,
15,
4,
4,
6,
6,
-1,
-1,
1,
1,
-5,
9,
6,
6,
-5,
9,
3,
3,
5,
-9,
-3,
-3,
-1,
-1,
-1,
-1,
-11,
2,
-10,
1,
-9,
-9,
-4,
-4,
-10,
-10,
-7,
-7,
-15,
-4,
-19,
-5,
-7,
-19,
-19,
-19,
-15,
-15,
-9,
-21,
-17,
-17,
-12,
-12,
-17,
-17,
-21,
-21,
-19,
-19,
-20,
-20,
-19,
-19,
-23,
-23,
-21,
-21,
-22,
-22,
-25,
-25,
-25,
-25,
-26,
-26,
-25,
-25,
-24,
-24,
-33,
-19,
-27,
-27,
-24,
-24,
-25,
-25,
-30,
-30,
-30,
-30,
-31,
-31,
-25,
-25,
-34,
-23,
-28,
-28,
-30,
-30,
-32,
-32,
-31,
-31,
-24,
-36,
-27,
-39,
-39,
-21,
-31,
-31,
-21,
-39,
-30,
-30,
-38,
-21,
-34,
-22,
-30,
-30,
-24,
-35,
-32,
-32,
-32,
-32,
-32,
-21,
-24,
-24,
-32,
-18,
-19,
-31,
-21,
-34,
-28,
-28,
-25,
-25,
-20,
-20,
-30,
-17,
-28,
-28,
-26,
-15,
-20,
-20,
-22,
-22,
-21,
-21,
-25,
-13,
-21,
-21,
-12,
-25,
-19,
-19,
-16,
-16,
-15,
-15,
-14,
-14,
-17,
-17,
-14,
-14,
-16,
-16,
-11,
-11,
-9,
-9,
-8,
-8,
-9,
-9,
-7,
-7,
-6,
-6,
-7,
-7,
-5,
-5,
-3,
-3,
-7,
-7,
-6,
-6,
-7,
4,
-6,
6,
2,
2,
7,
-7,
-1,
-1,
5,
5,
-1,
-1,
10,
-3,
2,
2,
8,
8,
7,
7,
4,
4,
7,
7,
12,
0,
10,
10,
3,
18,
7,
7,
17,
5,
16,
16,
9,
9,
9,
20,
11,
11,
21,
6,
11,
11,
11,
11,
14,
14,
20,
9,
11,
26,
24,
11,
23,
11,
15,
15,
18,
18,
20,
20,
17,
17,
19,
19,
16,
16,
19,
19,
21,
21,
19,
19,
17,
17,
21,
10,
23,
23,
19,
19,
19,
19,
20,
20,
21,
21,
14,
14,
18,
18,
16,
16,
17,
17,
20,
20,
12,
24,
19,
19,
12,
12,
16,
16,
20,
9,
13,
13,
17,
6,
11,
11,
11,
11,
11,
11,
4,
18,
12,
12,
12,
1,
7,
7,
10,
10,
2,
2,
10,
10,
1,
1,
4,
4,
1,
1,
6,
6,
0,
0,
1,
1,
3,
3,
1,
1,
-2,
-2,
-3,
-3,
-4,
-4,
-5,
-5,
-6,
-6,
-7,
-7,
-8,
-8,
-7,
-7,
-11,
0,
-11,
-11,
-8,
-8,
-13,
-13,
-14,
-14,
-11,
-11,
-11,
-11,
-16,
-16,
-21,
-9,
-16,
-16,
-12,
-25,
-18,
-18,
-21,
-21,
-19,
-19,
-22,
-22,
-18,
-18,
-17,
-29,
-24,
-24,
-23,
-23,
-29,
-18,
-26,
-26,
-27,
-27,
-29,
-17,
-26,
-26,
-22,
-35,
-25,
-25,
-26,
-26,
-35,
-22,
-24,
-36,
-37,
-22,
-23,
-36,
-24,
-36,
-35,
-35,
-31,
-20,
-30,
-30,
-28,
-28,
-31,
-31,
-33,
-33,
-25,
-37,
-26,
-37,
-34,
-23,
-32,
-32,
-36,
-23,
-23,
-37,
-36,
-23,
-29,
-29,
-28,
-28,
-31,
-19,
-31,
-31,
-25,
-25,
-23,
-23,
-28,
-28,
-28,
-28,
-23,
-23,
-28,
-17,
-28,
-28,
-24,
-24,
-27,
-16,
-23,
-23,
-23,
-23,
-25,
-14,
-22,
-22,
-17,
-17,
-21,
-21,
-19,
-19,
-12,
-24,
-15,
-15,
-16,
-16,
-17,
-17,
-17,
-17,
-14,
-14,
-10,
-10,
-13,
-13,
-14,
-14,
-12,
-12,
-9,
-9,
-8,
-8,
-9,
-9,
-5,
-5,
-10,
2,
-6,
-6,
-3,
-3,
-6,
-6,
-3,
-3,
0,
0,
1,
1,
7,
-5,
-2,
9,
4,
4,
-1,
-1,
10,
-4,
7,
7,
2,
14,
7,
7,
5,
5,
5,
5,
4,
15,
4,
17,
15,
3,
15,
15,
9,
20,
15,
15,
11,
11,
23,
7,
12,
12,
19,
8,
14,
14,
13,
13,
12,
24,
18,
18,
19,
19,
14,
25,
18,
18,
24,
12,
21,
21,
16,
16,
17,
17,
19,
19,
24,
24,
20,
20,
19,
19,
20,
20,
22,
22,
17,
28,
20,
20,
22,
10,
20,
20,
19,
19,
18,
18,
18,
18,
19,
19,
20,
20,
15,
15,
18,
18,
16,
16,
17,
17,
20,
20,
13,
13,
20,
6,
12,
12,
12,
12,
14,
14,
7,
19,
11,
11,
14,
3,
8,
8,
14,
2,
3,
14,
11,
0,
3,
3,
8,
8,
8,
8,
1,
1,
9,
-2,
2,
2,
-1,
10,
-1,
-1,
-9,
7,
-1,
-1,
4,
-9,
-4,
-4,
-4,
-4,
-7,
4,
0,
-11,
-8,
-8,
-8,
-8,
-8,
-8,
-7,
-7,
-10,
-10,
-10,
-10,
-12,
-12,
-13,
-13,
-16,
-16,
-16,
-16,
-14,
-14,
-13,
-13,
-19,
-19,
-16,
-16,
-15,
-15,
-17,
-17,
-20,
-20,
-19,
-19,
-20,
-20,
-24,
-24,
-26,
-26,
-23,
-23,
-19,
-32,
-25,
-25,
-29,
-29,
-24,
-24,
-20,
-33,
-26,
-26,
-30,
-30,
-27,
-27,
-27,
-27,
-24,
-35,
-20,
-36,
-34,
-34,
-26,
-37,
-34,
-34,
-31,
-31,
-28,
-28,
-34,
-22,
-30,
-30,
-26,
-39,
-29,
-29,
-25,
-38,
-37,
-25,
-27,
-38,
-34,
-23,
-25,
-36,
-25,
-25,
-34,
-23,
-27,
-27,
-30,
-30,
-28,
-28,
-27,
-27,
-29,
-29,
-26,
-26,
-25,
-25,
-29,
-18,
-23,
-23,
-27,
-27,
-24,
-24,
-23,
-23,
-21,
-21,
-25,
-25,
-22,
-22,
-20,
-20,
-21,
-21,
-18,
-18,
-13,
-13,
-15,
-15,
-23,
-11,
-16,
-16,
-11,
-11,
-10,
-10,
-11,
-11,
-17,
-6,
-9,
-9,
-8,
-8,
-7,
-7,
-11,
0,
-5,
-5,
-13,
0,
-12,
1,
-2,
-2,
-6,
-6,
-7,
-7,
2,
2,
3,
-8,
6,
-5,
-2,
11,
4,
4,
2,
2,
12,
-5,
8,
8,
-3,
12,
6,
6,
2,
2,
2,
14,
6,
6,
7,
7,
12,
12,
15,
4,
10,
10,
12,
12,
10,
10,
18,
6,
15,
15,
18,
18,
16,
16,
11,
11,
15,
15,
18,
18,
17,
17,
17,
17,
21,
9,
18,
18,
19,
19,
20,
20,
20,
20,
22,
22,
18,
18,
23,
12,
18,
18,
22,
22,
18,
18,
22,
11,
17,
17,
19,
19,
24,
11,
21,
21,
15,
15,
21,
21,
22,
22,
25,
11,
18,
18,
15,
15,
21,
21,
19,
19,
22,
10,
12,
12,
24,
7,
10,
10,
8,
21,
17,
6,
8,
21,
9,
9,
17,
5,
14,
14,
18,
4,
7,
7,
9,
9,
9,
9,
12,
1,
11,
11,
1,
1,
12,
-1,
3,
3,
-5,
13,
2,
2,
-4,
-4,
0,
0,
6,
-7,
0,
0,
0,
0,
-2,
-2,
0,
0,
-3,
-3,
-4,
-4,
-7,
-7,
-6,
-6,
-8,
-8,
-10,
-10,
-11,
-11,
-9,
-9,
-12,
-12,
-16,
-4,
-11,
-11,
-11,
-22,
-18,
-18,
-14,
-14,
-16,
-16,
-14,
-14,
-17,
-17,
-17,
-17,
-20,
-20,
-20,
-20,
-23,
-23,
-24,
-24,
-18,
-30,
-22,
-22,
-30,
-18,
-25,
-25,
-16,
-33,
-23,
-23,
-26,
-26,
-28,
-28,
-26,
-26,
-23,
-34,
-20,
-35,
-34,
-23,
-26,
-26,
-36,
-23,
-31,
-31,
-27,
-27,
-31,
-20,
-29,
-29,
-26,
-38,
-28,
-28,
-26,
-37,
-37,
-24,
-28,
-28,
-33,
-33,
-23,
-35,
-24,
-35,
-36,
-25,
-27,
-39,
-31,
-31,
-30,
-19,
-27,
-27,
-29,
-29,
-27,
-27,
-26,
-26,
-29,
-29,
-23,
-23,
-26,
-26,
-27,
-27,
-23,
-23,
-24,
-24,
-25,
-25,
-24,
-24,
-22,
-22,
-23,
-23,
-20,
-20,
-15,
-15,
-16,
-27,
-22,
-22,
-18,
-18,
-14,
-14,
-11,
-22,
-10,
-21,
-18,
-6,
-7,
-20,
-9,
-9,
-11,
-11,
-12,
-12,
-5,
-16,
-14,
-2,
-12,
-1,
-3,
-3,
-5,
-5,
-12,
1,
1,
-10,
2,
-12,
5,
-7,
-3,
-3,
0,
0,
4,
4,
9,
-5,
7,
7,
-4,
10,
10,
-1,
2,
2,
-2,
12,
4,
4,
5,
5,
8,
8,
17,
3,
11,
11,
12,
12,
11,
11,
16,
16,
12,
12,
16,
16,
17,
17,
12,
12,
16,
16,
19,
8,
16,
16,
16,
16,
18,
18,
18,
18,
19,
19,
18,
18,
14,
14,
20,
20,
19,
19,
23,
23,
17,
17,
22,
11,
21,
21,
22,
22,
22,
22,
18,
18,
27,
13,
21,
21,
14,
25,
16,
16,
25,
12,
21,
21,
22,
11,
11,
26,
21,
21,
16,
16,
23,
12,
18,
18,
22,
10,
10,
22,
10,
10,
21,
9,
13,
13,
9,
9,
13,
13,
16,
16,
16,
2,
10,
10,
8,
8,
11,
11,
12,
12,
7,
7,
5,
5,
10,
-2,
2,
2,
2,
2,
4,
4,
6,
6,
1,
1,
4,
-8,
1,
1,
-3,
-3,
0,
0,
-4,
-4,
0,
0,
-5,
-5,
-10,
1,
-5,
-5,
-9,
-9,
-7,
-7,
-5,
-16,
-8,
-8,
-2,
-17,
-14,
-14,
-16,
-4,
-9,
-9,
-15,
-15,
-12,
-12,
-22,
-10,
-13,
-13,
-18,
-18,
-18,
-18,
-21,
-21,
-20,
-20,
-22,
-22,
-21,
-21,
-19,
-19,
-17,
-28,
-25,
-25,
-23,
-23,
-24,
-24,
-23,
-23,
-27,
-27,
-28,
-28,
-28,
-28,
-25,
-25,
-26,
-37,
-33,
-22,
-25,
-36,
-27,
-27,
-33,
-33,
-30,
-30,
-29,
-29,
-26,
-39,
-28,
-28,
-34,
-34,
-31,
-31,
-27,
-27,
-30,
-30,
-29,
-29,
-31,
-31,
-31,
-31,
-28,
-28,
-29,
-29,
-25,
-25,
-30,
-30,
-28,
-28,
-25,
-25,
-26,
-26,
-31,
-19,
-27,
-27,
-28,
-28,
-17,
-35,
-29,
-29,
-19,
-32,
-28,
-28,
-27,
-27,
-18,
-29,
-22,
-22,
-22,
-22,
-22,
-22,
-15,
-27,
-17,
-17,
-24,
-12,
-21,
-21,
-12,
-23,
-14,
-14,
-9,
-22,
-21,
-7,
-7,
-21,
-12,
-12,
-10,
-10,
-11,
-11,
-5,
-16,
-14,
-2,
-14,
-3,
-5,
-5,
-7,
-7,
-10,
-10,
-2,
-2,
0,
0,
-1,
-1,
-2,
-2,
-1,
-1,
1,
1,
3,
3,
2,
2,
-2,
10,
5,
5,
2,
2,
2,
2,
3,
3,
8,
8,
7,
7,
11,
0,
8,
8,
6,
18,
9,
9,
12,
12,
12,
12,
10,
10,
11,
11,
12,
12,
13,
13,
19,
7,
19,
8,
19,
19,
22,
9,
14,
14,
13,
25,
18,
18,
13,
24,
21,
21,
13,
25,
20,
20,
14,
26,
19,
19,
22,
9,
18,
18,
19,
19,
21,
21,
25,
13,
23,
23,
14,
25,
14,
26,
22,
22,
22,
11,
21,
21,
11,
26,
20,
20,
21,
21,
19,
19,
15,
15,
22,
10,
13,
13,
11,
22,
16,
16,
15,
15,
13,
13,
16,
16,
13,
13,
16,
16,
14,
3,
10,
10,
12,
12,
13,
13,
9,
9,
7,
7,
9,
9,
9,
9,
3,
3,
3,
3,
7,
7,
5,
5,
3,
3,
2,
2,
-1,
-1,
7,
-9,
0,
0,
4,
-8,
-3,
-3,
-6,
-6,
0,
0,
-8,
-8,
-4,
-4,
-6,
-6,
-5,
-5,
-2,
-16,
-12,
-12,
-12,
-12,
-7,
-7,
-13,
-13,
-8,
-8,
-18,
-18,
-9,
-21,
-15,
-15,
-13,
-24,
-16,
-16,
-15,
-26,
-19,
-19,
-21,
-21,
-17,
-17,
-20,
-31,
-25,
-25,
-24,
-24,
-21,
-21,
-24,
-24,
-25,
-25,
-29,
-29,
-27,
-27,
-27,
-27,
-25,
-25,
-27,
-27,
-23,
-36,
-27,
-27,
-30,
-30,
-30,
-30,
-29,
-29,
-29,
-29,
-30,
-30,
-33,
-33,
-32,
-32,
-30,
-30,
-33,
-22,
-30,
-30,
-33,
-22,
-36,
-23,
-25,
-36,
-32,
-32,
-27,
-27,
-26,
-26,
-28,
-28,
-25,
-36,
-30,
-30,
-33,
-20,
-27,
-27,
-32,
-19,
-23,
-34,
-33,
-20,
-22,
-34,
-29,
-29,
-29,
-29,
-21,
-21,
-26,
-26,
-23,
-23,
-22,
-22,
-21,
-21,
-17,
-17,
-22,
-22,
-24,
-24,
-16,
-27,
-18,
-18,
-15,
-15,
-20,
-20,
-15,
-15,
-11,
-11,
-14,
-14,
-14,
-14,
-14,
-14,
-11,
-11,
-10,
-10,
-15,
-2,
-7,
-7,
0,
-16,
-4,
-4,
-11,
2,
-9,
-9,
-4,
-4,
1,
1,
-4,
-4,
-3,
-3,
-3,
-3,
1,
1,
-2,
-2,
10,
-4,
9,
-5,
2,
2,
9,
-2,
9,
9,
2,
2,
2,
14,
3,
14,
14,
3,
6,
6,
14,
14,
4,
20,
9,
9,
17,
4,
12,
12,
17,
17,
17,
17,
16,
16,
18,
18,
15,
15,
12,
24,
16,
16,
20,
9,
19,
19,
14,
27,
19,
19,
17,
17,
17,
17,
21,
21,
23,
12,
21,
21,
17,
17,
16,
16,
16,
16,
20,
20,
21,
21,
16,
16,
17,
17,
19,
19,
20,
20,
16,
16,
15,
26,
14,
14,
23,
12,
16,
16,
23,
11,
18,
18,
12,
24,
14,
14,
16,
16,
12,
12,
14,
14,
7,
23,
18,
7,
12,
12,
14,
14,
5,
17,
5,
5,
17,
4,
3,
14,
9,
9,
12,
0,
8,
8,
11,
-1,
5,
5,
-2,
9,
6,
6,
-1,
-1,
3,
-8,
-3,
-3,
0,
0,
-1,
-1,
-2,
-2,
-2,
-2,
-6,
-6,
-7,
-7,
-5,
-5,
-8,
-8,
-6,
-6,
-6,
-6,
-12,
-12,
-10,
-10,
-13,
-13,
-15,
-4,
-12,
-12,
-18,
-6,
-14,
-14,
-17,
-17,
-17,
-17,
-20,
-20,
-15,
-15,
-15,
-15,
-25,
-13,
-19,
-19,
-13,
-28,
-22,
-22,
-29,
-14,
-28,
-17,
-24,
-24,
-21,
-21,
-27,
-27,
-28,
-28,
-32,
-20,
-24,
-24,
-32,
-20,
-22,
-33,
-19,
-36,
-29,
-29,
-22,
-35,
-24,
-24,
-35,
-23,
-34,
-22,
-33,
-21,
-26,
-26,
-33,
-33,
-27,
-27,
-37,
-21,
-33,
-33,
-26,
-39,
-30,
-30,
-26,
-37,
-26,
-26,
-28,
-28,
-28,
-28,
-29,
-29,
-33,
-20,
-30,
-30,
-26,
-26,
-26,
-26,
-31,
-18,
-28,
-28,
-28,
-28,
-26,
-26,
-23,
-34,
-22,
-22,
-23,
-23,
-25,
-25,
-27,
-27,
-27,
-16,
-19,
-19,
-20,
-20,
-25,
-12,
-20,
-20,
-20,
-20,
-17,
-17,
-20,
-20,
-19,
-19,
-20,
-20,
-11,
-22,
-14,
-14,
-7,
-20,
-11,
-11,
-14,
-14,
-13,
-13,
-8,
-8,
-11,
0,
-11,
-11,
-12,
0,
-1,
-1,
-6,
-6,
-2,
-2,
-11,
4,
-8,
5,
7,
-8,
-5,
8,
4,
4,
3,
3,
3,
3,
6,
6,
2,
2,
-1,
11,
8,
8,
4,
4,
10,
-1,
6,
6,
11,
11,
8,
8,
9,
9,
15,
15,
10,
10,
9,
9,
15,
15,
13,
13,
15,
15,
17,
17,
15,
15,
15,
15,
15,
15,
13,
25,
19,
19,
14,
25,
20,
20,
16,
27,
17,
17,
15,
15,
21,
21,
23,
11,
12,
26,
20,
20,
27,
12,
18,
18,
11,
28,
14,
25,
17,
17,
22,
22,
14,
25,
15,
26,
13,
13,
20,
20,
10,
23,
23,
9,
26,
10,
14,
14,
21,
10,
20,
20,
10,
22,
8,
20,
11,
11,
14,
14,
12,
12,
12,
12,
8,
19,
11,
11,
13,
13,
9,
9,
11,
11,
11,
11,
7,
7,
5,
5,
7,
7,
4,
4,
2,
2,
7,
-4,
2,
2,
2,
2,
-4,
-4,
1,
1,
1,
1,
-2,
-2,
0,
0,
-1,
-1,
-7,
-7,
-11,
1,
-13,
2,
-3,
-3,
-6,
-6,
-14,
-14,
-10,
-10,
-11,
-11,
-5,
-18,
-15,
-15,
-15,
-15,
-19,
-8,
-11,
-11,
-19,
-19,
-13,
-13,
-14,
-25,
-20,
-20,
-22,
-11,
-17,
-17,
-22,
-22,
-23,
-23,
-24,
-24,
-19,
-19,
-20,
-20,
-20,
-31,
-26,
-26,
-27,
-16,
-21,
-21,
-28,
-28,
-28,
-28,
-27,
-27,
-27,
-27,
-29,
-29,
-29,
-29,
-29,
-29,
-26,
-26,
-27,
-27,
-29,
-29,
-27,
-27,
-30,
-30,
-27,
-27,
-27,
-38,
-32,
-32,
-29,
-29,
-31,
-31,
-31,
-31,
-35,
-24,
-35,
-22,
-26,
-26,
-23,
-37,
-33,
-21,
-31,
-20,
-35,
-23,
-20,
-36,
-33,
-21,
-25,
-25,
-27,
-27,
-27,
-27,
-27,
-27,
-20,
-31,
-21,
-21,
-29,
-15,
-26,
-26,
-18,
-32,
-21,
-21,
-25,
-14,
-26,
-15,
-22,
-22,
-17,
-17,
-21,
-21,
-23,
-23,
-18,
-18,
-13,
-13,
-20,
-8,
-12,
-12,
-8,
-19,
-10,
-10,
-12,
-12,
-12,
-12,
-15,
-15,
-9,
-9,
-8,
-8,
-10,
1,
-7,
-7,
-9,
-9,
-5,
-5,
0,
-12,
-2,
-2,
-1,
-1,
-4,
7,
1,
1,
2,
2,
-3,
9,
4,
4,
2,
2,
2,
2,
8,
8,
1,
13,
9,
9,
1,
15,
10,
10,
10,
10,
8,
8,
10,
10,
11,
11,
12,
12,
8,
19,
8,
21,
19,
19,
14,
14,
10,
10,
16,
16,
14,
14,
20,
20,
14,
14,
17,
17,
12,
24,
20,
20,
12,
25,
19,
19,
24,
12,
16,
16,
21,
21,
22,
22,
17,
28,
16,
16,
19,
19,
20,
20,
21,
21,
21,
21,
19,
19,
16,
16,
20,
20,
14,
25,
17,
17,
21,
21,
16,
16,
17,
17,
17,
17,
17,
17,
17,
17,
18,
7,
12,
12,
17,
5,
12,
12,
17,
6,
15,
15,
8,
20,
12,
12,
10,
10,
10,
10,
4,
4,
5,
5,
12,
12,
12,
-1,
3,
3,
6,
6,
0,
0,
11,
-5,
-3,
9,
3,
3,
1,
1,
-4,
8,
-2,
-2,
4,
-8,
0,
0,
-10,
2,
-9,
2,
0,
-13,
-5,
-5,
-14,
-1,
-12,
-12,
-11,
-11,
-5,
-16,
-14,
-3,
-17,
-17,
-14,
-14,
-9,
-22,
-17,
-17,
-9,
-22,
-12,
-23,
-16,
-16,
-20,
-20,
-20,
-20,
-22,
-22,
-18,
-18,
-20,
-20,
-19,
-19,
-24,
-24,
-22,
-22,
-25,
-25,
-22,
-22,
-20,
-31,
-25,
-25,
-28,
-28,
-28,
-28,
-24,
-24,
-32,
-21,
-30,
-30,
-28,
-28,
-23,
-35,
-26,
-26,
-32,
-21,
-26,
-26,
-33,
-20,
-25,
-25,
-26,
-39,
-32,
-32,
-30,
-30,
-32,
-32,
-31,
-31,
-34,
-34,
-34,
-22,
-26,
-37,
-24,
-35,
-31,
-31,
-31,
-31,
-34,
-21,
-21,
-36,
-35,
-24,
-25,
-25,
-27,
-27,
-30,
-18,
-32,
-21,
-25,
-25,
-21,
-32,
-28,
-28,
-24,
-24,
-19,
-19,
-25,
-14,
-26,
-26,
-23,
-23,
-25,
-25,
-19,
-19,
-21,
-21,
-20,
-20,
-18,
-18,
-19,
-19,
-19,
-19,
-17,
-17,
-11,
-22,
-10,
-22,
-12,
-12,
-13,
-13,
-12,
-12,
-11,
-11,
-4,
-16,
-13,
-13,
-10,
-10,
-10,
-10,
-3,
-3,
-2,
-2,
-10,
4,
2,
-10,
-7,
5,
-6,
6,
-3,
-3,
-6,
7,
1,
1,
5,
5,
1,
1,
10,
-2,
1,
12,
8,
8,
2,
14,
10,
10,
7,
7,
5,
5,
10,
10,
9,
9,
7,
18,
9,
9,
10,
10,
15,
15,
18,
18,
13,
13,
15,
15,
17,
17,
20,
20,
19,
19,
19,
19,
17,
17,
18,
18,
16,
16,
18,
18,
18,
18,
21,
21,
21,
21,
17,
17,
21,
21,
26,
12,
23,
12,
22,
22,
22,
11,
23,
23,
25,
13,
26,
13,
15,
15,
22,
11,
13,
13,
14,
27,
19,
19,
16,
16,
18,
18,
23,
10,
19,
19,
22,
10,
12,
12,
21,
10,
13,
13,
21,
8,
20,
8,
7,
19,
18,
5,
12,
12,
8,
8,
9,
9,
6,
6,
11,
11,
15,
3,
5,
5,
8,
8,
4,
4,
9,
9,
4,
4,
1,
1,
4,
4,
2,
2,
3,
3,
2,
2,
-2,
-2,
3,
-9,
-4,
-4,
-9,
2,
-6,
-6,
-3,
-3,
-4,
-4,
-5,
-17,
-11,
-11,
-6,
-18,
-11,
-11,
-7,
-18,
-10,
-10,
-8,
-19,
-18,
-18,
-18,
-18,
-9,
-23,
-19,
-19,
-24,
-13,
-17,
-17,
-12,
-28,
-14,
-27,
-21,
-21,
-23,
-23,
-20,
-20,
-17,
-29,
-16,
-29,
-26,
-26,
-17,
-29,
-32,
-17,
-33,
-18,
-24,
-24,
-31,
-19,
-30,
-30,
-22,
-35,
-23,
-23,
-25,
-25,
-33,
-33,
-25,
-36,
-32,
-32,
-24,
-37,
-29,
-29,
-32,
-32,
-31,
-31,
-33,
-22,
-32,
-32,
-30,
-30,
-30,
-30,
-30,
-30,
-27,
-27,
-28,
-28,
-31,
