5-grundlagen-opAmps/data/ALL0058/A0058CH2.CSV

Memory Length,4000,
Trigger Level,0.00000e+00,
Source,CH2,
Probe,1.0X,
Vertical Units,V,
Vertical Scale,5.00000e-02,
Vertical Position,0.00000e+00,
Horizontal Units,S,
Horizontal Scale,2.50000e-07,
Horizontal Position,0.0000000e+00,
Horizontal Mode,Main,
Sampling Period,2.00000e-09,
Firmware,V1.14,
Time, ,
Mode,Fast,
Waveform Data,
63,
63,
62,
65,
66,
63,
58,
56,
58,
58,
57,
53,
46,
46,
49,
49,
43,
36,
32,
37,
38,
32,
25,
22,
22,
24,
25,
16,
11,
9,
12,
12,
7,
0,
-4,
-3,
-3,
-6,
-12,
-14,
-15,
-16,
-18,
-19,
-24,
-26,
-30,
-30,
-30,
-34,
-39,
-40,
-42,
-44,
-45,
-48,
-50,
-53,
-56,
-55,
-56,
-58,
-61,
-63,
-64,
-62,
-66,
-69,
-69,
-70,
-69,
-71,
-73,
-75,
-76,
-76,
-76,
-77,
-79,
-77,
-77,
-79,
-79,
-78,
-77,
-77,
-80,
-81,
-80,
-78,
-77,
-79,
-80,
-78,
-75,
-74,
-73,
-76,
-75,
-70,
-67,
-65,
-68,
-69,
-65,
-62,
-61,
-59,
-61,
-60,
-57,
-53,
-52,
-51,
-49,
-46,
-43,
-38,
-39,
-36,
-36,
-31,
-29,
-26,
-24,
-25,
-23,
-19,
-16,
-13,
-13,
-9,
-7,
-5,
1,
2,
4,
5,
9,
13,
16,
17,
17,
19,
22,
24,
28,
30,
31,
34,
35,
38,
40,
43,
45,
47,
48,
50,
53,
55,
55,
55,
57,
60,
64,
63,
62,
63,
67,
70,
70,
71,
69,
70,
76,
78,
74,
72,
71,
75,
79,
77,
75,
74,
74,
77,
81,
77,
75,
75,
77,
79,
78,
73,
71,
71,
73,
74,
70,
67,
64,
65,
65,
68,
63,
58,
58,
60,
62,
58,
51,
49,
48,
51,
51,
43,
38,
37,
38,
41,
37,
28,
25,
26,
29,
26,
17,
14,
15,
16,
15,
10,
1,
-1,
0,
1,
-2,
-10,
-13,
-12,
-12,
-15,
-19,
-21,
-23,
-23,
-27,
-30,
-32,
-33,
-39,
-39,
-42,
-43,
-44,
-49,
-48,
-51,
-53,
-53,
-57,
-58,
-59,
-61,
-62,
-64,
-66,
-67,
-69,
-69,
-69,
-71,
-73,
-75,
-75,
-75,
-76,
-76,
-76,
-77,
-79,
-78,
-79,
-76,
-77,
-80,
-81,
-80,
-77,
-76,
-79,
-81,
-79,
-76,
-75,
-75,
-76,
-76,
-73,
-69,
-68,
-69,
-71,
-68,
-64,
-63,
-63,
-63,
-62,
-58,
-56,
-53,
-54,
-53,
-50,
-45,
-44,
-41,
-39,
-38,
-37,
-32,
-31,
-26,
-27,
-26,
-21,
-20,
-16,
-15,
-15,
-12,
-7,
-4,
-1,
0,
1,
6,
9,
11,
14,
15,
15,
19,
23,
24,
27,
29,
32,
34,
36,
38,
40,
42,
43,
46,
50,
52,
53,
54,
55,
55,
59,
61,
61,
60,
63,
66,
69,
69,
67,
69,
70,
73,
76,
74,
72,
72,
76,
80,
79,
74,
73,
75,
80,
80,
76,
73,
76,
80,
80,
80,
74,
71,
75,
77,
75,
72,
69,
68,
70,
70,
67,
65,
62,
61,
64,
65,
61,
56,
53,
55,
57,
54,
47,
44,
42,
44,
42,
40,
33,
29,
32,
34,
32,
23,
17,
19,
22,
20,
13,
7,
5,
7,
6,
2,
-3,
-8,
-7,
-5,
-9,
-14,
-18,
-18,
-19,
-21,
-24,
-29,
-29,
-31,
-35,
-37,
-40,
-41,
-43,
-45,
-46,
-49,
-50,
-51,
-54,
-57,
-59,
-58,
-60,
-60,
-64,
-65,
-66,
-67,
-67,
-70,
-72,
-72,
-73,
-72,
-73,
-74,
-75,
-76,
-76,
-76,
-76,
-76,
-78,
-78,
-77,
-74,
-75,
-78,
-80,
-78,
-73,
-72,
-74,
-76,
-74,
-71,
-70,
-68,
-70,
-69,
-68,
-63,
-62,
-64,
-63,
-62,
-59,
-54,
-55,
-55,
-54,
-52,
-48,
-44,
-42,
-42,
-41,
-38,
-37,
-32,
-31,
-27,
-26,
-24,
-21,
-20,
-17,
-16,
-16,
-10,
-7,
-3,
-3,
-2,
1,
6,
8,
11,
11,
12,
16,
19,
22,
23,
24,
26,
31,
33,
33,
36,
37,
38,
42,
44,
48,
49,
47,
50,
54,
55,
57,
57,
56,
58,
61,
65,
65,
62,
62,
66,
71,
71,
67,
67,
68,
73,
75,
73,
69,
68,
73,
76,
74,
71,
69,
72,
75,
75,
74,
71,
70,
70,
72,
71,
67,
64,
65,
67,
67,
64,
58,
57,
59,
59,
57,
55,
51,
50,
51,
51,
49,
44,
39,
39,
40,
39,
33,
30,
26,
28,
29,
25,
19,
14,
15,
17,
16,
9,
3,
2,
4,
2,
-4,
-8,
-9,
-11,
-11,
-14,
-19,
-22,
-23,
-23,
-25,
-30,
-34,
-33,
-35,
-36,
-42,
-45,
-44,
-46,
-49,
-53,
-54,
-54,
-56,
-58,
-62,
-62,
-65,
-63,
-64,
-68,
-71,
-71,
-70,
-71,
-75,
-77,
-76,
-76,
-77,
-77,
-79,
-80,
-81,
-79,
-80,
-79,
-83,
-82,
-82,
-82,
-79,
-80,
-81,
-83,
-83,
-79,
-76,
-78,
-82,
-80,
-76,
-71,
-72,
-73,
-74,
-71,
-66,
-67,
-67,
-70,
-67,
-62,
-59,
-59,
-62,
-61,
-56,
-51,
-49,
-48,
-48,
-44,
-41,
-37,
-37,
-36,
-33,
-32,
-28,
-26,
-23,
-21,
-20,
-19,
-17,
-10,
-8,
-8,
-5,
-4,
2,
6,
7,
8,
9,
12,
16,
17,
18,
19,
23,
27,
31,
32,
32,
34,
37,
40,
42,
43,
45,
46,
48,
51,
53,
54,
54,
55,
58,
60,
62,
63,
62,
60,
65,
70,
71,
68,
65,
69,
74,
74,
71,
69,
70,
74,
76,
75,
70,
68,
71,
78,
77,
71,
67,
69,
72,
74,
69,
67,
65,
66,
69,
67,
63,
60,
59,
61,
62,
58,
55,
55,
55,
53,
52,
50,
46,
44,
43,
43,
41,
37,
32,
29,
32,
29,
25,
22,
19,
20,
19,
17,
12,
8,
5,
7,
5,
-1,
-6,
-5,
-7,
-8,
-15,
-17,
-19,
-19,
-21,
-23,
-27,
-30,
-31,
-32,
-36,
-41,
-45,
-43,
-42,
-47,
-51,
-54,
-54,
-53,
-57,
-60,
-63,
-62,
-61,
-64,
-67,
-70,
-71,
-70,
-70,
-72,
-77,
-77,
-76,
-76,
-78,
-79,
-80,
-81,
-81,
-79,
-80,
-82,
-84,
-83,
-80,
-79,
-83,
-84,
-85,
-84,
-81,
-79,
-81,
-83,
-83,
-78,
-75,
-76,
-79,
-78,
-72,
-70,
-68,
-69,
-71,
-68,
-65,
-62,
-63,
-63,
-63,
-58,
-56,
-53,
-53,
-52,
-49,
-44,
-41,
-39,
-39,
-37,
-35,
-33,
-29,
-28,
-26,
-23,
-23,
-19,
-17,
-15,
-11,
-9,
-7,
-4,
1,
2,
1,
5,
8,
12,
14,
14,
15,
18,
23,
27,
27,
26,
29,
33,
38,
39,
40,
41,
43,
45,
49,
51,
52,
51,
53,
56,
59,
60,
58,
59,
61,
64,
65,
67,
67,
65,
66,
71,
72,
70,
67,
67,
72,
76,
73,
70,
69,
71,
76,
76,
72,
68,
69,
74,
75,
70,
65,
65,
67,
70,
66,
63,
60,
60,
62,
61,
59,
55,
53,
56,
56,
52,
49,
48,
46,
45,
43,
42,
38,
34,
33,
32,
33,
27,
24,
22,
22,
22,
17,
15,
11,
10,
9,
7,
3,
-2,
-5,
-5,
-6,
-11,
-17,
-16,
-17,
-19,
-22,
-26,
-27,
-28,
-31,
-34,
-39,
-41,
-40,
-40,
-45,
-50,
-51,
-51,
-51,
-55,
-62,
-62,
-60,
-60,
-63,
-68,
-69,
-70,
-68,
-69,
-73,
-78,
-79,
-76,
-73,
-76,
-82,
-83,
-81,
-78,
-79,
-80,
-85,
-83,
-82,
-80,
-79,
-83,
-84,
-85,
-81,
-80,
-82,
-82,
-84,
-82,
-78,
-76,
-76,
-78,
-80,
-73,
-69,
-70,
-71,
-72,
-69,
-64,
-63,
-63,
-66,
-63,
-59,
-55,
-54,
-54,
-53,
-51,
-46,
-42,
-42,
-40,
-38,
-35,
-33,
-29,
-29,
-26,
-24,
-22,
-19,
-16,
-15,
-13,
-9,
-7,
-3,
0,
2,
4,
6,
11,
14,
15,
15,
16,
19,
24,
27,
28,
29,
32,
34,
39,
41,
41,
42,
45,
50,
52,
52,
53,
55,
56,
57,
60,
62,
63,
62,
65,
68,
69,
69,
71,
70,
73,
76,
77,
75,
73,
74,
79,
80,
79,
75,
75,
78,
80,
79,
77,
75,
77,
80,
83,
76,
73,
73,
77,
78,
74,
69,
68,
69,
70,
69,
66,
63,
63,
63,
64,
61,
56,
56,
56,
55,
52,
48,
46,
44,
43,
41,
39,
37,
35,
31,
30,
28,
26,
24,
21,
19,
17,
15,
12,
7,
5,
2,
1,
-1,
-6,
-7,
-8,
-10,
-15,
-18,
-19,
-19,
-21,
-26,
-30,
-31,
-30,
-34,
-38,
-42,
-43,
-43,
-44,
-46,
-53,
-56,
-53,
-52,
-55,
-62,
-65,
-63,
-60,
-63,
-67,
-71,
-72,
-68,
-68,
-72,
-76,
-78,
-75,
-73,
-74,
-79,
-79,
-79,
-77,
-75,
-77,
-80,
-80,
-80,
-77,
-76,
-77,
-81,
-81,
-78,
-75,
-73,
-76,
-78,
-76,
-73,
-68,
-68,
-71,
-71,
-68,
-64,
-62,
-63,
-66,
-64,
-58,
-55,
-55,
-57,
-54,
-50,
-47,
-44,
-44,
-44,
-40,
-37,
-33,
-33,
-32,
-29,
-26,
-23,
-20,
-19,
-16,
-16,
-13,
-9,
-6,
-3,
-1,
0,
3,
6,
10,
12,
12,
13,
16,
20,
24,
24,
25,
25,
28,
34,
37,
37,
37,
41,
45,
47,
48,
48,
50,
51,
53,
56,
56,
58,
58,
59,
63,
65,
65,
65,
65,
69,
71,
70,
70,
69,
70,
73,
75,
71,
70,
71,
74,
76,
74,
71,
71,
74,
75,
76,
72,
69,
70,
72,
72,
69,
65,
64,
67,
66,
64,
59,
59,
59,
60,
58,
57,
54,
52,
52,
51,
49,
46,
43,
43,
40,
37,
34,
34,
34,
28,
28,
25,
24,
22,
19,
16,
15,
12,
9,
8,
3,
0,
-3,
-4,
-7,
-10,
-13,
-15,
-16,
-18,
-21,
-23,
-25,
-28,
-31,
-33,
-32,
-36,
-43,
-44,
-44,
-44,
-46,
-50,
-56,
-56,
-53,
-53,
-58,
-63,
-65,
-64,
-62,
-64,
-71,
-75,
-73,
-69,
-69,
-74,
-79,
-81,
-76,
-72,
-75,
-80,
-84,
-81,
-78,
-78,
-82,
-83,
-83,
-81,
-78,
-79,
-81,
-83,
-84,
-79,
-77,
-77,
-79,
-79,
-77,
-73,
-71,
-71,
-71,
-72,
-69,
-64,
-64,
-65,
-67,
-64,
-59,
-55,
-57,
-58,
-57,
-52,
-47,
-46,
-46,
-44,
-41,
-36,
-36,
-35,
-34,
-30,
-28,
-25,
-23,
-21,
-19,
-17,
-15,
-12,
-8,
-5,
-3,
-1,
2,
6,
9,
12,
11,
12,
15,
19,
23,
24,
23,
27,
32,
34,
34,
37,
37,
41,
45,
47,
48,
49,
49,
51,
56,
57,
57,
56,
59,
61,
64,
66,
66,
65,
67,
71,
74,
73,
71,
72,
72,
75,
76,
76,
72,
73,
76,
78,
78,
73,
73,
77,
78,
78,
75,
73,
74,
76,
75,
72,
70,
68,
69,
71,
67,
64,
61,
63,
63,
61,
58,
57,
57,
57,
53,
52,
50,
49,
47,
45,
42,
39,
38,
38,
36,
30,
28,
27,
25,
23,
18,
17,
18,
16,
12,
8,
4,
1,
0,
-2,
-4,
-8,
-12,
-13,
-13,
-15,
-20,
-21,
-25,
-26,
-26,
-29,
-32,
-37,
-41,
-39,
-41,
-43,
-48,
-53,
-51,
-49,
-52,
-55,
-61,
-62,
-59,
-58,
-62,
-68,
-73,
-70,
-65,
-67,
-73,
-78,
-79,
-73,
-73,
-76,
-80,
-82,
-79,
-77,
-76,
-81,
-85,
-82,
-78,
-76,
-80,
-82,
-83,
-80,
-79,
-78,
-78,
-81,
-81,
-77,
-73,
-72,
-75,
-73,
-72,
-69,
-67,
-66,
-67,
-68,
-66,
-61,
-59,
-59,
-61,
-59,
-56,
-51,
-49,
-50,
-48,
-44,
-40,
-37,
-38,
-36,
-35,
-31,
-28,
-27,
-26,
-24,
-21,
-18,
-17,
-13,
-9,
-7,
-5,
-4,
0,
4,
5,
8,
10,
11,
15,
18,
19,
19,
20,
25,
28,
31,
31,
32,
36,
38,
42,
42,
42,
44,
48,
51,
52,
50,
52,
54,
57,
58,
59,
61,
60,
62,
65,
65,
68,
66,
66,
69,
69,
71,
70,
69,
69,
71,
73,
74,
70,
69,
71,
74,
74,
70,
69,
70,
71,
71,
69,
66,
66,
67,
66,
64,
61,
58,
59,
60,
59,
55,
52,
53,
54,
50,
48,
49,
48,
46,
41,
39,
36,
35,
34,
30,
27,
25,
26,
25,
19,
16,
13,
14,
14,
10,
5,
2,
-1,
-1,
-3,
-8,
-11,
-15,
-15,
-15,
-19,
-22,
-26,
-29,
-27,
-28,
-33,
-36,
-41,
-42,
-41,
-43,
-45,
-51,
-55,
-54,
-52,
-53,
-60,
-64,
-64,
-62,
-61,
-64,
-70,
-72,
-70,
-68,
-70,
-77,
-82,
-80,
-76,
-74,
-81,
-85,
-85,
-80,
-77,
-80,
-85,
-87,
-84,
-80,
-79,
-83,
-85,
-86,
-83,
-81,
-82,
-83,
-83,
-82,
-79,
-76,
-78,
-77,
-78,
-76,
-71,
-69,
-71,
-71,
-70,
-68,
-63,
-62,
-64,
-62,
-61,
-57,
-54,
-52,
-52,
-50,
-47,
-42,
-40,
-39,
-39,
-36,
-34,
-29,
-28,
-27,
-24,
-22,
-20,
-17,
-15,
-12,
-9,
-8,
-5,
-3,
2,
6,
5,
9,
10,
12,
17,
19,
18,
19,
24,
29,
33,
32,
32,
35,
40,
43,
43,
42,
45,
50,
51,
56,
54,
53,
57,
60,
61,
62,
61,
63,
65,
67,
69,
69,
69,
70,
72,
73,
75,
73,
73,
75,
76,
77,
78,
76,
75,
75,
78,
79,
78,
74,
76,
77,
78,
75,
71,
72,
74,
73,
71,
69,
65,
66,
65,
65,
63,
60,
60,
61,
58,
55,
53,
54,
54,
49,
45,
45,
43,
42,
39,
35,
34,
34,
32,
28,
25,
20,
20,
23,
19,
14,
8,
9,
10,
6,
-1,
-5,
-5,
-5,
-7,
-10,
-15,
-17,
-19,
-18,
-21,
-26,
-31,
-32,
-30,
-31,
-36,
-39,
-43,
-44,
-45,
-44,
-48,
-53,
-57,
-56,
-53,
-54,
-61,
-65,
-66,
-63,
-62,
-64,
-71,
-74,
-71,
-70,
-69,
-75,
-79,
-78,
-74,
-71,
-77,
-81,
-82,
-79,
-76,
-76,
-78,
-83,
-81,
-79,
-75,
-78,
-82,
-80,
-78,
-75,
-74,
-74,
-74,
-73,
-72,
-69,
-67,
-66,
-67,
-66,
-65,
-61,
-61,
-62,
-60,
-58,
-56,
-51,
-53,
-51,
-49,
-46,
-42,
-40,
-40,
-38,
-37,
-31,
-31,
-28,
-27,
-25,
-23,
-20,
-20,
-16,
-13,
-9,
-8,
-6,
-2,
1,
5,
6,
7,
11,
15,
17,
17,
17,
19,
23,
27,
30,
31,
31,
33,
39,
41,
42,
42,
43,
49,
51,
52,
54,
52,
54,
58,
59,
60,
60,
61,
65,
67,
67,
66,
67,
70,
71,
72,
73,
71,
71,
72,
74,
75,
74,
73,
75,
75,
76,
77,
75,
75,
75,
75,
76,
75,
71,
70,
72,
71,
70,
66,
66,
65,
65,
63,
63,
61,
58,
59,
59,
56,
54,
53,
52,
50,
46,
45,
44,
42,
38,
33,
35,
35,
33,
29,
23,
23,
23,
22,
18,
15,
10,
9,
12,
8,
1,
-5,
-4,
-3,
-4,
-11,
-15,
-17,
-17,
-17,
-19,
-24,
-28,
-29,
-30,
-30,
-35,
-43,
-41,
-42,
-42,
-43,
-48,
-53,
-54,
-55,
-51,
-54,
-58,
-63,
-63,
-61,
-60,
-64,
-69,
-71,
-68,
-65,
-68,
-74,
-78,
-77,
-71,
-70,
-74,
-81,
-80,
-76,
-74,
-75,
-79,
-82,
-78,
-76,
-76,
-78,
-80,
-79,
-76,
-73,
-75,
-76,
-73,
-72,
-70,
-69,
-67,
-66,
-65,
-63,
-63,
-61,
-59,
-59,
-57,
-57,
-53,
-51,
-50,
-49,
-48,
-45,
-41,
-38,
-36,
-35,
-32,
-30,
-28,
-26,
-24,
-21,
-19,
-18,
-16,
-14,
-11,
-7,
-5,
-4,
0,
2,
6,
7,
8,
11,
16,
19,
21,
18,
23,
26,
28,
31,
31,
32,
36,
41,
43,
43,
42,
45,
49,
54,
54,
53,
54,
57,
60,
61,
61,
61,
62,
65,
69,
68,
68,
68,
70,
73,
74,
73,
73,
73,
74,
76,
78,
75,
75,
75,
77,
80,
77,
75,
73,
75,
76,
76,
76,
74,
70,
71,
74,
72,
69,
65,
66,
66,
65,
62,
60,
59,
58,
58,
57,
55,
52,
50,
50,
48,
46,
44,
42,
37,
34,
33,
34,
33,
26,
25,
20,
23,
21,
17,
13,
9,
10,
9,
7,
0,
-6,
-6,
-5,
-5,
-12,
-19,
-19,
-18,
-18,
-22,
-27,
-31,
-31,
-31,
-33,
-37,
-42,
-45,
-43,
-44,
-46,
-51,
-57,
-56,
-54,
-56,
-57,
-63,
-64,
-65,
-61,
-64,
-68,
-72,
-74,
-70,
-68,
-71,
-76,
-78,
-76,
-74,
-71,
-76,
-81,
-82,
-77,
-74,
-77,
-82,
-82,
-79,
-75,
-76,
-79,
-81,
-79,
-75,
-73,
-75,
-77,
-76,
-72,
-69,
-69,
-69,
-68,
-65,
-63,
-63,
-62,
-61,
-58,
-58,
-56,
-55,
-51,
-49,
-49,
-48,
-44,
-43,
-39,
-37,
-35,
-33,
-28,
-27,
-26,
-23,
-21,
-17,
-16,
-14,
-11,
-8,
-6,
-5,
-2,
0,
6,
9,
11,
11,
14,
19,
24,
25,
24,
25,
30,
34,
36,
34,
35,
40,
45,
49,
48,
48,
50,
56,
59,
60,
58,
59,
63,
66,
67,
65,
67,
69,
73,
75,
75,
75,
76,
78,
80,
83,
82,
81,
82,
82,
83,
83,
83,
83,
83,
84,
88,
87,
83,
81,
82,
85,
85,
84,
81,
80,
80,
80,
80,
78,
74,
73,
75,
72,
70,
67,
66,
66,
65,
62,
61,
59,
57,
55,
55,
54,
50,
47,
44,
42,
40,
37,
37,
34,
28,
28,
28,
27,
20,
17,
13,
15,
15,
10,
4,
-1,
-2,
-2,
-2,
-8,
-15,
-17,
-14,
-15,
-19,
-27,
-30,
-27,
-26,
-31,
-36,
-41,
-41,
-41,
-43,
-46,
-52,
-55,
-53,
-53,
-54,
-58,
-62,
-63,
-62,
-63,
-65,
-67,
-70,
-71,
-70,
-69,
-72,
-78,
-79,
-77,
-75,
-77,
-79,
-81,
-81,
-79,
-77,
-80,
-84,
-84,
-82,
-79,
-78,
-84,
-83,
-82,
-79,
-81,
-80,
-80,
-79,
-76,
-76,
-74,
-75,
-73,
-71,
-69,
-70,
-69,
-67,
-65,
-63,
-63,
-62,
-61,
-57,
-56,
-55,
-54,
-52,
-47,
-45,
-44,
-42,
-40,
-37,
-35,
-31,
-31,
-27,
-26,
-23,
-21,
-20,
-16,
-16,
-12,
-9,
-5,
-3,
-1,
0,
4,
9,
12,
14,
14,
15,
19,
24,
26,
24,
25,
28,
34,
38,
37,
37,
39,
44,
48,
48,
47,
48,
52,
57,
58,
56,
53,
57,
63,
65,
63,
62,
64,
66,
69,
70,
68,
69,
69,
73,
73,
72,
71,
73,
73,
74,
75,
75,
73,
71,
71,
73,
75,
73,
70,
70,
69,
71,
68,
67,
64,
63,
65,
64,
60,
56,
55,
56,
57,
54,
51,
50,
48,
47,
45,
43,
42,
38,
36,
35,
33,
29,
28,
25,
22,
20,
20,
18,
14,
9,
7,
9,
7,
3,
-4,
-6,
-5,
-6,
-10,
-15,
-21,
-21,
-19,
-21,
-26,
-32,
-35,
-31,
-31,
-35,
-42,
-46,
-45,
-44,
-47,
-52,
-57,
-58,
-56,
-57,
-58,
-63,
-67,
-67,
-64,
-66,
-70,
-72,
-75,
-74,
-74,
-76,
-77,
-80,
-82,
-81,
-79,
-81,
-85,
-85,
-83,
-82,
-83,
-85,
-88,
-86,
-84,
-83,
-85,
-86,
-89,
-86,
-83,
-83,
-85,
-85,
-83,
-80,
-80,
-81,
-80,
-78,
-76,
-72,
-73,
-72,
-71,
-67,
-66,
-67,
-67,
-62,
-60,
-59,
-58,
-57,
-55,
-51,
-47,
-45,
-45,
-42,
-38,
-34,
-32,
-31,
-31,
-27,
-24,
-20,
-19,
-18,
-16,
-14,
-8,
-5,
-4,
-3,
0,
4,
7,
10,
11,
15,
16,
20,
25,
25,
26,
25,
31,
35,
38,
38,
37,
40,
45,
49,
50,
48,
51,
55,
59,
61,
57,
57,
58,
65,
68,
65,
63,
65,
70,
72,
71,
71,
69,
73,
76,
76,
74,
74,
73,
77,
78,
76,
76,
75,
75,
75,
77,
75,
75,
74,
73,
74,
75,
74,
71,
68,
68,
69,
69,
67,
63,
60,
61,
62,
61,
57,
56,
55,
55,
52,
50,
48,
46,
44,
42,
40,
39,
35,
31,
29,
29,
27,
25,
22,
17,
16,
17,
16,
13,
7,
2,
3,
3,
-1,
-7,
-12,
-12,
-10,
-12,
-17,
-23,
-25,
-25,
-23,
-27,
-33,
-38,
-37,
-37,
-40,
-47,
-48,
-48,
-48,
-49,
-55,
-60,
-61,
-60,
-59,
-61,
-64,
-68,
-68,
-69,
-70,
-73,
-75,
-76,
-76,
-77,
-76,
-79,
-82,
-84,
-84,
-80,
-81,
-84,
-85,
-85,
-83,
-83,
-86,
-88,
-88,
-86,
-84,
-84,
-86,
-87,
-85,
-81,
-82,
-83,
-82,
-80,
-78,
-79,
-78,
-77,
-73,
-71,
-70,
-71,
-70,
-67,
-64,
-62,
-63,
-63,
-61,
-57,
-53,
-53,
-53,
-49,
-44,
-40,
-37,
-40,
-38,
-35,
-29,
-27,
-26,
-27,
-24,
-21,
-16,
-12,
-13,
-10,
-8,
-2,
1,
3,
3,
3,
9,
14,
17,
16,
15,
19,
23,
28,
29,
27,
28,
35,
39,
42,
41,
41,
43,
49,
52,
53,
51,
51,
54,
59,
61,
60,
58,
61,
65,
68,
68,
66,
68,
70,
74,
73,
73,
70,
73,
75,
76,
75,
75,
75,
77,
78,
76,
77,
76,
77,
77,
77,
78,
78,
74,
73,
73,
74,
74,
72,
69,
67,
66,
67,
67,
64,
61,
61,
63,
61,
57,
54,
53,
54,
51,
48,
47,
43,
42,
40,
39,
38,
34,
31,
30,
28,
26,
27,
21,
18,
17,
15,
15,
11,
5,
1,
0,
2,
0,
-7,
-10,
-12,
-12,
-11,
-15,
-21,
-24,
-25,
-22,
-26,
-31,
-36,
-37,
-36,
-36,
-44,
-47,
-47,
-47,
-47,
-50,
-53,
-55,
-55,
-56,
-58,
-59,
-63,
-63,
-63,
-65,
-65,
-67,
-69,
-70,
-71,
-70,
-70,
-71,
-72,
-73,
-73,
-71,
-72,
-75,
-74,
-75,
-73,
-73,
-73,
-75,
-73,
-73,
-72,
-73,
-75,
-71,
-69,
-70,
-70,
-68,
-66,
-63,
-63,
-65,
-63,
-61,
-56,
-56,
-59,
-58,
-55,
-50,
-48,
-48,
-51,
-47,
-41,
-37,
-38,
-37,
-37,
-32,
-25,
-26,
-27,
-26,
-23,
-18,
-14,
-15,
-17,
-13,
-9,
-4,
0,
0,
0,
4,
7,
12,
13,
12,
13,
15,
22,
24,
25,
25,
25,
29,
37,
39,
36,
35,
39,
45,
48,
47,
45,
46,
50,
55,
56,
55,
54,
56,
61,
63,
62,
60,
61,
65,
67,
67,
65,
66,
67,
70,
69,
70,
69,
70,
70,
71,
70,
69,
70,
70,
69,
69,
69,
71,
69,
67,
66,
67,
66,
65,
62,
61,
60,
59,
58,
57,
55,
53,
53,
55,
51,
47,
45,
46,
46,
43,
38,
35,
35,
31,
31,
28,
24,
22,
20,
19,
18,
17,
12,
11,
8,
6,
5,
2,
-3,
-6,
-8,
-7,
-8,
-15,
-20,
-21,
-19,
-21,
-25,
-31,
-32,
-30,
-32,
-35,
-40,
-44,
-44,
-44,
-45,
-49,
-57,
-55,
-54,
-55,
-59,
-63,
-64,
-62,
-64,
-66,
-67,
-69,
-70,
-70,
-72,
-74,
-75,
-75,
-77,
-78,
-81,
-79,
-78,
-79,
-81,
-81,
-80,
-79,
-80,
-82,
-81,
-81,
-81,
-80,
-80,
-80,
-81,
-79,
-79,
-78,
-79,
-76,
-76,
-76,
-73,
-69,
-69,
-68,
-68,
-69,
-65,
-62,
-63,
-63,
-63,
-58,
-53,
-53,
-54,
-54,
-51,
-44,
-41,
-41,
-43,
-40,
-33,
-29,
-28,
-31,
-29,
-25,
-19,
-16,
-16,
-16,
-16,
-8,
-3,
-3,
-3,
-1,
4,
9,
12,
14,
14,
14,
17,
24,
26,
26,
26,
29,
35,
38,
40,
40,
39,
43,
48,
52,
52,
50,
52,
57,
62,
60,
59,
59,
62,
67,
68,
67,
67,
68,
73,
75,
75,
73,
73,
76,
78,
76,
75,
77,
79,
80,
81,
80,
80,
79,
78,
79,
80,
80,
79,
79,
77,
76,
77,
77,
75,
73,
71,
71,
71,
70,
65,
65,
65,
64,
65,
62,
59,
56,
57,
57,
56,
50,
46,
46,
44,
43,
40,
37,
35,
33,
29,
31,
27,
24,
20,
18,
18,
18,
13,
8,
5,
3,
2,
1,
-5,
-10,
-11,
-9,
-9,
-15,
-21,
-24,
-22,
-22,
-27,
-32,
-36,
-36,
-36,
-37,
-44,
-47,
-47,
-49,
-48,
-52,
-57,
-57,
-58,
-58,
-62,
-63,
-65,
-65,
-67,
-69,
-70,
-70,
-71,
-71,
-75,
-77,
-77,
-76,
-77,
-78,
-81,
-79,
-79,
-80,
-81,
-83,
-82,
-80,
-81,
-81,
-83,
-84,
-83,
-80,
-78,
-80,
-81,
-80,
-78,
-76,
-76,
-73,
-74,
-74,
-71,
-68,
-67,
-68,
-69,
-67,
-63,
-60,
-59,
-60,
-61,
-57,
-50,
-48,
-48,
-49,
-46,
-40,
-37,
-34,
-37,
-37,
-32,
-25,
-23,
-25,
-26,
-22,
-15,
-10,
-12,
-13,
-10,
-4,
2,
4,
3,
4,
7,
12,
15,
17,
17,
17,
20,
26,
28,
29,
30,
32,
35,
41,
44,
42,
43,
44,
50,
54,
54,
50,
51,
56,
60,
60,
59,
58,
61,
65,
67,
67,
66,
67,
69,
72,
72,
70,
69,
71,
74,
73,
71,
73,
72,
73,
73,
73,
74,
73,
73,
72,
71,
71,
71,
71,
67,
66,
66,
67,
66,
62,
60,
60,
61,
60,
57,
55,
52,
52,
53,
51,
48,
44,
42,
42,
42,
38,
32,
32,
34,
31,
31,
26,
23,
20,
17,
18,
18,
14,
8,
7,
5,
3,
1,
-4,
-7,
-9,
-10,
-9,
-14,
-19,
-21,
-21,
-20,
-25,
-33,
-34,
-34,
-32,
-36,
-41,
-45,
-45,
-45,
-46,
-49,
-54,
-56,
-55,
-56,
-59,
-62,
-62,
-63,
-63,
-67,
-68,
-69,
-69,
-71,
-73,
-73,
-74,
-73,
-74,
-73,
-78,
-80,
-75,
-76,
-78,
-81,
-79,
-75,
-75,
-77,
-79,
-79,
-78,
-76,
-76,
-77,
-76,
-77,
-74,
-72,
-71,
-71,
-70,
-69,
-67,
-63,
-64,
-64,
-65,
-63,
-59,
-57,
-55,
-57,
-55,
-51,
-47,
-46,
-46,
-45,
-42,
-35,
-31,
-32,
-34,
-34,
-25,
-21,
-20,
-22,
-22,
-18,
-11,
-7,
-7,
-7,
-6,
0,
5,
7,
6,
7,
11,
17,
19,
19,
18,
22,
25,
30,
31,
32,
32,
35,
39,
44,
44,
44,
46,
49,
53,
55,
56,
56,
56,
59,
64,
64,
61,
62,
66,
70,
70,
69,
67,
70,
73,
76,
75,
74,
74,
75,
77,
77,
75,
75,
77,
78,
76,
76,
75,
79,
77,
75,
75,
72,
73,
73,
72,
68,
68,
70,
74,
