5-grundlagen-opAmps/data/ALL0058/A0058CH1.CSV

Memory Length,4000,
Trigger Level,0.00000e+00,
Source,CH1,
Probe,1.0X,
Vertical Units,V,
Vertical Scale,5.00000e-02,
Vertical Position,0.00000e+00,
Horizontal Units,S,
Horizontal Scale,2.50000e-07,
Horizontal Position,0.0000000e+00,
Horizontal Mode,Main,
Sampling Period,2.00000e-09,
Firmware,V1.14,
Time, ,
Mode,Fast,
Waveform Data,
-42,
-42,
-46,
-42,
-36,
-37,
-44,
-49,
-49,
-45,
-41,
-42,
-51,
-56,
-52,
-45,
-44,
-50,
-57,
-58,
-51,
-46,
-48,
-54,
-60,
-58,
-49,
-47,
-52,
-59,
-60,
-52,
-46,
-48,
-57,
-59,
-54,
-47,
-45,
-48,
-54,
-55,
-50,
-42,
-44,
-48,
-49,
-46,
-41,
-40,
-43,
-42,
-42,
-39,
-36,
-35,
-35,
-35,
-34,
-31,
-28,
-28,
-27,
-27,
-25,
-24,
-20,
-18,
-18,
-20,
-20,
-11,
-8,
-11,
-10,
-10,
-6,
-2,
-1,
0,
-1,
0,
5,
7,
6,
8,
10,
11,
11,
14,
18,
21,
18,
16,
17,
23,
29,
27,
24,
22,
29,
34,
36,
31,
29,
32,
40,
43,
37,
32,
36,
43,
46,
43,
39,
37,
43,
48,
49,
44,
40,
42,
48,
50,
46,
43,
44,
47,
48,
48,
49,
45,
44,
43,
45,
50,
47,
41,
40,
41,
45,
46,
42,
38,
37,
40,
41,
40,
34,
32,
35,
37,
35,
30,
28,
29,
29,
27,
24,
23,
21,
20,
19,
19,
17,
18,
15,
12,
9,
9,
12,
8,
1,
-2,
0,
4,
3,
-4,
-12,
-10,
-3,
-3,
-8,
-17,
-20,
-16,
-12,
-12,
-22,
-28,
-27,
-23,
-20,
-26,
-34,
-35,
-32,
-30,
-29,
-35,
-41,
-43,
-40,
-35,
-37,
-44,
-48,
-48,
-42,
-39,
-45,
-50,
-54,
-51,
-43,
-44,
-52,
-61,
-58,
-48,
-44,
-50,
-59,
-61,
-55,
-48,
-48,
-55,
-61,
-58,
-51,
-46,
-52,
-58,
-59,
-53,
-47,
-48,
-52,
-53,
-53,
-48,
-45,
-45,
-50,
-50,
-48,
-43,
-41,
-44,
-44,
-42,
-39,
-36,
-36,
-37,
-38,
-36,
-32,
-29,
-28,
-30,
-28,
-27,
-23,
-21,
-20,
-19,
-18,
-19,
-15,
-12,
-10,
-11,
-11,
-8,
-6,
-2,
0,
-1,
-1,
0,
5,
8,
7,
8,
7,
11,
14,
16,
17,
17,
17,
18,
23,
25,
25,
24,
24,
28,
34,
33,
29,
27,
32,
38,
41,
39,
33,
33,
40,
45,
45,
36,
36,
41,
47,
47,
43,
41,
41,
47,
53,
48,
44,
41,
46,
49,
49,
48,
44,
45,
45,
46,
48,
47,
46,
41,
42,
45,
45,
44,
39,
39,
39,
41,
41,
36,
33,
34,
36,
37,
33,
28,
27,
31,
31,
27,
24,
20,
21,
23,
20,
20,
15,
15,
14,
10,
11,
11,
10,
6,
0,
0,
5,
6,
-3,
-9,
-9,
-5,
1,
-6,
-16,
-18,
-15,
-8,
-12,
-19,
-27,
-26,
-16,
-16,
-25,
-34,
-35,
-28,
-25,
-29,
-37,
-40,
-38,
-35,
-35,
-38,
-45,
-47,
-44,
-39,
-40,
-46,
-52,
-51,
-46,
-44,
-44,
-50,
-56,
-56,
-49,
-42,
-50,
-58,
-60,
-53,
-45,
-48,
-57,
-62,
-57,
-50,
-48,
-50,
-59,
-58,
-50,
-46,
-49,
-55,
-55,
-50,
-46,
-47,
-50,
-51,
-49,
-45,
-42,
-44,
-45,
-45,
-42,
-40,
-39,
-40,
-38,
-36,
-36,
-35,
-32,
-27,
-29,
-30,
-28,
-27,
-22,
-21,
-21,
-19,
-20,
-18,
-13,
-12,
-11,
-12,
-11,
-8,
-5,
-3,
-2,
-3,
-1,
1,
6,
9,
6,
4,
7,
13,
17,
15,
13,
14,
19,
23,
24,
22,
18,
23,
29,
33,
31,
27,
25,
31,
39,
39,
37,
31,
34,
40,
44,
44,
37,
35,
40,
47,
47,
44,
40,
40,
47,
50,
49,
45,
42,
43,
49,
52,
47,
44,
43,
46,
49,
47,
45,
44,
43,
44,
45,
45,
42,
40,
40,
44,
42,
40,
38,
34,
37,
37,
39,
35,
29,
27,
28,
32,
32,
26,
21,
21,
23,
25,
22,
18,
13,
14,
16,
15,
12,
8,
5,
5,
5,
5,
5,
-1,
-6,
-6,
-2,
0,
-7,
-15,
-16,
-13,
-7,
-11,
-21,
-27,
-22,
-17,
-16,
-24,
-34,
-34,
-27,
-23,
-27,
-39,
-42,
-36,
-29,
-31,
-40,
-45,
-44,
-40,
-38,
-40,
-48,
-52,
-48,
-44,
-44,
-48,
-52,
-52,
-51,
-49,
-48,
-49,
-55,
-59,
-53,
-49,
-49,
-55,
-60,
-57,
-50,
-48,
-52,
-56,
-57,
-52,
-47,
-49,
-55,
-58,
-52,
-44,
-45,
-52,
-55,
-51,
-44,
-43,
-47,
-47,
-45,
-42,
-40,
-42,
-41,
-39,
-36,
-35,
-38,
-36,
-32,
-28,
-27,
-31,
-29,
-24,
-20,
-21,
-25,
-24,
-19,
-14,
-12,
-13,
-15,
-13,
-8,
-5,
-6,
-6,
-4,
-1,
1,
2,
5,
5,
5,
6,
12,
15,
13,
11,
12,
17,
25,
25,
20,
17,
19,
29,
35,
28,
25,
24,
29,
40,
39,
32,
28,
33,
43,
44,
40,
35,
36,
40,
48,
48,
41,
38,
43,
48,
48,
46,
44,
45,
46,
48,
50,
48,
45,
44,
45,
48,
47,
44,
44,
44,
46,
46,
45,
43,
39,
40,
43,
46,
41,
36,
36,
37,
40,
38,
36,
33,
30,
31,
32,
31,
29,
24,
23,
24,
26,
24,
18,
16,
15,
17,
17,
15,
10,
6,
7,
9,
7,
4,
-2,
-3,
-1,
0,
-1,
-6,
-12,
-14,
-8,
-8,
-12,
-20,
-24,
-20,
-16,
-17,
-25,
-31,
-31,
-24,
-20,
-25,
-36,
-41,
-36,
-29,
-28,
-40,
-47,
-44,
-39,
-36,
-41,
-48,
-50,
-46,
-42,
-43,
-49,
-54,
-52,
-47,
-47,
-50,
-54,
-55,
-53,
-51,
-50,
-52,
-55,
-58,
-56,
-52,
-51,
-54,
-57,
-56,
-52,
-49,
-52,
-53,
-55,
-53,
-49,
-45,
-50,
-54,
-51,
-47,
-43,
-47,
-48,
-45,
-43,
-43,
-43,
-42,
-39,
-37,
-37,
-38,
-39,
-34,
-30,
-29,
-31,
-34,
-27,
-20,
-19,
-24,
-27,
-23,
-15,
-12,
-15,
-17,
-15,
-10,
-4,
-5,
-10,
-9,
-2,
3,
3,
1,
0,
3,
7,
11,
12,
10,
9,
10,
16,
21,
22,
19,
17,
20,
27,
30,
28,
23,
22,
29,
39,
37,
31,
27,
31,
41,
45,
40,
34,
35,
43,
48,
48,
40,
37,
42,
50,
51,
43,
40,
44,
47,
49,
47,
44,
44,
45,
46,
48,
47,
45,
43,
43,
47,
47,
46,
43,
40,
41,
43,
46,
44,
37,
34,
37,
42,
40,
35,
30,
31,
34,
34,
31,
28,
26,
26,
25,
26,
22,
19,
17,
18,
19,
17,
15,
12,
7,
7,
9,
11,
5,
0,
-2,
1,
4,
-1,
-7,
-12,
-10,
-5,
-4,
-11,
-20,
-22,
-16,
-13,
-15,
-25,
-32,
-27,
-22,
-22,
-28,
-34,
-37,
-34,
-28,
-32,
-40,
-44,
-41,
-36,
-35,
-42,
-48,
-48,
-44,
-43,
-45,
-48,
-52,
-50,
-46,
-45,
-50,
-54,
-55,
-52,
-49,
-51,
-53,
-55,
-55,
-53,
-52,
-51,
-55,
-57,
-54,
-52,
-51,
-52,
-53,
-54,
-53,
-50,
-48,
-49,
-51,
-51,
-50,
-47,
-46,
-46,
-47,
-44,
-43,
-44,
-41,
-41,
-38,
-39,
-40,
-38,
-35,
-30,
-32,
-32,
-32,
-29,
-24,
-21,
-25,
-28,
-25,
-15,
-13,
-16,
-20,
-18,
-9,
-3,
-5,
-13,
-12,
-5,
4,
6,
-1,
-5,
0,
9,
14,
10,
6,
6,
12,
19,
20,
18,
15,
15,
21,
25,
28,
25,
23,
24,
30,
34,
35,
29,
28,
32,
40,
43,
38,
32,
35,
41,
47,
45,
38,
36,
42,
48,
49,
44,
38,
41,
49,
53,
47,
41,
42,
48,
49,
48,
45,
45,
44,
46,
45,
47,
45,
44,
42,
43,
43,
45,
44,
41,
37,
36,
41,
41,
37,
32,
29,
35,
36,
34,
28,
24,
29,
30,
29,
24,
19,
19,
20,
20,
18,
14,
11,
12,
12,
12,
10,
6,
1,
-1,
3,
4,
1,
-6,
-12,
-9,
-4,
-4,
-9,
-18,
-20,
-15,
-10,
-13,
-23,
-28,
-24,
-19,
-19,
-28,
-35,
-34,
-28,
-27,
-32,
-38,
-42,
-38,
-34,
-34,
-43,
-48,
-46,
-43,
-41,
-45,
-49,
-49,
-49,
-46,
-48,
-48,
-52,
-54,
-52,
-51,
-50,
-53,
-54,
-53,
-53,
-53,
-53,
-55,
-55,
-56,
-52,
-52,
-52,
-54,
-55,
-53,
-51,
-51,
-51,
-50,
-49,
-50,
-50,
-48,
-46,
-45,
-45,
-46,
-45,
-44,
-41,
-39,
-40,
-42,
-39,
-33,
-32,
-34,
-36,
-35,
-28,
-26,
-26,
-30,
-28,
-23,
-16,
-15,
-19,
-23,
-19,
-11,
-6,
-8,
-14,
-13,
-7,
1,
3,
0,
-7,
-4,
7,
14,
9,
2,
4,
11,
19,
19,
14,
12,
15,
21,
27,
24,
19,
20,
25,
33,
34,
31,
27,
28,
35,
38,
40,
36,
32,
35,
43,
47,
43,
36,
36,
41,
47,
48,
43,
39,
40,
48,
52,
49,
41,
40,
48,
50,
49,
45,
42,
45,
48,
48,
47,
44,
44,
44,
44,
43,
42,
43,
43,
41,
38,
39,
40,
39,
35,
33,
36,
40,
35,
29,
24,
27,
32,
32,
25,
20,
18,
23,
25,
22,
13,
9,
13,
16,
14,
9,
4,
4,
5,
5,
5,
1,
-4,
-7,
-8,
-4,
-4,
-8,
-13,
-16,
-15,
-12,
-14,
-19,
-26,
-25,
-19,
-17,
-27,
-34,
-32,
-28,
-24,
-31,
-40,
-41,
-36,
-32,
-34,
-43,
-47,
-45,
-41,
-38,
-45,
-49,
-49,
-47,
-44,
-48,
-51,
-49,
-50,
-51,
-52,
-51,
-51,
-53,
-53,
-55,
-52,
-52,
-53,
-53,
-56,
-56,
-53,
-51,
-52,
-55,
-55,
-53,
-51,
-51,
-52,
-51,
-50,
-50,
-49,
-48,
-47,
-46,
-48,
-45,
-43,
-42,
-43,
-43,
-42,
-38,
-34,
-34,
-38,
-40,
-36,
-27,
-24,
-29,
-34,
-32,
-21,
-16,
-16,
-23,
-25,
-19,
-9,
-5,
-12,
-16,
-15,
-5,
1,
-1,
-5,
-7,
-1,
6,
10,
7,
1,
3,
11,
18,
17,
11,
11,
15,
25,
26,
24,
18,
18,
25,
33,
33,
28,
23,
26,
35,
41,
37,
30,
31,
36,
41,
45,
41,
36,
37,
43,
48,
44,
41,
40,
44,
48,
49,
48,
44,
43,
46,
49,
50,
44,
43,
44,
48,
48,
45,
44,
44,
45,
46,
44,
44,
42,
41,
42,
43,
41,
39,
39,
37,
35,
35,
37,
38,
31,
27,
28,
32,
33,
28,
20,
20,
23,
25,
24,
16,
12,
13,
16,
17,
11,
5,
5,
7,
7,
4,
0,
-3,
-3,
-3,
-2,
-4,
-9,
-13,
-12,
-11,
-11,
-15,
-19,
-23,
-21,
-19,
-20,
-26,
-31,
-32,
-27,
-24,
-29,
-38,
-41,
-36,
-30,
-33,
-40,
-44,
-44,
-40,
-39,
-42,
-49,
-48,
-45,
-43,
-46,
-51,
-52,
-48,
-47,
-50,
-53,
-52,
-51,
-52,
-55,
-55,
-52,
-51,
-52,
-56,
-56,
-54,
-51,
-49,
-55,
-57,
-53,
-50,
-49,
-52,
-55,
-51,
-47,
-47,
-48,
-49,
-50,
-47,
-43,
-43,
-44,
-46,
-45,
-42,
-38,
-36,
-36,
-38,
-40,
-35,
-29,
-26,
-29,
-35,
-34,
-24,
-17,
-18,
-26,
-29,
-18,
-10,
-8,
-14,
-21,
-17,
-4,
3,
-6,
-13,
-10,
0,
7,
6,
2,
-3,
5,
12,
16,
13,
7,
8,
17,
23,
21,
19,
17,
19,
26,
30,
30,
24,
25,
27,
36,
40,
35,
31,
30,
36,
42,
42,
39,
35,
37,
43,
48,
45,
38,
38,
45,
49,
47,
43,
40,
46,
47,
48,
45,
44,
45,
46,
49,
49,
45,
44,
44,
46,
45,
45,
45,
44,
41,
39,
40,
44,
42,
38,
36,
36,
38,
39,
38,
32,
29,
30,
32,
35,
29,
24,
22,
23,
27,
24,
19,
15,
14,
17,
17,
15,
8,
5,
9,
11,
8,
1,
-3,
-2,
1,
0,
-5,
-8,
-10,
-11,
-8,
-8,
-15,
-20,
-20,
-18,
-16,
-19,
-25,
-28,
-29,
-26,
-24,
-29,
-32,
-39,
-37,
-31,
-32,
-38,
-41,
-44,
-40,
-39,
-42,
-45,
-48,
-47,
-45,
-45,
-47,
-51,
-48,
-48,
-49,
-52,
-52,
-52,
-51,
-52,
-55,
-52,
-52,
-54,
-55,
-56,
-53,
-53,
-51,
-54,
-57,
-56,
-52,
-48,
-51,
-57,
-55,
-48,
-44,
-47,
-52,
-53,
-50,
-44,
-42,
-44,
-48,
-48,
-41,
-37,
-38,
-40,
-41,
-38,
-32,
-31,
-30,
-31,
-34,
-31,
-26,
-20,
-21,
-28,
-28,
-20,
-13,
-12,
-17,
-23,
-17,
-6,
0,
-4,
-15,
-14,
-1,
9,
5,
-4,
-6,
1,
14,
16,
9,
4,
7,
16,
23,
20,
14,
14,
20,
26,
28,
26,
23,
27,
30,
32,
35,
33,
32,
31,
36,
40,
41,
38,
37,
37,
42,
45,
44,
40,
37,
42,
49,
50,
43,
40,
43,
49,
48,
45,
43,
44,
48,
49,
47,
46,
44,
45,
47,
45,
44,
44,
45,
44,
41,
39,
43,
46,
42,
34,
35,
39,
42,
38,
32,
29,
31,
34,
35,
29,
22,
23,
27,
29,
25,
17,
15,
18,
20,
18,
12,
10,
9,
10,
12,
9,
3,
-1,
-1,
3,
3,
-3,
-7,
-11,
-9,
-7,
-7,
-12,
-18,
-21,
-16,
-15,
-17,
-24,
-29,
-26,
-22,
-23,
-28,
-33,
-35,
-33,
-29,
-32,
-38,
-42,
-41,
-37,
-39,
-42,
-44,
-47,
-44,
-44,
-46,
-47,
-51,
-50,
-48,
-48,
-49,
-52,
-53,
-53,
-52,
-51,
-51,
-53,
-54,
-55,
-56,
-52,
-51,
-54,
-55,
-56,
-53,
-50,
-51,
-52,
-56,
-55,
-49,
-44,
-46,
-53,
-56,
-48,
-42,
-42,
-46,
-50,
-47,
-43,
-38,
-37,
-43,
-44,
-40,
-31,
-30,
-35,
-37,
-35,
-28,
-25,
-22,
-27,
-29,
-26,
-19,
-13,
-17,
-22,
-24,
-15,
-6,
-4,
-8,
-13,
-12,
-2,
5,
5,
-4,
-8,
0,
11,
14,
6,
3,
5,
17,
21,
17,
14,
12,
18,
27,
28,
21,
19,
25,
31,
34,
30,
27,
29,
35,
37,
38,
36,
35,
36,
39,
42,
42,
41,
41,
40,
42,
45,
48,
47,
42,
42,
47,
50,
46,
44,
43,
46,
49,
48,
45,
45,
45,
46,
45,
45,
45,
45,
44,
42,
40,
41,
44,
45,
38,
34,
37,
43,
41,
34,
28,
31,
36,
37,
29,
24,
23,
29,
30,
27,
18,
14,
19,
24,
21,
12,
9,
11,
14,
13,
9,
4,
0,
3,
5,
3,
-2,
-5,
-8,
-7,
-6,
-7,
-9,
-15,
-17,
-17,
-14,
-13,
-20,
-26,
-26,
-24,
-22,
-27,
-33,
-32,
-30,
-29,
-32,
-36,
-42,
-40,
-35,
-36,
-42,
-46,
-46,
-43,
-43,
-45,
-48,
-49,
-49,
-49,
-48,
-48,
-51,
-52,
-53,
-53,
-51,
-50,
-52,
-55,
-56,
-56,
-51,
-50,
-54,
-59,
-58,
-52,
-49,
-50,
-56,
-58,
-53,
-48,
-48,
-49,
-54,
-55,
-49,
-44,
-45,
-48,
-51,
-47,
-41,
-39,
-40,
-45,
-45,
-40,
-33,
-31,
-38,
-40,
-37,
-28,
-23,
-26,
-32,
-32,
-26,
-18,
-15,
-19,
-24,
-23,
-16,
-6,
-8,
-14,
-15,
-9,
-1,
1,
0,
-5,
-6,
1,
9,
11,
4,
2,
7,
15,
19,
14,
11,
11,
18,
24,
25,
19,
18,
24,
29,
34,
29,
26,
28,
32,
37,
35,
35,
35,
37,
39,
41,
42,
41,
40,
42,
43,
42,
44,
47,
45,
43,
43,
45,
49,
46,
43,
45,
48,
47,
46,
47,
46,
45,
46,
46,
47,
45,
43,
43,
44,
43,
43,
43,
41,
37,
38,
40,
40,
36,
32,
32,
37,
37,
32,
24,
24,
31,
34,
29,
19,
13,
18,
25,
25,
14,
7,
10,
17,
18,
10,
3,
1,
5,
7,
6,
-1,
-6,
-5,
-4,
-2,
-7,
-11,
-13,
-12,
-13,
-15,
-19,
-19,
-22,
-23,
-20,
-20,
-25,
-30,
-32,
-31,
-27,
-29,
-36,
-41,
-39,
-36,
-34,
-38,
-46,
-46,
-44,
-39,
-42,
-48,
-51,
-49,
-45,
-46,
-50,
-50,
-51,
-53,
-52,
-51,
-51,
-51,
-55,
-55,
-54,
-53,
-49,
-52,
-58,
-59,
-52,
-48,
-50,
-57,
-59,
-55,
-46,
-47,
-52,
-55,
-53,
-47,
-44,
-45,
-52,
-53,
-47,
-39,
-40,
-45,
-48,
-44,
-38,
-34,
-36,
-39,
-40,
-37,
-30,
-26,
-28,
-34,
-35,
-27,
-19,
-17,
-20,
-27,
-22,
-15,
-9,
-9,
-17,
-18,
-11,
-2,
0,
-5,
-8,
-4,
3,
6,
7,
1,
1,
7,
14,
17,
11,
7,
13,
19,
25,
22,
18,
19,
23,
29,
28,
27,
26,
27,
35,
34,
36,
33,
34,
37,
38,
38,
40,
41,
41,
40,
42,
43,
43,
43,
44,
46,
44,
45,
47,
48,
45,
44,
45,
47,
48,
46,
45,
45,
45,
45,
48,
46,
43,
42,
45,
47,
43,
40,
40,
41,
43,
42,
39,
35,
33,
36,
38,
38,
31,
26,
27,
31,
34,
29,
21,
17,
21,
28,
26,
19,
9,
10,
18,
19,
13,
5,
2,
6,
11,
8,
-2,
-4,
-4,
0,
1,
-5,
-12,
-14,
-11,
-8,
-12,
-18,
-20,
-20,
-19,
-20,
-21,
-24,
-29,
-29,
-28,
-27,
-28,
-35,
-39,
-37,
-34,
-34,
-37,
-42,
-46,
-43,
-39,
-40,
-46,
-50,
-50,
-44,
-43,
-47,
-52,
-51,
-50,
-50,
-51,
-52,
-53,
-54,
-55,
-53,
-52,
-53,
-53,
-55,
-57,
-54,
-50,
-49,
-55,
-59,
-55,
-49,
-47,
-54,
-59,
-55,
-46,
-42,
-47,
-53,
-53,
-47,
-39,
-39,
-47,
-51,
-46,
-36,
-32,
-37,
-42,
-41,
-33,
-29,
-29,
-32,
-32,
-30,
-27,
-23,
-22,
-24,
-25,
-21,
-15,
-14,
-13,
-15,
-16,
-12,
-5,
-2,
-6,
-11,
-7,
1,
8,
3,
-3,
0,
6,
14,
15,
9,
6,
10,
19,
23,
18,
15,
18,
24,
28,
27,
24,
24,
30,
31,
30,
33,
33,
35,
37,
36,
35,
37,
40,
43,
39,
38,
42,
44,
45,
43,
42,
45,
44,
46,
48,
45,
45,
44,
48,
50,
46,
44,
44,
45,
48,
48,
47,
44,
44,
46,
48,
47,
41,
37,
40,
46,
45,
38,
35,
34,
38,
42,
40,
32,
26,
29,
35,
36,
28,
20,
21,
23,
28,
25,
17,
13,
15,
19,
20,
14,
5,
2,
9,
13,
9,
0,
-5,
-2,
2,
1,
-4,
-11,
-12,
-9,
-5,
-9,
-17,
-21,
-21,
-16,
-16,
-21,
-26,
-28,
-27,
-25,
-28,
-27,
-32,
-36,
-34,
-35,
-32,
-38,
-39,
-43,
-41,
-40,
-41,
-43,
-47,
-48,
-46,
-44,
-45,
-51,
-52,
-49,
-47,
-48,
-52,
-54,
-54,
-54,
-50,
-50,
-54,
-57,
-56,
-53,
-52,
-52,
-54,
-54,
-55,
-54,
-49,
-49,
-54,
-57,
-56,
-47,
-44,
-46,
-53,
-55,
-46,
-41,
-40,
-48,
-51,
-47,
-37,
-33,
-40,
-45,
-44,
-35,
-27,
-33,
-37,
-35,
-29,
-24,
-26,
-26,
-28,
-26,
-19,
-16,
-17,
-19,
-18,
-16,
-12,
-8,
-7,
-7,
-10,
-8,
-1,
4,
3,
-2,
0,
5,
10,
11,
9,
6,
10,
15,
21,
19,
14,
16,
22,
26,
23,
23,
23,
29,
31,
29,
29,
31,
36,
37,
36,
35,
35,
40,
43,
40,
36,
39,
44,
46,
43,
39,
43,
47,
48,
46,
42,
42,
47,
50,
49,
45,
42,
44,
50,
51,
46,
42,
43,
45,
47,
46,
44,
41,
39,
42,
45,
46,
40,
34,
32,
40,
43,
40,
34,
27,
31,
36,
37,
29,
19,
21,
28,
32,
25,
16,
12,
19,
23,
20,
12,
5,
6,
13,
15,
9,
0,
-3,
1,
6,
2,
-4,
-9,
-10,
-7,
-5,
-8,
-13,
-19,
-17,
-15,
-15,
-19,
-24,
-25,
-24,
-23,
-26,
-32,
-32,
-32,
-33,
-29,
-34,
-38,
-42,
-40,
-37,
-39,
-42,
-46,
-46,
-45,
-46,
-45,
-46,
-50,
-52,
-51,
-47,
-49,
-51,
-55,
-54,
-52,
-52,
-49,
-53,
-57,
-57,
-55,
-50,
-52,
-56,
-57,
-55,
-51,
-50,
-51,
-54,
-56,
-53,
-48,
-45,
-49,
-54,
-53,
-48,
-41,
-43,
-47,
-49,
-46,
-40,
-37,
-41,
-46,
-45,
-36,
-30,
-32,
-39,
-39,
-33,
-23,
-24,
-28,
-31,
-28,
-21,
-16,
-17,
-21,
-23,
-16,
-10,
-10,
-12,
-11,
-9,
-6,
-3,
-1,
0,
0,
-1,
3,
6,
9,
8,
8,
9,
12,
17,
17,
17,
17,
18,
23,
24,
22,
24,
27,
31,
30,
29,
28,
32,
37,
34,
35,
36,
38,
40,
40,
37,
38,
43,
46,
44,
38,
39,
48,
52,
46,
40,
38,
45,
53,
50,
44,
41,
44,
50,
54,
48,
39,
41,
48,
53,
48,
41,
40,
41,
45,
46,
44,
39,
36,
38,
41,
43,
38,
32,
31,
33,
37,
35,
28,
23,
25,
30,
34,
27,
17,
14,
19,
27,
25,
12,
4,
9,
15,
18,
11,
-1,
-2,
3,
9,
4,
-5,
-9,
-6,
-2,
-4,
-9,
-14,
-15,
-14,
-14,
-16,
-19,
-21,
-23,
-24,
-24,
-24,
-28,
-31,
-31,
-32,
-30,
-32,
-35,
-40,
-41,
-38,
-36,
-41,
-45,
-46,
-43,
-43,
-44,
-48,
-50,
-50,
-48,
-46,
-47,
-51,
-54,
-55,
-52,
-50,
-51,
-52,
-56,
-55,
-54,
-51,
-49,
-54,
-57,
-57,
-51,
-49,
-51,
-56,
-58,
-52,
-48,
-47,
-49,
-55,
-54,
-46,
-44,
-46,
-50,
-51,
-44,
-39,
-40,
-44,
-45,
-42,
-37,
-34,
-35,
-40,
-40,
-32,
-28,
-25,
-29,
-32,
-29,
-22,
-20,
-19,
-21,
-21,
-18,
-13,
-10,
-11,
-13,
-12,
-8,
-4,
-4,
-3,
-3,
0,
2,
5,
6,
6,
7,
10,
12,
14,
14,
16,
15,
17,
20,
23,
23,
22,
25,
27,
27,
30,
30,
29,
32,
34,
34,
37,
37,
37,
36,
39,
41,
44,
43,
41,
40,
41,
45,
51,
48,
40,
39,
44,
52,
50,
42,
39,
44,
52,
54,
48,
40,
41,
47,
55,
51,
39,
35,
41,
50,
48,
41,
36,
37,
43,
44,
41,
35,
33,
34,
40,
40,
34,
28,
23,
28,
32,
31,
27,
20,
17,
20,
25,
24,
14,
6,
12,
16,
19,
11,
0,
0,
6,
10,
7,
-3,
-8,
-4,
3,
-1,
-9,
-16,
-14,
-9,
-10,
-15,
-20,
-22,
-19,
-20,
-24,
-24,
-27,
-28,
-28,
-29,
-30,
-33,
-35,
-36,
-39,
-40,
-37,
-36,
-43,
-47,
-46,
-41,
-39,
-46,
-51,
-50,
-47,
-46,
-48,
-49,
-54,
-53,
-50,
-50,
-51,
-55,
-55,
-53,
-53,
-53,
-52,
-54,
-55,
-56,
-53,
-51,
-51,
-56,
-58,
-52,
-49,
-48,
-52,
-55,
-51,
-47,
-43,
-47,
-54,
-53,
-45,
-37,
-41,
-47,
-50,
-43,
-35,
-34,
-37,
-41,
-39,
-34,
-29,
-28,
-30,
-32,
-29,
-24,
-21,
-22,
-22,
-21,
-19,
-16,
-15,
-12,
-11,
-13,
-10,
-6,
-4,
-5,
-4,
-1,
1,
4,
7,
4,
5,
6,
11,
14,
13,
13,
14,
17,
20,
20,
22,
23,
22,
23,
28,
28,
31,
29,
27,
31,
34,
38,
39,
35,
33,
35,
41,
45,
42,
38,
37,
44,
47,
47,
44,
40,
42,
47,
51,
49,
42,
39,
48,
50,
52,
45,
39,
43,
49,
52,
49,
40,
38,
43,
51,
51,
41,
34,
37,
45,
47,
42,
32,
30,
36,
41,
42,
32,
28,
26,
29,
36,
31,
22,
20,
20,
26,
26,
23,
16,
11,
15,
18,
18,
10,
5,
5,
8,
10,
5,
-3,
-5,
-1,
1,
0,
-5,
-14,
-14,
-8,
-7,
-12,
-20,
-24,
-17,
-16,
-20,
-26,
-28,
-26,
-26,
-27,
-31,
-31,
-34,
-36,
-37,
-38,
-37,
-36,
-38,
-44,
-46,
-43,
-40,
-43,
-48,
-52,
-48,
-45,
-45,
-48,
-53,
-52,
-50,
-48,
-50,
-54,
-55,
-52,
-50,
-52,
-56,
-55,
-55,
-53,
-54,
-53,
-54,
-53,
-55,
-53,
-50,
-50,
-52,
-57,
-53,
-47,
-45,
-46,
-52,
-53,
-48,
-40,
-38,
-46,
-50,
-46,
-36,
-31,
-38,
-43,
-41,
-32,
-28,
-31,
-35,
-33,
-29,
-25,
-24,
-27,
-26,
-21,
-16,
-17,
-18,
-16,
-15,
-11,
-13,
-10,
-7,
-6,
-5,
-5,
-3,
1,
3,
5,
2,
3,
6,
13,
15,
11,
10,
13,
19,
22,
21,
19,
20,
22,
27,
29,
28,
29,
27,
29,
34,
35,
35,
36,
33,
35,
39,
44,
43,
36,
36,
43,
48,
47,
40,
39,
43,
49,
51,
44,
39,
40,
48,
54,
51,
42,
38,
44,
52,
52,
45,
39,
38,
46,
50,
48,
40,
35,
38,
45,
49,
41,
33,
32,
37,
43,
40,
35,
29,
29,
33,
36,
31,
23,
20,
24,
28,
26,
20,
16,
16,
19,
19,
15,
9,
6,
8,
12,
11,
4,
-1,
-3,
0,
2,
0,
-6,
-10,
-10,
-8,
-8,
-11,
-17,
-18,
-17,
-16,
-18,
-22,
-26,
-24,
-25,
-26,
-29,
-30,
-31,
-34,
-34,
-36,
-36,
-37,
-38,
-41,
-43,
-43,
-42,
-42,
-46,
-50,
-48,
-45,
-43,
-48,
-53,
-52,
-49,
-46,
-51,
-55,
-55,
-55,
-49,
-49,
-54,
-57,
-58,
-53,
-51,
-53,
-55,
-56,
-54,
-51,
-50,
-52,
-54,
-56,
-53,
-47,
-46,
-49,
-52,
-52,
-48,
-42,
-41,
-44,
-49,
-47,
-41,
-34,
-38,
-44,
-42,
-36,
-29,
-30,
-36,
-36,
-30,
-24,
-22,
-28,
-28,
-26,
-20,
-15,
-18,
-21,
-17,
-12,
-10,
-11,
-10,
-8,
-4,
-6,
-4,
0,
3,
4,
4,
1,
5,
10,
14,
12,
7,
9,
16,
23,
22,
16,
16,
20,
28,
29,
25,
23,
26,
30,
35,
34,
33,
32,
35,
37,
39,
38,
39,
37,
37,
41,
45,
45,
39,
36,
43,
51,
51,
44,
39,
40,
48,
53,
50,
41,
38,
44,
54,
53,
43,
36,
41,
50,
54,
45,
38,
36,
43,
48,
48,
41,
35,
35,
40,
44,
38,
32,
31,
32,
36,
34,
30,
25,
23,
27,
30,
28,
20,
14,
16,
20,
21,
17,
10,
8,
11,
14,
12,
5,
1,
0,
4,
5,
-1,
-7,
-8,
-7,
-5,
-10,
-11,
-13,
-15,
-15,
-16,
-18,
-21,
-21,
-21,
-25,
-27,
-29,
-28,
-27,
-31,
-35,
-36,
-29,
