5-grundlagen-opAmps/data/ALL0013/A0013CH2.CSV

Memory Length,4000,
Trigger Level,0.00000e+00,
Source,CH2,
Probe,1.0X,
Vertical Units,V,
Vertical Scale,1.00000e-01,
Vertical Position,0.00000e+00,
Horizontal Units,S,
Horizontal Scale,1.00000e-06,
Horizontal Position,1.0000000e-06,
Horizontal Mode,Main,
Sampling Period,4.00000e-09,
Firmware,V1.14,
Time, ,
Mode,Fast,
Waveform Data,
-19,
-19,
-19,
-15,
-15,
-13,
-13,
-13,
-8,
-9,
-7,
-5,
-6,
-1,
-3,
-1,
2,
1,
4,
4,
5,
7,
6,
9,
10,
11,
12,
14,
16,
17,
18,
17,
20,
22,
20,
26,
24,
26,
27,
26,
29,
29,
29,
33,
31,
34,
34,
35,
37,
38,
39,
39,
40,
42,
41,
42,
44,
45,
46,
47,
46,
48,
50,
49,
51,
51,
50,
55,
53,
55,
57,
54,
58,
60,
57,
61,
60,
61,
64,
62,
63,
64,
63,
65,
66,
64,
66,
67,
66,
69,
66,
68,
70,
67,
69,
71,
68,
71,
70,
71,
71,
70,
70,
71,
70,
71,
70,
70,
70,
71,
70,
70,
70,
71,
69,
71,
69,
69,
70,
68,
69,
70,
67,
69,
66,
67,
66,
65,
65,
65,
65,
63,
64,
62,
61,
63,
60,
61,
59,
59,
59,
56,
57,
55,
52,
55,
51,
51,
50,
49,
49,
47,
47,
46,
44,
45,
42,
41,
42,
40,
39,
39,
37,
35,
35,
33,
33,
33,
29,
32,
28,
27,
28,
23,
24,
26,
19,
22,
19,
18,
20,
14,
15,
14,
11,
11,
10,
8,
7,
7,
3,
3,
2,
0,
1,
-2,
-4,
-5,
-8,
-6,
-8,
-10,
-11,
-13,
-14,
-16,
-16,
-18,
-19,
-19,
-22,
-23,
-22,
-26,
-26,
-26,
-29,
-31,
-30,
-33,
-32,
-35,
-35,
-37,
-39,
-39,
-40,
-42,
-42,
-44,
-45,
-45,
-45,
-47,
-48,
-49,
-51,
-50,
-52,
-52,
-53,
-55,
-55,
-57,
-58,
-58,
-59,
-60,
-60,
-61,
-62,
-64,
-62,
-65,
-64,
-63,
-66,
-65,
-67,
-69,
-65,
-69,
-68,
-68,
-70,
-69,
-70,
-70,
-70,
-69,
-72,
-71,
-71,
-73,
-70,
-73,
-74,
-70,
-75,
-71,
-72,
-73,
-70,
-74,
-73,
-71,
-74,
-72,
-72,
-72,
-72,
-71,
-71,
-72,
-71,
-72,
-70,
-69,
-70,
-68,
-70,
-69,
-69,
-69,
-67,
-69,
-66,
-67,
-67,
-64,
-67,
-64,
-64,
-64,
-62,
-64,
-62,
-60,
-62,
-59,
-58,
-59,
-56,
-58,
-57,
-54,
-54,
-54,
-52,
-53,
-51,
-48,
-49,
-47,
-47,
-47,
-45,
-45,
-43,
-41,
-41,
-40,
-39,
-38,
-36,
-36,
-33,
-33,
-31,
-30,
-29,
-27,
-26,
-29,
-23,
-23,
-23,
-19,
-21,
-19,
-17,
-18,
-14,
-13,
-13,
-9,
-11,
-10,
-6,
-7,
-5,
-3,
-3,
-1,
2,
0,
4,
3,
4,
9,
6,
10,
11,
9,
14,
15,
14,
18,
17,
19,
20,
20,
22,
24,
25,
27,
28,
30,
28,
31,
32,
34,
34,
36,
37,
37,
39,
40,
41,
43,
42,
45,
44,
46,
48,
46,
50,
51,
49,
54,
50,
54,
54,
55,
56,
57,
57,
59,
59,
59,
60,
63,
60,
64,
63,
63,
65,
64,
66,
67,
66,
69,
66,
69,
68,
69,
70,
68,
70,
70,
70,
72,
68,
72,
72,
70,
73,
71,
70,
74,
70,
72,
72,
71,
73,
73,
70,
72,
71,
72,
73,
71,
70,
72,
68,
71,
70,
69,
70,
70,
66,
70,
67,
67,
68,
66,
67,
66,
65,
66,
63,
64,
63,
60,
62,
60,
60,
60,
57,
59,
56,
57,
56,
52,
53,
52,
52,
51,
50,
50,
49,
48,
44,
46,
44,
42,
44,
40,
42,
41,
36,
39,
34,
35,
35,
32,
34,
31,
28,
29,
26,
27,
24,
26,
22,
22,
20,
17,
19,
16,
15,
15,
12,
12,
9,
8,
7,
6,
6,
2,
3,
0,
-1,
1,
-6,
-3,
-6,
-9,
-6,
-10,
-12,
-11,
-15,
-14,
-16,
-17,
-17,
-19,
-22,
-21,
-22,
-25,
-23,
-27,
-29,
-28,
-31,
-32,
-30,
-35,
-33,
-37,
-38,
-37,
-40,
-40,
-41,
-44,
-42,
-45,
-45,
-46,
-47,
-48,
-48,
-50,
-50,
-52,
-52,
-53,
-55,
-55,
-57,
-58,
-56,
-60,
-59,
-58,
-61,
-61,
-62,
-64,
-62,
-64,
-64,
-63,
-65,
-67,
-64,
-67,
-67,
-66,
-70,
-67,
-69,
-70,
-68,
-71,
-70,
-69,
-71,
-71,
-71,
-71,
-71,
-71,
-72,
-72,
-70,
-72,
-72,
-72,
-74,
-71,
-71,
-73,
-71,
-73,
-71,
-71,
-71,
-71,
-70,
-70,
-71,
-68,
-70,
-69,
-67,
-70,
-66,
-68,
-68,
-65,
-68,
-67,
-65,
-66,
-63,
-64,
-63,
-63,
-62,
-62,
-61,
-59,
-60,
-58,
-59,
-58,
-55,
-58,
-54,
-54,
-54,
-51,
-52,
-50,
-49,
-49,
-48,
-49,
-45,
-44,
-44,
-42,
-41,
-41,
-40,
-39,
-39,
-37,
-35,
-34,
-32,
-34,
-30,
-31,
-29,
-25,
-26,
-24,
-22,
-23,
-20,
-20,
-20,
-16,
-16,
-15,
-13,
-13,
-12,
-9,
-10,
-7,
-7,
-6,
-3,
-3,
-2,
1,
1,
3,
3,
5,
6,
7,
9,
9,
11,
13,
13,
15,
16,
16,
19,
19,
21,
23,
22,
26,
25,
26,
27,
29,
28,
33,
33,
33,
37,
35,
36,
39,
37,
41,
41,
42,
44,
42,
45,
47,
46,
49,
48,
49,
50,
51,
52,
54,
54,
54,
56,
57,
57,
58,
58,
61,
60,
61,
62,
61,
64,
63,
64,
65,
63,
67,
66,
66,
69,
67,
68,
70,
66,
71,
69,
67,
71,
72,
70,
71,
70,
71,
73,
71,
71,
73,
70,
73,
72,
71,
73,
71,
71,
73,
70,
71,
71,
70,
70,
71,
70,
69,
69,
69,
68,
69,
67,
68,
67,
66,
66,
65,
64,
64,
64,
63,
63,
62,
60,
61,
59,
59,
58,
58,
56,
56,
54,
55,
53,
52,
53,
50,
49,
51,
47,
48,
45,
43,
45,
43,
42,
43,
39,
40,
37,
37,
36,
35,
34,
31,
33,
31,
28,
29,
26,
26,
24,
24,
22,
20,
20,
16,
18,
16,
15,
15,
10,
12,
10,
7,
10,
4,
4,
6,
0,
2,
0,
-3,
-3,
-4,
-6,
-6,
-7,
-9,
-10,
-11,
-14,
-11,
-15,
-15,
-16,
-21,
-18,
-22,
-22,
-22,
-26,
-24,
-27,
-29,
-28,
-31,
-31,
-33,
-33,
-35,
-36,
-36,
-39,
-39,
-39,
-43,
-42,
-45,
-44,
-46,
-45,
-47,
-48,
-48,
-51,
-51,
-51,
-54,
-52,
-55,
-55,
-54,
-58,
-57,
-59,
-60,
-58,
-63,
-62,
-62,
-64,
-63,
-64,
-65,
-64,
-67,
-66,
-66,
-68,
-68,
-69,
-68,
-68,
-70,
-70,
-71,
-70,
-70,
-71,
-71,
-71,
-73,
-72,
-72,
-73,
-72,
-72,
-74,
-72,
-73,
-75,
-71,
-75,
-73,
-71,
-76,
-71,
-73,
-74,
-71,
-74,
-71,
-70,
-72,
-70,
-71,
-72,
-69,
-70,
-70,
-68,
-68,
-69,
-66,
-68,
-67,
-64,
-67,
-63,
-63,
-63,
-60,
-63,
-61,
-60,
-61,
-58,
-59,
-58,
-57,
-56,
-54,
-55,
-54,
-53,
-53,
-49,
-51,
-48,
-48,
-47,
-45,
-44,
-45,
-42,
-42,
-42,
-40,
-38,
-39,
-35,
-37,
-34,
-32,
-33,
-31,
-29,
-31,
-26,
-26,
-24,
-22,
-23,
-21,
-21,
-21,
-18,
-16,
-15,
-15,
-12,
-11,
-11,
-9,
-7,
-7,
-6,
-4,
-4,
-2,
-1,
1,
3,
2,
5,
6,
6,
10,
10,
9,
13,
13,
13,
18,
16,
17,
20,
19,
22,
25,
23,
28,
26,
27,
32,
28,
32,
33,
32,
36,
36,
37,
38,
40,
39,
42,
41,
43,
44,
44,
47,
48,
47,
50,
50,
51,
51,
51,
53,
53,
54,
56,
55,
58,
56,
58,
60,
59,
61,
61,
61,
64,
62,
64,
65,
64,
64,
66,
66,
67,
68,
67,
68,
71,
67,
70,
68,
69,
71,
69,
71,
71,
69,
71,
69,
71,
70,
71,
71,
70,
72,
71,
70,
72,
69,
70,
71,
70,
70,
69,
68,
71,
69,
68,
68,
67,
66,
69,
65,
67,
67,
65,
67,
64,
62,
65,
60,
62,
64,
58,
60,
60,
57,
59,
57,
56,
57,
55,
53,
53,
51,
53,
51,
50,
50,
48,
46,
46,
44,
44,
45,
43,
42,
41,
40,
38,
36,
36,
36,
35,
34,
32,
31,
31,
26,
28,
25,
26,
25,
20,
22,
22,
18,
19,
17,
15,
15,
13,
12,
10,
9,
8,
7,
6,
3,
3,
1,
0,
0,
-3,
-2,
-5,
-6,
-6,
-10,
-9,
-12,
-12,
-14,
-16,
-14,
-17,
-18,
-19,
-22,
-20,
-25,
-24,
-24,
-30,
-26,
-30,
-31,
-31,
-32,
-35,
-34,
-37,
-38,
-38,
-40,
-40,
-40,
-45,
-42,
-44,
-46,
-44,
-48,
-50,
-47,
-52,
-51,
-51,
-54,
-52,
-55,
-55,
-55,
-57,
-58,
-58,
-60,
-61,
-59,
-61,
-62,
-62,
-63,
-64,
-64,
-65,
-64,
-66,
-66,
-67,
-67,
-67,
-69,
-68,
-70,
-70,
-69,
-71,
-70,
-70,
-72,
-70,
-70,
-73,
-71,
-72,
-72,
-71,
-73,
-72,
-72,
-73,
-72,
-73,
-72,
-72,
-74,
-73,
-72,
-72,
-72,
-71,
-72,
-71,
-70,
-71,
-69,
-69,
-70,
-69,
-69,
-68,
-68,
-69,
-66,
-67,
-64,
-67,
-64,
-63,
-65,
-61,
-63,
-62,
-59,
-62,
-59,
-58,
-60,
-56,
-57,
-57,
-54,
-55,
-53,
-50,
-52,
-53,
-48,
-51,
-47,
-46,
-47,
-43,
-44,
-45,
-40,
-44,
-40,
-38,
-39,
-35,
-35,
-35,
-32,
-33,
-30,
-30,
-28,
-26,
-26,
-24,
-24,
-22,
-22,
-19,
-18,
-17,
-15,
-16,
-13,
-12,
-11,
-8,
-10,
-5,
-6,
-5,
-1,
-5,
0,
2,
0,
3,
4,
5,
7,
8,
9,
12,
10,
15,
15,
15,
17,
19,
19,
21,
22,
23,
24,
27,
25,
29,
27,
30,
32,
32,
34,
36,
36,
38,
38,
39,
40,
43,
42,
42,
46,
44,
45,
48,
46,
50,
50,
50,
53,
51,
52,
56,
52,
56,
57,
56,
59,
60,
58,
61,
60,
61,
64,
63,
63,
65,
64,
66,
66,
65,
68,
67,
67,
70,
66,
71,
69,
69,
70,
70,
71,
71,
70,
72,
70,
73,
71,
71,
71,
72,
71,
72,
72,
72,
73,
72,
72,
73,
71,
72,
73,
70,
73,
70,
70,
72,
68,
71,
68,
67,
69,
67,
67,
67,
66,
65,
66,
66,
64,
65,
63,
62,
62,
60,
61,
61,
58,
60,
57,
58,
55,
54,
55,
55,
53,
51,
53,
51,
47,
48,
46,
45,
46,
44,
44,
44,
40,
42,
39,
37,
38,
36,
35,
35,
31,
32,
31,
28,
28,
27,
24,
27,
23,
22,
21,
19,
19,
17,
15,
16,
14,
11,
11,
10,
8,
8,
4,
6,
3,
1,
2,
-1,
-1,
-3,
-6,
-4,
-8,
-7,
-8,
-12,
-11,
-14,
-16,
-14,
-17,
-18,
-19,
-21,
-22,
-22,
-25,
-25,
-25,
-30,
-28,
-31,
-32,
-31,
-35,
-36,
-34,
-39,
-36,
-40,
-42,
-40,
-44,
-42,
-44,
-46,
-46,
-48,
-47,
-50,
-49,
-51,
-52,
-51,
-54,
-55,
-55,
-57,
-57,
-59,
-59,
-61,
-60,
-61,
-62,
-61,
-64,
-63,
-63,
-66,
-63,
-68,
-67,
-66,
-70,
-67,
-68,
-70,
-68,
-70,
-70,
-70,
-72,
-71,
-70,
-72,
-71,
-71,
-73,
-72,
-72,
-74,
-72,
-74,
-73,
-72,
-74,
-73,
-74,
-74,
-72,
-73,
-74,
-73,
-72,
-72,
-73,
-72,
-71,
-72,
-71,
-71,
-71,
-69,
-71,
-70,
-68,
-70,
-68,
-68,
-69,
-65,
-66,
-67,
-65,
-67,
-64,
-62,
-63,
-63,
-61,
-62,
-60,
-57,
-61,
-56,
-57,
-57,
-53,
-57,
-52,
-53,
-53,
-49,
-51,
-49,
-47,
-48,
-46,
-45,
-43,
-45,
-43,
-40,
-41,
-37,
-38,
-38,
-34,
-35,
-32,
-32,
-30,
-29,
-28,
-27,
-26,
-24,
-25,
-22,
-20,
-22,
-17,
-17,
-17,
-13,
-16,
-12,
-10,
-13,
-7,
-8,
-6,
-3,
-4,
-3,
0,
0,
1,
4,
4,
4,
7,
8,
9,
10,
10,
15,
13,
14,
17,
16,
20,
20,
22,
23,
23,
28,
24,
28,
29,
28,
33,
32,
33,
37,
35,
37,
38,
38,
39,
43,
41,
45,
44,
43,
47,
47,
47,
51,
48,
50,
52,
51,
54,
55,
53,
57,
56,
57,
59,
58,
60,
61,
59,
62,
62,
62,
63,
63,
64,
64,
66,
66,
66,
67,
66,
68,
68,
68,
70,
68,
69,
71,
70,
70,
70,
71,
69,
72,
70,
71,
72,
70,
72,
73,
69,
73,
70,
70,
72,
70,
71,
71,
70,
72,
68,
70,
69,
70,
69,
67,
68,
67,
68,
67,
66,
67,
65,
66,
64,
64,
64,
63,
63,
60,
61,
61,
57,
60,
57,
58,
58,
53,
57,
55,
52,
55,
51,
51,
50,
48,
49,
49,
47,
46,
46,
42,
42,
43,
40,
41,
38,
37,
38,
34,
35,
34,
29,
32,
29,
29,
28,
26,
25,
25,
22,
20,
20,
20,
18,
16,
16,
15,
13,
11,
10,
9,
7,
6,
6,
3,
3,
2,
-1,
-1,
-3,
-4,
-4,
-7,
-8,
-8,
-11,
-10,
-12,
-14,
-14,
-16,
-19,
-18,
-20,
-21,
-21,
-24,
-24,
-26,
-28,
-26,
-30,
-31,
-31,
-34,
-33,
-36,
-36,
-38,
-39,
-39,
-41,
-41,
-42,
-45,
-44,
-46,
-47,
-47,
-48,
-51,
-50,
-51,
-54,
-52,
-54,
-56,
-54,
-59,
-57,
-57,
-61,
-57,
-61,
-62,
-60,
-63,
-63,
-63,
-65,
-64,
-64,
-66,
-65,
-66,
-68,
-66,
-67,
-71,
-67,
-70,
-70,
-68,
-72,
-70,
-71,
-71,
-70,
-72,
-71,
-72,
-72,
-71,
-72,
-70,
-72,
-72,
-72,
-73,
-72,
-73,
-72,
-71,
-71,
-72,
-71,
-71,
-71,
-70,
-71,
-69,
-68,
-70,
-69,
-69,
-69,
-67,
-68,
-68,
-65,
-68,
-65,
-65,
-65,
-63,
-62,
-63,
-61,
-62,
-61,
-61,
-60,
-58,
-58,
-59,
-56,
-56,
-53,
-54,
-53,
-53,
-54,
-51,
-49,
-50,
-46,
-47,
-46,
-44,
-45,
-45,
-42,
-42,
-40,
-39,
-39,
-36,
-34,
-37,
-32,
-34,
-32,
-27,
-31,
-26,
-25,
-27,
-22,
-24,
-22,
-18,
-20,
-17,
-17,
-17,
-14,
-13,
-12,
-10,
-9,
-8,
-6,
-5,
-6,
-3,
-3,
0,
1,
1,
4,
3,
6,
8,
8,
11,
10,
14,
14,
12,
17,
16,
18,
22,
20,
24,
23,
25,
26,
27,
28,
28,
29,
31,
34,
33,
34,
38,
36,
39,
41,
40,
42,
42,
43,
46,
44,
47,
47,
48,
50,
50,
50,
51,
52,
54,
52,
56,
56,
56,
58,
58,
58,
60,
58,
62,
62,
62,
63,
62,
63,
65,
64,
65,
67,
66,
66,
70,
66,
69,
68,
67,
70,
68,
68,
72,
68,
71,
71,
69,
72,
71,
70,
73,
70,
71,
71,
71,
71,
72,
71,
70,
70,
71,
70,
71,
68,
71,
70,
70,
69,
67,
69,
68,
68,
68,
66,
67,
65,
67,
66,
63,
65,
63,
62,
63,
60,
63,
60,
58,
60,
57,
57,
56,
56,
56,
55,
55,
51,
53,
50,
50,
50,
48,
49,
47,
44,
46,
42,
43,
42,
41,
41,
39,
38,
35,
35,
35,
31,
33,
31,
29,
29,
26,
26,
26,
22,
24,
21,
19,
19,
18,
16,
16,
15,
12,
12,
9,
9,
10,
4,
6,
4,
0,
4,
-1,
-3,
0,
-5,
-5,
-6,
-8,
-8,
-9,
-12,
-12,
-14,
-15,
-16,
-18,
-18,
-19,
-22,
-22,
-24,
-25,
-26,
-26,
-28,
-30,
-30,
-32,
-33,
-35,
-35,
-37,
-37,
-38,
-41,
-40,
-42,
-43,
-42,
-47,
-44,
-47,
-48,
-46,
-51,
-51,
-50,
-54,
-52,
-53,
-55,
-55,
-57,
-56,
-58,
-60,
-60,
-61,
-60,
-62,
-61,
-63,
-63,
-63,
-65,
-64,
-65,
-65,
-67,
-67,
-67,
-69,
-68,
-69,
-71,
-68,
-71,
-69,
-70,
-73,
-68,
-72,
-71,
-69,
-73,
-71,
-72,
-75,
-71,
-72,
-73,
-72,
-71,
-73,
-71,
-72,
-72,
-70,
-72,
-72,
-70,
-73,
-70,
-70,
-71,
-69,
-71,
-69,
-68,
-70,
-68,
-68,
-67,
-67,
-66,
-66,
-65,
-66,
-64,
-64,
-62,
-62,
-61,
-61,
-60,
-61,
-59,
-58,
-58,
-57,
-57,
-55,
-54,
-54,
-52,
-52,
-52,
-49,
-49,
-48,
-46,
-48,
-45,
-44,
-45,
-42,
-41,
-41,
-37,
-39,
-36,
-35,
-36,
-34,
-32,
-32,
-30,
-29,
-28,
-27,
-26,
-24,
-22,
-21,
-21,
-19,
-18,
-17,
-16,
-15,
-13,
-12,
-11,
-9,
-7,
-6,
-7,
-3,
-4,
-3,
2,
-1,
3,
3,
3,
8,
5,
7,
11,
9,
13,
15,
14,
17,
17,
18,
20,
20,
21,
26,
23,
24,
28,
28,
31,
30,
29,
35,
33,
35,
37,
35,
39,
40,
39,
43,
41,
45,
44,
44,
46,
46,
49,
50,
49,
52,
51,
52,
54,
54,
53,
58,
56,
58,
59,
57,
60,
61,
59,
63,
61,
61,
64,
64,
64,
66,
64,
67,
66,
66,
67,
67,
68,
69,
69,
70,
70,
69,
70,
71,
69,
70,
71,
72,
71,
72,
70,
72,
72,
71,
71,
71,
71,
72,
71,
70,
70,
70,
69,
72,
70,
70,
70,
69,
69,
70,
66,
71,
68,
66,
68,
64,
66,
67,
63,
65,
62,
63,
62,
62,
60,
61,
59,
60,
59,
57,
56,
58,
54,
56,
53,
51,
53,
49,
50,
49,
48,
49,
45,
47,
44,
43,
44,
40,
42,
41,
38,
39,
35,
34,
34,
33,
31,
32,
28,
27,
27,
25,
24,
26,
19,
24,
20,
17,
20,
14,
16,
14,
10,
12,
10,
7,
8,
6,
5,
3,
2,
0,
1,
-1,
-4,
-3,
-6,
-7,
-7,
-11,
-9,
-11,
-14,
-14,
-16,
-17,
-17,
-18,
-21,
-22,
-22,
-25,
-24,
-26,
-29,
-29,
-31,
-32,
-30,
-35,
-34,
-36,
-38,
-37,
-39,
-41,
-39,
-44,
-44,
-44,
-45,
-46,
-47,
-47,
-48,
-50,
-51,
-51,
-52,
-54,
-54,
-56,
-56,
-56,
-58,
-58,
-59,
-60,
-60,
-63,
-61,
-63,
-64,
-62,
-66,
-64,
-65,
-68,
-65,
-69,
-68,
-68,
-70,
-69,
-70,
-71,
-68,
-72,
-72,
-71,
-71,
-72,
-71,
-73,
-74,
-71,
-75,
-72,
-72,
-75,
-71,
-73,
-73,
-72,
-75,
-72,
-73,
-74,
-72,
-73,
-71,
-73,
-71,
-71,
-72,
-71,
-72,
-70,
-70,
-70,
-68,
-69,
-69,
-68,
-68,
-67,
-66,
-66,
-66,
-65,
-64,
-65,
-62,
-64,
-62,
-61,
-63,
-57,
-60,
-59,
-55,
-58,
-55,
-54,
-55,
-53,
-53,
-53,
-51,
-49,
-48,
-47,
-47,
-47,
-45,
-46,
-43,
-42,
-41,
-39,
-39,
-37,
-37,
-37,
-33,
-34,
-32,
-30,
-30,
-28,
-27,
-29,
-24,
-24,
-23,
-21,
-20,
-19,
-17,
-17,
-14,
-14,
-14,
-9,
-11,
-10,
-6,
-7,
-5,
-4,
-4,
0,
0,
1,
3,
3,
4,
8,
7,
8,
11,
10,
13,
13,
14,
17,
16,
19,
21,
20,
23,
24,
24,
26,
26,
29,
28,
31,
32,
32,
35,
35,
36,
38,
38,
41,
41,
43,
42,
43,
44,
46,
47,
47,
49,
50,
49,
53,
50,
55,
55,
54,
57,
57,
57,
59,
56,
60,
59,
61,
61,
62,
61,
63,
64,
63,
65,
67,
65,
67,
67,
69,
68,
69,
68,
69,
70,
70,
69,
70,
69,
71,
71,
71,
73,
71,
71,
73,
70,
73,
72,
71,
73,
72,
70,
72,
70,
71,
73,
70,
70,
72,
68,
71,
70,
69,
70,
69,
68,
69,
66,
67,
67,
65,
66,
67,
63,
65,
63,
63,
64,
62,
61,
60,
59,
60,
58,
59,
55,
56,
56,
54,
55,
52,
50,
52,
49,
51,
48,
46,
46,
45,
44,
43,
43,
43,
41,
41,
36,
38,
35,
34,
36,
32,
34,
31,
27,
29,
25,
26,
24,
22,
23,
19,
20,
18,
17,
18,
14,
14,
12,
10,
10,
7,
7,
6,
3,
2,
2,
1,
0,
-1,
-4,
-5,
-4,
-8,
-6,
-9,
-12,
-9,
-15,
-15,
-14,
-19,
-17,
-19,
-22,
-20,
-25,
-24,
-24,
-29,
-28,
-28,
-31,
-32,
-30,
-36,
-34,
-36,
-39,
-37,
-40,
-41,
-41,
-45,
-43,
-45,
-46,
-46,
-47,
-48,
-49,
-50,
-50,
-52,
-52,
-54,
-54,
-54,
-55,
-57,
-58,
-60,
-57,
-60,
-61,
-60,
-62,
-63,
-62,
-65,
-63,
-64,
-66,
-65,
-67,
-67,
-68,
-67,
-69,
-68,
-69,
-72,
-70,
-71,
-70,
-70,
-72,
-70,
-70,
-71,
-71,
-73,
-71,
-73,
-72,
-73,
-74,
-71,
-74,
-73,
-72,
-74,
-71,
-73,
-74,
-70,
-72,
-72,
-71,
-72,
-71,
-69,
-70,
-71,
-68,
-71,
-68,
-67,
-70,
-65,
-68,
-68,
-64,
-68,
-63,
-64,
-66,
-62,
-63,
-62,
-59,
-59,
-60,
-59,
-58,
-59,
-55,
-57,
-55,
-54,
-54,
-51,
-51,
-52,
-48,
-50,
-48,
-47,
-46,
-45,
-44,
-41,
-41,
-41,
-40,
-40,
-37,
-37,
-35,
-33,
-33,
-33,
-30,
-32,
-28,
-27,
-26,
-24,
-23,
-23,
-20,
-21,
-19,
-16,
-17,
-16,
-13,
-13,
-12,
-11,
-10,
-6,
-7,
-6,
-3,
-3,
0,
0,
1,
3,
4,
5,
6,
7,
9,
11,
12,
14,
12,
15,
16,
16,
20,
20,
22,
23,
22,
26,
25,
27,
28,
29,
29,
33,
33,
34,
36,
36,
38,
39,
37,
43,
41,
41,
46,
42,
45,
48,
45,
49,
49,
49,
51,
50,
53,
55,
53,
55,
55,
57,
56,
59,
58,
60,
60,
60,
62,
62,
63,
63,
63,
66,
65,
65,
66,
66,
68,
67,
68,
69,
66,
71,
68,
67,
70,
70,
70,
71,
70,
71,
70,
71,
71,
72,
70,
72,
71,
71,
72,
71,
70,
73,
70,
71,
70,
71,
70,
69,
69,
69,
69,
70,
68,
69,
67,
68,
66,
66,
66,
66,
64,
65,
63,
62,
64,
61,
60,
62,
58,
60,
59,
57,
58,
56,
54,
57,
52,
53,
55,
50,
50,
51,
48,
49,
46,
45,
46,
43,
43,
44,
40,
41,
39,
37,
38,
35,
35,
34,
31,
32,
29,
29,
27,
26,
25,
25,
23,
22,
20,
19,
18,
17,
17,
15,
12,
12,
12,
8,
10,
7,
4,
7,
1,
2,
1,
-2,
-1,
-4,
-5,
-5,
-8,
-7,
-10,
-11,
-13,
-12,
-14,
-17,
-16,
-20,
-19,
-20,
-23,
-23,
-25,
-25,
-26,
-29,
-28,
-32,
-31,
-33,
-35,
-35,
-38,
-37,
-39,
-40,
-39,
-44,
-42,
-44,
-46,
-45,
-46,
-48,
-47,
-50,
-50,
-52,
-53,
-53,
-53,
-56,
-55,
-55,
-59,
-57,
-58,
-61,
-59,
-63,
-62,
-62,
-64,
-63,
-64,
-67,
-64,
-67,
-67,
-66,
-68,
-68,
-68,
-69,
-70,
-71,
-70,
-70,
-72,
-70,
-71,
-72,
-72,
-73,
-72,
-72,
-72,
-73,
-73,
-73,
-72,
-74,
-73,
-71,
-73,
-72,
-72,
-74,
-71,
-72,
-74,
-70,
-73,
-71,
-70,
-73,
-70,
-71,
-71,
-69,
-71,
-68,
-68,
-69,
-67,
-67,
-67,
-66,
-64,
-65,
-64,
-64,
-64,
-62,
-62,
-61,
-60,
-61,
-59,
-58,
-58,
-57,
-57,
-55,
-55,
-53,
-52,
-53,
-48,
-51,
-50,
-47,
-49,
-45,
-44,
-47,
-41,
-44,
-43,
-40,
-40,
-38,
-36,
-37,
-34,
-33,
-33,
-31,
-30,
-31,
-25,
-26,
-25,
-21,
-25,
-21,
-20,
-22,
-17,
-17,
-16,
-13,
-14,
-9,
-11,
-10,
-8,
-7,
-6,
-4,
-3,
-2,
-1,
1,
2,
3,
5,
6,
6,
9,
9,
10,
13,
13,
15,
17,
17,
18,
20,
19,
22,
24,
23,
28,
25,
28,
31,
28,
33,
33,
33,
37,
36,
37,
38,
39,
41,
42,
42,
44,
44,
45,
45,
48,
47,
49,
50,
49,
52,
53,
53,
55,
54,
56,
56,
57,
57,
59,
60,
59,
62,
60,
60,
66,
60,
64,
65,
62,
66,
65,
65,
68,
66,
69,
68,
69,
68,
68,
68,
70,
70,
67,
70,
71,
68,
73,
69,
71,
71,
70,
72,
71,
70,
72,
69,
73,
70,
71,
71,
69,
70,
69,
70,
71,
68,
69,
69,
69,
68,
67,
66,
67,
67,
65,
66,
65,
63,
66,
61,
62,
64,
60,
62,
60,
58,
60,
57,
57,
57,
56,
56,
54,
52,
53,
52,
51,
50,
49,
48,
47,
45,
45,
44,
45,
42,
41,
40,
39,
38,
37,
35,
35,
34,
33,
31,
30,
28,
28,
25,
27,
25,
24,
22,
22,
18,
19,
17,
16,
16,
11,
13,
10,
9,
11,
6,
7,
5,
2,
2,
0,
0,
-2,
-3,
-4,
-6,
-6,
-8,
-9,
-11,
-11,
-13,
-16,
-14,
-17,
-19,
-17,
-22,
-21,
-23,
-26,
-23,
-29,
-26,
-29,
-31,
-30,
-33,
-34,
-33,
-37,
-36,
-39,
-40,
-39,
-41,
-44,
-42,
-45,
-46,
-45,
-48,
-49,
-46,
-51,
-49,
-52,
-55,
-52,
-55,
-56,
-55,
-59,
-58,
-58,
-59,
-60,
-61,
-61,
-62,
-62,
-63,
-65,
-64,
-65,
-64,
-67,
-67,
-67,
-68,
-68,
-69,
-69,
-70,
-70,
-70,
-71,
-70,
-72,
-70,
-71,
-73,
-71,
-71,
-73,
-72,
-72,
-73,
-71,
-74,
-73,
-72,
-74,
-72,
-71,
-73,
-72,
-72,
-73,
-71,
-71,
-71,
-71,
-72,
-70,
-71,
-69,
-70,
-69,
-69,
-68,
-68,
-68,
-66,
-66,
-67,
-67,
-64,
-63,
-64,
-63,
-62,
-63,
-59,
-61,
-61,
-57,
-62,
-56,
-57,
-59,
-53,
-56,
-52,
-51,
-53,
-51,
-49,
-50,
-48,
-47,
-46,
-45,
-43,
-45,
-41,
-42,
-41,
-37,
-40,
-36,
-35,
-35,
-31,
-33,
-31,
-30,
-29,
-27,
-26,
-24,
-24,
-21,
-21,
-21,
-18,
-19,
-17,
-15,
-15,
-12,
-12,
-11,
-9,
-8,
-7,
-5,
-4,
-3,
-1,
0,
0,
4,
4,
5,
7,
6,
9,
10,
10,
13,
14,
13,
17,
17,
18,
20,
20,
21,
23,
26,
25,
28,
27,
29,
31,
33,
33,
34,
36,
37,
38,
38,
39,
42,
40,
43,
44,
43,
45,
47,
46,
49,
49,
49,
52,
51,
52,
56,
51,
56,
57,
55,
59,
57,
