5-grundlagen-opAmps/data/ALL0013/A0013CH1.CSV

Memory Length,4000,
Trigger Level,0.00000e+00,
Source,CH1,
Probe,1.0X,
Vertical Units,V,
Vertical Scale,5.00000e-02,
Vertical Position,0.00000e+00,
Horizontal Units,S,
Horizontal Scale,1.00000e-06,
Horizontal Position,1.0000000e-06,
Horizontal Mode,Main,
Sampling Period,4.00000e-09,
Firmware,V1.14,
Time, ,
Mode,Fast,
Waveform Data,
19,
19,
11,
16,
15,
14,
18,
15,
17,
16,
16,
20,
14,
22,
16,
12,
23,
14,
17,
22,
14,
20,
19,
17,
20,
19,
17,
23,
18,
16,
25,
15,
19,
25,
14,
21,
22,
15,
24,
20,
18,
22,
16,
21,
19,
17,
21,
20,
18,
20,
19,
21,
17,
20,
18,
18,
23,
19,
15,
22,
17,
17,
21,
14,
18,
21,
10,
21,
15,
12,
24,
13,
13,
22,
7,
17,
19,
8,
19,
15,
9,
21,
9,
12,
18,
5,
15,
16,
5,
15,
11,
6,
14,
9,
6,
14,
6,
8,
9,
4,
10,
8,
2,
9,
5,
5,
5,
3,
5,
2,
5,
3,
0,
7,
-2,
2,
3,
-4,
3,
-1,
-3,
3,
-6,
-1,
0,
-7,
-2,
-2,
-9,
-2,
-3,
-11,
-5,
-7,
-10,
-3,
-12,
-7,
-7,
-14,
-7,
-9,
-15,
-7,
-14,
-11,
-14,
-12,
-13,
-15,
-12,
-16,
-17,
-12,
-19,
-15,
-15,
-19,
-15,
-17,
-21,
-15,
-21,
-20,
-14,
-24,
-21,
-13,
-28,
-18,
-18,
-30,
-16,
-25,
-28,
-14,
-32,
-23,
-19,
-32,
-19,
-23,
-33,
-19,
-28,
-29,
-21,
-30,
-27,
-24,
-32,
-26,
-28,
-32,
-24,
-29,
-32,
-26,
-30,
-28,
-26,
-31,
-31,
-29,
-29,
-29,
-30,
-29,
-32,
-31,
-29,
-32,
-29,
-31,
-33,
-27,
-33,
-29,
-26,
-35,
-27,
-28,
-35,
-26,
-32,
-32,
-27,
-33,
-31,
-28,
-33,
-28,
-29,
-33,
-28,
-28,
-33,
-25,
-29,
-32,
-26,
-29,
-29,
-27,
-30,
-27,
-30,
-27,
-27,
-29,
-26,
-29,
-25,
-27,
-28,
-19,
-30,
-24,
-21,
-31,
-21,
-20,
-28,
-18,
-23,
-27,
-19,
-24,
-24,
-15,
-26,
-19,
-16,
-28,
-13,
-17,
-26,
-9,
-24,
-18,
-12,
-23,
-13,
-13,
-20,
-10,
-18,
-15,
-10,
-15,
-14,
-9,
-16,
-12,
-8,
-12,
-11,
-10,
-12,
-7,
-11,
-5,
-8,
-9,
-6,
-6,
-6,
-5,
-7,
-1,
-7,
-3,
0,
-8,
0,
0,
-7,
4,
-3,
-3,
4,
-3,
1,
4,
-3,
6,
2,
1,
8,
1,
1,
9,
4,
5,
8,
4,
6,
9,
7,
8,
8,
7,
9,
9,
9,
12,
9,
11,
10,
13,
8,
12,
16,
8,
16,
16,
7,
19,
11,
12,
20,
9,
18,
18,
9,
22,
16,
12,
23,
16,
13,
24,
13,
17,
23,
12,
20,
21,
10,
25,
15,
16,
27,
12,
20,
24,
13,
23,
18,
19,
22,
19,
19,
20,
19,
20,
19,
18,
19,
21,
18,
20,
19,
20,
19,
20,
21,
17,
20,
23,
14,
24,
18,
16,
24,
15,
19,
20,
12,
24,
17,
13,
25,
14,
16,
22,
12,
17,
19,
14,
17,
17,
14,
17,
13,
13,
16,
12,
13,
16,
10,
12,
14,
12,
11,
13,
11,
9,
11,
11,
7,
13,
7,
8,
12,
4,
9,
10,
1,
13,
3,
2,
13,
-2,
2,
12,
-3,
8,
4,
-4,
7,
1,
-2,
6,
-5,
-1,
4,
-8,
0,
4,
-10,
2,
-3,
-6,
1,
-9,
-4,
-2,
-10,
-2,
-8,
-8,
-6,
-11,
-8,
-9,
-11,
-8,
-14,
-7,
-12,
-12,
-10,
-13,
-14,
-11,
-15,
-15,
-14,
-15,
-16,
-12,
-21,
-13,
-17,
-22,
-12,
-23,
-21,
-10,
-26,
-15,
-18,
-25,
-17,
-24,
-22,
-17,
-26,
-21,
-20,
-26,
-23,
-20,
-27,
-24,
-23,
-27,
-25,
-23,
-27,
-24,
-26,
-27,
-27,
-26,
-27,
-27,
-27,
-29,
-25,
-29,
-33,
-24,
-32,
-30,
-23,
-34,
-29,
-25,
-35,
-27,
-29,
-33,
-26,
-32,
-31,
-26,
-37,
-29,
-27,
-36,
-27,
-28,
-36,
-26,
-32,
-32,
-25,
-35,
-31,
-27,
-36,
-26,
-28,
-33,
-26,
-33,
-30,
-27,
-34,
-28,
-30,
-29,
-28,
-33,
-26,
-29,
-32,
-23,
-32,
-27,
-26,
-31,
-24,
-28,
-29,
-24,
-31,
-27,
-21,
-29,
-26,
-20,
-31,
-23,
-22,
-29,
-19,
-24,
-27,
-15,
-28,
-20,
-18,
-29,
-16,
-18,
-25,
-15,
-21,
-20,
-18,
-17,
-20,
-16,
-17,
-17,
-16,
-17,
-17,
-12,
-19,
-14,
-13,
-15,
-13,
-11,
-15,
-12,
-8,
-14,
-12,
-7,
-16,
-5,
-10,
-12,
-2,
-13,
-7,
-1,
-16,
0,
-5,
-11,
0,
-4,
-8,
2,
-7,
-2,
0,
-4,
0,
1,
-5,
4,
0,
-2,
5,
-1,
0,
8,
0,
5,
3,
4,
7,
2,
6,
8,
2,
12,
4,
5,
9,
5,
11,
8,
6,
16,
5,
10,
16,
6,
14,
13,
7,
17,
11,
11,
17,
10,
13,
19,
8,
16,
18,
9,
20,
19,
9,
21,
14,
15,
23,
12,
18,
19,
14,
22,
17,
17,
19,
17,
17,
19,
19,
16,
22,
22,
15,
22,
19,
17,
22,
19,
19,
22,
18,
19,
24,
17,
19,
25,
14,
23,
23,
13,
27,
18,
16,
26,
14,
21,
21,
14,
26,
17,
16,
24,
16,
18,
21,
17,
18,
20,
17,
19,
18,
16,
18,
16,
16,
17,
12,
20,
15,
13,
17,
12,
16,
15,
11,
20,
9,
15,
17,
5,
16,
12,
6,
16,
7,
9,
14,
5,
11,
14,
2,
13,
8,
2,
14,
6,
2,
13,
0,
4,
8,
0,
6,
4,
-1,
7,
0,
1,
6,
-2,
0,
4,
-3,
1,
0,
0,
-3,
-3,
-2,
-3,
-3,
-4,
-5,
-3,
-9,
-3,
-5,
-10,
-4,
-8,
-11,
-4,
-10,
-11,
-7,
-12,
-14,
-6,
-15,
-10,
-9,
-17,
-11,
-13,
-19,
-7,
-20,
-15,
-9,
-23,
-16,
-15,
-22,
-13,
-21,
-16,
-18,
-20,
-18,
-19,
-22,
-19,
-21,
-20,
-22,
-20,
-23,
-23,
-24,
-21,
-27,
-24,
-22,
-28,
-22,
-23,
-31,
-19,
-29,
-27,
-21,
-33,
-23,
-27,
-34,
-17,
-31,
-33,
-21,
-32,
-30,
-23,
-35,
-28,
-27,
-33,
-26,
-31,
-35,
-23,
-34,
-31,
-23,
-36,
-29,
-27,
-36,
-28,
-31,
-32,
-29,
-32,
-31,
-30,
-32,
-29,
-30,
-30,
-32,
-29,
-32,
-31,
-27,
-31,
-32,
-28,
-33,
-29,
-27,
-32,
-29,
-27,
-33,
-28,
-28,
-31,
-26,
-30,
-30,
-24,
-32,
-27,
-24,
-33,
-25,
-24,
-31,
-22,
-27,
-26,
-22,
-29,
-23,
-23,
-28,
-19,
-26,
-24,
-21,
-23,
-22,
-24,
-21,
-20,
-22,
-17,
-21,
-21,
-18,
-19,
-19,
-16,
-19,
-17,
-15,
-19,
-14,
-13,
-22,
-7,
-18,
-17,
-6,
-19,
-11,
-8,
-21,
-5,
-14,
-14,
-4,
-15,
-11,
-3,
-15,
-7,
-4,
-13,
-4,
-3,
-12,
0,
-6,
-7,
0,
-7,
-3,
1,
-8,
1,
-3,
-3,
2,
-1,
0,
1,
1,
1,
0,
7,
2,
0,
5,
1,
6,
6,
2,
8,
2,
3,
10,
5,
6,
12,
4,
9,
14,
5,
11,
12,
6,
15,
9,
11,
14,
8,
15,
14,
9,
17,
12,
11,
16,
14,
14,
17,
15,
16,
13,
18,
17,
15,
19,
15,
16,
20,
15,
20,
16,
16,
22,
14,
17,
24,
14,
19,
24,
13,
20,
23,
12,
26,
18,
17,
29,
14,
20,
27,
9,
25,
21,
12,
27,
18,
17,
25,
16,
22,
23,
17,
22,
21,
16,
22,
20,
16,
23,
19,
16,
23,
17,
19,
18,
17,
20,
17,
19,
17,
15,
20,
14,
19,
14,
15,
20,
12,
17,
18,
9,
18,
15,
11,
16,
13,
11,
16,
11,
12,
15,
9,
11,
15,
4,
15,
9,
5,
14,
8,
6,
12,
3,
9,
5,
8,
8,
4,
7,
5,
3,
5,
2,
6,
1,
2,
6,
-1,
1,
5,
-5,
3,
3,
-4,
1,
-4,
-6,
3,
-7,
-4,
1,
-11,
-2,
0,
-15,
-2,
-7,
-12,
0,
-11,
-12,
-1,
-16,
-5,
-6,
-16,
-6,
-11,
-16,
-5,
-18,
-13,
-11,
-17,
-14,
-12,
-16,
-15,
-16,
-16,
-16,
-17,
-18,
-16,
-21,
-17,
-18,
-19,
-19,
-20,
-19,
-22,
-21,
-17,
-26,
-18,
-20,
-27,
-18,
-24,
-25,
-20,
-29,
-23,
-24,
-29,
-23,
-26,
-28,
-23,
-26,
-29,
-25,
-27,
-31,
-24,
-31,
-29,
-26,
-32,
-26,
-28,
-32,
-24,
-32,
-28,
-29,
-31,
-30,
-31,
-28,
-32,
-31,
-26,
-36,
-28,
-30,
-34,
-25,
-33,
-31,
-27,
-35,
-28,
-29,
-37,
-26,
-28,
-37,
-24,
-32,
-33,
-23,
-35,
-31,
-25,
-37,
-24,
-27,
-35,
-22,
-32,
-32,
-19,
-35,
-28,
-23,
-33,
-26,
-26,
-32,
-23,
-29,
-27,
-24,
-28,
-26,
-24,
-28,
-26,
-24,
-25,
-25,
-24,
-23,
-24,
-23,
-20,
-25,
-19,
-21,
-24,
-18,
-19,
-23,
-15,
-24,
-17,
-17,
-24,
-14,
-18,
-23,
-10,
-21,
-17,
-13,
-18,
-14,
-13,
-16,
-11,
-14,
-14,
-12,
-11,
-12,
-9,
-14,
-11,
-7,
-12,
-11,
-5,
-11,
-5,
-8,
-7,
-8,
-5,
-5,
-8,
-3,
-4,
-6,
1,
-9,
2,
-1,
-7,
6,
-3,
-4,
8,
-5,
2,
5,
-3,
5,
2,
-2,
9,
3,
0,
12,
0,
4,
13,
-2,
9,
11,
0,
13,
8,
5,
13,
5,
13,
11,
5,
14,
12,
8,
15,
11,
12,
12,
15,
13,
13,
14,
16,
12,
15,
16,
12,
17,
16,
14,
19,
14,
18,
19,
14,
22,
18,
13,
24,
14,
17,
24,
13,
20,
21,
14,
23,
17,
17,
24,
17,
21,
22,
16,
22,
22,
17,
20,
21,
18,
21,
20,
20,
20,
20,
18,
21,
18,
20,
19,
19,
19,
21,
19,
17,
24,
18,
15,
27,
13,
19,
24,
11,
23,
18,
13,
25,
13,
17,
24,
11,
19,
21,
11,
19,
17,
10,
18,
15,
10,
21,
9,
15,
18,
7,
18,
13,
6,
18,
8,
12,
13,
8,
14,
9,
9,
11,
5,
12,
7,
8,
8,
6,
6,
8,
4,
8,
4,
3,
8,
1,
1,
8,
-1,
2,
7,
-4,
3,
3,
-6,
4,
-4,
-2,
4,
-9,
0,
0,
-10,
1,
-3,
-8,
-1,
-7,
-9,
-4,
-9,
-8,
-7,
-9,
-8,
-6,
-13,
-8,
-9,
-12,
-12,
-10,
-15,
-12,
-12,
-15,
-14,
-11,
-16,
-12,
-15,
-18,
-14,
-17,
-20,
-12,
-23,
-17,
-14,
-25,
-15,
-17,
-28,
-13,
-21,
-25,
-17,
-27,
-22,
-16,
-28,
-19,
-23,
-29,
-20,
-24,
-28,
-19,
-27,
-27,
-21,
-29,
-25,
-24,
-30,
-21,
-30,
-27,
-26,
-31,
-25,
-30,
-29,
-25,
-32,
-24,
-32,
-31,
-26,
-33,
-29,
-27,
-35,
-26,
-29,
-32,
-29,
-31,
-33,
-27,
-34,
-31,
-24,
-36,
-28,
-26,
-39,
-24,
-30,
-34,
-24,
-34,
-29,
-26,
-35,
-27,
-30,
-32,
-27,
-30,
-31,
-28,
-29,
-32,
-27,
-30,
-32,
-24,
-28,
-29,
-27,
-29,
-28,
-26,
-28,
-26,
-25,
-28,
-26,
-21,
-31,
-24,
-22,
-30,
-21,
-23,
-30,
-17,
-26,
-24,
-18,
-29,
-20,
-18,
-28,
-16,
-22,
-25,
-14,
-20,
-22,
-13,
-23,
-17,
-17,
-19,
-16,
-15,
-18,
-13,
-17,
-15,
-14,
-15,
-13,
-12,
-16,
-11,
-14,
-10,
-12,
-12,
-7,
-13,
-11,
-4,
-15,
-4,
-7,
-11,
-3,
-9,
-7,
0,
-12,
-2,
-3,
-9,
-1,
-1,
-8,
4,
-2,
-5,
5,
-3,
-2,
6,
-6,
5,
3,
-3,
9,
0,
1,
10,
-3,
5,
7,
3,
6,
5,
6,
8,
8,
10,
5,
10,
7,
11,
9,
8,
13,
11,
9,
15,
11,
9,
15,
14,
9,
19,
12,
12,
18,
10,
17,
18,
8,
21,
12,
12,
24,
12,
16,
21,
11,
20,
18,
14,
22,
17,
17,
21,
16,
20,
20,
16,
20,
21,
16,
21,
20,
21,
19,
19,
22,
17,
19,
23,
15,
21,
19,
17,
24,
18,
21,
24,
13,
24,
20,
13,
27,
18,
16,
28,
13,
21,
24,
15,
21,
21,
14,
23,
17,
13,
24,
15,
15,
24,
10,
17,
22,
12,
21,
16,
13,
21,
12,
15,
17,
11,
17,
15,
13,
15,
15,
13,
10,
16,
11,
10,
14,
9,
11,
13,
8,
11,
9,
9,
9,
8,
5,
12,
6,
3,
11,
3,
5,
12,
-1,
8,
5,
-1,
8,
0,
2,
4,
-3,
5,
1,
-4,
2,
1,
-3,
-2,
-2,
-1,
-3,
-2,
-3,
-6,
-6,
-2,
-7,
-5,
-5,
-8,
-4,
-8,
-9,
-5,
-14,
-5,
-10,
-16,
-4,
-15,
-16,
-5,
-19,
-10,
-12,
-19,
-9,
-15,
-19,
-8,
-20,
-16,
-11,
-24,
-15,
-11,
-25,
-15,
-18,
-24,
-16,
-20,
-23,
-15,
-26,
-22,
-19,
-28,
-20,
-20,
-27,
-19,
-24,
-26,
-23,
-24,
-26,
-27,
-24,
-25,
-28,
-24,
-30,
-25,
-27,
-29,
-24,
-29,
-31,
-23,
-32,
-28,
-25,
-32,
-27,
-26,
-34,
-28,
-29,
-32,
-26,
-31,
-32,
-25,
-35,
-28,
-27,
-37,
-25,
-30,
-34,
-27,
-32,
-28,
-30,
-31,
-29,
-32,
-29,
-31,
-32,
-28,
-32,
-29,
-32,
-30,
-29,
-32,
-32,
-26,
-32,
-29,
-26,
-30,
-32,
-23,
-34,
-28,
-24,
-34,
-23,
-30,
-32,
-17,
-35,
-26,
-22,
-35,
-20,
-24,
-33,
-19,
-27,
-27,
-19,
-28,
-25,
-18,
-29,
-19,
-20,
-29,
-18,
-21,
-26,
-15,
-23,
-20,
-18,
-21,
-20,
-17,
-20,
-16,
-19,
-16,
-17,
-16,
-17,
-15,
-14,
-15,
-15,
-10,
-17,
-12,
-11,
-15,
-10,
-11,
-15,
-6,
-12,
-11,
-7,
-12,
-8,
-5,
-14,
-3,
-6,
-11,
-2,
-4,
-10,
1,
-6,
-4,
-1,
-5,
-1,
0,
-2,
2,
-3,
1,
1,
0,
2,
1,
3,
1,
0,
9,
0,
5,
8,
-3,
6,
7,
2,
11,
5,
7,
10,
4,
7,
14,
2,
11,
14,
2,
16,
12,
3,
21,
7,
10,
19,
5,
17,
17,
7,
20,
12,
11,
19,
12,
14,
20,
13,
16,
20,
13,
18,
19,
14,
21,
15,
19,
22,
15,
19,
19,
17,
21,
17,
22,
16,
19,
22,
16,
22,
20,
16,
23,
18,
20,
22,
17,
22,
22,
16,
23,
20,
15,
24,
20,
17,
25,
17,
19,
22,
16,
20,
21,
16,
23,
16,
17,
21,
16,
18,
21,
17,
18,
17,
20,
16,
17,
19,
13,
18,
19,
12,
20,
14,
13,
19,
10,
17,
17,
8,
19,
14,
8,
19,
11,
8,
19,
8,
11,
16,
4,
14,
13,
1,
17,
4,
3,
18,
1,
8,
12,
1,
13,
5,
1,
8,
4,
3,
7,
1,
5,
4,
-2,
2,
4,
-2,
2,
1,
0,
0,
-3,
0,
-3,
-4,
1,
-7,
0,
-5,
-8,
-1,
-10,
-4,
-3,
-13,
0,
-12,
-11,
-3,
-11,
-11,
-6,
-14,
-9,
-9,
-13,
-9,
-11,
-16,
-10,
-16,
-16,
-11,
-17,
-16,
-11,
-20,
-15,
-16,
-17,
-17,
-18,
-19,
-19,
-19,
-18,
-22,
-17,
-21,
-20,
-19,
-27,
-18,
-20,
-27,
-17,
-26,
-27,
-18,
-27,
-26,
-21,
-30,
-23,
-25,
-32,
-23,
-28,
-31,
-18,
-31,
-29,
-21,
-34,
-27,
-23,
-35,
-24,
-29,
-33,
-23,
-35,
-29,
-24,
-36,
-27,
-28,
-33,
-26,
-31,
-31,
-29,
-32,
-30,
-32,
-31,
-30,
-31,
-32,
-29,
-32,
-29,
-30,
-31,
-30,
-31,
-30,
-27,
-34,
-27,
-30,
-36,
-24,
-33,
-32,
-26,
-36,
-24,
-28,
-33,
-24,
-32,
-29,
-24,
-32,
-28,
-24,
-31,
-27,
-24,
-30,
-27,
-25,
-28,
-24,
-27,
-26,
-21,
-27,
-24,
-24,
-24,
-24,
-24,
-24,
-24,
-22,
-20,
-26,
-15,
-25,
-23,
-16,
-26,
-18,
-16,
-24,
-12,
-20,
-19,
-13,
-20,
-16,
-9,
-22,
-13,
-11,
-20,
-11,
-11,
-19,
-7,
-15,
-15,
-5,
-16,
-10,
-5,
-18,
-3,
-8,
-12,
-4,
-9,
-10,
-4,
-10,
-4,
-7,
-6,
-3,
-4,
-4,
-2,
-4,
-1,
-3,
0,
0,
-2,
2,
-1,
-1,
5,
-1,
1,
5,
1,
3,
6,
0,
7,
6,
1,
9,
2,
4,
13,
1,
9,
11,
0,
13,
10,
6,
12,
8,
11,
12,
9,
12,
14,
10,
14,
14,
11,
15,
15,
9,
18,
15,
13,
16,
16,
15,
15,
17,
16,
15,
19,
12,
21,
16,
15,
25,
11,
18,
24,
9,
24,
19,
14,
25,
17,
16,
23,
14,
21,
24,
13,
21,
22,
12,
24,
20,
15,
27,
16,
18,
25,
14,
22,
19,
16,
25,
17,
19,
22,
16,
21,
20,
18,
19,
19,
20,
19,
18,
22,
15,
17,
20,
16,
18,
20,
12,
20,
16,
15,
19,
11,
16,
20,
9,
19,
18,
9,
19,
15,
9,
19,
9,
12,
16,
8,
15,
13,
6,
17,
9,
8,
14,
8,
6,
12,
7,
5,
10,
8,
6,
8,
4,
8,
6,
4,
6,
4,
1,
4,
4,
1,
3,
4,
-4,
5,
2,
-4,
5,
-3,
-4,
4,
-9,
1,
-1,
-11,
2,
-7,
-7,
3,
-11,
-6,
-2,
-9,
-7,
-5,
-13,
-7,
-8,
-12,
-7,
-11,
-14,
-6,
-16,
-10,
-12,
-17,
-11,
-15,
-15,
-13,
-17,
-10,
-19,
-16,
-14,
-20,
-15,
-16,
-22,
-15,
-21,
-17,
-17,
-24,
-19,
-17,
-28,
-17,
-20,
-28,
-16,
-24,
-27,
-15,
-29,
-20,
-21,
-32,
-19,
-24,
-31,
-18,
-29,
-28,
-21,
-31,
-26,
-24,
-31,
-27,
-27,
-30,
-28,
-27,
-29,
-28,
-29,
-30,
-27,
-29,
-32,
-27,
-32,
-31,
-28,
-31,
-33,
-27,
-32,
-32,
-26,
-32,
-31,
-28,
-35,
-28,
-30,
-35,
-26,
-31,
-35,
-20,
-35,
-31,
-25,
-37,
-26,
-29,
-34,
-25,
-33,
-29,
-27,
-33,
-28,
-28,
-34,
-27,
-27,
-30,
-27,
-28,
-30,
-27,
-29,
-27,
-28,
-28,
-23,
-28,
-26,
-24,
-29,
-20,
-27,
-26,
-21,
-29,
-20,
-23,
-30,
-16,
-26,
-24,
-17,
-26,
-21,
-18,
-26,
-17,
-19,
-26,
-15,
-17,
-23,
-10,
-23,
-19,
-11,
-24,
-14,
-12,
-21,
-8,
-16,
-15,
-11,
-16,
-13,
-12,
-14,
-10,
-11,
-11,
-11,
-7,
-13,
-10,
-7,
-9,
-8,
-6,
-9,
-5,
-6,
-5,
-4,
-3,
-7,
-1,
-4,
-4,
2,
-4,
-5,
6,
-6,
1,
4,
-5,
4,
0,
-2,
9,
-2,
2,
7,
-1,
6,
6,
0,
11,
6,
4,
9,
4,
6,
8,
7,
11,
8,
8,
10,
10,
10,
11,
10,
12,
11,
13,
14,
9,
16,
15,
8,
21,
10,
11,
20,
9,
17,
20,
9,
22,
14,
13,
24,
12,
16,
24,
10,
20,
21,
13,
20,
21,
13,
24,
18,
15,
25,
14,
20,
23,
12,
25,
20,
15,
24,
19,
19,
20,
19,
21,
18,
21,
18,
20,
20,
17,
23,
19,
18,
23,
16,
20,
22,
18,
18,
23,
16,
20,
21,
16,
22,
19,
14,
23,
14,
19,
23,
11,
20,
20,
10,
22,
14,
13,
19,
15,
16,
16,
12,
16,
14,
14,
16,
12,
13,
15,
12,
12,
11,
12,
11,
10,
13,
10,
8,
14,
6,
9,
11,
5,
8,
10,
2,
12,
4,
1,
11,
-3,
5,
11,
-5,
8,
4,
-3,
8,
0,
-1,
7,
-5,
3,
3,
-8,
2,
1,
-8,
1,
-4,
-8,
1,
-7,
-7,
-1,
-11,
-3,
-7,
-9,
-4,
-11,
-10,
-6,
-12,
-9,
-10,
-9,
-13,
-11,
-9,
-16,
-12,
-11,
-19,
-9,
-16,
-16,
-13,
-16,
-16,
-15,
-19,
-14,
-16,
-23,
-17,
-15,
-25,
-14,
-19,
-25,
-15,
-26,
-21,
-18,
-27,
-17,
-24,
-26,
-21,
-26,
-24,
-23,
-26,
-25,
-25,
-24,
-27,
-25,
-24,
-29,
-27,
-25,
-29,
-27,
-27,
-29,
-27,
-28,
-32,
-24,
-32,
-30,
-24,
-35,
-27,
-26,
-37,
-24,
-30,
-34,
-22,
-35,
-32,
-25,
-38,
-27,
-28,
-36,
-24,
-30,
-36,
-23,
-34,
-33,
-24,
-34,
-30,
-26,
-36,
-28,
-30,
-33,
-26,
-32,
-31,
-27,
-35,
-28,
-28,
-32,
-29,
-29,
-28,
-29,
-29,
-27,
-32,
-27,
-26,
-30,
-25,
-29,
-29,
-26,
-32,
-21,
-26,
-31,
-21,
-26,
-29,
-19,
-26,
-26,
-21,
-25,
-24,
-19,
-26,
-19,
-21,
-27,
-16,
-21,
-24,
-14,
-24,
-18,
-18,
-19,
-16,
-18,
-17,
-16,
-19,
-13,
-19,
-13,
-16,
-15,
-11,
-16,
-14,
-9,
-17,
-9,
-11,
-15,
-8,
-10,
-15,
-4,
-11,
-12,
-3,
-12,
-8,
-1,
-14,
-1,
-6,
-12,
3,
-9,
-6,
5,
-12,
-2,
1,
-8,
3,
0,
-4,
5,
-2,
0,
6,
-1,
1,
5,
-2,
6,
6,
1,
7,
4,
4,
8,
4,
9,
5,
5,
9,
8,
10,
8,
8,
12,
7,
12,
11,
7,
16,
9,
9,
17,
8,
12,
17,
10,
16,
15,
11,
18,
12,
14,
19,
14,
14,
20,
13,
16,
20,
13,
18,
20,
16,
20,
16,
19,
19,
17,
20,
18,
18,
21,
18,
22,
16,
20,
20,
15,
26,
17,
17,
25,
16,
21,
23,
15,
22,
21,
15,
24,
18,
17,
28,
16,
17,
29,
11,
22,
24,
11,
26,
18,
14,
27,
12,
21,
23,
12,
23,
19,
13,
22,
17,
15,
18,
16,
16,
17,
15,
16,
17,
13,
17,
13,
12,
16,
12,
16,
13,
15,
15,
8,
16,
11,
8,
17,
6,
12,
12,
5,
12,
11,
5,
12,
4,
8,
13,
3,
6,
10,
1,
8,
6,
0,
5,
5,
2,
5,
1,
1,
3,
-3,
2,
2,
-3,
-1,
1,
-1,
-2,
-3,
-4,
-5,
-1,
-4,
-6,
-2,
-8,
-4,
-4,
-11,
-3,
-8,
-11,
-3,
-14,
-9,
-6,
-16,
-10,
-6,
-17,
-7,
-12,
-17,
-8,
-15,
-18,
-8,
-21,
-12,
-11,
-25,
-11,
-14,
-24,
-10,
-22,
-19,
-15,
-25,
-18,
-17,
-22,
-17,
-23,
-20,
-21,
-23,
-23,
-23,
-23,
-24,
-24,
-23,
-25,
-24,
-25,
-24,
-27,
-23,
-28,
-27,
-23,
-31,
-24,
-26,
-32,
-20,
-31,
-29,
-23,
-34,
-26,
-27,
-35,
-24,
-30,
-31,
-27,
-31,
-31,
-28,
-33,
-28,
-29,
-34,
-28,
-28,
-35,
-28,
-31,
-32,
-28,
-31,
-32,
-31,
-30,
-30,
-30,
-28,
-33,
-29,
-30,
-32,
-27,
-33,
-31,
-27,
-35,
-27,
-27,
-36,
-26,
-26,
-35,
-23,
-31,
-30,
-23,
-34,
-26,
-24,
-34,
-23,
-26,
-32,
-21,
-27,
-30,
-20,
-30,
-26,
-21,
-31,
-21,
-21,
-29,
-19,
-26,
-26,
-18,
-27,
-22,
-19,
-24,
-19,
-22,
-19,
-21,
-20,
-18,
-20,
-19,
-17,
-21,
-16,
-17,
-17,
-16,
-16,
-17,
-12,
-17,
-16,
-9,
-18,
-12,
-7,
-19,
-5,
-13,
-15,
-5,
-14,
-9,
-5,
-15,
-3,
-9,
-11,
-3,
-8,
-8,
-3,
-6,
-6,
-1,
-4,
-6,
0,
-5,
-1,
-1,
-1,
1,
-1,
-2,
3,
0,
1,
0,
5,
-1,
2,
5,
-2,
8,
6,
0,
12,
2,
5,
12,
0,
10,
9,
1,
15,
6,
4,
17,
6,
6,
17,
6,
13,
14,
5,
17,
12,
8,
19,
9,
13,
18,
11,
16,
19,
11,
18,
14,
17,
18,
15,
18,
15,
16,
20,
14,
19,
18,
16,
20,
17,
18,
21,
14,
21,
20,
14,
24,
21,
15,
24,
17,
16,
25,
16,
20,
25,
13,
24,
19,
15,
28,
15,
18,
28,
14,
21,
22,
16,
22,
19,
18,
20,
18,
19,
19,
19,
16,
22,
17,
17,
21,
16,
16,
21,
17,
17,
17,
17,
16,
17,
16,
15,
18,
13,
18,
17,
7,
22,
11,
11,
21,
6,
14,
17,
6,
17,
11,
8,
15,
9,
8,
15,
6,
9,
14,
4,
9,
12,
2,
11,
6,
5,
10,
3,
7,
5,
1,
7,
0,
4,
5,
0,
3,
1,
0,
3,
-4,
4,
0,
-4,
3,
-3,
-5,
3,
-7,
-3,
-2,
-8,
-2,
-6,
-11,
0,
-8,
-10,
-1,
-11,
-9,
-1,
-15,
-6,
-8,
-16,
-5,
-12,
-16,
-7,
-19,
-12,
-10,
-19,
-13,
-13,
-18,
-13,
-16,
-16,
-18,
-15,
-18,
-18,
-17,
-20,
-18,
-19,
-23,
-17,
-22,
-20,
-19,
-23,
-24,
-17,
-26,
-24,
-18,
-29,
-23,
-19,
-30,
-20,
-26,
-30,
-19,
-29,
-26,
-20,
-33,
-24,
-26,
-31,
-24,
-28,
-31,
-27,
-28,
-29,
-27,
-29,
-30,
-27,
-33,
-27,
-30,
-33,
-26,
-32,
-30,
-28,
-32,
-28,
-35,
-28,
-29,
-35,
-25,
-34,
-33,
-24,
-37,
-28,
-28,
-36,
-25,
-32,
-34,
-24,
-35,
-31,
-26,
-36,
-29,
-25,
-36,
-26,
-28,
-35,
-23,
-32,
-31,
-23,
-35,
-27,
-24,
-33,
-24,
-26,
-32,
-23,
-29,
-28,
-24,
-28,
-26,
-24,
-27,
-25,
-25,
-26,
-24,
-24,
-26,
-24,
-22,
-26,
-24,
-19,
-25,
-19,
-19,
-24,
-18,
-17,
-23,
-16,
-21,
-20,
-15,
-22,
-18,
-12,
-24,
-13,
-14,
-23,
-10,
-15,
-18,
-8,
-17,
-11,
-13,
-15,
-9,
-12,
-13,
-7,
-13,
-10,
-9,
-9,
-11,
-7,
-7,
-8,
-7,
-5,
-6,
-6,
-4,
-3,
-6,
0,
-6,
-1,
0,
-7,
4,
-3,
-4,
8,
-7,
5,
5,
-6,
9,
1,
-2,
11,
0,
3,
8,
0,
6,
9,
0,
10,
8,
1,
14,
7,
2,
13,
5,
9,
14,
6,
14,
10,
9,
15,
11,
12,
14,
13,
11,
16,
14,
13,
16,
16,
12,
17,
16,
15,
16,
15,
16,
20,
16,
17,
19,
15,
18,
21,
12,
22,
19,
13,
22,
18,
16,
23,
16,
21,
22,
14,
23,
20,
16,
24,
17,
20,
24,
17,
20,
22,
19,
21,
17,
22,
18,
20,
21,
19,
20,
19,
18,
21,
19,
19,
22,
17,
18,
23,
14,
20,
22,
12,
22,
20,
11,
24,
14,
16,
24,
8,
22,
19,
