1-signale-auf-leitern/data/ALL0017/A0017CH1.CSV

Memory Length,4000,
Trigger Level,6.40000e+00,
Source,CH1,
Probe,1.0X,
Vertical Units,V,
Vertical Scale,5.00000e+00,
Vertical Position,0.00000e+00,
Horizontal Units,S,
Horizontal Scale,1.00000e-06,
Horizontal Position,2.3200000e-06,
Horizontal Mode,Main,
Sampling Period,4.00000e-09,
Firmware,V1.14,
Time, ,
Mode,Fast,
Waveform Data,
-6,
-6,
-5,
-6,
-4,
-5,
-5,
-6,
-5,
-5,
-5,
-6,
-5,
-5,
-5,
-5,
-3,
-5,
-5,
-5,
-4,
-5,
-5,
-5,
-4,
-5,
-4,
-5,
-4,
-5,
-4,
-7,
-4,
-5,
-5,
-5,
-5,
-5,
-4,
-6,
-4,
-5,
-5,
-4,
-5,
-5,
-4,
-5,
-4,
-6,
-5,
-6,
-4,
-5,
-5,
-6,
-4,
-6,
-5,
-6,
-2,
-5,
-5,
-6,
-3,
-5,
-5,
-6,
-3,
-3,
-5,
-5,
-4,
-5,
-5,
-6,
-4,
-5,
-5,
-5,
-5,
-5,
-4,
-6,
-5,
-5,
-4,
-5,
-5,
-5,
-4,
-4,
-4,
-5,
-5,
-5,
-4,
-6,
-4,
-5,
-5,
-5,
-5,
-6,
-4,
-5,
-3,
-5,
-4,
-5,
-4,
-5,
-3,
-4,
-4,
-4,
-4,
-5,
-4,
-4,
-5,
-5,
-4,
-4,
-4,
-6,
-5,
-5,
-5,
-5,
-5,
-5,
-4,
-5,
-4,
-6,
-5,
-6,
-4,
-5,
-5,
-7,
-4,
-6,
-5,
-6,
-3,
-4,
-5,
-6,
-3,
-5,
-4,
-5,
-3,
-5,
-4,
-5,
-5,
-5,
-4,
-5,
-5,
-5,
-4,
-6,
-5,
-5,
-4,
-6,
-5,
-5,
-5,
-6,
-4,
-5,
-5,
-5,
-4,
-5,
-5,
-6,
-4,
-5,
-3,
-6,
-5,
-4,
-4,
-6,
-3,
-4,
-4,
-6,
-3,
-5,
-4,
-4,
-4,
-6,
-4,
-5,
-3,
-5,
-5,
-6,
-4,
-5,
-5,
-5,
-4,
-5,
-5,
-5,
-3,
-4,
-5,
-5,
-4,
-5,
-6,
-5,
-4,
-5,
-5,
-6,
-5,
-4,
-5,
-5,
-5,
-6,
-4,
-4,
-5,
-6,
-3,
-4,
-6,
-6,
-4,
-5,
-4,
-6,
-4,
-4,
-5,
-6,
-3,
-4,
-4,
-5,
-3,
-5,
-5,
-6,
-4,
-3,
-5,
-6,
-5,
-5,
-4,
-5,
-4,
-5,
-4,
-5,
-4,
-7,
-5,
-5,
-5,
-5,
-5,
-6,
-4,
-4,
-4,
-5,
-4,
-4,
-5,
-6,
-3,
-5,
-6,
-4,
-5,
-4,
-4,
-5,
-4,
-4,
-4,
-6,
-5,
-5,
-5,
-4,
-5,
-7,
-4,
-4,
-2,
-4,
-4,
-6,
-4,
-5,
-4,
-5,
-5,
-5,
-5,
-4,
-4,
-5,
-5,
-5,
-4,
-5,
-4,
-5,
-4,
-6,
-5,
-4,
-3,
-4,
-5,
-5,
-5,
-6,
-3,
-4,
-5,
-5,
-5,
-5,
-4,
-5,
-4,
-5,
-4,
-5,
-5,
-4,
-5,
-5,
-4,
-6,
-5,
-4,
-4,
-4,
-4,
-4,
-4,
-5,
-4,
-4,
-5,
-5,
-4,
-5,
-5,
-5,
-5,
-6,
-5,
-6,
-5,
-5,
-4,
-5,
-5,
-7,
-5,
-5,
-3,
-5,
-4,
-5,
-5,
-5,
-4,
-4,
-5,
-5,
-4,
-5,
-3,
-5,
-5,
-6,
-5,
-5,
-5,
-6,
-4,
-5,
-5,
-4,
-3,
-5,
-5,
-5,
-3,
-5,
-5,
-5,
-4,
-4,
-4,
-6,
-5,
-5,
-5,
-5,
-3,
-6,
-5,
-4,
-3,
-5,
-5,
-6,
-5,
-5,
-5,
-5,
-5,
-5,
-5,
-6,
-3,
-5,
-5,
-7,
-4,
-5,
-4,
-5,
-3,
-5,
-4,
-6,
-4,
-5,
-6,
-5,
-5,
-5,
-5,
-5,
-4,
-3,
-5,
-5,
-5,
-5,
-3,
-5,
-3,
-7,
-5,
-4,
-5,
-6,
-3,
-5,
-4,
-6,
-3,
-4,
-5,
-5,
-5,
-5,
-5,
-5,
-3,
-5,
-5,
-6,
-5,
-5,
-3,
-5,
-4,
-5,
-4,
-5,
-3,
-5,
-5,
-5,
-4,
-5,
-3,
-5,
-5,
-5,
-5,
-5,
-4,
-4,
-4,
-5,
-5,
-6,
-4,
-5,
-3,
-4,
-5,
-6,
-5,
-4,
-3,
-5,
-5,
-5,
-4,
-6,
-5,
-5,
-5,
-4,
-5,
-5,
-4,
-5,
-3,
-5,
-5,
-7,
-5,
-5,
-5,
-5,
-4,
-5,
-4,
-5,
-3,
-5,
-5,
-5,
-4,
-5,
-5,
-6,
-3,
-4,
-5,
-5,
-5,
-5,
-5,
-6,
-4,
-5,
-5,
-5,
-3,
-6,
-5,
-5,
-4,
-5,
-3,
-5,
-5,
-5,
-4,
-5,
-3,
-4,
-4,
-6,
-4,
-5,
-4,
-6,
-5,
-5,
-4,
-6,
-4,
-6,
-4,
-5,
-3,
-4,
-4,
-4,
-4,
-4,
-4,
-5,
-5,
-5,
-4,
-6,
-4,
-5,
-5,
-5,
-4,
-5,
-5,
-5,
-3,
-5,
-4,
-5,
-5,
-5,
-5,
-6,
-3,
-5,
-5,
-5,
-5,
-5,
-5,
-6,
-5,
-5,
-5,
-6,
-5,
-6,
-5,
-7,
-3,
-5,
-4,
-6,
-4,
-5,
-5,
-6,
-2,
-4,
-5,
-5,
-3,
-6,
-4,
-6,
-3,
-5,
-4,
-5,
-5,
-5,
-4,
-7,
-3,
-5,
-4,
-6,
-5,
-5,
-5,
-4,
-4,
-6,
-4,
-5,
-4,
-5,
-5,
-5,
-4,
-5,
-4,
-5,
-5,
-4,
-4,
-5,
-5,
-6,
-5,
-4,
-4,
-5,
-4,
-5,
-5,
-5,
-4,
-7,
-4,
-5,
-4,
-5,
-3,
-5,
-5,
-6,
-4,
-5,
-5,
-4,
-5,
-5,
-4,
-6,
-4,
-5,
-5,
-4,
-4,
-5,
-5,
-6,
-4,
-6,
-4,
-5,
-5,
-4,
-5,
-5,
-4,
-5,
-3,
-5,
-4,
-6,
-5,
-4,
-4,
-5,
-5,
-5,
-4,
-5,
-3,
-6,
-4,
-4,
-5,
-4,
-5,
-6,
-5,
-5,
-4,
-4,
-5,
-4,
-5,
-5,
-4,
-5,
-5,
-6,
-5,
-6,
-5,
-6,
-5,
-5,
-4,
-7,
-4,
-4,
-3,
-5,
-4,
-6,
-4,
-4,
-4,
-5,
-5,
-5,
-4,
-7,
-5,
-4,
-5,
-5,
-5,
-5,
-5,
-5,
-5,
-5,
-4,
-6,
-4,
-5,
-5,
-5,
-4,
-6,
-5,
-5,
-3,
-5,
-5,
-4,
-4,
-4,
-3,
-5,
-4,
-6,
-4,
-5,
-4,
-5,
-5,
-5,
-5,
-6,
-5,
-5,
-5,
-5,
-4,
-4,
-5,
-5,
-3,
-5,
-4,
-6,
-4,
-4,
-5,
-5,
-4,
-5,
-4,
-6,
-3,
-4,
-5,
-5,
-5,
-5,
-4,
-5,
-3,
-5,
-5,
-6,
-4,
-5,
-4,
-6,
-5,
-5,
-5,
-5,
-3,
-5,
-5,
-5,
-5,
-6,
-4,
-5,
-5,
-5,
-5,
-6,
-4,
-5,
-4,
-5,
-4,
-5,
-4,
-5,
-4,
-5,
-4,
-6,
-3,
-5,
-4,
-5,
-4,
-5,
-4,
-6,
-3,
-5,
-4,
-5,
-3,
-5,
-5,
-5,
-3,
-5,
-5,
-7,
-4,
-5,
-4,
-5,
-4,
-6,
-4,
-5,
-4,
-5,
-4,
-5,
-5,
-5,
-3,
-5,
-5,
-5,
-3,
-6,
-4,
-5,
-5,
-5,
-4,
-4,
-4,
-6,
-3,
-5,
-4,
-5,
-3,
-4,
-4,
-5,
-3,
-5,
-4,
-6,
-3,
-5,
-4,
-5,
-5,
-5,
-4,
-6,
-3,
-5,
-5,
-5,
-4,
-6,
-5,
-4,
-4,
-5,
-4,
-5,
-5,
-5,
-3,
-5,
-4,
-5,
-4,
-6,
-4,
-5,
-5,
-5,
-4,
-6,
-5,
-5,
-3,
-6,
-5,
-5,
-5,
-5,
-4,
-5,
-4,
-4,
-5,
-5,
-4,
-5,
-5,
-6,
-4,
-6,
-4,
-6,
-4,
-4,
-4,
-4,
-3,
-5,
-3,
-5,
-4,
-5,
-4,
-5,
-5,
-6,
-4,
-5,
-5,
-5,
-3,
-5,
-4,
-5,
-3,
-4,
-4,
-4,
-3,
-5,
-5,
-5,
-4,
-7,
-5,
-5,
-4,
-5,
-5,
-5,
-4,
-5,
-4,
-6,
-4,
-5,
-5,
-6,
-4,
-5,
-5,
-4,
-3,
-5,
-5,
-5,
-4,
-5,
-4,
-4,
-5,
-5,
-5,
-6,
-3,
-5,
-5,
-6,
-4,
-5,
-4,
-6,
-3,
-5,
-4,
-5,
-3,
-5,
-5,
-5,
-3,
-5,
-4,
-5,
-4,
-5,
-4,
-6,
-5,
-4,
-5,
-6,
-4,
-5,
-5,
-7,
-3,
-5,
-4,
-5,
-4,
-6,
-5,
-3,
-3,
-4,
-4,
-6,
-5,
-4,
-5,
-5,
-4,
-5,
-4,
-5,
-4,
-4,
-4,
-6,
-3,
-4,
-5,
-6,
-5,
-5,
-4,
-5,
-2,
-5,
-4,
-5,
-4,
-5,
-4,
-5,
-4,
-5,
-5,
-6,
-5,
-5,
-5,
-6,
-3,
-5,
-5,
-5,
-4,
-5,
-4,
-6,
-5,
-5,
-4,
-4,
-4,
-6,
-5,
-4,
-3,
-4,
-5,
-6,
-4,
-5,
-4,
-5,
-4,
-5,
-4,
-6,
-3,
-6,
-5,
-5,
-4,
-5,
-4,
-4,
-3,
-5,
-5,
-7,
-5,
-5,
-2,
-6,
-5,
-5,
-4,
-6,
-3,
-5,
-5,
-5,
-5,
-6,
-5,
-5,
-4,
-5,
-4,
-7,
-5,
-5,
-3,
-6,
-4,
-5,
-5,
-4,
-4,
-6,
-4,
-4,
-2,
-6,
-5,
-5,
-4,
-5,
-3,
-5,
-5,
-4,
-3,
-5,
-5,
-5,
-4,
-5,
-4,
-5,
-5,
-4,
-4,
-5,
-5,
-5,
-4,
-5,
-5,
-6,
-4,
-5,
-4,
-7,
-4,
-5,
-4,
-5,
-3,
-6,
-5,
-6,
-3,
-5,
-4,
-5,
-4,
-5,
-5,
-6,
-4,
-4,
-3,
-5,
-5,
-4,
-5,
-5,
-3,
-4,
-4,
-5,
-5,
-5,
-4,
-6,
-3,
-6,
-4,
-4,
-5,
-5,
-2,
-5,
-5,
-6,
-4,
-5,
-5,
-5,
-4,
-5,
-4,
-4,
-3,
-7,
-3,
-5,
-5,
-5,
-4,
-5,
-5,
-5,
-4,
-5,
-5,
-5,
-4,
-5,
-5,
-6,
-5,
-5,
-4,
-5,
-4,
-5,
-5,
-5,
-4,
-6,
-4,
-5,
-5,
-5,
-4,
-5,
-4,
-5,
-5,
-5,
-5,
-5,
-4,
-5,
-5,
-7,
-5,
-5,
-4,
-6,
-4,
-5,
-6,
-5,
-3,
-7,
-4,
-4,
-4,
-6,
-4,
-5,
-5,
-5,
-4,
-6,
-4,
-6,
-3,
-5,
-5,
-6,
-4,
-6,
-4,
-5,
-5,
-5,
-4,
-4,
-4,
-6,
-4,
-5,
-5,
-6,
-4,
-6,
-4,
-5,
-2,
-3,
1,
1,
6,
5,
8,
8,
11,
13,
14,
15,
18,
18,
20,
19,
21,
22,
24,
25,
27,
27,
30,
28,
30,
30,
32,
31,
33,
32,
34,
35,
37,
36,
38,
37,
38,
39,
41,
39,
40,
39,
41,
41,
42,
40,
42,
43,
43,
43,
43,
42,
44,
43,
44,
45,
45,
44,
45,
44,
47,
47,
47,
47,
48,
47,
46,
47,
47,
47,
48,
47,
48,
47,
48,
48,
48,
48,
48,
48,
48,
49,
48,
48,
49,
48,
49,
49,
49,
49,
49,
50,
49,
49,
50,
48,
49,
49,
51,
49,
50,
49,
50,
49,
50,
50,
51,
50,
51,
50,
51,
49,
50,
49,
51,
49,
51,
50,
50,
49,
49,
50,
50,
50,
51,
51,
51,
50,
51,
50,
51,
50,
51,
50,
51,
50,
51,
51,
50,
49,
51,
49,
52,
49,
51,
51,
51,
49,
51,
50,
51,
51,
51,
51,
51,
51,
52,
51,
52,
51,
52,
51,
52,
52,
52,
51,
52,
51,
51,
50,
51,
51,
52,
51,
52,
51,
52,
51,
52,
51,
52,
50,
51,
51,
51,
51,
51,
51,
52,
51,
52,
51,
52,
51,
51,
50,
52,
51,
51,
51,
52,
51,
51,
51,
52,
51,
52,
51,
51,
52,
52,
51,
52,
51,
52,
50,
52,
51,
52,
51,
52,
51,
51,
51,
52,
51,
51,
51,
51,
51,
52,
51,
51,
50,
52,
50,
51,
50,
52,
50,
52,
51,
52,
51,
51,
51,
52,
51,
51,
50,
51,
51,
51,
51,
52,
51,
52,
51,
52,
51,
52,
51,
51,
51,
52,
50,
51,
51,
52,
51,
52,
51,
51,
51,
51,
51,
52,
51,
52,
51,
52,
51,
52,
51,
51,
51,
51,
51,
51,
50,
51,
51,
52,
50,
52,
52,
52,
50,
52,
51,
52,
51,
52,
51,
52,
50,
52,
51,
51,
51,
51,
51,
52,
51,
52,
51,
52,
51,
52,
51,
52,
51,
52,
51,
52,
51,
52,
50,
52,
51,
51,
51,
52,
51,
52,
51,
52,
51,
51,
50,
52,
51,
52,
51,
52,
51,
52,
51,
52,
51,
51,
51,
52,
51,
52,
51,
52,
51,
53,
51,
52,
51,
51,
51,
52,
50,
51,
51,
52,
51,
52,
51,
52,
52,
52,
51,
52,
51,
52,
51,
52,
50,
52,
50,
52,
51,
52,
51,
52,
51,
52,
51,
51,
50,
52,
51,
52,
51,
52,
51,
52,
51,
52,
52,
51,
51,
52,
51,
52,
51,
52,
51,
52,
51,
52,
51,
52,
50,
52,
51,
52,
51,
52,
51,
52,
51,
52,
51,
51,
51,
52,
50,
52,
51,
52,
51,
52,
51,
52,
51,
52,
50,
51,
51,
51,
51,
52,
51,
52,
51,
52,
50,
52,
52,
53,
51,
52,
51,
52,
51,
52,
51,
52,
52,
52,
51,
52,
51,
52,
51,
52,
51,
52,
51,
51,
51,
52,
52,
52,
51,
52,
51,
52,
51,
52,
51,
52,
51,
52,
52,
52,
51,
52,
51,
53,
52,
52,
51,
53,
51,
52,
51,
53,
52,
52,
51,
52,
51,
52,
52,
52,
51,
52,
52,
52,
51,
52,
52,
52,
51,
52,
52,
52,
52,
52,
51,
52,
51,
52,
51,
52,
51,
52,
51,
51,
51,
52,
51,
52,
51,
52,
51,
52,
51,
52,
51,
52,
51,
52,
50,
52,
50,
52,
51,
52,
50,
51,
51,
52,
50,
51,
50,
51,
50,
51,
51,
51,
50,
52,
52,
51,
51,
52,
52,
52,
51,
52,
51,
52,
52,
51,
51,
53,
51,
52,
51,
52,
51,
52,
51,
52,
51,
52,
51,
51,
51,
52,
51,
52,
50,
51,
49,
50,
49,
50,
50,
50,
49,
51,
50,
49,
49,
51,
50,
49,
49,
51,
49,
50,
49,
51,
50,
52,
50,
51,
51,
52,
51,
51,
51,
52,
52,
52,
52,
52,
54,
53,
52,
54,
53,
54,
54,
55,
54,
55,
55,
55,
55,
56,
55,
55,
56,
56,
55,
57,
56,
56,
56,
57,
56,
56,
55,
56,
57,
56,
56,
56,
55,
56,
55,
56,
54,
55,
53,
55,
53,
53,
54,
54,
52,
52,
52,
52,
51,
51,
51,
51,
48,
49,
49,
48,
48,
48,
47,
47,
46,
46,
44,
44,
43,
45,
44,
43,
42,
42,
41,
41,
39,
41,
39,
39,
39,
37,
36,
37,
35,
36,
33,
34,
34,
34,
32,
33,
31,
32,
29,
32,
29,
30,
27,
29,
27,
27,
27,
29,
27,
26,
25,
25,
25,
24,
23,
22,
23,
24,
23,
21,
21,
21,
20,
19,
20,
20,
19,
19,
18,
19,
17,
18,
17,
17,
17,
16,
15,
16,
15,
15,
15,
15,
15,
14,
14,
14,
13,
14,
14,
13,
13,
14,
12,
12,
11,
12,
11,
11,
11,
11,
10,
11,
9,
10,
9,
11,
9,
11,
10,
10,
9,
10,
9,
10,
10,
10,
8,
9,
8,
10,
8,
8,
8,
8,
7,
9,
7,
8,
7,
8,
7,
7,
7,
8,
7,
7,
7,
7,
6,
8,
6,
7,
5,
8,
6,
7,
6,
7,
7,
7,
6,
6,
6,
7,
6,
7,
5,
7,
6,
7,
5,
6,
5,
6,
6,
7,
5,
7,
5,
6,
5,
7,
5,
6,
7,
6,
5,
7,
5,
6,
5,
6,
5,
7,
5,
7,
7,
6,
5,
6,
5,
7,
5,
6,
5,
7,
5,
7,
6,
7,
5,
6,
5,
6,
6,
5,
5,
6,
5,
6,
5,
6,
6,
7,
6,
6,
6,
6,
5,
6,
5,
7,
5,
6,
5,
6,
5,
7,
5,
7,
5,
7,
6,
5,
5,
7,
5,
6,
4,
6,
5,
6,
5,
6,
5,
6,
6,
6,
5,
6,
5,
7,
5,
7,
5,
6,
4,
6,
5,
7,
5,
5,
5,
6,
5,
7,
5,
5,
5,
6,
5,
6,
5,
6,
5,
6,
5,
6,
5,
6,
5,
5,
5,
7,
6,
7,
5,
6,
5,
7,
6,
6,
5,
6,
5,
7,
6,
7,
6,
7,
6,
6,
5,
7,
7,
6,
5,
7,
5,
7,
5,
6,
6,
6,
5,
7,
5,
6,
5,
6,
6,
7,
5,
6,
5,
7,
5,
7,
5,
6,
7,
7,
6,
8,
5,
7,
5,
6,
6,
7,
6,
7,
5,
7,
6,
7,
7,
7,
6,
8,
6,
7,
6,
6,
5,
7,
7,
7,
6,
7,
7,
7,
6,
7,
5,
7,
5,
7,
6,
7,
6,
7,
5,
7,
6,
7,
5,
7,
5,
6,
6,
6,
5,
7,
5,
6,
5,
6,
5,
7,
5,
6,
5,
6,
7,
7,
5,
6,
5,
7,
5,
7,
5,
7,
6,
7,
7,
6,
6,
6,
7,
7,
6,
7,
5,
6,
5,
7,
5,
6,
6,
7,
5,
6,
5,
7,
5,
6,
6,
7,
6,
7,
7,
7,
7,
7,
6,
7,
6,
6,
5,
7,
5,
6,
5,
8,
6,
7,
7,
7,
6,
7,
5,
7,
7,
7,
7,
7,
5,
7,
6,
7,
5,
6,
5,
8,
6,
7,
5,
7,
6,
7,
6,
7,
7,
7,
7,
8,
7,
8,
5,
7,
5,
7,
6,
7,
6,
7,
5,
7,
7,
7,
6,
7,
6,
6,
5,
6,
6,
7,
5,
6,
5,
6,
5,
6,
5,
7,
6,
6,
5,
7,
5,
7,
6,
6,
5,
7,
7,
6,
6,
7,
5,
7,
7,
7,
7,
7,
7,
7,
7,
7,
7,
7,
7,
7,
7,
8,
7,
8,
7,
7,
7,
8,
7,
8,
7,
8,
6,
8,
7,
7,
7,
7,
5,
7,
6,
8,
5,
6,
6,
6,
5,
7,
5,
6,
5,
5,
5,
6,
4,
5,
5,
6,
4,
5,
4,
6,
4,
4,
4,
4,
4,
5,
5,
5,
5,
6,
5,
6,
5,
4,
4,
6,
4,
6,
5,
6,
5,
6,
5,
6,
6,
7,
7,
7,
6,
7,
7,
8,
8,
8,
9,
9,
7,
9,
8,
9,
8,
10,
8,
9,
9,
9,
9,
11,
9,
11,
9,
11,
10,
10,
9,
11,
10,
11,
8,
11,
9,
10,
9,
12,
10,
10,
9,
11,
8,
9,
9,
10,
9,
9,
8,
10,
8,
9,
8,
8,
8,
8,
7,
8,
6,
7,
6,
7,
7,
6,
6,
6,
4,
6,
5,
5,
4,
5,
4,
5,
3,
4,
3,
4,
2,
3,
2,
2,
1,
3,
1,
2,
1,
2,
0,
2,
0,
1,
-1,
0,
0,
0,
-1,
-1,
-1,
-1,
-2,
-1,
-2,
-2,
-2,
-2,
-2,
-3,
-1,
-2,
-4,
-2,
-3,
-2,
-4,
-4,
-3,
-2,
-3,
-3,
-3,
-3,
-3,
-3,
-4,
-4,
-4,
-4,
-5,
-4,
-6,
-3,
-4,
-4,
-5,
-3,
-4,
-4,
-5,
-4,
-6,
-4,
-4,
-4,
-5,
-4,
-7,
-4,
-4,
-2,
-5,
-4,
-5,
-4,
-5,
-2,
-5,
-4,
-4,
-3,
-4,
-4,
-4,
-3,
-4,
-4,
-3,
-4,
-4,
-2,
-4,
-2,
-4,
-3,
-3,
-2,
-3,
-2,
-4,
-2,
-3,
-3,
-3,
-2,
-3,
-3,
-3,
-2,
-3,
-2,
-2,
-2,
-3,
-1,
-2,
-2,
-3,
-1,
-2,
-1,
-2,
-1,
-1,
-1,
-1,
0,
-2,
-1,
-1,
-1,
-1,
0,
-1,
0,
-1,
0,
-1,
-1,
-2,
-1,
-1,
0,
-1,
0,
-1,
-1,
0,
1,
-1,
1,
-1,
1,
1,
0,
0,
0,
1,
0,
0,
1,
0,
2,
0,
1,
0,
0,
0,
1,
1,
1,
1,
1,
0,
2,
1,
1,
1,
1,
0,
2,
1,
1,
1,
2,
1,
2,
0,
2,
0,
2,
0,
2,
1,
1,
1,
2,
1,
2,
1,
1,
1,
2,
1,
2,
1,
2,
1,
3,
2,
2,
2,
1,
1,
2,
1,
2,
1,
2,
1,
2,
2,
2,
1,
2,
1,
2,
1,
3,
2,
3,
1,
3,
1,
2,
2,
3,
2,
2,
1,
2,
2,
3,
3,
3,
2,
3,
2,
3,
1,
3,
2,
2,
1,
3,
1,
3,
1,
3,
1,
2,
1,
2,
1,
3,
1,
3,
2,
2,
2,
2,
2,
3,
2,
3,
3,
3,
1,
3,
1,
3,
3,
3,
1,
3,
2,
3,
1,
3,
3,
3,
2,
3,
2,
3,
2,
2,
2,
3,
1,
3,
1,
3,
2,
2,
1,
4,
1,
3,
2,
3,
1,
3,
3,
2,
3,
4,
2,
3,
2,
3,
2,
3,
1,
3,
2,
4,
1,
3,
2,
3,
2,
3,
2,
3,
2,
3,
3,
3,
1,
3,
2,
2,
2,
3,
2,
3,
2,
3,
2,
3,
1,
3,
1,
3,
2,
3,
2,
3,
1,
2,
2,
3,
2,
3,
1,
2,
2,
3,
1,
3,
1,
3,
1,
3,
2,
4,
3,
3,
2,
3,
1,
3,
1,
3,
1,
3,
2,
2,
2,
3,
1,
3,
1,
2,
1,
3,
1,
2,
2,
2,
2,
2,
1,
2,
2,
2,
1,
3,
1,
3,
2,
2,
1,
3,
1,
3,
2,
3,
1,
3,
3,
3,
2,
3,
2,
4,
3,
3,
1,
4,
3,
4,
2,
3,
3,
3,
4,
4,
3,
3,
2,
4,
2,
3,
2,
3,
1,
2,
2,
3,
1,
3,
2,
2,
1,
2,
1,
2,
2,
2,
1,
2,
1,
2,
1,
2,
1,
2,
1,
2,
1,
2,
1,
2,
1,
3,
1,
3,
2,
2,
2,
3,
2,
3,
1,
3,
2,
4,
3,
3,
2,
3,
3,
3,
3,
4,
3,
4,
3,
3,
2,
3,
3,
4,
3,
3,
3,
3,
3,
4,
3,
3,
3,
2,
3,
4,
2,
3,
2,
3,
2,
3,
3,
3,
1,
3,
1,
3,
1,
2,
2,
3,
1,
3,
2,
2,
1,
2,
2,
2,
1,
2,
1,
3,
1,
2,
0,
1,
0,
2,
0,
2,
0,
2,
1,
1,
1,
1,
1,
1,
1,
2,
1,
1,
0,
2,
1,
1,
2,
2,
1,
1,
1,
3,
2,
3,
2,
3,
2,
2,
3,
3,
2,
3,
1,
3,
3,
3,
3,
3,
3,
4,
3,
4,
3,
4,
3,
3,
3,
5,
3,
5,
4,
5,
4,
4,
4,
4,
4,
5,
4,
5,
3,
5,
4,
5,
4,
4,
5,
5,
4,
4,
3,
5,
3,
3,
3,
4,
3,
5,
3,
5,
4,
4,
3,
4,
3,
5,
3,
4,
2,
3,
2,
4,
2,
2,
1,
3,
2,
3,
2,
3,
1,
3,
1,
2,
1,
2,
1,
2,
1,
1,
0,
2,
0,
0,
0,
1,
0,
0,
-1,
1,
-1,
0,
-1,
1,
-1,
0,
-2,
-1,
-1,
-1,
-1,
-1,
-1,
-1,
-1,
0,
0,
-1,
-1,
-1,
-2,
-1,
-1,
-1,
-2,
-2,
-1,
-1,
-1,
-1,
-2,
-1,
-2,
-1,
-1,
-1,
-2,
-1,
-1,
-2,
-2,
-1,
-2,
-1,
-2,
0,
-1,
-1,
-1,
0,
-2,
0,
-1,
-1,
-2,
-1,
1,
0,
-2,
0,
-1,
0,
1,
0,
-1,
0,
-1,
0,
-1,
0,
-1,
0,
1,
1,
-1,
1,
1,
1,
-1,
1,
1,
1,
0,
0,
-1,
1,
-1,
0,
-1,
1,
1,
0,
0,
0,
0,
1,
0,
2,
0,
1,
0,
1,
2,
1,
0,
1,
1,
2,
0,
1,
1,
2,
1,
2,
1,
1,
1,
2,
2,
3,
1,
2,
1,
1,
1,
3,
1,
3,
3,
3,
1,
2,
1,
2,
1,
2,
1,
2,
1,
3,
1,
3,
1,
3,
2,
3,
2,
3,
3,
3,
3,
2,
2,
3,
2,
4,
2,
3,
3,
3,
2,
4,
3,
3,
1,
3,
2,
2,
2,
3,
3,
3,
2,
4,
2,
3,
3,
3,
3,
3,
2,
3,
2,
3,
3,
3,
2,
2,
3,
5,
1,
3,
3,
3,
3,
4,
2,
3,
2,
4,
3,
2,
1,
3,
1,
3,
3,
3,
3,
3,
3,
3,
2,
2,
2,
3,
2,
3,
2,
3,
3,
3,
2,
3,
3,
3,
2,
4,
2,
3,
2,
3,
3,
3,
1,
3,
2,
4,
1,
3,
2,
3,
1,
2,
1,
2,
2,
2,
2,
2,
2,
2,
2,
2,
1,
2,
2,
2,
1,
3,
1,
2,
1,
2,
2,
2,
2,
2,
2,
3,
1,
3,
2,
2,
1,
3,
2,
2,
1,
3,
2,
3,
1,
3,
1,
3,
1,
3,
1,
3,
2,
3,
1,
2,
2,
3,
1,
2,
1,
2,
1,
3,
1,
2,
1,
3,
1,
3,
2,
2,
1,
3,
0,
3,
1,
2,
1,
3,
1,
3,
2,
2,
2,
2,
2,
3,
1,
2,
1,
3,
2,
3,
2,
3,
2,
2,
1,
3,
1,
2,
1,
2,
2,
3,
1,
2,
1,
3,
1,
2,
1,
3,
1,
3,
2,
1,
2,
2,
2,
2,
1,
2,
1,
2,
1,
1,
1,
3,
1,
2,
0,
2,
1,
2,
2,
2,
1,
2,
1,
2,
1,
2,
1,
2,
1,
2,
1,
2,
2,
2,
1,
2,
1,
2,
1,
2,
1,
2,
2,
3,
2,
2,
1,
2,
2,
2,
1,
2,
2,
2,
2,
3,
1,
3,
1,
2,
1,
2,
2,
3,
2,
2,
2,
2,
1,
1,
1,
2,
2,
2,
2,
2,
0,
2,
1,
2,
1,
3,
1,
2,
1,
2,
1,
2,
0,
2,
2,
2,
1,
2,
1,
2,
0,
2,
1,
2,
1,
1,
0,
2,
1,
2,
0,
2,
1,
3,
1,
2,
2,
2,
2,
2,
1,
2,
2,
2,
1,
3,
1,
2,
1,
3,
2,
3,
2,
3,
2,
3,
2,
3,
3,
3,
1,
2,
3,
3,
1,
3,
0,
2,
2,
3,
2,
3,
2,
3,
2,
2,
2,
2,
1,
3,
1,
2,
2,
2,
1,
2,
1,
2,
1,
1,
2,
2,
1,
1,
1,
1,
0,
1,
1,
1,
0,
1,
0,
2,
0,
2,
1,
1,
0,
1,
-1,
1,
0,
1,
1,
0,
0,
2,
0,
2,
0,
1,
1,
2,
1,
2,
0,
2,
1,
2,
0,
2,
1,
2,
1,
2,
1,
