2-diodenkennlinien/data/ALL0005/A0005CH1.CSV

Memory Length,4000,
Trigger Level,2.73000e+00,
Source,CH1,
Probe,1.0X,
Vertical Units,V,
Vertical Scale,1.00000e+00,
Vertical Position,3.72000e+00,
Horizontal Units,S,
Horizontal Scale,5.00000e-03,
Horizontal Position,0.0000000e+00,
Horizontal Mode,XY Mode,
Sampling Period,2.00000e-05,
Firmware,V1.14,
Time, ,
Mode,Fast,
Waveform Data,
16,
16,
16,
16,
16,
16,
16,
17,
17,
17,
17,
18,
18,
17,
17,
17,
17,
18,
18,
18,
18,
17,
17,
17,
17,
17,
17,
18,
18,
18,
18,
18,
18,
18,
18,
18,
18,
18,
18,
18,
18,
18,
18,
18,
18,
18,
18,
18,
18,
18,
18,
18,
18,
18,
18,
18,
18,
18,
18,
18,
18,
18,
18,
19,
19,
18,
18,
19,
19,
18,
18,
19,
19,
18,
18,
18,
18,
19,
19,
18,
18,
18,
18,
18,
18,
18,
18,
19,
19,
18,
18,
19,
19,
19,
19,
19,
19,
19,
19,
19,
19,
18,
18,
19,
19,
19,
19,
19,
19,
19,
19,
19,
19,
18,
18,
19,
19,
18,
-210,
-208,
-208,
-208,
-208,
-208,
-208,
-208,
-208,
-208,
-208,
-208,
-208,
-207,
-207,
-207,
-207,
-207,
-207,
-206,
-206,
-204,
-204,
-202,
-202,
-199,
-199,
-194,
-194,
-190,
-190,
-187,
-187,
-182,
-182,
-177,
-177,
-173,
-173,
-170,
-170,
-165,
-165,
-161,
-161,
-158,
-158,
-155,
-155,
-150,
-150,
-146,
-146,
-142,
-142,
-139,
-139,
-134,
-134,
-130,
-130,
-126,
-126,
-122,
-122,
-118,
-118,
-114,
-114,
-110,
-110,
-106,
-106,
-102,
-102,
-98,
-98,
-94,
-94,
-91,
-91,
-86,
-86,
-82,
-82,
-77,
-77,
-73,
-73,
-69,
-69,
-66,
-66,
-63,
-63,
-59,
-59,
-55,
-55,
-50,
-50,
-46,
-46,
-42,
-42,
-37,
-37,
-34,
-34,
-30,
-30,
-26,
-26,
-22,
-22,
-19,
-19,
-15,
-15,
-9,
-9,
-7,
-7,
-3,
-3,
1,
1,
6,
6,
10,
10,
13,
13,
15,
15,
16,
16,
16,
16,
17,
17,
17,
17,
17,
17,
17,
17,
18,
18,
17,
17,
18,
18,
18,
18,
17,
17,
17,
17,
18,
18,
18,
18,
18,
18,
18,
18,
18,
18,
17,
17,
17,
17,
18,
18,
18,
18,
18,
18,
18,
18,
18,
18,
18,
18,
18,
18,
19,
19,
19,
19,
18,
18,
18,
18,
18,
18,
18,
18,
18,
18,
18,
18,
19,
19,
19,
19,
19,
19,
18,
18,
18,
18,
19,
19,
18,
18,
19,
19,
19,
19,
18,
18,
18,
18,
18,
18,
20,
20,
18,
18,
19,
19,
19,
19,
19,
19,
19,
19,
19,
19,
19,
19,
19,
19,
19,
19,
19,
19,
19,
-210,
-208,
-208,
-208,
-208,
-208,
-208,
-208,
-208,
-208,
-208,
-207,
-207,
-208,
-208,
-206,
-206,
-206,
-206,
-205,
-205,
-204,
-204,
-200,
-200,
-197,
-197,
-194,
-194,
-190,
-190,
-187,
-187,
-181,
-181,
-178,
-178,
-175,
-175,
-170,
-170,
-166,
-166,
-161,
-161,
-158,
-158,
-154,
-154,
-150,
-150,
-147,
-147,
-143,
-143,
-138,
-138,
-134,
-134,
-130,
-130,
-126,
-126,
-122,
-122,
-117,
-117,
-112,
-112,
-109,
-109,
-107,
-107,
-101,
-101,
-98,
-98,
-94,
-94,
-90,
-90,
-87,
-87,
-83,
-83,
-78,
-78,
-73,
-73,
-70,
-70,
-65,
-65,
-62,
-62,
-58,
-58,
-55,
-55,
-51,
-51,
-46,
-46,
-43,
-43,
-40,
-40,
-35,
-35,
-30,
-30,
-27,
-27,
-23,
-23,
-16,
-16,
-14,
-14,
-11,
-11,
-8,
-8,
-3,
-3,
1,
1,
5,
5,
8,
8,
12,
12,
16,
16,
16,
16,
16,
16,
16,
16,
17,
17,
17,
17,
17,
17,
17,
17,
17,
17,
18,
18,
18,
18,
18,
18,
18,
18,
18,
18,
17,
17,
18,
18,
18,
18,
18,
18,
18,
18,
18,
18,
17,
17,
19,
19,
19,
19,
18,
18,
18,
18,
19,
19,
18,
18,
18,
18,
18,
18,
18,
18,
18,
18,
18,
18,
19,
19,
18,
18,
18,
18,
18,
18,
18,
18,
18,
18,
18,
18,
18,
18,
18,
18,
19,
19,
17,
17,
19,
19,
19,
19,
18,
18,
18,
18,
19,
19,
18,
18,
19,
19,
18,
18,
19,
19,
18,
18,
19,
19,
18,
18,
19,
19,
18,
18,
18,
18,
19,
-210,
-208,
-208,
-208,
-208,
-208,
-208,
-208,
-208,
-208,
-208,
-207,
-207,
-207,
-207,
-206,
-206,
-206,
-206,
-204,
-204,
-204,
-204,
-202,
-202,
-199,
-199,
-194,
-194,
-190,
-190,
-186,
-186,
-183,
-183,
-179,
-179,
-175,
-175,
-170,
-170,
-167,
-167,
-161,
-161,
-158,
-158,
-154,
-154,
-150,
-150,
-146,
-146,
-142,
-142,
-138,
-138,
-135,
-135,
-130,
-130,
-126,
-126,
-122,
-122,
-118,
-118,
-114,
-114,
-110,
-110,
-106,
-106,
-101,
-101,
-98,
-98,
-94,
-94,
-90,
-90,
-86,
-86,
-83,
-83,
-78,
-78,
-75,
-75,
-72,
-72,
-67,
-67,
-62,
-62,
-57,
-57,
-53,
-53,
-50,
-50,
-46,
-46,
-42,
-42,
-39,
-39,
-34,
-34,
-30,
-30,
-26,
-26,
-22,
-22,
-18,
-18,
-14,
-14,
-11,
-11,
-6,
-6,
-2,
-2,
1,
1,
4,
4,
9,
9,
12,
12,
15,
15,
16,
16,
16,
16,
17,
17,
17,
17,
17,
17,
17,
17,
18,
18,
17,
17,
18,
18,
18,
18,
18,
18,
18,
18,
18,
18,
18,
18,
18,
18,
18,
18,
18,
18,
18,
18,
18,
18,
19,
19,
18,
18,
18,
18,
18,
18,
18,
18,
18,
18,
18,
18,
18,
18,
18,
18,
18,
18,
18,
18,
19,
19,
19,
19,
18,
18,
19,
19,
19,
19,
18,
18,
18,
18,
19,
19,
19,
19,
18,
18,
18,
18,
18,
18,
18,
18,
18,
18,
18,
18,
18,
18,
18,
18,
18,
18,
19,
19,
19,
19,
19,
19,
19,
19,
19,
19,
20,
20,
19,
19,
19,
19,
19,
19,
19,
-210,
-208,
-208,
-208,
-208,
-208,
-208,
-208,
-208,
-208,
-208,
-207,
-207,
-207,
-207,
-206,
-206,
-206,
-206,
-205,
-205,
-205,
-205,
-202,
-202,
-198,
-198,
-194,
-194,
-192,
-192,
-188,
-188,
-182,
-182,
-178,
-178,
-175,
-175,
-172,
-172,
-167,
-167,
-162,
-162,
-158,
-158,
-155,
-155,
-150,
-150,
-146,
-146,
-141,
-141,
-137,
-137,
-136,
-136,
-129,
-129,
-127,
-127,
-122,
-122,
-117,
-117,
-114,
-114,
-110,
-110,
-105,
-105,
-103,
-103,
-97,
-97,
-93,
-93,
-90,
-90,
-87,
-87,
-81,
-81,
-78,
-78,
-73,
-73,
-70,
-70,
-67,
-67,
-63,
-63,
-59,
-59,
-54,
-54,
-51,
-51,
-45,
-45,
-41,
-41,
-38,
-38,
-35,
-35,
-32,
-32,
-27,
-27,
-23,
-23,
-19,
-19,
-16,
-16,
-9,
-9,
-8,
-8,
-4,
-4,
2,
2,
6,
6,
10,
10,
13,
13,
16,
16,
16,
16,
16,
16,
16,
16,
17,
17,
17,
17,
18,
18,
18,
18,
17,
17,
18,
18,
17,
17,
17,
17,
18,
18,
18,
18,
18,
18,
18,
18,
17,
17,
18,
18,
18,
18,
18,
18,
18,
18,
18,
18,
18,
18,
17,
17,
18,
18,
18,
18,
18,
18,
18,
18,
18,
18,
18,
18,
18,
18,
19,
19,
19,
19,
18,
18,
18,
18,
19,
19,
19,
19,
19,
19,
18,
18,
19,
19,
18,
18,
18,
18,
19,
19,
18,
18,
19,
19,
18,
18,
18,
18,
18,
18,
18,
18,
19,
19,
18,
18,
19,
19,
19,
19,
18,
18,
19,
19,
19,
19,
19,
19,
19,
19,
18,
-209,
-208,
-208,
-208,
-208,
-208,
-208,
-208,
-208,
-208,
-208,
-208,
-208,
-207,
-207,
-206,
-206,
-206,
-206,
-205,
-205,
-204,
-204,
-200,
-200,
-198,
-198,
-195,
-195,
-190,
-190,
-187,
-187,
-183,
-183,
-180,
-180,
-174,
-174,
-169,
-169,
-167,
-167,
-161,
-161,
-158,
-158,
-154,
-154,
-150,
-150,
-147,
-147,
-142,
-142,
-137,
-137,
-134,
-134,
-130,
-130,
-126,
-126,
-122,
-122,
-118,
-118,
-116,
-116,
-109,
-109,
-105,
-105,
-102,
-102,
-98,
-98,
-95,
-95,
-90,
-90,
-85,
-85,
-81,
-81,
-77,
-77,
-75,
-75,
-70,
-70,
-65,
-65,
-62,
-62,
-58,
-58,
-55,
-55,
-51,
-51,
-46,
-46,
-41,
-41,
-37,
-37,
-33,
-33,
-30,
-30,
-26,
-26,
-22,
-22,
-19,
-19,
-15,
-15,
-10,
-10,
-7,
-7,
-3,
-3,
2,
2,
6,
6,
9,
9,
14,
14,
15,
15,
16,
16,
16,
16,
17,
17,
17,
17,
18,
18,
17,
17,
17,
17,
17,
17,
18,
18,
17,
17,
18,
18,
18,
18,
17,
17,
17,
17,
18,
18,
18,
18,
18,
18,
18,
18,
18,
18,
18,
18,
18,
18,
18,
18,
18,
18,
18,
18,
18,
18,
18,
18,
18,
18,
18,
18,
19,
19,
19,
19,
18,
18,
18,
18,
18,
18,
19,
19,
19,
19,
18,
18,
18,
18,
18,
18,
18,
18,
19,
19,
18,
18,
18,
18,
18,
18,
18,
18,
19,
19,
19,
19,
18,
18,
20,
20,
20,
20,
19,
19,
19,
19,
19,
19,
18,
18,
19,
19,
18,
18,
18,
18,
20,
20,
19,
-209,
-209,
-209,
-208,
-208,
-208,
-208,
-208,
-208,
-208,
-208,
-207,
-207,
-206,
-206,
-207,
-207,
-206,
-206,
-205,
-205,
-202,
-202,
-201,
-201,
-198,
-198,
-195,
-195,
-190,
-190,
-186,
-186,
-182,
-182,
-178,
-178,
-175,
-175,
-171,
-171,
-167,
-167,
-161,
-161,
-158,
-158,
-155,
-155,
-151,
-151,
-147,
-147,
-142,
-142,
-139,
-139,
-135,
-135,
-130,
-130,
-126,
-126,
-122,
-122,
-118,
-118,
-114,
-114,
-110,
-110,
-107,
-107,
-102,
-102,
-98,
-98,
-95,
-95,
-90,
-90,
-86,
-86,
-82,
-82,
-78,
-78,
-73,
-73,
-70,
-70,
-67,
-67,
-61,
-61,
-58,
-58,
-54,
-54,
-50,
-50,
-48,
-48,
-42,
-42,
-39,
-39,
-33,
-33,
-30,
-30,
-26,
-26,
-21,
-21,
-19,
-19,
-15,
-15,
-12,
-12,
-7,
-7,
-3,
-3,
1,
1,
4,
4,
10,
10,
13,
13,
15,
15,
16,
16,
16,
16,
16,
16,
17,
17,
17,
17,
17,
17,
18,
18,
17,
17,
18,
18,
18,
18,
17,
17,
17,
17,
18,
18,
18,
18,
18,
18,
18,
18,
18,
18,
18,
18,
18,
18,
18,
18,
18,
18,
18,
18,
18,
18,
17,
17,
19,
19,
18,
18,
19,
19,
18,
18,
18,
18,
18,
18,
18,
18,
18,
18,
18,
18,
19,
19,
19,
19,
18,
18,
18,
18,
18,
18,
18,
18,
19,
19,
18,
18,
18,
18,
19,
19,
18,
18,
20,
20,
19,
19,
19,
19,
19,
19,
18,
18,
18,
18,
20,
20,
18,
18,
19,
19,
19,
19,
19,
19,
19,
19,
19,
19,
19,
-209,
-208,
-208,
-208,
-208,
-208,
-208,
-207,
-207,
-207,
-207,
-208,
-208,
-207,
-207,
-207,
-207,
-206,
-206,
-204,
-204,
-204,
-204,
-202,
-202,
-199,
-199,
-194,
-194,
-190,
-190,
-186,
-186,
-181,
-181,
-177,
-177,
-175,
-175,
-171,
-171,
-166,
-166,
-163,
-163,
-159,
-159,
-154,
-154,
-149,
-149,
-145,
-145,
-142,
-142,
-139,
-139,
-135,
-135,
-130,
-130,
-127,
-127,
-122,
-122,
-117,
-117,
-114,
-114,
-109,
-109,
-106,
-106,
-101,
-101,
-98,
-98,
-96,
-96,
-89,
-89,
-86,
-86,
-82,
-82,
-79,
-79,
-75,
-75,
-70,
-70,
-65,
-65,
-61,
-61,
-59,
-59,
-54,
-54,
-49,
-49,
-45,
-45,
-43,
-43,
-39,
-39,
-35,
-35,
-31,
-31,
-26,
-26,
-22,
-22,
-18,
-18,
-13,
-13,
-10,
-10,
-7,
-7,
-2,
-2,
1,
1,
4,
4,
10,
10,
13,
13,
15,
15,
16,
16,
17,
17,
17,
17,
17,
17,
17,
17,
17,
17,
18,
18,
17,
17,
18,
18,
18,
18,
18,
18,
18,
18,
18,
18,
18,
18,
18,
18,
18,
18,
17,
17,
18,
18,
18,
18,
18,
18,
18,
18,
18,
18,
18,
18,
17,
17,
18,
18,
18,
18,
18,
18,
18,
18,
19,
19,
18,
18,
18,
18,
18,
18,
18,
18,
18,
18,
18,
18,
18,
18,
18,
18,
18,
18,
18,
18,
19,
19,
18,
18,
19,
19,
18,
18,
19,
19,
18,
18,
19,
19,
18,
18,
20,
20,
18,
18,
19,
19,
19,
19,
18,
18,
18,
18,
19,
19,
20,
20,
20,
20,
19,
19,
19,
-210,
-208,
-208,
-208,
-208,
-208,
-208,
-208,
-208,
-208,
-208,
-208,
-208,
-207,
-207,
-207,
-207,
-206,
-206,
-206,
-206,
-204,
-204,
-202,
-202,
-198,
-198,
-194,
-194,
-191,
-191,
-188,
-188,
-182,
-182,
-179,
-179,
-175,
-175,
-170,
-170,
-166,
-166,
-161,
-161,
-159,
-159,
-155,
-155,
-152,
-152,
-148,
-148,
-141,
-141,
-138,
-138,
-135,
-135,
-131,
-131,
-127,
-127,
-122,
-122,
-118,
-118,
-114,
-114,
-110,
-110,
-105,
-105,
-101,
-101,
-97,
-97,
-95,
-95,
-89,
-89,
-87,
-87,
-82,
-82,
-78,
-78,
-75,
-75,
-71,
-71,
-67,
-67,
-63,
-63,
-57,
-57,
-54,
-54,
-50,
-50,
-47,
-47,
-42,
-42,
-39,
-39,
-34,
-34,
-30,
-30,
-27,
-27,
-23,
-23,
-19,
-19,
-13,
-13,
-10,
-10,
-6,
-6,
-2,
-2,
2,
2,
4,
4,
9,
9,
13,
13,
15,
15,
16,
16,
16,
16,
16,
16,
16,
16,
17,
17,
18,
18,
17,
17,
18,
18,
18,
18,
18,
18,
18,
18,
17,
17,
18,
18,
18,
18,
18,
18,
17,
17,
18,
18,
18,
18,
18,
18,
18,
18,
17,
17,
18,
18,
18,
18,
18,
18,
18,
18,
18,
18,
18,
18,
18,
18,
18,
18,
18,
18,
19,
19,
18,
18,
18,
18,
19,
19,
18,
18,
18,
18,
18,
18,
19,
19,
18,
18,
19,
19,
18,
18,
18,
18,
18,
18,
18,
18,
19,
19,
18,
18,
18,
18,
19,
19,
18,
18,
18,
18,
19,
19,
19,
19,
19,
19,
19,
19,
19,
19,
19,
19,
19,
19,
19,
-210,
-208,
-208,
-208,
-208,
-208,
-208,
-208,
-208,
-208,
-208,
-207,
-207,
-207,
-207,
-207,
-207,
-205,
-205,
-205,
-205,
-204,
-204,
-203,
-203,
-198,
-198,
-195,
-195,
-190,
-190,
-188,
-188,
-183,
-183,
-180,
-180,
-175,
-175,
-170,
-170,
-166,
-166,
-161,
-161,
-158,
-158,
-155,
-155,
-150,
-150,
-147,
-147,
-142,
-142,
-140,
-140,
-134,
-134,
-129,
-129,
-127,
-127,
-123,
-123,
-120,
-120,
-114,
-114,
-109,
-109,
-107,
-107,
-102,
-102,
-97,
-97,
-93,
-93,
-89,
-89,
-86,
-86,
-82,
-82,
-79,
-79,
-75,
-75,
-70,
-70,
-66,
-66,
-61,
-61,
-59,
-59,
-54,
-54,
-50,
-50,
-46,
-46,
-41,
-41,
-38,
-38,
-34,
-34,
-30,
-30,
-25,
-25,
-23,
-23,
-19,
-19,
-14,
-14,
-12,
-12,
-7,
-7,
-2,
-2,
2,
2,
7,
7,
10,
10,
13,
13,
16,
16,
16,
16,
16,
16,
16,
16,
17,
17,
17,
17,
17,
17,
18,
18,
17,
17,
18,
18,
18,
18,
18,
18,
17,
17,
18,
18,
18,
18,
18,
18,
18,
18,
18,
18,
18,
18,
18,
18,
19,
19,
17,
17,
18,
18,
19,
19,
18,
18,
19,
19,
18,
18,
18,
18,
18,
18,
19,
19,
20,
20,
18,
18,
18,
18,
19,
19,
18,
18,
18,
18,
19,
19,
19,
19,
18,
18,
18,
18,
18,
18,
18,
18,
18,
18,
18,
18,
18,
18,
19,
19,
18,
18,
20,
20,
18,
18,
20,
20,
20,
20,
18,
18,
19,
19,
19,
19,
19,
19,
20,
20,
19,
19,
20,
20,
19,
-209,
-208,
-208,
-208,
-208,
-208,
-208,
-208,
-208,
-207,
-207,
-207,
-207,
-208,
-208,
-206,
-206,
-206,
-206,
-206,
-206,
-204,
-204,
-200,
-200,
-198,
-198,
-194,
-194,
-191,
-191,
-186,
-186,
-182,
-182,
-178,
-178,
-175,
-175,
-171,
-171,
-167,
-167,
-162,
-162,
-159,
-159,
-155,
-155,
-149,
-149,
-145,
-145,
-141,
-141,
-138,
-138,
-135,
-135,
-131,
-131,
-128,
-128,
-122,
-122,
-118,
-118,
-115,
-115,
-111,
-111,
-107,
-107,
-101,
-101,
-98,
-98,
-94,
-94,
-90,
-90,
-86,
-86,
-82,
-82,
-78,
-78,
-74,
-74,
-70,
-70,
-67,
-67,
-63,
-63,
-58,
-58,
-55,
-55,
-49,
-49,
-46,
-46,
-43,
-43,
-36,
-36,
-33,
-33,
-29,
-29,
-27,
-27,
-21,
-21,
-19,
-19,
-14,
-14,
-10,
-10,
-7,
-7,
-3,
-3,
0,
0,
6,
6,
10,
10,
13,
13,
16,
16,
16,
16,
16,
16,
16,
16,
17,
17,
17,
17,
17,
17,
17,
17,
18,
18,
18,
18,
17,
17,
17,
17,
17,
17,
18,
18,
18,
18,
18,
18,
17,
17,
18,
18,
17,
17,
18,
18,
18,
18,
18,
18,
18,
18,
18,
18,
19,
19,
18,
18,
18,
18,
18,
18,
18,
18,
19,
19,
17,
17,
18,
18,
18,
18,
19,
19,
19,
19,
18,
18,
20,
20,
19,
19,
18,
18,
18,
18,
18,
18,
18,
18,
19,
19,
18,
18,
19,
19,
19,
19,
19,
19,
18,
18,
19,
19,
18,
18,
18,
18,
19,
19,
20,
20,
18,
18,
18,
18,
19,
19,
19,
19,
19,
19,
19,
-209,
-208,
-208,
-208,
-208,
-209,
-209,
-208,
-208,
-208,
-208,
-208,
-208,
-208,
-208,
-207,
-207,
-206,
-206,
-204,
-204,
-204,
-204,
-200,
-200,
-199,
-199,
-194,
-194,
-190,
-190,
-186,
-186,
-184,
-184,
-179,
-179,
-175,
-175,
-172,
-172,
-167,
-167,
-163,
-163,
-160,
-160,
-155,
-155,
-150,
-150,
-146,
-146,
-142,
-142,
-138,
-138,
-135,
-135,
-130,
-130,
-126,
-126,
-122,
-122,
-120,
-120,
-114,
-114,
-110,
-110,
-107,
-107,
-102,
-102,
-99,
-99,
-95,
-95,
-89,
-89,
-88,
-88,
-81,
-81,
-78,
-78,
-73,
-73,
-70,
-70,
-66,
-66,
-61,
-61,
-59,
-59,
-56,
-56,
-49,
-49,
-46,
-46,
-42,
-42,
-39,
-39,
-35,
-35,
-31,
-31,
-25,
-25,
-22,
-22,
-18,
-18,
-15,
-15,
-10,
-10,
-6,
-6,
-3,
-3,
1,
1,
6,
6,
9,
9,
13,
13,
16,
16,
16,
16,
16,
16,
16,
16,
17,
17,
17,
17,
17,
17,
18,
18,
17,
17,
17,
17,
18,
18,
17,
17,
18,
18,
18,
18,
17,
17,
18,
18,
18,
18,
18,
18,
17,
17,
18,
18,
18,
18,
18,
18,
18,
18,
18,
18,
18,
18,
18,
18,
18,
18,
18,
18,
18,
18,
19,
19,
18,
18,
18,
18,
18,
18,
19,
19,
18,
18,
18,
18,
19,
19,
18,
18,
18,
18,
19,
19,
18,
18,
18,
18,
18,
18,
18,
18,
18,
18,
18,
18,
18,
18,
20,
20,
19,
19,
18,
18,
19,
19,
18,
18,
18,
18,
19,
19,
18,
18,
18,
18,
18,
18,
20,
20,
19,
-209,
-208,
-208,
-208,
-208,
-208,
-208,
-208,
-208,
-207,
-207,
-207,
-207,
-207,
-207,
-207,
-207,
-207,
-207,
-205,
-205,
-204,
-204,
-202,
-202,
-199,
-199,
-195,
-195,
-190,
-190,
-187,
-187,
-182,
-182,
-178,
-178,
-174,
-174,
-171,
-171,
-166,
-166,
-162,
-162,
-158,
-158,
-154,
-154,
-152,
-152,
-147,
-147,
-142,
-142,
-138,
-138,
-135,
-135,
-130,
-130,
-126,
-126,
-122,
-122,
-118,
-118,
-114,
-114,
-111,
-111,
-107,
-107,
-101,
-101,
-97,
-97,
-95,
-95,
-90,
-90,
-88,
-88,
-81,
-81,
-78,
-78,
-75,
-75,
-70,
-70,
-66,
-66,
-62,
-62,
-57,
-57,
-55,
-55,
-49,
-49,
-47,
-47,
-43,
-43,
-38,
-38,
-35,
-35,
-30,
-30,
-26,
-26,
-24,
-24,
-17,
-17,
-14,
-14,
-10,
-10,
-7,
-7,
-2,
-2,
1,
1,
6,
6,
10,
10,
13,
13,
16,
16,
16,
16,
16,
16,
17,
17,
17,
17,
18,
18,
18,
18,
18,
18,
18,
18,
18,
18,
18,
18,
18,
18,
17,
17,
17,
17,
18,
18,
18,
18,
18,
18,
18,
18,
18,
18,
18,
18,
18,
18,
17,
17,
18,
18,
18,
18,
18,
18,
18,
18,
18,
18,
18,
18,
18,
18,
19,
19,
18,
18,
19,
19,
18,
18,
18,
18,
18,
18,
18,
18,
18,
18,
18,
18,
18,
18,
18,
18,
19,
19,
18,
18,
18,
18,
19,
19,
19,
19,
19,
19,
18,
18,
19,
19,
18,
18,
19,
19,
19,
19,
18,
18,
19,
19,
18,
18,
19,
19,
18,
18,
20,
20,
19,
19,
19,
-209,
-208,
-208,
-208,
-208,
-208,
-208,
-208,
-208,
-208,
-208,
-208,
-208,
-208,
-208,
-206,
-206,
-206,
-206,
-205,
-205,
-204,
-204,
-203,
-203,
-198,
-198,
-195,
-195,
-191,
-191,
-186,
-186,
-182,
-182,
-178,
-178,
-175,
-175,
-170,
-170,
-166,
-166,
-163,
-163,
-159,
-159,
-156,
-156,
-151,
-151,
-147,
-147,
-142,
-142,
-140,
-140,
-135,
-135,
-131,
-131,
-126,
-126,
-122,
-122,
-118,
-118,
-116,
-116,
-110,
-110,
-106,
-106,
-103,
-103,
-99,
-99,
-95,
-95,
-89,
-89,
-86,
-86,
-82,
-82,
-79,
-79,
-75,
-75,
-69,
-69,
-67,
-67,
-63,
-63,
-57,
-57,
-53,
-53,
-50,
-50,
-46,
-46,
-42,
-42,
-38,
-38,
-35,
-35,
-30,
-30,
-27,
-27,
-22,
-22,
-18,
-18,
-15,
-15,
-11,
-11,
-5,
-5,
-2,
-2,
2,
2,
5,
5,
10,
10,
14,
14,
15,
15,
16,
16,
16,
16,
16,
16,
17,
17,
16,
16,
18,
18,
17,
17,
18,
18,
18,
18,
18,
18,
17,
17,
18,
18,
17,
17,
17,
17,
17,
17,
18,
18,
18,
18,
17,
17,
18,
18,
18,
18,
18,
18,
18,
18,
18,
18,
18,
18,
18,
18,
18,
18,
18,
18,
18,
18,
19,
19,
18,
18,
18,
18,
19,
19,
19,
19,
18,
18,
18,
18,
19,
19,
19,
19,
18,
18,
18,
18,
18,
18,
19,
19,
19,
19,
18,
18,
18,
18,
19,
19,
18,
18,
18,
18,
18,
18,
19,
19,
19,
19,
18,
18,
19,
19,
19,
19,
19,
19,
19,
19,
19,
19,
19,
19,
19,
-209,
-208,
-208,
-208,
-208,
-208,
-208,
-208,
-208,
-207,
-207,
-207,
-207,
-207,
-207,
-207,
-207,
-206,
-206,
-206,
-206,
-205,
-205,
-202,
-202,
-200,
-200,
-195,
-195,
-191,
-191,
-187,
-187,
-184,
-184,
-178,
-178,
-175,
-175,
-170,
-170,
-167,
-167,
-161,
-161,
-158,
-158,
-155,
-155,
-151,
-151,
-146,
-146,
-142,
-142,
-138,
-138,
-134,
-134,
-132,
-132,
-127,
-127,
-122,
-122,
-119,
-119,
-114,
-114,
-110,
-110,
-106,
-106,
-102,
-102,
-98,
-98,
-94,
-94,
-92,
-92,
-87,
-87,
-81,
-81,
-78,
-78,
-76,
-76,
-71,
-71,
-67,
-67,
-61,
-61,
-58,
-58,
-54,
-54,
-51,
-51,
-45,
-45,
-42,
-42,
-38,
-38,
-35,
-35,
-30,
-30,
-28,
-28,
-23,
-23,
-18,
-18,
-15,
-15,
-10,
-10,
-7,
-7,
-3,
-3,
2,
2,
6,
6,
10,
10,
13,
13,
16,
16,
16,
16,
16,
16,
17,
17,
17,
17,
16,
16,
17,
17,
17,
17,
18,
18,
18,
18,
17,
17,
18,
18,
17,
17,
18,
18,
18,
18,
17,
17,
17,
17,
18,
18,
18,
18,
18,
18,
18,
18,
18,
18,
18,
18,
18,
18,
18,
18,
18,
18,
18,
18,
18,
18,
19,
19,
18,
18,
19,
19,
18,
18,
19,
19,
18,
18,
18,
18,
18,
18,
18,
18,
18,
18,
18,
18,
18,
18,
18,
18,
18,
18,
19,
19,
18,
18,
18,
18,
19,
19,
19,
19,
18,
18,
19,
19,
19,
19,
18,
18,
19,
19,
19,
19,
18,
18,
19,
19,
18,
18,
19,
19,
19,
19,
18,
-209,
-208,
-208,
-208,
-208,
-208,
-208,
-208,
-208,
-208,
-208,
-208,
-208,
-207,
-207,
-207,
-207,
-206,
-206,
-206,
-206,
-204,
-204,
-203,
-203,
-200,
-200,
-196,
-196,
-190,
-190,
-187,
-187,
-184,
-184,
-178,
-178,
-175,
-175,
-170,
-170,
-166,
-166,
-162,
-162,
-158,
-158,
-154,
-154,
-150,
-150,
-147,
-147,
-144,
-144,
-139,
-139,
-135,
-135,
-131,
-131,
-127,
-127,
-123,
-123,
-119,
-119,
-114,
-114,
-110,
-110,
-106,
-106,
-102,
-102,
-97,
-97,
-95,
-95,
-91,
-91,
-86,
-86,
-83,
-83,
-80,
-80,
-75,
-75,
-69,
-69,
-66,
-66,
-63,
-63,
-59,
-59,
-55,
-55,
-50,
-50,
-48,
-48,
-42,
-42,
-37,
-37,
-34,
-34,
-30,
-30,
-27,
-27,
-22,
-22,
-18,
-18,
-15,
-15,
-10,
-10,
-6,
-6,
-2,
-2,
0,
0,
5,
5,
9,
9,
15,
15,
16,
16,
16,
16,
16,
16,
16,
16,
17,
17,
17,
17,
18,
18,
17,
17,
17,
17,
18,
18,
18,
18,
17,
17,
18,
18,
18,
18,
18,
18,
18,
18,
18,
18,
18,
18,
18,
18,
18,
18,
18,
18,
17,
17,
18,
18,
18,
18,
19,
19,
18,
18,
18,
18,
18,
18,
18,
18,
18,
18,
18,
18,
18,
18,
18,
18,
19,
19,
19,
19,
18,
18,
18,
18,
18,
18,
18,
18,
18,
18,
18,
18,
18,
18,
18,
18,
18,
18,
18,
18,
18,
18,
19,
19,
18,
18,
19,
19,
19,
19,
18,
18,
19,
19,
18,
18,
19,
19,
19,
19,
19,
19,
18,
18,
18,
18,
18,
-209,
-208,
-208,
-208,
-208,
-208,
-208,
-208,
-208,
-208,
-208,
-207,
-207,
-208,
-208,
-207,
-207,
-206,
-206,
-206,
-206,
-204,
-204,
-203,
-203,
-199,
-199,
-195,
-195,
-191,
-191,
-188,
-188,
-182,
-182,
-179,
-179,
-174,
-174,
-171,
-171,
-167,
-167,
-163,
-163,
-159,
-159,
-155,
-155,
-150,
-150,
-147,
-147,
-142,
-142,
-138,
-138,
-134,
-134,
-131,
-131,
-127,
-127,
-122,
-122,
-118,
-118,
-114,
-114,
-112,
-112,
-107,
-107,
-102,
-102,
-99,
-99,
-95,
-95,
-90,
-90,
-86,
-86,
-82,
-82,
-79,
-79,
-75,
-75,
-72,
-72,
-67,
-67,
-62,
-62,
-57,
-57,
-55,
-55,
-52,
-52,
-47,
-47,
-41,
-41,
-38,
-38,
-35,
-35,
-30,
-30,
-26,
-26,
-22,
-22,
-19,
-19,
-15,
-15,
-10,
-10,
-8,
-8,
-4,
-4,
2,
2,
4,
4,
9,
9,
13,
