2-diodenkennlinien/data/ALL0005/A0005CH2.CSV

Memory Length,4000,
Trigger Level,2.73000e+00,
Source,CH2,
Probe,1.0X,
Vertical Units,V,
Vertical Scale,1.00000e+00,
Vertical Position,0.00000e+00,
Horizontal Units,S,
Horizontal Scale,5.00000e-03,
Horizontal Position,0.0000000e+00,
Horizontal Mode,XY Mode,
Sampling Period,2.00000e-05,
Firmware,V1.14,
Time, ,
Mode,Fast,
Waveform Data,
2,
2,
2,
4,
4,
6,
6,
9,
9,
12,
12,
14,
14,
17,
17,
19,
19,
21,
21,
24,
24,
27,
27,
30,
30,
32,
32,
35,
35,
37,
37,
40,
40,
42,
42,
44,
44,
48,
48,
50,
50,
53,
53,
57,
57,
59,
59,
61,
61,
64,
64,
66,
66,
70,
70,
71,
71,
74,
74,
76,
76,
80,
80,
81,
81,
85,
85,
87,
87,
90,
90,
93,
93,
94,
94,
96,
96,
100,
100,
103,
103,
105,
105,
108,
108,
110,
110,
112,
112,
116,
116,
118,
118,
120,
120,
123,
123,
125,
125,
125,
125,
125,
125,
125,
125,
125,
125,
125,
125,
125,
125,
125,
125,
125,
125,
125,
125,
125,
-29,
-24,
-24,
-21,
-21,
-18,
-18,
-17,
-17,
-14,
-14,
-12,
-12,
-10,
-10,
-7,
-7,
-5,
-5,
-1,
-1,
0,
0,
1,
1,
0,
0,
0,
0,
1,
1,
1,
1,
2,
2,
1,
1,
0,
0,
1,
1,
1,
1,
0,
0,
2,
2,
1,
1,
1,
1,
1,
1,
1,
1,
1,
1,
0,
0,
0,
0,
1,
1,
1,
1,
1,
1,
0,
0,
0,
0,
2,
2,
2,
2,
1,
1,
1,
1,
0,
0,
2,
2,
1,
1,
1,
1,
0,
0,
0,
0,
0,
0,
0,
0,
0,
0,
0,
0,
1,
1,
2,
2,
0,
0,
0,
0,
1,
1,
1,
1,
0,
0,
0,
0,
0,
0,
0,
0,
1,
1,
1,
1,
1,
1,
0,
0,
0,
0,
1,
1,
0,
0,
3,
3,
5,
5,
7,
7,
10,
10,
12,
12,
14,
14,
16,
16,
19,
19,
23,
23,
24,
24,
27,
27,
30,
30,
32,
32,
35,
35,
37,
37,
40,
40,
43,
43,
45,
45,
48,
48,
51,
51,
55,
55,
56,
56,
59,
59,
60,
60,
65,
65,
66,
66,
69,
69,
72,
72,
75,
75,
76,
76,
79,
79,
80,
80,
84,
84,
87,
87,
90,
90,
92,
92,
94,
94,
97,
97,
100,
100,
103,
103,
105,
105,
108,
108,
111,
111,
113,
113,
116,
116,
118,
118,
120,
120,
123,
123,
125,
125,
125,
125,
125,
125,
125,
125,
125,
125,
125,
125,
125,
125,
125,
125,
125,
125,
125,
125,
125,
37,
37,
-30,
-20,
-20,
-19,
-19,
-17,
-17,
-14,
-14,
-12,
-12,
-8,
-8,
-7,
-7,
-4,
-4,
-3,
-3,
0,
0,
0,
0,
0,
0,
0,
0,
0,
0,
0,
0,
1,
1,
1,
1,
1,
1,
1,
1,
0,
0,
0,
0,
1,
1,
1,
1,
1,
1,
0,
0,
1,
1,
0,
0,
0,
0,
1,
1,
1,
1,
1,
1,
1,
1,
1,
1,
1,
1,
1,
1,
1,
1,
0,
0,
1,
1,
0,
0,
1,
1,
2,
2,
0,
0,
0,
0,
0,
0,
0,
0,
1,
1,
1,
1,
0,
0,
0,
0,
1,
1,
2,
2,
1,
1,
0,
0,
0,
0,
1,
1,
0,
0,
0,
0,
0,
0,
0,
0,
1,
1,
0,
0,
0,
0,
1,
1,
1,
1,
1,
1,
2,
2,
4,
4,
6,
6,
10,
10,
12,
12,
14,
14,
18,
18,
19,
19,
22,
22,
24,
24,
28,
28,
30,
30,
31,
31,
34,
34,
37,
37,
40,
40,
43,
43,
44,
44,
49,
49,
50,
50,
53,
53,
56,
56,
58,
58,
61,
61,
64,
64,
66,
66,
69,
69,
71,
71,
74,
74,
76,
76,
80,
80,
82,
82,
84,
84,
88,
88,
90,
90,
92,
92,
94,
94,
98,
98,
99,
99,
102,
102,
105,
105,
107,
107,
110,
110,
113,
113,
116,
116,
118,
118,
121,
121,
123,
123,
125,
125,
125,
125,
125,
125,
125,
125,
125,
125,
125,
125,
125,
125,
125,
125,
125,
125,
125,
125,
125,
30,
30,
-30,
-22,
-22,
-20,
-20,
-18,
-18,
-14,
-14,
-12,
-12,
-9,
-9,
-6,
-6,
-4,
-4,
-2,
-2,
-1,
-1,
1,
1,
1,
1,
1,
1,
0,
0,
1,
1,
2,
2,
0,
0,
1,
1,
0,
0,
1,
1,
0,
0,
1,
1,
0,
0,
1,
1,
1,
1,
1,
1,
0,
0,
1,
1,
1,
1,
1,
1,
1,
1,
1,
1,
1,
1,
2,
2,
1,
1,
1,
1,
1,
1,
1,
1,
1,
1,
1,
1,
1,
1,
1,
1,
2,
2,
2,
2,
1,
1,
0,
0,
1,
1,
1,
1,
0,
0,
0,
0,
0,
0,
1,
1,
1,
1,
1,
1,
1,
1,
2,
2,
0,
0,
0,
0,
2,
2,
0,
0,
0,
0,
0,
0,
1,
1,
1,
1,
1,
1,
2,
2,
3,
3,
7,
7,
9,
9,
11,
11,
15,
15,
17,
17,
20,
20,
23,
23,
26,
26,
27,
27,
29,
29,
32,
32,
35,
35,
36,
36,
40,
40,
43,
43,
44,
44,
48,
48,
50,
50,
54,
54,
56,
56,
58,
58,
60,
60,
65,
65,
67,
67,
69,
69,
72,
72,
74,
74,
78,
78,
80,
80,
82,
82,
84,
84,
88,
88,
90,
90,
92,
92,
94,
94,
97,
97,
100,
100,
103,
103,
105,
105,
107,
107,
110,
110,
114,
114,
115,
115,
118,
118,
120,
120,
124,
124,
125,
125,
125,
125,
125,
125,
125,
125,
125,
125,
125,
125,
125,
125,
125,
125,
125,
125,
125,
125,
125,
-30,
-23,
-23,
-22,
-22,
-19,
-19,
-17,
-17,
-15,
-15,
-12,
-12,
-9,
-9,
-7,
-7,
-4,
-4,
-2,
-2,
1,
1,
1,
1,
1,
1,
1,
1,
0,
0,
0,
0,
1,
1,
2,
2,
1,
1,
2,
2,
1,
1,
0,
0,
1,
1,
2,
2,
0,
0,
1,
1,
2,
2,
0,
0,
2,
2,
1,
1,
1,
1,
0,
0,
0,
0,
1,
1,
1,
1,
1,
1,
0,
0,
1,
1,
0,
0,
1,
1,
0,
0,
1,
1,
1,
1,
1,
1,
1,
1,
0,
0,
1,
1,
2,
2,
0,
0,
1,
1,
1,
1,
1,
1,
1,
1,
1,
1,
0,
0,
1,
1,
1,
1,
1,
1,
1,
1,
1,
1,
0,
0,
1,
1,
1,
1,
1,
1,
1,
1,
0,
0,
2,
2,
4,
4,
6,
6,
9,
9,
12,
12,
14,
14,
16,
16,
19,
19,
22,
22,
25,
25,
27,
27,
30,
30,
32,
32,
35,
35,
38,
38,
40,
40,
43,
43,
44,
44,
48,
48,
51,
51,
53,
53,
57,
57,
58,
58,
62,
62,
64,
64,
65,
65,
69,
69,
71,
71,
74,
74,
77,
77,
80,
80,
82,
82,
84,
84,
87,
87,
90,
90,
92,
92,
95,
95,
98,
98,
100,
100,
103,
103,
105,
105,
108,
108,
110,
110,
113,
113,
115,
115,
118,
118,
120,
120,
124,
124,
125,
125,
125,
125,
125,
125,
125,
125,
125,
125,
125,
125,
125,
125,
125,
125,
125,
125,
125,
125,
125,
-29,
-26,
-26,
-22,
-22,
-20,
-20,
-17,
-17,
-14,
-14,
-13,
-13,
-10,
-10,
-8,
-8,
-4,
-4,
-2,
-2,
2,
2,
0,
0,
2,
2,
0,
0,
0,
0,
0,
0,
2,
2,
1,
1,
0,
0,
1,
1,
0,
0,
1,
1,
0,
0,
0,
0,
0,
0,
2,
2,
1,
1,
0,
0,
2,
2,
0,
0,
1,
1,
0,
0,
1,
1,
1,
1,
1,
1,
0,
0,
1,
1,
0,
0,
0,
0,
1,
1,
1,
1,
0,
0,
0,
0,
0,
0,
1,
1,
0,
0,
1,
1,
0,
0,
0,
0,
0,
0,
1,
1,
0,
0,
0,
0,
0,
0,
2,
2,
1,
1,
1,
1,
0,
0,
1,
1,
1,
1,
0,
0,
0,
0,
0,
0,
1,
1,
2,
2,
1,
1,
2,
2,
3,
3,
6,
6,
9,
9,
12,
12,
14,
14,
16,
16,
19,
19,
23,
23,
24,
24,
27,
27,
30,
30,
32,
32,
36,
36,
38,
38,
40,
40,
43,
43,
45,
45,
48,
48,
50,
50,
53,
53,
56,
56,
58,
58,
61,
61,
64,
64,
66,
66,
68,
68,
71,
71,
73,
73,
77,
77,
80,
80,
82,
82,
85,
85,
88,
88,
89,
89,
93,
93,
96,
96,
98,
98,
100,
100,
103,
103,
104,
104,
107,
107,
110,
110,
112,
112,
115,
115,
118,
118,
120,
120,
123,
123,
125,
125,
125,
125,
125,
125,
125,
125,
125,
125,
125,
125,
125,
125,
125,
125,
125,
125,
125,
125,
125,
39,
39,
-29,
-21,
-21,
-19,
-19,
-16,
-16,
-15,
-15,
-12,
-12,
-9,
-9,
-6,
-6,
-5,
-5,
-3,
-3,
-1,
-1,
1,
1,
0,
0,
0,
0,
1,
1,
1,
1,
1,
1,
0,
0,
0,
0,
2,
2,
1,
1,
1,
1,
0,
0,
1,
1,
0,
0,
1,
1,
1,
1,
0,
0,
0,
0,
1,
1,
2,
2,
1,
1,
2,
2,
0,
0,
2,
2,
2,
2,
1,
1,
1,
1,
1,
1,
0,
0,
0,
0,
0,
0,
1,
1,
1,
1,
0,
0,
2,
2,
1,
1,
0,
0,
0,
0,
1,
1,
0,
0,
1,
1,
0,
0,
1,
1,
1,
1,
0,
0,
0,
0,
1,
1,
1,
1,
1,
1,
1,
1,
1,
1,
2,
2,
1,
1,
1,
1,
1,
1,
2,
2,
4,
4,
6,
6,
8,
8,
12,
12,
14,
14,
16,
16,
20,
20,
21,
21,
24,
24,
27,
27,
29,
29,
32,
32,
34,
34,
37,
37,
40,
40,
43,
43,
45,
45,
48,
48,
50,
50,
54,
54,
56,
56,
58,
58,
60,
60,
64,
64,
66,
66,
69,
69,
71,
71,
74,
74,
76,
76,
80,
80,
82,
82,
84,
84,
87,
87,
90,
90,
92,
92,
95,
95,
98,
98,
100,
100,
103,
103,
106,
106,
108,
108,
109,
109,
113,
113,
116,
116,
118,
118,
120,
120,
124,
124,
125,
125,
125,
125,
125,
125,
125,
125,
125,
125,
125,
125,
125,
125,
125,
125,
125,
125,
125,
125,
125,
-29,
-21,
-21,
-21,
-21,
-20,
-20,
-17,
-17,
-13,
-13,
-12,
-12,
-10,
-10,
-7,
-7,
-4,
-4,
-2,
-2,
-1,
-1,
1,
1,
1,
1,
0,
0,
1,
1,
1,
1,
0,
0,
1,
1,
1,
1,
0,
0,
1,
1,
1,
1,
1,
1,
1,
1,
1,
1,
1,
1,
0,
0,
1,
1,
0,
0,
0,
0,
1,
1,
1,
1,
0,
0,
0,
0,
0,
0,
0,
0,
0,
0,
0,
0,
2,
2,
0,
0,
1,
1,
1,
1,
1,
1,
1,
1,
1,
1,
0,
0,
1,
1,
0,
0,
1,
1,
0,
0,
1,
1,
0,
0,
1,
1,
1,
1,
0,
0,
0,
0,
0,
0,
0,
0,
0,
0,
1,
1,
0,
0,
1,
1,
0,
0,
0,
0,
0,
0,
1,
1,
2,
2,
5,
5,
7,
7,
9,
9,
12,
12,
14,
14,
16,
16,
18,
18,
22,
22,
24,
24,
26,
26,
30,
30,
32,
32,
35,
35,
36,
36,
41,
41,
43,
43,
46,
46,
48,
48,
50,
50,
53,
53,
56,
56,
59,
59,
62,
62,
63,
63,
65,
65,
70,
70,
71,
71,
74,
74,
77,
77,
79,
79,
82,
82,
84,
84,
87,
87,
90,
90,
92,
92,
95,
95,
98,
98,
100,
100,
102,
102,
105,
105,
108,
108,
110,
110,
113,
113,
115,
115,
118,
118,
120,
120,
122,
122,
125,
125,
125,
125,
125,
125,
125,
125,
125,
125,
125,
125,
125,
125,
125,
125,
125,
125,
125,
125,
125,
-16,
-16,
-29,
-23,
-23,
-19,
-19,
-17,
-17,
-14,
-14,
-12,
-12,
-9,
-9,
-6,
-6,
-5,
-5,
-2,
-2,
0,
0,
1,
1,
1,
1,
1,
1,
1,
1,
2,
2,
1,
1,
1,
1,
2,
2,
1,
1,
2,
2,
0,
0,
0,
0,
1,
1,
0,
0,
1,
1,
0,
0,
0,
0,
1,
1,
1,
1,
1,
1,
1,
1,
1,
1,
2,
2,
0,
0,
0,
0,
1,
1,
0,
0,
2,
2,
1,
1,
1,
1,
0,
0,
0,
0,
0,
0,
1,
1,
0,
0,
0,
0,
1,
1,
1,
1,
1,
1,
1,
1,
0,
0,
1,
1,
2,
2,
0,
0,
1,
1,
1,
1,
0,
0,
1,
1,
1,
1,
1,
1,
0,
0,
0,
0,
1,
1,
0,
0,
0,
0,
2,
2,
4,
4,
7,
7,
9,
9,
12,
12,
14,
14,
17,
17,
20,
20,
22,
22,
24,
24,
27,
27,
29,
29,
33,
33,
34,
34,
36,
36,
40,
40,
42,
42,
45,
45,
47,
47,
51,
51,
53,
53,
56,
56,
59,
59,
60,
60,
64,
64,
66,
66,
69,
69,
71,
71,
74,
74,
76,
76,
79,
79,
82,
82,
84,
84,
88,
88,
90,
90,
93,
93,
95,
95,
98,
98,
100,
100,
103,
103,
106,
106,
108,
108,
110,
110,
113,
113,
115,
115,
118,
118,
120,
120,
122,
122,
125,
125,
125,
125,
125,
125,
125,
125,
125,
125,
125,
125,
125,
125,
125,
125,
125,
125,
125,
125,
125,
-29,
-25,
-25,
-22,
-22,
-19,
-19,
-18,
-18,
-14,
-14,
-12,
-12,
-9,
-9,
-8,
-8,
-4,
-4,
-2,
-2,
1,
1,
1,
1,
0,
0,
1,
1,
1,
1,
1,
1,
2,
2,
1,
1,
1,
1,
2,
2,
1,
1,
1,
1,
0,
0,
0,
0,
2,
2,
1,
1,
1,
1,
1,
1,
0,
0,
1,
1,
1,
1,
0,
0,
1,
1,
1,
1,
0,
0,
1,
1,
1,
1,
0,
0,
0,
0,
0,
0,
2,
2,
0,
0,
1,
1,
0,
0,
1,
1,
1,
1,
0,
0,
0,
0,
1,
1,
1,
1,
0,
0,
0,
0,
1,
1,
0,
0,
1,
1,
1,
1,
1,
1,
1,
1,
1,
1,
1,
1,
1,
1,
0,
0,
0,
0,
0,
0,
1,
1,
2,
2,
2,
2,
4,
4,
7,
7,
9,
9,
12,
12,
14,
14,
17,
17,
19,
19,
22,
22,
25,
25,
27,
27,
29,
29,
32,
32,
35,
35,
37,
37,
39,
39,
42,
42,
45,
45,
48,
48,
50,
50,
53,
53,
56,
56,
58,
58,
61,
61,
65,
65,
66,
66,
68,
68,
71,
71,
74,
74,
76,
76,
79,
79,
82,
82,
84,
84,
86,
86,
90,
90,
92,
92,
95,
95,
97,
97,
99,
99,
103,
103,
106,
106,
108,
108,
110,
110,
113,
113,
116,
116,
118,
118,
121,
121,
123,
123,
125,
125,
125,
125,
125,
125,
125,
125,
125,
125,
125,
125,
125,
125,
125,
125,
125,
125,
125,
125,
125,
76,
76,
-29,
-22,
-22,
-20,
-20,
-17,
-17,
-14,
-14,
-12,
-12,
-10,
-10,
-8,
-8,
-5,
-5,
-2,
-2,
-1,
-1,
0,
0,
1,
1,
1,
1,
1,
1,
1,
1,
1,
1,
1,
1,
0,
0,
1,
1,
0,
0,
1,
1,
0,
0,
1,
1,
0,
0,
1,
1,
0,
0,
0,
0,
0,
0,
0,
0,
0,
0,
0,
0,
1,
1,
2,
2,
0,
0,
1,
1,
0,
0,
0,
0,
1,
1,
1,
1,
0,
0,
1,
1,
1,
1,
1,
1,
1,
1,
1,
1,
0,
0,
2,
2,
0,
0,
0,
0,
0,
0,
0,
0,
0,
0,
0,
0,
1,
1,
1,
1,
1,
1,
0,
0,
2,
2,
0,
0,
1,
1,
0,
0,
0,
0,
0,
0,
0,
0,
1,
1,
3,
3,
4,
4,
6,
6,
8,
8,
12,
12,
14,
14,
16,
16,
19,
19,
22,
22,
24,
24,
27,
27,
31,
31,
32,
32,
35,
35,
36,
36,
39,
39,
42,
42,
44,
44,
48,
48,
50,
50,
53,
53,
55,
55,
58,
58,
60,
60,
64,
64,
66,
66,
70,
70,
72,
72,
73,
73,
76,
76,
80,
80,
82,
82,
83,
83,
87,
87,
90,
90,
92,
92,
95,
95,
97,
97,
100,
100,
104,
104,
105,
105,
108,
108,
110,
110,
114,
114,
116,
116,
118,
118,
120,
120,
124,
124,
125,
125,
125,
125,
125,
125,
125,
125,
125,
125,
125,
125,
125,
125,
125,
125,
125,
125,
125,
125,
125,
48,
48,
-29,
-21,
-21,
-20,
-20,
-17,
-17,
-15,
-15,
-11,
-11,
-10,
-10,
-6,
-6,
-5,
-5,
-2,
-2,
0,
0,
0,
0,
1,
1,
1,
1,
2,
2,
2,
2,
0,
0,
0,
0,
0,
0,
0,
0,
0,
0,
1,
1,
1,
1,
1,
1,
0,
0,
1,
1,
1,
1,
1,
1,
1,
1,
1,
1,
0,
0,
1,
1,
0,
0,
1,
1,
1,
1,
1,
1,
0,
0,
1,
1,
1,
1,
1,
1,
2,
2,
0,
0,
1,
1,
1,
1,
0,
0,
0,
0,
1,
1,
0,
0,
2,
2,
1,
1,
1,
1,
1,
1,
0,
0,
0,
0,
1,
1,
1,
1,
1,
1,
0,
0,
1,
1,
1,
1,
1,
1,
0,
0,
2,
2,
0,
0,
1,
1,
1,
1,
2,
2,
5,
5,
7,
7,
9,
9,
12,
12,
15,
15,
16,
16,
19,
19,
23,
23,
24,
24,
27,
27,
30,
30,
32,
32,
34,
34,
39,
39,
40,
40,
42,
42,
45,
45,
48,
48,
50,
50,
53,
53,
55,
55,
59,
59,
61,
61,
63,
63,
66,
66,
70,
70,
71,
71,
75,
75,
78,
78,
79,
79,
82,
82,
85,
85,
88,
88,
89,
89,
92,
92,
95,
95,
98,
98,
100,
100,
103,
103,
106,
106,
108,
108,
110,
110,
112,
112,
116,
116,
118,
118,
120,
120,
124,
124,
125,
125,
125,
125,
125,
125,
125,
125,
125,
125,
125,
125,
125,
125,
125,
125,
125,
125,
125,
125,
125,
-30,
-23,
-23,
-22,
-22,
-20,
-20,
-17,
-17,
-15,
-15,
-13,
-13,
-10,
-10,
-7,
-7,
-4,
-4,
-3,
-3,
0,
0,
0,
0,
1,
1,
1,
1,
0,
0,
0,
0,
1,
1,
2,
2,
0,
0,
0,
0,
0,
0,
0,
0,
0,
0,
0,
0,
0,
0,
1,
1,
2,
2,
0,
0,
0,
0,
0,
0,
0,
0,
0,
0,
1,
1,
0,
0,
1,
1,
2,
2,
1,
1,
2,
2,
1,
1,
1,
1,
0,
0,
1,
1,
1,
1,
1,
1,
1,
1,
0,
0,
1,
1,
1,
1,
1,
1,
2,
2,
1,
1,
0,
0,
1,
1,
0,
0,
1,
1,
0,
0,
1,
1,
2,
2,
0,
0,
1,
1,
2,
2,
0,
0,
2,
2,
1,
1,
1,
1,
1,
1,
2,
2,
4,
4,
8,
8,
9,
9,
12,
12,
14,
14,
16,
16,
19,
19,
21,
21,
24,
24,
27,
27,
30,
30,
32,
32,
35,
35,
37,
37,
39,
39,
43,
43,
46,
46,
47,
47,
50,
50,
53,
53,
55,
55,
58,
58,
60,
60,
64,
64,
65,
65,
68,
68,
71,
71,
74,
74,
77,
77,
79,
79,
83,
83,
84,
84,
87,
87,
89,
89,
93,
93,
95,
95,
97,
97,
100,
100,
102,
102,
105,
105,
108,
108,
110,
110,
114,
114,
116,
116,
118,
118,
120,
120,
123,
123,
125,
125,
125,
125,
125,
125,
125,
125,
125,
125,
125,
125,
125,
125,
125,
125,
125,
125,
125,
125,
125,
70,
70,
-29,
-21,
-21,
-19,
-19,
-17,
-17,
-15,
-15,
-12,
-12,
-10,
-10,
-7,
-7,
-6,
-6,
-2,
-2,
1,
1,
0,
0,
0,
0,
2,
2,
0,
0,
1,
1,
0,
0,
0,
0,
1,
1,
1,
1,
2,
2,
0,
0,
1,
1,
0,
0,
0,
0,
1,
1,
0,
0,
0,
0,
0,
0,
0,
0,
1,
1,
1,
1,
1,
1,
0,
0,
1,
1,
0,
0,
0,
0,
1,
1,
1,
1,
1,
1,
1,
1,
1,
1,
0,
0,
1,
1,
1,
1,
1,
1,
0,
0,
0,
0,
0,
0,
0,
0,
0,
0,
1,
1,
1,
1,
1,
1,
0,
0,
0,
0,
1,
1,
1,
1,
0,
0,
1,
1,
0,
0,
0,
0,
0,
0,
0,
0,
0,
0,
1,
1,
2,
2,
4,
4,
6,
6,
10,
10,
12,
12,
14,
14,
17,
17,
20,
20,
21,
21,
24,
24,
26,
26,
28,
28,
32,
32,
34,
34,
37,
37,
40,
40,
43,
43,
46,
46,
48,
48,
51,
51,
53,
53,
55,
55,
58,
58,
61,
61,
64,
64,
66,
66,
68,
68,
71,
71,
74,
74,
76,
76,
80,
80,
83,
83,
85,
85,
87,
87,
90,
90,
91,
91,
95,
95,
97,
97,
100,
100,
102,
102,
104,
104,
108,
108,
110,
110,
112,
112,
116,
116,
118,
118,
121,
121,
123,
123,
125,
125,
125,
125,
125,
125,
125,
125,
125,
125,
125,
125,
125,
125,
125,
125,
125,
125,
125,
125,
125,
87,
87,
-30,
-22,
-22,
-20,
-20,
-17,
-17,
-15,
-15,
-12,
-12,
-10,
-10,
-8,
-8,
-4,
-4,
-2,
-2,
-1,
-1,
0,
0,
1,
1,
2,
2,
0,
0,
2,
2,
0,
0,
2,
2,
1,
1,
1,
1,
1,
1,
0,
0,
1,
1,
0,
0,
1,
1,
1,
1,
1,
1,
1,
1,
1,
1,
0,
0,
1,
1,
1,
1,
1,
1,
1,
1,
1,
1,
0,
0,
1,
1,
0,
0,
0,
0,
0,
0,
0,
0,
0,
0,
0,
0,
1,
1,
0,
0,
0,
0,
1,
1,
1,
1,
0,
0,
1,
1,
2,
2,
1,
1,
0,
0,
0,
0,
0,
0,
1,
1,
2,
2,
0,
0,
0,
0,
2,
2,
0,
0,
1,
1,
0,
0,
0,
0,
0,
0,
0,
0,
3,
3,
4,
4,
6,
6,
9,
9,
11,
11,
14,
14,
16,
16,
19,
19,
22,
22,
24,
24,
27,
27,
29,
29,
31,
31,
34,
34,
37,
37,
40,
40,
42,
42,
44,
44,
48,
48,
50,
50,
52,
52,
56,
56,
59,
59,
60,
60,
63,
63,
66,
66,
68,
68,
71,
71,
74,
74,
76,
76,
79,
79,
81,
81,
84,
84,
87,
87,
90,
90,
92,
92,
94,
94,
96,
96,
100,
100,
103,
103,
105,
105,
108,
108,
110,
110,
114,
114,
115,
115,
118,
118,
120,
120,
123,
123,
125,
125,
125,
125,
125,
125,
125,
125,
125,
125,
125,
125,
125,
125,
125,
125,
125,
125,
125,
125,
125,
40,
40,
-29,
-22,
-22,
-20,
-20,
-17,
-17,
-15,
-15,
-12,
-12,
-10,
-10,
-8,
-8,
-4,
-4,
-3,
-3,
-1,
-1,
0,
0,
2,
2,
1,
1,
1,
1,
0,
0,
1,
1,
2,
2,
1,
1,
1,
1,
0,
0,
0,
0,
0,
0,
1,
1,
0,
0,
0,
0,
0,
0,
0,
0,
1,
1,
1,
1,
2,
2,
1,
1,
1,
1,
0,
0,
1,
1,
2,
2,
0,
0,
0,
0,
0,
0,
1,
1,
1,
1,
1,
1,
0,
0,
1,
1,
1,
1,
1,
1,
0,
0,
0,
0,
0,
0,
0,
0,
1,
1,
1,
1,
0,
0,
0,
0,
1,
1,
1,
1,
1,
1,
0,
0,
0,
0,
2,
2,
0,
0,
0,
0,
1,
1,
0,
0,
1,
1,
1,
1,
2,
2,
4,
4,
7,
7,
10,
10,
12,
12,
14,
14,
16,
16,
18,
18,
21,
21,
24,
24,
28,
28,
31,
31,
32,
32,
35,
35,
37,
37,
40,
40,
42,
42,
46,
46,
47,
47,
50,
50,
53,
53,
55,
55,
58,
58,
60,
60,
64,
64,
66,
66,
68,
68,
71,
71,
74,
74,
76,
76,
78,
78,
81,
81,
85,
85,
87,
87,
90,
90,
93,
93,
95,
95,
98,
98,
101,
101,
103,
103,
104,
104,
108,
108,
110,
110,
113,
113,
115,
115,
117,
117,
121,
121,
122,
122,
125,
125,
125,
125,
125,
125,
125,
125,
125,
125,
125,
125,
125,
125,
125,
125,
125,
125,
125,
125,
125,
28,
28,
-29,
-21,
-21,
-19,
-19,
-17,
-17,
-14,
-14,
-13,
-13,
-10,
-10,
-7,
-7,
-5,
-5,
-2,
-2,
0,
0,
0,
0,
1,
1,
0,
0,
0,
0,
1,
1,
1,
1,
0,
0,
1,
1,
0,
0,
1,
1,
0,
0,
0,
0,
0,
0,
1,
1,
1,
1,
0,
0,
1,
1,
0,
0,
1,
1,
0,
0,
1,
1,
0,
0,
1,
1,
2,
2,
0,
0,
0,
0,
1,
1,
1,
1,
0,
0,
2,
2,
0,
0,
0,
0,
1,
1,
1,
1,
2,
2,
0,
0,
1,
1,
1,
1,
0,
0,
0,
0,
2,
2,
0,
0,
0,
0,
0,
0,
0,
0,
1,
1,
0,
0,
1,
1,
0,
0,
1,
1,
1,
1,
0,
0,
1,
1,
2,
2,
1,
