5-grundlagen-opAmps/data/ALL0004/A0004CH1.CSV

Memory Length,4000,
Trigger Level,0.00000e+00,
Source,CH1,
Probe,1.0X,
Vertical Units,V,
Vertical Scale,5.00000e-02,
Vertical Position,0.00000e+00,
Horizontal Units,S,
Horizontal Scale,1.00000e-07,
Horizontal Position,1.0000000e-07,
Horizontal Mode,Main,
Sampling Period,2.00000e-09,
Firmware,V1.14,
Time, ,
Mode,Fast,
Waveform Data,
0,
0,
-2,
3,
9,
5,
-3,
-8,
-5,
0,
-1,
-6,
-10,
-12,
-10,
-10,
-9,
-13,
-18,
-19,
-15,
-15,
-18,
-22,
-25,
-24,
-20,
-20,
-24,
-30,
-34,
-26,
-21,
-20,
-31,
-38,
-35,
-27,
-21,
-28,
-37,
-37,
-28,
-23,
-27,
-33,
-34,
-30,
-25,
-26,
-30,
-33,
-28,
-23,
-22,
-25,
-27,
-24,
-19,
-19,
-21,
-19,
-19,
-14,
-14,
-16,
-15,
-11,
-8,
-8,
-11,
-10,
-4,
0,
-1,
-4,
-5,
0,
6,
6,
5,
2,
2,
6,
12,
14,
9,
7,
10,
14,
18,
18,
14,
12,
17,
20,
22,
20,
14,
14,
20,
26,
25,
16,
13,
16,
28,
29,
20,
12,
9,
18,
29,
23,
12,
6,
9,
21,
22,
16,
4,
3,
11,
18,
16,
4,
-4,
1,
11,
11,
0,
-10,
-8,
1,
5,
-2,
-12,
-15,
-10,
-4,
-6,
-13,
-19,
-19,
-13,
-11,
-15,
-22,
-26,
-24,
-19,
-20,
-26,
-27,
-29,
-27,
-25,
-24,
-27,
-31,
-32,
-29,
-25,
-28,
-32,
-33,
-31,
-28,
-28,
-29,
-32,
-32,
-28,
-26,
-27,
-31,
-30,
-26,
-23,
-24,
-28,
-27,
-20,
-20,
-22,
-24,
-19,
-14,
-13,
-15,
-21,
-16,
-8,
-3,
-8,
-15,
-12,
-5,
3,
0,
-8,
-5,
2,
8,
7,
0,
-2,
2,
13,
15,
8,
5,
8,
16,
19,
18,
12,
10,
15,
18,
22,
19,
15,
14,
20,
21,
25,
21,
17,
17,
18,
24,
25,
20,
11,
13,
22,
25,
19,
11,
10,
15,
21,
18,
10,
4,
9,
16,
15,
8,
0,
1,
8,
9,
1,
-4,
-4,
0,
1,
-3,
-7,
-7,
-6,
-8,
-13,
-13,
-12,
-11,
-11,
-19,
-21,
-19,
-15,
-16,
-24,
-27,
-25,
-19,
-21,
-28,
-32,
-29,
-24,
-24,
-29,
-33,
-34,
-29,
-25,
-27,
-31,
-36,
-32,
-29,
-25,
-27,
-32,
-33,
-32,
-27,
-21,
-24,
-30,
-34,
-27,
-19,
-16,
-21,
-29,
-28,
-18,
-10,
-12,
-20,
-24,
-18,
-4,
-2,
-11,
-20,
-15,
-1,
3,
-2,
-11,
-12,
1,
8,
10,
1,
-6,
0,
12,
17,
10,
5,
5,
12,
19,
18,
13,
11,
13,
19,
24,
17,
14,
14,
18,
24,
21,
18,
16,
17,
21,
24,
22,
17,
15,
17,
22,
22,
18,
14,
15,
17,
17,
16,
14,
12,
11,
11,
11,
9,
7,
6,
8,
5,
2,
2,
1,
1,
-1,
-5,
-5,
-5,
-3,
-4,
-10,
-14,
-14,
-10,
-8,
-14,
-21,
-22,
-16,
-13,
-18,
-26,
-26,
-23,
-16,
-20,
-30,
-35,
-30,
-23,
-21,
-28,
-37,
-37,
-28,
-23,
-25,
-33,
-37,
-33,
-26,
-26,
-30,
-33,
-31,
-27,
-26,
-26,
-29,
-30,
-27,
-24,
-21,
-22,
-26,
-26,
-21,
-18,
-14,
-15,
-20,
-21,
-14,
-8,
-8,
-13,
-16,
-11,
-3,
0,
-2,
-7,
-7,
1,
5,
5,
0,
-1,
5,
11,
9,
6,
8,
12,
13,
12,
12,
15,
17,
17,
15,
14,
17,
20,
21,
17,
14,
18,
24,
23,
18,
13,
16,
24,
28,
20,
13,
13,
20,
25,
23,
13,
8,
11,
17,
20,
13,
8,
7,
11,
12,
11,
7,
2,
2,
4,
5,
6,
-1,
-7,
-5,
-1,
2,
-4,
-12,
-17,
-13,
-4,
-4,
-13,
-25,
-24,
-13,
-6,
-17,
-29,
-29,
-23,
-13,
-17,
-32,
-35,
-29,
-19,
-18,
-30,
-38,
-34,
-27,
-21,
-27,
-35,
-36,
-31,
-24,
-28,
-33,
-33,
-30,
-26,
-27,
-27,
-30,
-30,
-27,
-26,
-23,
-24,
-24,
-24,
-22,
-20,
-20,
-18,
-17,
-19,
-16,
-13,
-13,
-14,
-11,
-8,
-7,
-8,
-7,
-6,
-2,
0,
-1,
-1,
0,
4,
7,
6,
3,
3,
12,
15,
12,
6,
7,
14,
20,
19,
12,
10,
14,
22,
27,
18,
11,
12,
19,
28,
25,
15,
12,
17,
28,
27,
21,
13,
13,
21,
25,
21,
12,
8,
16,
20,
20,
12,
6,
5,
11,
16,
11,
4,
-1,
1,
9,
7,
1,
-7,
-7,
-2,
0,
0,
-7,
-11,
-13,
-10,
-5,
-9,
-17,
-20,
-16,
-13,
-15,
-20,
-25,
-24,
-19,
-18,
-24,
-30,
-30,
-27,
-24,
-24,
-30,
-32,
-30,
-30,
-27,
-29,
-30,
-31,
-30,
-32,
-32,
-28,
-27,
-27,
-33,
-33,
-29,
-24,
-24,
-27,
-32,
-30,
-21,
-17,
-21,
-27,
-29,
-17,
-12,
-14,
-20,
-24,
-16,
-8,
-7,
-11,
-17,
-14,
-2,
1,
-1,
-8,
-8,
-2,
5,
7,
4,
0,
0,
6,
12,
12,
11,
6,
7,
12,
18,
19,
15,
9,
13,
20,
24,
20,
12,
11,
22,
27,
25,
14,
10,
17,
28,
29,
19,
10,
13,
21,
28,
20,
10,
9,
17,
23,
17,
9,
8,
12,
15,
13,
7,
5,
7,
8,
7,
2,
-1,
1,
2,
1,
-4,
-7,
-3,
-5,
-7,
-11,
-12,
-11,
-12,
-13,
-16,
-17,
-17,
-18,
-19,
-20,
-21,
-23,
-25,
-24,
-25,
-24,
-27,
-31,
-29,
-26,
-25,
-28,
-35,
-38,
-29,
-23,
-26,
-34,
-40,
-32,
-22,
-22,
-29,
-37,
-35,
-24,
-19,
-24,
-35,
-34,
-24,
-16,
-18,
-27,
-31,
-24,
-12,
-11,
-18,
-24,
-22,
-13,
-5,
-6,
-12,
-16,
-12,
-4,
0,
-1,
-7,
-6,
-3,
3,
7,
4,
0,
0,
7,
13,
12,
8,
4,
9,
15,
19,
16,
9,
11,
17,
24,
21,
14,
12,
16,
23,
25,
19,
15,
16,
21,
23,
22,
18,
17,
18,
20,
20,
16,
17,
18,
17,
15,
12,
14,
15,
13,
9,
6,
9,
10,
9,
6,
0,
1,
4,
6,
1,
-7,
-7,
-2,
3,
-2,
-11,
-16,
-13,
-6,
-7,
-15,
-22,
-22,
-16,
-8,
-16,
-25,
-29,
-26,
-17,
-20,
-26,
-32,
-30,
-25,
-24,
-26,
-30,
-35,
-32,
-27,
-26,
-28,
-34,
-36,
-32,
-25,
-25,
-31,
-35,
-34,
-28,
-21,
-24,
-31,
-36,
-28,
-19,
-18,
-24,
-31,
-27,
-17,
-13,
-16,
-23,
-22,
-15,
-8,
-10,
-16,
-16,
-9,
-2,
-4,
-9,
-10,
-4,
3,
2,
0,
-3,
2,
7,
6,
5,
3,
8,
14,
12,
9,
8,
14,
20,
18,
14,
11,
14,
20,
22,
20,
16,
16,
18,
22,
22,
19,
17,
18,
20,
21,
22,
20,
15,
14,
18,
23,
22,
12,
7,
15,
20,
21,
11,
3,
4,
14,
17,
10,
-3,
-6,
4,
15,
9,
-6,
-14,
-8,
5,
6,
-7,
-18,
-15,
-7,
-3,
-8,
-17,
-22,
-17,
-9,
-13,
-21,
-27,
-25,
-18,
-18,
-22,
-28,
-29,
-29,
-25,
-24,
-27,
-30,
-35,
-33,
-27,
-24,
-28,
-35,
-37,
-30,
-25,
-26,
-31,
-35,
-33,
-28,
-23,
-27,
-32,
-32,
-24,
-21,
-23,
-27,
-28,
-20,
-18,
-20,
-19,
-20,
-16,
-12,
-12,
-14,
-14,
-9,
-8,
-8,
-10,
-5,
0,
-1,
-4,
-5,
-1,
6,
7,
3,
0,
2,
9,
14,
15,
6,
5,
12,
18,
18,
14,
11,
13,
19,
24,
19,
15,
13,
18,
24,
23,
18,
14,
17,
22,
25,
22,
16,
12,
17,
21,
24,
18,
11,
9,
16,
20,
18,
11,
6,
7,
11,
14,
11,
3,
0,
4,
8,
6,
-1,
-6,
-4,
1,
1,
-4,
-10,
-11,
-8,
-6,
-7,
-14,
-17,
-17,
-12,
-15,
-19,
-23,
-24,
-17,
-21,
-25,
-26,
-25,
-22,
-25,
-31,
-31,
-28,
-25,
-27,
-33,
-35,
-30,
-25,
-26,
-31,
-36,
-35,
-26,
-25,
-29,
-35,
-33,
-27,
-24,
-25,
-29,
-30,
-26,
-20,
-19,
-23,
-27,
-26,
-19,
-13,
-14,
-18,
-20,
-19,
-11,
-6,
-6,
-12,
-18,
-12,
-1,
3,
-1,
-9,
-9,
2,
10,
8,
-1,
-6,
2,
16,
19,
7,
0,
4,
17,
25,
17,
6,
5,
16,
27,
24,
12,
7,
15,
26,
27,
20,
14,
16,
22,
25,
22,
19,
16,
17,
19,
20,
19,
17,
15,
13,
15,
16,
17,
13,
9,
10,
12,
15,
9,
3,
1,
6,
9,
3,
-2,
-5,
-3,
1,
-2,
-5,
-9,
-9,
-8,
-9,
-12,
-15,
-13,
-11,
-15,
-21,
-20,
-16,
-15,
-21,
-26,
-26,
-22,
-19,
-25,
-33,
-32,
-25,
-23,
-26,
-33,
-36,
-30,
-24,
-24,
-34,
-40,
-33,
-26,
-24,
-31,
-37,
-34,
-27,
-23,
-26,
-31,
-31,
-29,
-20,
-19,
-22,
-26,
-26,
-21,
-17,
-16,
-18,
-17,
-18,
-15,
-10,
-9,
-11,
-14,
-9,
-5,
-3,
-4,
-9,
-5,
2,
5,
7,
1,
-2,
2,
11,
13,
8,
4,
8,
11,
15,
15,
13,
14,
15,
18,
16,
16,
17,
19,
23,
18,
17,
17,
21,
24,
20,
16,
17,
20,
22,
21,
16,
14,
19,
21,
19,
14,
10,
14,
19,
18,
10,
4,
6,
12,
15,
10,
1,
-2,
2,
7,
8,
0,
-8,
-8,
-1,
3,
-3,
-11,
-15,
-14,
-8,
-7,
-12,
-19,
-21,
-17,
-13,
-13,
-24,
-28,
-25,
-19,
-16,
-23,
-33,
-35,
-27,
-18,
-20,
-30,
-39,
-38,
-25,
-18,
-26,
-39,
-40,
-30,
-21,
-23,
-35,
-39,
-31,
-23,
-23,
-29,
-36,
-32,
-22,
-17,
-22,
-29,
-29,
-20,
-15,
-18,
-19,
-20,
-19,
-14,
-11,
-12,
-12,
-13,
-10,
-8,
-6,
-5,
-4,
-4,
-4,
-2,
3,
3,
3,
2,
4,
8,
10,
9,
8,
11,
12,
14,
13,
15,
14,
16,
17,
16,
15,
18,
20,
19,
16,
16,
22,
25,
21,
15,
16,
21,
26,
22,
14,
12,
18,
26,
26,
14,
6,
10,
20,
23,
13,
4,
5,
12,
17,
12,
3,
-1,
3,
9,
6,
0,
-6,
-5,
1,
0,
-6,
-9,
-10,
-9,
-9,
-9,
-11,
-15,
-18,
-19,
-18,
-14,
-17,
-23,
-26,
-24,
-19,
-20,
-26,
-31,
-29,
-26,
-23,
-27,
-33,
-32,
-29,
-26,
-28,
-33,
-34,
-31,
-26,
-30,
-33,
-32,
-29,
-26,
-31,
-31,
-29,
-26,
-24,
-27,
-28,
-26,
-21,
-17,
-24,
-27,
-24,
-16,
-10,
-15,
-22,
-22,
-13,
-5,
-5,
-12,
-15,
-10,
-1,
3,
-3,
-8,
-6,
1,
8,
6,
0,
0,
5,
11,
16,
12,
5,
5,
13,
19,
19,
12,
9,
11,
22,
26,
22,
14,
9,
16,
25,
28,
19,
10,
13,
21,
29,
25,
15,
10,
15,
26,
25,
16,
8,
8,
19,
24,
17,
6,
4,
11,
15,
15,
7,
-1,
1,
7,
12,
5,
-5,
-7,
-3,
2,
0,
-7,
-9,
-10,
-7,
-8,
-12,
-13,
-15,
-13,
-14,
-17,
-18,
-20,
-20,
-19,
-22,
-25,
-26,
-25,
-26,
-26,
-27,
-28,
-28,
-32,
-31,
-31,
-28,
-28,
-32,
-30,
-30,
-30,
-31,
-29,
-27,
-30,
-31,
-32,
-30,
-26,
-25,
-25,
-30,
-30,
-25,
-19,
-19,
-26,
-28,
-20,
-13,
-12,
-16,
-23,
-20,
-11,
-4,
-8,
-17,
-16,
-5,
4,
0,
-8,
-10,
-3,
8,
9,
4,
-3,
0,
8,
15,
12,
5,
5,
11,
16,
18,
14,
14,
15,
15,
18,
18,
19,
16,
18,
21,
20,
20,
19,
17,
19,
21,
23,
21,
16,
15,
18,
23,
21,
17,
12,
14,
19,
19,
14,
11,
10,
11,
11,
9,
7,
6,
6,
4,
0,
1,
3,
4,
-1,
-8,
-8,
-4,
1,
-6,
-14,
-16,
-11,
-6,
-11,
-20,
-24,
-19,
-12,
-11,
-24,
-30,
-27,
-18,
-15,
-23,
-32,
-36,
-28,
-21,
-23,
-31,
-35,
-35,
-29,
-24,
-26,
-32,
-36,
-35,
-26,
-23,
-27,
-34,
-36,
-30,
-23,
-24,
-28,
-35,
-31,
-21,
-15,
-21,
-31,
-31,
-20,
-10,
-12,
-21,
-28,
-20,
-8,
-4,
-10,
-19,
-18,
-5,
1,
-2,
-8,
-10,
-3,
5,
5,
2,
-2,
2,
7,
11,
8,
4,
6,
12,
15,
13,
9,
14,
16,
17,
18,
16,
17,
18,
19,
18,
17,
20,
19,
21,
19,
18,
19,
21,
22,
19,
17,
17,
17,
21,
19,
17,
16,
11,
14,
16,
17,
12,
7,
7,
9,
12,
10,
4,
1,
1,
4,
6,
1,
-4,
-7,
-3,
1,
-3,
-11,
-16,
-12,
-7,
-6,
-13,
-24,
-22,
-17,
-8,
-15,
-25,
-29,
-27,
-15,
-18,
-26,
-32,
-32,
-24,
-22,
-26,
-32,
-35,
-31,
-26,
-24,
-31,
-35,
-32,
-29,
-26,
-29,
-34,
-33,
-30,
-28,
-27,
-27,
-28,
-31,
-29,
-24,
-21,
-21,
-26,
-27,
-23,
-19,
-15,
-16,
-20,
-20,
-15,
-9,
-10,
-13,
-11,
-8,
-6,
-6,
-4,
-4,
-3,
0,
0,
2,
2,
3,
5,
5,
6,
9,
13,
11,
6,
8,
15,
22,
18,
10,
8,
15,
26,
26,
14,
9,
13,
25,
30,
23,
12,
10,
21,
28,
24,
15,
11,
17,
23,
24,
18,
11,
11,
17,
22,
17,
9,
6,
8,
12,
14,
10,
5,
0,
2,
8,
10,
3,
-7,
-10,
-4,
4,
1,
-8,
-16,
-15,
-6,
-3,
-11,
-19,
-21,
-14,
-9,
-14,
-25,
-29,
-20,
-15,
-17,
-27,
-33,
-29,
-20,
-20,
-29,
-33,
-31,
-27,
-27,
-29,
-34,
-32,
-28,
-28,
-31,
-34,
-32,
-27,
-27,
-30,
-33,
-29,
-23,
-25,
-27,
-31,
-27,
-24,
-21,
-18,
-23,
-23,
-21,
-16,
-15,
-16,
-18,
-16,
-13,
-11,
-8,
-10,
-12,
-10,
-4,
1,
-1,
-6,
-7,
0,
7,
8,
3,
-2,
1,
10,
17,
15,
5,
2,
11,
20,
20,
13,
7,
11,
22,
26,
21,
14,
12,
19,
28,
24,
16,
12,
16,
25,
28,
21,
14,
14,
19,
24,
23,
15,
10,
12,
17,
19,
14,
9,
9,
10,
11,
10,
9,
5,
3,
3,
4,
4,
0,
-2,
-3,
-3,
-2,
-4,
-6,
-9,
-11,
-11,
-9,
-11,
-15,
-17,
-17,
-15,
-17,
-19,
-21,
-24,
-22,
-21,
-24,
-24,
-26,
-30,
-28,
-26,
-25,
-26,
-31,
-35,
-30,
-28,
-25,
-28,
-35,
-36,
-32,
-24,
-25,
-32,
-37,
-34,
-23,
-21,
-26,
-34,
-31,
-23,
-16,
-17,
-31,
-32,
-20,
-12,
-10,
-19,
-26,
-20,
-9,
-4,
-9,
-15,
-16,
-9,
-1,
-1,
-6,
-8,
-4,
1,
4,
4,
0,
3,
3,
7,
12,
10,
7,
4,
10,
16,
17,
14,
8,
11,
18,
24,
21,
12,
11,
17,
26,
27,
15,
11,
17,
24,
26,
18,
15,
15,
22,
24,
17,
14,
14,
21,
22,
13,
8,
9,
18,
17,
11,
3,
5,
11,
12,
6,
0,
-1,
4,
6,
2,
-5,
-8,
-4,
0,
-3,
-11,
-14,
-12,
-8,
-8,
-13,
-19,
-20,
-19,
-16,
-16,
-19,
-24,
-26,
-24,
-19,
-21,
-26,
-32,
-33,
-25,
-22,
-25,
-34,
-38,
-31,
-24,
-20,
-34,
-41,
-36,
-25,
-19,
-29,
-39,
-38,
-27,
-17,
-24,
-32,
-37,
-30,
-18,
-16,
-24,
-32,
-28,
-18,
-15,
-15,
-21,
-21,
-15,
-13,
-10,
-12,
-14,
-12,
-7,
-5,
-4,
-4,
-6,
-4,
1,
2,
5,
2,
2,
2,
8,
12,
9,
8,
6,
11,
15,
15,
16,
12,
13,
16,
19,
17,
18,
17,
16,
20,
19,
19,
22,
20,
18,
17,
19,
21,
21,
17,
16,
17,
19,
22,
17,
12,
11,
16,
19,
16,
9,
5,
8,
15,
14,
6,
-1,
-1,
7,
11,
6,
-5,
-10,
-3,
4,
4,
-8,
-17,
-13,
-7,
-4,
-13,
-20,
-19,
-17,
-12,
-13,
-22,
-27,
-24,
-16,
-17,
-25,
-31,
-30,
-26,
-23,
-24,
-29,
-32,
-33,
-29,
-27,
-29,
-30,
-33,
-33,
-29,
-27,
-29,
-32,
-32,
-30,
-26,
-27,
-29,
-30,
-29,
-25,
-21,
-25,
-28,
-27,
-18,
-18,
-20,
-21,
-20,
-15,
-13,
-15,
-16,
-15,
-8,
-6,
-8,
-12,
-9,
0,
2,
-3,
-8,
-4,
5,
10,
6,
-1,
-2,
9,
16,
16,
8,
3,
8,
19,
22,
13,
9,
13,
18,
23,
20,
16,
14,
18,
23,
24,
20,
16,
16,
19,
24,
23,
18,
15,
13,
20,
25,
23,
15,
5,
10,
20,
24,
15,
2,
3,
10,
18,
14,
3,
-4,
2,
11,
11,
1,
-9,
-7,
3,
4,
-4,
-14,
-15,
-7,
-4,
-8,
-16,
-18,
-16,
-13,
-14,
-17,
-22,
-22,
-20,
-20,
-22,
-23,
-25,
-28,
-28,
-28,
-26,
-26,
-29,
-34,
-34,
-29,
-26,
-29,
-34,
-32,
-29,
-27,
-29,
-30,
-31,
-30,
-27,
-28,
-28,
-29,
-28,
-26,
-25,
-24,
-24,
-23,
-23,
-23,
-21,
-15,
-15,
-17,
-20,
-18,
-11,
-7,
-8,
-12,
-15,
-10,
1,
3,
-6,
-11,
-7,
4,
10,
4,
-1,
-1,
7,
15,
13,
8,
2,
8,
18,
20,
15,
7,
11,
18,
25,
22,
14,
12,
15,
23,
24,
20,
15,
14,
19,
23,
22,
19,
17,
16,
19,
19,
19,
15,
14,
15,
17,
17,
13,
10,
11,
12,
12,
9,
6,
4,
6,
6,
5,
2,
-2,
-3,
-1,
-1,
-4,
-6,
-6,
-8,
-9,
-13,
-14,
-12,
-12,
-14,
-19,
-23,
-19,
-15,
-14,
-20,
-28,
-28,
-24,
-17,
-22,
-32,
-35,
-28,
-20,
-24,
-34,
-37,
-31,
-23,
-21,
-32,
-40,
-37,
-27,
-20,
-28,
-37,
-40,
-29,
-21,
-22,
-29,
-35,
-30,
-22,
-18,
-20,
-27,
-28,
-25,
-16,
-13,
-16,
-20,
-20,
-15,
-10,
-7,
-11,
-16,
-14,
-5,
3,
-1,
-10,
-10,
-2,
9,
9,
1,
-5,
-1,
12,
18,
11,
1,
2,
13,
21,
18,
10,
8,
14,
21,
22,
15,
14,
17,
21,
24,
17,
17,
18,
23,
21,
19,
18,
18,
21,
18,
16,
19,
20,
19,
15,
13,
14,
17,
16,
13,
9,
9,
10,
13,
11,
4,
2,
4,
5,
4,
2,
-1,
-2,
-3,
-4,
-3,
-4,
-7,
-12,
-14,
-11,
-8,
-10,
-18,
-20,
-19,
-15,
-13,
-20,
-29,
-26,
-19,
-16,
-25,
-35,
-35,
-25,
-17,
-24,
-34,
-36,
-31,
-24,
-24,
-29,
-36,
-36,
-29,
-26,
-29,
-33,
-35,
-28,
-26,
-27,
-29,
-31,
-28,
-25,
-25,
-26,
-25,
-26,
-24,
-19,
-18,
-18,
-19,
-17,
-17,
-13,
-10,
-11,
-13,
-14,
-9,
-5,
-3,
-6,
-4,
-4,
0,
2,
1,
3,
3,
6,
7,
7,
7,
10,
12,
11,
9,
10,
16,
18,
16,
12,
13,
17,
22,
22,
16,
14,
17,
24,
26,
20,
13,
15,
24,
29,
21,
12,
9,
17,
28,
25,
16,
7,
10,
18,
24,
17,
5,
0,
9,
17,
14,
4,
-2,
1,
8,
9,
4,
-5,
-10,
-2,
3,
1,
-9,
-16,
-13,
-5,
-4,
-11,
-18,
-24,
-18,
-13,
-11,
-17,
-28,
-27,
-20,
-15,
-19,
-28,
-33,
-29,
-22,
-20,
-27,
-34,
-35,
-28,
-24,
-27,
-35,
-38,
-32,
-24,
-25,
-33,
-37,
-32,
-26,
-23,
-29,
-31,
-30,
-25,
-20,
-25,
-28,
-26,
-23,
-19,
-22,
-22,
-19,
-14,
-15,
-19,
-19,
-13,
-8,
-7,
-11,
-11,
-8,
-4,
-1,
-3,
-6,
-4,
3,
5,
2,
2,
4,
7,
9,
9,
9,
8,
10,
11,
14,
17,
15,
13,
12,
16,
22,
22,
16,
11,
14,
22,
28,
23,
13,
10,
19,
28,
26,
15,
11,
14,
23,
27,
17,
8,
10,
18,
23,
16,
5,
5,
13,
17,
11,
4,
1,
5,
10,
6,
3,
-1,
-2,
-2,
-3,
-3,
-6,
-7,
-7,
-11,
-12,
-13,
-10,
-12,
-17,
-19,
-19,
-15,
-17,
-21,
-21,
-23,
-22,
-22,
-27,
-27,
-27,
-26,
-28,
-29,
-29,
-30,
-28,
-31,
-30,
-29,
-29,
-31,
-34,
-33,
-29,
-26,
-28,
-34,
-35,
-29,
-21,
-22,
-32,
-35,
-28,
-20,
-15,
-20,
-29,
-29,
-18,
-9,
-13,
-22,
-27,
-16,
-6,
-5,
-12,
-17,
-13,
-3,
3,
0,
-9,
-11,
-3,
8,
9,
2,
-4,
-1,
7,
15,
15,
8,
2,
7,
17,
21,
15,
8,
10,
16,
23,
24,
16,
11,
16,
23,
25,
20,
12,
14,
21,
27,
23,
16,
13,
16,
24,
24,
18,
12,
11,
17,
20,
19,
11,
8,
12,
15,
13,
8,
5,
4,
6,
6,
3,
0,
1,
1,
0,
-2,
-6,
-6,
-5,
-6,
-10,
-14,
-13,
-11,
-11,
-16,
-19,
-18,
-16,
-17,
-19,
-24,
-25,
-21,
-23,
-23,
-28,
-33,
-28,
-24,
-24,
-29,
-32,
-33,
-29,
-26,
-28,
-30,
-35,
-36,
-31,
-27,
-26,
-32,
-36,
-32,
-27,
-22,
-26,
-31,
-30,
-26,
-19,
-19,
-26,
-30,
-25,
-13,
-11,
-18,
-26,
-23,
-11,
-5,
-8,
-17,
-17,
-9,
-1,
1,
-7,
-10,
-4,
3,
5,
0,
0,
1,
7,
9,
6,
6,
10,
12,
12,
10,
10,
12,
17,
17,
13,
14,
16,
20,
18,
15,
18,
20,
23,
20,
16,
16,
21,
23,
22,
19,
14,
16,
21,
20,
18,
16,
14,
14,
14,
15,
17,
12,
8,
5,
8,
12,
11,
3,
-2,
0,
9,
8,
0,
-8,
-10,
0,
6,
-1,
-15,
-20,
-10,
-2,
-4,
-16,
-27,
-22,
-10,
-7,
-17,
-29,
-29,
-21,
-13,
-17,
-29,
-35,
-29,
-21,
-22,
-27,
-34,
-34,
-29,
-26,
-27,
-31,
-35,
-34,
-29,
-24,
-27,
-33,
-36,
-32,
-24,
-22,
-27,
-34,
-34,
-25,
-19,
-18,
-27,
-31,
-25,
-16,
-13,
-19,
-25,
-19,
-13,
-10,
-13,
-16,
-14,
-8,
-3,
-7,
-9,
-9,
-2,
3,
0,
-3,
-2,
3,
6,
6,
4,
4,
10,
11,
12,
10,
7,
14,
18,
18,
11,
11,
16,
21,
22,
18,
13,
16,
21,
25,
21,
17,
14,
17,
24,
24,
19,
15,
16,
19,
20,
19,
17,
12,
13,
16,
19,
14,
9,
6,
10,
14,
12,
6,
0,
0,
6,
8,
5,
-4,
-8,
-5,
2,
2,
-6,
-14,
-15,
-9,
-6,
-10,
-18,
-21,
-18,
-13,
-14,
-20,
-27,
-25,
-19,
-17,
-25,
-30,
-30,
-25,
-22,
-26,
-32,
-32,
-30,
-28,
-29,
-30,
-30,
-30,
-31,
-31,
-30,
-29,
-27,
-29,
-31,
-32,
-28,
-23,
-25,
-29,
-32,
-28,
-21,
-21,
-25,
-27,
-23,
-18,
-15,
-15,
-20,
-20,
-13,
-12,
-9,
-12,
-13,
-10,
-8,
-3,
-3,
-2,
-6,
-7,
1,
6,
8,
1,
-3,
3,
10,
17,
13,
4,
3,
11,
23,
23,
11,
4,
11,
24,
27,
18,
9,
13,
25,
28,
23,
12,
11,
19,
29,
28,
15,
10,
16,
22,
26,
20,
14,
11,
15,
19,
18,
15,
9,
8,
11,
13,
11,
7,
4,
1,
5,
6,
5,
0,
-6,
-4,
1,
1,
-6,
-13,
-11,
-5,
-4,
-12,
-19,
-17,
-13,
-10,
-15,
-23,
-24,
-21,
-15,
-18,
-26,
-28,
-25,
-21,
-26,
-31,
-33,
-27,
-22,
-27,
-35,
-36,
-29,
-23,
-26,
-34,
-39,
-32,
-25,
-23,
-31,
-38,
-34,
-27,
-22,
-27,
-32,
-30,
-24,
-18,
-20,
-27,
-27,
-24,
-16,
-14,
-17,
-21,
-21,
-15,
-9,
-7,
-10,
-13,
-13,
-9,
0,
0,
-6,
-9,
-5,
3,
7,
5,
-1,
-1,
7,
12,
14,
9,
3,
7,
16,
21,
15,
8,
11,
17,
25,
22,
15,
12,
17,
24,
24,
18,
14,
16,
20,
24,
21,
18,
18,
19,
19,
18,
18,
17,
15,
16,
13,
14,
13,
14,
13,
9,
9,
9,
11,
8,
3,
0,
3,
6,
4,
-2,
-5,
-4,
-1,
0,
-5,
-10,
-15,
-13,
-7,
-8,
-15,
-21,
-23,
-15,
-14,
-16,
-24,
-26,
-25,
-22,
-19,
-24,
-29,
-32,
-29,
-24,
-23,
-29,
-36,
-35,
-28,
-24,
-27,
-33,
-38,
-33,
-24,
-20,
-30,
-39,
-36,
-26,
-17,
-24,
-34,
-36,
-27,
-16,
-17,
-26,
-32,
-27,
-16,
-11,
-17,
-24,
-24,
-12,
-8,
-12,
-16,
-16,
-9,
-6,
-5,
-6,
-7,
-5,
0,
2,
1,
1,
1,
3,
5,
7,
10,
9,
7,
7,
11,
15,
15,
12,
12,
14,
16,
18,
17,
16,
19,
20,
19,
16,
15,
19,
24,
21,
16,
15,
20,
24,
22,
16,
12,
16,
24,
22,
13,
8,
13,
20,
20,
11,
1,
4,
14,
17,
7,
-2,
-4,
6,
12,
6,
-4,
-10,
-5,
2,
1,
-5,
-15,
-15,
-8,
-9,
-9,
-15,
-20,
-17,
-16,
-14,
-16,
-24,
-27,
-24,
-18,
-19,
-24,
-33,
-33,
-26,
-19,
-22,
-33,
-37,
-32,
-24,
-20,
-29,
-39,
-39,
-30,
-20,
-27,
-36,
-38,
-31,
-22,
-24,
-31,
-33,
-29,
-23,
-21,
-25,
-27,
-26,
-20,
-18,
-19,
-21,
-20,
-15,
-15,
-15,
-14,
-11,
-10,
-11,
-11,
-8,
-4,
-3,
-4,
-3,
-3,
1,
6,
6,
1,
-1,
4,
11,
13,
11,
6,
7,
12,
17,
20,
15,
11,
13,
18,
21,
18,
15,
15,
17,
22,
22,
19,
15,
15,
20,
25,
25,
16,
11,
15,
21,
26,
19,
12,
9,
13,
22,
20,
12,
4,
4,
16,
17,
10,
0,
-2,
4,
9,
8,
-2,
-8,
-3,
3,
4,
-6,
-14,
-14,
-7,
-2,
-10,
-17,
-20,
-15,
-11,
-14,
-19,
-26,
-22,
-19,
-20,
-24,
-25,
-26,
-25,
-24,
-27,
-29,
-28,
-28,
-30,
-32,
-31,
-30,
-27,
-29,
-32,
-31,
-30,
-30,
-29,
-31,
-28,
-29,
-29,
-29,
-26,
-26,
-27,
-25,
-26,
-24,
-20,
-23,
-23,
-23,
-19,
-13,
-14,
-20,
-21,
-14,
-6,
-4,
-12,
-17,
-11,
-2,
5,
-1,
-12,
-10,
3,
12,
7,
-3,
-5,
4,
18,
16,
7,
1,
6,
17,
21,
16,
9,
8,
17,
23,
24,
17,
13,
16,
21,
24,
23,
17,
13,
15,
22,
26,
25,
16,
12,
15,
21,
24,
19,
11,
9,
16,
23,
19,
8,
5,
12,
18,
14,
5,
