5-grundlagen-opAmps/data/ALL0004/A0004CH2.CSV

Memory Length,4000,
Trigger Level,0.00000e+00,
Source,CH2,
Probe,1.0X,
Vertical Units,V,
Vertical Scale,5.00000e-02,
Vertical Position,0.00000e+00,
Horizontal Units,S,
Horizontal Scale,1.00000e-07,
Horizontal Position,1.0000000e-07,
Horizontal Mode,Main,
Sampling Period,2.00000e-09,
Firmware,V1.14,
Time, ,
Mode,Fast,
Waveform Data,
11,
11,
15,
19,
19,
18,
16,
18,
23,
27,
25,
23,
25,
27,
28,
28,
28,
28,
27,
28,
28,
29,
28,
26,
25,
27,
28,
28,
27,
25,
25,
26,
29,
28,
23,
20,
21,
23,
20,
16,
12,
14,
18,
17,
10,
7,
8,
11,
11,
7,
3,
2,
3,
4,
-1,
-7,
-7,
-5,
-4,
-8,
-14,
-12,
-9,
-11,
-17,
-19,
-17,
-15,
-17,
-21,
-25,
-25,
-21,
-21,
-24,
-30,
-31,
-25,
-25,
-27,
-30,
-31,
-28,
-26,
-27,
-27,
-29,
-28,
-28,
-26,
-25,
-28,
-31,
-29,
-25,
-23,
-23,
-24,
-25,
-22,
-18,
-15,
-14,
-18,
-20,
-14,
-8,
-8,
-12,
-13,
-9,
-4,
-2,
-3,
-7,
-6,
2,
8,
7,
3,
1,
8,
14,
17,
12,
9,
12,
17,
19,
19,
16,
15,
19,
26,
26,
24,
24,
24,
29,
30,
29,
27,
26,
26,
29,
32,
28,
25,
26,
27,
28,
28,
27,
26,
26,
26,
27,
28,
24,
22,
24,
23,
22,
18,
16,
15,
15,
17,
13,
10,
9,
10,
9,
7,
5,
4,
5,
5,
0,
-4,
-4,
-3,
-3,
-7,
-12,
-12,
-9,
-10,
-16,
-18,
-19,
-16,
-16,
-17,
-22,
-25,
-23,
-19,
-20,
-27,
-31,
-31,
-26,
-23,
-31,
-33,
-31,
-28,
-27,
-27,
-29,
-30,
-31,
-25,
-24,
-28,
-31,
-29,
-27,
-25,
-25,
-25,
-26,
-23,
-21,
-18,
-17,
-17,
-18,
-17,
-13,
-9,
-11,
-13,
-12,
-9,
-5,
-4,
-5,
-6,
-4,
2,
5,
5,
3,
5,
10,
13,
13,
10,
11,
15,
17,
18,
17,
17,
20,
23,
23,
21,
24,
26,
27,
26,
25,
27,
31,
32,
27,
25,
27,
29,
31,
29,
25,
24,
29,
31,
28,
24,
24,
27,
31,
26,
24,
20,
20,
22,
20,
17,
14,
13,
14,
14,
15,
9,
8,
7,
7,
9,
5,
3,
0,
-3,
-2,
0,
-3,
-8,
-13,
-11,
-6,
-6,
-14,
-19,
-19,
-14,
-12,
-15,
-22,
-26,
-23,
-17,
-19,
-27,
-31,
-31,
-24,
-22,
-29,
-35,
-33,
-27,
-23,
-27,
-31,
-31,
-30,
-24,
-24,
-30,
-31,
-30,
-27,
-25,
-27,
-27,
-27,
-24,
-22,
-21,
-19,
-18,
-19,
-16,
-13,
-13,
-13,
-13,
-10,
-9,
-8,
-6,
-6,
-7,
-4,
-1,
1,
2,
2,
4,
7,
10,
9,
10,
13,
15,
15,
15,
15,
17,
18,
22,
20,
19,
24,
25,
28,
26,
25,
26,
28,
29,
28,
26,
24,
27,
29,
31,
26,
23,
25,
28,
32,
26,
21,
24,
27,
28,
26,
24,
20,
21,
21,
21,
16,
12,
13,
15,
15,
13,
8,
7,
10,
10,
9,
5,
3,
1,
-1,
0,
-2,
-5,
-8,
-8,
-8,
-8,
-11,
-13,
-16,
-16,
-15,
-14,
-17,
-21,
-23,
-20,
-20,
-22,
-25,
-29,
-27,
-24,
-27,
-30,
-31,
-29,
-28,
-26,
-29,
-29,
-27,
-27,
-27,
-28,
-31,
-26,
-26,
-27,
-30,
-27,
-24,
-22,
-23,
-25,
-24,
-19,
-15,
-15,
-17,
-18,
-15,
-10,
-8,
-11,
-14,
-8,
-5,
-3,
-4,
-5,
-3,
2,
5,
6,
4,
6,
9,
11,
13,
12,
12,
13,
15,
18,
18,
19,
18,
18,
22,
25,
28,
25,
24,
25,
28,
33,
30,
27,
24,
28,
33,
32,
27,
22,
25,
33,
34,
27,
21,
24,
29,
32,
27,
22,
20,
24,
26,
23,
15,
14,
16,
18,
17,
11,
9,
10,
11,
10,
7,
5,
4,
5,
1,
0,
-2,
-4,
-4,
-6,
-8,
-10,
-12,
-12,
-13,
-14,
-15,
-15,
-16,
-19,
-21,
-20,
-21,
-23,
-25,
-25,
-25,
-26,
-30,
-30,
-28,
-26,
-26,
-30,
-31,
-30,
-25,
-24,
-27,
-31,
-31,
-26,
-25,
-27,
-31,
-31,
-25,
-22,
-23,
-26,
-28,
-22,
-17,
-15,
-19,
-20,
-21,
-13,
-8,
-10,
-14,
-13,
-9,
-5,
-5,
-6,
-7,
-4,
1,
5,
5,
5,
5,
7,
11,
13,
12,
13,
14,
16,
17,
18,
18,
16,
18,
24,
26,
25,
24,
24,
26,
28,
29,
28,
26,
26,
29,
31,
31,
26,
25,
28,
31,
28,
25,
27,
27,
27,
27,
25,
24,
24,
25,
21,
19,
18,
18,
17,
15,
13,
12,
12,
13,
10,
6,
7,
8,
7,
3,
-1,
-3,
-1,
0,
-2,
-8,
-12,
-11,
-6,
-7,
-13,
-19,
-18,
-13,
-13,
-19,
-22,
-24,
-21,
-19,
-21,
-26,
-28,
-30,
-26,
-24,
-26,
-31,
-31,
-29,
-26,
-25,
-26,
-30,
-30,
-31,
-25,
-24,
-26,
-30,
-30,
-27,
-22,
-23,
-26,
-28,
-24,
-18,
-15,
-18,
-20,
-19,
-13,
-9,
-11,
-16,
-14,
-9,
-4,
-5,
-8,
-8,
-4,
1,
5,
2,
2,
5,
9,
11,
11,
8,
11,
16,
16,
15,
15,
18,
18,
20,
21,
20,
21,
26,
27,
26,
24,
26,
29,
31,
28,
27,
28,
28,
29,
28,
27,
27,
26,
27,
29,
28,
27,
25,
26,
24,
26,
27,
25,
19,
19,
20,
21,
17,
12,
12,
14,
17,
14,
6,
5,
7,
12,
9,
3,
-3,
-3,
1,
2,
-5,
-12,
-12,
-8,
-5,
-9,
-17,
-17,
-15,
-12,
-14,
-17,
-21,
-22,
-20,
-20,
-24,
-25,
-30,
-29,
-26,
-24,
-27,
-31,
-30,
-30,
-26,
-26,
-27,
-28,
-31,
-29,
-24,
-22,
-27,
-31,
-29,
-24,
-22,
-25,
-27,
-26,
-23,
-18,
-19,
-19,
-19,
-15,
-12,
-12,
-14,
-13,
-10,
-8,
-7,
-7,
-6,
-3,
-3,
-1,
-1,
2,
5,
8,
7,
8,
9,
12,
16,
16,
11,
13,
18,
20,
20,
19,
18,
21,
27,
27,
25,
24,
25,
29,
32,
31,
27,
27,
28,
31,
31,
27,
25,
26,
29,
32,
31,
26,
25,
26,
27,
27,
25,
23,
22,
23,
24,
20,
16,
14,
14,
15,
17,
13,
8,
7,
8,
11,
8,
6,
0,
1,
1,
1,
-3,
-8,
-9,
-8,
-5,
-8,
-15,
-16,
-14,
-12,
-15,
-18,
-21,
-19,
-19,
-18,
-24,
-26,
-23,
-25,
-24,
-27,
-32,
-29,
-26,
-27,
-31,
-31,
-30,
-26,
-25,
-29,
-29,
-29,
-27,
-26,
-27,
-28,
-27,
-25,
-24,
-24,
-26,
-25,
-21,
-19,
-19,
-17,
-17,
-17,
-16,
-13,
-9,
-10,
-12,
-10,
-8,
-5,
-4,
-3,
-5,
-3,
2,
7,
7,
5,
4,
8,
16,
17,
11,
8,
11,
18,
20,
19,
14,
15,
23,
28,
27,
20,
19,
25,
32,
32,
25,
24,
26,
29,
30,
27,
24,
24,
27,
29,
29,
26,
25,
25,
26,
25,
26,
26,
24,
22,
20,
19,
19,
17,
12,
11,
15,
16,
13,
8,
6,
8,
9,
9,
3,
0,
0,
1,
0,
-4,
-9,
-7,
-6,
-7,
-12,
-13,
-13,
-12,
-15,
-17,
-19,
-18,
-19,
-19,
-23,
-25,
-23,
-21,
-24,
-29,
-31,
-28,
-24,
-27,
-31,
-34,
-29,
-25,
-25,
-29,
-31,
-30,
-25,
-23,
-27,
-30,
-31,
-26,
-24,
-23,
-26,
-26,
-24,
-19,
-18,
-19,
-20,
-17,
-15,
-12,
-10,
-12,
-11,
-10,
-8,
-6,
-6,
-4,
-5,
-4,
1,
5,
5,
5,
5,
8,
14,
15,
12,
11,
13,
17,
17,
19,
16,
18,
23,
25,
24,
22,
24,
26,
28,
28,
27,
26,
28,
31,
29,
28,
26,
26,
29,
29,
27,
26,
28,
30,
28,
26,
25,
26,
27,
26,
23,
19,
19,
20,
19,
16,
11,
12,
14,
16,
13,
8,
5,
7,
10,
8,
3,
0,
-1,
-1,
-1,
-3,
-8,
-10,
-11,
-9,
-7,
-12,
-17,
-17,
-15,
-14,
-16,
-17,
-23,
-24,
-21,
-20,
-21,
-27,
-33,
-29,
-23,
-22,
-30,
-33,
-33,
-26,
-23,
-26,
-31,
-32,
-27,
-22,
-22,
-29,
-33,
-29,
-22,
-21,
-25,
-30,
-27,
-20,
-17,
-17,
-19,
-19,
-17,
-12,
-10,
-13,
-13,
-11,
-8,
-7,
-7,
-5,
-4,
-2,
-2,
-1,
3,
6,
5,
7,
8,
12,
13,
13,
14,
13,
17,
19,
19,
18,
18,
22,
24,
23,
25,
24,
27,
28,
28,
27,
26,
29,
29,
28,
27,
26,
30,
28,
25,
24,
27,
32,
31,
27,
25,
26,
31,
28,
21,
19,
19,
23,
24,
17,
13,
12,
15,
18,
15,
7,
5,
8,
11,
9,
3,
1,
1,
3,
-1,
-4,
-6,
-8,
-7,
-7,
-9,
-11,
-14,
-14,
-14,
-15,
-17,
-16,
-20,
-21,
-22,
-22,
-22,
-24,
-27,
-29,
-25,
-26,
-27,
-31,
-30,
-27,
-26,
-27,
-29,
-30,
-27,
-26,
-26,
-29,
-31,
-29,
-25,
-25,
-28,
-29,
-25,
-22,
-23,
-22,
-22,
-17,
-16,
-15,
-16,
-16,
-12,
-8,
-8,
-10,
-12,
-8,
-4,
-3,
-5,
-5,
-3,
2,
5,
7,
5,
5,
10,
14,
15,
12,
11,
13,
17,
18,
19,
18,
18,
20,
25,
26,
25,
22,
24,
28,
31,
31,
26,
25,
26,
28,
31,
28,
23,
22,
27,
32,
31,
25,
21,
25,
28,
31,
25,
20,
18,
21,
25,
20,
14,
10,
13,
18,
17,
10,
5,
7,
10,
12,
7,
1,
0,
3,
3,
0,
-6,
-7,
-7,
-6,
-6,
-11,
-14,
-13,
-14,
-14,
-16,
-16,
-19,
-19,
-20,
-22,
-22,
-23,
-24,
-25,
-26,
-26,
-27,
-29,
-28,
-28,
-29,
-27,
-27,
-27,
-29,
-27,
-26,
-27,
-29,
-26,
-26,
-26,
-26,
-29,
-25,
-23,
-23,
-24,
-24,
-20,
-17,
-13,
-16,
-18,
-16,
-10,
-8,
-10,
-13,
-12,
-6,
-1,
-3,
-5,
-5,
1,
7,
8,
4,
4,
9,
14,
15,
12,
9,
12,
18,
20,
18,
18,
18,
22,
25,
25,
25,
24,
28,
27,
28,
28,
28,
28,
27,
27,
29,
31,
31,
26,
27,
29,
32,
30,
27,
27,
27,
28,
29,
26,
23,
24,
23,
23,
19,
16,
16,
17,
17,
12,
11,
12,
11,
11,
7,
5,
5,
7,
4,
-2,
-5,
-3,
-1,
-3,
-9,
-13,
-10,
-6,
-8,
-14,
-19,
-16,
-13,
-13,
-19,
-24,
-24,
-20,
-19,
-23,
-29,
-30,
-26,
-24,
-24,
-28,
-34,
-32,
-26,
-24,
-27,
-29,
-29,
-28,
-26,
-24,
-26,
-29,
-31,
-27,
-22,
-20,
-24,
-26,
-25,
-20,
-15,
-14,
-18,
-19,
-15,
-8,
-6,
-11,
-14,
-12,
-5,
-1,
-5,
-7,
-7,
-3,
6,
6,
4,
3,
5,
11,
15,
14,
11,
12,
15,
18,
18,
16,
17,
19,
23,
25,
23,
22,
25,
27,
28,
27,
27,
28,
31,
29,
28,
29,
29,
26,
27,
28,
27,
28,
28,
28,
27,
26,
25,
27,
26,
25,
24,
22,
20,
19,
17,
16,
15,
15,
12,
13,
11,
9,
7,
6,
7,
6,
4,
2,
-3,
-3,
-1,
-3,
-6,
-12,
-12,
-8,
-6,
-12,
-18,
-17,
-16,
-13,
-16,
-21,
-25,
-24,
-20,
-19,
-26,
-29,
-31,
-27,
-24,
-26,
-33,
-33,
-28,
-26,
-27,
-29,
-30,
-28,
-25,
-27,
-28,
-30,
-31,
-26,
-26,
-26,
-26,
-26,
-25,
-22,
-22,
-19,
-16,
-17,
-18,
-15,
-13,
-11,
-11,
-13,
-12,
-9,
-6,
-5,
-6,
-5,
-3,
1,
3,
3,
3,
7,
10,
10,
11,
12,
14,
14,
13,
14,
16,
20,
19,
19,
18,
21,
27,
28,
26,
24,
25,
30,
33,
31,
24,
24,
28,
33,
28,
24,
22,
26,
31,
31,
24,
22,
25,
28,
27,
24,
19,
19,
22,
23,
20,
17,
14,
12,
15,
14,
13,
9,
7,
8,
10,
10,
6,
2,
-2,
0,
1,
0,
-5,
-10,
-11,
-7,
-5,
-11,
-19,
-18,
-14,
-11,
-15,
-22,
-24,
-21,
-17,
-19,
-26,
-28,
-30,
-25,
-22,
-27,
-33,
-31,
-27,
-25,
-29,
-31,
-30,
-27,
-26,
-26,
-29,
-29,
-25,
-25,
-25,
-27,
-27,
-25,
-24,
-23,
-24,
-23,
-19,
-17,
-17,
-16,
-14,
-13,
-11,
-10,
-10,
-9,
-7,
-6,
-5,
-5,
-3,
-2,
0,
3,
5,
6,
7,
7,
9,
11,
16,
14,
12,
13,
15,
20,
19,
19,
18,
20,
27,
29,
27,
23,
25,
29,
32,
31,
27,
26,
28,
32,
32,
28,
25,
25,
29,
33,
28,
24,
25,
27,
31,
28,
25,
24,
23,
25,
24,
19,
17,
16,
15,
16,
16,
12,
11,
10,
9,
10,
8,
6,
3,
2,
-1,
0,
-2,
-4,
-7,
-9,
-8,
-8,
-11,
-13,
-14,
-15,
-14,
-15,
-18,
-20,
-21,
-21,
-21,
-22,
-23,
-25,
-26,
-27,
-29,
-25,
-27,
-27,
-31,
-29,
-28,
-26,
-25,
-29,
-30,
-28,
-25,
-23,
-27,
-30,
-31,
-24,
-20,
-22,
-27,
-27,
-21,
-16,
-17,
-19,
-20,
-17,
-11,
-8,
-10,
-14,
-12,
-7,
-3,
-4,
-7,
-5,
-3,
3,
5,
5,
5,
5,
9,
12,
15,
13,
13,
13,
16,
18,
18,
19,
18,
20,
26,
27,
26,
23,
23,
28,
33,
32,
26,
24,
27,
32,
33,
27,
24,
25,
29,
33,
30,
24,
25,
30,
32,
26,
21,
22,
26,
26,
24,
19,
18,
19,
18,
16,
11,
10,
14,
15,
11,
6,
5,
9,
8,
5,
-1,
-2,
0,
0,
-4,
-7,
-9,
-10,
-9,
-10,
-13,
-15,
-17,
-15,
-16,
-16,
-20,
-21,
-23,
-22,
-23,
-23,
-25,
-29,
-29,
-29,
-24,
-26,
-32,
-32,
-29,
-25,
-24,
-26,
-32,
-31,
-25,
-24,
-25,
-30,
-31,
-27,
-21,
-22,
-27,
-30,
-25,
-18,
-18,
-18,
-21,
-19,
-15,
-9,
-11,
-14,
-12,
-11,
-6,
-5,
-8,
-6,
-5,
-1,
1,
2,
4,
4,
5,
8,
10,
12,
12,
11,
14,
15,
16,
17,
18,
18,
19,
22,
24,
24,
25,
25,
26,
28,
29,
29,
27,
26,
28,
28,
27,
26,
26,
27,
26,
26,
28,
28,
26,
25,
25,
27,
26,
25,
21,
19,
20,
21,
17,
14,
12,
11,
15,
16,
11,
5,
4,
8,
11,
6,
-1,
-3,
-1,
2,
-1,
-7,
-12,
-12,
-7,
-6,
-10,
-17,
-17,
-13,
-12,
-15,
-20,
-23,
-21,
-18,
-19,
-23,
-27,
-27,
-27,
-26,
-25,
-28,
-31,
-30,
-28,
-26,
-27,
-27,
-29,
-29,
-27,
-26,
-25,
-28,
-31,
-29,
-25,
-23,
-25,
-30,
-26,
-21,
-20,
-19,
-21,
-20,
-15,
-10,
-12,
-14,
-12,
-9,
-5,
-6,
-10,
-8,
-3,
0,
-1,
-2,
0,
5,
8,
9,
7,
6,
10,
15,
16,
12,
12,
16,
20,
22,
17,
17,
19,
24,
29,
25,
23,
25,
29,
31,
31,
27,
26,
28,
32,
30,
29,
27,
27,
25,
29,
31,
29,
27,
25,
27,
28,
28,
25,
19,
18,
22,
25,
20,
14,
10,
14,
18,
16,
9,
5,
6,
11,
13,
3,
-1,
-1,
3,
2,
-3,
-7,
-10,
-7,
-5,
-6,
-14,
-17,
-13,
-12,
-13,
-17,
-19,
-19,
-19,
-20,
-23,
-23,
-23,
-27,
-26,
-27,
-25,
-27,
-29,
-29,
-30,
-27,
-25,
-28,
-29,
-31,
-26,
-26,
-25,
-28,
-30,
-28,
-25,
-24,
-25,
-26,
-23,
-22,
-21,
-20,
-18,
-17,
-15,
-15,
-15,
-12,
-8,
-8,
-11,
-11,
-7,
-4,
-2,
-4,
-4,
0,
5,
7,
6,
4,
6,
11,
16,
15,
10,
9,
14,
19,
20,
17,
15,
19,
25,
27,
26,
23,
23,
28,
30,
31,
26,
25,
28,
32,
32,
27,
27,
26,
28,
30,
30,
26,
26,
28,
29,
27,
26,
24,
23,
24,
22,
20,
19,
17,
15,
17,
16,
15,
12,
9,
9,
10,
10,
7,
3,
3,
4,
2,
-1,
-4,
-6,
-6,
-5,
-7,
-12,
-13,
-12,
-9,
-14,
-19,
-17,
-16,
-14,
-19,
-23,
-25,
-22,
-21,
-24,
-27,
-30,
-27,
-24,
-24,
-29,
-34,
-31,
-25,
-25,
-27,
-31,
-30,
-26,
-23,
-25,
-30,
-31,
-29,
-22,
-22,
-25,
-27,
-24,
-19,
-18,
-18,
-17,
-16,
-16,
-14,
-10,
-9,
-11,
-13,
-9,
-5,
-4,
-4,
-6,
-5,
1,
5,
8,
4,
2,
6,
13,
16,
13,
9,
11,
17,
21,
17,
14,
15,
20,
26,
26,
22,
20,
26,
29,
31,
26,
25,
27,
29,
29,
28,
27,
26,
26,
27,
27,
27,
27,
27,
27,
25,
25,
27,
27,
24,
22,
19,
23,
22,
18,
14,
13,
15,
15,
11,
9,
7,
9,
8,
8,
4,
4,
2,
0,
-3,
-4,
-6,
-5,
-6,
-11,
-12,
-10,
-12,
-15,
-18,
-16,
-16,
-15,
-20,
-25,
-25,
-22,
-20,
-24,
-29,
-31,
-30,
-24,
-26,
-31,
-36,
-32,
-25,
-24,
-31,
-33,
-33,
-26,
-25,
-27,
-31,
-31,
-31,
-25,
-25,
-27,
-30,
-26,
-21,
-20,
-21,
-21,
-19,
-17,
-15,
-13,
-13,
-13,
-12,
-10,
-8,
-6,
-7,
-7,
-5,
-2,
-1,
3,
4,
4,
6,
10,
11,
11,
11,
13,
16,
16,
16,
17,
18,
20,
20,
21,
22,
24,
29,
29,
28,
26,
27,
31,
33,
27,
27,
29,
32,
32,
29,
27,
25,
28,
32,
32,
27,
24,
26,
31,
32,
25,
19,
19,
23,
24,
20,
15,
12,
16,
19,
17,
11,
6,
8,
11,
12,
7,
1,
1,
2,
3,
0,
-5,
-7,
-9,
-7,
-6,
-8,
-13,
-15,
-15,
-13,
-14,
-16,
-19,
-22,
-21,
-20,
-19,
-24,
-28,
-30,
-25,
-21,
-27,
-33,
-32,
-28,
-23,
-25,
-29,
-31,
-28,
-25,
-24,
-28,
-31,
-31,
-26,
-22,
-24,
-28,
-26,
-23,
-20,
-22,
-20,
-20,
-17,
-15,
-15,
-15,
-13,
-11,
-9,
-10,
-10,
-7,
-5,
-4,
-4,
-4,
0,
3,
6,
3,
6,
7,
9,
12,
11,
11,
12,
15,
15,
18,
18,
17,
19,
20,
21,
23,
24,
26,
24,
25,
28,
28,
27,
25,
24,
27,
28,
28,
24,
22,
24,
29,
30,
24,
21,
21,
27,
27,
22,
17,
18,
22,
21,
16,
11,
11,
13,
15,
13,
8,
5,
7,
9,
6,
4,
1,
1,
2,
-1,
-5,
-6,
-6,
-8,
-11,
-11,
-12,
-13,
-13,
-16,
-17,
-17,
-17,
-19,
-21,
-22,
-24,
-23,
-23,
-26,
-27,
-29,
-27,
-28,
-31,
-30,
-28,
-28,
-28,
-30,
-29,
-26,
-26,
-30,
-29,
-28,
-26,
-25,
-27,
-29,
-29,
-21,
-21,
-22,
-26,
-24,
-17,
-14,
-15,
-17,
-18,
-13,
-7,
-5,
-10,
-12,
-8,
-3,
1,
-1,
-6,
-3,
3,
9,
9,
7,
6,
10,
14,
18,
16,
14,
15,
19,
23,
23,
21,
20,
23,
26,
31,
30,
28,
27,
30,
34,
35,
33,
29,
31,
34,
35,
34,
30,
27,
31,
34,
35,
32,
26,
28,
33,
35,
31,
25,
24,
26,
28,
26,
20,
18,
18,
20,
19,
15,
12,
12,
13,
14,
10,
5,
6,
7,
6,
1,
-3,
-3,
-3,
-4,
-7,
-9,
-11,
-11,
-11,
-13,
-17,
-17,
-15,
-15,
-19,
-23,
-24,
-22,
-22,
-25,
-30,
-29,
-28,
-27,
-27,
-30,
-32,
-34,
-31,
-29,
-29,
-31,
-31,
-30,
-29,
-31,
-30,
-30,
-31,
-31,
-29,
-25,
-26,
-31,
-29,
-24,
-20,
-18,
-21,
-22,
-19,
-14,
-9,
-13,
-17,
-16,
-9,
-5,
-5,
-9,
-11,
-4,
1,
2,
0,
0,
3,
9,
11,
8,
8,
10,
13,
15,
15,
13,
14,
19,
19,
17,
20,
23,
24,
25,
22,
25,
26,
28,
28,
24,
24,
27,
29,
27,
24,
25,
26,
27,
26,
25,
24,
24,
26,
25,
23,
24,
22,
19,
19,
17,
17,
16,
15,
12,
12,
12,
13,
10,
6,
5,
9,
10,
6,
-3,
-4,
0,
3,
-2,
-8,
-13,
-11,
-4,
-6,
-13,
-19,
-18,
-12,
-9,
-14,
-22,
-23,
-19,
-15,
-19,
-24,
-27,
-26,
-22,
-21,
-25,
-28,
-31,
-25,
-22,
-22,
-25,
-28,
-28,
-23,
-23,
-22,
-25,
-27,
-26,
-23,
-19,
-20,
-25,
-24,
-20,
-15,
-15,
-16,
-18,
-14,
-11,
-8,
-9,
-12,
-11,
-6,
-3,
-4,
-7,
-7,
-2,
2,
2,
3,
3,
5,
9,
11,
11,
10,
12,
14,
15,
16,
15,
16,
18,
19,
18,
19,
23,
23,
25,
27,
26,
25,
26,
28,
27,
26,
25,
28,
28,
26,
25,
24,
25,
28,
26,
25,
23,
23,
24,
25,
24,
21,
20,
18,
18,
18,
14,
13,
10,
10,
12,
11,
8,
4,
3,
4,
6,
4,
-2,
-4,
-5,
-4,
-4,
-7,
-12,
-15,
-12,
-10,
-14,
-19,
-22,
-19,
-16,
-18,
-23,
-26,
-25,
-22,
-23,
-29,
-32,
-32,
-31,
-27,
-30,
-34,
-35,
-31,
-29,
-32,
-35,
-33,
-30,
-29,
-31,
-32,
-30,
-28,
-29,
-30,
-30,
-28,
-25,
-26,
-26,
-28,
-24,
-18,
-17,
-17,
-19,
-17,
-13,
-11,
-12,
-12,
-10,
-7,
-6,
-4,
-4,
-3,
-1,
2,
4,
7,
9,
9,
10,
10,
15,
18,
18,
16,
15,
20,
25,
25,
21,
19,
23,
28,
33,
29,
25,
27,
33,
37,
35,
27,
27,
32,
37,
36,
29,
27,
29,
35,
35,
30,
27,
26,
33,
34,
32,
25,
25,
27,
27,
24,
20,
18,
18,
17,
18,
17,
15,
12,
9,
11,
12,
10,
5,
2,
2,
4,
1,
-2,
-6,
-8,
-7,
-4,
-7,
-14,
-15,
-15,
-11,
-14,
-20,
-20,
-20,
-16,
-21,
-24,
-25,
-24,
-23,
-24,
-28,
-30,
-28,
-25,
-27,
-30,
-33,
-29,
-24,
-25,
-31,
-31,
-29,
-24,
-25,
-27,
-29,
-28,
-25,
-22,
-23,
-27,
-24,
-20,
-16,
-16,
-20,
-17,
-15,
-12,
-11,
-11,
-10,
-10,
-8,
-6,
-4,
-3,
-5,
-2,
0,
5,
7,
6,
5,
6,
10,
13,
14,
12,
11,
13,
18,
20,
17,
15,
17,
22,
25,
25,
21,
20,
25,
28,
31,
25,
23,
24,
26,
27,
25,
22,
23,
25,
27,
26,
23,
22,
24,
26,
24,
22,
19,
20,
21,
18,
17,
16,
15,
15,
12,
11,
11,
10,
9,
6,
5,
5,
5,
7,
2,
-1,
-3,
-2,
-2,
-6,
-10,
-10,
-8,
-10,
-12,
-13,
-16,
-16,
-15,
-15,
-16,
-20,
-23,
-22,
-20,
-22,
-22,
-25,
-27,
-26,
-25,
-23,
-25,
-29,
-31,
-25,
-23,
-23,
-27,
-30,
-28,
-22,
-22,
-25,
-30,
-30,
-23,
-18,
-21,
-26,
-29,
-23,
-15,
-14,
-18,
-20,
-18,
-11,
-7,
-12,
-14,
-12,
-8,
-4,
-4,
-6,
-9,
-4,
1,
3,
2,
4,
5,
7,
9,
11,
11,
12,
12,
13,
16,
19,
17,
17,
18,
20,
25,
25,
24,
22,
26,
30,
31,
26,
25,
28,
31,
29,
26,
25,
26,
29,
29,
27,
24,
26,
28,
29,
25,
23,
25,
30,
28,
24,
17,
19,
23,
22,
15,
12,
11,
17,
17,
13,
7,
6,
10,
11,
10,
4,
-1,
1,
3,
1,
-5,
-8,
-8,
-7,
-7,
-10,
-13,
-14,
-13,
-14,
-13,
-14,
-20,
-21,
-21,
-20,
-21,
-21,
-24,
-27,
-25,
-24,
-23,
-28,
-31,
-30,
-25,
-22,
-25,
-30,
-30,
-25,
-23,
-23,
-27,
-28,
-27,
-22,
-22,
-24,
-27,
-26,
-20,
-18,
-19,
-19,
-17,
-14,
-14,
-13,
-13,
-11,
-8,
-8,
-7,
-7,
-7,
-2,
-2,
-1,
-1,
3,
6,
8,
7,
7,
10,
13,
14,
14,
12,
15,
17,
20,
20,
19,
19,
22,
26,
25,
25,
25,
26,
28,
29,
29,
28,
26,
29,
29,
32,
28,
26,
27,
27,
31,
29,
27,
25,
25,
27,
30,
27,
22,
20,
21,
23,
22,
17,
13,
12,
17,
19,
14,
8,
5,
7,
13,
10,
4,
-1,
0,
4,
3,
-4,
-8,
-9,
-6,
-5,
-8,
-14,
-16,
-14,
-12,
-14,
-18,
-23,
-21,
-19,
-20,
-23,
-25,
-24,
-26,
-25,
-29,
-29,
-29,
-31,
-27,
-29,
-29,
-31,
-30,
-30,
-29,
-27,
-30,
-28,
-29,
-31,
-28,
-28,
-28,
-30,
-29,
-25,
-23,
-23,
-22,
-21,
-17,
-17,
-17,
-19,
-16,
-11,
-9,
-12,
-14,
-13,
-7,
-3,
-5,
-7,
-4,
2,
6,
5,
3,
2,
7,
13,
14,
11,
9,
12,
17,
19,
16,
13,
16,
22,
24,
25,
20,
20,
24,
28,
30,
26,
23,
25,
28,
31,
27,
25,
25,
25,
26,
30,
29,
26,
23,
24,
28,
28,
26,
20,
20,
23,
24,
20,
15,
10,
13,
17,
16,
10,
6,
5,
11,
12,
8,
1,
0,
3,
3,
-2,
-5,
-6,
-6,
-7,
-8,
-12,
-12,
-12,
-13,
-15,
-17,
-18,
-15,
-16,
-22,
-24,
-23,
-21,
-22,
-25,
-29,
-27,
-25,
-25,
-29,
-32,
-31,
-27,
-25,
-27,
-29,
-32,
-30,
-27,
-26,
-27,
-30,
-28,
-26,
-25,
-25,
-26,
-25,
-25,
-20,
-18,
-17,
-17,
-20,
-17,
-14,
-11,
-9,
-12,
-13,
-11,
-4,
-3,
-6,
-7,
-3,
3,
7,
6,
4,
3,
10,
15,
14,
11,
9,
13,
19,
20,
19,
15,
16,
23,
25,
25,
23,
24,
26,
30,
30,
27,
26,
29,
31,
31,
28,
28,
27,
28,
28,
28,
28,
27,
28,
28,
28,
26,
25,
27,
27,
24,
22,
21,
21,
18,
17,
15,
15,
15,
13,
13,
11,
10,
8,
7,
7,
6,
3,
0,
-2,
-2,
-3,
-6,
-7,
-10,
-10,
-7,
-9,
-11,
-16,
-18,
-14,
-13,
-16,
-23,
-25,
-20,
-17,
-22,
-29,
-29,
-27,
-23,
-22,
-28,
-32,
-33,
-25,
-22,
-25,
-31,
-32,
-26,
-22,
-24,
-27,
-30,
-27,
-24,
-21,
-23,
-26,
-25,
-22,
-19,
-18,
-19,
-18,
-16,
-14,
-13,
-11,
-10,
-12,
-12,
-7,
-5,
-3,
-6,
-8,
-2,
2,
6,
5,
2,
3,
11,
15,
14,
10,
