3-eigenschaften-von-transistoren/daten/ALL0025/A0025CH2.CSV

Memory Length,4000,
Trigger Level,5.35900e+00,
Source,CH2,
Probe,1.0X,
Vertical Units,V,
Vertical Scale,2.00000e+00,
Vertical Position,0.00000e+00,
Horizontal Units,S,
Horizontal Scale,5.00000e-04,
Horizontal Position,0.0000000e+00,
Horizontal Mode,Main,
Sampling Period,2.00000e-06,
Firmware,V1.14,
Time, ,
Mode,Fast,
Waveform Data,
62,
62,
62,
63,
63,
64,
64,
64,
64,
64,
64,
64,
64,
65,
65,
65,
65,
65,
65,
65,
65,
65,
65,
66,
66,
66,
66,
66,
66,
66,
66,
66,
66,
66,
66,
67,
67,
68,
68,
68,
68,
68,
68,
68,
68,
68,
68,
68,
68,
68,
68,
68,
68,
68,
68,
68,
68,
69,
69,
69,
69,
69,
69,
68,
68,
69,
69,
69,
69,
69,
69,
69,
69,
69,
69,
69,
69,
69,
69,
69,
69,
69,
69,
69,
69,
69,
69,
69,
69,
69,
69,
69,
69,
69,
69,
69,
69,
68,
68,
68,
68,
68,
68,
68,
68,
68,
68,
68,
68,
68,
68,
68,
68,
67,
67,
67,
67,
67,
67,
68,
68,
66,
66,
67,
67,
66,
66,
66,
66,
66,
66,
66,
66,
66,
66,
65,
65,
66,
66,
65,
65,
65,
65,
64,
64,
65,
65,
65,
65,
64,
64,
64,
64,
64,
64,
64,
64,
63,
63,
64,
64,
62,
62,
64,
64,
62,
62,
61,
61,
61,
61,
61,
61,
61,
61,
60,
60,
60,
60,
60,
60,
60,
60,
59,
59,
59,
59,
58,
58,
58,
58,
58,
58,
58,
58,
57,
57,
57,
57,
57,
57,
56,
56,
56,
56,
56,
56,
55,
55,
56,
56,
55,
55,
54,
54,
54,
54,
54,
54,
53,
53,
54,
54,
53,
53,
52,
52,
52,
52,
52,
52,
52,
52,
52,
52,
51,
51,
50,
50,
50,
50,
50,
50,
50,
50,
50,
50,
49,
49,
49,
49,
48,
48,
49,
49,
48,
48,
48,
48,
48,
48,
48,
48,
47,
47,
48,
48,
46,
46,
47,
47,
46,
46,
46,
46,
46,
46,
46,
46,
45,
45,
45,
45,
46,
46,
45,
45,
44,
44,
45,
45,
44,
44,
45,
45,
45,
45,
44,
44,
44,
44,
44,
44,
44,
44,
43,
43,
43,
43,
43,
43,
44,
44,
43,
43,
43,
43,
44,
44,
43,
43,
43,
43,
42,
42,
43,
43,
43,
43,
44,
44,
42,
42,
43,
43,
44,
44,
43,
43,
43,
43,
42,
42,
44,
44,
43,
43,
44,
44,
43,
43,
44,
44,
43,
43,
44,
44,
44,
44,
44,
44,
44,
44,
44,
44,
45,
45,
44,
44,
45,
45,
45,
45,
45,
45,
45,
45,
45,
45,
45,
45,
46,
46,
45,
45,
46,
46,
47,
47,
46,
46,
47,
47,
47,
47,
48,
48,
48,
48,
48,
48,
48,
48,
48,
48,
48,
48,
48,
48,
48,
48,
49,
49,
50,
50,
50,
50,
50,
50,
50,
50,
50,
50,
51,
51,
50,
50,
51,
51,
52,
52,
52,
52,
53,
53,
53,
53,
53,
53,
54,
54,
54,
54,
54,
54,
54,
54,
55,
55,
55,
55,
55,
55,
55,
55,
57,
57,
57,
57,
57,
57,
57,
57,
57,
57,
58,
58,
58,
58,
58,
58,
59,
59,
58,
58,
60,
60,
60,
60,
60,
60,
60,
60,
60,
60,
60,
60,
61,
61,
62,
62,
61,
61,
62,
62,
62,
62,
63,
63,
62,
62,
63,
63,
63,
63,
63,
63,
64,
64,
64,
64,
64,
64,
65,
65,
65,
65,
65,
65,
65,
65,
65,
65,
66,
66,
65,
65,
66,
66,
66,
66,
66,
66,
66,
66,
67,
67,
67,
67,
68,
68,
67,
67,
67,
67,
68,
68,
67,
67,
68,
68,
68,
68,
69,
69,
68,
68,
68,
68,
68,
68,
69,
69,
69,
69,
69,
69,
69,
69,
69,
69,
69,
69,
68,
68,
69,
69,
69,
69,
69,
69,
69,
69,
69,
69,
69,
69,
69,
69,
68,
68,
69,
69,
68,
68,
69,
69,
68,
68,
69,
69,
69,
69,
68,
68,
68,
68,
68,
68,
68,
68,
68,
68,
67,
67,
67,
67,
67,
67,
68,
68,
68,
68,
67,
67,
67,
67,
66,
66,
66,
66,
66,
66,
66,
66,
66,
66,
65,
65,
65,
65,
65,
65,
65,
65,
65,
65,
65,
65,
64,
64,
64,
64,
64,
64,
63,
63,
63,
63,
62,
62,
62,
62,
63,
63,
62,
62,
61,
61,
61,
61,
61,
61,
61,
61,
60,
60,
60,
60,
60,
60,
59,
59,
59,
59,
59,
59,
59,
59,
58,
58,
58,
58,
58,
58,
57,
57,
57,
57,
57,
57,
56,
56,
56,
56,
56,
56,
56,
56,
55,
55,
55,
55,
54,
54,
54,
54,
54,
54,
54,
54,
54,
54,
53,
53,
52,
52,
52,
52,
52,
52,
51,
51,
52,
52,
51,
51,
50,
50,
51,
51,
50,
50,
50,
50,
50,
50,
49,
49,
49,
49,
48,
48,
48,
48,
48,
48,
48,
48,
48,
48,
47,
47,
47,
47,
48,
48,
47,
47,
46,
46,
46,
46,
46,
46,
46,
46,
46,
46,
46,
46,
45,
45,
45,
45,
45,
45,
44,
44,
45,
45,
45,
45,
44,
44,
44,
44,
44,
44,
44,
44,
44,
44,
44,
44,
43,
43,
44,
44,
44,
44,
43,
43,
44,
44,
44,
44,
43,
43,
44,
44,
44,
44,
43,
43,
44,
44,
42,
42,
43,
43,
44,
44,
43,
43,
43,
43,
43,
43,
43,
43,
44,
44,
43,
43,
44,
44,
44,
44,
43,
43,
44,
44,
44,
44,
43,
43,
43,
43,
44,
44,
44,
44,
44,
44,
44,
44,
45,
45,
45,
45,
45,
45,
45,
45,
45,
45,
45,
45,
45,
45,
45,
45,
46,
46,
46,
46,
46,
46,
46,
46,
47,
47,
47,
47,
48,
48,
48,
48,
47,
47,
48,
48,
48,
48,
49,
49,
48,
48,
49,
49,
49,
49,
49,
49,
49,
49,
49,
49,
50,
50,
50,
50,
50,
50,
50,
50,
52,
52,
52,
52,
52,
52,
52,
52,
53,
53,
53,
53,
54,
54,
54,
54,
54,
54,
54,
54,
55,
55,
55,
55,
55,
55,
56,
56,
56,
56,
56,
56,
57,
57,
57,
57,
57,
57,
57,
57,
58,
58,
58,
58,
58,
58,
59,
59,
59,
59,
60,
60,
60,
60,
60,
60,
60,
60,
61,
61,
61,
61,
61,
61,
61,
61,
61,
61,
63,
63,
63,
63,
63,
63,
64,
64,
64,
64,
63,
63,
64,
64,
64,
64,
64,
64,
65,
65,
65,
65,
65,
65,
65,
65,
65,
65,
65,
65,
66,
66,
66,
66,
66,
66,
67,
67,
66,
66,
66,
66,
67,
67,
67,
67,
68,
68,
68,
68,
67,
67,
68,
68,
68,
68,
68,
68,
68,
68,
68,
68,
69,
69,
68,
68,
69,
69,
68,
68,
68,
68,
68,
68,
68,
68,
69,
69,
69,
69,
69,
69,
69,
69,
69,
69,
69,
69,
69,
69,
69,
69,
69,
69,
68,
68,
68,
68,
68,
68,
69,
69,
69,
69,
68,
68,
69,
69,
69,
69,
68,
68,
68,
68,
68,
68,
68,
68,
68,
68,
68,
68,
67,
67,
68,
68,
67,
67,
66,
66,
67,
67,
66,
66,
66,
66,
66,
66,
66,
66,
66,
66,
66,
66,
65,
65,
65,
65,
65,
65,
65,
65,
64,
64,
64,
64,
64,
64,
64,
64,
63,
63,
64,
64,
64,
64,
63,
63,
62,
62,
62,
62,
62,
62,
61,
61,
60,
60,
60,
60,
61,
61,
60,
60,
59,
59,
60,
60,
59,
59,
59,
59,
59,
59,
58,
58,
58,
58,
57,
57,
58,
58,
57,
57,
57,
57,
57,
57,
56,
56,
56,
56,
56,
56,
55,
55,
55,
55,
55,
55,
54,
54,
54,
54,
54,
54,
53,
53,
53,
53,
53,
53,
53,
53,
52,
52,
51,
51,
51,
51,
51,
51,
51,
51,
51,
51,
50,
50,
50,
50,
49,
49,
50,
50,
49,
49,
49,
49,
48,
48,
49,
49,
48,
48,
48,
48,
48,
48,
48,
48,
48,
48,
47,
47,
47,
47,
46,
46,
46,
46,
46,
46,
46,
46,
46,
46,
45,
45,
45,
45,
45,
45,
45,
45,
44,
44,
45,
45,
44,
44,
45,
45,
44,
44,
44,
44,
44,
44,
44,
44,
44,
44,
43,
43,
44,
44,
44,
44,
43,
43,
43,
43,
43,
43,
43,
43,
44,
44,
44,
44,
43,
43,
43,
43,
42,
42,
43,
43,
43,
43,
43,
43,
43,
43,
42,
42,
42,
42,
43,
43,
44,
44,
43,
43,
43,
43,
44,
44,
43,
43,
44,
44,
44,
44,
44,
44,
44,
44,
44,
44,
44,
44,
44,
44,
45,
45,
45,
45,
45,
45,
45,
45,
45,
45,
45,
45,
46,
46,
45,
45,
46,
46,
46,
46,
47,
47,
47,
47,
47,
47,
48,
48,
48,
48,
47,
47,
48,
48,
48,
48,
48,
48,
49,
49,
49,
49,
49,
49,
49,
49,
49,
49,
49,
49,
50,
50,
50,
50,
51,
51,
50,
50,
51,
51,
51,
51,
52,
52,
53,
53,
52,
52,
53,
53,
54,
54,
53,
53,
53,
53,
55,
55,
55,
55,
55,
55,
56,
56,
55,
55,
56,
56,
56,
56,
56,
56,
57,
57,
57,
57,
57,
57,
58,
58,
58,
58,
58,
58,
58,
58,
59,
59,
60,
60,
60,
60,
60,
60,
60,
60,
60,
60,
61,
61,
61,
61,
61,
61,
61,
61,
62,
62,
62,
62,
62,
62,
64,
64,
63,
63,
64,
64,
64,
64,
64,
64,
64,
64,
64,
64,
65,
65,
65,
65,
65,
65,
66,
66,
66,
66,
66,
66,
66,
66,
67,
67,
66,
66,
66,
66,
66,
66,
67,
67,
68,
68,
68,
68,
67,
67,
68,
68,
68,
68,
67,
67,
68,
68,
68,
68,
68,
68,
69,
69,
68,
68,
68,
68,
68,
68,
68,
68,
68,
68,
69,
69,
69,
69,
69,
69,
69,
69,
69,
69,
69,
69,
69,
69,
69,
69,
69,
69,
69,
69,
68,
68,
68,
68,
69,
69,
68,
68,
69,
69,
68,
68,
68,
68,
69,
69,
68,
68,
68,
68,
68,
68,
68,
68,
68,
68,
68,
68,
68,
68,
67,
67,
67,
67,
67,
67,
67,
67,
67,
67,
66,
66,
66,
66,
66,
66,
66,
66,
65,
65,
65,
65,
65,
65,
65,
65,
65,
65,
64,
64,
64,
64,
64,
64,
64,
64,
63,
63,
64,
64,
64,
64,
63,
63,
63,
63,
62,
62,
62,
62,
61,
61,
61,
61,
61,
61,
61,
61,
60,
60,
60,
60,
59,
59,
59,
59,
59,
59,
59,
59,
59,
59,
58,
58,
58,
58,
57,
57,
57,
57,
56,
56,
57,
57,
56,
56,
56,
56,
55,
55,
55,
55,
56,
56,
54,
54,
55,
55,
54,
54,
53,
53,
54,
54,
53,
53,
52,
52,
52,
52,
52,
52,
51,
51,
50,
50,
51,
51,
50,
50,
50,
50,
50,
50,
50,
50,
49,
49,
50,
50,
49,
49,
49,
49,
48,
48,
48,
48,
48,
48,
48,
48,
47,
47,
47,
47,
48,
48,
47,
47,
46,
46,
46,
46,
46,
46,
46,
46,
46,
46,
46,
46,
46,
46,
45,
45,
45,
45,
45,
45,
45,
45,
44,
44,
45,
45,
44,
44,
44,
44,
44,
44,
44,
44,
44,
44,
44,
44,
44,
44,
44,
44,
43,
43,
43,
43,
43,
43,
43,
43,
43,
43,
44,
44,
43,
43,
42,
42,
44,
44,
43,
43,
43,
43,
43,
43,
44,
44,
44,
44,
43,
43,
44,
44,
44,
44,
43,
43,
44,
44,
44,
44,
43,
43,
44,
44,
44,
44,
44,
44,
44,
44,
44,
44,
45,
45,
45,
45,
44,
44,
44,
44,
45,
45,
45,
45,
45,
45,
45,
45,
45,
45,
46,
46,
46,
46,
45,
45,
46,
46,
47,
47,
47,
47,
46,
46,
47,
47,
48,
48,
47,
47,
48,
48,
48,
48,
49,
49,
49,
49,
49,
49,
49,
49,
49,
49,
49,
49,
50,
50,
50,
50,
50,
50,
51,
51,
51,
51,
51,
51,
51,
51,
52,
52,
52,
52,
53,
53,
53,
53,
53,
53,
53,
53,
54,
54,
55,
55,
55,
55,
54,
54,
55,
55,
55,
55,
56,
56,
56,
56,
56,
56,
57,
57,
58,
58,
57,
57,
58,
58,
58,
58,
59,
59,
58,
58,
59,
59,
59,
59,
59,
59,
60,
60,
60,
60,
60,
60,
61,
61,
61,
61,
61,
61,
61,
61,
62,
62,
63,
63,
63,
63,
63,
63,
63,
63,
64,
64,
64,
64,
64,
64,
64,
64,
64,
64,
65,
65,
65,
65,
65,
65,
66,
66,
66,
66,
65,
65,
66,
66,
66,
66,
66,
66,
66,
66,
66,
66,
67,
67,
66,
66,
67,
67,
68,
68,
68,
68,
68,
68,
68,
68,
68,
68,
68,
68,
68,
68,
68,
68,
69,
69,
68,
68,
69,
69,
68,
68,
69,
69,
69,
69,
69,
69,
69,
69,
69,
69,
69,
69,
69,
69,
69,
69,
69,
69,
69,
69,
68,
68,
68,
68,
69,
69,
69,
69,
69,
69,
69,
69,
68,
68,
69,
69,
68,
68,
68,
68,
68,
68,
68,
68,
67,
67,
68,
68,
67,
67,
67,
67,
68,
68,
67,
67,
66,
66,
67,
67,
66,
66,
66,
66,
66,
66,
66,
66,
66,
66,
65,
65,
66,
66,
64,
64,
65,
65,
64,
64,
66,
66,
64,
64,
64,
64,
64,
64,
63,
63,
63,
63,
64,
64,
64,
64,
62,
62,
62,
62,
61,
61,
61,
61,
61,
61,
61,
61,
60,
60,
60,
60,
60,
60,
60,
60,
59,
59,
60,
60,
59,
59,
58,
58,
58,
58,
58,
58,
57,
57,
57,
57,
57,
57,
57,
57,
57,
57,
56,
56,
55,
55,
55,
55,
55,
55,
55,
55,
55,
55,
54,
54,
54,
54,
53,
53,
53,
53,
52,
52,
52,
52,
52,
52,
51,
51,
51,
51,
51,
51,
50,
50,
51,
51,
50,
50,
50,
50,
49,
49,
50,
50,
49,
49,
50,
50,
49,
49,
48,
48,
48,
48,
48,
48,
48,
48,
48,
48,
47,
47,
48,
48,
47,
47,
47,
47,
46,
46,
45,
45,
46,
46,
46,
46,
45,
45,
46,
46,
45,
45,
45,
45,
44,
44,
44,
44,
45,
45,
45,
45,
44,
44,
44,
44,
44,
44,
44,
44,
43,
43,
43,
43,
43,
43,
44,
44,
43,
43,
44,
44,
44,
44,
43,
43,
44,
44,
44,
44,
43,
43,
42,
42,
43,
43,
43,
43,
43,
43,
43,
43,
43,
43,
43,
43,
43,
43,
43,
43,
44,
44,
44,
44,
43,
43,
44,
44,
44,
44,
43,
43,
44,
44,
44,
44,
44,
44,
44,
44,
44,
44,
45,
45,
45,
45,
44,
44,
44,
44,
45,
45,
45,
45,
45,
45,
45,
45,
46,
46,
46,
46,
46,
46,
46,
46,
46,
46,
47,
47,
47,
47,
47,
47,
47,
47,
48,
48,
48,
48,
48,
48,
49,
49,
49,
49,
50,
50,
49,
49,
50,
50,
50,
50,
50,
50,
51,
51,
50,
50,
51,
51,
51,
51,
51,
51,
52,
52,
52,
52,
52,
52,
52,
52,
53,
53,
53,
53,
54,
54,
54,
54,
55,
55,
55,
55,
55,
55,
56,
56,
56,
56,
57,
57,
57,
57,
57,
57,
57,
57,
58,
58,
58,
58,
58,
58,
58,
58,
59,
59,
59,
59,
59,
59,
59,
59,
60,
60,
60,
60,
60,
60,
60,
60,
61,
61,
62,
62,
61,
61,
62,
62,
63,
63,
64,
64,
63,
63,
63,
63,
64,
64,
64,
64,
64,
64,
64,
64,
64,
64,
65,
65,
64,
64,
65,
65,
65,
65,
65,
65,
66,
66,
66,
66,
66,
66,
66,
66,
66,
66,
66,
66,
67,
67,
66,
66,
68,
68,
68,
68,
67,
67,
68,
68,
67,
67,
68,
68,
68,
68,
68,
68,
68,
68,
68,
68,
68,
68,
69,
69,
68,
68,
69,
69,
69,
69,
68,
68,
69,
69,
70,
70,
69,
69,
69,
69,
69,
69,
69,
69,
69,
69,
69,
69,
69,
69,
68,
68,
69,
69,
69,
69,
68,
68,
69,
69,
68,
68,
69,
69,
68,
68,
68,
68,
67,
67,
68,
68,
67,
67,
67,
67,
67,
67,
67,
67,
68,
68,
67,
67,
66,
66,
66,
66,
66,
66,
66,
66,
65,
65,
65,
65,
65,
65,
66,
66,
65,
65,
65,
65,
65,
65,
65,
65,
64,
64,
64,
64,
64,
64,
63,
63,
63,
63,
63,
63,
63,
63,
64,
64,
62,
62,
62,
62,
61,
61,
61,
61,
61,
61,
61,
61,
60,
60,
60,
60,
59,
59,
59,
59,
59,
59,
58,
58,
58,
58,
58,
58,
58,
58,
57,
57,
57,
57,
56,
56,
57,
57,
56,
56,
56,
56,
56,
56,
56,
56,
55,
55,
55,
55,
55,
55,
54,
54,
54,
54,
54,
54,
53,
53,
53,
53,
52,
52,
52,
52,
52,
52,
51,
51,
51,
51,
50,
50,
51,
51,
50,
50,
50,
50,
49,
49,
49,
49,
49,
49,
48,
48,
49,
49,
48,
48,
48,
48,
48,
48,
47,
47,
47,
47,
47,
47,
47,
47,
47,
47,
47,
47,
46,
46,
46,
46,
46,
46,
45,
45,
46,
46,
45,
45,
44,
44,
45,
45,
45,
45,
44,
44,
44,
44,
44,
44,
44,
44,
44,
44,
43,
43,
44,
44,
44,
44,
44,
44,
44,
44,
44,
44,
43,
43,
44,
44,
43,
43,
44,
44,
44,
44,
44,
44,
43,
43,
44,
44,
43,
43,
43,
43,
44,
44,
44,
44,
43,
43,
44,
44,
44,
44,
43,
43,
43,
43,
44,
44,
44,
44,
43,
43,
43,
43,
43,
43,
44,
44,
44,
44,
44,
44,
44,
44,
44,
44,
45,
45,
45,
45,
45,
45,
44,
44,
45,
45,
46,
46,
45,
45,
45,
45,
46,
46,
46,
46,
46,
46,
47,
47,
47,
47,
47,
47,
47,
47,
48,
48,
47,
47,
47,
47,
47,
47,
48,
48,
48,
48,
49,
49,
49,
49,
49,
49,
50,
50,
50,
50,
51,
51,
50,
50,
51,
51,
51,
51,
51,
51,
52,
52,
52,
52,
52,
52,
52,
52,
53,
53,
53,
53,
54,
54,
54,
54,
54,
54,
55,
55,
55,
55,
55,
55,
56,
56,
56,
56,
57,
57,
57,
57,
57,
57,
57,
57,
58,
58,
58,
58,
58,
58,
58,
58,
59,
59,
59,
59,
59,
59,
59,
59,
60,
60,
61,
61,
61,
61,
61,
61,
61,
61,
61,
61,
62,
62,
62,
62,
63,
63,
63,
63,
63,
63,
62,
62,
64,
64,
64,
64,
64,
64,
65,
65,
65,
65,
65,
65,
65,
65,
65,
65,
65,
65,
65,
65,
66,
66,
66,
66,
66,
66,
67,
67,
66,
66,
66,
66,
67,
67,
66,
66,
67,
67,
68,
68,
68,
68,
68,
68,
68,
68,
68,
68,
69,
69,
68,
68,
68,
68,
69,
69,
68,
68,
68,
68,
69,
69,
69,
69,
68,
68,
69,
69,
69,
69,
69,
69,
69,
69,
69,
69,
69,
69,
69,
69,
69,
69,
68,
68,
68,
68,
69,
69,
69,
69,
69,
69,
68,
68,
69,
69,
69,
69,
69,
69,
68,
68,
68,
68,
68,
68,
68,
68,
68,
68,
67,
67,
68,
68,
68,
68,
68,
68,
67,
67,
68,
68,
66,
66,
66,
66,
66,
66,
66,
66,
65,
65,
65,
65,
65,
65,
65,
65,
65,
65,
64,
64,
64,
64,
64,
64,
64,
64,
64,
64,
63,
63,
64,
64,
63,
63,
63,
63,
62,
62,
62,
62,
61,
61,
62,
62,
61,
61,
61,
61,
60,
60,
60,
60,
60,
60,
60,
60,
60,
60,
60,
60,
59,
59,
58,
58,
58,
58,
58,
58,
58,
58,
57,
57,
57,
57,
57,
57,
57,
57,
56,
56,
55,
55,
55,
55,
55,
55,
55,
55,
55,
55,
54,
54,
54,
54,
53,
53,
53,
53,
52,
52,
52,
52,
52,
52,
51,
51,
51,
51,
51,
51,
51,
51,
50,
50,
50,
50,
50,
50,
49,
49,
50,
50,
49,
49,
49,
49,
48,
48,
49,
49,
48,
48,
48,
48,
48,
48,
48,
48,
47,
47,
47,
47,
47,
47,
47,
47,
46,
46,
46,
46,
46,
46,
45,
45,
46,
46,
46,
46,
45,
45,
45,
45,
45,
45,
45,
45,
44,
44,
45,
45,
44,
44,
44,
44,
44,
44,
44,
44,
44,
44,
43,
43,
44,
44,
44,
44,
43,
43,
44,
44,
43,
43,
44,
44,
43,
43,
43,
43,
42,
42,
43,
43,
42,
42,
44,
44,
44,
44,
44,
44,
44,
44,
43,
43,
43,
43,
44,
44,
43,
43,
44,
44,
43,
43,
43,
43,
43,
43,
44,
44,
45,
45,
44,
44,
44,
44,
45,
45,
44,
44,
45,
45,
45,
45,
45,
45,
45,
45,
45,
45,
46,
46,
45,
45,
46,
46,
46,
46,
46,
46,
46,
46,
46,
46,
47,
47,
46,
46,
47,
47,
47,
47,
48,
48,
48,
48,
48,
48,
48,
48,
49,
49,
49,
49,
50,
50,
50,
50,
50,
50,
50,
50,
50,
50,
51,
51,
51,
51,
51,
51,
51,
51,
51,
51,
52,
52,
52,
52,
52,
52,
53,
53,
54,
54,
53,
53,
55,
55,
55,
55,
54,
54,
55,
55,
56,
56,
56,
56,
57,
57,
56,
56,
56,
56,
57,
57,
57,
57,
57,
57,
58,
58,
58,
58,
58,
58,
59,
59,
60,
60,
60,
60,
59,
59,
60,
60,
60,
60,
61,
61,
60,
60,
61,
61,
61,
61,
62,
62,
62,
62,
62,
62,
63,
63,
63,
63,
63,
63,
64,
64,
64,
64,
64,
64,
64,
64,
64,
64,
65,
65,
65,
65,
65,
65,
65,
65,
65,
65,
66,
66,
66,
66,
66,
66,
66,
66,
66,
66,
66,
66,
66,
66,
68,
68,
68,
68,
67,
67,
67,
67,
68,
68,
67,
67,
68,
68,
68,
68,
68,
68,
68,
68,
68,
68,
68,
68,
68,
68,
68,
68,
69,
69,
69,
69,
69,
69,
69,
69,
69,
69,
69,
69,
68,
68,
69,
69,
69,
69,
68,
68,
69,
69,
69,
69,
68,
68,
68,
68,
69,
69,
69,
69,
68,
68,
69,
69,
68,
68,
68,
68,
68,
68,
68,
68,
68,
68,
68,
68,
67,
67,
68,
68,
68,
68,
68,
68,
67,
67,
67,
67,
66,
66,
66,
66,
66,
66,
66,
66,
66,
66,
66,
66,
66,
66,
65,
65,
65,
65,
64,
64,
65,
65,
64,
64,
64,
64,
64,
64,
64,
64,
63,
63,
63,
63,
64,
64,
63,
63,
62,
62,
62,
62,
61,
61,
61,
61,
61,
61,
61,
61,
60,
60,
60,
60,
59,
59,
60,
60,
59,
59,
59,
59,
58,
58,
58,
58,
58,
58,
57,
57,
57,
57,
57,
57,
57,
57,
56,
56,
56,
56,
55,
55,
56,
56,
55,
55,
55,
55,
54,
54,
55,
55,
53,
53,
54,
54,
53,
53,
52,
52,
53,
53,
51,
51,
53,
53,
52,
52,
51,
51,
50,
50,
50,
50,
50,
50,
50,
50,
50,
50,
50,
50,
49,
49,
49,
49,
49,
49,
48,
48,
48,
48,
48,
48,
47,
47,
47,
47,
48,
48,
47,
47,
47,
47,
47,
47,
46,
46,
46,
46,
46,
46,
45,
45,
46,
46,
45,
45,
45,
45,
45,
45,
45,
45,
44,
44,
45,
45,
44,
44,
44,
44,
44,
44,
44,
44,
44,
44,
44,
44,
43,
43,
44,
44,
44,
44,
44,
44,
43,
43,
44,
44,
44,
44,
43,
43,
43,
43,
43,
43,
43,
43,
43,
43,
43,
43,
44,
44,
43,
43,
43,
43,
44,
44,
43,
43,
43,
43,
44,
44,
44,
44,
43,
43,
44,
44,
44,
44,
44,
44,
44,
44,
44,
44,
44,
44,
44,
44,
44,
44,
44,
44,
45,
45,
45,
45,
45,
45,
46,
46,
46,
46,
46,
46,
46,
46,
46,
46,
45,
45,
46,
46,
47,
47,
47,
47,
47,
47,
47,
47,
48,
48,
48,
48,
48,
48,
48,
48,
48,
48,
48,
48,
49,
49,
49,
49,
50,
50,
50,
50,
49,
49,
50,
50,
50,
50,
51,
51,
51,
51,
52,
52,
52,
52,
52,
52,
52,
52,
53,
53,
53,
53,
53,
53,
54,
54,
53,
53,
54,
54,
55,
55,
56,
56,
55,
55,
56,
56,
57,
57,
56,
56,
56,
56,
57,
57,
57,
57,
57,
57,
58,
58,
59,
59,
58,
58,
59,
59,
60,
60,
60,
60,
60,
60,
60,
60,
60,
60,
61,
61,
61,
61,
61,
61,
61,
61,
62,
62,
63,
63,
62,
62,
63,
