5-grundlagen-opAmps/data/ALL0043/A0043CH1.CSV

Memory Length,4000,
Trigger Level,0.00000e+00,
Source,CH1,
Probe,1.0X,
Vertical Units,V,
Vertical Scale,5.00000e-02,
Vertical Position,0.00000e+00,
Horizontal Units,S,
Horizontal Scale,2.50000e-05,
Horizontal Position,2.5000000e-05,
Horizontal Mode,Main,
Sampling Period,1.00000e-07,
Firmware,V1.14,
Time, ,
Mode,Fast,
Waveform Data,
-4,
-4,
-17,
-13,
-13,
-10,
-10,
-11,
-11,
-15,
-15,
-17,
-17,
-18,
-6,
-12,
-12,
-10,
-22,
-20,
-20,
-12,
-24,
-17,
-17,
-21,
-21,
-20,
-20,
-13,
-13,
-14,
-25,
-20,
-20,
-20,
-20,
-16,
-16,
-26,
-14,
-23,
-23,
-22,
-22,
-17,
-17,
-19,
-30,
-23,
-23,
-21,
-21,
-21,
-21,
-24,
-24,
-26,
-26,
-24,
-24,
-27,
-27,
-25,
-25,
-28,
-28,
-23,
-23,
-26,
-26,
-29,
-29,
-25,
-25,
-27,
-27,
-25,
-36,
-29,
-29,
-25,
-36,
-32,
-32,
-31,
-31,
-28,
-28,
-25,
-25,
-29,
-29,
-32,
-21,
-28,
-28,
-24,
-35,
-30,
-30,
-32,
-32,
-34,
-22,
-27,
-27,
-24,
-37,
-32,
-32,
-30,
-30,
-34,
-34,
-29,
-29,
-28,
-28,
-25,
-25,
-28,
-28,
-34,
-34,
-25,
-36,
-27,
-27,
-33,
-33,
-25,
-25,
-34,
-22,
-24,
-36,
-25,
-25,
-28,
-28,
-33,
-20,
-29,
-29,
-22,
-33,
-32,
-18,
-27,
-27,
-24,
-24,
-27,
-27,
-20,
-20,
-25,
-25,
-28,
-28,
-21,
-32,
-25,
-25,
-22,
-22,
-23,
-23,
-24,
-24,
-26,
-26,
-19,
-19,
-17,
-17,
-24,
-24,
-20,
-20,
-20,
-20,
-22,
-22,
-16,
-16,
-18,
-18,
-19,
-19,
-19,
-19,
-17,
-17,
-16,
-16,
-14,
-14,
-20,
-9,
-15,
-15,
-15,
-15,
-13,
-13,
-17,
-6,
-10,
-10,
-12,
-12,
-14,
-14,
-6,
-18,
-2,
-16,
-10,
-10,
-10,
-10,
-6,
-6,
-2,
-15,
-6,
-6,
-11,
1,
-7,
-7,
-9,
3,
-3,
-3,
-9,
4,
-4,
-4,
-4,
-4,
-4,
-4,
3,
3,
5,
5,
0,
0,
4,
4,
4,
4,
8,
-4,
0,
0,
5,
5,
-2,
11,
6,
6,
10,
-3,
2,
2,
2,
14,
-1,
12,
7,
7,
9,
9,
8,
8,
15,
3,
14,
14,
11,
11,
11,
11,
5,
19,
14,
14,
9,
20,
17,
17,
13,
13,
13,
13,
13,
13,
9,
20,
10,
21,
14,
14,
16,
16,
19,
19,
18,
18,
13,
24,
16,
16,
18,
18,
17,
17,
18,
18,
21,
21,
18,
18,
19,
19,
19,
19,
18,
18,
13,
26,
20,
20,
22,
22,
17,
17,
26,
13,
20,
20,
21,
21,
21,
21,
23,
23,
17,
17,
26,
15,
26,
13,
17,
17,
13,
26,
19,
19,
24,
11,
20,
20,
18,
18,
20,
20,
24,
24,
28,
15,
16,
16,
14,
28,
24,
13,
17,
17,
22,
22,
23,
23,
23,
11,
11,
26,
16,
27,
25,
13,
15,
15,
12,
23,
23,
9,
15,
15,
21,
8,
10,
10,
12,
23,
18,
18,
17,
17,
13,
13,
13,
13,
20,
5,
12,
12,
15,
15,
16,
16,
12,
12,
7,
18,
14,
14,
9,
9,
9,
9,
9,
9,
7,
7,
10,
10,
9,
9,
6,
6,
4,
4,
7,
7,
5,
5,
7,
7,
8,
8,
4,
4,
-2,
-2,
2,
2,
1,
1,
3,
3,
-1,
-1,
-1,
-1,
1,
1,
4,
-10,
1,
1,
-4,
7,
-2,
-2,
-1,
-1,
-2,
-2,
-4,
-4,
-8,
-8,
-7,
-7,
-7,
-7,
-13,
0,
-8,
-8,
-9,
-9,
-5,
-17,
-13,
-13,
-2,
-17,
-11,
-11,
-17,
-2,
-12,
-12,
-5,
-18,
-8,
-21,
-16,
-16,
-12,
-12,
-8,
-20,
-18,
-18,
-22,
-7,
-19,
-19,
-13,
-24,
-10,
-23,
-23,
-12,
-16,
-16,
-24,
-24,
-22,
-22,
-23,
-12,
-14,
-26,
-17,
-28,
-26,
-26,
-18,
-30,
-15,
-27,
-26,
-26,
-21,
-21,
-25,
-25,
-19,
-31,
-23,
-23,
-25,
-25,
-29,
-29,
-24,
-24,
-21,
-33,
-28,
-28,
-27,
-27,
-33,
-20,
-27,
-27,
-28,
-28,
-28,
-28,
-25,
-39,
-22,
-22,
-28,
-28,
-26,
-26,
-31,
-20,
-29,
-29,
-33,
-21,
-26,
-26,
-26,
-26,
-26,
-26,
-30,
-30,
-34,
-23,
-31,
-31,
-30,
-30,
-29,
-29,
-28,
-28,
-25,
-36,
-31,
-31,
-28,
-28,
-29,
-29,
-29,
-29,
-30,
-30,
-28,
-28,
-25,
-36,
-28,
-28,
-32,
-20,
-28,
-28,
-29,
-29,
-25,
-25,
-26,
-26,
-28,
-28,
-24,
-35,
-27,
-27,
-28,
-28,
-26,
-26,
-22,
-22,
-29,
-29,
-22,
-22,
-22,
-33,
-27,
-27,
-30,
-17,
-21,
-21,
-19,
-30,
-21,
-21,
-26,
-26,
-21,
-21,
-22,
-22,
-16,
-29,
-28,
-16,
-26,
-15,
-16,
-16,
-20,
-20,
-17,
-17,
-21,
-9,
-15,
-15,
-21,
-21,
-19,
-19,
-10,
-23,
-21,
-9,
-21,
-9,
-14,
-14,
-19,
-19,
-11,
-11,
-19,
-8,
-16,
-16,
-13,
-13,
-7,
-19,
-12,
-12,
-18,
-3,
-5,
-16,
-4,
-4,
-8,
-8,
-6,
-6,
-12,
1,
-7,
-7,
-6,
-6,
-10,
-10,
-7,
4,
-3,
-3,
-2,
-2,
-8,
4,
1,
1,
-7,
5,
-6,
-6,
1,
1,
5,
5,
2,
2,
-3,
-3,
2,
2,
5,
5,
-2,
10,
6,
6,
1,
1,
9,
-2,
8,
8,
5,
5,
6,
6,
7,
7,
11,
11,
6,
6,
10,
10,
9,
9,
8,
8,
10,
10,
11,
11,
10,
10,
13,
13,
10,
10,
12,
12,
15,
15,
14,
14,
15,
15,
15,
15,
15,
15,
14,
14,
18,
18,
17,
17,
14,
14,
19,
6,
19,
19,
15,
15,
14,
14,
13,
25,
16,
16,
26,
11,
14,
14,
19,
19,
15,
15,
19,
19,
19,
19,
23,
23,
24,
12,
15,
15,
26,
11,
26,
15,
15,
26,
19,
19,
16,
28,
23,
23,
23,
23,
17,
17,
13,
27,
17,
17,
24,
12,
15,
26,
19,
19,
21,
21,
19,
19,
24,
13,
21,
21,
17,
17,
23,
11,
24,
12,
21,
21,
13,
25,
17,
17,
11,
27,
20,
20,
23,
11,
17,
17,
12,
23,
10,
23,
18,
18,
14,
25,
13,
13,
19,
19,
19,
19,
20,
20,
17,
17,
9,
9,
12,
12,
11,
11,
15,
15,
13,
13,
12,
12,
10,
10,
7,
18,
10,
10,
10,
10,
10,
10,
14,
3,
10,
10,
11,
11,
10,
10,
5,
5,
7,
7,
7,
7,
7,
7,
4,
4,
2,
2,
1,
1,
3,
3,
2,
2,
1,
1,
1,
1,
3,
3,
2,
2,
2,
2,
-4,
-4,
-3,
-3,
5,
-10,
0,
0,
2,
-12,
-6,
-6,
-3,
-3,
-8,
-8,
-9,
-9,
-2,
-14,
-14,
-1,
-13,
-13,
-4,
-17,
-11,
-11,
-10,
-10,
-18,
-4,
-13,
-13,
-7,
-19,
-8,
-19,
-10,
-10,
-21,
-8,
-9,
-20,
-10,
-10,
-12,
-12,
-17,
-17,
-22,
-8,
-18,
-18,
-18,
-18,
-22,
-11,
-23,
-12,
-22,
-22,
-14,
-25,
-22,
-22,
-16,
-16,
-22,
-22,
-26,
-26,
-18,
-18,
-18,
-30,
-18,
-18,
-25,
-13,
-25,
-25,
-24,
-24,
-32,
-17,
-26,
-26,
-30,
-30,
-23,
-23,
-21,
-21,
-27,
-27,
-29,
-29,
-28,
-28,
-24,
-24,
-28,
-28,
-30,
-18,
-26,
-26,
-24,
-35,
-28,
-28,
-30,
-30,
-32,
-21,
-30,
-30,
-28,
-28,
-30,
-30,
-28,
-28,
-30,
-30,
-28,
-28,
-34,
-22,
-28,
-28,
-29,
-29,
-29,
-29,
-27,
-27,
-27,
-27,
-27,
-27,
-30,
-30,
-31,
-31,
-34,
-22,
-33,
-33,
-29,
-29,
-27,
-27,
-34,
-19,
-27,
-27,
-37,
-20,
-29,
-29,
-28,
-28,
-24,
-24,
-23,
-34,
-31,
-20,
-20,
-32,
-24,
-24,
-29,
-29,
-28,
-28,
-31,
-19,
-21,
-32,
-23,
-23,
-30,
-18,
-26,
-14,
-27,
-27,
-24,
-24,
-30,
-17,
-18,
-29,
-21,
-21,
-28,
-15,
-17,
-17,
-16,
-16,
-23,
-23,
-19,
-19,
-21,
-10,
-14,
-14,
-17,
-17,
-19,
-19,
-20,
-20,
-13,
-13,
-14,
-14,
-21,
-9,
-14,
-14,
-20,
-20,
-17,
-17,
-15,
-15,
-10,
-21,
-12,
-12,
-10,
-10,
-10,
-10,
-8,
-8,
-9,
-9,
-10,
-10,
-9,
-9,
-4,
-4,
-7,
-7,
-8,
-8,
-4,
-4,
-8,
-8,
-9,
3,
-4,
-4,
2,
-10,
-3,
-3,
-2,
-2,
-2,
-2,
1,
1,
4,
-9,
-4,
-4,
-2,
9,
-1,
-1,
5,
-6,
1,
1,
1,
1,
4,
4,
1,
1,
9,
9,
8,
8,
3,
3,
10,
10,
7,
7,
12,
1,
8,
8,
11,
11,
2,
16,
7,
7,
17,
4,
9,
9,
4,
16,
10,
10,
15,
15,
18,
6,
11,
11,
16,
5,
19,
6,
19,
8,
13,
13,
9,
21,
19,
8,
10,
21,
18,
18,
21,
21,
15,
15,
12,
12,
13,
25,
18,
18,
18,
18,
15,
15,
24,
13,
18,
18,
20,
20,
17,
17,
14,
26,
18,
18,
19,
19,
23,
23,
18,
18,
19,
19,
21,
21,
18,
18,
17,
17,
21,
21,
23,
23,
22,
22,
21,
21,
22,
22,
22,
22,
19,
19,
18,
18,
20,
20,
23,
11,
20,
20,
16,
29,
19,
19,
16,
16,
17,
17,
18,
18,
21,
21,
19,
19,
23,
12,
25,
11,
19,
19,
14,
14,
22,
10,
16,
16,
23,
9,
19,
19,
16,
16,
9,
22,
9,
23,
20,
7,
9,
21,
12,
12,
21,
5,
16,
16,
18,
6,
8,
8,
7,
18,
17,
6,
15,
3,
13,
13,
8,
8,
16,
3,
7,
7,
7,
7,
11,
0,
3,
3,
3,
3,
11,
0,
4,
4,
4,
4,
1,
1,
5,
5,
7,
-4,
7,
-5,
0,
0,
0,
0,
7,
-7,
1,
1,
4,
4,
0,
0,
-2,
-2,
-6,
5,
-5,
-5,
-2,
-2,
-8,
-8,
-7,
-7,
-4,
-4,
-1,
-14,
-6,
-6,
-5,
-5,
-8,
-8,
-7,
-7,
-10,
-10,
-6,
-6,
-6,
-6,
-12,
-12,
-17,
-6,
-15,
-15,
-14,
-14,
-15,
-15,
-20,
-6,
-12,
-12,
-15,
-15,
-12,
-12,
-16,
-16,
-19,
-19,
-14,
-14,
-14,
-14,
-14,
-25,
-18,
-18,
-21,
-21,
-19,
-19,
-25,
-14,
-29,
-14,
-25,
-13,
-22,
-22,
-16,
-30,
-29,
-17,
-20,
-20,
-30,
-16,
-25,
-25,
-25,
-25,
-21,
-21,
-19,
-32,
-26,
-26,
-21,
-33,
-19,
-33,
-33,
-20,
-29,
-29,
-29,
-29,
-22,
-33,
-24,
-24,
-32,
-32,
-32,
-32,
-34,
-23,
-24,
-36,
-34,
-22,
-29,
-29,
-27,
-27,
-27,
-27,
-23,
-34,
-28,
-28,
-29,
-29,
-28,
-28,
-26,
-26,
-26,
-26,
-33,
-33,
-31,
-31,
-35,
-23,
-31,
-31,
-27,
-27,
-30,
-30,
-30,
-30,
-36,
-22,
-31,
-31,
-29,
-29,
-29,
-29,
-25,
-25,
-27,
-27,
-28,
-28,
-25,
-25,
-32,
-32,
-29,
-29,
-28,
-28,
-26,
-26,
-26,
-26,
-28,
-28,
-25,
-25,
-31,
-19,
-30,
-19,
-24,
-24,
-21,
-32,
-20,
-20,
-19,
-32,
-26,
-26,
-18,
-31,
-23,
-23,
-22,
-22,
-23,
-23,
-18,
-18,
-19,
-19,
-24,
-13,
-21,
-21,
-23,
-23,
-23,
-23,
-16,
-16,
-15,
-26,
-15,
-15,
-11,
-26,
-12,
-26,
-16,
-16,
-16,
-16,
-9,
-20,
-15,
-15,
-6,
-21,
-10,
-21,
-13,
-13,
-17,
-17,
-14,
-14,
-7,
-7,
-14,
-14,
-13,
-13,
-5,
-17,
-6,
-6,
-5,
-5,
-15,
-1,
-9,
-9,
1,
-11,
-3,
-3,
1,
-11,
-6,
-6,
2,
-9,
-5,
-5,
-2,
-2,
3,
-8,
-5,
7,
-3,
-3,
2,
2,
-4,
7,
2,
2,
-6,
7,
3,
3,
4,
4,
8,
8,
2,
2,
0,
13,
11,
-1,
8,
8,
11,
11,
9,
9,
5,
5,
6,
6,
5,
5,
5,
5,
7,
18,
9,
9,
11,
11,
9,
9,
10,
10,
9,
9,
10,
23,
15,
15,
12,
12,
16,
16,
19,
19,
13,
13,
10,
21,
13,
13,
16,
16,
17,
17,
17,
17,
13,
13,
18,
18,
18,
18,
17,
17,
17,
17,
18,
18,
19,
19,
18,
18,
22,
22,
17,
17,
15,
15,
20,
20,
16,
27,
20,
20,
18,
18,
21,
21,
18,
18,
29,
13,
18,
18,
15,
27,
21,
21,
25,
13,
23,
23,
18,
18,
20,
20,
23,
23,
20,
20,
15,
28,
15,
26,
21,
21,
27,
15,
17,
17,
26,
11,
15,
15,
13,
27,
15,
26,
26,
11,
26,
10,
14,
14,
21,
10,
25,
13,
13,
27,
15,
15,
13,
13,
18,
18,
21,
10,
15,
15,
15,
15,
14,
14,
14,
14,
12,
12,
16,
16,
14,
14,
11,
11,
11,
11,
14,
14,
9,
9,
11,
11,
8,
8,
9,
9,
10,
10,
9,
9,
6,
6,
10,
10,
7,
7,
8,
8,
9,
-2,
4,
4,
2,
2,
4,
4,
6,
6,
1,
12,
0,
0,
-2,
10,
4,
4,
4,
4,
-5,
-5,
-3,
-3,
-4,
-4,
0,
0,
-2,
-2,
-2,
-2,
-2,
-2,
-9,
-9,
0,
-14,
-2,
-2,
-11,
2,
-2,
-2,
-8,
-8,
-1,
-14,
-8,
-8,
-12,
-12,
-17,
-3,
-9,
-9,
-1,
-18,
-15,
-15,
-18,
-7,
-15,
-15,
-10,
-10,
-10,
-10,
-15,
-15,
-13,
-13,
-10,
-22,
-10,
-22,
-16,
-16,
-23,
-12,
-13,
-28,
-21,
-21,
-16,
-16,
-14,
-26,
-19,
-19,
-26,
-14,
-24,
-13,
-17,
-17,
-20,
-20,
-27,
-27,
-16,
-30,
-25,
-25,
-19,
-31,
-28,
-15,
-29,
-17,
-22,
-22,
-22,
-22,
-26,
-26,
-29,
-29,
-23,
-34,
-27,
-27,
-25,
-25,
-26,
-26,
-26,
-26,
-28,
-28,
-23,
-38,
-30,
-30,
-28,
-28,
-30,
-30,
-31,
-31,
-27,
-27,
-28,
-28,
-27,
-27,
-34,
-22,
-31,
-31,
-28,
-28,
-28,
-28,
-29,
-29,
-31,
-31,
-31,
-31,
-31,
-20,
-31,
-31,
-25,
-37,
-32,
-32,
-32,
-32,
-28,
-28,
-27,
-27,
-26,
-26,
-32,
-32,
-28,
-28,
-29,
-29,
-32,
-32,
-25,
-37,
-37,
-20,
-31,
-31,
-27,
-27,
-30,
-30,
-26,
-26,
-29,
-29,
-27,
-27,
-27,
-27,
-20,
-33,
-25,
-25,
-31,
-19,
-20,
-32,
-22,
-22,
-24,
-24,
-22,
-22,
-27,
-27,
-21,
-21,
-23,
-23,
-27,
-16,
-23,
-23,
-21,
-21,
-15,
-27,
-24,
-24,
-14,
-27,
-25,
-12,
-22,
-22,
-16,
-16,
-14,
-14,
-12,
-23,
-18,
-18,
-14,
-14,
-14,
-14,
-20,
-8,
-15,
-15,
-19,
-19,
-11,
-11,
-8,
-8,
-11,
-11,
-14,
-14,
-15,
-3,
-9,
-9,
-10,
-10,
-10,
-10,
-7,
-7,
-8,
-8,
-4,
-4,
-9,
-9,
-9,
-9,
-4,
-4,
-8,
-8,
-6,
-6,
-4,
-4,
-1,
-1,
-5,
-5,
-3,
-3,
1,
1,
-1,
-1,
2,
2,
0,
0,
-1,
-1,
5,
5,
2,
2,
1,
1,
1,
1,
0,
12,
4,
4,
8,
8,
0,
13,
5,
5,
5,
5,
8,
8,
5,
17,
12,
12,
10,
10,
3,
15,
14,
2,
16,
5,
7,
18,
11,
11,
10,
10,
18,
7,
14,
14,
7,
21,
10,
10,
14,
14,
17,
17,
8,
22,
15,
15,
15,
15,
13,
13,
21,
10,
23,
11,
16,
16,
22,
11,
24,
12,
24,
11,
16,
16,
17,
17,
14,
27,
23,
11,
25,
13,
14,
25,
14,
27,
13,
27,
22,
22,
18,
18,
21,
21,
25,
25,
25,
13,
27,
13,
22,
22,
14,
26,
25,
25,
19,
19,
24,
24,
22,
22,
23,
23,
17,
17,
14,
26,
21,
21,
19,
19,
20,
20,
28,
12,
22,
22,
20,
20,
16,
16,
17,
17,
21,
21,
20,
20,
19,
19,
15,
15,
21,
21,
18,
18,
18,
18,
13,
27,
17,
17,
16,
16,
17,
17,
19,
7,
13,
13,
13,
13,
13,
13,
19,
6,
11,
11,
17,
6,
14,
14,
13,
13,
8,
19,
10,
10,
13,
2,
7,
7,
5,
16,
9,
9,
13,
1,
11,
0,
2,
13,
3,
14,
10,
10,
3,
3,
12,
0,
6,
6,
9,
-3,
0,
0,
1,
1,
8,
-5,
-5,
8,
-4,
8,
0,
0,
-3,
-3,
1,
-10,
-6,
-6,
-3,
-3,
-4,
-4,
0,
-11,
-7,
4,
-5,
-5,
2,
-12,
-6,
-6,
-4,
-4,
-2,
-14,
-8,
-8,
-11,
-11,
-10,
-10,
-13,
-13,
-12,
-12,
-10,
-10,
-10,
-10,
-13,
-13,
-9,
-20,
-17,
-17,
-15,
-15,
-15,
-15,
-14,
-14,
-10,
-21,
-13,
-24,
-13,
-13,
-18,
-18,
-19,
-19,
-21,
-21,
-18,
-18,
-21,
-21,
-19,
-19,
-18,
-18,
-17,
-28,
-23,
-23,
-22,
-22,
-22,
-22,
-21,
-21,
-21,
-21,
-21,
-21,
-26,
-26,
-27,
-27,
-22,
-22,
-29,
-29,
-28,
-17,
-28,
-28,
-25,
-25,
-28,
-28,
-21,
-33,
-28,
-28,
-34,
-18,
-28,
-28,
-18,
-36,
-26,
-26,
-33,
-21,
-28,
-28,
-24,
-37,
-31,
-31,
-33,
-22,
-36,
-24,
-26,
-26,
-22,
-36,
-35,
-23,
-27,
-27,
-33,
-33,
-31,
-31,
-33,
-33,
-21,
-37,
-27,
-27,
-38,
-25,
-26,
-39,
-23,
-36,
-35,
-22,
-27,
-27,
-34,
-21,
-22,
-34,
-23,
-36,
-30,
-30,
-32,
-32,
-25,
-25,
-24,
-24,
-36,
-21,
-28,
-28,
-29,
-29,
-29,
-29,
-26,
-26,
-21,
-21,
-28,
-28,
-23,
-23,
-25,
-25,
-25,
-25,
-22,
-22,
-25,
-25,
-26,
-26,
-21,
-21,
-20,
-31,
-24,
-24,
-24,
-24,
-24,
-24,
-24,
-24,
-20,
-20,
-17,
-17,
-21,
-21,
-20,
-20,
-19,
-19,
-18,
-18,
-17,
-17,
-19,
-19,
-21,
-8,
-19,
-19,
-13,
-13,
-13,
-13,
-17,
-17,
-15,
-15,
-15,
-15,
-9,
-21,
-10,
-10,
-12,
-12,
-9,
-9,
-10,
-10,
-7,
-7,
-13,
-13,
-10,
-10,
-16,
-2,
-9,
-9,
-3,
-14,
-10,
-10,
-11,
-11,
-8,
-8,
-3,
-3,
-1,
-1,
-5,
-5,
-1,
-1,
3,
-9,
3,
-9,
-1,
-1,
-8,
5,
2,
2,
-4,
7,
5,
-6,
6,
6,
2,
2,
-3,
10,
-4,
11,
6,
6,
3,
3,
1,
1,
12,
-1,
9,
-2,
11,
11,
8,
8,
1,
13,
11,
11,
10,
10,
14,
14,
9,
9,
10,
10,
9,
9,
8,
19,
10,
10,
12,
12,
16,
16,
19,
19,
14,
14,
16,
16,
15,
15,
15,
15,
16,
16,
21,
21,
18,
18,
14,
14,
15,
15,
18,
18,
18,
18,
14,
14,
18,
18,
22,
11,
19,
19,
21,
21,
21,
21,
19,
19,
20,
20,
25,
13,
19,
19,
25,
12,
20,
20,
20,
20,
16,
27,
19,
19,
24,
13,
18,
18,
19,
19,
24,
24,
23,
12,
26,
13,
15,
26,
16,
16,
27,
15,
19,
19,
25,
14,
20,
20,
25,
13,
14,
25,
16,
27,
25,
14,
14,
26,
14,
25,
22,
22,
16,
16,
21,
21,
11,
23,
14,
14,
20,
20,
17,
17,
16,
16,
15,
15,
25,
9,
13,
13,
15,
15,
18,
18,
11,
11,
8,
19,
14,
14,
12,
12,
12,
12,
11,
11,
9,
9,
13,
13,
10,
10,
9,
9,
9,
9,
11,
11,
6,
6,
10,
10,
12,
12,
8,
8,
2,
2,
6,
6,
7,
7,
8,
-3,
2,
2,
0,
12,
5,
5,
5,
-6,
4,
4,
1,
1,
1,
1,
-1,
-1,
-1,
-1,
3,
3,
-5,
-5,
-6,
-6,
-1,
-1,
-6,
-6,
-2,
-13,
-8,
-8,
-5,
-5,
-4,
-4,
1,
-12,
-5,
-5,
-13,
-1,
-7,
-7,
-6,
-6,
-7,
-7,
-8,
-8,
-14,
-14,
-10,
-10,
-9,
-9,
-19,
-5,
-15,
-15,
-15,
-15,
-11,
-11,
-17,
-17,
-7,
-21,
-19,
-19,
-24,
-9,
-16,
-16,
-12,
-24,
-13,
-25,
-19,
-19,
-19,
-19,
-16,
-16,
-24,
-13,
-24,
-24,
-21,
-21,
-19,
-19,
-20,
-20,
-22,
-22,
-22,
-22,
-26,
-26,
-25,
-25,
-23,
-23,
-21,
-21,
-25,
-25,
-25,
-25,
-28,
-15,
-27,
-27,
-27,
-27,
-25,
-25,
-28,
-28,
-27,
-27,
-28,
-28,
-26,
-26,
-28,
-28,
-27,
-27,
-28,
-28,
-26,
-26,
-25,
-25,
-30,
-30,
-32,
-32,
-31,
-31,
-28,
-28,
-30,
-30,
-30,
-30,
-36,
-22,
-28,
-28,
-24,
-38,
-34,
-34,
-27,
-27,
-32,
-32,
-28,
-28,
-32,
-32,
-24,
-36,
-26,
-26,
-38,
-24,
-25,
-25,
-23,
-35,
-35,
-22,
-28,
-28,
-34,
-23,
-24,
-24,
-21,
-36,
-30,
-30,
-32,
-19,
-27,
-27,
-22,
-34,
-32,
-21,
-30,
-30,
-25,
-25,
-27,
-27,
-18,
-34,
-21,
-21,
-27,
-27,
-22,
-22,
-19,
-30,
-23,
-23,
-24,
-24,
-22,
-22,
-28,
-15,
-19,
-19,
-16,
-28,
-24,
-13,
-26,
-26,
-24,
-11,
-15,
-15,
-18,
-18,
-19,
-19,
-15,
-15,
-18,
-18,
-12,
-12,
-18,
-18,
-21,
-10,
-15,
-15,
-18,
-18,
-15,
-15,
-12,
-12,
-10,
-10,
-15,
-15,
-15,
-4,
-9,
-9,
-10,
-10,
-11,
-11,
-4,
-16,
-8,
-8,
-6,
-6,
-6,
-6,
-11,
-11,
-6,
-6,
-7,
-7,
-5,
-5,
-5,
-5,
-4,
-4,
-4,
-4,
-4,
-4,
-2,
-2,
-1,
-1,
-1,
-1,
1,
1,
5,
5,
4,
-7,
3,
3,
-2,
11,
7,
7,
5,
5,
10,
-3,
5,
5,
5,
5,
3,
3,
2,
16,
10,
10,
3,
16,
4,
4,
13,
0,
12,
12,
14,
2,
7,
18,
7,
7,
17,
6,
17,
17,
18,
6,
9,
9,
15,
3,
13,
13,
12,
12,
16,
16,
9,
22,
15,
15,
18,
18,
12,
24,
17,
17,
11,
24,
21,
21,
17,
17,
25,
11,
18,
18,
12,
25,
24,
12,
22,
22,
22,
22,
20,
20,
16,
16,
20,
20,
17,
17,
17,
28,
17,
17,
19,
19,
25,
25,
21,
21,
21,
21,
16,
27,
19,
19,
25,
14,
20,
20,
25,
13,
23,
12,
20,
20,
16,
27,
17,
17,
20,
20,
18,
18,
17,
28,
19,
19,
22,
22,
18,
18,
17,
17,
19,
19,
22,
11,
18,
18,
21,
21,
21,
21,
16,
16,
10,
26,
16,
16,
13,
24,
14,
14,
13,
13,
15,
15,
15,
15,
17,
17,
12,
23,
12,
12,
15,
15,
18,
18,
16,
4,
11,
11,
13,
13,
11,
11,
9,
9,
4,
20,
6,
17,
10,
10,
13,
13,
1,
16,
12,
12,
3,
14,
2,
2,
4,
4,
13,
1,
11,
-3,
-1,
-1,
6,
6,
11,
-4,
-4,
9,
-1,
-1,
-1,
-1,
9,
-3,
7,
-8,
-4,
-4,
-2,
-2,
-1,
-1,
1,
1,
-9,
4,
-1,
-1,
-3,
-3,
-4,
-4,
-3,
-3,
-2,
-2,
-7,
-7,
-5,
-5,
-4,
-15,
-4,
-4,
-9,
-9,
-9,
-9,
-11,
-11,
-10,
-10,
-8,
-8,
-13,
-13,
-11,
-11,
-14,
-14,
-14,
-14,
-14,
-14,
-11,
-11,
-12,
-12,
-16,
-16,
-16,
-16,
-15,
-15,
-15,
-26,
-18,
-18,
-17,
-17,
-22,
-22,
-18,
-18,
-17,
-17,
-17,
-29,
-21,
-21,
-27,
-15,
-16,
-28,
-17,
-28,
-21,
-21,
-20,
-20,
-29,
-15,
-20,
-20,
-21,
-33,
-24,
-24,
-29,
-18,
-25,
-25,
-22,
-35,
-29,
-29,
-27,
-27,
-27,
-27,
-30,
-30,
-23,
-34,
-26,
-26,
-29,
-29,
-20,
-34,
-27,
-27,
-28,
-28,
-31,
-31,
-26,
-26,
-33,
-33,
-23,
-37,
-23,
-35,
-30,
-30,
-35,
-24,
-33,
-33,
-28,
-28,
-30,
-30,
-33,
-33,
-27,
-27,
-27,
-27,
-27,
-38,
-32,
-32,
-33,
-21,
-28,
-28,
-30,
-30,
-25,
-36,
-28,
-28,
-27,
-27,
-32,
-32,
-29,
-29,
-26,
-26,
-28,
-28,
-28,
-28,
-27,
-27,
-30,
-30,
-23,
-35,
-28,
-28,
-28,
-28,
-27,
-27,
-25,
-25,
-27,
-27,
-26,
-26,
-25,
-25,
-28,
-28,
-22,
-22,
-20,
-20,
-22,
-22,
-24,
-24,
-22,
-22,
-21,
-21,
-16,
-29,
-22,
-22,
-24,
-13,
-17,
-17,
-22,
-22,
-19,
-19,
-19,
-19,
-16,
-16,
-23,
-23,
-19,
-19,
-9,
-23,
-20,
-20,
-21,
-9,
-10,
-23,
-15,
-15,
-10,
-10,
-18,
-18,
-20,
-6,
-8,
-8,
-8,
-19,
-10,
-10,
-16,
-3,
-4,
-15,
-6,
-6,
-10,
1,
-6,
-6,
-13,
1,
-10,
-10,
-4,
-4,
-10,
-10,
-9,
-9,
-5,
-5,
-1,
-13,
-4,
-4,
6,
-10,
-5,
-5,
-6,
6,
2,
2,
6,
-6,
4,
-7,
-3,
-3,
1,
1,
4,
4,
-1,
10,
3,
3,
-3,
9,
8,
8,
12,
-1,
4,
4,
9,
9,
7,
7,
6,
6,
5,
16,
12,
12,
13,
13,
8,
8,
11,
11,
13,
13,
6,
19,
11,
11,
10,
10,
11,
11,
18,
7,
13,
13,
15,
15,
14,
14,
16,
16,
14,
14,
15,
15,
19,
19,
19,
19,
16,
16,
17,
17,
14,
14,
14,
14,
17,
17,
16,
16,
21,
21,
16,
16,
17,
17,
14,
26,
18,
18,
21,
21,
21,
21,
23,
10,
19,
19,
23,
23,
24,
24,
17,
17,
15,
27,
17,
17,
22,
22,
23,
23,
14,
26,
19,
19,
11,
27,
21,
21,
19,
30,
23,
23,
24,
13,
16,
16,
26,
14,
22,
22,
15,
26,
21,
21,
16,
16,
26,
13,
17,
17,
16,
16,
12,
26,
16,
16,
23,
10,
12,
25,
18,
18,
14,
14,
15,
15,
20,
20,
17,
17,
17,
17,
19,
6,
16,
16,
18,
18,
11,
22,
13,
13,
12,
12,
15,
15,
15,
4,
7,
7,
13,
13,
7,
7,
6,
17,
10,
10,
11,
11,
12,
12,
9,
9,
7,
7,
9,
9,
10,
10,
4,
4,
8,
-3,
7,
7,
4,
4,
3,
3,
5,
5,
1,
1,
-5,
8,
4,
4,
7,
-9,
-1,
-1,
2,
2,
-5,
6,
3,
3,
3,
-10,
-4,
-4,
-6,
-6,
-2,
-2,
-1,
-12,
-10,
-10,
-7,
-7,
-5,
-16,
-10,
-10,
-4,
-15,
-2,
-15,
-11,
