5-grundlagen-opAmps/data/ALL0034/A0034CH1.CSV

Memory Length,4000,
Trigger Level,0.00000e+00,
Source,CH1,
Probe,1.0X,
Vertical Units,V,
Vertical Scale,5.00000e-02,
Vertical Position,0.00000e+00,
Horizontal Units,S,
Horizontal Scale,2.50000e-07,
Horizontal Position,2.5000000e-07,
Horizontal Mode,Main,
Sampling Period,2.00000e-09,
Firmware,V1.14,
Time, ,
Mode,Fast,
Waveform Data,
19,
19,
17,
17,
18,
20,
20,
18,
17,
19,
20,
21,
19,
18,
17,
20,
23,
22,
20,
16,
17,
22,
23,
21,
18,
16,
22,
25,
23,
20,
16,
20,
24,
25,
22,
17,
17,
22,
25,
25,
19,
16,
17,
23,
25,
23,
19,
14,
18,
23,
25,
20,
15,
16,
19,
25,
24,
18,
13,
15,
21,
23,
20,
13,
12,
20,
21,
19,
14,
12,
17,
20,
18,
16,
11,
15,
17,
16,
14,
12,
16,
16,
14,
11,
11,
15,
15,
10,
8,
11,
15,
13,
9,
5,
7,
13,
15,
10,
2,
3,
9,
14,
10,
1,
0,
4,
9,
9,
4,
1,
0,
3,
6,
5,
3,
-1,
-2,
-2,
4,
3,
-1,
-4,
-6,
0,
4,
0,
-8,
-11,
-7,
4,
4,
-7,
-17,
-11,
0,
4,
-4,
-20,
-17,
-6,
3,
0,
-17,
-21,
-14,
-3,
0,
-14,
-21,
-19,
-9,
-3,
-11,
-20,
-20,
-15,
-10,
-10,
-17,
-19,
-19,
-16,
-13,
-16,
-18,
-20,
-20,
-17,
-14,
-15,
-20,
-25,
-23,
-16,
-15,
-20,
-28,
-29,
-19,
-15,
-19,
-28,
-31,
-25,
-18,
-20,
-26,
-28,
-27,
-22,
-19,
-27,
-29,
-27,
-23,
-23,
-29,
-31,
-27,
-22,
-25,
-32,
-33,
-28,
-23,
-25,
-29,
-31,
-31,
-25,
-24,
-29,
-34,
-32,
-27,
-25,
-28,
-33,
-32,
-28,
-26,
-28,
-29,
-32,
-32,
-28,
-27,
-28,
-31,
-34,
-31,
-26,
-26,
-29,
-32,
-34,
-30,
-27,
-25,
-30,
-35,
-32,
-26,
-22,
-26,
-33,
-32,
-29,
-23,
-24,
-28,
-31,
-31,
-25,
-20,
-25,
-30,
-32,
-24,
-21,
-21,
-27,
-30,
-26,
-24,
-21,
-23,
-27,
-28,
-24,
-20,
-20,
-23,
-26,
-26,
-21,
-20,
-19,
-19,
-21,
-22,
-20,
-17,
-18,
-19,
-19,
-20,
-19,
-16,
-14,
-13,
-19,
-21,
-19,
-12,
-9,
-14,
-20,
-18,
-12,
-8,
-9,
-13,
-19,
-14,
-6,
-5,
-11,
-16,
-14,
-7,
-3,
-4,
-11,
-13,
-8,
-2,
-2,
-4,
-10,
-12,
-4,
0,
0,
-4,
-9,
-6,
1,
5,
4,
-4,
-9,
-6,
5,
11,
2,
-6,
-8,
4,
13,
9,
-1,
-7,
1,
11,
15,
4,
-4,
-2,
11,
17,
8,
-1,
-1,
10,
19,
15,
6,
2,
8,
15,
17,
10,
7,
8,
12,
16,
14,
12,
11,
12,
13,
15,
16,
15,
13,
11,
16,
20,
19,
15,
12,
15,
19,
22,
18,
14,
15,
18,
21,
19,
13,
16,
21,
22,
18,
15,
18,
23,
23,
18,
14,
17,
26,
28,
19,
12,
15,
24,
27,
21,
13,
15,
23,
30,
21,
13,
16,
21,
30,
25,
16,
15,
20,
27,
27,
20,
13,
16,
22,
25,
23,
18,
16,
18,
21,
24,
22,
17,
15,
16,
21,
23,
20,
15,
13,
16,
22,
24,
17,
11,
13,
20,
24,
19,
11,
9,
16,
22,
19,
11,
9,
12,
18,
19,
14,
9,
11,
15,
18,
15,
11,
9,
11,
12,
12,
11,
11,
9,
7,
8,
11,
11,
8,
5,
5,
5,
10,
10,
5,
3,
2,
6,
9,
7,
1,
-2,
1,
5,
6,
1,
-3,
-3,
1,
3,
4,
-3,
-7,
-6,
0,
3,
-1,
-8,
-8,
-5,
2,
1,
-7,
-11,
-12,
-5,
2,
-5,
-11,
-16,
-12,
-3,
-4,
-10,
-16,
-16,
-9,
-4,
-8,
-12,
-19,
-18,
-8,
-5,
-12,
-22,
-24,
-16,
-7,
-11,
-20,
-25,
-20,
-13,
-9,
-16,
-25,
-26,
-17,
-12,
-16,
-24,
-28,
-24,
-15,
-15,
-21,
-29,
-27,
-21,
-19,
-20,
-27,
-28,
-25,
-20,
-22,
-26,
-27,
-24,
-23,
-26,
-27,
-26,
-25,
-26,
-28,
-26,
-27,
-26,
-27,
-29,
-27,
-27,
-29,
-28,
-29,
-29,
-28,
-28,
-30,
-30,
-28,
-26,
-28,
-32,
-32,
-27,
-26,
-30,
-35,
-32,
-26,
-24,
-29,
-36,
-35,
-27,
-21,
-26,
-36,
-39,
-31,
-18,
-20,
-33,
-40,
-34,
-21,
-20,
-30,
-37,
-35,
-26,
-20,
-25,
-32,
-35,
-29,
-23,
-22,
-28,
-32,
-28,
-25,
-23,
-25,
-27,
-27,
-29,
-26,
-23,
-21,
-25,
-29,
-28,
-21,
-18,
-24,
-29,
-29,
-22,
-15,
-16,
-24,
-31,
-26,
-15,
-13,
-21,
-28,
-26,
-17,
-14,
-15,
-23,
-22,
-19,
-14,
-13,
-18,
-18,
-15,
-13,
-15,
-17,
-14,
-13,
-12,
-16,
-15,
-12,
-8,
-11,
-16,
-14,
-10,
-6,
-7,
-13,
-14,
-10,
-3,
-2,
-9,
-14,
-11,
-3,
1,
-4,
-9,
-11,
-4,
2,
2,
-3,
-8,
-7,
0,
4,
1,
-3,
-4,
-3,
4,
6,
5,
0,
-4,
0,
7,
10,
5,
-2,
-1,
8,
13,
10,
3,
-2,
5,
15,
16,
8,
-1,
2,
15,
19,
13,
3,
1,
11,
18,
18,
12,
5,
7,
15,
19,
16,
10,
8,
16,
17,
19,
14,
10,
14,
17,
18,
16,
14,
13,
17,
19,
19,
15,
15,
17,
19,
18,
17,
17,
19,
21,
22,
19,
17,
20,
20,
21,
19,
18,
19,
22,
22,
19,
18,
19,
23,
24,
21,
20,
18,
21,
23,
23,
20,
17,
18,
21,
26,
25,
18,
16,
17,
25,
27,
23,
16,
13,
20,
26,
26,
16,
9,
17,
24,
29,
19,
11,
11,
22,
28,
23,
13,
8,
16,
25,
25,
14,
8,
12,
21,
25,
17,
11,
10,
15,
20,
18,
15,
10,
9,
14,
16,
16,
13,
10,
9,
12,
17,
16,
11,
5,
5,
13,
17,
11,
4,
2,
10,
15,
13,
5,
-1,
5,
9,
12,
5,
-1,
2,
7,
8,
2,
0,
2,
3,
4,
1,
0,
1,
1,
-1,
-3,
0,
3,
1,
-2,
-10,
-3,
2,
2,
-2,
-13,
-10,
-3,
4,
-4,
-15,
-13,
-9,
1,
-2,
-13,
-14,
-12,
-5,
-3,
-12,
-15,
-17,
-11,
-5,
-10,
-14,
-16,
-15,
-13,
-13,
-11,
-15,
-19,
-20,
-16,
-10,
-15,
-20,
-25,
-23,
-12,
-13,
-20,
-27,
-24,
-17,
-11,
-15,
-27,
-30,
-22,
-13,
-16,
-26,
-32,
-28,
-19,
-18,
-25,
-30,
-27,
-22,
-19,
-23,
-28,
-29,
-25,
-23,
-24,
-30,
-29,
-27,
-24,
-25,
-29,
-28,
-27,
-27,
-28,
-28,
-30,
-29,
-28,
-27,
-28,
-30,
-28,
-28,
-27,
-29,
-32,
-30,
-28,
-27,
-28,
-31,
-30,
-32,
-29,
-27,
-28,
-33,
-34,
-29,
-24,
-26,
-31,
-35,
-34,
-27,
-25,
-27,
-35,
-36,
-31,
-23,
-23,
-30,
-36,
-32,
-23,
-20,
-27,
-33,
-35,
-28,
-20,
-19,
-29,
-36,
-32,
-23,
-18,
-23,
-33,
-35,
-25,
-16,
-19,
-28,
-31,
-28,
-17,
-15,
-21,
-29,
-32,
-20,
-15,
-17,
-25,
-28,
-22,
-18,
-15,
-16,
-23,
-24,
-20,
-16,
-15,
-18,
-21,
-19,
-16,
-15,
-14,
-15,
-19,
-18,
-15,
-10,
-11,
-17,
-16,
-15,
-9,
-7,
-12,
-15,
-15,
-8,
-6,
-6,
-12,
-14,
-8,
-6,
-4,
-8,
-8,
-7,
-6,
-5,
-5,
-3,
-3,
-5,
-7,
-5,
1,
3,
-2,
-6,
-6,
0,
7,
4,
-4,
-8,
0,
9,
8,
1,
-5,
0,
9,
11,
5,
-4,
0,
8,
13,
12,
2,
0,
7,
14,
12,
8,
4,
8,
12,
12,
13,
9,
8,
8,
13,
15,
15,
11,
8,
11,
14,
19,
18,
11,
9,
12,
20,
22,
14,
8,
12,
20,
25,
18,
12,
11,
21,
24,
19,
14,
14,
19,
24,
20,
14,
15,
21,
24,
20,
15,
17,
20,
25,
20,
16,
18,
21,
25,
23,
17,
17,
21,
25,
23,
17,
17,
20,
25,
25,
19,
18,
17,
25,
25,
23,
20,
16,
18,
21,
23,
23,
18,
16,
17,
25,
27,
21,
15,
13,
20,
26,
25,
15,
9,
17,
24,
28,
18,
9,
11,
19,
28,
22,
11,
7,
13,
25,
24,
15,
6,
9,
20,
25,
19,
11,
4,
13,
18,
19,
14,
5,
5,
12,
19,
15,
8,
4,
6,
14,
15,
11,
4,
3,
8,
12,
11,
5,
2,
4,
8,
9,
6,
2,
0,
4,
7,
5,
2,
1,
-2,
3,
4,
3,
0,
-3,
-3,
0,
1,
0,
-3,
-6,
-5,
-4,
-1,
-3,
-5,
-5,
-7,
-3,
-4,
-7,
-5,
-9,
-10,
-6,
-7,
-7,
-11,
-13,
-12,
-9,
-8,
-9,
-13,
-17,
-14,
-9,
-9,
-16,
-23,
-19,
-11,
-8,
-14,
-24,
-20,
-15,
-9,
-14,
-22,
-25,
-21,
-12,
-12,
-20,
-26,
-26,
-17,
-15,
-18,
-26,
-27,
-21,
-21,
-20,
-23,
-26,
-26,
-26,
-23,
-22,
-24,
-27,
-28,
-25,
-24,
-24,
-27,
-30,
-28,
-27,
-19,
-25,
-31,
-32,
-29,
-22,
-25,
-32,
-32,
-29,
-23,
-25,
-31,
-32,
-30,
-25,
-27,
-31,
-33,
-28,
-24,
-27,
-33,
-36,
-29,
-23,
-27,
-35,
-35,
-27,
-22,
-24,
-35,
-39,
-31,
-24,
-23,
-31,
-38,
-35,
-24,
-22,
-27,
-35,
-35,
-27,
-22,
-26,
-29,
-31,
-31,
-26,
-24,
-26,
-29,
-32,
-31,
-25,
-22,
-25,
-29,
-32,
-28,
-20,
-18,
-26,
-35,
-32,
-20,
-13,
-19,
-32,
-35,
-24,
-14,
-13,
-26,
-32,
-29,
-15,
-9,
-19,
-29,
-32,
-17,
-10,
-15,
-25,
-27,
-19,
-12,
-11,
-16,
-22,
-21,
-14,
-11,
-14,
-17,
-19,
-17,
-11,
-11,
-11,
-13,
-16,
-14,
-8,
-7,
-10,
-14,
-15,
-11,
-5,
-4,
-9,
-12,
-11,
-6,
-2,
-3,
-9,
-11,
-6,
-3,
-2,
-5,
-6,
-4,
-3,
-2,
-2,
-1,
-1,
-1,
-1,
0,
2,
2,
1,
1,
1,
2,
5,
5,
1,
0,
4,
7,
9,
5,
3,
3,
9,
11,
9,
4,
3,
6,
16,
13,
11,
4,
5,
13,
15,
15,
9,
5,
10,
16,
18,
13,
9,
8,
16,
20,
17,
11,
11,
13,
18,
18,
17,
13,
14,
18,
19,
20,
15,
15,
17,
17,
19,
18,
17,
17,
19,
21,
19,
20,
17,
16,
21,
22,
21,
19,
17,
20,
20,
24,
21,
19,
20,
20,
22,
20,
18,
20,
23,
22,
18,
18,
22,
24,
25,
17,
16,
19,
26,
26,
17,
15,
18,
25,
28,
20,
11,
14,
24,
29,
21,
11,
12,
19,
28,
24,
14,
10,
17,
25,
25,
19,
9,
11,
19,
23,
21,
14,
11,
13,
18,
20,
19,
13,
9,
12,
18,
21,
17,
6,
4,
12,
21,
20,
10,
2,
5,
16,
22,
14,
0,
-1,
13,
20,
14,
2,
-3,
5,
17,
15,
4,
-2,
1,
9,
12,
6,
-1,
-2,
7,
8,
5,
0,
-2,
-1,
2,
2,
2,
0,
-2,
-3,
-2,
-1,
0,
-2,
-5,
-6,
-4,
-2,
-3,
-5,
-10,
-8,
-4,
-4,
-7,
-11,
-8,
-6,
-7,
-10,
-12,
-11,
-9,
-11,
-13,
-13,
-13,
-11,
-13,
-15,
-16,
-13,
-11,
-15,
-18,
-19,
-13,
-11,
-16,
-22,
-24,
-15,
-10,
-15,
-24,
-25,
-19,
-14,
-13,
-22,
-27,
-25,
-18,
-13,
-21,
-27,
-28,
-21,
-18,
-20,
-26,
-27,
-25,
-23,
-21,
-26,
-26,
-27,
-27,
-24,
-23,
-26,
-29,
-28,
-26,
-24,
-25,
-27,
-30,
-30,
-28,
-27,
-26,
-31,
-32,
-30,
-27,
-26,
-28,
-31,
-30,
-29,
-28,
-27,
-29,
-32,
-32,
-29,
-27,
-27,
-30,
-29,
-30,
-31,
-29,
-29,
-27,
-29,
-32,
-31,
-30,
-26,
-28,
-30,
-32,
-31,
-27,
-26,
-26,
-33,
-35,
-29,
-23,
-24,
-30,
-35,
-31,
-23,
-21,
-27,
-34,
-34,
-25,
-16,
-21,
-31,
-37,
-28,
-17,
-17,
-26,
-35,
-31,
-21,
-15,
-17,
-30,
-34,
-26,
-15,
-15,
-23,
-29,
-28,
-18,
-14,
-16,
-23,
-26,
-23,
-16,
-13,
-17,
-24,
-27,
-18,
-11,
-10,
-15,
-24,
-21,
-14,
-7,
-10,
-20,
-24,
-16,
-3,
-6,
-14,
-24,
-19,
-6,
-1,
-8,
-17,
-17,
-9,
-2,
-4,
-11,
-14,
-8,
-2,
-3,
-8,
-11,
-6,
-2,
-2,
-4,
-4,
-2,
-2,
-3,
-4,
-1,
0,
1,
-1,
-2,
0,
3,
2,
0,
-2,
3,
8,
4,
2,
0,
4,
7,
7,
6,
5,
6,
6,
8,
8,
7,
9,
8,
8,
7,
10,
15,
12,
6,
4,
11,
17,
15,
9,
5,
10,
19,
20,
15,
7,
9,
18,
23,
17,
7,
8,
17,
23,
20,
11,
12,
16,
21,
20,
15,
14,
15,
20,
23,
19,
18,
17,
20,
21,
21,
20,
21,
20,
18,
18,
21,
21,
20,
18,
19,
22,
25,
23,
18,
19,
19,
23,
24,
20,
19,
19,
21,
22,
21,
20,
21,
21,
21,
20,
23,
23,
22,
18,
17,
22,
25,
21,
18,
15,
20,
24,
24,
19,
12,
14,
22,
26,
19,
11,
12,
18,
26,
24,
16,
9,
13,
21,
24,
18,
10,
8,
16,
22,
21,
14,
6,
8,
18,
23,
16,
7,
5,
10,
19,
19,
9,
3,
6,
16,
18,
14,
5,
1,
7,
14,
14,
8,
0,
1,
11,
15,
10,
1,
-2,
1,
10,
10,
4,
-2,
-4,
3,
10,
8,
-2,
-7,
-1,
4,
7,
-1,
-8,
-5,
-1,
3,
0,
-8,
-9,
-5,
3,
-1,
-8,
-12,
-8,
-2,
-3,
-7,
-12,
-9,
-6,
-7,
-8,
-14,
-10,
-8,
-9,
-11,
-15,
-13,
-10,
-12,
-15,
-16,
-13,
-11,
-14,
-17,
-20,
-16,
-13,
-15,
-19,
-19,
-19,
-17,
-15,
-18,
-19,
-20,
-20,
-19,
-20,
-19,
-21,
-23,
-24,
-23,
-20,
-17,
-25,
-29,
-28,
-20,
-17,
-23,
-31,
-32,
-21,
-17,
-21,
-29,
-35,
-28,
-19,
-18,
-30,
-36,
-31,
-20,
-19,
-27,
-36,
-32,
-25,
-21,
-26,
-32,
-31,
-30,
-26,
-28,
-30,
-29,
-31,
-28,
-30,
-32,
-27,
-28,
-29,
-32,
-32,
-28,
-25,
-29,
-34,
-33,
-27,
-24,
-28,
-32,
-31,
-29,
-28,
-26,
-32,
-32,
-29,
-28,
-26,
-29,
-29,
-30,
-27,
-28,
-29,
-27,
-27,
-30,
-29,
-29,
-22,
-24,
-29,
-31,
-29,
-23,
-20,
-24,
-31,
-34,
-25,
-16,
-18,
-29,
-36,
-27,
-17,
-14,
-25,
-32,
-29,
-20,
-10,
-15,
-28,
-30,
-23,
-12,
-12,
-21,
-29,
-26,
-15,
-12,
-15,
-22,
-24,
-18,
-12,
-8,
-15,
-23,
-22,
-15,
-7,
-9,
-15,
-19,
-19,
-9,
-4,
-9,
-17,
-21,
-12,
-3,
-2,
-11,
-18,
-13,
-4,
0,
-6,
-12,
-12,
-7,
0,
-1,
-8,
-9,
-7,
1,
1,
-3,
-6,
-5,
1,
1,
0,
-1,
-4,
0,
2,
4,
0,
-2,
1,
4,
6,
3,
3,
4,
5,
6,
4,
5,
5,
7,
9,
6,
4,
7,
11,
12,
9,
4,
5,
11,
15,
11,
10,
7,
12,
16,
14,
12,
9,
11,
16,
18,
15,
12,
12,
14,
17,
18,
16,
14,
13,
15,
20,
20,
16,
12,
14,
20,
24,
20,
14,
12,
18,
26,
26,
17,
12,
14,
23,
29,
21,
14,
14,
20,
28,
25,
17,
13,
20,
25,
24,
21,
16,
19,
24,
23,
21,
19,
21,
21,
20,
19,
20,
23,
21,
18,
18,
21,
25,
24,
19,
16,
20,
25,
25,
20,
14,
17,
23,
26,
20,
14,
16,
19,
24,
21,
17,
15,
17,
18,
19,
18,
16,
15,
15,
17,
18,
20,
17,
12,
10,
14,
22,
19,
10,
5,
11,
19,
21,
12,
3,
5,
18,
23,
15,
2,
1,
10,
21,
17,
3,
-3,
6,
15,
17,
7,
0,
-1,
9,
14,
9,
2,
-2,
1,
9,
7,
5,
-1,
-4,
2,
3,
5,
3,
-5,
-5,
-3,
4,
4,
-3,
-8,
-6,
0,
2,
-3,
-11,
-10,
-2,
2,
-2,
-11,
-15,
-8,
0,
-3,
-11,
-16,
-11,
-5,
-4,
-11,
-18,
-12,
-9,
-7,
-10,
-17,
-13,
-13,
-9,
-14,
-18,
-16,
-13,
-12,
-17,
-21,
-19,
-15,
-13,
-17,
-23,
-23,
-19,
-15,
-16,
-20,
-23,
-23,
-17,
-17,
-21,
-25,
-26,
-23,
-20,
-20,
-25,
-28,
-26,
-22,
-19,
-23,
-27,
-29,
-27,
-20,
-21,
-27,
-32,
-31,
-23,
-21,
-25,
-31,
-34,
-28,
-24,
-20,
-27,
-35,
-32,
-27,
-22,
-25,
-32,
-35,
-31,
-26,
-24,
-28,
-35,
-36,
-29,
-24,
-25,
-31,
-35,
-31,
-27,
-26,
-29,
-34,
-31,
-28,
-25,
-29,
-31,
-32,
-31,
-27,
-28,
-32,
-31,
-29,
-29,
-29,
-28,
-28,
-27,
-30,
-32,
-29,
-25,
-24,
-28,
-31,
-31,
-26,
-24,
-23,
-30,
-34,
-28,
-21,
-19,
-27,
-32,
-30,
-22,
-20,
-22,
-27,
-28,
-25,
-20,
-19,
-21,
-25,
-28,
-20,
-19,
-18,
-20,
-25,
-23,
-22,
-15,
-12,
-21,
-26,
-25,
-14,
-9,
-14,
-25,
-27,
-15,
-7,
-9,
-19,
-27,
-20,
-5,
-3,
-13,
-23,
-21,
-8,
-1,
-7,
-17,
-18,
-10,
-1,
-4,
-10,
-15,
-12,
-4,
-2,
-7,
-9,
-9,
-5,
-3,
-2,
-3,
-5,
-7,
-5,
-2,
1,
-3,
-5,
-4,
-1,
5,
3,
-1,
-3,
-1,
3,
8,
3,
-3,
-1,
6,
9,
3,
0,
3,
8,
11,
6,
2,
4,
11,
14,
9,
2,
5,
12,
14,
10,
5,
5,
12,
18,
12,
5,
6,
13,
20,
17,
9,
8,
14,
18,
19,
13,
9,
13,
18,
21,
17,
13,
14,
16,
21,
20,
18,
16,
14,
18,
23,
22,
17,
13,
16,
21,
28,
24,
15,
12,
15,
25,
28,
21,
13,
13,
23,
29,
25,
15,
13,
20,
28,
26,
20,
14,
18,
24,
27,
23,
16,
16,
20,
25,
26,
18,
17,
17,
22,
25,
22,
20,
17,
19,
20,
23,
21,
17,
19,
17,
21,
23,
20,
19,
18,
16,
19,
20,
19,
16,
15,
15,
19,
22,
19,
15,
12,
14,
19,
19,
16,
10,
11,
17,
19,
16,
11,
8,
13,
17,
17,
11,
6,
7,
13,
17,
13,
6,
5,
8,
13,
14,
12,
5,
1,
7,
13,
14,
5,
0,
0,
5,
12,
8,
3,
-4,
0,
8,
11,
3,
-7,
-5,
6,
9,
4,
-7,
-11,
0,
7,
4,
-5,
-11,
-6,
2,
4,
-4,
-11,
-9,
-3,
1,
-4,
-11,
-12,
-6,
-4,
-7,
-9,
-12,
-11,
-10,
-8,
-10,
-11,
-13,
-14,
-12,
-12,
-11,
-12,
-15,
-16,
-15,
-13,
-13,
-17,
-18,
-16,
-14,
-16,
-20,
-23,
-16,
-15,
-18,
-25,
-24,
-18,
-15,
-19,
-27,
-26,
-21,
-15,
-18,
-27,
-29,
-24,
-15,
-19,
-28,
-32,
-26,
-16,
-18,
-28,
-34,
-30,
-20,
-17,
-24,
-35,
-33,
-25,
-19,
-22,
-32,
-35,
-30,
-24,
-23,
-27,
-31,
-32,
-30,
-27,
-24,
-27,
-33,
-34,
-30,
-25,
-23,
-29,
-34,
-34,
-28,
-21,
-26,
-35,
-38,
-31,
-23,
-22,
-32,
-39,
-34,
-23,
-21,
-29,
-37,
-35,
-27,
-24,
-25,
-32,
-36,
-29,
-24,
-24,
-29,
-35,
-29,
-27,
-26,
-27,
-28,
-27,
-30,
-29,
-28,
-25,
-25,
-27,
-29,
-28,
-25,
-24,
-24,
-27,
-29,
-26,
-20,
-21,
-24,
-28,
-25,
-21,
-19,
-20,
-25,
-24,
-22,
-19,
-16,
-21,
-24,
-25,
-20,
-15,
-16,
-20,
-23,
-21,
-16,
-11,
-11,
-19,
-22,
-19,
-12,
-9,
-14,
-20,
-20,
-13,
-8,
-7,
-15,
-18,
-16,
-8,
-3,
-9,
-15,
-15,
-8,
-3,
-4,
-11,
-15,
-10,
-3,
0,
-4,
-11,
-11,
-4,
2,
0,
-6,
-10,
-5,
3,
3,
-1,
-6,
-6,
0,
5,
4,
-3,
-3,
2,
5,
4,
2,
0,
2,
6,
6,
4,
3,
5,
7,
9,
7,
5,
7,
10,
8,
9,
7,
8,
9,
11,
10,
9,
10,
11,
12,
15,
12,
12,
10,
13,
17,
15,
14,
11,
12,
17,
18,
16,
10,
12,
17,
22,
22,
10,
8,
16,
24,
26,
16,
8,
12,
25,
30,
20,
9,
11,
22,
29,
27,
15,
9,
17,
28,
27,
18,
13,
16,
23,
27,
24,
16,
15,
18,
24,
25,
20,
18,
17,
21,
25,
24,
23,
17,
16,
20,
25,
28,
18,
12,
15,
23,
29,
23,
13,
12,
21,
29,
26,
17,
10,
15,
25,
26,
18,
11,
16,
21,
22,
18,
16,
15,
18,
18,
16,
16,
18,
17,
16,
14,
13,
18,
18,
15,
10,
11,
18,
19,
12,
6,
9,
16,
18,
14,
6,
5,
12,
17,
16,
6,
3,
6,
12,
14,
9,
4,
4,
6,
10,
8,
7,
4,
1,
3,
8,
9,
5,
0,
-2,
1,
7,
6,
0,
-5,
-3,
3,
5,
1,
-8,
-8,
1,
4,
1,
-8,
-12,
-3,
1,
0,
-8,
-13,
-10,
-3,
2,
-6,
-13,
-14,
-9,
-3,
-6,
-10,
-14,
-13,
-9,
-9,
-10,
-13,
-14,
-14,
-13,
-11,
-15,
-15,
-15,
-15,
-13,
-18,
-19,
-16,
-15,
-17,
-19,
-19,
-20,
-19,
-18,
-18,
-19,
-23,
-20,
-19,
-21,
-23,
-25,
-20,
-20,
-21,
-26,
-28,
-23,
-22,
-23,
-24,
-30,
-27,
-24,
-20,
-22,
-30,
-32,
-28,
-20,
-20,
-27,
-32,
-34,
-27,
-20,
-23,
-30,
-38,
-32,
-21,
-20,
-27,
-36,
-36,
-25,
-19,
-24,
-33,
-39,
-33,
-21,
-19,
-31,
-39,
-38,
-25,
-19,
-28,
-36,
-37,
-28,
-22,
-25,
-31,
-39,
-34,
-26,
-23,
-26,
-34,
-34,
-31,
-25,
-24,
-28,
-31,
-34,
-29,
-26,
-24,
-27,
-34,
-32,
-27,
-21,
-22,
-31,
-32,
-29,
-23,
-20,
-28,
-30,
-29,
-24,
-19,
-23,
-29,
-29,
-24,
-19,
-22,
-27,
-27,
-22,
-21,
-24,
-24,
-23,
-19,
-20,
-21,
-23,
-20,
-15,
-18,
-22,
-24,
-19,
-12,
-15,
-21,
-27,
-18,
-10,
-10,
-16,
-24,
-19,
-11,
-7,
-12,
-19,
-19,
-13,
-7,
-10,
-15,
-15,
-13,
-8,
-8,
-10,
-11,
-11,
-11,
-7,
-5,
-5,
-8,
-10,
-8,
-3,
-1,
-3,
-7,
-9,
-3,
3,
1,
-6,
-10,
-4,
4,
7,
-1,
-8,
-4,
4,
7,
4,
-2,
-3,
4,
10,
8,
0,
-1,
5,
9,
7,
3,
3,
9,
11,
8,
4,
5,
9,
11,
11,
5,
7,
9,
14,
15,
8,
8,
11,
13,
15,
10,
10,
14,
15,
15,
13,
12,
13,
14,
16,
17,
14,
12,
13,
18,
20,
19,
16,
12,
13,
20,
24,
20,
13,
10,
17,
25,
26,
18,
11,
16,
25,
28,
23,
13,
13,
19,
29,
27,
16,
11,
16,
27,
30,
24,
14,
12,
21,
29,
28,
19,
11,
17,
27,
30,
21,
13,
13,
20,
30,
27,
17,
12,
16,
25,
28,
23,
14,
13,
19,
25,
25,
18,
15,
16,
20,
24,
21,
16,
14,
15,
20,
21,
19,
14,
13,
17,
20,
18,
16,
11,
13,
17,
19,
17,
11,
9,
13,
17,
16,
12,
10,
11,
14,
14,
13,
9,
10,
11,
12,
11,
9,
10,
11,
8,
5,
5,
12,
11,
7,
2,
2,
9,
11,
5,
-1,
-1,
5,
9,
7,
-3,
-3,
1,
7,
8,
-3,
-6,
-2,
2,
5,
-2,
-7,
-6,
-1,
2,
-1,
-4,
-7,
-5,
-2,
-3,
-4,
-8,
-8,
-9,
-7,
-5,
-7,
-8,
-14,
-14,
-5,
-5,
-8,
-16,
-17,
-9,
-6,
-9,
-16,
-18,
-13,
-11,
-11,
-18,
-21,
-17,
-12,
-12,
-19,
-22,
-19,
-13,
-15,
-21,
-25,
-19,
-15,
-17,
-24,
-25,
-19,
-17,
-19,
-24,
-27,
-23,
-19,
-18,
-27,
-31,
-25,
-17,
-19,
-26,
-31,
-28,
-22,
-21,
-25,
-29,
-30,
-26,
-24,
-21,
-27,
-29,
-32,
-27,
-25,
-25,
-28,
-33,
-33,
-29,
-25,
-22,
-30,
-37,
-34,
-25,
-19,
-27,
-37,
-37,
-26,
-19,
-24,
-34,
-40,
-32,
-19,
-19,
-30,
-42,
-39,
-23,
-17,
-25,
-37,
-40,
-28,
-19,
-20,
-30,
-38,
-35,
-25,
-19,
-27,
-34,
-36,
-30,
-22,
-23,
-28,
-32,
-31,
-26,
-24,
-24,
-30,
-33,
-29,
-23,
-21,
-25,
-31,
-31,
-26,
-21,
-21,
-26,
-29,
-28,
-20,
-19,
-21,
-26,
-29,
-20,
-19,
-19,
-21,
-26,
-22,
-21,
-19,
-17,
-20,
-21,
-20,
-18,
-18,
-18,
-16,
-18,
-16,
-18,
-16,
-14,
-15,
-15,
-17,
-15,
-13,
-14,
-11,
-13,
-15,
-14,
-11,
-7,
-11,
-14,
-13,
-10,
-4,
-7,
-9,
-12,
-9,
-2,
-3,
-7,
-13,
-11,
-1,
1,
-1,
-10,
-9,
-1,
2,
2,
-4,
-5,
-3,
-1,
4,
1,
-3,
-3,
2,
5,
3,
3,
3,
1,
4,
3,
7,
4,
3,
3,
6,
9,
10,
7,
4,
5,
11,
10,
9,
4,
6,
11,
13,
12,
7,
7,
12,
15,
13,
9,
10,
15,
15,
14,
12,
13,
18,
17,
15,
12,
14,
20,
21,
15,
7,
13,
23,
25,
17,
8,
12,
20,
27,
21,
12,
12,
19,
27,
25,
16,
13,
16,
24,
25,
19,
15,
17,
20,
25,
24,
19,
17,
15,
20,
25,
27,
20,
14,
16,
23,
31,
26,
16,
12,
18,
29,
31,
20,
10,
11,
25,
33,
25,
12,
9,
19,
31,
28,
16,
8,
15,
27,
29,
21,
10,
13,
23,
27,
20,
14,
14,
16,
21,
22,
16,
14,
13,
17,
19,
19,
15,
14,
14,
16,
18,
17,
15,
10,
11,
16,
17,
15,
10,
8,
12,
16,
13,
8,
8,
9,
12,
11,
9,
9,
8,
9,
10,
5,
6,
7,
10,
6,
3,
2,
5,
9,
5,
0,
0,
4,
5,
3,
-1,
-2,
1,
4,
3,
-1,
-7,
-3,
3,
2,
-2,
-9,
-8,
-1,
0,
0,
-8,
-11,
-8,
-4,
0,
-7,
-10,
-13,
-9,
-3,
-7,
-9,
-14,
-12,
-8,
-7,
-8,
-13,
-17,
-14,
-11,
-10,
-15,
