5-grundlagen-opAmps/data/ALL0034/A0034CH2.CSV

Memory Length,4000,
Trigger Level,0.00000e+00,
Source,CH2,
Probe,1.0X,
Vertical Units,V,
Vertical Scale,5.00000e-02,
Vertical Position,0.00000e+00,
Horizontal Units,S,
Horizontal Scale,2.50000e-07,
Horizontal Position,2.5000000e-07,
Horizontal Mode,Main,
Sampling Period,2.00000e-09,
Firmware,V1.14,
Time, ,
Mode,Fast,
Waveform Data,
19,
19,
19,
19,
22,
25,
23,
20,
22,
26,
30,
27,
26,
26,
30,
33,
32,
31,
29,
32,
34,
33,
33,
32,
32,
33,
37,
36,
36,
37,
37,
37,
39,
40,
42,
39,
38,
39,
41,
43,
41,
39,
41,
44,
46,
44,
42,
43,
45,
47,
48,
47,
42,
43,
47,
48,
44,
41,
45,
48,
49,
46,
43,
45,
46,
47,
48,
46,
45,
46,
47,
47,
44,
44,
47,
48,
47,
44,
46,
45,
47,
45,
43,
44,
45,
47,
46,
43,
41,
44,
47,
47,
42,
40,
42,
45,
45,
41,
39,
40,
42,
41,
41,
37,
36,
37,
39,
39,
36,
36,
34,
35,
37,
34,
35,
30,
29,
32,
34,
33,
28,
25,
28,
32,
33,
27,
23,
22,
25,
29,
28,
20,
16,
20,
27,
26,
18,
12,
15,
23,
24,
16,
11,
10,
15,
19,
14,
7,
4,
7,
12,
11,
4,
1,
4,
7,
7,
5,
2,
2,
3,
1,
1,
-1,
-2,
-4,
-6,
-5,
-5,
-7,
-8,
-10,
-10,
-7,
-6,
-9,
-12,
-13,
-9,
-9,
-14,
-19,
-20,
-15,
-15,
-20,
-22,
-24,
-21,
-19,
-21,
-25,
-25,
-22,
-21,
-24,
-28,
-31,
-27,
-25,
-29,
-35,
-34,
-31,
-28,
-33,
-38,
-37,
-33,
-30,
-33,
-38,
-40,
-38,
-35,
-36,
-41,
-44,
-42,
-38,
-39,
-44,
-45,
-45,
-41,
-41,
-42,
-46,
-45,
-46,
-47,
-45,
-46,
-47,
-47,
-48,
-47,
-48,
-46,
-48,
-49,
-49,
-48,
-46,
-47,
-51,
-51,
-50,
-47,
-47,
-52,
-54,
-52,
-49,
-48,
-51,
-54,
-53,
-50,
-48,
-51,
-53,
-53,
-50,
-51,
-50,
-52,
-53,
-51,
-51,
-51,
-52,
-51,
-49,
-49,
-49,
-50,
-49,
-46,
-49,
-50,
-50,
-49,
-47,
-46,
-48,
-50,
-49,
-45,
-44,
-45,
-47,
-47,
-44,
-42,
-42,
-45,
-47,
-43,
-39,
-40,
-41,
-42,
-41,
-38,
-35,
-36,
-38,
-40,
-39,
-34,
-32,
-33,
-36,
-38,
-33,
-31,
-31,
-31,
-32,
-32,
-27,
-25,
-25,
-27,
-31,
-28,
-24,
-21,
-23,
-26,
-27,
-23,
-17,
-17,
-21,
-25,
-22,
-13,
-12,
-16,
-20,
-20,
-13,
-7,
-11,
-14,
-15,
-11,
-3,
-2,
-6,
-10,
-7,
-3,
0,
-4,
-7,
-5,
-1,
2,
1,
1,
1,
3,
5,
7,
7,
6,
8,
9,
9,
10,
12,
11,
10,
11,
14,
12,
15,
15,
14,
18,
22,
22,
19,
18,
23,
24,
24,
23,
22,
23,
26,
27,
24,
23,
28,
31,
31,
26,
27,
31,
36,
34,
30,
29,
33,
37,
37,
33,
31,
33,
39,
42,
37,
33,
37,
41,
44,
41,
35,
37,
43,
45,
41,
40,
39,
43,
45,
45,
44,
42,
43,
45,
45,
44,
43,
43,
44,
44,
45,
47,
48,
45,
43,
45,
49,
49,
44,
42,
45,
49,
50,
49,
43,
44,
47,
50,
48,
42,
42,
47,
50,
48,
44,
44,
45,
48,
45,
45,
43,
44,
45,
43,
42,
42,
44,
44,
43,
39,
40,
44,
44,
41,
38,
38,
42,
42,
39,
35,
35,
39,
39,
38,
33,
30,
34,
37,
36,
32,
28,
31,
34,
34,
30,
27,
26,
26,
30,
29,
24,
23,
21,
25,
26,
24,
23,
19,
19,
21,
24,
20,
17,
15,
16,
20,
18,
13,
10,
11,
15,
17,
11,
5,
3,
6,
11,
9,
2,
-1,
-1,
6,
8,
3,
-4,
-2,
1,
3,
1,
-5,
-6,
-7,
-4,
-5,
-9,
-13,
-13,
-7,
-9,
-12,
-14,
-14,
-9,
-12,
-13,
-15,
-17,
-17,
-18,
-18,
-19,
-22,
-23,
-23,
-22,
-23,
-25,
-24,
-25,
-25,
-26,
-25,
-27,
-30,
-31,
-32,
-30,
-31,
-35,
-35,
-32,
-32,
-36,
-37,
-38,
-35,
-35,
-37,
-39,
-40,
-39,
-37,
-40,
-43,
-46,
-42,
-38,
-40,
-47,
-48,
-46,
-40,
-40,
-45,
-50,
-48,
-45,
-41,
-45,
-51,
-52,
-48,
-44,
-45,
-51,
-54,
-50,
-45,
-47,
-50,
-53,
-53,
-49,
-49,
-51,
-52,
-52,
-50,
-49,
-51,
-51,
-52,
-52,
-52,
-51,
-49,
-49,
-51,
-54,
-52,
-50,
-47,
-50,
-55,
-53,
-49,
-47,
-48,
-52,
-53,
-50,
-45,
-46,
-49,
-52,
-48,
-45,
-45,
-49,
-50,
-50,
-46,
-45,
-47,
-48,
-44,
-44,
-44,
-45,
-45,
-43,
-41,
-42,
-45,
-45,
-40,
-39,
-40,
-43,
-42,
-37,
-33,
-36,
-39,
-40,
-34,
-31,
-31,
-36,
-38,
-35,
-28,
-27,
-30,
-35,
-33,
-28,
-25,
-25,
-28,
-29,
-25,
-23,
-22,
-22,
-23,
-22,
-21,
-19,
-17,
-19,
-19,
-20,
-17,
-13,
-12,
-13,
-15,
-15,
-10,
-7,
-8,
-13,
-12,
-7,
0,
-2,
-6,
-8,
-6,
1,
3,
-1,
-5,
-4,
2,
6,
2,
-2,
-1,
5,
10,
10,
8,
6,
9,
13,
14,
11,
9,
12,
14,
17,
12,
13,
14,
18,
19,
19,
20,
22,
23,
24,
24,
23,
23,
25,
26,
24,
25,
26,
26,
28,
28,
29,
30,
32,
32,
33,
35,
34,
34,
34,
35,
36,
36,
33,
35,
35,
38,
41,
39,
37,
38,
41,
44,
43,
38,
38,
40,
45,
45,
41,
39,
40,
45,
47,
45,
40,
41,
45,
50,
49,
44,
40,
44,
49,
48,
44,
42,
43,
46,
48,
49,
45,
43,
47,
50,
50,
47,
45,
45,
47,
48,
45,
46,
45,
43,
45,
46,
47,
45,
42,
43,
46,
47,
44,
43,
42,
42,
45,
46,
43,
39,
39,
43,
44,
41,
37,
39,
42,
42,
39,
37,
36,
36,
38,
38,
35,
35,
35,
35,
35,
32,
33,
34,
33,
29,
28,
30,
33,
31,
26,
24,
26,
28,
28,
23,
19,
21,
25,
27,
22,
16,
15,
21,
25,
18,
12,
12,
16,
19,
17,
11,
10,
12,
14,
14,
11,
6,
6,
6,
6,
5,
3,
1,
0,
0,
1,
4,
2,
-3,
-5,
-2,
2,
1,
-6,
-10,
-8,
-5,
-5,
-10,
-15,
-14,
-10,
-7,
-11,
-17,
-19,
-13,
-8,
-14,
-19,
-21,
-17,
-15,
-19,
-25,
-27,
-24,
-21,
-22,
-27,
-29,
-27,
-22,
-22,
-28,
-32,
-30,
-27,
-28,
-34,
-35,
-35,
-32,
-35,
-35,
-38,
-36,
-37,
-36,
-37,
-39,
-39,
-38,
-39,
-40,
-41,
-41,
-41,
-44,
-43,
-42,
-42,
-44,
-47,
-45,
-44,
-42,
-47,
-48,
-48,
-45,
-44,
-47,
-51,
-52,
-47,
-44,
-46,
-52,
-55,
-50,
-46,
-45,
-52,
-55,
-54,
-48,
-47,
-49,
-56,
-56,
-50,
-48,
-48,
-53,
-57,
-53,
-48,
-48,
-51,
-55,
-54,
-50,
-49,
-49,
-53,
-54,
-52,
-48,
-48,
-49,
-52,
-53,
-49,
-46,
-47,
-47,
-49,
-49,
-48,
-46,
-46,
-47,
-49,
-49,
-45,
-44,
-44,
-45,
-47,
-44,
-41,
-42,
-41,
-44,
-44,
-41,
-39,
-39,
-42,
-40,
-40,
-36,
-37,
-38,
-37,
-36,
-35,
-34,
-35,
-32,
-33,
-32,
-32,
-32,
-31,
-27,
-29,
-29,
-31,
-28,
-24,
-23,
-26,
-27,
-25,
-20,
-19,
-21,
-25,
-23,
-18,
-13,
-17,
-21,
-21,
-16,
-9,
-8,
-14,
-14,
-11,
-8,
-6,
-9,
-12,
-10,
-7,
-4,
-5,
-7,
-4,
-2,
0,
1,
1,
3,
3,
3,
2,
6,
6,
5,
3,
5,
7,
10,
9,
7,
7,
11,
17,
18,
14,
12,
17,
19,
22,
17,
13,
18,
22,
22,
18,
17,
22,
26,
27,
26,
23,
25,
29,
31,
27,
25,
28,
33,
34,
27,
27,
30,
35,
36,
33,
32,
35,
38,
39,
38,
34,
34,
39,
41,
41,
36,
35,
38,
42,
42,
41,
41,
41,
42,
42,
44,
45,
42,
41,
43,
45,
46,
44,
42,
42,
46,
49,
49,
44,
41,
44,
51,
52,
46,
41,
43,
49,
51,
47,
42,
42,
46,
52,
49,
44,
41,
45,
51,
52,
46,
41,
42,
48,
48,
45,
43,
42,
44,
45,
46,
44,
42,
41,
43,
45,
44,
41,
40,
40,
41,
41,
43,
39,
37,
37,
40,
40,
39,
35,
35,
37,
38,
37,
35,
33,
33,
33,
35,
33,
29,
30,
30,
31,
29,
27,
28,
27,
27,
26,
25,
24,
24,
20,
21,
20,
22,
21,
20,
18,
16,
18,
19,
19,
14,
11,
13,
16,
16,
11,
8,
7,
10,
13,
8,
3,
2,
5,
7,
5,
0,
-4,
0,
3,
2,
-2,
-4,
-5,
-2,
-1,
-4,
-7,
-8,
-7,
-5,
-7,
-12,
-15,
-14,
-10,
-14,
-15,
-16,
-17,
-16,
-15,
-15,
-15,
-18,
-21,
-21,
-21,
-22,
-23,
-26,
-28,
-26,
-24,
-26,
-29,
-30,
-31,
-28,
-27,
-30,
-35,
-34,
-30,
-30,
-36,
-38,
-37,
-33,
-35,
-38,
-40,
-40,
-36,
-35,
-39,
-44,
-43,
-38,
-37,
-42,
-47,
-46,
-41,
-39,
-44,
-49,
-49,
-44,
-43,
-45,
-49,
-52,
-47,
-44,
-44,
-48,
-53,
-50,
-47,
-46,
-50,
-51,
-53,
-51,
-49,
-49,
-49,
-51,
-52,
-51,
-49,
-48,
-51,
-53,
-54,
-52,
-49,
-49,
-53,
-55,
-55,
-48,
-45,
-49,
-55,
-56,
-49,
-45,
-48,
-55,
-58,
-52,
-47,
-45,
-51,
-55,
-51,
-45,
-43,
-48,
-53,
-51,
-47,
-42,
-45,
-49,
-49,
-46,
-43,
-44,
-45,
-45,
-45,
-42,
-41,
-42,
-42,
-41,
-41,
-42,
-41,
-38,
-38,
-39,
-39,
-39,
-36,
-33,
-37,
-38,
-37,
-32,
-31,
-32,
-35,
-32,
-31,
-27,
-29,
-30,
-31,
-27,
-26,
-26,
-26,
-25,
-23,
-22,
-23,
-22,
-21,
-19,
-20,
-20,
-21,
-18,
-15,
-14,
-15,
-16,
-14,
-9,
-7,
-11,
-14,
-10,
-6,
-4,
-7,
-9,
-8,
-5,
-2,
-3,
-5,
-6,
-2,
3,
3,
2,
1,
3,
6,
8,
7,
6,
5,
8,
9,
9,
7,
7,
11,
11,
15,
16,
15,
16,
17,
19,
19,
21,
20,
19,
19,
21,
23,
22,
22,
22,
25,
27,
28,
27,
27,
28,
30,
29,
31,
30,
32,
34,
33,
32,
33,
33,
36,
36,
34,
35,
36,
39,
40,
38,
36,
38,
41,
42,
40,
36,
37,
43,
45,
43,
39,
38,
43,
48,
46,
42,
39,
43,
47,
49,
43,
40,
41,
48,
50,
47,
42,
42,
47,
49,
48,
47,
45,
45,
47,
49,
48,
45,
43,
46,
49,
49,
46,
45,
43,
45,
47,
50,
45,
42,
41,
47,
50,
47,
40,
39,
43,
47,
46,
43,
37,
39,
45,
47,
43,
36,
37,
42,
46,
42,
35,
35,
39,
41,
40,
35,
34,
36,
38,
38,
35,
32,
33,
34,
34,
30,
31,
32,
31,
27,
27,
29,
29,
28,
25,
23,
25,
26,
26,
23,
20,
20,
21,
23,
19,
17,
17,
19,
18,
16,
14,
15,
15,
14,
11,
9,
11,
10,
7,
6,
6,
8,
7,
7,
2,
3,
5,
7,
3,
-4,
-2,
0,
1,
-3,
-10,
-10,
-5,
-3,
-7,
-11,
-13,
-9,
-5,
-6,
-12,
-15,
-15,
-11,
-10,
-17,
-20,
-18,
-17,
-17,
-21,
-23,
-22,
-20,
-21,
-22,
-24,
-23,
-25,
-25,
-28,
-28,
-30,
-29,
-29,
-32,
-33,
-31,
-30,
-32,
-36,
-34,
-34,
-32,
-36,
-37,
-38,
-38,
-37,
-40,
-41,
-41,
-40,
-39,
-41,
-43,
-44,
-40,
-41,
-44,
-46,
-45,
-44,
-43,
-49,
-49,
-47,
-44,
-46,
-49,
-52,
-48,
-45,
-45,
-48,
-52,
-52,
-47,
-46,
-48,
-53,
-54,
-50,
-46,
-48,
-53,
-57,
-54,
-48,
-46,
-50,
-55,
-55,
-51,
-46,
-48,
-53,
-55,
-54,
-47,
-47,
-51,
-55,
-54,
-50,
-47,
-48,
-51,
-53,
-52,
-48,
-46,
-49,
-51,
-52,
-49,
-46,
-44,
-48,
-51,
-51,
-47,
-41,
-43,
-47,
-49,
-47,
-42,
-39,
-45,
-49,
-46,
-40,
-35,
-40,
-44,
-45,
-40,
-34,
-35,
-40,
-42,
-38,
-33,
-34,
-36,
-37,
-36,
-33,
-31,
-32,
-33,
-33,
-27,
-27,
-28,
-29,
-27,
-25,
-25,
-27,
-25,
-23,
-22,
-23,
-23,
-24,
-21,
-18,
-17,
-21,
-20,
-17,
-15,
-14,
-16,
-17,
-13,
-9,
-10,
-11,
-9,
-8,
-7,
-7,
-5,
-5,
-4,
-4,
-5,
-4,
-3,
0,
-1,
-3,
-3,
3,
8,
7,
3,
1,
8,
11,
12,
7,
5,
8,
13,
13,
11,
6,
10,
17,
19,
17,
13,
15,
21,
25,
22,
17,
19,
23,
23,
23,
22,
23,
23,
27,
26,
26,
27,
29,
32,
29,
28,
31,
33,
34,
32,
31,
34,
35,
35,
33,
33,
36,
38,
38,
38,
37,
39,
39,
41,
40,
39,
41,
42,
40,
39,
41,
42,
44,
41,
41,
44,
47,
46,
43,
42,
45,
49,
47,
45,
41,
43,
48,
51,
47,
41,
41,
47,
51,
49,
42,
42,
46,
50,
49,
46,
42,
42,
47,
50,
47,
42,
41,
45,
50,
48,
42,
42,
43,
46,
47,
45,
42,
41,
41,
45,
46,
43,
40,
39,
43,
44,
43,
41,
38,
38,
41,
44,
40,
34,
33,
38,
42,
39,
33,
30,
33,
37,
37,
35,
31,
28,
32,
35,
33,
27,
26,
28,
31,
28,
25,
22,
24,
26,
26,
24,
22,
22,
23,
21,
20,
18,
17,
18,
20,
18,
15,
14,
16,
16,
11,
11,
10,
10,
9,
7,
5,
4,
6,
8,
5,
4,
1,
3,
3,
2,
1,
-1,
0,
-3,
-3,
-5,
-5,
-8,
-8,
-8,
-8,
-8,
-11,
-11,
-12,
-10,
-9,
-10,
-16,
-18,
-17,
-13,
-13,
-20,
-24,
-24,
-19,
-18,
-24,
-27,
-27,
-21,
-20,
-24,
-28,
-30,
-26,
-23,
-28,
-33,
-35,
-32,
-29,
-31,
-36,
-37,
-35,
-32,
-35,
-37,
-38,
-35,
-37,
-38,
-40,
-41,
-39,
-39,
-41,
-44,
-44,
-41,
-41,
-42,
-46,
-46,
-42,
-42,
-45,
-48,
-48,
-46,
-46,
-46,
-49,
-50,
-47,
-48,
-46,
-48,
-49,
-48,
-49,
-48,
-50,
-48,
-49,
-51,
-53,
-53,
-49,
-49,
-53,
-55,
-54,
-47,
-47,
-50,
-57,
-55,
-47,
-45,
-47,
-55,
-57,
-51,
-45,
-45,
-54,
-59,
-54,
-47,
-45,
-49,
-56,
-54,
-47,
-43,
-47,
-52,
-55,
-49,
-44,
-44,
-48,
-51,
-50,
-44,
-44,
-44,
-46,
-46,
-45,
-44,
-41,
-42,
-45,
-45,
-43,
-40,
-38,
-40,
-44,
-42,
-37,
-34,
-36,
-38,
-41,
-36,
-30,
-29,
-35,
-38,
-36,
-30,
-29,
-29,
-33,
-33,
-27,
-24,
-27,
-30,
-31,
-25,
-22,
-22,
-25,
-24,
-21,
-19,
-19,
-20,
-20,
-19,
-17,
-15,
-17,
-17,
-15,
-13,
-12,
-13,
-14,
-11,
-8,
-8,
-7,
-7,
-6,
-4,
-4,
-3,
-4,
-4,
-1,
0,
0,
-1,
-1,
-1,
3,
5,
5,
7,
6,
8,
11,
11,
11,
10,
9,
11,
15,
14,
13,
12,
10,
15,
19,
19,
18,
16,
19,
25,
25,
23,
18,
19,
25,
27,
26,
24,
22,
26,
30,
32,
27,
27,
29,
34,
35,
33,
31,
31,
35,
36,
35,
34,
34,
37,
38,
38,
37,
38,
40,
41,
40,
39,
41,
45,
43,
39,
40,
41,
45,
44,
41,
41,
44,
47,
45,
44,
43,
45,
47,
48,
47,
43,
44,
47,
48,
47,
44,
45,
47,
46,
46,
47,
47,
47,
45,
47,
48,
49,
45,
43,
44,
47,
50,
48,
42,
42,
46,
49,
49,
43,
38,
42,
49,
50,
42,
38,
37,
45,
48,
45,
37,
35,
42,
45,
44,
38,
35,
38,
42,
42,
37,
35,
36,
37,
37,
37,
35,
34,
33,
34,
36,
33,
31,
30,
32,
29,
31,
31,
27,
25,
25,
29,
28,
23,
19,
20,
26,
26,
21,
18,
17,
21,
24,
19,
15,
12,
16,
18,
17,
12,
9,
12,
16,
14,
7,
5,
8,
10,
7,
3,
0,
4,
6,
4,
0,
-1,
0,
3,
3,
-3,
-6,
-5,
-2,
-3,
-7,
-10,
-11,
-8,
-9,
-11,
-13,
-14,
-14,
-11,
-12,
-14,
-16,
-16,
-15,
-16,
-17,
-19,
-22,
-23,
-23,
-21,
-21,
-23,
-27,
-26,
-25,
-22,
-25,
-29,
-30,
-28,
-26,
-28,
-32,
-36,
-36,
-31,
-31,
-34,
-39,
-39,
-36,
-32,
-36,
-40,
-41,
-39,
-38,
-38,
-41,
-44,
-44,
-41,
-41,
-44,
-47,
-46,
-45,
-43,
-44,
-45,
-45,
-45,
-47,
-48,
-48,
-47,
-47,
-50,
-50,
-49,
-48,
-46,
-49,
-51,
-53,
-49,
-47,
-47,
-51,
-54,
-52,
-49,
-49,
-51,
-54,
-54,
-50,
-49,
-49,
-52,
-55,
-51,
-49,
-49,
-52,
-52,
-53,
-51,
-49,
-49,
-51,
-53,
-53,
-51,
-47,
-47,
-49,
-51,
-52,
-47,
-46,
-45,
-50,
-51,
-49,
-43,
-42,
-48,
-52,
-50,
-43,
-39,
-45,
-48,
-49,
-42,
-37,
-38,
-45,
-46,
-42,
-36,
-36,
-40,
-43,
-41,
-36,
-32,
-37,
-40,
-38,
-33,
-31,
-32,
-33,
-33,
-33,
-31,
-29,
-29,
-31,
-30,
-29,
-28,
-25,
-23,
-24,
-26,
-26,
-22,
-21,
-20,
-23,
-22,
-21,
-17,
-17,
-18,
-18,
-15,
-12,
-10,
-12,
-14,
-12,
-8,
-6,
-11,
-13,
-9,
-4,
-4,
-8,
-9,
-5,
0,
1,
-1,
-3,
0,
5,
6,
3,
0,
1,
9,
9,
4,
1,
3,
10,
14,
12,
10,
10,
15,
17,
18,
15,
14,
15,
17,
18,
18,
18,
17,
19,
21,
24,
25,
25,
23,
25,
27,
31,
29,
27,
26,
27,
33,
33,
29,
27,
28,
34,
38,
35,
31,
31,
37,
42,
40,
34,
34,
38,
42,
41,
39,
35,
36,
42,
43,
41,
39,
41,
43,
45,
43,
41,
43,
45,
44,
41,
43,
45,
45,
44,
43,
44,
47,
47,
46,
44,
44,
47,
49,
48,
45,
43,
46,
48,
48,
44,
44,
45,
47,
49,
48,
45,
44,
45,
48,
48,
46,
43,
43,
46,
46,
45,
46,
43,
43,
44,
47,
47,
43,
41,
42,
45,
45,
41,
39,
37,
40,
43,
42,
37,
34,
37,
43,
43,
37,
32,
33,
37,
40,
35,
32,
28,
31,
36,
35,
31,
25,
28,
32,
34,
27,
23,
25,
27,
28,
25,
21,
20,
22,
25,
24,
19,
18,
19,
19,
20,
17,
14,
14,
15,
14,
14,
13,
12,
11,
9,
10,
9,
8,
7,
5,
5,
5,
3,
2,
0,
0,
1,
0,
-1,
-4,
-2,
-1,
-1,
-5,
-7,
-6,
-5,
-6,
-10,
-13,
-13,
-10,
-11,
-13,
-18,
-17,
-11,
-12,
-13,
-21,
-20,
-17,
-14,
-17,
-27,
-26,
-24,
-19,
-23,
-29,
-31,
-28,
-24,
-23,
-27,
-31,
-32,
-29,
-28,
-30,
-35,
-34,
-35,
-35,
-35,
-35,
-37,
-38,
-39,
-37,
-36,
-35,
-40,
-42,
-41,
-39,
-37,
-40,
-46,
-46,
-43,
-40,
-42,
-48,
-50,
-46,
-41,
-41,
-47,
-51,
-49,
-45,
-45,
-48,
-52,
-51,
-47,
-47,
-50,
-53,
-52,
-49,
-48,
-51,
-52,
-51,
-49,
-49,
-52,
-53,
-50,
-48,
-51,
-53,
-54,
-51,
-48,
-50,
-53,
-54,
-51,
-46,
-48,
-52,
-53,
-53,
-48,
-47,
-52,
-53,
-52,
-49,
-49,
-49,
-51,
-50,
-49,
-47,
-46,
-47,
-49,
-47,
-48,
-46,
-46,
-45,
-47,
-47,
-47,
-44,
-41,
-43,
-46,
-46,
-41,
-37,
-39,
-42,
-45,
-41,
-35,
-35,
-39,
-42,
-41,
-35,
-30,
-33,
-39,
-39,
-34,
-28,
-31,
-34,
-36,
-30,
-27,
-26,
-29,
-30,
-30,
-24,
-21,
-23,
-27,
-26,
-22,
-20,
-20,
-23,
-22,
-20,
-19,
-16,
-17,
-17,
-16,
-13,
-13,
-12,
-11,
-10,
-8,
-8,
-9,
-7,
-8,
-8,
-5,
-5,
-5,
-5,
-5,
-3,
0,
1,
1,
1,
3,
5,
5,
6,
4,
5,
6,
10,
7,
5,
5,
7,
12,
16,
12,
11,
13,
18,
20,
18,
15,
16,
20,
26,
23,
16,
15,
21,
26,
26,
23,
20,
26,
32,
33,
29,
24,
25,
31,
35,
33,
28,
27,
31,
35,
34,
33,
33,
35,
38,
38,
39,
38,
37,
37,
40,
40,
41,
40,
37,
38,
41,
44,
45,
42,
38,
41,
47,
48,
44,
40,
42,
47,
48,
44,
42,
41,
45,
48,
48,
45,
44,
45,
49,
49,
46,
45,
47,
48,
45,
44,
46,
48,
46,
44,
45,
47,
49,
48,
45,
44,
44,
47,
49,
44,
42,
42,
48,
48,
44,
39,
40,
45,
47,
44,
40,
39,
42,
44,
43,
40,
38,
39,
41,
40,
39,
37,
37,
37,
37,
37,
37,
36,
35,
33,
34,
36,
33,
31,
29,
29,
34,
33,
30,
24,
24,
31,
32,
28,
22,
21,
26,
30,
25,
18,
18,
20,
23,
24,
16,
14,
16,
17,
20,
15,
12,
13,
15,
16,
11,
8,
10,
11,
10,
7,
6,
5,
5,
5,
3,
1,
1,
1,
1,
-1,
-3,
-3,
-2,
-3,
-4,
-5,
-5,
-4,
-6,
-7,
-7,
-9,
-11,
-14,
-13,
-13,
-14,
-14,
-19,
-16,
-16,
-17,
-17,
-20,
-20,
-19,
-17,
-20,
-25,
-28,
-25,
-22,
-22,
-31,
-33,
-31,
-26,
-24,
-27,
-35,
-34,
-31,
-26,
-29,
-37,
-40,
-37,
-32,
-32,
-39,
-44,
-41,
-38,
-35,
-38,
-44,
-45,
-39,
-37,
-38,
-44,
-46,
-45,
-43,
-41,
-46,
-47,
-48,
-46,
-44,
-45,
-46,
-48,
-49,
-47,
-46,
-45,
-48,
-49,
-51,
-50,
-47,
-48,
-51,
-53,
-51,
-48,
-47,
-50,
-55,
-53,
-50,
-48,
-50,
-54,
-54,
-52,
-49,
-48,
-53,
-54,
-52,
-49,
-49,
-52,
-52,
-50,
-49,
-49,
-51,
-51,
-49,
-47,
-50,
-52,
-52,
-47,
-47,
-49,
-52,
-52,
-46,
-42,
-45,
-48,
-50,
-46,
-41,
-43,
-48,
-48,
-45,
-39,
-42,
-45,
-48,
-44,
-39,
-38,
-42,
-42,
-41,
-39,
-37,
-37,
-39,
-38,
-37,
-36,
-36,
-34,
-33,
-34,
-35,
-33,
-29,
-28,
-31,
-33,
-32,
-27,
-23,
-25,
-29,
-29,
-24,
-20,
-20,
-25,
-25,
-21,
-16,
-15,
-20,
-22,
-19,
-14,
-13,
-15,
-19,
-15,
-11,
-8,
-9,
-12,
-10,
-5,
-4,
-6,
-9,
-6,
-3,
-2,
-5,
-7,
-5,
0,
0,
1,
-1,
0,
6,
8,
7,
4,
5,
9,
11,
10,
7,
7,
9,
10,
12,
13,
13,
14,
15,
18,
19,
20,
18,
18,
19,
22,
25,
25,
20,
19,
21,
28,
29,
24,
20,
26,
32,
34,
31,
25,
27,
34,
38,
36,
28,
26,
33,
39,
39,
34,
30,
33,
40,
42,
39,
35,
37,
41,
44,
43,
39,
36,
39,
43,
44,
42,
40,
40,
43,
44,
45,
47,
45,
43,
45,
48,
48,
45,
43,
44,
47,
48,
46,
45,
44,
46,
49,
50,
49,
44,
44,
49,
49,
47,
44,
44,
47,
48,
47,
46,
45,
46,
46,
48,
47,
45,
44,
45,
47,
43,
43,
45,
44,
44,
41,
42,
44,
44,
41,
40,
42,
42,
43,
43,
38,
36,
39,
41,
41,
37,
33,
34,
39,
39,
35,
32,
32,
35,
36,
34,
29,
27,
31,
32,
32,
26,
26,
28,
27,
27,
25,
24,
25,
23,
24,
23,
23,
21,
19,
19,
19,
20,
19,
18,
16,
16,
17,
16,
12,
8,
10,
13,
12,
9,
3,
4,
7,
9,
4,
1,
0,
5,
5,
3,
-1,
-2,
1,
2,
-3,
-8,
-8,
-5,
-3,
-6,
-12,
-11,
-9,
-6,
-10,
-13,
-14,
-11,
-9,
-13,
-19,
-20,
-18,
-15,
-16,
-22,
-26,
-23,
-19,
-20,
-23,
-26,
-25,
-22,
-23,
-24,
-27,
-30,
-31,
-30,
-29,
-31,
-33,
-35,
-35,
-32,
-32,
-33,
-37,
-39,
-37,
-34,
-32,
-38,
-46,
-43,
-37,
-34,
-41,
-47,
-49,
-41,
-36,
-38,
-47,
-51,
-47,
-39,
-39,
-47,
-53,
-51,
-43,
-41,
-47,
-53,
-53,
-47,
-43,
-46,
-51,
-52,
-51,
-47,
-47,
-51,
-53,
-51,
-50,
-49,
-50,
-51,
-50,
-53,
-53,
-49,
-49,
-49,
-52,
-53,
-50,
-48,
-49,
-51,
-54,
-52,
-49,
-48,
-52,
-54,
-52,
-49,
-47,
-49,
-50,
-51,
-49,
-46,
-49,
-50,
-50,
-48,
-47,
-48,
-49,
-48,
-47,
-45,
-45,
-47,
-47,
-43,
-42,
-44,
-45,
-45,
-41,
-41,
-44,
-44,
-44,
-41,
-38,
-38,
-41,
-42,
-39,
-35,
-35,
-37,
-39,
-37,
-33,
-30,
-33,
-36,
-35,
-30,
-28,
-28,
-30,
-30,
-29,
-26,
-25,
-25,
-27,
-24,
-23,
-22,
-22,
-22,
-22,
-21,
-21,
-17,
-17,
-17,
-19,
-16,
-16,
-14,
-12,
-13,
-12,
-12,
-11,
-7,
-7,
-8,
-7,
-5,
-3,
-4,
-5,
-5,
-3,
-1,
-1,
-2,
-1,
1,
4,
3,
4,
5,
7,
10,
9,
8,
8,
11,
15,
13,
8,
9,
12,
16,
16,
14,
12,
17,
24,
22,
19,
17,
19,
26,
27,
22,
19,
19,
26,
28,
26,
25,
24,
26,
32,
34,
32,
28,
31,
33,
35,
35,
33,
32,
32,
35,
37,
38,
36,
33,
35,
41,
43,
40,
35,
36,
40,
46,
44,
39,
36,
39,
46,
49,
42,
37,
39,
47,
51,
46,
39,
39,
46,
52,
47,
43,
41,
44,
48,
49,
45,
42,
45,
49,
50,
47,
44,
45,
48,
47,
46,
46,
45,
46,
45,
45,
47,
46,
46,
45,
45,
44,
45,
48,
45,
42,
43,
47,
47,
42,
41,
42,
45,
44,
41,
41,
43,
44,
41,
40,
40,
42,
41,
39,
37,
36,
39,
41,
37,
33,
31,
35,
38,
34,
29,
30,
33,
36,
33,
29,
25,
28,
33,
30,
26,
22,
25,
29,
26,
24,
18,
19,
25,
23,
20,
18,
17,
18,
19,
19,
15,
14,
13,
14,
15,
12,
12,
11,
9,
10,
9,
9,
6,
