5-grundlagen-opAmps/data/ALL0069/A0069CH1.CSV

Memory Length,4000,
Trigger Level,-1.00000e+01,
Source,CH1,
Probe,1.0X,
Vertical Units,V,
Vertical Scale,5.00000e-02,
Vertical Position,0.00000e+00,
Horizontal Units,S,
Horizontal Scale,5.00000e-03,
Horizontal Position,0.0000000e+00,
Horizontal Mode,Main,
Sampling Period,2.00000e-05,
Firmware,V1.14,
Time, ,
Mode,Fast,
Waveform Data,
12,
12,
-1,
6,
18,
13,
1,
14,
1,
21,
4,
17,
4,
9,
25,
16,
16,
24,
8,
15,
27,
20,
20,
16,
29,
24,
11,
19,
32,
21,
33,
28,
16,
22,
35,
21,
36,
33,
17,
30,
30,
25,
39,
33,
20,
33,
21,
27,
42,
40,
23,
43,
25,
33,
44,
36,
36,
36,
36,
35,
46,
38,
38,
34,
47,
44,
29,
41,
41,
40,
40,
37,
50,
37,
50,
43,
31,
41,
41,
44,
33,
47,
33,
40,
52,
46,
35,
50,
34,
42,
53,
45,
45,
45,
45,
45,
45,
45,
45,
44,
55,
41,
54,
47,
36,
46,
46,
47,
47,
47,
47,
45,
56,
50,
37,
44,
55,
45,
56,
52,
37,
50,
36,
48,
36,
50,
36,
47,
36,
42,
55,
42,
55,
45,
45,
48,
33,
44,
33,
38,
51,
45,
33,
41,
41,
47,
32,
43,
43,
37,
51,
36,
48,
41,
41,
38,
49,
41,
28,
42,
26,
36,
36,
34,
34,
38,
26,
37,
25,
34,
34,
38,
22,
36,
20,
29,
41,
25,
38,
25,
37,
33,
18,
25,
36,
23,
34,
27,
15,
28,
15,
21,
32,
20,
20,
21,
21,
21,
21,
21,
9,
17,
28,
17,
17,
16,
5,
14,
3,
14,
3,
16,
2,
11,
11,
9,
9,
1,
18,
5,
16,
12,
-4,
1,
13,
5,
-7,
0,
0,
-1,
-1,
4,
-11,
-5,
7,
-4,
-4,
-4,
-4,
-5,
-16,
-10,
3,
-5,
-18,
-14,
-1,
-15,
0,
-11,
-11,
-15,
-3,
-15,
-15,
-11,
-24,
-19,
-8,
-18,
-18,
-20,
-9,
-15,
-30,
-26,
-12,
-25,
-13,
-19,
-33,
-28,
-15,
-25,
-25,
-20,
-36,
-27,
-27,
-31,
-19,
-34,
-21,
-26,
-40,
-37,
-23,
-32,
-44,
-32,
-43,
-35,
-35,
-43,
-28,
-38,
-38,
-36,
-48,
-32,
-48,
-34,
-51,
-35,
-49,
-42,
-42,
-43,
-43,
-45,
-34,
-37,
-54,
-47,
-34,
-40,
-55,
-44,
-56,
-43,
-56,
-45,
-56,
-44,
-57,
-48,
-59,
-48,
-48,
-49,
-38,
-43,
-59,
-49,
-49,
-52,
-41,
-50,
-50,
-54,
-42,
-48,
-59,
-49,
-61,
-52,
-52,
-56,
-43,
-51,
-51,
-47,
-61,
-52,
-63,
-46,
-63,
-47,
-62,
-50,
-61,
-60,
-42,
-55,
-42,
-55,
-43,
-58,
-43,
-48,
-62,
-49,
-61,
-53,
-42,
-48,
-60,
-44,
-61,
-50,
-61,
-52,
-40,
-47,
-61,
-49,
-49,
-49,
-38,
-45,
-59,
-44,
-60,
-47,
-47,
-54,
-39,
-42,
-57,
-42,
-55,
-51,
-36,
-44,
-55,
-43,
-54,
-49,
-35,
-44,
-33,
-42,
-42,
-41,
-41,
-43,
-30,
-40,
-40,
-40,
-28,
-44,
-29,
-38,
-38,
-38,
-27,
-43,
-27,
-40,
-24,
-30,
-43,
-38,
-22,
-35,
-23,
-32,
-21,
-27,
-27,
-27,
-38,
-28,
-17,
-30,
-18,
-21,
-34,
-21,
-33,
-24,
-13,
-19,
-32,
-17,
-31,
-20,
-9,
-17,
-17,
-17,
-17,
-12,
-24,
-21,
-4,
-14,
-3,
-13,
-13,
-8,
-20,
-14,
0,
-7,
-7,
-10,
4,
-8,
3,
-8,
5,
2,
-12,
-4,
8,
-2,
-2,
-4,
10,
0,
12,
4,
4,
8,
-4,
8,
-3,
5,
16,
4,
18,
11,
0,
1,
19,
12,
12,
17,
1,
17,
3,
15,
15,
19,
6,
20,
8,
17,
28,
23,
11,
17,
31,
21,
21,
20,
33,
17,
34,
26,
26,
23,
35,
27,
27,
30,
18,
25,
37,
25,
39,
36,
20,
29,
41,
24,
41,
35,
23,
31,
44,
39,
24,
34,
45,
37,
37,
37,
37,
33,
48,
41,
29,
45,
29,
39,
39,
41,
41,
48,
32,
40,
52,
44,
33,
41,
52,
39,
53,
47,
35,
44,
44,
41,
54,
49,
37,
45,
45,
46,
46,
52,
35,
44,
44,
47,
47,
45,
45,
51,
37,
43,
54,
47,
36,
49,
37,
48,
37,
53,
36,
48,
37,
41,
56,
51,
36,
40,
56,
48,
36,
45,
45,
41,
55,
49,
35,
43,
43,
40,
54,
45,
45,
48,
35,
52,
34,
41,
53,
42,
42,
39,
51,
48,
32,
40,
40,
44,
31,
39,
39,
37,
49,
45,
28,
40,
29,
36,
36,
30,
45,
35,
35,
33,
44,
28,
43,
33,
33,
29,
41,
35,
20,
35,
21,
36,
21,
39,
20,
27,
27,
24,
36,
24,
35,
17,
34,
25,
13,
24,
12,
19,
31,
16,
28,
12,
29,
17,
28,
15,
15,
22,
7,
16,
4,
17,
2,
16,
3,
5,
20,
8,
19,
10,
10,
10,
-3,
7,
7,
9,
-5,
8,
-5,
6,
-6,
7,
-8,
-5,
8,
1,
-11,
-1,
-13,
-7,
5,
-2,
-15,
-5,
-16,
-6,
-17,
-9,
-9,
-7,
-19,
-11,
-11,
-7,
-22,
-12,
-12,
-16,
-4,
-16,
-5,
-9,
-27,
-20,
-9,
-15,
-28,
-22,
-10,
-22,
-22,
-17,
-32,
-24,
-24,
-19,
-34,
-21,
-34,
-28,
-28,
-27,
-27,
-28,
-28,
-29,
-29,
-33,
-21,
-31,
-42,
-36,
-24,
-37,
-24,
-39,
-26,
-38,
-27,
-35,
-46,
-36,
-48,
-38,
-38,
-41,
-41,
-38,
-51,
-36,
-50,
-36,
-52,
-44,
-33,
-40,
-53,
-46,
-35,
-41,
-55,
-52,
-36,
-47,
-36,
-43,
-56,
-46,
-46,
-49,
-49,
-45,
-57,
-37,
-60,
-53,
-40,
-51,
-40,
-52,
-40,
-57,
-40,
-49,
-60,
-52,
-52,
-53,
-42,
-47,
-61,
-53,
-41,
-52,
-52,
-51,
-51,
-50,
-63,
-53,
-41,
-53,
-53,
-58,
-42,
-54,
-43,
-53,
-53,
-50,
-62,
-53,
-53,
-54,
-43,
-50,
-61,
-47,
-60,
-55,
-41,
-50,
-50,
-54,
-40,
-48,
-60,
-47,
-59,
-53,
-41,
-55,
-40,
-50,
-50,
-49,
-37,
-54,
-38,
-47,
-47,
-47,
-47,
-47,
-36,
-46,
-35,
-48,
-36,
-46,
-46,
-41,
-54,
-44,
-33,
-41,
-52,
-40,
-51,
-40,
-40,
-44,
-31,
-32,
-47,
-38,
-27,
-37,
-37,
-33,
-46,
-32,
-46,
-31,
-44,
-39,
-24,
-33,
-33,
-29,
-40,
-33,
-20,
-23,
-40,
-29,
-29,
-32,
-17,
-30,
-17,
-22,
-35,
-23,
-23,
-27,
-13,
-20,
-31,
-20,
-20,
-23,
-11,
-18,
-18,
-17,
-17,
-10,
-24,
-14,
-14,
-17,
-4,
-13,
-13,
-13,
-1,
-10,
-10,
-13,
2,
-11,
3,
-3,
-16,
-4,
-4,
-8,
6,
0,
-11,
1,
-10,
4,
-9,
-5,
12,
4,
-7,
5,
5,
-4,
13,
0,
16,
13,
-1,
9,
9,
13,
0,
10,
21,
11,
22,
6,
22,
15,
15,
16,
16,
19,
7,
13,
27,
15,
27,
13,
29,
16,
31,
22,
22,
24,
13,
16,
33,
21,
34,
27,
16,
32,
18,
30,
19,
29,
41,
35,
21,
30,
30,
31,
31,
39,
23,
37,
25,
32,
44,
35,
35,
36,
47,
41,
26,
37,
48,
34,
49,
39,
39,
49,
30,
42,
31,
35,
49,
43,
31,
41,
52,
42,
42,
44,
44,
42,
42,
41,
54,
44,
44,
48,
35,
43,
43,
43,
55,
46,
35,
51,
36,
41,
55,
43,
55,
49,
36,
43,
57,
41,
56,
48,
37,
46,
46,
43,
55,
53,
38,
45,
45,
43,
55,
44,
55,
40,
55,
40,
55,
47,
47,
48,
36,
46,
34,
43,
43,
44,
44,
45,
33,
45,
34,
44,
44,
47,
33,
43,
43,
44,
31,
33,
51,
37,
49,
39,
39,
41,
28,
32,
47,
31,
47,
41,
28,
40,
25,
37,
26,
31,
44,
33,
44,
36,
24,
34,
21,
30,
30,
28,
40,
27,
38,
24,
37,
28,
28,
28,
17,
29,
17,
25,
25,
23,
23,
22,
22,
23,
11,
20,
20,
17,
28,
16,
27,
19,
6,
16,
16,
10,
24,
5,
22,
12,
12,
10,
21,
11,
0,
11,
-1,
15,
-1,
5,
16,
9,
-4,
2,
2,
8,
-7,
5,
-8,
9,
-9,
1,
-12,
-1,
-1,
-7,
5,
-4,
-4,
-6,
-17,
-5,
-16,
-7,
-18,
-6,
-20,
-4,
-21,
-17,
-2,
-12,
-23,
-14,
-14,
-20,
-6,
-13,
-25,
-13,
-27,
-16,
-28,
-18,
-29,
-20,
-31,
-21,
-32,
-17,
-34,
-31,
-15,
-33,
-16,
-28,
-28,
-23,
-36,
-32,
-19,
-33,
-21,
-27,
-42,
-26,
-41,
-29,
-43,
-35,
-35,
-33,
-44,
-37,
-37,
-32,
-48,
-35,
-46,
-37,
-48,
-35,
-50,
-41,
-41,
-41,
-41,
-45,
-31,
-47,
-35,
-44,
-44,
-45,
-45,
-43,
-43,
-45,
-45,
-49,
-36,
-43,
-56,
-42,
-56,
-51,
-39,
-50,
-50,
-40,
-58,
-47,
-58,
-51,
-40,
-46,
-59,
-45,
-59,
-53,
-40,
-53,
-42,
-50,
-50,
-56,
-41,
-49,
-61,
-47,
-60,
-51,
-51,
-48,
-61,
-55,
-43,
-49,
-61,
-53,
-53,
-52,
-52,
-53,
-42,
-52,
-63,
-51,
-51,
-49,
-61,
-52,
-52,
-55,
-42,
-52,
-52,
-49,
-49,
-49,
-49,
-53,
-40,
-52,
-41,
-50,
-50,
-51,
-39,
-44,
-56,
-50,
-39,
-47,
-47,
-49,
-37,
-39,
-56,
-47,
-36,
-45,
-45,
-47,
-35,
-45,
-45,
-44,
-55,
-48,
-34,
-42,
-42,
-41,
-41,
-36,
-50,
-43,
-30,
-38,
-49,
-40,
-29,
-39,
-39,
-41,
-25,
-40,
-25,
-36,
-24,
-34,
-34,
-32,
-32,
-29,
-42,
-32,
-19,
-29,
-29,
-30,
-18,
-28,
-17,
-27,
-27,
-20,
-35,
-23,
-35,
-17,
-32,
-19,
-31,
-17,
-29,
-27,
-10,
-24,
-8,
-13,
-28,
-12,
-25,
-15,
-3,
-17,
-5,
-13,
-13,
-13,
-1,
-16,
1,
-8,
-19,
-5,
-16,
-4,
-16,
-7,
4,
-8,
6,
3,
-11,
-2,
-2,
5,
-10,
0,
11,
-2,
13,
3,
3,
10,
-3,
11,
-2,
9,
-4,
10,
-1,
7,
20,
10,
21,
5,
21,
15,
4,
14,
14,
20,
5,
19,
8,
24,
8,
19,
19,
20,
20,
27,
13,
31,
14,
18,
32,
26,
15,
25,
25,
24,
37,
21,
37,
29,
29,
27,
39,
30,
30,
28,
40,
29,
42,
34,
34,
30,
43,
37,
25,
37,
37,
39,
27,
35,
47,
38,
38,
43,
29,
36,
48,
44,
30,
47,
31,
40,
40,
37,
51,
39,
52,
44,
33,
52,
33,
40,
52,
45,
34,
44,
44,
53,
35,
48,
35,
43,
55,
44,
55,
44,
55,
51,
35,
45,
45,
44,
56,
50,
36,
45,
56,
51,
38,
53,
37,
49,
37,
45,
56,
40,
56,
47,
47,
50,
37,
48,
37,
49,
36,
44,
56,
52,
36,
40,
53,
45,
45,
41,
52,
41,
54,
43,
43,
45,
33,
45,
33,
39,
51,
47,
32,
33,
50,
42,
30,
41,
41,
33,
48,
38,
38,
32,
48,
41,
28,
39,
28,
37,
26,
34,
34,
33,
44,
29,
42,
33,
44,
29,
41,
29,
40,
31,
31,
27,
27,
28,
28,
24,
36,
19,
35,
28,
15,
29,
13,
30,
13,
20,
32,
17,
31,
23,
8,
21,
9,
21,
8,
16,
27,
15,
15,
16,
4,
13,
13,
14,
2,
14,
-1,
7,
7,
5,
16,
13,
-1,
0,
15,
3,
14,
9,
-6,
5,
-8,
-4,
9,
3,
-11,
-1,
-1,
3,
-14,
-4,
-15,
-9,
4,
-5,
-16,
-11,
0,
-7,
-19,
-7,
-21,
-9,
-22,
-15,
-4,
-12,
-23,
-12,
-25,
-15,
-26,
-12,
-28,
-17,
-29,
-23,
-12,
-24,
-12,
-16,
-33,
-21,
-33,
-23,
-34,
-23,
-35,
-21,
-35,
-26,
-39,
-34,
-20,
-24,
-38,
-29,
-40,
-31,
-42,
-36,
-23,
-29,
-45,
-40,
-27,
-33,
-45,
-35,
-47,
-37,
-37,
-43,
-30,
-36,
-49,
-39,
-39,
-40,
-40,
-44,
-32,
-45,
-34,
-41,
-53,
-41,
-53,
-43,
-43,
-47,
-35,
-47,
-36,
-43,
-56,
-49,
-37,
-56,
-37,
-48,
-37,
-50,
-39,
-51,
-40,
-47,
-59,
-51,
-51,
-48,
-59,
-53,
-41,
-53,
-42,
-56,
-41,
-56,
-43,
-50,
-63,
-50,
-63,
-48,
-60,
-55,
-44,
-52,
-52,
-54,
-43,
-48,
-62,
-49,
-61,
-60,
-43,
-54,
-42,
-53,
-42,
-51,
-62,
-46,
-60,
-58,
-43,
-52,
-52,
-48,
-60,
-52,
-41,
-49,
-49,
-52,
-41,
-55,
-39,
-47,
-59,
-47,
-58,
-54,
-39,
-47,
-47,
-51,
-38,
-44,
-55,
-48,
-36,
-47,
-35,
-37,
-55,
-45,
-45,
-43,
-43,
-43,
-43,
-39,
-50,
-38,
-51,
-46,
-31,
-43,
-29,
-39,
-39,
-34,
-48,
-40,
-28,
-32,
-45,
-35,
-24,
-33,
-33,
-36,
-25,
-31,
-43,
-32,
-21,
-27,
-39,
-39,
-19,
-28,
-28,
-22,
-37,
-30,
-17,
-28,
-16,
-20,
-34,
-21,
-33,
-27,
-13,
-26,
-12,
-19,
-19,
-18,
-18,
-20,
-8,
-16,
-5,
-15,
-15,
-9,
-24,
-12,
-12,
-13,
-2,
-14,
0,
-6,
-19,
-14,
2,
-9,
4,
-5,
-5,
-8,
5,
1,
-13,
1,
-10,
-6,
11,
2,
2,
3,
3,
3,
3,
5,
5,
10,
-2,
4,
17,
6,
17,
13,
2,
13,
13,
8,
23,
13,
13,
10,
25,
11,
25,
11,
27,
20,
9,
20,
20,
12,
29,
14,
30,
13,
32,
19,
32,
29,
15,
23,
36,
28,
15,
23,
37,
29,
18,
31,
31,
30,
30,
32,
32,
36,
22,
32,
44,
36,
24,
33,
45,
33,
45,
33,
45,
41,
27,
37,
37,
43,
29,
37,
51,
33,
50,
38,
50,
37,
49,
36,
51,
41,
41,
40,
52,
45,
34,
44,
33,
45,
33,
45,
45,
47,
35,
43,
54,
48,
35,
46,
46,
48,
36,
47,
36,
48,
37,
46,
46,
43,
55,
48,
37,
49,
37,
47,
47,
43,
55,
41,
56,
52,
36,
45,
45,
49,
36,
48,
37,
47,
47,
49,
36,
45,
45,
47,
35,
49,
34,
45,
45,
41,
53,
42,
42,
40,
52,
44,
44,
37,
53,
39,
52,
41,
30,
43,
31,
39,
39,
41,
29,
38,
38,
45,
30,
33,
47,
37,
37,
29,
44,
39,
25,
29,
43,
28,
42,
26,
43,
32,
32,
27,
40,
34,
20,
23,
38,
26,
37,
33,
17,
29,
16,
19,
33,
24,
24,
23,
23,
23,
23,
21,
21,
20,
20,
23,
9,
23,
8,
18,
18,
16,
16,
17,
5,
14,
3,
14,
2,
9,
20,
8,
8,
9,
-2,
9,
-3,
0,
15,
9,
-6,
1,
1,
-5,
11,
-1,
-1,
4,
-11,
1,
-11,
1,
-12,
3,
-14,
-3,
-15,
-11,
3,
-8,
-8,
-13,
0,
-9,
-20,
-14,
-3,
-7,
-23,
-11,
-24,
-17,
-5,
-12,
-27,
-21,
-9,
-19,
-19,
-22,
-11,
-19,
-30,
-17,
-32,
-23,
-23,
-26,
-26,
-22,
-35,
-31,
-18,
-25,
-37,
-28,
-28,
-36,
-21,
-28,
-41,
-27,
-42,
-30,
-43,
-36,
-36,
-30,
-44,
-41,
-27,
-40,
-27,
-33,
-46,
-42,
-28,
-42,
-30,
-40,
-29,
-39,
-39,
-43,
-31,
-39,
-51,
-40,
-52,
-41,
-53,
-51,
-35,
-45,
-56,
-48,
-36,
-47,
-47,
-42,
-55,
-48,
-37,
-51,
-36,
-47,
-58,
-47,
-60,
-53,
-41,
-55,
-39,
-50,
-50,
-47,
-59,
-49,
-62,
-45,
-61,
-45,
-60,
-53,
-42,
-48,
-60,
-55,
-43,
-50,
-61,
-48,
-60,
-52,
-52,
-44,
-61,
-49,
-62,
-56,
-43,
-58,
-43,
-57,
-43,
-51,
-51,
-49,
-61,
-52,
-52,
-58,
-42,
-59,
-40,
-49,
-60,
-45,
-59,
-48,
-59,
-48,
-59,
-55,
-41,
-49,
-49,
-49,
-38,
-45,
-56,
-51,
-37,
-44,
-56,
-49,
-37,
-47,
-35,
-49,
-36,
-47,
-35,
-39,
-53,
-43,
-32,
-44,
-33,
-37,
-49,
-37,
-49,
-37,
-48,
-43,
-30,
-46,
-28,
-32,
-47,
-33,
-44,
-37,
-26,
-27,
-43,
-36,
-25,
-29,
-43,
-31,
-42,
-26,
-41,
-36,
-20,
-27,
-38,
-21,
-37,
-24,
-35,
-23,
-34,
-26,
-14,
-20,
-32,
-25,
-13,
-23,
-11,
-20,
-20,
-15,
-28,
-14,
-25,
-24,
-7,
-13,
-24,
-13,
-13,
-15,
-3,
-15,
-2,
-9,
-9,
-2,
-18,
-10,
3,
-5,
-16,
-4,
-15,
1,
-13,
-7,
7,
-5,
8,
-1,
11,
1,
1,
3,
-8,
6,
-5,
7,
7,
8,
8,
3,
17,
8,
8,
4,
19,
13,
0,
13,
13,
15,
4,
8,
25,
11,
25,
15,
27,
19,
8,
19,
19,
15,
28,
17,
29,
17,
33,
17,
33,
23,
23,
27,
16,
32,
16,
25,
37,
34,
19,
28,
40,
33,
21,
30,
30,
30,
41,
36,
25,
36,
24,
36,
25,
40,
26,
34,
46,
35,
35,
37,
37,
35,
49,
41,
30,
45,
31,
33,
51,
37,
49,
40,
40,
40,
51,
47,
31,
40,
51,
36,
53,
53,
34,
46,
35,
44,
44,
47,
36,
48,
36,
48,
36,
45,
45,
47,
35,
41,
57,
45,
45,
42,
56,
40,
55,
38,
54,
44,
44,
44,
56,
50,
36,
41,
56,
37,
55,
43,
55,
41,
54,
47,
35,
51,
36,
41,
54,
40,
53,
41,
53,
50,
34,
48,
34,
44,
33,
52,
35,
47,
33,
37,
50,
41,
52,
41,
30,
43,
31,
41,
30,
41,
41,
37,
37,
47,
27,
41,
28,
37,
26,
34,
34,
29,
43,
36,
24,
33,
33,
32,
32,
32,
32,
33,
21,
36,
20,
31,
20,
30,
17,
24,
35,
31,
17,
29,
16,
21,
33,
27,
12,
15,
30,
21,
21,
23,
10,
18,
18,
12,
26,
13,
24,
19,
5,
18,
3,
9,
20,
4,
19,
8,
8,
7,
7,
4,
18,
-2,
16,
1,
13,
5,
5,
5,
-6,
-1,
11,
4,
-9,
-1,
-1,
-4,
7,
-1,
-12,
-2,
-15,
-7,
-7,
-6,
-6,
-2,
-17,
-3,
-19,
-12,
-1,
-10,
-21,
-13,
-24,
-8,
-26,
-24,
-7,
-25,
-7,
-19,
-8,
-16,
-29,
-20,
-20,
-25,
-12,
-23,
-23,
-28,
-15,
-25,
-25,
-25,
-36,
-22,
-36,
-33,
-19,
-32,
-19,
-31,
-31,
-33,
-21,
-29,
-41,
-32,
-43,
-29,
-44,
-42,
-27,
-33,
-46,
-38,
-38,
-39,
-39,
-37,
-48,
-38,
-49,
-36,
-48,
-39,
-50,
-39,
-52,
-40,
-53,
-43,
-43,
-47,
-35,
-40,
-53,
-44,
-55,
-51,
-36,
-43,
-55,
-47,
-47,
-46,
-57,
-49,
-49,
-51,
-40,
-51,
-39,
-45,
-59,
-47,
-59,
-46,
-59,
-53,
-40,
-54,
-42,
-48,
-61,
-46,
-61,
-47,
-61,
-47,
-61,
-49,
-62,
-53,
-53,
-57,
-43,
-55,
-43,
-49,
-61,
-54,
-43,
-52,
-52,
-49,
-63,
-48,
-62,
-48,
-60,
-47,
-61,
-51,
-51,
-48,
-59,
-55,
-42,
-46,
-62,
-47,
-59,
-53,
-40,
-54,
-41,
-43,
-58,
-47,
-47,
-49,
-49,
-42,
-58,
-51,
-39,
-39,
-56,
-48,
-36,
-44,
-55,
-46,
-46,
-39,
-53,
-36,
-52,
-41,
-52,
-41,
-41,
-33,
-49,
-37,
-49,
-41,
-30,
-37,
-49,
-39,
-39,
-36,
-47,
-33,
-47,
-35,
-35,
-37,
-26,
-41,
-24,
-29,
-43,
-31,
-31,
-31,
-20,
-32,
-20,
-29,
-18,
-26,
-37,
-25,
-25,
-29,
-15,
-28,
-15,
-21,
-32,
-28,
-11,
-22,
-10,
-19,
-19,
-19,
-8,
-19,
-8,
-10,
-24,
-19,
-5,
-16,
-4,
-10,
-23,
-18,
-2,
-8,
-19,
-4,
-18,
-11,
3,
-9,
3,
-4,
-4,
-8,
7,
-4,
7,
3,
-10,
-3,
9,
-2,
11,
6,
-6,
-4,
13,
9,
-4,
3,
17,
-1,
17,
8,
8,
13,
0,
8,
21,
12,
12,
14,
3,
15,
15,
16,
16,
23,
8,
22,
9,
13,
29,
19,
19,
19,
31,
22,
22,
28,
14,
24,
24,
30,
15,
19,
37,
28,
28,
28,
28,
33,
20,
28,
28,
25,
40,
35,
23,
33,
33,
37,
24,
37,
24,
37,
25,
31,
44,
34,
46,
38,
38,
40,
40,
42,
31,
37,
49,
37,
49,
45,
32,
41,
41,
42,
42,
40,
52,
40,
53,
42,
53,
46,
46,
41,
54,
46,
35,
38,
54,
40,
54,
48,
36,
44,
55,
44,
56,
46,
46,
44,
56,
41,
56,
49,
37,
47,
47,
48,
37,
46,
46,
44,
56,
51,
36,
43,
55,
48,
36,
41,
55,
52,
36,
47,
36,
52,
35,
43,
54,
40,
54,
44,
44,
44,
44,
39,
53,
49,
33,
43,
32,
36,
53,
43,
32,
44,
31,
39,
50,
41,
29,
43,
31,
39,
39,
33,
47,
38,
38,
36,
36,
41,
27,
33,
44,
38,
24,
30,
41,
29,
43,
33,
22,
32,
19,
27,
27,
31,
20,
21,
38,
26,
37,
29,
16,
33,
15,
31,
15,
22,
22,
25,
12,
22,
10,
22,
10,
26,
8,
22,
8,
13,
25,
13,
25,
15,
3,
9,
20,
7,
20,
7,
18,
12,
0,
6,
18,
8,
8,
6,
6,
2,
13,
3,
3,
0,
11,
1,
1,
-1,
-1,
-4,
-4,
2,
-12,
-5,
-5,
-9,
4,
-7,
-7,
-15,
-1,
-8,
-19,
-10,
-21,
-11,
-11,
-15,
-4,
-13,
-24,
-15,
-15,
-19,
-8,
-20,
-7,
-21,
-8,
-21,
-21,
-22,
-22,
-20,
-34,
-19,
-33,
-19,
-35,
-24,
-24,
-26,
-37,
-24,
-37,
-24,
-39,
-31,
-31,
-22,
-41,
-34,
-23,
-33,
-44,
-30,
-44,
-36,
-25,
-29,
-44,
-35,
-35,
-40,
-28,
-33,
-48,
-43,
-30,
-35,
-50,
-46,
-31,
-47,
-32,
-35,
-52,
-47,
-35,
-44,
-55,
-41,
-56,
-49,
-35,
-43,
-55,
-47,
-47,
-47,
-47,
-44,
-57,
-52,
-37,
-45,
-57,
-50,
-50,
-46,
-60,
-46,
-59,
-44,
-59,
-48,
-60,
-54,
-40,
-47,
-61,
-45,
-63,
-54,
-43,
-48,
-60,
-53,
-42,
-50,
-61,
-46,
-61,
-55,
-43,
-54,
-43,
-53,
-53,
-48,
-63,
-51,
-51,
-60,
-42,
-47,
-61,
-51,
-63,
-47,
-60,
-48,
-61,
-54,
-43,
-59,
-40,
-57,
-40,
-49,
-49,
-50,
-38,
-47,
-59,
-47,
-47,
-45,
-56,
-45,
-58,
-49,
-37,
-49,
-36,
-48,
-36,
-49,
-35,
-44,
-55,
-48,
-35,
-47,
-35,
-41,
-52,
-47,
-33,
-46,
-32,
-36,
-49,
-43,
-29,
-33,
-48,
-37,
-37,
-39,
-28,
-34,
-46,
-31,
-44,
-37,
-24,
-31,
-43,
-31,
-42,
-31,
-31,
-25,
-40,
-35,
-20,
-32,
-17,
-35,
-16,
-31,
-16,
-27,
-15,
-24,
-24,
-27,
-13,
-20,
-20,
-22,
-22,
-17,
-30,
-19,
-8,
-16,
-27,
-14,
-26,
-13,
-25,
-11,
-23,
-4,
-22,
-14,
-2,
-6,
-19,
-4,
-16,
-9,
3,
-10,
4,
-1,
-14,
2,
-12,
-5,
7,
1,
-11,
3,
-9,
6,
-9,
4,
-8,
3,
3,
5,
5,
10,
-3,
11,
-3,
5,
17,
14,
1,
5,
21,
15,
4,
18,
3,
16,
5,
15,
27,
9,
26,
21,
9,
19,
19,
14,
30,
29,
12,
20,
32,
28,
14,
17,
34,
24,
35,
22,
36,
24,
37,
29,
29,
25,
38,
27,
40,
32,
32,
38,
22,
27,
42,
35,
24,
35,
35,
34,
34,
35,
35,
40,
28,
35,
47,
37,
48,
48,
31,
33,
48,
45,
32,
37,
49,
42,
42,
40,
51,
43,
32,
44,
33,
43,
43,
40,
52,
40,
55,
48,
35,
45,
45,
43,
55,
45,
34,
44,
44,
47,
36,
49,
36,
46,
46,
41,
55,
51,
36,
41,
54,
49,
36,
43,
56,
46,
46,
40,
55,
52,
37,
51,
37,
44,
55,
50,
36,
40,
55,
49,
34,
44,
44,
46,
35,
39,
53,
49,
34,
47,
33,
42,
42,
43,
43,
47,
32,
43,
31,
34,
49,
33,
49,
35,
48,
40,
29,
32,
48,
43,
28,
33,
47,
33,
45,
37,
26,
39,
24,
34,
23,
31,
43,
29,
41,
40,
22,
30,
30,
29,
29,
30,
17,
32,
17,
19,
36,
28,
15,
28,
16,
27,
14,
24,
12,
22,
22,
24,
9,
21,
21,
18,
18,
16,
27,
20,
6,
12,
24,
9,
23,
16,
3,
14,
3,
8,
19,
3,
18,
5,
18,
12,
-3,
6,
6,
8,
-6,
-1,
12,
8,
-8,
1,
1,
4,
-11,
-2,
-2,
-4,
-4,
-7,
4,
-3,
-14,
-4,
-16,
-9,
-9,
-15,
0,
-9,
-22,
-11,
-22,
-7,
-23,
-16,
-5,
-13,
-25,
-15,
-27,
-21,
-8,
-21,
-10,
-23,
-11,
-23,
-11,
-21,
-21,
-23,
-23,
-23,
-35,
-27,
-16,
-29,
-17,
-22,
-38,
-27,
-39,
-28,
-39,
-29,
-40,
-29,
-41,
-37,
-23,
-39,
-24,
-31,
-45,
-36,
-48,
-29,
-46,
-36,
-36,
-39,
-28,
-39,
-39,
-34,
-50,
-34,
-49,
-46,
-33,
-42,
-42,
-40,
-52,
-45,
-34,
-44,
-44,
-43,
-43,
-41,
-55,
-47,
-47,
-51,
-37,
-51,
-38,
-51,
-40,
-49,
-49,
-49,
-49,
-49,
-49,
-45,
-59,
-48,
-61,
-50,
-50,
-51,
-51,
-47,
-60,
-51,
-51,
-54,
-42,
-46,
-61,
-52,
-52,
-52,
-52,
-56,
-42,
-48,
-61,
-57,
-42,
-49,
-60,
-47,
-60,
-52,
-52,
-48,
-61,
-55,
-41,
-48,
-62,
-50,
-50,
-51,
-51,
-49,
-49,
-49,
-49,
-50,
-50,
-58,
-41,
-55,
-41,
-52,
-39,
-48,
-48,
-42,
-58,
-47,
-47,
-51,
-39,
-41,
-56,
-49,
-36,
-47,
-35,
-42,
-54,
-45,
-34,
-43,
-43,
-44,
-33,
-48,
-32,
-45,
-33,
-35,
-49,
-39,
-39,
-36,
-49,
-38,
-38,
-32,
-47,
-40,
-28,
-32,
-45,
-40,
-25,
-34,
-34,
-36,
-21,
-32,
-21,
-27,
-41,
-29,
-29,
-36,
-17,
-32,
-17,
-29,
-17,
-30,
-16,
-23,
-35,
-19,
-31,
-23,
-23,
-21,
-21,
-16,
-29,
-22,
-8,
-20,
-8,
-21,
-5,
-12,
-24,
-9,
-24,
-11,
-22,
-13,
-13,
-5,
-19,
-5,
-17,
-8,
-8,
-13,
3,
-6,
5,
-2,
-2,
-1,
-1,
4,
-11,
-9,
9,
-2,
12,
7,
-7,
-4,
13,
10,
-4,
7,
