4-transistorverstaerker/data/ALL0054/A0054CH1.CSV

Memory Length,4000,
Trigger Level,3.80000e+01,
Source,CH1,
Probe,1.0X,
Vertical Units,V,
Vertical Scale,5.00000e-02,
Vertical Position,6.00000e-03,
Horizontal Units,S,
Horizontal Scale,5.00000e-07,
Horizontal Position,-6.8000000e-07,
Horizontal Mode,Main,
Sampling Period,2.00000e-09,
Firmware,V1.14,
Time, ,
Mode,Fast,
Waveform Data,
9,
9,
9,
9,
10,
11,
10,
10,
11,
12,
12,
11,
11,
11,
12,
12,
14,
14,
14,
14,
15,
15,
15,
14,
16,
17,
16,
16,
16,
17,
17,
17,
16,
17,
17,
18,
18,
18,
17,
18,
19,
20,
19,
19,
18,
18,
21,
22,
21,
20,
21,
22,
21,
22,
22,
22,
21,
20,
22,
23,
22,
21,
22,
23,
23,
23,
21,
22,
22,
22,
23,
23,
22,
22,
25,
25,
22,
22,
21,
22,
23,
23,
22,
22,
22,
24,
24,
25,
22,
21,
22,
23,
22,
22,
21,
23,
22,
23,
21,
22,
21,
21,
21,
20,
21,
21,
21,
22,
20,
19,
21,
22,
20,
20,
19,
19,
19,
20,
18,
19,
18,
18,
18,
18,
17,
18,
17,
17,
16,
16,
16,
17,
16,
16,
15,
14,
15,
15,
15,
14,
13,
14,
13,
13,
13,
14,
13,
12,
11,
12,
11,
11,
10,
11,
9,
10,
9,
9,
7,
7,
8,
9,
7,
6,
7,
8,
7,
6,
4,
4,
5,
5,
4,
4,
2,
2,
2,
2,
1,
1,
1,
2,
1,
1,
-1,
0,
-2,
-2,
-2,
-2,
-3,
-3,
-3,
-3,
-4,
-3,
-6,
-6,
-6,
-5,
-6,
-7,
-7,
-6,
-6,
-5,
-9,
-9,
-10,
-9,
-9,
-10,
-11,
-11,
-12,
-12,
-11,
-12,
-12,
-12,
-13,
-12,
-13,
-13,
-15,
-14,
-14,
-14,
-17,
-15,
-16,
-16,
-18,
-18,
-17,
-18,
-19,
-19,
-19,
-19,
-19,
-19,
-21,
-22,
-22,
-21,
-21,
-22,
-23,
-23,
-21,
-21,
-23,
-23,
-25,
-23,
-24,
-24,
-23,
-24,
-26,
-27,
-25,
-24,
-27,
-28,
-28,
-27,
-27,
-27,
-28,
-29,
-29,
-29,
-27,
-26,
-30,
-30,
-29,
-27,
-29,
-31,
-30,
-29,
-29,
-29,
-30,
-30,
-31,
-31,
-30,
-29,
-31,
-31,
-30,
-29,
-32,
-32,
-32,
-31,
-31,
-31,
-31,
-32,
-33,
-32,
-31,
-30,
-32,
-32,
-31,
-30,
-32,
-32,
-31,
-31,
-32,
-32,
-31,
-30,
-31,
-31,
-30,
-29,
-32,
-31,
-31,
-31,
-32,
-32,
-31,
-30,
-31,
-31,
-31,
-31,
-31,
-30,
-30,
-30,
-30,
-31,
-29,
-28,
-30,
-31,
-30,
-29,
-29,
-29,
-29,
-29,
-29,
-29,
-26,
-25,
-29,
-29,
-27,
-25,
-26,
-27,
-27,
-26,
-25,
-24,
-24,
-25,
-27,
-27,
-24,
-24,
-25,
-25,
-23,
-22,
-22,
-22,
-22,
-22,
-21,
-19,
-20,
-20,
-21,
-21,
-19,
-19,
-20,
-19,
-18,
-18,
-18,
-17,
-16,
-16,
-17,
-16,
-15,
-14,
-15,
-15,
-15,
-14,
-14,
-13,
-13,
-12,
-13,
-12,
-10,
-10,
-12,
-11,
-9,
-9,
-10,
-10,
-8,
-7,
-8,
-7,
-7,
-6,
-7,
-7,
-6,
-5,
-5,
-4,
-5,
-5,
-5,
-5,
-1,
-2,
-4,
-3,
-2,
-1,
-1,
-1,
-1,
0,
1,
2,
1,
0,
1,
3,
2,
2,
2,
3,
4,
6,
4,
3,
4,
6,
7,
8,
7,
7,
6,
8,
9,
9,
8,
9,
9,
9,
11,
11,
10,
10,
10,
11,
12,
13,
12,
12,
13,
14,
14,
14,
12,
12,
15,
16,
15,
15,
15,
17,
17,
17,
16,
16,
17,
18,
17,
17,
17,
17,
18,
18,
18,
18,
18,
18,
18,
19,
20,
21,
19,
19,
20,
21,
21,
22,
21,
21,
20,
20,
22,
22,
21,
22,
22,
22,
22,
24,
22,
21,
21,
22,
22,
22,
22,
23,
23,
23,
23,
23,
23,
24,
23,
23,
22,
21,
22,
23,
23,
24,
22,
22,
22,
22,
25,
26,
22,
21,
22,
23,
21,
21,
20,
20,
22,
22,
21,
22,
21,
21,
21,
22,
20,
20,
20,
22,
20,
19,
19,
18,
19,
21,
19,
19,
17,
18,
18,
18,
18,
18,
17,
17,
17,
17,
16,
16,
16,
16,
15,
15,
15,
15,
15,
14,
14,
15,
13,
13,
13,
13,
12,
12,
12,
12,
11,
11,
10,
10,
10,
10,
9,
10,
8,
8,
9,
9,
7,
7,
7,
8,
5,
4,
5,
6,
5,
5,
3,
3,
3,
4,
3,
2,
1,
1,
2,
3,
0,
0,
-1,
1,
0,
0,
-3,
-3,
-3,
-3,
-3,
-3,
-4,
-4,
-4,
-4,
-5,
-5,
-7,
-7,
-6,
-6,
-7,
-8,
-9,
-9,
-7,
-6,
-10,
-10,
-12,
-11,
-10,
-10,
-13,
-13,
-13,
-13,
-12,
-12,
-14,
-13,
-15,
-14,
-15,
-16,
-16,
-15,
-15,
-15,
-18,
-18,
-17,
-17,
-19,
-19,
-19,
-19,
-19,
-19,
-20,
-20,
-20,
-19,
-21,
-21,
-22,
-22,
-22,
-22,
-26,
-26,
-22,
-22,
-24,
-24,
-25,
-24,
-26,
-27,
-26,
-25,
-27,
-27,
-25,
-26,
-27,
-28,
-29,
-28,
-28,
-28,
-27,
-27,
-29,
-29,
-28,
-27,
-30,
-31,
-30,
-29,
-30,
-30,
-31,
-31,
-30,
-29,
-30,
-31,
-34,
-33,
-30,
-29,
-33,
-34,
-32,
-31,
-31,
-32,
-31,
-31,
-32,
-32,
-31,
-32,
-34,
-34,
-31,
-30,
-32,
-32,
-32,
-31,
-32,
-31,
-32,
-32,
-32,
-32,
-31,
-30,
-31,
-32,
-31,
-30,
-31,
-31,
-31,
-30,
-31,
-31,
-30,
-30,
-31,
-31,
-30,
-29,
-31,
-31,
-30,
-30,
-30,
-30,
-27,
-26,
-30,
-30,
-29,
-28,
-28,
-28,
-27,
-26,
-27,
-27,
-25,
-25,
-28,
-28,
-26,
-24,
-27,
-27,
-27,
-26,
-25,
-24,
-23,
-24,
-24,
-23,
-21,
-21,
-25,
-27,
-22,
-21,
-22,
-22,
-22,
-21,
-20,
-19,
-19,
-19,
-19,
-18,
-17,
-18,
-19,
-19,
-17,
-16,
-17,
-16,
-16,
-16,
-16,
-14,
-14,
-14,
-15,
-14,
-12,
-12,
-12,
-12,
-12,
-12,
-11,
-11,
-10,
-10,
-11,
-11,
-8,
-7,
-8,
-7,
-8,
-8,
-7,
-6,
-6,
-6,
-6,
-6,
-5,
-5,
-4,
-3,
-3,
-2,
-3,
-3,
-2,
-1,
-1,
-1,
-1,
-1,
1,
2,
0,
0,
1,
2,
2,
2,
2,
4,
4,
5,
3,
2,
5,
7,
7,
7,
6,
6,
6,
8,
7,
8,
8,
9,
9,
9,
10,
10,
10,
10,
11,
11,
11,
11,
12,
13,
13,
15,
13,
12,
13,
14,
15,
16,
14,
13,
15,
16,
16,
16,
14,
15,
18,
18,
16,
15,
17,
17,
20,
21,
16,
17,
18,
19,
19,
19,
19,
20,
21,
22,
20,
20,
19,
20,
20,
20,
21,
22,
22,
22,
21,
22,
22,
23,
22,
23,
22,
22,
23,
23,
22,
22,
23,
23,
23,
23,
23,
25,
23,
23,
22,
23,
22,
21,
24,
25,
23,
24,
23,
23,
22,
22,
22,
22,
21,
22,
23,
23,
21,
21,
22,
23,
22,
21,
21,
22,
21,
21,
20,
20,
19,
20,
21,
22,
19,
18,
20,
22,
20,
20,
18,
18,
19,
20,
18,
18,
16,
16,
17,
18,
18,
18,
16,
16,
16,
17,
15,
15,
15,
16,
15,
15,
13,
13,
13,
14,
13,
13,
13,
13,
11,
12,
11,
11,
10,
10,
10,
10,
9,
9,
8,
8,
8,
9,
7,
7,
6,
6,
7,
6,
6,
7,
5,
4,
3,
4,
3,
3,
2,
2,
1,
1,
2,
2,
0,
-1,
0,
1,
0,
0,
-3,
-3,
-2,
-2,
-4,
-5,
-4,
-3,
-3,
-3,
-6,
-7,
-6,
-6,
-5,
-6,
-9,
-8,
-6,
-6,
-8,
-7,
-11,
-10,
-10,
-10,
-11,
-11,
-12,
-12,
-12,
-11,
-12,
-13,
-14,
-13,
-14,
-14,
-16,
-16,
-17,
-16,
-15,
-15,
-19,
-19,
-18,
-17,
-18,
-18,
-20,
-20,
-19,
-19,
-19,
-20,
-22,
-22,
-20,
-20,
-23,
-23,
-22,
-22,
-24,
-24,
-23,
-24,
-23,
-23,
-24,
-24,
-26,
-27,
-26,
-25,
-25,
-24,
-25,
-27,
-27,
-27,
-26,
-25,
-29,
-30,
-28,
-26,
-28,
-29,
-29,
-28,
-30,
-30,
-29,
-29,
-31,
-31,
-29,
-29,
-30,
-31,
-30,
-30,
-31,
-31,
-30,
-29,
-33,
-33,
-31,
-30,
-32,
-32,
-31,
-30,
-32,
-32,
-32,
-32,
-32,
-31,
-31,
-31,
-33,
-34,
-31,
-30,
-33,
-33,
-32,
-31,
-31,
-31,
-32,
-32,
-32,
-31,
-30,
-30,
-32,
-31,
-30,
-29,
-31,
-31,
-31,
-30,
-31,
-31,
-29,
-28,
-30,
-31,
-29,
-28,
-29,
-29,
-30,
-29,
-28,
-28,
-29,
-28,
-29,
-29,
-27,
-26,
-28,
-28,
-26,
-25,
-27,
-28,
-25,
-25,
-26,
-25,
-26,
-25,
-24,
-24,
-25,
-24,
-24,
-24,
-23,
-23,
-23,
-23,
-20,
-20,
-23,
-23,
-21,
-21,
-19,
-19,
-20,
-20,
-20,
-19,
-18,
-18,
-19,
-18,
-16,
-16,
-17,
-16,
-16,
-16,
-15,
-14,
-16,
-16,
-15,
-13,
-12,
-13,
-15,
-15,
-12,
-10,
-11,
-11,
-12,
-11,
-9,
-8,
-9,
-10,
-10,
-9,
-7,
-6,
-7,
-7,
-6,
-6,
-5,
-5,
-6,
-6,
-6,
-4,
-2,
-2,
-3,
-3,
-2,
-1,
-1,
0,
-2,
-2,
0,
1,
1,
0,
0,
2,
3,
3,
2,
2,
3,
4,
4,
4,
4,
6,
7,
9,
5,
6,
6,
7,
8,
8,
8,
9,
9,
9,
8,
9,
11,
11,
11,
11,
11,
11,
12,
13,
12,
12,
13,
14,
14,
14,
13,
14,
16,
16,
15,
15,
15,
15,
16,
17,
17,
17,
16,
17,
17,
18,
17,
17,
17,
17,
20,
21,
18,
18,
18,
20,
20,
20,
19,
19,
21,
22,
21,
21,
20,
22,
23,
23,
22,
22,
22,
23,
22,
22,
21,
21,
22,
23,
22,
22,
22,
23,
23,
23,
22,
23,
23,
24,
23,
23,
23,
23,
23,
23,
22,
22,
24,
25,
22,
22,
22,
23,
21,
21,
22,
23,
21,
21,
22,
23,
21,
21,
19,
20,
21,
21,
20,
19,
20,
21,
20,
19,
18,
19,
20,
22,
20,
19,
18,
18,
20,
20,
17,
17,
17,
18,
18,
18,
16,
16,
16,
16,
16,
16,
15,
16,
15,
16,
15,
14,
13,
14,
15,
15,
13,
13,
12,
12,
13,
13,
11,
10,
11,
12,
11,
10,
8,
9,
9,
9,
9,
9,
7,
7,
7,
9,
7,
7,
6,
7,
5,
5,
4,
3,
3,
4,
3,
3,
1,
1,
1,
1,
0,
0,
-1,
0,
-1,
-1,
-1,
0,
-2,
-2,
-3,
-3,
-4,
-3,
-4,
-4,
-5,
-5,
-6,
-6,
-6,
-6,
-7,
-7,
-7,
-7,
-8,
-7,
-8,
-7,
-10,
-10,
-12,
-12,
-11,
-11,
-12,
-13,
-14,
-12,
-13,
-13,
-16,
-16,
-15,
-14,
-16,
-17,
-16,
-15,
-17,
-16,
-17,
-17,
-19,
-19,
-18,
-18,
-19,
-18,
-21,
-21,
-20,
-18,
-20,
-21,
-23,
-23,
-21,
-21,
-24,
-24,
-23,
-22,
-23,
-23,
-25,
-24,
-24,
-24,
-26,
-26,
-27,
-27,
-26,
-25,
-28,
-29,
-27,
-26,
-28,
-28,
-28,
-28,
-28,
-29,
-27,
-27,
-29,
-29,
-30,
-30,
-30,
-30,
-29,
-29,
-30,
-30,
-29,
-28,
-31,
-32,
-31,
-31,
-32,
-32,
-32,
-31,
-32,
-33,
-31,
-29,
-31,
-32,
-33,
-32,
-32,
-32,
-31,
-31,
-32,
-32,
-31,
-30,
-34,
-34,
-32,
-30,
-31,
-32,
-32,
-32,
-31,
-31,
-32,
-32,
-32,
-31,
-29,
-29,
-32,
-33,
-31,
-30,
-30,
-31,
-30,
-30,
-30,
-30,
-29,
-30,
-30,
-31,
-29,
-28,
-29,
-29,
-29,
-28,
-28,
-27,
-29,
-27,
-28,
-28,
-26,
-25,
-28,
-28,
-26,
-25,
-25,
-26,
-26,
-26,
-24,
-24,
-24,
-24,
-25,
-24,
-23,
-23,
-24,
-24,
-22,
-22,
-22,
-23,
-21,
-21,
-20,
-19,
-20,
-20,
-19,
-19,
-19,
-19,
-19,
-18,
-16,
-16,
-18,
-17,
-16,
-15,
-16,
-16,
-14,
-14,
-14,
-13,
-14,
-14,
-13,
-12,
-12,
-11,
-12,
-12,
-10,
-10,
-10,
-10,
-9,
-9,
-9,
-8,
-7,
-7,
-8,
-7,
-6,
-5,
-6,
-6,
-6,
-5,
-4,
-3,
-4,
-3,
-3,
-2,
-1,
-1,
-3,
-2,
-1,
0,
0,
0,
0,
0,
2,
3,
2,
2,
2,
3,
5,
6,
4,
3,
4,
4,
6,
8,
5,
6,
7,
9,
6,
7,
8,
9,
9,
9,
10,
11,
11,
12,
10,
10,
11,
12,
11,
12,
12,
12,
13,
14,
12,
12,
14,
15,
15,
15,
14,
15,
15,
16,
16,
16,
15,
16,
17,
18,
17,
17,
17,
18,
18,
18,
18,
18,
18,
18,
20,
21,
18,
18,
18,
20,
21,
22,
20,
20,
21,
22,
22,
22,
19,
19,
22,
24,
23,
23,
21,
21,
24,
25,
22,
21,
21,
23,
24,
24,
22,
23,
24,
24,
23,
23,
22,
23,
23,
23,
22,
22,
22,
23,
23,
22,
23,
23,
21,
22,
22,
23,
22,
22,
21,
22,
21,
21,
20,
20,
20,
20,
22,
22,
19,
20,
19,
19,
20,
20,
20,
21,
19,
20,
19,
21,
19,
19,
17,
17,
18,
19,
18,
18,
17,
17,
17,
17,
16,
16,
16,
16,
16,
16,
13,
14,
15,
15,
15,
14,
12,
13,
14,
14,
12,
12,
12,
13,
11,
12,
10,
10,
9,
10,
9,
10,
8,
8,
8,
8,
7,
7,
6,
6,
5,
6,
5,
5,
3,
4,
4,
4,
1,
1,
2,
3,
2,
2,
0,
-1,
0,
1,
0,
-1,
-2,
-2,
-1,
-1,
-3,
-3,
-4,
-4,
-4,
-3,
-6,
-6,
-6,
-6,
-6,
-6,
-7,
-7,
-8,
-9,
-9,
-9,
-8,
-10,
-9,
-8,
-11,
-11,
-11,
-11,
-12,
-13,
-12,
-12,
-13,
-14,
-15,
-15,
-14,
-14,
-16,
-15,
-16,
-16,
-17,
-17,
-17,
-18,
-19,
-18,
-19,
-19,
-20,
-19,
-19,
-19,
-19,
-19,
-21,
-21,
-22,
-22,
-21,
-22,
-24,
-23,
-22,
-21,
-24,
-24,
-25,
-23,
-24,
-24,
-26,
-26,
-27,
-28,
-26,
-25,
-28,
-28,
-26,
-25,
-28,
-29,
-28,
-28,
-27,
-27,
-30,
-30,
-29,
-28,
-29,
-28,
-30,
-31,
-29,
-29,
-32,
-31,
-30,
-30,
-31,
-31,
-31,
-30,
-31,
-32,
-31,
-30,
-32,
-32,
-32,
-31,
-32,
-32,
-32,
-31,
-32,
-32,
-31,
-31,
-32,
-32,
-31,
-30,
-32,
-32,
-32,
-31,
-32,
-32,
-31,
-31,
-31,
-31,
-32,
-31,
-31,
-31,
-30,
-30,
-32,
-32,
-30,
-29,
-31,
-32,
-30,
-29,
-29,
-30,
-31,
-30,
-29,
-29,
-29,
-29,
-31,
-30,
-27,
-26,
-30,
-31,
-29,
-28,
-28,
-28,
-28,
-28,
-28,
-27,
-26,
-25,
-27,
-27,
-25,
-24,
-25,
-24,
-26,
-25,
-26,
-27,
-22,
-23,
-24,
-23,
-22,
-21,
-21,
-22,
-22,
-22,
-20,
-19,
-21,
-21,
-20,
-19,
-18,
-17,
-19,
-19,
-18,
-18,
-17,
-16,
-16,
-16,
-16,
-15,
-15,
-14,
-15,
-14,
-14,
-14,
-14,
-13,
-12,
-12,
-12,
-11,
-11,
-10,
-11,
-11,
-9,
-9,
-9,
-8,
-9,
-9,
-7,
-7,
-7,
-7,
-7,
-6,
-5,
-4,
-5,
-5,
-4,
-4,
-3,
-3,
-2,
-2,
-3,
-2,
-1,
-1,
-1,
0,
1,
2,
2,
2,
1,
2,
3,
4,
3,
2,
3,
4,
5,
5,
4,
4,
5,
7,
7,
8,
6,
6,
8,
9,
10,
10,
8,
9,
10,
11,
10,
10,
10,
10,
12,
13,
12,
12,
13,
14,
13,
14,
14,
14,
14,
15,
15,
15,
14,
15,
16,
17,
15,
15,
17,
18,
16,
16,
18,
19,
18,
17,
17,
17,
18,
18,
18,
18,
19,
19,
20,
20,
19,
19,
21,
21,
20,
21,
21,
21,
22,
23,
22,
22,
22,
22,
22,
23,
23,
23,
21,
21,
24,
25,
23,
23,
22,
23,
23,
23,
23,
23,
24,
25,
23,
23,
21,
21,
23,
25,
22,
21,
21,
22,
22,
22,
21,
20,
21,
21,
22,
22,
21,
21,
21,
22,
21,
22,
22,
22,
20,
21,
21,
22,
20,
19,
20,
20,
20,
20,
18,
19,
20,
20,
18,
17,
18,
19,
18,
18,
16,
16,
17,
18,
16,
16,
16,
16,
16,
17,
15,
15,
14,
14,
14,
14,
13,
14,
13,
12,
10,
11,
12,
12,
11,
11,
11,
11,
11,
10,
8,
8,
9,
11,
8,
8,
5,
5,
8,
8,
6,
6,
4,
4,
5,
5,
4,
3,
2,
3,
3,
3,
1,
1,
1,
1,
0,
1,
-1,
-2,
-1,
0,
-2,
-2,
-4,
-4,
-3,
-2,
-4,
-5,
-6,
-5,
-6,
-6,
-7,
-7,
-5,
-3,
-7,
-7,
-9,
-8,
-9,
-9,
-9,
-10,
-11,
-11,
-11,
-12,
-11,
-11,
-13,
-13,
-13,
-13,
-15,
-14,
-13,
-13,
-17,
-16,
-15,
-15,
-17,
-16,
-18,
-18,
-18,
-18,
-19,
-19,
-20,
-19,
-19,
-19,
-21,
-22,
-21,
-21,
-22,
-22,
-22,
-22,
-22,
-22,
-23,
-23,
-25,
-24,
-23,
-23,
-26,
-27,
-25,
-23,
-26,
-27,
-26,
-26,
-27,
-27,
-26,
-26,
-30,
-30,
-27,
-25,
-28,
-29,
-29,
-29,
-29,
-29,
-29,
-30,
-31,
-30,
-28,
-28,
-31,
-32,
-30,
-28,
-30,
-31,
-32,
-32,
-31,
-31,
-31,
-31,
-32,
-32,
-31,
-31,
-32,
-32,
-32,
-31,
-32,
-32,
-32,
-30,
-32,
-32,
-31,
-31,
-32,
-32,
-32,
-31,
-32,
-32,
-31,
-31,
-31,
-31,
-31,
-30,
-32,
-32,
-31,
-30,
-32,
-31,
-30,
-30,
-31,
-31,
-30,
-28,
-30,
-30,
-30,
-29,
-29,
-29,
-30,
-29,
-30,
-30,
-28,
-28,
-30,
-31,
-27,
-26,
-29,
-30,
-29,
-27,
-26,
-26,
-26,
-26,
-26,
-24,
-24,
-24,
-27,
-27,
-25,
-23,
-24,
-24,
-23,
-23,
-23,
-23,
-23,
-23,
-23,
-22,
-21,
-20,
-22,
-22,
-20,
-20,
-18,
-18,
-19,
-19,
-19,
-18,
-17,
-17,
-18,
-18,
-15,
-14,
-15,
-15,
-16,
-15,
-15,
-14,
-13,
-13,
-15,
-13,
-12,
-12,
-12,
-12,
-11,
-12,
-11,
-10,
-10,
-9,
-9,
-9,
-9,
-9,
-7,
-7,
-6,
-7,
-6,
-5,
-5,
-5,
-6,
-6,
-3,
-2,
-4,
-4,
-3,
-2,
-2,
-1,
-2,
-2,
-1,
1,
1,
1,
0,
1,
1,
2,
3,
4,
3,
3,
3,
4,
5,
5,
5,
6,
7,
7,
5,
4,
6,
7,
8,
9,
8,
8,
9,
10,
11,
10,
9,
9,
11,
12,
12,
12,
11,
11,
13,
14,
13,
12,
14,
15,
16,
16,
14,
14,
14,
15,
16,
16,
15,
15,
16,
17,
17,
17,
17,
18,
17,
18,
17,
17,
18,
19,
20,
20,
19,
19,
20,
20,
21,
22,
21,
21,
21,
22,
21,
22,
22,
22,
21,
21,
23,
24,
21,
21,
22,
22,
23,
23,
23,
25,
23,
24,
23,
23,
22,
22,
23,
23,
23,
22,
23,
23,
22,
22,
22,
23,
21,
21,
23,
25,
23,
23,
20,
19,
23,
23,
21,
20,
21,
22,
22,
22,
20,
20,
21,
22,
22,
21,
18,
19,
20,
21,
19,
18,
19,
19,
19,
19,
19,
19,
17,
17,
18,
19,
17,
17,
16,
16,
18,
18,
16,
16,
16,
17,
16,
17,
15,
15,
15,
16,
15,
14,
13,
14,
13,
14,
13,
13,
11,
10,
11,
11,
10,
11,
10,
10,
9,
9,
9,
11,
7,
7,
7,
8,
8,
8,
4,
4,
6,
6,
5,
4,
4,
4,
4,
5,
2,
2,
1,
2,
2,
2,
0,
0,
0,
0,
0,
1,
-3,
-3,
-2,
-2,
-2,
-3,
-4,
-4,
-4,
-4,
-5,
-5,
-7,
-6,
-6,
-6,
-8,
-9,
-8,
-6,
-7,
-7,
-11,
-12,
-10,
-10,
-10,
-10,
-12,
-12,
-12,
-12,
-13,
-13,
-14,
-14,
-14,
-14,
-16,
-16,
-15,
-15,
-17,
-16,
-17,
-16,
-17,
-17,
-19,
-19,
-20,
-19,
-19,
-19,
-19,
-19,
-20,
-20,
-22,
-22,
-21,
-22,
-23,
-23,
-23,
-22,
-23,
-23,
-23,
-23,
-24,
-24,
-25,
-24,
-27,
-27,
-26,
-25,
-27,
-28,
-26,
-26,
-28,
-28,
-27,
-27,
-29,
-29,
-27,
-26,
-29,
-30,
-30,
-29,
-29,
-29,
-30,
-30,
-30,
-30,
-29,
-28,
-31,
-32,
-31,
-31,
-30,
-31,
-32,
-32,
-32,
-32,
-32,
-32,
-32,
-31,
-31,
-30,
-32,
-32,
-32,
-31,
-32,
-32,
-32,
-32,
-32,
-32,
-31,
-31,
-32,
-32,
-31,
-30,
-31,
-31,
-31,
-30,
-31,
-31,
-31,
-30,
-31,
-31,
-30,
-29,
-30,
-31,
-31,
-30,
-31,
-31,
-30,
-29,
-30,
-29,
-29,
-29,
-30,
-30,
-29,
-28,
-29,
-29,
-27,
-27,
-28,
-28,
-27,
-26,
-27,
-28,
-27,
-27,
-27,
-27,
-25,
-25,
-27,
-27,
-23,
-23,
-26,
-27,
-23,
-22,
-24,
-23,
-23,
-23,
-21,
-19,
-20,
-20,
-22,
-22,
-19,
-19,
-20,
-19,
-19,
-18,
-17,
-17,
-18,
-18,
-17,
-16,
-16,
-15,
-17,
-17,
-16,
-14,
-15,
-15,
-15,
-15,
-14,
-12,
-12,
-12,
-14,
-13,
-9,
-9,
-11,
-11,
-10,
-9,
-8,
-8,
-9,
-9,
-8,
-7,
-7,
-7,
-7,
-6,
-6,
-5,
-5,
-5,
-4,
-4,
-4,
-3,
-3,
-2,
-1,
0,
-2,
-2,
0,
1,
0,
0,
0,
1,
1,
1,
1,
2,
3,
3,
3,
4,
4,
4,
5,
6,
5,
7,
5,
5,
7,
8,
9,
9,
7,
8,
9,
10,
9,
9,
9,
10,
11,
12,
11,
11,
11,
12,
13,
13,
12,
12,
13,
14,
14,
14,
14,
15,
16,
16,
15,
15,
15,
16,
17,
17,
16,
16,
17,
19,
18,
18,
18,
18,
19,
21,
19,
19,
18,
18,
21,
21,
19,
19,
20,
20,
21,
22,
20,
20,
22,
23,
21,
21,
22,
23,
21,
21,
23,
23,
22,
23,
23,
23,
23,
24,
23,
23,
23,
22,
23,
23,
22,
22,
23,
23,
22,
22,
23,
23,
22,
22,
22,
23,
22,
22,
22,
23,
21,
21,
22,
22,
22,
22,
20,
19,
20,
21,
21,
22,
20,
20,
20,
22,
21,
21,
19,
19,
20,
21,
19,
18,
17,
17,
19,
19,
18,
18,
16,
17,
18,
18,
16,
16,
15,
16,
17,
17,
16,
16,
14,
15,
15,
15,
13,
12,
13,
14,
13,
12,
12,
13,
13,
13,
11,
11,
10,
10,
11,
11,
9,
8,
9,
10,
8,
8,
6,
7,
8,
7,
6,
6,
5,
4,
5,
5,
4,
4,
4,
5,
2,
1,
2,
3,
1,
1,
0,
1,
1,
1,
0,
1,
-2,
-2,
-2,
-2,
-4,
-4,
-3,
-3,
-4,
-4,
-5,
-5,
-5,
-5,
-7,
-7,
-7,
-7,
-8,
-7,
-9,
-9,
-10,
-10,
-9,
-9,
-11,
-11,
-12,
-11,
-11,
-11,
-13,
-14,
-15,
-13,
-13,
-14,
-16,
-16,
-14,
-13,
-17,
-17,
-17,
-16,
-17,
-17,
-19,
-19,
-19,
-18,
-19,
-19,
-22,
-22,
-20,
-20,
-21,
-22,
-22,
-22,
-23,
-23,
-22,
-22,
-23,
-23,
-23,
-23,
-24,
-24,
-26,
-25,
-25,
-26,
-26,
-27,
-27,
-27,
-26,
-25,
-28,
-28,
-28,
-28,
-29,
-29,
-29,
-28,
-30,
-30,
-29,
-29,
-30,
-30,
-30,
-29,
-31,
-31,
-30,
-30,
-31,
-30,
-31,
-30,
-31,
-32,
-31,
-30,
-31,
-31,
-33,
-33,
-31,
-31,
-31,
-31,
-33,
-32,
-31,
-30,
-32,
-32,
-32,
-30,
-31,
-31,
-32,
-32,
-33,
-34,
-31,
-30,
-32,
-32,
-31,
-30,
-31,
-31,
-32,
-30,
-31,
-31,
-31,
-31,
-32,
-32,
-30,
-29,
-31,
-31,
-29,
-28,
-29,
-29,
-30,
-30,
-30,
-30,
-28,
-27,
-30,
-31,
-28,
-26,
-28,
-29,
-28,
-28,
-27,
-27,
-26,
-26,
-27,
-27,
-25,
-24,
-25,
-25,
-24,
-24,
-24,
-24,
-24,
-24,
-23,
-23,
-23,
-23,
-22,
-22,
-22,
-22,
-21,
-19,
-20,
-20,
-22,
-22,
-18,
-18,
-18,
-19,
-19,
-18,
-16,
-16,
-17,
-18,
-16,
-15,
-15,
-15,
-15,
-14,
-14,
-14,
-14,
-13,
-14,
-14,
-13,
-12,
-11,
-11,
-12,
-11,
-10,
-9,
-9,
-9,
-8,
-8,
-7,
-7,
-8,
-9,
-8,
-6,
-5,
-5,
-7,
-7,
-3,
-2,
-3,
-3,
-3,
-2,
-1,
0,
-1,
-2,
-1,
1,
1,
0,
1,
2,
2,
2,
1,
2,
2,
3,
3,
4,
4,
4,
5,
6,
5,
6,
6,
6,
6,
7,
7,
9,
8,
8,
8,
8,
9,
10,
11,
11,
11,
11,
11,
11,
11,
11,
12,
13,
13,
14,
15,
16,
13,
13,
14,
16,
15,
15,
15,
15,
17,
17,
15,
15,
16,
17,
19,
20,
17,
17,
18,
19,
18,
18,
17,
18,
20,
22,
19,
19,
19,
19,
20,
21,
19,
19,
20,
21,
22,
23,
21,
21,
21,
23,
22,
22,
22,
23,
22,
22,
23,
22,
22,
22,
23,
23,
22,
22,
22,
23,
23,
24,
23,
23,
22,
22,
24,
25,
22,
22,
23,
24,
22,
22,
22,
23,
23,
23,
21,
20,
21,
21,
20,
19,
21,
22,
21,
22,
21,
21,
20,
20,
21,
21,
20,
21,
21,
21,
18,
18,
18,
19,
19,
19,
17,
17,
18,
19,
18,
18,
15,
15,
17,
18,
17,
16,
16,
17,
16,
16,
14,
14,
14,
15,
14,
14,
12,
11,
13,
14,
13,
12,
11,
11,
10,
11,
11,
11,
8,
8,
9,
10,
8,
8,
6,
8,
8,
8,
6,
6,
5,
6,
5,
5,
4,
3,
3,
5,
2,
2,
1,
2,
2,
2,
0,
1,
0,
-1,
-1,
0,
-1,
-1,
-3,
-3,
-3,
-3,
-3,
-3,
-5,
-4,
-4,
-3,
-5,
-6,
-7,
-7,
-6,
-6,
-9,
-10,
-8,
-9,
-8,
-7,
-11,
-11,
-11,
-11,
-12,
-12,
-12,
-12,
-14,
-14,
-13,
-12,
-14,
-14,
-17,
-16,
-14,
-14,
-17,
-17,
-15,
-14,
-18,
-18,
-19,
-18,
-18,
-17,
-19,
-20,
-21,
-19,
-19,
-18,
-23,
-23,
-21,
-20,
-21,
-22,
5,
6,
