4-transistorverstaerker/data/ALL0008/A0008CH2.CSV

Memory Length,4000,
Trigger Level,8.10000e+02,
Source,CH2,
Probe,1.0X,
Vertical Units,V,
Vertical Scale,5.00000e-01,
Vertical Position,-1.43000e+01,
Horizontal Units,S,
Horizontal Scale,5.00000e-04,
Horizontal Position,-6.4000000e-04,
Horizontal Mode,Main,
Sampling Period,2.00000e-06,
Firmware,V1.14,
Time, ,
Mode,Fast,
Waveform Data,
717,
717,
717,
717,
717,
717,
717,
716,
716,
717,
717,
717,
717,
718,
718,
717,
717,
717,
717,
717,
717,
716,
716,
716,
716,
716,
716,
716,
716,
717,
717,
716,
716,
716,
716,
717,
717,
717,
717,
716,
716,
717,
717,
716,
716,
716,
716,
716,
716,
716,
716,
716,
716,
716,
716,
715,
715,
716,
716,
716,
716,
716,
716,
716,
716,
716,
716,
715,
715,
715,
715,
715,
715,
715,
715,
715,
715,
716,
716,
715,
715,
715,
715,
716,
716,
716,
716,
715,
715,
715,
715,
715,
715,
715,
715,
715,
715,
714,
714,
715,
715,
715,
715,
715,
715,
715,
715,
715,
715,
714,
714,
714,
714,
714,
714,
715,
715,
714,
714,
715,
715,
714,
714,
714,
714,
713,
713,
714,
714,
714,
714,
713,
713,
714,
714,
713,
713,
714,
714,
714,
714,
713,
713,
713,
713,
712,
712,
714,
714,
714,
714,
713,
713,
713,
713,
712,
712,
714,
714,
713,
713,
713,
713,
713,
713,
713,
713,
712,
712,
712,
712,
712,
712,
713,
713,
712,
712,
712,
712,
712,
712,
712,
712,
713,
713,
712,
712,
712,
712,
712,
712,
712,
712,
712,
712,
712,
712,
712,
712,
712,
712,
712,
712,
712,
712,
712,
712,
712,
712,
714,
714,
712,
712,
713,
713,
712,
712,
712,
712,
712,
712,
712,
712,
712,
712,
712,
712,
712,
712,
712,
712,
712,
712,
712,
712,
712,
712,
712,
712,
713,
713,
712,
712,
713,
713,
712,
712,
712,
712,
712,
712,
713,
713,
712,
712,
712,
712,
713,
713,
712,
712,
712,
712,
712,
712,
713,
713,
713,
713,
713,
713,
712,
712,
713,
713,
712,
712,
713,
713,
713,
713,
714,
714,
712,
712,
712,
712,
714,
714,
713,
713,
713,
713,
714,
714,
715,
715,
713,
713,
714,
714,
713,
713,
715,
715,
714,
714,
715,
715,
713,
713,
714,
714,
715,
715,
715,
715,
714,
714,
714,
714,
715,
715,
715,
715,
716,
716,
714,
714,
714,
714,
714,
714,
715,
715,
714,
714,
714,
714,
715,
715,
715,
715,
715,
715,
716,
716,
715,
715,
715,
715,
715,
715,
715,
715,
715,
715,
715,
715,
715,
715,
716,
716,
716,
716,
716,
716,
716,
716,
716,
716,
715,
715,
714,
714,
715,
715,
715,
715,
716,
716,
716,
716,
716,
716,
715,
715,
715,
715,
716,
716,
717,
717,
717,
717,
717,
717,
717,
717,
716,
716,
716,
716,
715,
715,
716,
716,
717,
717,
717,
717,
717,
717,
717,
717,
717,
717,
717,
717,
716,
716,
718,
718,
717,
717,
717,
717,
716,
716,
718,
718,
718,
718,
717,
717,
717,
717,
717,
717,
717,
717,
718,
718,
718,
718,
718,
718,
718,
718,
718,
718,
718,
718,
717,
717,
718,
718,
719,
719,
717,
717,
718,
718,
718,
718,
719,
719,
718,
718,
719,
719,
719,
719,
718,
718,
719,
719,
718,
718,
719,
719,
718,
718,
718,
718,
718,
718,
718,
718,
719,
719,
718,
718,
719,
719,
718,
718,
719,
719,
718,
718,
717,
717,
717,
717,
718,
718,
718,
718,
718,
718,
718,
718,
719,
719,
719,
719,
718,
718,
718,
718,
718,
718,
717,
717,
718,
718,
718,
718,
719,
719,
718,
718,
718,
718,
717,
717,
718,
718,
719,
719,
718,
718,
718,
718,
717,
717,
718,
718,
718,
718,
717,
717,
718,
718,
718,
718,
717,
717,
718,
718,
717,
717,
717,
717,
717,
717,
717,
717,
716,
716,
717,
717,
717,
717,
717,
717,
718,
718,
717,
717,
717,
717,
716,
716,
718,
718,
716,
716,
717,
717,
716,
716,
717,
717,
717,
717,
715,
715,
715,
715,
717,
717,
716,
716,
717,
717,
717,
717,
716,
716,
716,
716,
717,
717,
714,
714,
715,
715,
716,
716,
716,
716,
716,
716,
716,
716,
716,
716,
716,
716,
716,
716,
715,
715,
715,
715,
715,
715,
715,
715,
715,
715,
715,
715,
715,
715,
715,
715,
715,
715,
715,
715,
714,
714,
715,
715,
715,
715,
715,
715,
714,
714,
715,
715,
714,
714,
715,
715,
716,
716,
714,
714,
713,
713,
715,
715,
715,
715,
715,
715,
714,
714,
713,
713,
714,
714,
713,
713,
713,
713,
714,
714,
713,
713,
715,
715,
713,
713,
712,
712,
714,
714,
713,
713,
713,
713,
714,
714,
713,
713,
714,
714,
713,
713,
713,
713,
713,
713,
712,
712,
713,
713,
712,
712,
713,
713,
713,
713,
712,
712,
713,
713,
713,
713,
713,
713,
712,
712,
712,
712,
712,
712,
713,
713,
712,
712,
712,
712,
712,
712,
713,
713,
712,
712,
712,
712,
711,
711,
712,
712,
712,
712,
712,
712,
713,
713,
712,
712,
712,
712,
711,
711,
713,
713,
712,
712,
713,
713,
711,
711,
712,
712,
712,
712,
712,
712,
712,
712,
712,
712,
712,
712,
712,
712,
713,
713,
712,
712,
712,
712,
712,
712,
713,
713,
713,
713,
712,
712,
713,
713,
712,
712,
712,
712,
713,
713,
713,
713,
712,
712,
713,
713,
712,
712,
712,
712,
712,
712,
713,
713,
712,
712,
713,
713,
713,
713,
714,
714,
713,
713,
713,
713,
713,
713,
714,
714,
714,
714,
714,
714,
714,
714,
715,
715,
716,
716,
714,
714,
714,
714,
714,
714,
713,
713,
714,
714,
714,
714,
714,
714,
713,
713,
713,
713,
714,
714,
714,
714,
714,
714,
713,
713,
714,
714,
713,
713,
715,
715,
715,
715,
715,
715,
715,
715,
714,
714,
715,
715,
714,
714,
715,
715,
717,
717,
714,
714,
715,
715,
715,
715,
715,
715,
715,
715,
715,
715,
716,
716,
716,
716,
715,
715,
715,
715,
716,
716,
716,
716,
716,
716,
716,
716,
716,
716,
715,
715,
717,
717,
715,
715,
715,
715,
716,
716,
716,
716,
716,
716,
716,
716,
717,
717,
716,
716,
716,
716,
716,
716,
717,
717,
716,
716,
716,
716,
717,
717,
717,
717,
716,
716,
717,
717,
717,
717,
717,
717,
718,
718,
717,
717,
717,
717,
717,
717,
717,
717,
717,
717,
718,
718,
718,
718,
718,
718,
718,
718,
717,
717,
718,
718,
717,
717,
718,
718,
718,
718,
718,
718,
718,
718,
718,
718,
718,
718,
718,
718,
718,
718,
718,
718,
718,
718,
718,
718,
719,
719,
718,
718,
718,
718,
718,
718,
718,
718,
719,
719,
718,
718,
719,
719,
718,
718,
718,
718,
719,
719,
718,
718,
718,
718,
717,
717,
717,
717,
718,
718,
718,
718,
717,
717,
718,
718,
717,
717,
718,
718,
718,
718,
718,
718,
718,
718,
719,
719,
719,
719,
719,
719,
718,
718,
718,
718,
718,
718,
718,
718,
717,
717,
718,
718,
718,
718,
717,
717,
718,
718,
718,
718,
717,
717,
718,
718,
717,
717,
717,
717,
717,
717,
718,
718,
717,
717,
718,
718,
718,
718,
717,
717,
718,
718,
718,
718,
718,
718,
718,
718,
717,
717,
717,
717,
717,
717,
717,
717,
717,
717,
717,
717,
717,
717,
717,
717,
717,
717,
717,
717,
715,
715,
717,
717,
716,
716,
715,
715,
717,
717,
715,
715,
716,
716,
717,
717,
716,
716,
716,
716,
716,
716,
716,
716,
717,
717,
716,
716,
716,
716,
715,
715,
714,
714,
715,
715,
716,
716,
716,
716,
716,
716,
716,
716,
715,
715,
715,
715,
715,
715,
715,
715,
715,
715,
715,
715,
716,
716,
715,
715,
716,
716,
715,
715,
715,
715,
714,
714,
714,
714,
715,
715,
716,
716,
715,
715,
716,
716,
715,
715,
713,
713,
715,
715,
714,
714,
714,
714,
715,
715,
714,
714,
714,
714,
714,
714,
713,
713,
713,
713,
715,
715,
713,
713,
713,
713,
713,
713,
714,
714,
714,
714,
715,
715,
714,
714,
713,
713,
713,
713,
712,
712,
713,
713,
713,
713,
713,
713,
713,
713,
714,
714,
712,
712,
713,
713,
712,
712,
712,
712,
713,
713,
713,
713,
713,
713,
712,
712,
713,
713,
712,
712,
712,
712,
712,
712,
712,
712,
713,
713,
712,
712,
712,
712,
713,
713,
712,
712,
712,
712,
712,
712,
712,
712,
712,
712,
712,
712,
712,
712,
712,
712,
712,
712,
712,
712,
712,
712,
712,
712,
712,
712,
713,
713,
712,
712,
712,
712,
712,
712,
711,
711,
712,
712,
712,
712,
712,
712,
712,
712,
712,
712,
713,
713,
712,
712,
713,
713,
711,
711,
712,
712,
712,
712,
712,
712,
712,
712,
713,
713,
713,
713,
713,
713,
712,
712,
713,
713,
713,
713,
712,
712,
714,
714,
713,
713,
714,
714,
713,
713,
713,
713,
714,
714,
714,
714,
714,
714,
714,
714,
714,
714,
714,
714,
714,
714,
714,
714,
714,
714,
714,
714,
714,
714,
715,
715,
714,
714,
714,
714,
715,
715,
715,
715,
713,
713,
715,
715,
716,
716,
714,
714,
714,
714,
714,
714,
715,
715,
714,
714,
714,
714,
714,
714,
715,
715,
715,
715,
715,
715,
715,
715,
715,
715,
716,
716,
716,
716,
715,
715,
715,
715,
715,
715,
715,
715,
716,
716,
715,
715,
715,
715,
716,
716,
716,
716,
716,
716,
716,
716,
715,
715,
716,
716,
716,
716,
715,
715,
717,
717,
716,
716,
716,
716,
716,
716,
716,
716,
717,
717,
716,
716,
717,
717,
716,
716,
717,
717,
716,
716,
716,
716,
716,
716,
717,
717,
716,
716,
716,
716,
717,
717,
717,
717,
717,
717,
717,
717,
717,
717,
717,
717,
717,
717,
717,
717,
717,
717,
717,
717,
717,
717,
717,
717,
718,
718,
718,
718,
718,
718,
718,
718,
718,
718,
718,
718,
718,
718,
718,
718,
717,
717,
717,
717,
718,
718,
717,
717,
718,
718,
718,
718,
718,
718,
719,
719,
718,
718,
719,
719,
718,
718,
718,
718,
717,
717,
719,
719,
718,
718,
719,
719,
718,
718,
719,
719,
718,
718,
718,
718,
719,
719,
718,
718,
718,
718,
718,
718,
718,
718,
718,
718,
718,
718,
718,
718,
718,
718,
717,
717,
718,
718,
718,
718,
717,
717,
718,
718,
719,
719,
719,
719,
718,
718,
717,
717,
717,
717,
719,
719,
719,
719,
717,
717,
718,
718,
718,
718,
718,
718,
717,
717,
718,
718,
718,
718,
717,
717,
718,
718,
718,
718,
718,
718,
717,
717,
717,
717,
717,
717,
718,
718,
717,
717,
718,
718,
718,
718,
717,
717,
717,
717,
718,
718,
717,
717,
717,
717,
716,
716,
716,
716,
717,
717,
717,
717,
718,
718,
717,
717,
716,
716,
717,
717,
717,
717,
715,
715,
716,
716,
716,
716,
716,
716,
716,
716,
717,
717,
717,
717,
716,
716,
716,
716,
716,
716,
716,
716,
716,
716,
716,
716,
716,
716,
716,
716,
716,
716,
715,
715,
715,
715,
716,
716,
715,
715,
716,
716,
717,
717,
715,
715,
715,
715,
715,
715,
715,
715,
716,
716,
714,
714,
715,
715,
715,
715,
715,
715,
715,
715,
715,
715,
715,
715,
714,
714,
714,
714,
714,
714,
714,
714,
714,
714,
715,
715,
714,
714,
714,
714,
714,
714,
714,
714,
715,
715,
715,
715,
714,
714,
714,
714,
714,
714,
715,
715,
715,
715,
714,
714,
714,
714,
713,
713,
713,
713,
712,
712,
713,
713,
713,
713,
712,
712,
713,
713,
713,
713,
713,
713,
713,
713,
713,
713,
713,
713,
712,
712,
713,
713,
713,
713,
713,
713,
712,
712,
712,
712,
713,
713,
712,
712,
712,
712,
713,
713,
713,
713,
712,
712,
712,
712,
712,
712,
712,
712,
713,
713,
712,
712,
713,
713,
712,
712,
712,
712,
712,
712,
712,
712,
713,
713,
712,
712,
713,
713,
712,
712,
712,
712,
712,
712,
712,
712,
713,
713,
712,
712,
712,
712,
712,
712,
712,
712,
713,
713,
712,
712,
713,
713,
712,
712,
713,
713,
712,
712,
713,
713,
712,
712,
712,
712,
713,
713,
712,
712,
713,
713,
712,
712,
713,
713,
712,
712,
713,
713,
713,
713,
714,
714,
713,
713,
714,
714,
713,
713,
714,
714,
714,
714,
714,
714,
713,
713,
715,
715,
715,
715,
715,
715,
714,
714,
713,
713,
713,
713,
715,
715,
714,
714,
714,
714,
715,
715,
714,
714,
713,
713,
715,
715,
715,
715,
714,
714,
714,
714,
714,
714,
714,
714,
715,
715,
714,
714,
714,
714,
714,
714,
715,
715,
714,
714,
715,
715,
715,
715,
715,
715,
715,
715,
715,
715,
715,
715,
715,
715,
715,
715,
715,
715,
715,
715,
716,
716,
715,
715,
716,
716,
715,
715,
716,
716,
716,
716,
717,
717,
716,
716,
716,
716,
715,
715,
716,
716,
716,
716,
715,
715,
717,
717,
716,
716,
716,
716,
716,
716,
717,
717,
717,
717,
717,
717,
716,
716,
717,
717,
716,
716,
717,
717,
717,
717,
717,
717,
717,
717,
717,
717,
717,
717,
717,
717,
717,
717,
717,
717,
716,
716,
717,
717,
718,
718,
718,
718,
718,
718,
717,
717,
717,
717,
718,
718,
718,
718,
718,
718,
718,
718,
717,
717,
718,
718,
718,
718,
718,
718,
718,
718,
719,
719,
718,
718,
719,
719,
718,
718,
718,
718,
718,
718,
718,
718,
718,
718,
719,
719,
718,
718,
718,
718,
717,
717,
719,
719,
718,
718,
718,
718,
718,
718,
718,
718,
718,
718,
718,
718,
718,
718,
718,
718,
718,
718,
718,
718,
718,
718,
717,
717,
718,
718,
718,
718,
718,
718,
719,
719,
717,
717,
718,
718,
719,
719,
717,
717,
719,
719,
718,
718,
718,
718,
718,
718,
719,
719,
719,
719,
718,
718,
718,
718,
717,
717,
717,
717,
719,
719,
718,
718,
719,
719,
718,
718,
718,
718,
717,
717,
717,
717,
717,
717,
718,
718,
717,
717,
717,
717,
717,
717,
718,
718,
717,
717,
718,
718,
718,
718,
717,
717,
717,
717,
717,
717,
716,
716,
717,
717,
716,
716,
717,
717,
717,
717,
717,
717,
716,
716,
717,
717,
717,
717,
716,
716,
716,
716,
717,
717,
716,
716,
717,
717,
716,
716,
717,
717,
716,
716,
716,
716,
716,
716,
716,
716,
716,
716,
715,
715,
716,
716,
717,
717,
716,
716,
715,
715,
716,
716,
715,
715,
715,
715,
716,
716,
715,
715,
715,
715,
715,
715,
715,
715,
715,
715,
714,
714,
716,
716,
715,
715,
714,
714,
715,
715,
714,
714,
714,
714,
716,
716,
714,
714,
715,
715,
714,
714,
714,
714,
714,
714,
714,
714,
714,
714,
714,
714,
715,
715,
713,
713,
714,
714,
714,
714,
714,
714,
715,
715,
714,
714,
713,
713,
713,
713,
713,
713,
714,
714,
713,
713,
712,
712,
713,
713,
713,
713,
714,
714,
713,
713,
712,
712,
712,
712,
712,
712,
713,
713,
713,
713,
713,
713,
713,
713,
712,
712,
713,
713,
712,
712,
712,
712,
712,
712,
713,
713,
713,
713,
712,
712,
713,
713,
712,
712,
711,
711,
712,
712,
712,
712,
712,
712,
714,
714,
712,
712,
712,
712,
712,
712,
712,
712,
713,
713,
713,
713,
712,
712,
713,
713,
712,
712,
713,
713,
712,
712,
712,
712,
713,
713,
712,
712,
712,
712,
713,
713,
712,
712,
713,
713,
713,
713,
712,
712,
712,
712,
712,
712,
713,
713,
712,
712,
713,
713,
713,
713,
713,
713,
712,
712,
712,
712,
714,
714,
713,
713,
712,
712,
714,
714,
713,
713,
713,
713,
713,
713,
714,
714,
714,
714,
713,
713,
712,
712,
714,
714,
715,
715,
713,
713,
713,
713,
714,
714,
715,
715,
714,
714,
714,
714,
714,
714,
714,
714,
714,
714,
715,
715,
714,
714,
715,
715,
714,
714,
714,
714,
714,
714,
715,
715,
714,
714,
715,
715,
715,
715,
715,
715,
715,
715,
714,
714,
714,
714,
715,
715,
715,
715,
715,
715,
715,
715,
714,
714,
715,
715,
715,
715,
715,
715,
715,
715,
716,
716,
716,
716,
716,
716,
715,
715,
716,
716,
716,
716,
715,
715,
716,
716,
715,
715,
717,
717,
717,
717,
716,
716,
716,
716,
717,
717,
716,
716,
716,
716,
716,
716,
716,
716,
716,
716,
716,
716,
716,
716,
716,
716,
717,
717,
717,
717,
717,
717,
717,
717,
715,
715,
717,
717,
717,
717,
716,
716,
717,
717,
718,
718,
717,
717,
718,
718,
717,
717,
717,
717,
717,
717,
718,
718,
718,
718,
717,
717,
717,
717,
717,
717,
718,
718,
718,
718,
719,
719,
718,
718,
718,
718,
719,
719,
717,
717,
718,
718,
719,
719,
718,
718,
718,
718,
718,
718,
718,
718,
718,
718,
718,
718,
719,
719,
717,
717,
718,
718,
718,
718,
719,
719,
719,
719,
719,
719,
717,
717,
719,
719,
718,
718,
719,
719,
718,
718,
718,
718,
718,
718,
718,
718,
718,
718,
718,
718,
718,
718,
719,
719,
718,
718,
719,
719,
718,
718,
718,
718,
718,
718,
718,
718,
718,
718,
718,
718,
719,
719,
719,
719,
718,
718,
719,
719,
719,
719,
719,
719,
718,
718,
718,
718,
719,
719,
718,
718,
718,
718,
718,
718,
718,
718,
718,
718,
718,
718,
718,
718,
718,
718,
718,
718,
718,
718,
717,
717,
718,
718,
717,
717,
717,
717,
717,
717,
717,
717,
716,
716,
717,
717,
716,
716,
717,
717,
716,
716,
717,
717,
716,
716,
716,
716,
716,
716,
717,
717,
716,
716,
715,
715,
717,
717,
717,
717,
716,
716,
716,
716,
717,
717,
715,
715,
717,
717,
716,
716,
717,
717,
717,
717,
716,
716,
715,
715,
716,
716,
716,
716,
716,
716,
716,
716,
715,
715,
715,
715,
716,
716,
716,
716,
715,
715,
715,
715,
716,
716,
715,
715,
715,
715,
715,
715,
714,
714,
715,
715,
715,
715,
716,
716,
715,
715,
714,
714,
715,
715,
713,
713,
715,
715,
715,
715,
714,
714,
714,
714,
715,
715,
716,
716,
713,
713,
714,
714,
715,
715,
715,
715,
714,
714,
716,
716,
714,
714,
714,
714,
715,
715,
715,
715,
715,
715,
714,
714,
713,
713,
715,
715,
714,
714,
714,
714,
713,
713,
715,
715,
714,
714,
713,
713,
712,
712,
714,
714,
712,
712,
714,
714,
713,
713,
712,
712,
712,
712,
713,
713,
712,
712,
713,
713,
713,
713,
712,
712,
712,
712,
712,
712,
712,
712,
712,
712,
713,
713,
712,
712,
712,
712,
712,
712,
713,
713,
713,
713,
711,
711,
712,
712,
712,
712,
713,
713,
712,
712,
712,
712,
713,
713,
712,
712,
713,
713,
713,
713,
713,
713,
714,
714,
712,
712,
712,
712,
712,
712,
712,
712,
712,
712,
713,
713,
712,
712,
713,
713,
713,
713,
712,
712,
712,
712,
712,
712,
712,
712,
713,
713,
713,
713,
713,
713,
713,
713,
713,
713,
712,
712,
713,
713,
713,
713,
713,
713,
713,
713,
713,
713,
715,
715,
713,
713,
713,
713,
714,
714,
714,
714,
713,
713,
713,
713,
713,
713,
714,
714,
714,
714,
714,
714,
713,
713,
714,
714,
714,
714,
714,
714,
714,
714,
714,
714,
713,
713,
714,
714,
713,
713,
713,
713,
714,
714,
714,
714,
715,
715,
714,
714,
713,
713,
715,
715,
715,
715,
716,
716,
715,
715,
715,
715,
715,
715,
714,
714,
715,
715,
716,
716,
715,
715,
715,
715,
715,
715,
714,
714,
715,
715,
715,
715,
715,
715,
715,
715,
716,
716,
716,
716,
715,
715,
716,
716,
715,
715,
716,
716,
716,
716,
716,
716,
716,
716,
715,
715,
716,
716,
715,
715,
717,
717,
717,
717,
717,
717,
716,
716,
717,
717,
717,
717,
715,
715,
717,
717,
717,
717,
716,
716,
717,
717,
716,
716,
717,
717,
717,
717,
716,
716,
716,
716,
717,
717,
718,
718,
718,
718,
718,
718,
717,
717,
718,
718,
717,
717,
717,
717,
718,
718,
717,
717,
717,
717,
717,
717,
717,
717,
717,
717,
717,
717,
718,
718,
718,
718,
718,
718,
718,
718,
718,
718,
719,
719,
718,
718,
717,
717,
718,
718,
719,
719,
718,
718,
717,
717,
719,
719,
718,
718,
719,
719,
718,
718,
719,
719,
718,
718,
718,
718,
718,
718,
718,
718,
718,
718,
718,
718,
718,
718,
718,
718,
719,
719,
719,
719,
718,
718,
719,
719,
718,
718,
718,
718,
718,
718,
718,
718,
718,
718,
719,
719,
717,
717,
719,
719,
717,
717,
718,
718,
718,
718,
718,
718,
718,
718,
718,
718,
717,
717,
717,
717,
717,
717,
717,
717,
718,
718,
717,
717,
718,
718,
718,
718,
717,
717,
717,
717,
717,
717,
717,
717,
718,
718,
718,
718,
717,
717,
718,
718,
717,
717,
717,
717,
718,
718,
717,
717,
717,
717,
718,
718,
717,
717,
717,
717,
717,
717,
717,
717,
717,
717,
717,
717,
717,
717,
716,
716,
717,
717,
716,
716,
717,
717,
716,
716,
717,
717,
716,
716,
717,
717,
716,
716,
716,
716,
716,
716,
715,
715,
716,
716,
716,
716,
716,
716,
716,
716,
715,
715,
715,
715,
716,
716,
715,
715,
716,
716,
716,
716,
717,
717,
715,
715,
716,
716,
715,
715,
715,
715,
715,
715,
715,
715,
716,
716,
715,
715,
714,
714,
716,
716,
715,
715,
715,
715,
714,
714,
715,
715,
714,
714,
715,
715,
714,
714,
713,
713,
713,
713,
716,
716,
714,
714,
715,
715,
715,
715,
715,
715,
715,
715,
713,
713,
714,
714,
714,
714,
714,
714,
713,
713,
712,
712,
714,
714,
713,
713,
714,
714,
714,
714,
713,
713,
712,
712,
713,
713,
713,
713,
713,
713,
713,
713,
712,
712,
712,
712,
712,
712,
713,
713,
712,
712,
712,
712,
713,
713,
712,
712,
714,
714,
713,
713,
712,
712,
713,
713,
712,
712,
712,
712,
712,
712,
712,
712,
712,
712,
712,
712,
712,
712,
713,
713,
712,
712,
711,
711,
712,
712,
712,
712,
712,
712,
713,
713,
713,
713,
713,
713,
712,
712,
712,
712,
712,
712,
712,
712,
711,
711,
712,
712,
713,
713,
713,
713,
712,
712,
712,
712,
713,
713,
712,
712,
712,
712,
713,
713,
712,
712,
713,
713,
713,
713,
712,
712,
713,
713,
713,
713,
713,
713,
712,
712,
712,
712,
713,
713,
713,
713,
714,
714,
712,
712,
713,
713,
713,
713,
712,
712,
713,
713,
714,
714,
713,
713,
713,
713,
713,
713,
713,
713,
714,
714,
713,
713,
714,
714,
713,
713,
713,
713,
714,
714,
713,
713,
715,
715,
714,
714,
713,
713,
713,
713,
714,
714,
715,
715,
715,
715,
714,
714,
715,
715,
714,
714,
714,
714,
715,
715,
715,
715,
714,
714,
713,
713,
715,
715,
715,
715,
715,
715,
715,
715,
714,
714,
715,
715,
715,
715,
716,
716,
716,
716,
715,
715,
715,
715,
715,
715,
716,
716,
716,
716,
715,
715,
715,
715,
716,
716,
716,
716,
717,
717,
715,
715,
717,
717,
716,
716,
716,
716,
716,
716,
717,
717,
716,
716,
716,
716,
716,
716,
716,
716,
717,
717,
716,
716,
717,
717,
717,
717,
717,
717,
717,
717,
717,
717,
717,
717,
717,
717,
717,
717,
717,
717,
717,
717,
717,
717,
719,
719,
717,
717,
717,
717,
718,
718,
717,
717,
717,
717,
717,
717,
717,
717,
718,
718,
717,
717,
718,
718,
718,
718,
718,
718,
718,
718,
718,
718,
718,
718,
718,
718,
718,
718,
718,
718,
717,
717,
718,
718,
719,
719,
718,
718,
719,
719,
718,
718,
719,
719,
718,
718,
718,
718,
718,
718,
718,
718,
719,
719,
718,
718,
718,
718,
718,
718,
720,
720,
719,
719,
718,
718,
718,
718,
719,
719,
718,
718,
718,
718,
717,
717,
718,
718,
718,
718,
717,
717,
718,
718,
720,
720,
719,
719,
718,
718,
718,
718,
718,
718,
719,
719,
717,
717,
717,
717,
718,
718,
719,
719,
718,
718,
717,
717,
718,
718,
717,
717,
718,
718,
717,
717,
718,
718,
718,
718,
717,
717,
718,
718,
718,
718,
718,
718,
717,
717,
717,
717,
718,
718,
717,
717,
717,
717,
718,
718,
717,
717,
718,
718,
717,
717,
717,
717,
716,
716,
717,
717,
716,
716,
718,
718,
717,
717,
716,
716,
716,
716,
717,
717,
718,
718,
717,
717,
716,
