5-grundlagen-opAmps/data/ALL0094/A0094CH2.CSV

Memory Length,4000,
Trigger Level,2.00000e+01,
Source,CH2,
Probe,1.0X,
Vertical Units,V,
Vertical Scale,1.00000e+00,
Vertical Position,0.00000e+00,
Horizontal Units,S,
Horizontal Scale,1.00000e-02,
Horizontal Position,0.0000000e+00,
Horizontal Mode,Main,
Sampling Period,4.00000e-05,
Firmware,V1.14,
Time, ,
Mode,Fast,
Waveform Data,
-48,
-48,
-48,
-48,
-48,
-47,
-47,
-48,
-48,
-48,
-48,
-48,
-48,
-48,
-48,
-48,
-48,
-48,
-48,
-48,
-48,
-48,
-48,
-48,
-48,
-48,
-48,
-47,
-47,
-49,
-49,
-48,
-48,
-48,
-48,
-48,
-48,
-47,
-47,
-48,
-48,
-47,
-47,
-48,
-48,
-48,
-48,
-47,
-47,
-48,
-48,
-47,
-47,
-47,
-47,
-47,
-47,
-47,
-47,
-46,
-46,
-46,
-46,
-46,
-46,
-46,
-46,
-46,
-46,
-45,
-45,
-45,
-45,
-45,
-45,
-45,
-45,
-44,
-44,
-44,
-44,
-44,
-44,
-44,
-44,
-44,
-44,
-44,
-44,
-43,
-43,
-43,
-43,
-42,
-42,
-42,
-42,
-42,
-42,
-42,
-42,
-41,
-41,
-41,
-41,
-41,
-41,
-40,
-40,
-40,
-40,
-40,
-40,
-40,
-40,
-39,
-39,
-38,
-38,
-37,
-37,
-38,
-38,
-38,
-38,
-37,
-37,
-37,
-37,
-37,
-37,
-35,
-35,
-36,
-36,
-36,
-36,
-35,
-35,
-35,
-35,
-35,
-35,
-34,
-34,
-34,
-34,
-33,
-33,
-34,
-34,
-34,
-34,
-33,
-33,
-34,
-34,
-32,
-32,
-32,
-32,
-32,
-32,
-30,
-30,
-31,
-31,
-31,
-31,
-31,
-31,
-31,
-31,
-30,
-30,
-29,
-29,
-29,
-29,
-28,
-28,
-28,
-28,
-28,
-28,
-27,
-27,
-29,
-29,
-28,
-28,
-28,
-28,
-27,
-27,
-27,
-27,
-26,
-26,
-26,
-26,
-25,
-25,
-25,
-25,
-26,
-26,
-25,
-25,
-25,
-25,
-26,
-26,
-25,
-25,
-25,
-25,
-24,
-24,
-24,
-24,
-25,
-25,
-24,
-24,
-23,
-23,
-23,
-23,
-24,
-24,
-23,
-23,
-23,
-23,
-23,
-23,
-23,
-23,
-24,
-24,
-24,
-24,
-23,
-23,
-22,
-22,
-24,
-24,
-24,
-24,
-23,
-23,
-23,
-23,
-23,
-23,
-23,
-23,
-23,
-23,
-24,
-24,
-23,
-23,
-23,
-23,
-23,
-23,
-24,
-24,
-25,
-25,
-25,
-25,
-23,
-23,
-23,
-23,
-24,
-24,
-24,
-24,
-24,
-24,
-24,
-24,
-25,
-25,
-25,
-25,
-25,
-25,
-25,
-25,
-25,
-25,
-26,
-26,
-27,
-27,
-26,
-26,
-25,
-25,
-26,
-26,
-26,
-26,
-27,
-27,
-27,
-27,
-28,
-28,
-28,
-28,
-28,
-28,
-29,
-29,
-29,
-29,
-30,
-30,
-30,
-30,
-30,
-30,
-29,
-29,
-30,
-30,
-31,
-31,
-31,
-31,
-32,
-32,
-32,
-32,
-32,
-32,
-32,
-32,
-34,
-34,
-33,
-33,
-32,
-32,
-33,
-33,
-34,
-34,
-34,
-34,
-35,
-35,
-35,
-35,
-35,
-35,
-35,
-35,
-36,
-36,
-36,
-36,
-36,
-36,
-37,
-37,
-36,
-36,
-37,
-37,
-37,
-37,
-39,
-39,
-39,
-39,
-40,
-40,
-39,
-39,
-39,
-39,
-40,
-40,
-40,
-40,
-40,
-40,
-40,
-40,
-40,
-40,
-41,
-41,
-42,
-42,
-43,
-43,
-42,
-42,
-42,
-42,
-43,
-43,
-43,
-43,
-43,
-43,
-44,
-44,
-44,
-44,
-44,
-44,
-44,
-44,
-45,
-45,
-44,
-44,
-44,
-44,
-45,
-45,
-45,
-45,
-46,
-46,
-46,
-46,
-46,
-46,
-47,
-47,
-46,
-46,
-46,
-46,
-47,
-47,
-47,
-47,
-47,
-47,
-48,
-48,
-47,
-47,
-47,
-47,
-47,
-47,
-47,
-47,
-47,
-47,
-47,
-47,
-48,
-48,
-48,
-48,
-48,
-48,
-48,
-48,
-48,
-48,
-48,
-48,
-49,
-49,
-48,
-48,
-48,
-48,
-48,
-48,
-47,
-47,
-47,
-47,
-48,
-48,
-48,
-48,
-48,
-48,
-48,
-48,
-47,
-47,
-49,
-49,
-48,
-48,
-48,
-48,
-48,
-48,
-48,
-48,
-47,
-47,
-48,
-48,
-47,
-47,
-46,
-46,
-47,
-47,
-47,
-47,
-47,
-47,
-47,
-47,
-46,
-46,
-46,
-46,
-45,
-45,
-46,
-46,
-45,
-45,
-45,
-45,
-45,
-45,
-45,
-45,
-44,
-44,
-44,
-44,
-44,
-44,
-44,
-44,
-43,
-43,
-43,
-43,
-43,
-43,
-44,
-44,
-42,
-42,
-42,
-42,
-41,
-41,
-43,
-43,
-42,
-42,
-40,
-40,
-41,
-41,
-40,
-40,
-40,
-40,
-39,
-39,
-39,
-39,
-39,
-39,
-39,
-39,
-38,
-38,
-37,
-37,
-37,
-37,
-37,
-37,
-37,
-37,
-37,
-37,
-37,
-37,
-36,
-36,
-35,
-35,
-35,
-35,
-35,
-35,
-35,
-35,
-34,
-34,
-34,
-34,
-34,
-34,
-33,
-33,
-33,
-33,
-33,
-33,
-33,
-33,
-32,
-32,
-32,
-32,
-32,
-32,
-32,
-32,
-31,
-31,
-31,
-31,
-28,
-28,
-30,
-30,
-30,
-30,
-29,
-29,
-29,
-29,
-29,
-29,
-29,
-29,
-28,
-28,
-29,
-29,
-27,
-27,
-27,
-27,
-27,
-27,
-26,
-26,
-26,
-26,
-26,
-26,
-26,
-26,
-25,
-25,
-25,
-25,
-25,
-25,
-25,
-25,
-24,
-24,
-25,
-25,
-25,
-25,
-25,
-25,
-24,
-24,
-25,
-25,
-24,
-24,
-24,
-24,
-25,
-25,
-23,
-23,
-23,
-23,
-24,
-24,
-23,
-23,
-23,
-23,
-24,
-24,
-24,
-24,
-24,
-24,
-23,
-23,
-24,
-24,
-23,
-23,
-23,
-23,
-23,
-23,
-22,
-22,
-23,
-23,
-24,
-24,
-24,
-24,
-23,
-23,
-24,
-24,
-23,
-23,
-23,
-23,
-24,
-24,
-24,
-24,
-24,
-24,
-25,
-25,
-24,
-24,
-25,
-25,
-23,
-23,
-25,
-25,
-25,
-25,
-24,
-24,
-25,
-25,
-26,
-26,
-26,
-26,
-25,
-25,
-26,
-26,
-26,
-26,
-26,
-26,
-26,
-26,
-26,
-26,
-27,
-27,
-27,
-27,
-28,
-28,
-28,
-28,
-28,
-28,
-28,
-28,
-28,
-28,
-29,
-29,
-29,
-29,
-30,
-30,
-30,
-30,
-30,
-30,
-29,
-29,
-31,
-31,
-32,
-32,
-31,
-31,
-33,
-33,
-32,
-32,
-32,
-32,
-33,
-33,
-33,
-33,
-33,
-33,
-34,
-34,
-34,
-34,
-35,
-35,
-35,
-35,
-35,
-35,
-35,
-35,
-35,
-35,
-35,
-35,
-36,
-36,
-37,
-37,
-37,
-37,
-37,
-37,
-37,
-37,
-37,
-37,
-38,
-38,
-38,
-38,
-39,
-39,
-39,
-39,
-39,
-39,
-40,
-40,
-40,
-40,
-41,
-41,
-40,
-40,
-41,
-41,
-41,
-41,
-41,
-41,
-42,
-42,
-41,
-41,
-43,
-43,
-42,
-42,
-43,
-43,
-44,
-44,
-43,
-43,
-44,
-44,
-44,
-44,
-45,
-45,
-45,
-45,
-45,
-45,
-45,
-45,
-45,
-45,
-45,
-45,
-45,
-45,
-46,
-46,
-45,
-45,
-46,
-46,
-47,
-47,
-46,
-46,
-46,
-46,
-47,
-47,
-47,
-47,
-47,
-47,
-48,
-48,
-47,
-47,
-48,
-48,
-48,
-48,
-47,
-47,
-48,
-48,
-48,
-48,
-48,
-48,
-48,
-48,
-48,
-48,
-48,
-48,
-48,
-48,
-49,
-49,
-49,
-49,
-48,
-48,
-48,
-48,
-49,
-49,
-48,
-48,
-48,
-48,
-48,
-48,
-48,
-48,
-48,
-48,
-47,
-47,
-48,
-48,
-48,
-48,
-48,
-48,
-47,
-47,
-47,
-47,
-48,
-48,
-47,
-47,
-48,
-48,
-47,
-47,
-47,
-47,
-46,
-46,
-46,
-46,
-47,
-47,
-46,
-46,
-45,
-45,
-45,
-45,
-46,
-46,
-45,
-45,
-45,
-45,
-45,
-45,
-45,
-45,
-44,
-44,
-44,
-44,
-44,
-44,
-44,
-44,
-44,
-44,
-43,
-43,
-43,
-43,
-43,
-43,
-41,
-41,
-42,
-42,
-41,
-41,
-40,
-40,
-41,
-41,
-41,
-41,
-40,
-40,
-41,
-41,
-40,
-40,
-39,
-39,
-39,
-39,
-38,
-38,
-38,
-38,
-38,
-38,
-38,
-38,
-37,
-37,
-37,
-37,
-36,
-36,
-36,
-36,
-36,
-36,
-35,
-35,
-36,
-36,
-35,
-35,
-35,
-35,
-34,
-34,
-35,
-35,
-34,
-34,
-34,
-34,
-33,
-33,
-33,
-33,
-31,
-31,
-32,
-32,
-33,
-33,
-32,
-32,
-32,
-32,
-30,
-30,
-31,
-31,
-30,
-30,
-31,
-31,
-30,
-30,
-30,
-30,
-29,
-29,
-29,
-29,
-29,
-29,
-28,
-28,
-26,
-26,
-27,
-27,
-27,
-27,
-27,
-27,
-27,
-27,
-27,
-27,
-27,
-27,
-26,
-26,
-27,
-27,
-26,
-26,
-25,
-25,
-25,
-25,
-25,
-25,
-25,
-25,
-25,
-25,
-25,
-25,
-24,
-24,
-23,
-23,
-24,
-24,
-24,
-24,
-23,
-23,
-23,
-23,
-24,
-24,
-23,
-23,
-24,
-24,
-23,
-23,
-23,
-23,
-24,
-24,
-23,
-23,
-24,
-24,
-24,
-24,
-24,
-24,
-23,
-23,
-23,
-23,
-23,
-23,
-23,
-23,
-23,
-23,
-23,
-23,
-24,
-24,
-23,
-23,
-22,
-22,
-23,
-23,
-24,
-24,
-23,
-23,
-24,
-24,
-24,
-24,
-25,
-25,
-24,
-24,
-25,
-25,
-24,
-24,
-25,
-25,
-25,
-25,
-25,
-25,
-25,
-25,
-25,
-25,
-25,
-25,
-25,
-25,
-26,
-26,
-27,
-27,
-26,
-26,
-27,
-27,
-26,
-26,
-28,
-28,
-27,
-27,
-27,
-27,
-27,
-27,
-28,
-28,
-29,
-29,
-29,
-29,
-29,
-29,
-29,
-29,
-31,
-31,
-30,
-30,
-30,
-30,
-30,
-30,
-32,
-32,
-32,
-32,
-32,
-32,
-32,
-32,
-32,
-32,
-32,
-32,
-32,
-32,
-31,
-31,
-34,
-34,
-34,
-34,
-34,
-34,
-35,
-35,
-35,
-35,
-36,
-36,
-36,
-36,
-36,
-36,
-36,
-36,
-36,
-36,
-37,
-37,
-37,
-37,
-37,
-37,
-37,
-37,
-38,
-38,
-38,
-38,
-39,
-39,
-39,
-39,
-40,
-40,
-40,
-40,
-39,
-39,
-40,
-40,
-40,
-40,
-41,
-41,
-42,
-42,
-41,
-41,
-41,
-41,
-42,
-42,
-43,
-43,
-43,
-43,
-43,
-43,
-43,
-43,
-44,
-44,
-44,
-44,
-45,
-45,
-44,
-44,
-45,
-45,
-45,
-45,
-45,
-45,
-44,
-44,
-45,
-45,
-47,
-47,
-46,
-46,
-47,
-47,
-46,
-46,
-47,
-47,
-47,
-47,
-47,
-47,
-47,
-47,
-47,
-47,
-47,
-47,
-47,
-47,
-48,
-48,
-47,
-47,
-49,
-49,
-48,
-48,
-49,
-49,
-48,
-48,
-48,
-48,
-48,
-48,
-49,
-49,
-47,
-47,
-48,
-48,
-48,
-48,
-48,
-48,
-48,
-48,
-48,
-48,
-49,
-49,
-48,
-48,
-48,
-48,
-48,
-48,
-47,
-47,
-48,
-48,
-48,
-48,
-48,
-48,
-47,
-47,
-47,
-47,
-47,
-47,
-47,
-47,
-47,
-47,
-48,
-48,
-47,
-47,
-47,
-47,
-47,
-47,
-46,
-46,
-47,
-47,
-46,
-46,
-46,
-46,
-45,
-45,
-45,
-45,
-46,
-46,
-45,
-45,
-45,
-45,
-45,
-45,
-44,
-44,
-45,
-45,
-44,
-44,
-44,
-44,
-45,
-45,
-44,
-44,
-42,
-42,
-43,
-43,
-43,
-43,
-42,
-42,
-42,
-42,
-41,
-41,
-41,
-41,
-41,
-41,
-41,
-41,
-41,
-41,
-40,
-40,
-40,
-40,
-40,
-40,
-39,
-39,
-39,
-39,
-38,
-38,
-37,
-37,
-38,
-38,
-37,
-37,
-37,
-37,
-37,
-37,
-37,
-37,
-36,
-36,
-35,
-35,
-35,
-35,
-36,
-36,
-35,
-35,
-35,
-35,
-34,
-34,
-34,
-34,
-34,
-34,
-33,
-33,
-33,
-33,
-33,
-33,
-33,
-33,
-32,
-32,
-32,
-32,
-32,
-32,
-31,
-31,
-31,
-31,
-30,
-30,
-31,
-31,
-30,
-30,
-30,
-30,
-30,
-30,
-30,
-30,
-29,
-29,
-29,
-29,
-29,
-29,
-27,
-27,
-27,
-27,
-27,
-27,
-27,
-27,
-26,
-26,
-27,
-27,
-26,
-26,
-26,
-26,
-26,
-26,
-26,
-26,
-25,
-25,
-26,
-26,
-25,
-25,
-25,
-25,
-26,
-26,
-25,
-25,
-25,
-25,
-25,
-25,
-25,
-25,
-24,
-24,
-23,
-23,
-24,
-24,
-24,
-24,
-23,
-23,
-23,
-23,
-24,
-24,
-24,
-24,
-24,
-24,
-24,
-24,
-24,
-24,
-24,
-24,
-23,
-23,
-24,
-24,
-23,
-23,
-23,
-23,
-23,
-23,
-24,
-24,
-23,
-23,
-24,
-24,
-24,
-24,
-24,
-24,
-23,
-23,
-24,
-24,
-24,
-24,
-23,
-23,
-25,
-25,
-24,
-24,
-25,
-25,
-24,
-24,
-24,
-24,
-25,
-25,
-25,
-25,
-25,
-25,
-25,
-25,
-25,
-25,
-25,
-25,
-26,
-26,
-26,
-26,
-27,
-27,
-27,
-27,
-26,
-26,
-27,
-27,
-27,
-27,
-28,
-28,
-29,
-29,
-27,
-27,
-29,
-29,
-29,
-29,
-29,
-29,
-29,
-29,
-30,
-30,
-30,
-30,
-30,
-30,
-31,
-31,
-31,
-31,
-30,
-30,
-31,
-31,
-32,
-32,
-32,
-32,
-32,
-32,
-32,
-32,
-33,
-33,
-33,
-33,
-34,
-34,
-34,
-34,
-35,
-35,
-34,
-34,
-35,
-35,
-35,
-35,
-34,
-34,
-36,
-36,
-36,
-36,
-37,
-37,
-37,
-37,
-37,
-37,
-39,
-39,
-37,
-37,
-37,
-37,
-38,
-38,
-39,
-39,
-39,
-39,
-39,
-39,
-40,
-40,
-40,
-40,
-41,
-41,
-41,
-41,
-41,
-41,
-41,
-41,
-42,
-42,
-42,
-42,
-42,
-42,
-42,
-42,
-43,
-43,
-43,
-43,
-42,
-42,
-44,
-44,
-44,
-44,
-44,
-44,
-43,
-43,
-44,
-44,
-45,
-45,
-45,
-45,
-45,
-45,
-45,
-45,
-45,
-45,
-46,
-46,
-46,
-46,
-46,
-46,
-47,
-47,
-47,
-47,
-47,
-47,
-47,
-47,
-47,
-47,
-47,
-47,
-48,
-48,
-47,
-47,
-47,
-47,
-48,
-48,
-47,
-47,
-48,
-48,
-49,
-49,
-48,
-48,
-48,
-48,
-48,
-48,
-48,
-48,
-48,
-48,
-48,
-48,
-48,
-48,
-48,
-48,
-46,
-46,
-49,
-49,
-48,
-48,
-47,
-47,
-48,
-48,
-48,
-48,
-48,
-48,
-48,
-48,
-48,
-48,
-48,
-48,
-48,
-48,
-48,
-48,
-48,
-48,
-47,
-47,
-47,
-47,
-47,
-47,
-47,
-47,
-47,
-47,
-47,
-47,
-46,
-46,
-46,
-46,
-46,
-46,
-46,
-46,
-45,
-45,
-45,
-45,
-45,
-45,
-45,
-45,
-45,
-45,
-45,
-45,
-45,
-45,
-44,
-44,
-44,
-44,
-44,
-44,
-43,
-43,
-44,
-44,
-43,
-43,
-42,
-42,
-42,
-42,
-41,
-41,
-42,
-42,
-41,
-41,
-41,
-41,
-40,
-40,
-40,
-40,
-40,
-40,
-40,
-40,
-39,
-39,
-39,
-39,
-38,
-38,
-37,
-37,
-38,
-38,
-37,
-37,
-37,
-37,
-37,
-37,
-36,
-36,
-36,
-36,
-36,
-36,
-36,
-36,
-35,
-35,
-36,
-36,
-34,
-34,
-35,
-35,
-33,
-33,
-34,
-34,
-34,
-34,
-33,
-33,
-33,
-33,
-32,
-32,
-33,
-33,
-33,
-33,
-31,
-31,
-31,
-31,
-31,
-31,
-30,
-30,
-30,
-30,
-30,
-30,
-30,
-30,
-29,
-29,
-29,
-29,
-29,
-29,
-28,
-28,
-29,
-29,
-29,
-29,
-27,
-27,
-27,
-27,
-27,
-27,
-26,
-26,
-26,
-26,
-27,
-27,
-26,
-26,
-26,
-26,
-26,
-26,
-26,
-26,
-25,
-25,
-25,
-25,
-26,
-26,
-25,
-25,
-25,
-25,
-24,
-24,
-25,
-25,
-25,
-25,
-24,
-24,
-24,
-24,
-24,
-24,
-24,
-24,
-24,
-24,
-23,
-23,
-24,
-24,
-23,
-23,
-23,
-23,
-23,
-23,
-23,
-23,
-23,
-23,
-23,
-23,
-23,
-23,
-24,
-24,
-25,
-25,
-24,
-24,
-22,
-22,
-24,
-24,
-24,
-24,
-25,
-25,
-24,
-24,
-23,
-23,
-22,
-22,
-23,
-23,
-23,
-23,
-23,
-23,
-24,
-24,
-26,
-26,
-25,
-25,
-25,
-25,
-24,
-24,
-25,
-25,
-25,
-25,
-25,
-25,
-25,
-25,
-25,
-25,
-25,
-25,
-25,
-25,
-26,
-26,
-27,
-27,
-26,
-26,
-27,
-27,
-27,
-27,
-27,
-27,
-29,
-29,
-29,
-29,
-29,
-29,
-28,
-28,
-29,
-29,
-29,
-29,
-30,
-30,
-30,
-30,
-30,
-30,
-31,
-31,
-30,
-30,
-31,
-31,
-32,
-32,
-30,
-30,
-32,
-32,
-32,
-32,
-32,
-32,
-33,
-33,
-33,
-33,
-34,
-34,
-33,
-33,
-35,
-35,
-34,
-34,
-36,
-36,
-35,
-35,
-35,
-35,
-36,
-36,
-36,
-36,
-36,
-36,
-37,
-37,
-37,
-37,
-37,
-37,
-37,
-37,
-37,
-37,
-38,
-38,
-38,
-38,
-39,
-39,
-39,
-39,
-40,
-40,
-39,
-39,
-40,
-40,
-39,
-39,
-41,
-41,
-42,
-42,
-42,
-42,
-42,
-42,
-43,
-43,
-42,
-42,
-42,
-42,
-44,
-44,
-43,
-43,
-43,
-43,
-45,
-45,
-44,
-44,
-45,
-45,
-43,
-43,
-45,
-45,
-45,
-45,
-45,
-45,
-46,
-46,
-45,
-45,
-45,
-45,
-46,
-46,
-46,
-46,
-45,
-45,
-45,
-45,
-46,
-46,
-47,
-47,
-47,
-47,
-47,
-47,
-47,
-47,
-47,
-47,
-48,
-48,
-47,
-47,
-48,
-48,
-48,
-48,
-48,
-48,
-48,
-48,
-48,
-48,
-48,
-48,
-49,
-49,
-48,
-48,
-49,
-49,
-48,
-48,
-49,
-49,
-48,
-48,
-47,
-47,
-47,
-47,
-48,
-48,
-49,
-49,
-48,
-48,
-48,
-48,
-49,
-49,
-48,
-48,
-48,
-48,
-47,
-47,
-47,
-47,
-47,
-47,
-47,
-47,
-46,
-46,
-47,
-47,
-47,
-47,
-46,
-46,
-47,
-47,
-45,
-45,
-47,
-47,
-47,
-47,
-45,
-45,
-46,
-46,
-45,
-45,
-45,
-45,
-45,
-45,
-45,
-45,
-44,
-44,
-45,
-45,
-45,
-45,
-45,
-45,
-44,
-44,
-43,
-43,
-43,
-43,
-42,
-42,
-41,
-41,
-43,
-43,
-41,
-41,
-42,
-42,
-41,
-41,
-40,
-40,
-40,
-40,
-41,
-41,
-40,
-40,
-40,
-40,
-40,
-40,
-39,
-39,
-38,
-38,
-37,
-37,
-38,
-38,
-37,
-37,
-37,
-37,
-37,
-37,
-37,
-37,
-36,
-36,
-36,
-36,
-36,
-36,
-36,
-36,
-35,
-35,
-35,
-35,
-35,
-35,
-34,
-34,
-33,
-33,
-34,
-34,
-33,
-33,
-33,
-33,
-33,
-33,
-32,
-32,
-33,
-33,
-32,
-32,
-31,
-31,
-31,
-31,
-31,
-31,
-30,
-30,
-31,
-31,
-30,
-30,
-30,
-30,
-29,
-29,
-29,
-29,
-29,
-29,
-28,
-28,
-29,
-29,
-27,
-27,
-28,
-28,
-27,
-27,
-27,
-27,
-27,
-27,
-27,
-27,
-26,
-26,
-26,
-26,
-26,
-26,
-26,
-26,
-26,
-26,
-24,
-24,
-25,
-25,
-24,
-24,
-25,
-25,
-25,
-25,
-25,
-25,
-25,
-25,
-24,
-24,
-24,
-24,
-23,
-23,
-25,
-25,
-23,
-23,
-24,
-24,
-24,
-24,
-23,
-23,
-23,
-23,
-24,
-24,
-23,
-23,
-24,
-24,
-24,
-24,
-24,
-24,
-23,
-23,
-23,
-23,
-24,
-24,
-23,
-23,
-23,
-23,
-23,
-23,
-23,
-23,
-24,
-24,
-23,
-23,
-24,
-24,
-24,
-24,
-24,
-24,
-24,
-24,
-24,
-24,
-24,
-24,
-25,
-25,
-25,
-25,
-25,
-25,
-24,
-24,
-25,
-25,
-25,
-25,
-25,
-25,
-25,
-25,
-25,
-25,
-26,
-26,
-26,
-26,
-26,
-26,
-27,
-27,
-27,
-27,
-28,
-28,
-27,
-27,
-27,
-27,
-29,
-29,
-28,
-28,
-29,
-29,
-29,
-29,
-29,
-29,
-29,
-29,
-30,
-30,
-30,
-30,
-30,
-30,
-30,
-30,
-31,
-31,
-31,
-31,
-32,
-32,
-32,
-32,
-31,
-31,
-32,
-32,
-32,
-32,
-32,
-32,
-33,
-33,
-33,
-33,
-35,
-35,
-34,
-34,
-34,
-34,
-36,
-36,
-35,
-35,
-36,
-36,
-37,
-37,
-37,
-37,
-36,
-36,
-37,
-37,
-37,
-37,
-37,
-37,
-39,
-39,
-38,
-38,
-38,
-38,
-39,
-39,
-39,
-39,
-40,
-40,
-40,
-40,
-40,
-40,
-40,
-40,
-41,
-41,
-41,
-41,
-41,
-41,
-41,
-41,
-41,
-41,
-41,
-41,
-42,
-42,
-42,
-42,
-44,
-44,
-44,
-44,
-43,
-43,
-44,
-44,
-44,
-44,
-45,
-45,
-44,
-44,
-45,
-45,
-46,
-46,
-45,
-45,
-45,
-45,
-45,
-45,
-45,
-45,
-46,
-46,
-45,
-45,
-47,
-47,
-46,
-46,
-46,
-46,
-46,
-46,
-47,
-47,
-47,
-47,
-47,
-47,
-48,
-48,
-47,
-47,
-47,
-47,
-48,
-48,
-49,
-49,
-48,
-48,
-47,
-47,
-47,
-47,
-48,
-48,
-48,
-48,
-47,
-47,
-49,
-49,
-48,
-48,
-48,
-48,
-48,
-48,
-48,
-48,
-47,
-47,
-49,
-49,
-48,
-48,
-48,
-48,
-48,
-48,
-48,
-48,
-47,
-47,
-48,
-48,
-47,
-47,
-48,
-48,
-47,
-47,
-47,
-47,
-48,
-48,
-48,
-48,
-47,
-47,
-46,
-46,
-47,
-47,
-46,
-46,
-47,
-47,
-46,
-46,
-46,
-46,
-46,
-46,
-45,
-45,
-45,
-45,
-45,
-45,
-45,
-45,
-45,
-45,
-45,
-45,
-44,
-44,
-41,
-41,
-43,
-43,
-44,
-44,
-42,
-42,
-43,
-43,
-45,
-45,
-41,
-41,
-42,
-42,
-42,
-42,
-41,
-41,
-40,
-40,
-39,
-39,
-40,
-40,
-40,
-40,
-40,
-40,
-38,
-38,
-39,
-39,
-39,
-39,
-37,
-37,
-38,
-38,
-39,
-39,
-37,
-37,
-37,
-37,
-37,
-37,
-36,
-36,
-36,
-36,
-36,
-36,
-35,
-35,
-35,
-35,
-35,
-35,
-34,
-34,
-34,
-34,
-33,
-33,
-34,
-34,
-33,
-33,
-33,
-33,
-33,
-33,
-33,
-33,
-32,
-32,
-31,
-31,
-31,
-31,
-31,
-31,
-30,
-30,
-30,
-30,
-31,
-31,
-30,
-30,
-29,
-29,
-29,
-29,
-29,
-29,
-28,
-28,
-29,
-29,
-28,
-28,
-28,
-28,
-27,
-27,
-26,
-26,
-27,
-27,
-27,
-27,
-26,
-26,
-26,
-26,
-26,
-26,
-26,
-26,
-26,
-26,
-26,
-26,
-24,
-24,
-25,
-25,
-24,
-24,
-24,
-24,
-25,
-25,
-25,
-25,
-24,
-24,
-24,
-24,
-25,
-25,
-24,
-24,
-23,
-23,
-24,
-24,
-23,
-23,
-24,
-24,
-24,
-24,
-23,
-23,
-23,
-23,
-24,
-24,
-23,
-23,
-23,
-23,
-23,
-23,
-23,
-23,
-24,
-24,
-24,
-24,
-24,
-24,
-23,
-23,
-24,
-24,
-23,
-23,
-24,
-24,
-24,
-24,
-23,
-23,
-24,
-24,
-23,
-23,
-24,
-24,
-24,
-24,
-24,
-24,
-24,
-24,
-24,
-24,
-24,
-24,
-24,
-24,
-25,
-25,
-26,
-26,
-25,
-25,
-26,
-26,
-25,
-25,
-25,
-25,
-26,
-26,
-26,
-26,
-26,
-26,
-26,
-26,
-27,
-27,
-27,
-27,
-27,
-27,
-29,
-29,
-28,
-28,
-29,
-29,
-28,
-28,
-30,
-30,
-29,
-29,
-30,
-30,
-31,
-31,
-30,
-30,
-31,
-31,
-31,
-31,
-31,
-31,
-32,
-32,
-32,
-32,
-33,
-33,
-33,
-33,
-33,
-33,
-33,
-33,
-34,
-34,
-34,
-34,
-34,
-34,
-35,
-35,
-34,
-34,
-35,
-35,
-35,
-35,
-36,
-36,
-35,
-35,
-36,
-36,
-37,
-37,
-37,
-37,
-38,
-38,
-38,
-38,
-38,
-38,
-38,
-38,
-39,
-39,
-39,
-39,
-39,
-39,
-39,
-39,
-40,
-40,
-40,
-40,
-40,
-40,
-41,
-41,
-40,
-40,
-42,
-42,
-41,
-41,
-42,
-42,
-42,
-42,
-42,
-42,
-42,
-42,
-43,
-43,
-44,
-44,
-45,
-45,
-45,
-45,
-44,
-44,
-45,
-45,
-44,
-44,
-45,
-45,
-45,
-45,
-45,
-45,
-46,
-46,
-46,
-46,
-46,
-46,
-46,
-46,
-47,
-47,
-46,
-46,
-46,
-46,
-46,
-46,
-47,
-47,
-47,
-47,
-47,
-47,
-46,
-46,
-48,
-48,
-48,
-48,
-47,
-47,
-48,
-48,
-48,
-48,
-47,
-47,
-48,
-48,
-48,
-48,
-48,
-48,
-48,
-48,
-48,
-48,
-48,
-48,
-48,
-48,
-49,
-49,
-49,
-49,
-48,
-48,
-47,
-47,
-48,
-48,
-48,
-48,
-48,
-48,
-47,
-47,
-46,
-46,
-48,
-48,
-47,
-47,
-48,
-48,
-47,
-47,
-47,
-47,
-48,
-48,
-47,
-47,
-47,
-47,
-48,
-48,
-47,
-47,
-47,
-47,
-47,
-47,
-47,
-47,
-47,
-47,
-46,
-46,
-46,
-46,
-44,
-44,
-45,
-45,
-45,
-45,
-45,
-45,
-44,
-44,
-44,
-44,
-44,
-44,
-44,
-44,
-43,
-43,
-43,
-43,
-41,
-41,
-42,
-42,
-42,
-42,
-42,
-42,
-42,
-42,
-41,
-41,
-41,
-41,
-40,
-40,
-40,
-40,
-40,
-40,
-40,
-40,
-40,
-40,
-39,
-39,
-39,
-39,
-39,
-39,
-38,
-38,
-38,
-38,
-38,
-38,
-37,
-37,
-37,
-37,
-37,
-37,
-36,
-36,
-35,
-35,
-35,
-35,
-35,
-35,
-35,
-35,
-34,
-34,
-34,
-34,
-33,
-33,
-36,
-36,
-32,
-32,
-34,
-34,
-32,
-32,
-32,
-32,
-32,
-32,
-32,
-32,
-31,
-31,
-32,
-32,
-31,
-31,
-31,
-31,
-31,
-31,
-30,
-30,
-30,
-30,
-29,
-29,
-29,
-29,
-29,
-29,
-29,
-29,
-28,
-28,
-29,
-29,
-27,
-27,
-28,
-28,
-28,
-28,
-27,
-27,
-26,
-26,
-26,
-26,
-26,
-26,
-26,
-26,
-26,
-26,
-25,
-25,
-25,
-25,
-25,
-25,
-25,
-25,
-24,
-24,
-24,
-24,
-24,
-24,
-24,
-24,
-24,
-24,
-24,
-24,
-24,
-24,
-24,
-24,
-24,
-24,
-23,
-23,
-24,
-24,
-24,
-24,
-24,
-24,
-23,
-23,
-23,
-23,
-24,
-24,
-23,
-23,
-23,
-23,
-23,
-23,
-23,
-23,
-23,
-23,
-22,
-22,
-23,
-23,
-23,
-23,
-23,
-23,
-24,
-24,
-24,
-24,
-23,
-23,
-24,
-24,
-24,
-24,
-24,
-24,
-24,
-24,
-24,
-24,
-24,
-24,
-24,
-24,
-24,
-24,
-25,
-25,
-25,
-25,
-25,
-25,
-25,
-25,
-26,
-26,
-25,
-25,
-26,
-26,
-26,
-26,
-26,
-26,
-27,
-27,
-27,
-27,
-26,
-26,
-26,
-26,
-27,
-27,
-28,
-28,
-28,
-28,
-28,
-28,
-29,
-29,
-29,
-29,
-29,
-29,
-29,
-29,
-30,
-30,
-30,
-30,
-30,
-30,
-31,
-31,
-31,
-31,
-31,
-31,
-31,
-31,
-32,
-32,
-32,
-32,
-33,
-33,
-33,
-33,
-33,
-33,
-34,
-34,
-34,
-34,
-34,
-34,
-34,
-34,
-35,
-35,
-35,
-35,
-35,
-35,
-36,
-36,
-35,
-35,
-37,
-37,
-37,
-37,
-37,
-37,
-37,
-37,
-38,
-38,
-39,
-39,
-38,
-38,
-39,
-39,
-39,
-39,
-40,
-40,
-37,
-37,
-40,
-40,
-40,
-40,
-41,
-41,
-41,
-41,
-41,
-41,
-42,
-42,
-42,
-42,
-42,
-42,
-42,
-42,
-43,
-43,
-43,
-43,
-43,
-43,
-43,
-43,
-43,
-43,
-44,
-44,
-44,
-44,
-45,
-45,
-45,
-45,
-45,
-45,
-45,
-45,
-45,
-45,
-46,
-46,
-45,
-45,
-45,
-45,
-46,
-46,
-46,
-46,
-46,
-46,
-47,
-47,
-47,
-47,
-48,
-48,
-47,
-47,
-48,
-48,
-48,
-48,
-48,
-48,
-48,
-48,
-48,
-48,
-48,
-48,
-49,
-49,
-47,
-47,
-49,
-49,
-49,
-49,
-49,
-49,
-48,
-48,
-47,
-47,
-48,
-48,
-48,
-48,
-48,
-48,
-48,
-48,
-48,
-48,
-48,
-48,
-48,
-48,
-48,
-48,
-47,
-47,
-48,
-48,
-48,
-48,
-49,
-49,
-47,
-47,
-48,
-48,
-47,
-47,
-47,
-47,
-47,
-47,
-46,
-46,
-46,
-46,
-47,
-47,
-45,
-45,
-45,
-45,
-46,
-46,
-46,
-46,
-45,
-45,
-45,
-45,
-46,
-46,
-46,
-46,
-45,
-45,
-45,
-45,
-44,
-44,
-44,
-44,
-44,
-44,
-43,
-43,
-45,
-45,
-43,
-43,
-43,
-43,
-43,
-43,
-43,
-43,
-42,
-42,
-42,
-42,
-41,
-41,
-41,
-41,
-40,
-40,
-40,
-40,
-41,
-41,
-39,
-39,
-39,
-39,
-40,
-40,
-39,
-39,
-39,
-39,
-39,
-39,
-38,
-38,
-38,
-38,
-38,
-38,
-37,
-37,
-37,
-37,
-37,
-37,
-36,
-36,
-36,
-36,
-36,
-36,
-33,
-33,
-35,
-35,
-34,
-34,
-34,
-34,
-34,
-34,
-34,
-34,
-33,
-33,
-33,
-33,
-32,
-32,
-32,
-32,
-32,
-32,
-32,
-32,
-31,
-31,
-30,
-30,
-30,
-30,
-30,
-30,
-30,
-30,
-29,
-29,
-29,
-29,
-29,
-29,
-29,
-29,
-29,
-29,
-29,
-29,
-29,
-29,
-28,
-28,
-27,
-27,
-27,
-27,
-26,
-26,
-27,
-27,
-27,
-27,
-26,
-26,
-26,
-26,
-25,
-25,
-26,
-26,
-25,
-25,
-25,
-25,
-25,
-25,
-25,
-25,
-25,
-25,
-25,
-25,
-25,
-25,
-24,
-24,
-24,
-24,
-24,
-24,
-24,
-24,
