4-transistorverstaerker/data/ALL0019/A0019CH1.CSV

Memory Length,4000,
Trigger Level,8.10000e+02,
Source,CH1,
Probe,1.0X,
Vertical Units,V,
Vertical Scale,2.00000e-02,
Vertical Position,-8.00000e-04,
Horizontal Units,S,
Horizontal Scale,5.00000e-04,
Horizontal Position,-6.8000000e-04,
Horizontal Mode,Main,
Sampling Period,2.00000e-06,
Firmware,V1.14,
Time, ,
Mode,Fast,
Waveform Data,
73,
73,
73,
72,
72,
72,
72,
73,
73,
69,
69,
72,
72,
72,
72,
72,
72,
71,
71,
68,
68,
68,
68,
69,
69,
71,
71,
65,
65,
66,
66,
65,
65,
64,
64,
66,
66,
63,
63,
62,
62,
61,
61,
60,
60,
61,
61,
60,
60,
57,
57,
56,
56,
57,
57,
55,
55,
54,
54,
51,
51,
51,
51,
50,
50,
50,
50,
46,
46,
48,
48,
48,
48,
47,
47,
46,
46,
44,
44,
41,
41,
39,
39,
39,
39,
37,
37,
33,
33,
30,
42,
36,
36,
33,
33,
32,
32,
32,
32,
28,
28,
28,
28,
25,
25,
22,
22,
38,
1,
29,
10,
20,
20,
19,
19,
16,
16,
17,
17,
14,
14,
12,
12,
8,
8,
11,
11,
8,
8,
28,
-24,
19,
-4,
1,
1,
2,
2,
-2,
-2,
-1,
-1,
-4,
-4,
-4,
-4,
-2,
-2,
-8,
-8,
3,
-22,
11,
-40,
-32,
6,
-13,
-13,
-12,
-12,
-15,
-26,
-14,
-14,
-20,
-20,
-21,
-21,
-21,
-21,
-25,
-25,
-29,
-18,
-25,
-25,
-27,
-27,
-31,
-31,
-31,
-31,
-36,
-36,
-33,
-33,
-35,
-35,
-35,
-35,
-37,
-37,
-40,
-40,
-41,
-41,
-43,
-43,
-44,
-44,
-45,
-45,
-44,
-44,
-47,
-47,
-47,
-47,
-48,
-48,
-50,
-50,
-52,
-52,
-53,
-53,
-55,
-55,
-55,
-55,
-57,
-57,
-58,
-58,
-57,
-57,
-64,
-53,
-62,
-62,
-63,
-63,
-60,
-60,
-64,
-64,
-65,
-65,
-65,
-65,
-68,
-68,
-65,
-65,
-67,
-67,
-69,
-69,
-70,
-70,
-67,
-67,
-69,
-69,
-69,
-69,
-74,
-74,
-72,
-72,
-70,
-70,
-73,
-73,
-71,
-71,
-75,
-75,
-74,
-74,
-77,
-77,
-75,
-75,
-75,
-87,
-81,
-66,
-79,
-66,
-75,
-75,
-76,
-76,
-76,
-76,
-74,
-74,
-76,
-76,
-75,
-75,
-76,
-76,
-77,
-77,
-76,
-76,
-78,
-78,
-65,
-90,
-76,
-88,
-72,
-83,
-78,
-78,
-75,
-75,
-77,
-77,
-76,
-76,
-76,
-76,
-76,
-76,
-75,
-75,
-76,
-64,
-75,
-75,
-77,
-65,
-71,
-86,
-73,
-73,
-74,
-74,
-72,
-72,
-71,
-71,
-69,
-69,
-72,
-72,
-68,
-68,
-68,
-68,
-69,
-69,
-68,
-68,
-66,
-66,
-62,
-62,
-75,
-50,
-66,
-54,
-63,
-63,
-62,
-62,
-62,
-62,
-60,
-60,
-58,
-58,
-58,
-58,
-58,
-58,
-57,
-57,
-54,
-54,
-55,
-55,
-55,
-55,
-51,
-51,
-50,
-50,
-50,
-50,
-48,
-48,
-46,
-46,
-46,
-46,
-59,
-29,
-27,
-67,
-47,
-36,
-39,
-39,
-40,
-40,
-37,
-37,
-37,
-37,
-37,
-37,
-35,
-35,
-33,
-33,
-33,
-33,
-13,
-49,
-44,
-17,
-30,
-18,
-23,
-36,
-26,
-26,
-23,
-23,
-21,
-21,
-17,
-17,
-22,
-22,
-19,
-19,
-21,
-6,
3,
-34,
-8,
-19,
-7,
-7,
-9,
-9,
-8,
-8,
-8,
-8,
-4,
-4,
-5,
-5,
-4,
8,
-4,
-4,
-1,
-1,
2,
2,
4,
4,
5,
5,
-5,
18,
6,
6,
11,
11,
11,
11,
13,
13,
16,
16,
17,
17,
17,
17,
19,
19,
22,
22,
24,
24,
23,
23,
25,
25,
28,
28,
30,
30,
29,
29,
30,
30,
32,
32,
34,
34,
36,
36,
34,
34,
36,
36,
39,
39,
42,
42,
40,
40,
42,
42,
41,
41,
43,
43,
48,
48,
48,
48,
46,
46,
49,
49,
49,
49,
51,
51,
53,
53,
55,
55,
58,
58,
56,
56,
56,
56,
59,
59,
62,
62,
68,
53,
61,
61,
58,
70,
59,
59,
62,
62,
64,
64,
66,
66,
68,
68,
67,
67,
64,
64,
65,
65,
71,
71,
64,
64,
68,
68,
68,
68,
68,
68,
66,
77,
71,
71,
73,
73,
68,
68,
71,
71,
74,
74,
73,
73,
72,
72,
72,
72,
76,
76,
72,
72,
74,
74,
75,
75,
77,
77,
74,
74,
75,
75,
74,
74,
73,
73,
72,
72,
75,
75,
75,
75,
75,
75,
72,
72,
74,
74,
75,
75,
70,
70,
72,
72,
70,
70,
73,
73,
71,
71,
74,
74,
71,
71,
70,
70,
71,
71,
71,
71,
69,
69,
68,
68,
67,
67,
68,
68,
66,
66,
65,
65,
64,
64,
65,
65,
63,
63,
63,
63,
62,
62,
65,
65,
61,
61,
62,
51,
61,
48,
57,
57,
56,
56,
55,
55,
55,
55,
52,
52,
53,
53,
51,
51,
53,
42,
54,
43,
45,
45,
46,
46,
45,
45,
45,
45,
45,
45,
43,
43,
42,
42,
42,
42,
37,
37,
39,
28,
36,
36,
36,
36,
34,
34,
33,
33,
33,
33,
29,
29,
30,
30,
27,
27,
25,
25,
22,
22,
20,
20,
22,
22,
18,
5,
14,
14,
17,
17,
17,
17,
9,
9,
11,
11,
11,
11,
7,
7,
5,
5,
5,
5,
4,
4,
6,
6,
1,
1,
-1,
-1,
-4,
-4,
-5,
-5,
-3,
-3,
-5,
-5,
-8,
-8,
-9,
-20,
-9,
-9,
-13,
-13,
-14,
-25,
-18,
-18,
-19,
-19,
-19,
-19,
-21,
-21,
-22,
-22,
-23,
-23,
-20,
-20,
-26,
-26,
-28,
-28,
-22,
-39,
-31,
-31,
-33,
-33,
-35,
-35,
-34,
-34,
-35,
-35,
-37,
-37,
-37,
-37,
-42,
-42,
-43,
-43,
-43,
-43,
-43,
-43,
-47,
-47,
-47,
-47,
-47,
-47,
-51,
-51,
-51,
-51,
-51,
-51,
-53,
-53,
-52,
-52,
-53,
-53,
-55,
-55,
-55,
-55,
-58,
-58,
-59,
-59,
-60,
-60,
-62,
-62,
-63,
-63,
-65,
-65,
-64,
-64,
-63,
-63,
-65,
-65,
-62,
-77,
-68,
-68,
-69,
-69,
-69,
-69,
-69,
-69,
-67,
-67,
-69,
-69,
-69,
-69,
-70,
-70,
-72,
-72,
-72,
-72,
-72,
-72,
-74,
-74,
-76,
-76,
-76,
-76,
-74,
-74,
-73,
-73,
-74,
-74,
-74,
-74,
-77,
-77,
-79,
-79,
-78,
-78,
-76,
-76,
-77,
-77,
-77,
-77,
-77,
-77,
-76,
-76,
-76,
-76,
-77,
-77,
-78,
-78,
-77,
-77,
-76,
-76,
-78,
-78,
-73,
-73,
-76,
-76,
-75,
-75,
-77,
-77,
-76,
-76,
-75,
-75,
-76,
-76,
-75,
-75,
-73,
-84,
-69,
-80,
-73,
-73,
-72,
-72,
-72,
-72,
-73,
-73,
-69,
-69,
-70,
-70,
-69,
-69,
-68,
-68,
-69,
-69,
-67,
-67,
-67,
-67,
-66,
-66,
-65,
-65,
-64,
-64,
-63,
-63,
-63,
-63,
-62,
-62,
-62,
-62,
-61,
-61,
-60,
-60,
-59,
-59,
-56,
-56,
-59,
-59,
-56,
-56,
-58,
-58,
-52,
-52,
-53,
-53,
-52,
-52,
-49,
-49,
-51,
-51,
-47,
-47,
-46,
-46,
-42,
-42,
-44,
-44,
-41,
-41,
-42,
-42,
-41,
-41,
-38,
-38,
-35,
-35,
-34,
-34,
-35,
-35,
-33,
-33,
-32,
-32,
-33,
-33,
-28,
-28,
-29,
-29,
-26,
-26,
-25,
-25,
-22,
-22,
-23,
-23,
-24,
-24,
-19,
-19,
-18,
-6,
-14,
-14,
-15,
-15,
-11,
-11,
-12,
-12,
-9,
-9,
-9,
-9,
-5,
-5,
-5,
-5,
-2,
-2,
-2,
-2,
2,
2,
3,
3,
3,
3,
8,
8,
7,
7,
4,
20,
6,
6,
13,
13,
14,
14,
14,
14,
19,
19,
18,
18,
17,
17,
21,
21,
21,
21,
21,
21,
27,
27,
28,
28,
29,
29,
28,
28,
31,
31,
30,
30,
32,
32,
34,
34,
32,
32,
36,
36,
40,
40,
40,
40,
42,
42,
42,
42,
44,
44,
45,
45,
46,
46,
49,
49,
49,
49,
50,
50,
49,
49,
48,
59,
54,
54,
54,
54,
55,
55,
54,
54,
56,
56,
52,
63,
59,
59,
58,
58,
60,
60,
60,
60,
65,
65,
64,
64,
60,
60,
65,
65,
65,
65,
65,
65,
66,
66,
68,
68,
69,
69,
69,
69,
68,
68,
70,
70,
73,
73,
73,
73,
72,
72,
69,
69,
69,
69,
74,
74,
76,
76,
73,
73,
75,
75,
74,
74,
74,
74,
71,
71,
76,
76,
75,
75,
76,
76,
73,
73,
76,
76,
76,
76,
74,
74,
74,
74,
72,
72,
73,
73,
76,
76,
73,
73,
74,
63,
71,
71,
73,
73,
74,
74,
65,
77,
74,
74,
73,
73,
72,
72,
70,
70,
67,
67,
68,
68,
71,
71,
72,
72,
67,
67,
70,
70,
67,
67,
66,
66,
70,
70,
65,
65,
64,
64,
64,
64,
61,
61,
64,
64,
59,
59,
61,
61,
61,
61,
58,
58,
61,
61,
59,
59,
57,
57,
54,
54,
55,
55,
55,
55,
53,
53,
52,
39,
51,
51,
49,
49,
48,
48,
48,
48,
47,
47,
44,
44,
42,
42,
41,
41,
40,
40,
38,
38,
34,
46,
36,
36,
34,
34,
35,
35,
29,
29,
32,
32,
32,
32,
27,
27,
27,
27,
24,
24,
26,
26,
22,
22,
22,
22,
20,
20,
16,
16,
16,
16,
14,
14,
16,
16,
12,
12,
15,
1,
7,
7,
5,
5,
4,
4,
6,
6,
1,
1,
2,
2,
-1,
-1,
0,
0,
-5,
-5,
-6,
-6,
-6,
-6,
-7,
-7,
4,
-21,
-10,
-10,
-12,
-12,
-12,
-12,
-13,
-13,
-16,
-16,
-19,
-19,
-22,
-22,
-23,
-23,
-24,
-24,
-25,
-25,
-24,
-24,
-28,
-28,
-24,
-24,
-29,
-29,
-31,
-31,
-32,
-32,
-33,
-33,
-35,
-35,
-36,
-36,
-35,
-35,
-40,
-53,
-47,
-35,
-44,
-44,
-43,
-43,
-45,
-45,
-46,
-46,
-45,
-45,
-48,
-48,
-49,
-49,
-51,
-51,
-54,
-54,
-49,
-49,
-53,
-64,
-52,
-52,
-61,
-61,
-60,
-60,
-58,
-58,
-56,
-56,
-60,
-60,
-60,
-60,
-61,
-61,
-61,
-74,
-65,
-65,
-65,
-65,
-64,
-64,
-68,
-68,
-66,
-66,
-67,
-67,
-69,
-69,
-69,
-69,
-71,
-71,
-68,
-68,
-72,
-72,
-71,
-71,
-74,
-74,
-72,
-72,
-75,
-75,
-71,
-71,
-75,
-75,
-73,
-73,
-73,
-73,
-75,
-75,
-74,
-74,
-75,
-75,
-75,
-75,
-76,
-76,
-78,
-78,
-76,
-76,
-76,
-76,
-74,
-74,
-76,
-76,
-76,
-76,
-78,
-78,
-77,
-77,
-75,
-75,
-75,
-75,
-76,
-76,
-75,
-75,
-77,
-77,
-75,
-75,
-76,
-76,
-77,
-77,
-75,
-75,
-74,
-74,
-75,
-75,
-72,
-72,
-73,
-73,
-73,
-73,
-72,
-72,
-73,
-73,
-70,
-70,
-73,
-73,
-72,
-72,
-70,
-70,
-69,
-69,
-67,
-67,
-68,
-68,
-66,
-66,
-73,
-60,
-65,
-65,
-64,
-64,
-64,
-64,
-64,
-64,
-61,
-61,
-59,
-59,
-61,
-61,
-61,
-61,
-58,
-58,
-58,
-58,
-55,
-55,
-57,
-57,
-52,
-52,
-55,
-55,
-50,
-61,
-52,
-52,
-51,
-51,
-50,
-50,
-49,
-49,
-46,
-46,
-45,
-45,
-45,
-45,
-44,
-44,
-43,
-43,
-42,
-31,
-40,
-40,
-40,
-40,
-36,
-36,
-33,
-33,
-35,
-35,
-32,
-32,
-29,
-29,
-28,
-28,
-29,
-29,
-26,
-26,
-23,
-23,
-24,
-24,
-19,
-19,
-20,
-20,
-20,
-20,
-16,
-16,
-16,
-16,
-15,
-15,
-10,
-10,
-12,
-12,
-10,
-10,
-4,
-17,
-7,
-7,
-4,
-4,
-6,
6,
0,
0,
0,
0,
-1,
-1,
1,
1,
4,
4,
6,
6,
6,
21,
8,
8,
11,
11,
10,
10,
13,
13,
17,
17,
15,
15,
23,
10,
22,
22,
19,
19,
20,
20,
23,
23,
26,
26,
26,
26,
28,
28,
28,
28,
31,
31,
33,
33,
35,
35,
35,
35,
37,
37,
37,
37,
41,
41,
40,
40,
43,
43,
43,
43,
42,
42,
46,
46,
47,
47,
47,
47,
51,
51,
51,
51,
51,
51,
51,
51,
54,
54,
59,
48,
54,
54,
54,
54,
58,
58,
59,
59,
58,
58,
60,
60,
60,
60,
62,
62,
63,
63,
64,
64,
64,
64,
63,
63,
64,
64,
65,
65,
64,
64,
66,
66,
67,
67,
69,
69,
73,
73,
71,
71,
71,
71,
70,
70,
69,
69,
69,
69,
73,
73,
73,
73,
75,
75,
71,
71,
72,
72,
76,
76,
74,
74,
72,
72,
74,
74,
74,
74,
75,
75,
77,
77,
70,
81,
74,
74,
74,
74,
75,
75,
75,
75,
74,
74,
74,
74,
73,
73,
72,
72,
73,
73,
74,
74,
74,
74,
70,
70,
73,
73,
71,
71,
71,
71,
71,
71,
72,
72,
73,
73,
68,
68,
69,
69,
68,
68,
68,
68,
65,
65,
67,
67,
65,
65,
65,
65,
62,
62,
63,
63,
63,
63,
63,
63,
64,
64,
61,
61,
62,
62,
62,
62,
60,
60,
58,
58,
54,
54,
54,
54,
53,
53,
54,
54,
48,
48,
49,
49,
50,
50,
49,
49,
47,
47,
42,
55,
42,
42,
44,
44,
42,
42,
46,
30,
38,
38,
40,
40,
38,
38,
33,
33,
35,
35,
33,
33,
30,
30,
33,
33,
30,
30,
29,
29,
26,
26,
24,
24,
22,
22,
20,
20,
23,
23,
19,
19,
19,
19,
15,
15,
12,
12,
12,
12,
9,
9,
10,
10,
9,
9,
7,
7,
6,
6,
5,
5,
2,
2,
1,
1,
-2,
-2,
-3,
-3,
-5,
-5,
-1,
-15,
-7,
-7,
-7,
-7,
-22,
3,
-12,
-12,
-9,
-9,
-15,
-15,
-14,
-14,
-17,
-17,
-16,
-16,
-22,
-22,
-25,
-14,
-20,
-20,
-25,
-25,
-28,
-28,
-29,
-29,
-29,
-29,
-29,
-29,
-34,
-34,
-36,
-36,
-32,
-32,
-38,
-38,
-41,
-41,
-38,
-38,
-41,
-41,
-40,
-51,
-45,
-45,
-43,
-43,
-46,
-46,
-44,
-44,
-49,
-49,
-51,
-51,
-53,
-53,
-48,
-48,
-56,
-56,
-54,
-54,
-60,
-49,
-56,
-56,
-58,
-58,
-57,
-57,
-59,
-59,
-59,
-59,
-60,
-60,
-59,
-59,
-66,
-66,
-64,
-64,
-67,
-54,
-64,
-64,
-65,
-65,
-66,
-66,
-68,
-68,
-64,
-64,
-69,
-69,
-67,
-67,
-71,
-71,
-68,
-68,
-71,
-71,
-71,
-71,
-72,
-72,
-72,
-72,
-76,
-76,
-73,
-73,
-77,
-77,
-75,
-75,
-75,
-75,
-77,
-77,
-76,
-76,
-78,
-78,
-74,
-74,
-77,
-77,
-76,
-76,
-77,
-77,
-76,
-76,
-76,
-76,
-78,
-78,
-77,
-77,
-76,
-87,
-78,
-78,
-79,
-79,
-78,
-78,
-75,
-75,
-74,
-74,
-78,
-78,
-75,
-75,
-75,
-75,
-74,
-74,
-75,
-75,
-73,
-73,
-74,
-74,
-75,
-75,
-78,
-67,
-74,
-74,
-74,
-74,
-71,
-71,
-71,
-71,
-73,
-73,
-74,
-61,
-68,
-68,
-67,
-67,
-69,
-69,
-67,
-67,
-66,
-66,
-66,
-66,
-66,
-66,
-64,
-64,
-64,
-64,
-61,
-61,
-66,
-66,
-59,
-59,
-60,
-60,
-60,
-60,
-62,
-50,
-57,
-57,
-57,
-57,
-59,
-59,
-51,
-51,
-51,
-51,
-52,
-52,
-52,
-52,
-50,
-50,
-46,
-46,
-47,
-47,
-47,
-47,
-47,
-47,
-47,
-47,
-43,
-32,
-42,
-42,
-41,
-41,
-34,
-46,
-38,
-38,
-35,
-23,
-36,
-36,
-33,
-33,
-33,
-33,
-30,
-30,
-26,
-26,
-28,
-28,
-25,
-25,
-23,
-23,
-23,
-23,
-20,
-20,
-23,
-9,
-15,
-15,
-18,
-18,
-15,
-15,
-14,
-14,
-12,
-12,
-9,
-9,
-7,
-18,
-8,
-8,
-4,
-4,
-3,
-3,
-3,
-3,
-1,
-1,
1,
1,
3,
3,
1,
1,
4,
16,
6,
6,
-7,
20,
4,
19,
10,
10,
12,
12,
14,
14,
16,
16,
15,
15,
19,
19,
18,
18,
24,
24,
23,
23,
25,
25,
27,
27,
24,
24,
31,
31,
31,
31,
29,
29,
32,
32,
33,
33,
37,
37,
37,
37,
39,
39,
38,
38,
37,
37,
43,
43,
41,
41,
44,
44,
44,
44,
48,
48,
48,
48,
48,
59,
56,
44,
50,
50,
52,
52,
55,
55,
55,
55,
52,
66,
56,
56,
57,
57,
57,
57,
60,
60,
62,
62,
60,
60,
60,
60,
62,
62,
65,
65,
65,
65,
65,
65,
64,
64,
68,
68,
67,
67,
67,
67,
67,
67,
75,
62,
71,
71,
70,
70,
67,
67,
71,
71,
73,
73,
69,
69,
72,
72,
71,
71,
73,
84,
74,
74,
73,
73,
75,
75,
74,
74,
73,
73,
75,
75,
76,
76,
78,
78,
74,
74,
73,
73,
73,
73,
77,
77,
75,
75,
76,
76,
77,
77,
74,
74,
73,
73,
72,
72,
72,
72,
73,
73,
70,
70,
73,
73,
76,
76,
69,
69,
71,
71,
71,
71,
70,
70,
68,
68,
69,
69,
67,
67,
68,
68,
68,
68,
69,
58,
67,
56,
70,
59,
68,
68,
64,
64,
63,
74,
60,
60,
61,
61,
59,
59,
63,
63,
59,
59,
58,
58,
54,
54,
56,
56,
54,
54,
54,
54,
56,
56,
51,
51,
53,
40,
52,
52,
48,
48,
49,
49,
46,
46,
47,
47,
45,
45,
41,
41,
39,
39,
40,
40,
40,
40,
36,
36,
35,
35,
37,
37,
45,
23,
31,
42,
37,
25,
28,
28,
30,
30,
25,
25,
25,
25,
27,
27,
19,
19,
21,
21,
18,
18,
16,
16,
18,
18,
14,
14,
14,
14,
11,
11,
15,
4,
7,
7,
8,
8,
5,
5,
6,
-5,
5,
5,
2,
2,
2,
2,
0,
0,
1,
-11,
-4,
-4,
-4,
-4,
-6,
-6,
3,
-21,
-11,
-11,
-12,
-12,
-11,
-24,
-12,
-26,
-22,
-10,
-20,
-20,
-23,
-23,
-22,
-22,
-19,
-31,
-26,
-26,
-26,
-26,
-27,
-27,
-28,
-28,
-29,
-29,
-30,
-30,
-31,
-31,
-34,
-34,
-36,
-36,
-34,
-45,
-40,
-40,
-40,
-40,
-41,
-52,
-45,
-45,
-46,
-46,
-46,
-46,
-46,
-46,
-47,
-47,
-48,
-48,
-51,
-51,
-49,
-49,
-50,
-50,
-50,
-50,
-54,
-54,
-55,
-55,
-57,
-45,
-56,
-67,
-58,
-69,
-57,
-57,
-61,
-61,
-61,
-61,
-62,
-62,
-67,
-56,
-64,
-64,
-64,
-64,
-69,
-58,
-64,
-64,
-65,
-65,
-64,
-64,
-71,
-71,
-71,
-71,
-69,
-69,
-70,
-70,
-71,
-71,
-72,
-72,
-71,
-71,
-75,
-75,
-75,
-75,
-75,
-75,
-69,
-80,
-75,
-75,
-74,
-74,
-75,
-75,
-76,
-76,
-77,
-77,
-75,
-75,
-75,
-75,
-79,
-79,
-75,
-75,
-77,
-77,
-74,
-74,
-78,
-78,
-77,
-77,
-77,
-77,
-75,
-75,
-78,
-78,
-75,
-75,
-78,
-78,
-77,
-77,
-77,
-77,
-76,
-76,
-75,
-75,
-75,
-75,
-78,
-67,
-76,
-76,
-77,
-77,
-72,
-72,
-75,
-64,
-73,
-73,
-71,
-71,
-74,
-74,
-71,
-71,
-72,
-72,
-72,
-72,
-71,
-71,
-67,
-67,
-70,
-70,
-70,
-70,
-68,
-68,
-67,
-67,
-64,
-78,
-69,
-69,
-62,
-62,
-62,
-62,
-61,
-61,
-60,
-60,
-60,
-60,
-58,
-58,
-54,
-54,
-57,
-57,
-54,
-54,
-56,
-56,
-54,
-54,
-53,
-53,
-50,
-50,
-52,
-52,
-49,
-49,
-47,
-47,
-48,
-48,
-51,
-39,
-44,
-44,
-45,
-45,
-44,
-44,
-44,
-44,
-42,
-42,
-38,
-38,
-37,
-37,
-37,
-37,
-33,
-33,
-34,
-34,
-32,
-32,
-32,
-32,
-29,
-29,
-25,
-25,
-26,
-26,
-27,
-27,
-24,
-24,
-20,
-20,
-23,
-12,
-19,
-19,
-19,
-19,
-16,
-16,
-14,
-14,
-11,
-11,
-13,
-13,
-12,
-12,
-7,
-7,
-8,
-8,
-4,
-4,
-3,
-3,
0,
0,
-1,
-1,
2,
2,
2,
2,
3,
3,
4,
4,
21,
-7,
7,
7,
9,
9,
11,
11,
11,
11,
15,
15,
14,
14,
19,
19,
20,
9,
20,
20,
24,
24,
21,
21,
22,
22,
26,
26,
29,
29,
29,
29,
33,
33,
30,
30,
40,
29,
34,
34,
35,
35,
35,
35,
37,
37,
38,
38,
42,
42,
41,
41,
45,
45,
42,
42,
46,
46,
46,
46,
49,
49,
49,
49,
51,
51,
51,
51,
55,
55,
49,
49,
54,
54,
56,
56,
57,
57,
56,
69,
55,
70,
61,
61,
60,
60,
63,
63,
61,
61,
65,
65,
64,
64,
67,
67,
62,
62,
69,
69,
68,
68,
66,
66,
66,
66,
71,
71,
72,
72,
68,
68,
72,
72,
70,
70,
71,
71,
70,
70,
71,
71,
72,
72,
71,
71,
73,
73,
73,
73,
76,
76,
74,
74,
74,
74,
72,
72,
73,
73,
77,
77,
74,
74,
72,
83,
77,
77,
77,
77,
74,
74,
75,
75,
75,
75,
74,
74,
74,
74,
73,
73,
74,
74,
73,
73,
73,
73,
70,
70,
74,
74,
70,
70,
73,
73,
71,
71,
70,
70,
70,
70,
69,
69,
71,
71,
69,
69,
66,
66,
67,
67,
65,
65,
67,
67,
64,
64,
62,
62,
63,
63,
63,
63,
63,
63,
64,
53,
60,
60,
60,
60,
56,
56,
61,
61,
58,
58,
59,
59,
55,
55,
54,
54,
57,
46,
54,
54,
48,
48,
48,
48,
48,
48,
47,
47,
45,
45,
44,
44,
42,
42,
40,
40,
39,
39,
44,
32,
38,
38,
37,
37,
37,
37,
36,
36,
32,
32,
31,
31,
33,
33,
26,
26,
27,
27,
27,
27,
25,
25,
23,
23,
27,
14,
21,
21,
20,
20,
19,
19,
18,
18,
14,
14,
15,
15,
11,
11,
11,
11,
8,
8,
6,
6,
3,
3,
2,
2,
3,
3,
-2,
-2,
0,
0,
-1,
-1,
-4,
-4,
-4,
-4,
-3,
-14,
-11,
-11,
-9,
2,
-11,
-11,
-11,
-11,
-14,
-14,
-17,
-17,
-18,
-18,
-21,
-21,
-20,
-20,
-19,
-19,
-19,
-30,
-27,
-27,
-32,
-18,
-29,
-29,
-29,
-29,
-33,
-33,
-31,
-31,
-31,
-31,
-34,
-34,
-38,
-38,
-37,
-37,
-40,
-40,
-40,
-40,
-41,
-41,
-42,
-42,
-45,
-45,
-43,
-43,
-47,
-47,
-48,
-48,
-54,
-42,
-47,
-47,
-50,
-50,
-49,
-49,
-53,
-53,
-57,
-57,
-55,
-55,
-54,
-54,
-59,
-59,
-60,
-60,
-60,
-60,
-59,
-59,
-61,
-61,
-64,
-64,
-64,
-64,
-63,
-63,
-61,
-61,
-65,
-65,
-67,
-67,
-66,
-66,
-66,
-66,
-72,
-72,
-68,
-68,
-70,
-70,
-69,
-69,
-69,
-69,
-70,
-70,
-72,
-72,
-71,
-71,
-72,
-72,
-71,
-71,
-73,
-73,
-75,
-75,
-76,
-76,
-77,
-77,
-78,
-78,
-77,
-77,
-76,
-76,
-77,
-77,
-77,
-77,
-75,
-75,
-77,
-77,
-79,
-79,
-77,
-77,
-74,
-85,
-80,
-80,
-78,
-78,
-77,
-77,
-75,
-75,
-75,
-75,
-75,
-75,
-77,
-77,
-75,
-75,
-78,
-78,
-76,
-76,
-77,
-77,
-78,
-67,
-73,
-73,
-70,
-70,
-75,
-75,
-73,
-73,
-75,
-75,
-75,
-75,
-68,
-68,
-71,
-71,
-70,
-70,
-70,
-70,
-69,
-69,
-70,
-70,
-66,
-66,
-64,
-64,
-65,
-65,
-67,
-67,
-68,
-68,
-63,
-63,
-62,
-62,
-61,
-61,
-62,
-62,
-62,
-62,
-57,
-57,
-58,
-58,
-55,
-55,
-57,
-57,
-52,
-52,
-47,
-65,
-51,
-51,
-50,
-50,
-51,
-51,
-49,
-49,
-48,
-48,
-46,
-46,
-47,
-47,
-45,
-45,
-44,
-44,
-44,
-44,
-40,
-40,
-42,
-42,
-35,
-35,
-34,
-34,
-37,
-37,
-33,
-33,
-34,
-23,
-34,
-34,
-32,
-32,
-29,
-29,
-26,
-26,
-27,
-27,
-25,
-25,
-24,
-24,
-20,
-20,
-18,
-18,
-17,
-17,
-10,
-24,
-13,
-13,
-16,
-16,
-12,
-12,
-11,
-11,
-9,
-9,
-9,
-9,
-4,
-4,
-4,
-4,
-2,
-2,
-1,
-1,
-3,
-3,
2,
2,
2,
2,
4,
4,
3,
3,
-7,
19,
11,
11,
10,
10,
12,
12,
12,
12,
14,
14,
15,
15,
17,
17,
22,
22,
21,
21,
23,
23,
22,
22,
26,
26,
25,
25,
27,
38,
25,
37,
30,
30,
33,
33,
33,
33,
35,
35,
36,
36,
39,
39,
38,
38,
39,
39,
42,
42,
41,
41,
44,
44,
46,
46,
45,
45,
48,
48,
47,
47,
51,
51,
51,
51,
50,
50,
54,
54,
52,
52,
55,
55,
58,
58,
55,
55,
57,
57,
58,
58,
60,
60,
61,
61,
66,
66,
65,
65,
62,
62,
66,
66,
70,
58,
66,
66,
63,
63,
68,
68,
67,
67,
69,
69,
69,
69,
70,
70,
68,
68,
74,
74,
71,
71,
67,
79,
68,
68,
72,
72,
73,
73,
72,
72,
67,
79,
73,
73,
74,
74,
74,
74,
74,
74,
75,
75,
73,
73,
76,
76,
78,
78,
74,
74,
74,
74,
75,
75,
75,
75,
74,
74,
73,
73,
74,
74,
73,
73,
71,
71,
72,
72,
73,
73,
74,
74,
76,
76,
74,
74,
72,
72,
76,
63,
71,
71,
71,
71,
69,
69,
70,
70,
69,
69,
69,
69,
69,
69,
72,
72,
66,
66,
66,
66,
66,
66,
66,
66,
63,
63,
63,
63,
62,
62,
63,
63,
62,
62,
61,
61,
59,
59,
56,
56,
56,
56,
57,
57,
55,
55,
52,
52,
50,
50,
50,
50,
55,
42,
49,
49,
48,
48,
47,
47,
47,
47,
45,
45,
45,
45,
47,
32,
35,
47,
35,
35,
35,
35,
35,
35,
38,
38,
37,
26,
31,
31,
33,
33,
33,
33,
28,
28,
29,
29,
29,
29,
22,
22,
21,
21,
19,
19,
20,
20,
19,
19,
16,
16,
16,
16,
12,
12,
12,
12,
13,
-3,
4,
15,
6,
6,
5,
5,
6,
6,
1,
1,
0,
0,
-2,
-2,
0,
0,
-2,
-2,
-2,
-2,
-4,
-4,
-6,
-6,
-9,
-21,
-10,
-10,
-9,
-9,
-11,
-11,
-14,
-14,
-18,
-18,
-16,
-16,
-20,
-20,
-23,
-23,
-22,
-22,
-25,
-25,
-25,
-25,
-27,
-27,
-30,
-30,
-30,
-30,
-31,
-31,
-33,
-33,
-34,
-34,
-36,
-36,
-35,
-47,
-37,
-37,
-43,
-43,
-42,
-42,
-43,
-43,
-42,
-42,
-47,
-47,
-42,
-42,
-47,
-47,
-51,
-51,
-52,
-52,
-50,
-50,
-49,
-61,
-51,
-51,
-53,
-53,
-54,
-54,
-56,
-56,
-56,
-56,
-57,
-57,
-59,
-59,
-60,
-60,
-63,
-63,
-62,
-62,
-65,
-65,
-60,
-60,
-63,
-63,
-67,
-67,
-67,
-67,
-66,
-66,
-67,
-67,
-68,
-68,
-73,
