4-transistorverstaerker/data/ALL0019/A0019CH2.CSV

Memory Length,4000,
Trigger Level,8.10000e+02,
Source,CH2,
Probe,1.0X,
Vertical Units,V,
Vertical Scale,2.00000e-02,
Vertical Position,0.00000e+00,
Horizontal Units,S,
Horizontal Scale,5.00000e-04,
Horizontal Position,-6.8000000e-04,
Horizontal Mode,Main,
Sampling Period,2.00000e-06,
Firmware,V1.14,
Time, ,
Mode,Fast,
Waveform Data,
-87,
-87,
-87,
-83,
-83,
-83,
-83,
-85,
-85,
-84,
-84,
-82,
-82,
-82,
-82,
-81,
-81,
-80,
-80,
-82,
-82,
-78,
-78,
-78,
-78,
-80,
-80,
-72,
-83,
-74,
-74,
-75,
-75,
-70,
-70,
-74,
-74,
-71,
-71,
-72,
-72,
-71,
-71,
-72,
-61,
-66,
-66,
-64,
-64,
-67,
-67,
-63,
-63,
-60,
-60,
-62,
-62,
-60,
-60,
-58,
-58,
-57,
-57,
-54,
-54,
-56,
-56,
-53,
-53,
-51,
-51,
-49,
-49,
-51,
-51,
-49,
-49,
-46,
-46,
-44,
-44,
-45,
-45,
-39,
-39,
-39,
-39,
-34,
-34,
-37,
-37,
-35,
-35,
-35,
-35,
-33,
-33,
-32,
-32,
-27,
-27,
-27,
-27,
-24,
-24,
-21,
-21,
-35,
1,
-16,
-33,
-19,
-19,
-14,
-14,
-18,
-18,
-11,
-11,
-12,
-12,
-7,
-7,
-9,
-9,
-3,
-3,
-3,
-3,
-23,
31,
-15,
9,
5,
5,
2,
2,
4,
4,
9,
9,
11,
11,
10,
10,
12,
12,
13,
13,
15,
15,
-4,
48,
43,
2,
23,
23,
23,
23,
25,
25,
22,
33,
28,
28,
31,
31,
31,
31,
31,
31,
32,
44,
34,
34,
34,
34,
39,
39,
41,
41,
41,
41,
46,
46,
45,
45,
45,
45,
52,
41,
52,
52,
50,
50,
51,
51,
55,
55,
54,
54,
59,
59,
60,
60,
60,
60,
60,
60,
64,
64,
66,
66,
64,
64,
64,
64,
70,
70,
69,
69,
69,
69,
69,
69,
75,
75,
73,
73,
75,
75,
78,
78,
74,
74,
79,
79,
77,
77,
79,
79,
80,
80,
82,
82,
81,
81,
85,
85,
81,
81,
82,
82,
83,
83,
84,
84,
83,
83,
85,
85,
83,
83,
86,
86,
85,
85,
88,
88,
88,
88,
85,
85,
77,
100,
94,
78,
90,
90,
84,
84,
87,
87,
88,
88,
84,
84,
87,
87,
87,
87,
88,
88,
88,
88,
87,
87,
87,
87,
93,
77,
87,
98,
82,
94,
89,
89,
87,
87,
86,
86,
86,
86,
86,
86,
85,
85,
83,
83,
82,
82,
83,
83,
81,
92,
75,
95,
79,
79,
85,
85,
79,
79,
80,
80,
78,
78,
80,
80,
75,
75,
76,
76,
75,
75,
74,
74,
74,
74,
71,
71,
83,
55,
70,
70,
68,
68,
70,
70,
66,
66,
66,
66,
63,
63,
63,
63,
60,
60,
59,
59,
58,
58,
56,
56,
57,
57,
52,
52,
51,
51,
51,
51,
51,
51,
46,
46,
49,
49,
61,
29,
29,
68,
48,
35,
39,
39,
39,
39,
36,
36,
38,
38,
34,
34,
34,
34,
32,
32,
31,
31,
8,
48,
40,
14,
26,
15,
21,
34,
18,
18,
22,
22,
15,
15,
17,
17,
13,
13,
14,
14,
16,
1,
-8,
28,
2,
14,
3,
3,
2,
2,
2,
2,
0,
0,
-3,
-3,
-2,
-2,
-7,
-7,
-6,
-6,
-7,
-7,
-10,
-10,
-13,
-13,
-13,
-13,
-14,
-14,
-18,
-18,
-21,
-21,
-20,
-20,
-25,
-25,
-26,
-26,
-27,
-27,
-27,
-27,
-31,
-31,
-30,
-30,
-35,
-35,
-34,
-34,
-37,
-37,
-37,
-37,
-40,
-40,
-43,
-43,
-43,
-43,
-44,
-44,
-46,
-46,
-50,
-50,
-48,
-48,
-51,
-51,
-54,
-54,
-57,
-57,
-55,
-55,
-53,
-53,
-55,
-55,
-58,
-58,
-59,
-59,
-62,
-62,
-64,
-64,
-62,
-62,
-64,
-64,
-66,
-66,
-67,
-67,
-67,
-67,
-71,
-71,
-71,
-71,
-72,
-72,
-75,
-75,
-76,
-76,
-75,
-75,
-76,
-76,
-76,
-76,
-74,
-74,
-78,
-78,
-76,
-76,
-82,
-82,
-82,
-82,
-80,
-80,
-82,
-82,
-83,
-83,
-82,
-82,
-83,
-83,
-84,
-84,
-85,
-85,
-84,
-84,
-83,
-83,
-85,
-85,
-87,
-87,
-85,
-85,
-87,
-87,
-86,
-86,
-86,
-86,
-89,
-89,
-88,
-88,
-90,
-90,
-86,
-86,
-88,
-88,
-88,
-88,
-88,
-88,
-88,
-88,
-89,
-89,
-90,
-90,
-89,
-89,
-84,
-84,
-89,
-89,
-86,
-86,
-89,
-89,
-84,
-84,
-86,
-86,
-85,
-85,
-87,
-87,
-86,
-86,
-84,
-84,
-85,
-85,
-82,
-82,
-81,
-81,
-85,
-85,
-80,
-80,
-82,
-82,
-81,
-81,
-79,
-79,
-80,
-80,
-75,
-75,
-76,
-76,
-76,
-76,
-74,
-74,
-74,
-74,
-76,
-76,
-73,
-73,
-69,
-69,
-72,
-72,
-72,
-72,
-69,
-69,
-67,
-67,
-67,
-56,
-61,
-61,
-61,
-61,
-60,
-60,
-63,
-63,
-59,
-59,
-57,
-57,
-55,
-55,
-56,
-56,
-57,
-57,
-52,
-52,
-50,
-50,
-51,
-51,
-48,
-48,
-47,
-47,
-48,
-48,
-43,
-43,
-45,
-45,
-40,
-40,
-42,
-31,
-35,
-35,
-37,
-37,
-38,
-38,
-32,
-32,
-33,
-33,
-33,
-33,
-29,
-29,
-26,
-26,
-26,
-26,
-18,
-18,
-16,
-16,
-22,
-9,
-14,
-26,
-11,
-11,
-16,
-16,
-9,
-9,
-11,
-11,
-8,
-8,
-7,
-7,
-2,
-2,
-3,
-3,
1,
1,
1,
1,
1,
1,
5,
5,
6,
6,
7,
7,
10,
10,
8,
8,
12,
12,
17,
17,
15,
15,
14,
26,
20,
20,
22,
22,
23,
23,
27,
27,
27,
27,
30,
30,
26,
37,
30,
30,
30,
30,
32,
32,
36,
36,
30,
50,
42,
42,
41,
41,
45,
45,
43,
43,
48,
48,
46,
46,
50,
50,
50,
62,
56,
45,
49,
49,
54,
54,
55,
55,
61,
61,
63,
63,
62,
62,
62,
62,
63,
63,
62,
62,
66,
66,
68,
68,
70,
70,
69,
69,
71,
71,
71,
71,
71,
71,
72,
72,
76,
76,
75,
75,
79,
79,
77,
77,
77,
77,
76,
89,
82,
82,
81,
81,
81,
81,
83,
83,
83,
83,
85,
85,
81,
81,
85,
85,
85,
85,
84,
84,
87,
87,
85,
85,
83,
83,
89,
89,
84,
84,
84,
84,
88,
88,
86,
86,
88,
88,
89,
89,
88,
88,
87,
87,
87,
87,
86,
86,
86,
86,
85,
85,
88,
88,
89,
89,
89,
89,
87,
87,
88,
88,
90,
78,
86,
86,
84,
84,
86,
86,
84,
84,
83,
83,
85,
85,
85,
85,
85,
85,
81,
81,
81,
81,
84,
84,
80,
80,
80,
80,
77,
77,
76,
76,
79,
79,
76,
76,
76,
76,
76,
76,
75,
75,
73,
73,
73,
73,
71,
71,
69,
69,
67,
67,
70,
70,
68,
68,
64,
64,
65,
65,
61,
61,
63,
63,
63,
51,
59,
59,
58,
58,
60,
60,
55,
55,
54,
54,
52,
52,
51,
51,
50,
50,
46,
46,
45,
45,
44,
44,
44,
44,
43,
43,
42,
42,
38,
38,
39,
39,
33,
33,
31,
31,
35,
35,
32,
32,
29,
29,
27,
27,
24,
24,
26,
26,
24,
24,
19,
19,
18,
18,
17,
17,
18,
18,
15,
15,
14,
1,
8,
8,
9,
9,
3,
3,
5,
5,
2,
2,
0,
0,
-2,
-2,
-3,
-3,
-5,
-5,
-8,
-8,
-8,
-8,
-8,
-8,
-14,
-14,
-16,
-16,
-15,
-15,
-17,
-17,
-17,
-17,
-21,
-21,
-23,
-23,
-23,
-23,
-28,
-28,
-28,
-28,
-28,
-28,
-27,
-27,
-33,
-33,
-34,
-34,
-36,
-36,
-35,
-35,
-39,
-39,
-40,
-40,
-40,
-51,
-43,
-43,
-45,
-45,
-50,
-50,
-44,
-44,
-51,
-51,
-54,
-54,
-53,
-53,
-54,
-54,
-57,
-57,
-57,
-57,
-58,
-58,
-56,
-56,
-65,
-65,
-64,
-64,
-63,
-63,
-67,
-67,
-64,
-64,
-69,
-69,
-69,
-69,
-69,
-69,
-70,
-70,
-72,
-72,
-68,
-68,
-77,
-77,
-73,
-73,
-78,
-78,
-79,
-79,
-77,
-77,
-77,
-77,
-75,
-75,
-80,
-80,
-80,
-80,
-81,
-81,
-82,
-82,
-86,
-86,
-84,
-84,
-85,
-85,
-85,
-85,
-86,
-86,
-88,
-88,
-85,
-85,
-85,
-85,
-87,
-87,
-88,
-88,
-89,
-78,
-93,
-82,
-88,
-88,
-91,
-91,
-91,
-91,
-89,
-89,
-89,
-89,
-91,
-91,
-89,
-89,
-88,
-88,
-89,
-89,
-86,
-86,
-88,
-88,
-89,
-89,
-87,
-87,
-88,
-88,
-88,
-88,
-86,
-86,
-84,
-84,
-88,
-76,
-87,
-87,
-86,
-86,
-88,
-88,
-83,
-83,
-85,
-85,
-85,
-74,
-87,
-87,
-82,
-82,
-79,
-79,
-78,
-78,
-83,
-83,
-80,
-80,
-80,
-80,
-77,
-77,
-79,
-79,
-76,
-76,
-80,
-69,
-73,
-73,
-73,
-73,
-73,
-73,
-75,
-75,
-73,
-73,
-71,
-71,
-65,
-65,
-68,
-68,
-64,
-64,
-68,
-68,
-64,
-64,
-65,
-65,
-58,
-58,
-58,
-58,
-61,
-50,
-56,
-56,
-57,
-45,
-57,
-57,
-51,
-51,
-50,
-50,
-50,
-50,
-50,
-50,
-48,
-48,
-45,
-45,
-44,
-44,
-40,
-40,
-41,
-41,
-37,
-37,
-37,
-37,
-37,
-37,
-35,
-35,
-32,
-32,
-30,
-30,
-27,
-27,
-30,
-30,
-28,
-28,
-24,
-24,
-27,
-27,
-21,
-21,
-18,
-18,
-15,
-15,
-17,
-17,
-15,
-15,
-9,
-9,
-14,
-14,
-12,
2,
-10,
2,
-4,
-4,
-5,
-5,
2,
-9,
0,
0,
-1,
-1,
4,
4,
5,
5,
7,
7,
11,
11,
15,
15,
13,
13,
16,
16,
15,
15,
18,
18,
16,
16,
23,
23,
24,
24,
27,
27,
27,
27,
28,
28,
31,
31,
29,
29,
29,
42,
37,
37,
36,
36,
39,
39,
36,
36,
39,
39,
43,
43,
45,
45,
47,
47,
50,
39,
46,
46,
52,
52,
56,
56,
54,
54,
56,
56,
57,
57,
58,
58,
57,
57,
59,
59,
63,
63,
63,
63,
66,
66,
63,
63,
66,
66,
66,
66,
69,
69,
69,
69,
69,
69,
68,
68,
72,
72,
71,
71,
74,
74,
74,
74,
76,
76,
76,
76,
78,
78,
79,
79,
79,
79,
82,
82,
78,
78,
80,
80,
85,
85,
85,
85,
82,
82,
80,
91,
86,
86,
86,
86,
88,
88,
86,
86,
86,
86,
86,
86,
87,
87,
87,
87,
88,
88,
86,
86,
87,
87,
87,
87,
88,
88,
88,
88,
89,
89,
88,
88,
85,
85,
90,
90,
88,
88,
86,
86,
88,
88,
85,
85,
86,
86,
87,
87,
86,
86,
88,
88,
85,
85,
85,
85,
81,
81,
82,
82,
85,
74,
80,
80,
83,
83,
84,
84,
80,
80,
80,
80,
77,
77,
84,
84,
77,
77,
77,
77,
76,
76,
76,
76,
75,
75,
74,
74,
74,
74,
72,
72,
67,
67,
69,
69,
70,
70,
67,
67,
66,
66,
67,
67,
66,
66,
62,
62,
61,
61,
62,
62,
58,
58,
58,
58,
57,
57,
52,
63,
51,
51,
54,
54,
52,
52,
49,
49,
47,
47,
49,
49,
46,
46,
46,
46,
40,
40,
37,
37,
35,
35,
38,
38,
38,
38,
33,
33,
35,
35,
31,
31,
29,
29,
27,
27,
24,
24,
24,
24,
22,
22,
20,
20,
15,
15,
18,
18,
14,
14,
10,
10,
9,
9,
10,
10,
4,
4,
6,
6,
1,
1,
2,
2,
-1,
-1,
-1,
-1,
-1,
-13,
-10,
-10,
-6,
-6,
-9,
-9,
-8,
-8,
-10,
-10,
-14,
-14,
-17,
-17,
-16,
-16,
-19,
-19,
-19,
-19,
-25,
-25,
-26,
-26,
-26,
-38,
-34,
-21,
-34,
-23,
-30,
-30,
-33,
-33,
-35,
-35,
-39,
-39,
-39,
-39,
-40,
-40,
-38,
-38,
-43,
-43,
-45,
-45,
-45,
-45,
-47,
-47,
-48,
-48,
-48,
-48,
-52,
-52,
-53,
-53,
-56,
-56,
-57,
-57,
-56,
-56,
-56,
-56,
-57,
-57,
-62,
-62,
-64,
-64,
-66,
-66,
-65,
-65,
-67,
-67,
-68,
-68,
-71,
-71,
-72,
-72,
-68,
-68,
-73,
-73,
-72,
-72,
-74,
-74,
-71,
-71,
-76,
-76,
-76,
-76,
-76,
-76,
-80,
-80,
-80,
-80,
-79,
-79,
-79,
-79,
-82,
-82,
-81,
-81,
-83,
-83,
-81,
-81,
-83,
-83,
-87,
-87,
-86,
-86,
-83,
-83,
-87,
-87,
-83,
-83,
-88,
-88,
-86,
-86,
-89,
-89,
-89,
-89,
-87,
-87,
-89,
-89,
-91,
-91,
-88,
-88,
-89,
-89,
-87,
-87,
-91,
-91,
-90,
-90,
-87,
-87,
-89,
-89,
-90,
-90,
-87,
-87,
-85,
-85,
-85,
-85,
-87,
-87,
-88,
-88,
-87,
-87,
-87,
-87,
-85,
-85,
-88,
-88,
-85,
-85,
-81,
-81,
-81,
-81,
-79,
-91,
-83,
-83,
-82,
-82,
-81,
-81,
-89,
-74,
-77,
-77,
-79,
-79,
-79,
-79,
-78,
-78,
-74,
-74,
-75,
-75,
-72,
-72,
-76,
-76,
-73,
-73,
-70,
-70,
-71,
-71,
-71,
-71,
-69,
-69,
-69,
-69,
-67,
-67,
-69,
-69,
-63,
-63,
-65,
-65,
-60,
-60,
-60,
-60,
-57,
-57,
-61,
-61,
-56,
-56,
-55,
-55,
-54,
-54,
-49,
-49,
-51,
-51,
-44,
-59,
-48,
-48,
-45,
-45,
-44,
-44,
-50,
-36,
-40,
-40,
-40,
-40,
-42,
-42,
-38,
-38,
-34,
-34,
-33,
-33,
-32,
-32,
-32,
-32,
-31,
-31,
-24,
-24,
-26,
-26,
-25,
-25,
-22,
-22,
-18,
-29,
-22,
-22,
-17,
-17,
-17,
-17,
-14,
-14,
-11,
-11,
-10,
-10,
-8,
-8,
-6,
-6,
-4,
-4,
-2,
-2,
-2,
-2,
1,
1,
1,
1,
5,
5,
6,
6,
7,
7,
10,
10,
9,
23,
12,
12,
12,
12,
17,
17,
15,
15,
18,
18,
22,
22,
23,
23,
27,
27,
28,
28,
27,
27,
30,
30,
28,
39,
37,
37,
33,
33,
36,
36,
41,
41,
39,
39,
44,
44,
46,
46,
44,
44,
47,
47,
50,
50,
49,
49,
51,
51,
49,
49,
53,
53,
53,
53,
58,
58,
56,
56,
62,
62,
61,
61,
63,
63,
60,
60,
63,
63,
64,
64,
73,
62,
68,
68,
70,
70,
70,
70,
74,
74,
72,
72,
75,
75,
70,
70,
74,
74,
76,
76,
75,
88,
71,
82,
76,
76,
77,
77,
79,
79,
80,
80,
80,
80,
81,
81,
83,
83,
84,
84,
86,
86,
87,
87,
84,
84,
85,
85,
88,
88,
88,
88,
90,
90,
82,
93,
88,
88,
89,
89,
89,
89,
90,
90,
86,
86,
85,
85,
89,
89,
89,
89,
90,
90,
82,
82,
89,
89,
90,
90,
84,
98,
87,
87,
90,
90,
89,
89,
84,
84,
86,
86,
85,
85,
85,
85,
84,
84,
85,
85,
83,
83,
84,
84,
83,
83,
83,
83,
85,
85,
84,
84,
83,
83,
81,
70,
78,
78,
78,
78,
84,
67,
77,
77,
76,
76,
78,
78,
75,
75,
72,
72,
70,
70,
71,
71,
68,
68,
69,
69,
67,
67,
70,
70,
65,
65,
65,
65,
66,
55,
64,
64,
61,
61,
58,
58,
59,
59,
56,
56,
54,
54,
51,
51,
52,
52,
52,
52,
51,
51,
48,
48,
45,
45,
49,
49,
46,
46,
40,
40,
42,
42,
38,
38,
34,
34,
35,
35,
34,
22,
31,
31,
28,
28,
27,
27,
27,
27,
27,
27,
23,
23,
24,
24,
23,
23,
17,
17,
19,
19,
15,
4,
14,
14,
12,
12,
12,
12,
10,
10,
8,
8,
5,
5,
5,
5,
-2,
-2,
-1,
-1,
2,
-9,
-3,
-3,
-5,
-5,
-7,
-7,
-10,
-10,
-10,
-10,
-12,
-23,
-12,
-24,
-19,
-19,
-10,
-28,
-18,
-18,
-20,
-20,
-24,
-24,
-24,
-24,
-24,
-24,
-27,
-27,
-31,
-31,
-32,
-32,
-33,
-33,
-35,
-35,
-40,
-40,
-35,
-35,
-41,
-41,
-44,
-44,
-41,
-41,
-45,
-45,
-45,
-45,
-52,
-52,
-52,
-52,
-50,
-50,
-51,
-51,
-53,
-53,
-55,
-55,
-57,
-57,
-56,
-56,
-57,
-57,
-60,
-60,
-63,
-63,
-63,
-63,
-67,
-67,
-65,
-65,
-62,
-77,
-67,
-67,
-70,
-70,
-63,
-78,
-73,
-73,
-70,
-70,
-70,
-70,
-72,
-72,
-74,
-74,
-75,
-75,
-75,
-75,
-74,
-74,
-79,
-79,
-80,
-80,
-78,
-78,
-79,
-79,
-84,
-84,
-83,
-83,
-81,
-81,
-81,
-81,
-90,
-78,
-85,
-85,
-83,
-83,
-83,
-83,
-86,
-86,
-84,
-84,
-86,
-86,
-86,
-86,
-87,
-87,
-91,
-80,
-87,
-87,
-89,
-89,
-87,
-87,
-87,
-87,
-90,
-90,
-90,
-90,
-89,
-89,
-92,
-92,
-87,
-87,
-86,
-86,
-87,
-87,
-89,
-89,
-85,
-85,
-89,
-89,
-90,
-90,
-87,
-87,
-83,
-83,
-84,
-84,
-87,
-87,
-85,
-85,
-83,
-83,
-84,
-84,
-87,
-87,
-83,
-83,
-86,
-86,
-83,
-83,
-82,
-82,
-78,
-78,
-81,
-81,
-79,
-79,
-79,
-79,
-75,
-75,
-76,
-76,
-75,
-75,
-76,
-76,
-73,
-73,
-73,
-73,
-72,
-72,
-71,
-71,
-68,
-68,
-68,
-68,
-68,
-68,
-67,
-67,
-64,
-64,
-65,
-65,
-62,
-62,
-60,
-60,
-60,
-60,
-57,
-57,
-58,
-58,
-56,
-56,
-57,
-57,
-52,
-52,
-50,
-50,
-50,
-50,
-52,
-52,
-46,
-46,
-48,
-48,
-45,
-45,
-41,
-41,
-38,
-38,
-38,
-38,
-39,
-39,
-40,
-28,
-42,
-24,
-30,
-30,
-35,
-24,
-27,
-27,
-31,
-31,
-25,
-25,
-23,
-23,
-24,
-24,
-21,
-21,
-17,
-17,
-18,
-18,
-17,
-17,
-12,
-12,
-12,
-12,
-10,
-10,
-8,
-8,
-9,
-9,
-4,
-4,
-8,
-8,
-3,
-3,
-1,
-1,
2,
2,
2,
2,
6,
6,
3,
3,
6,
6,
7,
7,
12,
12,
14,
14,
17,
17,
15,
15,
18,
18,
20,
32,
24,
35,
31,
18,
31,
31,
29,
29,
28,
28,
29,
29,
34,
34,
34,
34,
36,
36,
40,
40,
40,
40,
43,
43,
40,
40,
45,
45,
47,
47,
45,
56,
50,
50,
48,
48,
52,
52,
54,
54,
53,
53,
54,
54,
57,
57,
60,
60,
60,
60,
65,
65,
61,
61,
63,
63,
61,
61,
64,
64,
68,
68,
56,
80,
68,
79,
69,
80,
64,
78,
71,
71,
73,
73,
72,
72,
80,
68,
79,
79,
80,
80,
79,
79,
79,
79,
81,
81,
79,
79,
82,
82,
82,
82,
84,
84,
82,
82,
82,
82,
82,
82,
84,
84,
87,
87,
86,
86,
86,
86,
87,
87,
87,
87,
87,
87,
84,
84,
88,
88,
88,
88,
86,
86,
87,
87,
88,
88,
86,
86,
88,
88,
88,
88,
89,
89,
88,
88,
88,
88,
80,
94,
87,
87,
85,
85,
86,
86,
89,
89,
84,
84,
86,
86,
82,
82,
86,
86,
87,
87,
84,
84,
84,
84,
82,
82,
79,
92,
79,
79,
82,
82,
80,
80,
77,
77,
79,
79,
77,
77,
78,
78,
76,
76,
76,
76,
74,
74,
75,
75,
73,
73,
68,
82,
71,
71,
68,
68,
68,
68,
66,
66,
67,
67,
62,
62,
65,
65,
60,
60,
60,
60,
58,
58,
59,
59,
59,
59,
56,
56,
52,
52,
55,
55,
52,
52,
51,
51,
48,
48,
48,
48,
45,
45,
45,
45,
45,
45,
43,
43,
40,
40,
36,
36,
35,
35,
37,
37,
34,
34,
32,
32,
30,
30,
28,
28,
30,
19,
25,
25,
22,
22,
24,
24,
20,
20,
17,
17,
15,
15,
15,
15,
13,
13,
11,
11,
8,
8,
5,
5,
4,
4,
6,
6,
2,
2,
-3,
-3,
-6,
-6,
-2,
-2,
-5,
-5,
-3,
-15,
-8,
-8,
-14,
-14,
-10,
-10,
-12,
-12,
-12,
-12,
-18,
-18,
-18,
-18,
-23,
-23,
-23,
-23,
-26,
-26,
-26,
-26,
-31,
-20,
-30,
-41,
-31,
-31,
-34,
-34,
-36,
-36,
-34,
-34,
-38,
-38,
-42,
-42,
-40,
-40,
-44,
-44,
-43,
-43,
-51,
-51,
-50,
-50,
-51,
-51,
-49,
-49,
-52,
-52,
-53,
-53,
-54,
-54,
-54,
-54,
-55,
-55,
-58,
-58,
-59,
-59,
-59,
-59,
-63,
-63,
-64,
-64,
-65,
-65,
-64,
-64,
-68,
-68,
-66,
-66,
-69,
-69,
-73,
-73,
-74,
-74,
-74,
-74,
-68,
-83,
-75,
-75,
-76,
-76,
-78,
-78,
-77,
-77,
-78,
-78,
-80,
-80,
-83,
-72,
-80,
-80,
-83,
-83,
-82,
-82,
-81,
-81,
-80,
-80,
-83,
-83,
-86,
-86,
-83,
-83,
-87,
-87,
-86,
-86,
-85,
-85,
-86,
-86,
-86,
-86,
-87,
-87,
-85,
-85,
-89,
-89,
-87,
-87,
-92,
-92,
-88,
-88,
-90,
-90,
-90,
-90,
-88,
-88,
-91,
-91,
-92,
-92,
-89,
-77,
-89,
-100,
-89,
-89,
-89,
-89,
-90,
-90,
-86,
-86,
-86,
-86,
-85,
-85,
-83,
-83,
-85,
-85,
-86,
-86,
-86,
-86,
-86,
-86,
-85,
-85,
-84,
-84,
-83,
-83,
-83,
-83,
-79,
-79,
-79,
-79,
-80,
-80,
-80,
-80,
-78,
-78,
-78,
-78,
-74,
-74,
-72,
-72,
-74,
-74,
-74,
-74,
-70,
-70,
-71,
-71,
-73,
-73,
-71,
-71,
-72,
-60,
-69,
-69,
-64,
-64,
-63,
-63,
-65,
-65,
-62,
-62,
-62,
-62,
-60,
-60,
-59,
-59,
-61,
-50,
-58,
-58,
-55,
-55,
-54,
-54,
-53,
-53,
-49,
-49,
-51,
-51,
-47,
-47,
-45,
-45,
-43,
-43,
-43,
-43,
-44,
-44,
-39,
-39,
-40,
-40,
-37,
-37,
-34,
-34,
-34,
-34,
-32,
-32,
-30,
-30,
-26,
-26,
-23,
-23,
-25,
-25,
-19,
-31,
-23,
-23,
-23,
-11,
-18,
-18,
-16,
-16,
-18,
-18,
-13,
-13,
-15,
-15,
-9,
-9,
-6,
-6,
-8,
-8,
-2,
-2,
-2,
-2,
0,
0,
1,
1,
5,
5,
2,
2,
6,
6,
7,
7,
12,
12,
10,
10,
10,
21,
19,
19,
18,
18,
16,
16,
22,
22,
19,
19,
22,
22,
25,
25,
29,
29,
30,
30,
31,
31,
26,
38,
34,
34,
39,
39,
34,
34,
39,
39,
40,
40,
42,
42,
43,
43,
46,
46,
51,
51,
48,
48,
51,
51,
52,
52,
52,
52,
55,
55,
53,
53,
58,
58,
58,
58,
63,
63,
62,
62,
61,
61,
62,
62,
64,
64,
65,
65,
68,
68,
69,
69,
67,
67,
70,
70,
74,
74,
73,
73,
72,
72,
75,
75,
76,
76,
74,
85,
78,
78,
71,
82,
77,
77,
78,
78,
78,
78,
81,
81,
83,
83,
79,
79,
82,
82,
84,
84,
84,
84,
83,
83,
86,
86,
84,
84,
84,
84,
85,
85,
84,
84,
88,
88,
88,
88,
87,
87,
86,
86,
90,
90,
90,
90,
86,
86,
87,
87,
89,
89,
88,
88,
90,
90,
93,
93,
87,
87,
87,
87,
91,
80,
85,
85,
87,
87,
88,
88,
88,
88,
87,
87,
81,
81,
88,
88,
86,
86,
84,
84,
86,
86,
84,
84,
79,
79,
83,
83,
82,
82,
81,
81,
81,
81,
80,
80,
77,
77,
77,
77,
77,
77,
76,
76,
77,
77,
73,
73,
73,
73,
73,
73,
74,
74,
73,
73,
70,
70,
66,
66,
63,
63,
67,
67,
63,
63,
61,
61,
63,
63,
60,
60,
58,
58,
57,
57,
51,
67,
54,
54,
51,
51,
53,
53,
53,
53,
49,
49,
47,
47,
46,
46,
49,
49,
46,
46,
41,
41,
41,
41,
41,
41,
39,
39,
35,
35,
33,
33,
30,
30,
30,
30,
26,
26,
27,
27,
27,
27,
26,
26,
25,
25,
21,
21,
19,
19,
14,
14,
16,
16,
15,
15,
11,
11,
10,
10,
8,
8,
6,
6,
3,
3,
3,
3,
4,
4,
1,
1,
-2,
-2,
-4,
-4,
-5,
-5,
-6,
-6,
-6,
-6,
-11,
-11,
-15,
-15,
-10,
-21,
-15,
-15,
-19,
-19,
-20,
-20,
-21,
-21,
-21,
-21,
-25,
-25,
-27,
-27,
-28,
-28,
-31,
-31,
-28,
-28,
-30,
-30,
-33,
-33,
-38,
-38,
-38,
-38,
-40,
-40,
-40,
-40,
-42,
-42,
-46,
-46,
-46,
-46,
-48,
-48,
-51,
-51,
-53,
-53,
-46,
-60,
-50,
-50,
-57,
-57,
-58,
-58,
-56,
-56,
-57,
-57,
-62,
-62,
-63,
-63,
-63,
-63,
-62,
-62,
-63,
-63,
-64,
-64,
-66,
-66,
-68,
-68,
-68,
-68,
-68,
-68,
-68,
-68,
-75,
-75,
-74,
-74,
-75,
-75,
-74,
-74,
-77,
-77,
-78,
-78,
-78,
-78,
-81,
-81,
-83,
-72,
-80,
-80,
-84,
-84,
-82,
-82,
-81,
-81,
-81,
-81,
-84,
-84,
-85,
-85,
-86,
-86,
-84,
-84,
-85,
-85,
-83,
-83,
-83,
-83,
-85,
-85,
-87,
-87,
-89,
-89,
-86,
-86,
-88,
-88,
-88,
-88,
-88,
-88,
-88,
-88,
-87,
-87,
-87,
-87,
-87,
-87,
-91,
-91,
-87,
-87,
-90,
-90,
-90,
-90,
-83,
-83,
-87,
-87,
-87,
-87,
-86,
-86,
-85,
-85,
-84,
-84,
-86,
-86,
-83,
-83,
-84,
-84,
-85,
-85,
-84,
-84,
-82,
-82,
-80,
-80,
-82,
-82,
-81,
-81,
-81,
-81,
-82,
-82,
-78,
-78,
-80,
-80,
-77,
-77,
-79,
-79,
-75,
-75,
-76,
-76,
-71,
-71,
-75,
-75,
-73,
-73,
-72,
-72,
-68,
-68,
-66,
-66,
-67,
-67,
-66,
-66,
-62,
-62,
-64,
-64,
-63,
-63,
-61,
-61,
-60,
-60,
-59,
-48,
-55,
-55,
-55,
-55,
-52,
-52,
-54,
-54,
-52,
-52,
-51,
-51,
-51,
-51,
-48,
-48,
-44,
-44,
-47,
-35,
-43,
-43,
-43,
-43,
-38,
-38,
-38,
-38,
-38,
-38,
-37,
-37,
-31,
-31,
-29,
-29,
-31,
-31,
-30,
-30,
-26,
-26,
-27,
-27,
-21,
-21,
-22,
-22,
-20,
-20,
-17,
-17,
-19,
-19,
-14,
-14,
-9,
-9,
-9,
-9,
-10,
-10,
-8,
3,
-2,
-2,
-1,
-1,
0,
0,
1,
1,
4,
4,
5,
5,
6,
6,
3,
3,
7,
18,
9,
9,
13,
13,
13,
13,
16,
16,
18,
18,
17,
17,
19,
19,
24,
24,
27,
27,
27,
27,
26,
26,
30,
30,
30,
30,
36,
36,
36,
36,
37,
37,
40,
40,
41,
41,
41,
41,
43,
43,
45,
45,
45,
45,
47,
47,
44,
57,
53,
53,
51,
51,
53,
53,
54,
54,
55,
55,
56,
56,
56,
56,
61,
61,
65,
65,
61,
72,
67,
67,
68,
68,
67,
67,
68,
68,
69,
69,
66,
66,
73,
73,
72,
72,
73,
73,
74,
74,
75,
75,
77,
77,
73,
73,
78,
78,
79,
79,
80,
80,
81,
81,
79,
79,
85,
72,
80,
