5-grundlagen-opAmps/data/ALL0073/A0073CH1.CSV

Memory Length,4000,
Trigger Level,-1.00000e+01,
Source,CH1,
Probe,1.0X,
Vertical Units,V,
Vertical Scale,5.00000e-02,
Vertical Position,0.00000e+00,
Horizontal Units,S,
Horizontal Scale,5.00000e-02,
Horizontal Position,0.0000000e+00,
Horizontal Mode,Roll Mode,
Waveform Last Dot Address,4000,
Sampling Period,2.00000e-04,
Firmware,V1.14,
Time, ,
Mode,Fast,
Waveform Data,
-55,
-40,
-48,
-62,
-47,
-61,
-55,
-40,
-49,
-60,
-51,
-38,
-52,
-39,
-52,
-38,
-54,
-37,
-48,
-37,
-50,
-36,
-47,
-35,
-53,
-35,
-39,
-57,
-56,
-33,
-47,
-32,
-41,
-55,
-55,
-32,
-51,
-31,
-36,
-51,
-42,
-29,
-34,
-51,
-38,
-26,
-40,
-24,
-35,
-47,
-36,
-36,
-35,
-24,
-32,
-44,
-26,
-44,
-43,
-21,
-31,
-20,
-36,
-19,
-39,
-16,
-35,
-16,
-23,
-37,
-31,
-12,
-23,
-36,
-19,
-33,
-23,
-11,
-19,
-31,
-21,
-8,
-14,
-28,
-28,
-4,
-26,
-4,
-14,
-27,
-20,
-3,
-16,
-1,
-3,
-21,
-11,
2,
-17,
4,
-2,
-18,
-8,
6,
-1,
-15,
3,
-13,
-5,
9,
-7,
11,
12,
-11,
2,
13,
-2,
15,
2,
16,
3,
18,
-5,
17,
10,
-3,
9,
20,
13,
-1,
22,
-1,
2,
24,
6,
25,
13,
25,
23,
7,
21,
7,
22,
7,
16,
31,
9,
32,
17,
34,
20,
35,
20,
36,
36,
15,
16,
38,
28,
17,
17,
40,
28,
41,
27,
40,
27,
42,
36,
22,
36,
22,
35,
35,
30,
45,
32,
47,
40,
24,
41,
27,
27,
50,
39,
51,
43,
29,
29,
51,
40,
52,
47,
31,
43,
31,
44,
32,
49,
31,
40,
54,
55,
32,
37,
56,
37,
56,
46,
35,
38,
58,
48,
35,
34,
57,
38,
57,
41,
56,
35,
58,
44,
58,
49,
36,
50,
37,
40,
58,
52,
36,
45,
59,
39,
58,
47,
36,
36,
58,
46,
57,
42,
58,
37,
58,
36,
56,
42,
57,
46,
46,
39,
57,
42,
57,
44,
56,
48,
33,
40,
55,
47,
32,
32,
53,
41,
55,
38,
52,
44,
30,
46,
30,
51,
31,
36,
51,
36,
49,
36,
48,
40,
26,
40,
25,
37,
25,
40,
25,
34,
45,
31,
45,
31,
43,
29,
43,
35,
20,
35,
20,
27,
41,
24,
41,
31,
17,
26,
37,
21,
36,
36,
14,
22,
35,
19,
32,
23,
9,
24,
9,
13,
30,
15,
28,
9,
27,
13,
25,
9,
25,
9,
23,
9,
22,
5,
20,
10,
-1,
13,
-3,
2,
17,
2,
16,
3,
16,
5,
-10,
0,
12,
11,
-10,
-4,
10,
3,
-13,
-6,
8,
-9,
5,
-9,
4,
-17,
3,
-4,
-19,
-8,
-21,
-4,
-22,
-18,
-1,
-12,
-25,
-15,
-15,
-11,
-26,
-5,
-29,
-25,
-7,
-14,
-31,
-21,
-33,
-24,
-11,
-20,
-34,
-25,
-14,
-17,
-36,
-19,
-37,
-23,
-38,
-26,
-40,
-30,
-41,
-29,
-43,
-32,
-20,
-28,
-43,
-36,
-24,
-31,
-45,
-41,
-24,
-31,
-47,
-32,
-49,
-37,
-49,
-39,
-51,
-37,
-51,
-39,
-51,
-45,
-29,
-39,
-54,
-41,
-56,
-49,
-34,
-37,
-56,
-46,
-34,
-42,
-55,
-53,
-37,
-42,
-59,
-59,
-36,
-44,
-59,
-44,
-60,
-49,
-60,
-46,
-61,
-60,
-39,
-51,
-63,
-55,
-42,
-54,
-40,
-53,
-42,
-59,
-42,
-45,
-63,
-57,
-42,
-55,
-42,
-41,
-41,
-52,
-64,
-49,
-64,
-47,
-63,
-51,
-64,
-54,
-43,
-48,
-64,
-64,
-42,
-56,
-42,
-55,
-41,
-50,
-63,
-51,
-63,
-50,
-63,
-47,
-63,
-50,
-63,
-45,
-62,
-51,
-62,
-55,
-39,
-43,
-60,
-53,
-40,
-46,
-59,
-52,
-38,
-39,
-59,
-41,
-58,
-42,
-57,
-52,
-35,
-41,
-57,
-43,
-56,
-38,
-55,
-42,
-54,
-40,
-53,
-43,
-32,
-41,
-30,
-35,
-51,
-36,
-51,
-36,
-48,
-36,
-48,
-33,
-48,
-39,
-25,
-29,
-46,
-28,
-45,
-37,
-22,
-36,
-20,
-31,
-20,
-33,
-19,
-24,
-39,
-31,
-16,
-24,
-36,
-22,
-36,
-27,
-13,
-28,
-12,
-24,
-10,
-28,
-9,
-22,
-7,
-20,
-7,
-15,
-28,
-18,
-6,
-12,
-25,
-24,
-2,
-13,
-1,
-13,
0,
0,
-19,
-18,
3,
-3,
-17,
-9,
5,
-7,
7,
-10,
8,
-5,
8,
-1,
11,
6,
-10,
-1,
13,
0,
14,
4,
15,
-2,
16,
14,
-3,
6,
20,
6,
20,
3,
21,
7,
23,
9,
24,
8,
25,
3,
28,
17,
5,
23,
6,
30,
8,
24,
9,
23,
11,
16,
33,
35,
13,
17,
34,
20,
36,
24,
37,
33,
16,
21,
40,
35,
19,
24,
41,
33,
20,
40,
22,
28,
44,
30,
45,
31,
46,
40,
25,
35,
48,
47,
27,
37,
49,
38,
50,
28,
51,
43,
30,
38,
52,
34,
52,
35,
53,
41,
53,
52,
33,
51,
33,
40,
54,
43,
56,
39,
56,
47,
33,
49,
34,
57,
34,
46,
35,
54,
35,
55,
36,
48,
37,
45,
57,
49,
36,
49,
37,
44,
60,
57,
38,
46,
60,
52,
36,
36,
58,
45,
58,
53,
37,
36,
58,
36,
59,
43,
57,
51,
36,
53,
36,
45,
56,
50,
34,
38,
55,
47,
34,
49,
34,
49,
33,
54,
33,
37,
53,
54,
30,
45,
30,
44,
31,
45,
29,
34,
49,
41,
28,
45,
28,
32,
48,
33,
48,
40,
25,
32,
47,
34,
45,
44,
21,
32,
44,
21,
44,
40,
19,
22,
42,
27,
40,
33,
17,
25,
38,
21,
37,
36,
14,
18,
37,
23,
12,
29,
10,
25,
10,
18,
31,
26,
7,
11,
29,
17,
17,
15,
4,
16,
3,
15,
0,
8,
22,
15,
0,
11,
-3,
15,
-4,
16,
-5,
9,
-4,
-2,
16,
1,
14,
-9,
13,
3,
-11,
-2,
9,
5,
-13,
3,
-14,
-3,
-16,
-8,
6,
0,
-18,
-12,
1,
-3,
-22,
-17,
0,
-20,
-2,
-12,
-24,
-18,
-3,
-5,
-27,
-24,
-6,
-23,
-8,
-8,
-30,
-22,
-11,
-16,
-33,
-20,
-34,
-24,
-24,
-22,
-36,
-23,
-37,
-17,
-17,
-32,
-19,
-35,
-19,
-38,
-21,
-33,
-22,
-29,
-44,
-38,
-24,
-39,
-25,
-39,
-24,
-31,
-48,
-37,
-49,
-28,
-51,
-45,
-29,
-40,
-51,
-42,
-42,
-36,
-52,
-40,
-54,
-43,
-55,
-43,
-54,
-47,
-34,
-46,
-35,
-49,
-35,
-58,
-36,
-53,
-36,
-50,
-36,
-44,
-60,
-49,
-60,
-53,
-40,
-59,
-39,
-56,
-40,
-51,
-40,
-49,
-63,
-43,
-64,
-49,
-63,
-46,
-63,
-46,
-63,
-43,
-62,
-52,
-64,
-63,
-41,
-46,
-64,
-47,
-63,
-49,
-63,
-52,
-63,
-54,
-43,
-54,
-42,
-56,
-43,
-58,
-43,
-61,
-41,
-56,
-41,
-51,
-62,
-63,
-41,
-49,
-62,
-50,
-62,
-55,
-42,
-53,
-40,
-56,
-40,
-61,
-38,
-43,
-60,
-52,
-37,
-51,
-38,
-48,
-37,
-46,
-57,
-48,
-35,
-50,
-35,
-43,
-56,
-40,
-55,
-38,
-55,
-39,
-55,
-40,
-53,
-51,
-32,
-48,
-29,
-44,
-28,
-40,
-29,
-35,
-49,
-48,
-25,
-33,
-48,
-35,
-47,
-39,
-24,
-47,
-21,
-30,
-43,
-23,
-43,
-27,
-40,
-27,
-40,
-29,
-29,
-32,
-16,
-31,
-14,
-27,
-14,
-20,
-35,
-17,
-35,
-28,
-11,
-27,
-8,
-19,
-8,
-23,
-5,
-10,
-28,
-14,
-27,
-12,
-26,
-20,
-2,
-15,
0,
-20,
2,
1,
-19,
-6,
-19,
-7,
4,
-9,
6,
-8,
7,
-3,
8,
4,
-12,
3,
-13,
-4,
11,
-3,
14,
-5,
14,
7,
-6,
8,
-6,
10,
-4,
12,
-3,
5,
21,
4,
21,
8,
23,
22,
2,
20,
4,
10,
26,
14,
28,
8,
28,
8,
30,
25,
9,
32,
9,
25,
12,
27,
12,
17,
35,
23,
38,
25,
25,
29,
16,
27,
39,
22,
39,
22,
43,
33,
20,
35,
21,
33,
44,
26,
45,
43,
23,
25,
47,
40,
26,
39,
26,
27,
49,
40,
29,
45,
29,
33,
50,
40,
52,
40,
52,
40,
53,
32,
55,
49,
32,
52,
32,
41,
55,
55,
33,
49,
34,
35,
57,
51,
35,
48,
33,
41,
57,
44,
57,
44,
58,
50,
37,
47,
59,
53,
37,
47,
58,
37,
60,
44,
59,
49,
37,
44,
58,
49,
37,
45,
58,
44,
57,
52,
36,
44,
59,
48,
36,
53,
36,
57,
35,
49,
36,
48,
36,
43,
56,
50,
33,
49,
33,
42,
55,
45,
33,
39,
53,
44,
30,
45,
31,
37,
51,
44,
28,
41,
29,
35,
49,
51,
28,
41,
27,
33,
48,
44,
26,
33,
46,
37,
23,
34,
23,
37,
22,
40,
21,
39,
20,
36,
20,
31,
18,
24,
39,
23,
36,
24,
36,
33,
15,
22,
36,
25,
11,
18,
33,
21,
32,
22,
7,
20,
6,
13,
28,
9,
27,
13,
26,
19,
3,
18,
1,
13,
-1,
9,
22,
7,
20,
5,
18,
0,
18,
6,
17,
8,
-6,
5,
-8,
-1,
13,
11,
-11,
-2,
9,
-4,
10,
-6,
8,
-11,
6,
-12,
5,
-4,
-19,
-4,
-19,
-5,
-19,
-14,
0,
-19,
-3,
-12,
-24,
-12,
-25,
-14,
-27,
-19,
-8,
-14,
-29,
-16,
-30,
-15,
-31,
-17,
-34,
-23,
-35,
-28,
-13,
-28,
-15,
-24,
-37,
-25,
-38,
-21,
-40,
-27,
-41,
-29,
-41,
-34,
-21,
-31,
-44,
-32,
-45,
-31,
-45,
-40,
-26,
-36,
-47,
-36,
-48,
-43,
-29,
-36,
-50,
-38,
-52,
-35,
-53,
-44,
-32,
-32,
-55,
-50,
-32,
-55,
-33,
-48,
-35,
-40,
-57,
-44,
-58,
-52,
-36,
-52,
-36,
-42,
-60,
-51,
-36,
-45,
-61,
-60,
-39,
-50,
-61,
-43,
-62,
-50,
-61,
-46,
-62,
-55,
-41,
-56,
-41,
-52,
-64,
-52,
-63,
-64,
-41,
-49,
-64,
-54,
-42,
-51,
-64,
-60,
-43,
-53,
-42,
-44,
-64,
-49,
-64,
-54,
-43,
-52,
-63,
-51,
-63,
-48,
-63,
-59,
-41,
-52,
-41,
-53,
-40,
-63,
-40,
-53,
-41,
-49,
-61,
-44,
-61,
-47,
-61,
-48,
-60,
-57,
-40,
-54,
-37,
-52,
-38,
-51,
-36,
-57,
-36,
-46,
-35,
-47,
-36,
-46,
-34,
-51,
-34,
-47,
-33,
-47,
-33,
-44,
-31,
-46,
-31,
-51,
-31,
-43,
-28,
-33,
-51,
-43,
-27,
-49,
-25,
-37,
-25,
-33,
-45,
-37,
-24,
-45,
-21,
-43,
-21,
-38,
-20,
-42,
-19,
-40,
-18,
-30,
-18,
-18,
-39,
-37,
-15,
-37,
-15,
-28,
-13,
-28,
-13,
-17,
-32,
-22,
-10,
-15,
-31,
-22,
-8,
-22,
-7,
-5,
-27,
-11,
-26,
-9,
-24,
-6,
-23,
-15,
0,
-14,
2,
-13,
3,
-8,
5,
-3,
-16,
-2,
-16,
-8,
8,
-2,
9,
4,
-10,
5,
-10,
9,
-9,
1,
14,
5,
-7,
-3,
17,
8,
-3,
7,
20,
12,
-1,
11,
11,
10,
22,
12,
23,
13,
25,
20,
5,
15,
27,
21,
7,
24,
8,
18,
30,
17,
32,
24,
12,
19,
35,
28,
13,
30,
15,
23,
37,
24,
38,
28,
40,
17,
43,
20,
43,
29,
43,
39,
22,
29,
44,
24,
47,
36,
23,
39,
24,
34,
48,
40,
25,
33,
49,
36,
51,
38,
50,
52,
29,
43,
30,
39,
53,
43,
32,
36,
53,
47,
33,
54,
31,
41,
55,
51,
33,
46,
34,
38,
55,
43,
56,
37,
56,
47,
35,
41,
57,
43,
58,
45,
58,
50,
36,
47,
47,
49,
36,
43,
58,
43,
58,
48,
37,
50,
37,
36,
60,
51,
37,
39,
57,
43,
59,
50,
36,
44,
59,
44,
58,
43,
56,
53,
35,
44,
56,
44,
55,
51,
34,
33,
56,
47,
32,
41,
53,
44,
31,
43,
31,
46,
30,
45,
30,
44,
29,
32,
51,
45,
27,
41,
28,
30,
47,
44,
25,
28,
47,
39,
22,
35,
24,
39,
23,
29,
43,
39,
21,
32,
21,
23,
40,
24,
40,
31,
17,
29,
17,
17,
37,
32,
14,
21,
35,
24,
12,
24,
9,
21,
10,
17,
31,
20,
8,
16,
28,
23,
4,
15,
4,
24,
2,
5,
24,
18,
1,
8,
21,
17,
-3,
11,
-3,
9,
-5,
8,
-5,
5,
-7,
-5,
13,
7,
-9,
-1,
12,
-1,
10,
-9,
8,
3,
-14,
-8,
5,
-17,
6,
-2,
-17,
-12,
3,
-13,
1,
-2,
-21,
-24,
0,
-9,
-26,
-12,
-25,
-13,
-27,
-13,
-28,
-14,
-28,
-25,
-8,
-29,
-9,
-28,
-10,
-12,
-35,
-33,
-12,
-28,
-14,
-33,
-15,
-29,
-16,
-41,
-18,
-27,
-43,
-32,
-18,
-31,
-44,
-28,
-44,
-33,
-46,
-32,
-46,
-26,
-48,
-39,
-27,
-32,
-50,
-29,
-49,
-51,
-28,
-39,
-53,
-33,
-52,
-31,
-53,
-47,
-32,
-40,
-55,
-44,
-55,
-55,
-33,
-35,
-58,
-35,
-59,
-58,
-35,
-47,
-59,
-41,
-60,
-44,
-60,
-44,
-60,
-55,
-39,
-52,
-39,
-45,
-62,
-53,
-40,
-57,
-40,
-55,
-41,
-61,
-42,
-46,
-64,
-51,
-64,
-48,
-64,
-45,
-63,
-49,
-64,
-55,
-41,
-43,
-63,
-51,
-63,
-58,
-41,
-48,
-63,
-47,
-64,
-50,
-64,
-63,
-63,
-57,
-40,
-49,
-63,
-59,
-41,
-44,
-63,
-63,
-40,
-50,
-63,
-40,
-62,
-52,
-40,
-52,
-39,
-53,
-37,
-61,
-37,
-56,
-37,
-54,
-38,
-47,
-60,
-49,
-36,
-42,
-57,
-44,
-56,
-44,
-55,
-48,
-34,
-52,
-33,
-38,
-55,
-34,
-55,
-43,
-31,
-48,
-31,
-37,
-50,
-51,
-28,
-35,
-49,
-36,
-49,
-35,
-47,
-37,
-24,
-41,
-21,
-40,
-20,
-34,
-21,
-28,
-43,
-32,
-18,
-25,
-40,
-31,
-17,
-32,
-16,
-33,
-15,
-29,
-13,
-26,
-13,
-34,
-11,
-13,
-31,
-8,
-31,
-27,
-9,
-19,
-6,
-12,
-28,
-11,
-28,
-20,
-3,
-16,
-2,
-18,
-1,
-22,
1,
-4,
-20,
-7,
-19,
-9,
5,
-17,
7,
-11,
10,
-5,
7,
0,
-12,
7,
-11,
9,
-11,
-2,
14,
3,
15,
7,
-7,
8,
-5,
10,
-3,
11,
-3,
-1,
21,
5,
23,
13,
0,
16,
1,
17,
1,
6,
27,
13,
27,
17,
30,
18,
29,
15,
31,
18,
32,
13,
35,
12,
35,
36,
13,
29,
15,
32,
16,
38,
16,
31,
17,
24,
42,
22,
42,
29,
43,
37,
21,
35,
22,
23,
45,
31,
45,
37,
24,
40,
26,
39,
25,
49,
27,
41,
27,
37,
50,
38,
51,
29,
52,
40,
53,
48,
30,
40,
53,
37,
53,
36,
55,
47,
33,
49,
34,
50,
33,
47,
34,
41,
57,
44,
56,
45,
56,
44,
58,
54,
36,
45,
59,
50,
36,
39,
58,
43,
59,
45,
59,
49,
35,
50,
36,
44,
59,
46,
59,
45,
60,
49,
36,
45,
57,
44,
58,
39,
58,
42,
57,
48,
36,
51,
33,
44,
56,
56,
33,
44,
56,
49,
32,
43,
55,
48,
32,
46,
33,
31,
55,
33,
54,
36,
52,
49,
30,
49,
27,
38,
51,
42,
27,
35,
49,
37,
48,
38,
25,
47,
23,
31,
46,
45,
21,
35,
21,
29,
44,
35,
20,
33,
19,
40,
40,
36,
17,
21,
38,
22,
37,
17,
36,
22,
36,
12,
35,
19,
32,
17,
31,
24,
7,
22,
7,
12,
28,
28,
4,
17,
3,
17,
4,
23,
-1,
11,
22,
23,
0,
18,
-2,
12,
-3,
-2,
19,
17,
-4,
16,
-8,
1,
13,
3,
-10,
1,
-12,
5,
-11,
-1,
-13,
-15,
9,
-2,
-16,
-2,
-17,
0,
-19,
-11,
3,
-7,
-20,
-18,
1,
-10,
-24,
-12,
-24,
-16,
-3,
-10,
-28,
-13,
-28,
-11,
-29,
-16,
-31,
-17,
-33,
-11,
-35,
-12,
-35,
-24,
-35,
-24,
-36,
-23,
-38,
-31,
-16,
-35,
-18,
-29,
-41,
-26,
-42,
-29,
-44,
-35,
-21,
-31,
-44,
-33,
-46,
-35,
-47,
-44,
-26,
-41,
-27,
-33,
-49,
-44,
-29,
-29,
-52,
-47,
-29,
-47,
-31,
-51,
-32,
-36,
-54,
-41,
-56,
-32,
-56,
-44,
-55,
-49,
-35,
-39,
-58,
-55,
-35,
-49,
-36,
-43,
-59,
-58,
-37,
-61,
-37,
-43,
-61,
-51,
-39,
-43,
-64,
-47,
-63,
-56,
-40,
-55,
-40,
-54,
-41,
-54,
-41,
-56,
-42,
-50,
-64,
-51,
-65,
-55,
-42,
-41,
-64,
-52,
-65,
-45,
-64,
-60,
-42,
-61,
-42,
-51,
-63,
-51,
-63,
-52,
-41,
-50,
-63,
-56,
-40,
-49,
-64,
-54,
-41,
-64,
-41,
-53,
-41,
-41,
-63,
-38,
-61,
-48,
-60,
-51,
-37,
-56,
-37,
-47,
-59,
-49,
-37,
-58,
-36,
-53,
-35,
-50,
-35,
-50,
-34,
-37,
-55,
-48,
-33,
-39,
-54,
-50,
-31,
-48,
-30,
-44,
-29,
-36,
-52,
-51,
-27,
-41,
-28,
-35,
-48,
-33,
-48,
-40,
-22,
-23,
-46,
-35,
-22,
-31,
-44,
-35,
-20,
-41,
-19,
-33,
-16,
-31,
-16,
-28,
-16,
-25,
-37,
-30,
-13,
-22,
-35,
-29,
-12,
-20,
-33,
-21,
-9,
-30,
-7,
-4,
-4,
-29,
-5,
-15,
-27,
-20,
-3,
-17,
-1,
-15,
0,
-23,
0,
-20,
2,
-4,
-20,
-6,
-17,
-7,
5,
-11,
7,
1,
-15,
8,
-13,
-11,
12,
7,
-9,
1,
14,
4,
-8,
-1,
16,
0,
16,
4,
18,
6,
19,
11,
-3,
-2,
22,
9,
24,
21,
1,
23,
1,
9,
27,
5,
29,
13,
29,
30,
7,
17,
30,
24,
9,
26,
11,
22,
34,
28,
13,
23,
37,
24,
36,
16,
40,
24,
39,
22,
40,
24,
42,
29,
43,
33,
22,
30,
45,
25,
45,
38,
24,
40,
24,
30,
47,
33,
49,
49,
25,
37,
49,
33,
52,
43,
29,
36,
52,
42,
29,
35,
53,
30,
54,
31,
54,
45,
33,
45,
32,
40,
57,
48,
34,
49,
33,
52,
35,
52,
36,
46,
57,
45,
58,
46,
57,
44,
57,
43,
59,
41,
59,
45,
57,
41,
60,
46,
58,
46,
60,
40,
59,
41,
57,
48,
37,
52,
36,
53,
35,
45,
57,
45,
58,
42,
58,
38,
56,
49,
36,
44,
56,
56,
34,
44,
55,
39,
55,
56,
33,
39,
55,
33,
55,
39,
52,
44,
32,
47,
30,
44,
29,
41,
29,
43,
26,
38,
49,
37,
49,
45,
24,
34,
47,
29,
47,
33,
45,
29,
46,
45,
21,
31,
44,
33,
20,
21,
42,
24,
40,
39,
16,
29,
16,
19,
37,
26,
12,
21,
36,
21,
34,
33,
10,
33,
9,
23,
8,
15,
30,
20,
7,
15,
27,
19,
4,
17,
3,
15,
1,
15,
0,
6,
21,
-3,
21,
13,
-4,
-5,
-5,
13,
-5,
9,
-7,
0,
14,
5,
-11,
5,
-11,
6,
-13,
-5,
9,
-7,
8,
-4,
-16,
-8,
6,
-9,
3,
-3,
-19,
-8,
-22,
-4,
-23,
-11,
-24,
-6,
-24,
-13,
-26,
-21,
-6,
-6,
-29,
-20,
-8,
-25,
-7,
-24,
-11,
-25,
-11,
-19,
-35,
-31,
-12,
-22,
-37,
-27,
-15,
-32,
-15,
-27,
-39,
-36,
-18,
-24,
-42,
-37,
-21,
-36,
-23,
-33,
-45,
-33,
-47,
-24,
-47,
-48,
-25,
-34,
-48,
-45,
-28,
-38,
-50,
-36,
-51,
-39,
-52,
-43,
-32,
-49,
-31,
-51,
-31,
-51,
-34,
-41,
-56,
-37,
-58,
-45,
-58,
-45,
-58,
-49,
-37,
-47,
-59,
-41,
-59,
-56,
-38,
-38,
-61,
-48,
-61,
-44,
-61,
-49,
-63,
-54,
-40,
-54,
-39,
-50,
-63,
-49,
-64,
-53,
-41,
-50,
-63,
-48,
-63,
-47,
-64,
-55,
-43,
-45,
-64,
-45,
-64,
-44,
-64,
-51,
-64,
-52,
-64,
-56,
-43,
-49,
-64,
-54,
-41,
-43,
-63,
-51,
-63,
-57,
-41,
-55,
-41,
-52,
-41,
-44,
-61,
-44,
-61,
-55,
-39,
-49,
-61,
-59,
-37,
-44,
-59,
-53,
-36,
-41,
-58,
-50,
-37,
-36,
-59,
-47,
-35,
-46,
-34,
-47,
-32,
-48,
-34,
-40,
-55,
-54,
-30,
-39,
-53,
-34,
-53,
-42,
-28,
-44,
-29,
-42,
-27,
-33,
-47,
-34,
-48,
-31,
-47,
-31,
-46,
-38,
-21,
-41,
-20,
-28,
-43,
-37,
-19,
-27,
-41,
-32,
-17,
-34,
-17,
-29,
-14,
-35,
-14,
-15,
-36,
-20,
-35,
-18,
-33,
-10,
-32,
-27,
-8,
-22,
-7,
-10,
-28,
-15,
-27,
-11,
-26,
-11,
-24,
-14,
-1,
-6,
-22,
-2,
-19,
-10,
4,
4,
-18,
3,
-16,
-7,
5,
-4,
9,
-7,
11,
3,
-11,
-3,
13,
-11,
15,
3,
14,
-7,
17,
-1,
17,
4,
18,
11,
-2,
5,
20,
9,
22,
19,
0,
15,
2,
21,
3,
13,
26,
21,
5,
19,
8,
20,
8,
19,
31,
31,
10,
19,
34,
17,
35,
13,
35,
27,
15,
24,
37,
28,
16,
24,
41,
23,
41,
28,
42,
19,
45,
23,
44,
29,
45,
42,
22,
35,
24,
23,
47,
30,
48,
32,
48,
30,
49,
37,
50,
41,
28,
45,
29,
41,
52,
40,
51,
41,
52,
47,
32,
46,
33,
41,
54,
43,
55,
43,
55,
37,
56,
46,
34,
45,
56,
49,
36,
39,
56,
44,
57,
43,
57,
48,
35,
49,
35,
48,
36,
53,
37,
36,
59,
41,
57,
60,
35,
46,
58,
42,
59,
58,
36,
58,
36,
44,
59,
59,
36,
49,
36,
41,
56,
43,
57,
38,
56,
48,
33,
33,
56,
41,
56,
40,
55,
44,
33,
43,
43,
37,
54,
34,
53,
50,
31,
47,
31,
46,
29,
41,
28,
40,
28,
39,
27,
35,
47,
34,
48,
25,
47,
24,
48,
45,
23,
37,
22,
30,
45,
23,
44,
30,
43,
37,
19,
31,
18,
32,
17,
27,
38,
23,
36,
22,
35,
30,
14,
21,
34,
23,
11,
19,
32,
12,
31,
20,
7,
20,
5,
20,
5,
3,
27,
18,
2,
17,
3,
12,
1,
7,
22,
17,
-1,
12,
-4,
2,
19,
18,
-5,
8,
-7,
-2,
14,
6,
-9,
-4,
11,
5,
-12,
5,
-13,
0,
-15,
-15,
5,
-8,
5,
-17,
4,
-5,
-20,
-7,
-21,
-10,
-22,
-19,
-1,
-22,
-3,
-11,
-27,
-18,
-5,
-5,
-29,
-18,
-29,
-18,
-32,
-24,
-8,
-19,
-32,
-19,
-34,
-27,
-13,
-36,
-13,
-19,
-37,
-32,
-17,
-27,
-39,
-29,
-40,
-31,
-20,
-32,
-20,
-38,
-23,
-37,
-23,
-33,
-47,
-29,
-47,
-40,
-27,
-30,
-49,
-41,
-28,
-40,
-52,
-45,
-29,
-43,
-30,
-32,
-55,
-32,
-55,
-40,
-56,
-49,
-34,
-54,
-34,
-41,
-56,
-37,
-57,
-44,
-59,
-51,
-35,
-51,
-37,
-45,
-60,
-49,
-60,
-43,
-60,
-47,
-62,
-43,
-60,
-54,
-40,
-51,
-51,
-40,
-63,
-50,
-64,
-58,
-42,
-48,
-63,
-51,
-64,
-57,
-42,
-48,
-64,
-58,
-43,
-62,
-43,
-47,
-64,
-49,
-63,
-54,
-42,
-51,
-63,
-56,
-42,
-59,
-40,
-54,
-43,
-59,
-41,
-41,
-63,
-51,
-63,
-53,
-40,
-51,
-63,
-56,
-42,
-53,
-40,
-56,
-39,
-42,
-61,
-43,
-61,
-50,
-39,
-48,
-60,
-44,
-59,
-42,
-59,
-42,
-58,
-47,
-36,
-47,
-35,
-55,
-33,
-57,
-31,
-52,
-32,
-53,
-31,
-44,
-31,
-43,
-31,
-41,
-29,
-40,
-28,
-40,
-28,
-35,
-48,
-41,
-26,
-47,
-24,
-40,
-23,
-32,
-45,
-33,
-21,
-39,
-20,
-27,
-40,
-31,
-19,
-26,
-38,
-26,
-37,
-21,
-38,
-27,
-15,
-27,
-13,
-33,
-11,
-19,
-33,
-12,
-32,
-23,
-8,
-15,
-30,
-13,
-28,
-28,
-4,
-20,
-3,
-7,
-24,
-24,
1,
-3,
-22,
-11,
1,
-19,
3,
-6,
-17,
-9,
5,
-1,
-15,
-10,
9,
0,
-12,
-8,
11,
-10,
12,
-5,
12,
-3,
15,
5,
-7,
0,
16,
-1,
18,
9,
-4,
12,
-1,
12,
0,
17,
2,
20,
1,
20,
2,
21,
4,
21,
6,
15,
29,
26,
8,
17,
31,
32,
10,
22,
10,
30,
11,
21,
35,
29,
14,
29,
16,
22,
38,
31,
17,
31,
18,
30,
41,
31,
44,
21,
43,
36,
23,
33,
45,
37,
25,
32,
45,
39,
25,
38,
27,
32,
49,
40,
28,
38,
51,
41,
29,
47,
31,
37,
52,
46,
30,
41,
53,
49,
33,
39,
54,
49,
33,
37,
55,
57,
34,
38,
56,
42,
55,
39,
56,
43,
57,
48,
36,
41,
58,
43,
60,
48,
36,
40,
59,
57,
57,
53,
37,
52,
36,
52,
36,
42,
59,
46,
60,
43,
58,
44,
57,
53,
36,
48,
36,
41,
56,
44,
56,
56,
35,
40,
57,
48,
36,
45,
33,
47,
35,
41,
55,
43,
56,
49,
33,
49,
32,
46,
32,
41,
52,
35,
52,
51,
30,
45,
29,
44,
28,
35,
49,
44,
26,
33,
48,
30,
47,
35,
46,
35,
24,
37,
21,
34,
22,
44,
21,
28,
42,
24,
42,
23,
41,
32,
17,
29,
15,
23,
36,
19,
35,
22,
35,
17,
34,
16,
33,
23,
10,
21,
10,
28,
7,
15,
27,
11,
27,
12,
25,
21,
3,
14,
2,
4,
22,
13,
0,
4,
20,
10,
-3,
11,
-4,
9,
-5,
12,
-8,
6,
-7,
-4,
12,
3,
-11,
5,
-12,
-4,
9,
-11,
8,
-11,
7,
-8,
6,
-6,
-19,
-3,
-19,
-3,
-20,
-9,
-22,
-24,
-1,
-13,
-24,
-16,
-3,
-22,
-5,
-16,
-27,
-17,
-31,
-13,
-30,
-16,
-32,
-17,
-32,
-12,
-35,
-36,
-12,
-32,
-14,
-31,
-15,
-26,
-40,
-18,
-40,
-23,
-40,
-29,
-43,
-33,
-20,
-27,
-44,
-23,
-47,
-34,
-46,
-28,
-45,
-41,
-27,
-35,
-48,
-31,
-48,
-51,
-28,
-42,
-31,
-43,
-31,
-36,
-53,
-40,
-52,
-33,
-55,
-47,
-33,
-45,
-56,
-42,
-57,
-41,
-56,
-47,
-58,
-52,
-37,
-55,
-38,
-49,
-38,
-49,
-38,
-48,
-60,
-45,
-60,
-52,
-39,
-50,
-62,
-54,
-41,
-49,
-60,
-47,
-62,
-54,
-41,
-51,
-63,
-49,
-63,
-43,
-62,
-43,
-63,
-53,
-53,
-63,
-43,
-51,
-63,
-59,
-43,
-49,
-63,
-60,
-43,
-49,
-63,
-48,
-63,
-64,
-41,
-54,
-42,
-46,
-63,
-53,
-42,
