5-grundlagen-opAmps/data/ALL0056/A0056CH1.CSV

Memory Length,4000,
Trigger Level,0.00000e+00,
Source,CH1,
Probe,1.0X,
Vertical Units,V,
Vertical Scale,5.00000e-02,
Vertical Position,0.00000e+00,
Horizontal Units,S,
Horizontal Scale,5.00000e-08,
Horizontal Position,0.0000000e+00,
Horizontal Mode,Main,
Sampling Period,2.00000e-09,
Firmware,V1.14,
Time, ,
Mode,Fast,
Waveform Data,
5,
5,
6,
12,
13,
13,
18,
24,
28,
24,
23,
28,
36,
39,
35,
35,
37,
43,
49,
45,
40,
38,
46,
54,
53,
43,
37,
43,
51,
49,
42,
36,
35,
41,
41,
40,
31,
24,
26,
28,
28,
20,
15,
11,
10,
10,
7,
4,
-3,
-9,
-9,
-8,
-9,
-17,
-26,
-27,
-24,
-23,
-28,
-39,
-41,
-38,
-36,
-38,
-46,
-53,
-52,
-43,
-43,
-52,
-60,
-58,
-50,
-48,
-53,
-58,
-56,
-50,
-48,
-52,
-53,
-50,
-45,
-42,
-44,
-46,
-43,
-35,
-31,
-32,
-35,
-32,
-20,
-16,
-18,
-21,
-15,
-7,
-1,
-1,
-4,
-1,
6,
14,
17,
13,
12,
19,
25,
31,
31,
28,
29,
33,
38,
43,
44,
39,
36,
41,
48,
52,
47,
40,
38,
46,
52,
51,
40,
33,
39,
50,
51,
38,
26,
25,
37,
42,
32,
18,
12,
19,
27,
23,
9,
-3,
-2,
7,
8,
-3,
-16,
-19,
-13,
-10,
-14,
-25,
-30,
-32,
-32,
-28,
-33,
-41,
-45,
-43,
-41,
-43,
-47,
-54,
-54,
-51,
-48,
-48,
-53,
-59,
-57,
-51,
-46,
-51,
-56,
-57,
-51,
-43,
-43,
-46,
-47,
-45,
-40,
-36,
-33,
-35,
-33,
-28,
-23,
-19,
-19,
-16,
-11,
-9,
-5,
-3,
1,
5,
6,
9,
11,
14,
20,
23,
22,
22,
28,
35,
38,
34,
31,
36,
44,
47,
44,
38,
38,
46,
52,
53,
45,
39,
40,
49,
53,
44,
36,
36,
41,
46,
40,
35,
26,
29,
31,
29,
24,
15,
13,
14,
15,
10,
2,
-2,
-3,
-3,
-4,
-10,
-14,
-20,
-22,
-20,
-23,
-26,
-35,
-39,
-36,
-36,
-37,
-44,
-47,
-49,
-46,
-44,
-48,
-52,
-56,
-52,
-49,
-52,
-56,
-57,
-51,
-50,
-51,
-53,
-52,
-46,
-45,
-45,
-47,
-43,
-38,
-34,
-35,
-38,
-34,
-25,
-17,
-20,
-25,
-21,
-9,
-1,
-3,
-9,
-8,
3,
14,
17,
10,
7,
14,
24,
33,
26,
20,
25,
34,
42,
40,
38,
36,
38,
44,
48,
48,
43,
39,
44,
50,
52,
47,
39,
36,
45,
50,
50,
40,
29,
29,
41,
46,
34,
18,
15,
22,
32,
26,
9,
0,
3,
13,
13,
0,
-15,
-16,
-8,
-2,
-13,
-26,
-31,
-26,
-21,
-27,
-35,
-42,
-41,
-39,
-40,
-41,
-47,
-50,
-50,
-50,
-48,
-50,
-53,
-55,
-56,
-55,
-51,
-49,
-53,
-56,
-53,
-48,
-44,
-47,
-48,
-47,
-41,
-36,
-37,
-37,
-35,
-31,
-26,
-23,
-22,
-21,
-15,
-10,
-9,
-7,
-2,
3,
4,
4,
8,
13,
19,
20,
17,
20,
26,
34,
36,
32,
29,
32,
44,
47,
41,
36,
37,
45,
53,
49,
44,
38,
43,
50,
52,
45,
37,
38,
44,
47,
42,
32,
29,
30,
35,
32,
25,
19,
15,
18,
18,
15,
6,
0,
-1,
0,
-2,
-6,
-13,
-15,
-19,
-18,
-19,
-23,
-29,
-35,
-35,
-35,
-38,
-42,
-46,
-44,
-46,
-47,
-48,
-52,
-53,
-53,
-51,
-52,
-54,
-55,
-55,
-52,
-52,
-52,
-50,
-51,
-49,
-48,
-47,
-41,
-40,
-40,
-40,
-40,
-31,
-26,
-24,
-26,
-26,
-23,
-13,
-4,
-7,
-13,
-9,
1,
12,
11,
7,
4,
10,
23,
29,
24,
17,
21,
33,
44,
39,
30,
32,
38,
49,
50,
41,
37,
39,
46,
54,
52,
43,
38,
42,
49,
51,
46,
37,
34,
36,
41,
43,
35,
22,
20,
25,
33,
26,
11,
3,
8,
18,
15,
1,
-11,
-11,
-4,
0,
-9,
-27,
-32,
-24,
-15,
-21,
-35,
-42,
-37,
-31,
-34,
-43,
-48,
-49,
-46,
-45,
-50,
-54,
-55,
-52,
-51,
-54,
-55,
-53,
-52,
-52,
-54,
-52,
-49,
-47,
-48,
-49,
-44,
-40,
-37,
-39,
-37,
-35,
-29,
-25,
-24,
-22,
-21,
-15,
-12,
-9,
-6,
-2,
0,
2,
4,
11,
17,
17,
15,
16,
21,
31,
34,
30,
28,
30,
38,
48,
45,
35,
34,
43,
51,
50,
42,
40,
44,
53,
52,
44,
36,
38,
46,
49,
44,
33,
30,
35,
38,
35,
27,
22,
20,
21,
20,
17,
11,
6,
2,
1,
1,
-3,
-9,
-13,
-15,
-16,
-18,
-24,
-27,
-30,
-33,
-32,
-35,
-39,
-45,
-45,
-43,
-44,
-47,
-50,
-52,
-50,
-51,
-51,
-52,
-53,
-55,
-57,
-51,
-52,
-49,
-50,
-52,
-51,
-49,
-43,
-39,
-42,
-44,
-43,
-34,
-26,
-26,
-31,
-30,
-21,
-14,
-9,
-12,
-17,
-10,
0,
9,
7,
0,
2,
11,
24,
26,
19,
15,
20,
32,
41,
38,
29,
26,
37,
48,
49,
42,
35,
40,
49,
53,
51,
43,
38,
42,
51,
52,
43,
36,
37,
41,
45,
42,
32,
24,
28,
32,
34,
26,
13,
8,
12,
19,
13,
2,
-7,
-7,
-1,
0,
-8,
-18,
-26,
-21,
-15,
-18,
-31,
-40,
-36,
-31,
-36,
-42,
-49,
-47,
-42,
-43,
-48,
-53,
-53,
-49,
-49,
-52,
-57,
-56,
-51,
-50,
-54,
-56,
-52,
-46,
-45,
-49,
-50,
-44,
-38,
-36,
-40,
-40,
-32,
-27,
-24,
-23,
-24,
-22,
-16,
-9,
-8,
-8,
-4,
-1,
4,
8,
13,
14,
13,
15,
19,
26,
30,
28,
25,
29,
38,
41,
41,
36,
34,
42,
52,
52,
39,
36,
43,
52,
55,
45,
38,
36,
47,
52,
45,
36,
31,
34,
42,
38,
29,
21,
23,
26,
23,
18,
12,
10,
9,
6,
4,
-3,
-6,
-10,
-11,
-12,
-14,
-18,
-25,
-28,
-30,
-29,
-30,
-36,
-43,
-45,
-42,
-39,
-44,
-49,
-53,
-52,
-47,
-49,
-52,
-55,
-57,
-55,
-53,
-50,
-51,
-53,
-52,
-52,
-48,
-48,
-44,
-44,
-45,
-43,
-36,
-31,
-31,
-36,
-34,
-26,
-13,
-14,
-19,
-20,
-12,
0,
5,
1,
-4,
-3,
12,
22,
21,
13,
12,
19,
33,
37,
30,
25,
29,
37,
48,
46,
37,
34,
41,
51,
51,
46,
40,
38,
47,
51,
52,
44,
36,
39,
44,
48,
40,
31,
27,
30,
37,
34,
25,
17,
13,
18,
21,
16,
5,
-2,
0,
4,
0,
-9,
-16,
-17,
-15,
-15,
-20,
-30,
-32,
-33,
-29,
-32,
-41,
-46,
-46,
-39,
-43,
-49,
-50,
-52,
-49,
-50,
-52,
-54,
-54,
-51,
-51,
-53,
-54,
-54,
-49,
-48,
-50,
-51,
-48,
-40,
-38,
-38,
-43,
-41,
-30,
-26,
-26,
-27,
-26,
-19,
-12,
-7,
-11,
-11,
-4,
3,
7,
7,
7,
10,
14,
20,
25,
25,
21,
24,
33,
38,
39,
35,
34,
35,
42,
50,
48,
41,
37,
41,
53,
55,
45,
36,
39,
47,
52,
46,
37,
31,
38,
43,
41,
32,
22,
24,
30,
30,
19,
10,
10,
12,
13,
6,
-1,
-5,
-6,
-7,
-10,
-12,
-17,
-22,
-26,
-27,
-28,
-28,
-32,
-38,
-41,
-43,
-40,
-40,
-46,
-53,
-52,
-47,
-46,
-51,
-57,
-58,
-53,
-50,
-52,
-53,
-56,
-54,
-49,
-48,
-47,
-49,
-48,
-44,
-42,
-40,
-36,
-35,
-35,
-35,
-28,
-19,
-17,
-20,
-24,
-17,
-4,
2,
0,
-7,
-4,
8,
19,
20,
9,
7,
18,
31,
35,
26,
21,
27,
41,
46,
42,
33,
34,
42,
52,
51,
41,
37,
43,
50,
52,
47,
40,
40,
43,
46,
47,
41,
35,
32,
34,
36,
33,
28,
22,
19,
22,
21,
16,
9,
3,
4,
7,
3,
-9,
-14,
-13,
-10,
-13,
-20,
-27,
-29,
-26,
-27,
-35,
-37,
-40,
-40,
-40,
-43,
-48,
-50,
-47,
-48,
-51,
-56,
-57,
-49,
-49,
-53,
-58,
-56,
-51,
-47,
-48,
-52,
-53,
-49,
-42,
-38,
-42,
-46,
-42,
-33,
-26,
-27,
-32,
-31,
-20,
-14,
-11,
-12,
-15,
-12,
0,
7,
5,
1,
3,
10,
20,
24,
21,
17,
21,
30,
38,
39,
33,
30,
36,
44,
46,
44,
39,
40,
46,
51,
53,
45,
37,
41,
50,
53,
44,
36,
36,
39,
46,
44,
33,
25,
26,
32,
34,
23,
13,
9,
15,
18,
11,
1,
-4,
-3,
-3,
-6,
-11,
-15,
-19,
-21,
-24,
-24,
-28,
-32,
-35,
-37,
-40,
-41,
-41,
-42,
-51,
-53,
-48,
-47,
-49,
-57,
-59,
-53,
-49,
-49,
-55,
-58,
-56,
-50,
-46,
-47,
-51,
-52,
-47,
-41,
-38,
-40,
-40,
-38,
-31,
-28,
-26,
-20,
-24,
-23,
-17,
-9,
-3,
-6,
-8,
-4,
5,
14,
14,
9,
6,
15,
29,
30,
23,
16,
24,
40,
45,
40,
31,
29,
44,
50,
49,
40,
36,
42,
51,
53,
44,
39,
43,
47,
48,
43,
40,
36,
38,
38,
36,
35,
29,
26,
25,
23,
22,
17,
13,
8,
6,
7,
4,
0,
-9,
-12,
-9,
-9,
-16,
-24,
-26,
-24,
-25,
-29,
-37,
-37,
-38,
-38,
-42,
-48,
-49,
-46,
-44,
-49,
-57,
-56,
-52,
-47,
-51,
-58,
-60,
-52,
-46,
-49,
-57,
-56,
-49,
-41,
-40,
-47,
-50,
-45,
-33,
-28,
-35,
-38,
-34,
-20,
-13,
-15,
-20,
-20,
-11,
-1,
4,
0,
-3,
0,
9,
20,
20,
15,
15,
19,
31,
34,
33,
29,
29,
34,
44,
47,
40,
34,
39,
48,
54,
50,
40,
37,
43,
52,
55,
44,
35,
35,
44,
49,
42,
32,
27,
29,
36,
33,
25,
17,
15,
18,
19,
15,
4,
-1,
0,
3,
-3,
-10,
-15,
-15,
-16,
-17,
-21,
-25,
-30,
-33,
-33,
-36,
-37,
-40,
-43,
-45,
-48,
-47,
-45,
-49,
-53,
-58,
-55,
-50,
-50,
-54,
-59,
-55,
-51,
-47,
-48,
-53,
-53,
-50,
-42,
-39,
-42,
-45,
-42,
-35,
-29,
-28,
-29,
-28,
-23,
-18,
-12,
-10,
-11,
-12,
-4,
4,
10,
8,
5,
6,
14,
24,
28,
21,
18,
24,
36,
42,
37,
30,
29,
41,
49,
48,
39,
35,
43,
51,
53,
47,
37,
40,
49,
52,
44,
36,
39,
42,
44,
39,
34,
30,
30,
30,
25,
22,
19,
17,
16,
11,
5,
5,
4,
1,
-8,
-11,
-11,
-11,
-16,
-21,
-25,
-25,
-27,
-30,
-35,
-36,
-39,
-40,
-43,
-45,
-45,
-46,
-48,
-52,
-53,
-50,
-49,
-51,
-58,
-59,
-52,
-47,
-50,
-58,
-59,
-49,
-41,
-41,
-50,
-54,
-46,
-34,
-27,
-34,
-43,
-38,
-25,
-12,
-16,
-25,
-25,
-13,
0,
1,
-4,
-9,
0,
10,
17,
16,
9,
10,
21,
29,
33,
27,
26,
28,
36,
42,
43,
38,
34,
37,
48,
52,
48,
40,
39,
45,
52,
52,
44,
36,
38,
45,
50,
46,
33,
29,
35,
41,
35,
25,
19,
20,
24,
23,
15,
8,
4,
5,
6,
1,
-7,
-11,
-11,
-13,
-16,
-20,
-24,
-24,
-29,
-33,
-33,
-34,
-38,
-42,
-46,
-45,
-44,
-45,
-48,
-53,
-54,
-53,
-51,
-49,
-54,
-58,
-57,
-51,
-49,
-50,
-53,
-54,
-49,
-46,
-43,
-44,
-46,
-45,
-38,
-32,
-29,
-32,
-33,
-28,
-19,
-14,
-12,
-15,
-15,
-9,
1,
5,
3,
2,
4,
14,
20,
22,
19,
18,
25,
32,
38,
34,
29,
30,
39,
48,
44,
37,
36,
41,
51,
50,
45,
41,
42,
47,
51,
48,
40,
37,
43,
45,
42,
34,
32,
34,
33,
30,
23,
21,
20,
17,
15,
9,
6,
6,
4,
-1,
-9,
-11,
-9,
-11,
-16,
-24,
-26,
-26,
-24,
-30,
-39,
-38,
-39,
-37,
-40,
-45,
-47,
-51,
-47,
-47,
-49,
-51,
-56,
-55,
-53,
-52,
-50,
-51,
-56,
-58,
-51,
-43,
-45,
-50,
-54,
-47,
-35,
-32,
-39,
-45,
-40,
-24,
-18,
-19,
-30,
-30,
-13,
0,
-1,
-12,
-15,
-3,
13,
17,
11,
3,
7,
19,
32,
28,
20,
19,
27,
38,
42,
37,
36,
35,
42,
48,
48,
45,
41,
40,
46,
51,
49,
45,
39,
41,
48,
48,
43,
34,
30,
35,
42,
39,
26,
18,
23,
28,
28,
17,
9,
6,
10,
10,
3,
-4,
-8,
-8,
-8,
-13,
-19,
-23,
-23,
-23,
-29,
-34,
-35,
-33,
-37,
-43,
-47,
-44,
-44,
-46,
-51,
-54,
-50,
-48,
-48,
-55,
-59,
-56,
-51,
-47,
-51,
-57,
-56,
-49,
-44,
-43,
-47,
-48,
-44,
-39,
-36,
-34,
-35,
-34,
-29,
-23,
-18,
-17,
-17,
-15,
-10,
-4,
1,
1,
-1,
2,
10,
17,
17,
14,
16,
21,
32,
34,
31,
28,
31,
38,
45,
45,
37,
35,
44,
48,
51,
45,
40,
44,
48,
49,
45,
41,
40,
42,
44,
43,
35,
34,
36,
36,
32,
26,
24,
23,
21,
16,
13,
11,
9,
7,
2,
-4,
-7,
-6,
-8,
-13,
-21,
-25,
-20,
-20,
-25,
-35,
-40,
-37,
-34,
-35,
-42,
-49,
-51,
-47,
-43,
-45,
-53,
-58,
-57,
-51,
-49,
-52,
-57,
-56,
-52,
-47,
-48,
-50,
-54,
-53,
-44,
-36,
-38,
-44,
-48,
-40,
-23,
-21,
-28,
-34,
-30,
-18,
-5,
-3,
-15,
-18,
-7,
9,
13,
6,
0,
4,
19,
29,
25,
17,
17,
28,
40,
42,
32,
27,
36,
45,
48,
43,
39,
38,
44,
49,
50,
47,
42,
40,
47,
47,
47,
43,
38,
37,
38,
39,
39,
30,
26,
26,
28,
29,
19,
11,
11,
13,
13,
6,
-1,
-5,
-3,
-4,
-9,
-16,
-22,
-19,
-19,
-25,
-31,
-35,
-32,
-32,
-39,
-45,
-44,
-41,
-42,
-48,
-55,
-52,
-46,
-46,
-52,
-59,
-59,
-52,
-46,
-49,
-57,
-60,
-52,
-44,
-43,
-49,
-52,
-46,
-39,
-35,
-39,
-40,
-36,
-30,
-25,
-23,
-21,
-22,
-18,
-11,
-7,
-3,
-3,
-3,
0,
6,
13,
17,
14,
12,
17,
26,
33,
29,
24,
27,
36,
42,
44,
38,
35,
40,
48,
48,
43,
39,
44,
49,
50,
46,
43,
42,
45,
46,
41,
38,
36,
36,
36,
33,
30,
28,
27,
23,
17,
14,
16,
16,
10,
1,
-2,
-1,
0,
-3,
-13,
-18,
-20,
-18,
-16,
-23,
-34,
-38,
-35,
-31,
-33,
-42,
-50,
-46,
-43,
-42,
-46,
-54,
-56,
-54,
-49,
-46,
-54,
-61,
-60,
-52,
-45,
-48,
-54,
-59,
-52,
-42,
-37,
-39,
-48,
-47,
-39,
-28,
-25,
-34,
-37,
-30,
-18,
-8,
-12,
-18,
-19,
-8,
7,
8,
1,
-5,
4,
18,
25,
20,
12,
13,
29,
37,
39,
29,
25,
32,
43,
48,
43,
35,
38,
46,
52,
49,
44,
41,
44,
48,
48,
46,
41,
40,
42,
43,
39,
36,
35,
31,
32,
31,
27,
24,
16,
14,
16,
15,
9,
3,
0,
-2,
-2,
-6,
-12,
-15,
-17,
-19,
-21,
-27,
-29,
-30,
-32,
-35,
-41,
-43,
-41,
-39,
-45,
-52,
-52,
-47,
-44,
-49,
-58,
-60,
-52,
-47,
-49,
-56,
-60,
-54,
-44,
-43,
-51,
-56,
-52,
-39,
-33,
-39,
-44,
-42,
-31,
-24,
-24,
-26,
-26,
-22,
-12,
-8,
-9,
-9,
-5,
-1,
5,
8,
12,
12,
11,
14,
22,
28,
29,
24,
25,
33,
39,
40,
38,
35,
39,
46,
50,
44,
38,
40,
49,
52,
48,
41,
40,
45,
49,
46,
40,
37,
38,
38,
36,
32,
31,
30,
27,
22,
16,
18,
19,
14,
5,
0,
0,
3,
0,
-11,
-19,
-16,
-13,
-14,
-23,
-32,
-31,
-29,
-27,
-32,
-44,
-48,
-44,
-36,
-41,
-50,
-53,
-56,
-49,
-46,
-50,
-55,
-60,
-58,
-51,
-48,
-49,
-57,
-59,
-52,
-45,
-40,
-44,
-49,
-48,
-40,
-30,
-31,
-38,
-40,
-32,
-17,
-12,
-18,
-25,
-20,
-6,
3,
2,
-6,
-6,
3,
18,
22,
14,
8,
13,
27,
34,
31,
25,
26,
34,
41,
43,
40,
36,
39,
47,
49,
45,
42,
43,
47,
49,
48,
43,
43,
43,
44,
44,
41,
37,
35,
36,
35,
33,
29,
24,
21,
19,
17,
16,
12,
7,
5,
0,
-1,
-6,
-8,
-9,
-12,
-17,
-22,
-24,
-24,
-26,
-32,
-38,
-38,
-39,
-38,
-40,
-45,
-50,
-50,
-46,
-45,
-52,
-58,
-58,
-53,
-46,
-51,
-59,
-59,
-53,
-46,
-44,
-51,
-58,
-54,
-43,
-35,
-39,
-47,
-47,
-36,
-24,
-24,
-30,
-31,
-25,
-15,
-9,
-12,
-14,
-11,
-2,
5,
6,
5,
8,
11,
15,
19,
22,
22,
22,
25,
29,
37,
38,
35,
35,
37,
44,
48,
44,
39,
39,
44,
53,
51,
43,
40,
43,
49,
47,
42,
39,
37,
40,
38,
36,
31,
30,
29,
26,
22,
19,
17,
16,
11,
5,
2,
5,
3,
-6,
-14,
-15,
-10,
-11,
-19,
-32,
-32,
-25,
-21,
-30,
-42,
-49,
-43,
-34,
-36,
-47,
-58,
-54,
-45,
-43,
-50,
-59,
-60,
-54,
-48,
-49,
-54,
-58,
-56,
-49,
-45,
-46,
-50,
-51,
-47,
-38,
-34,
-36,
-40,
-39,
-30,
-24,
-16,
-21,
-27,
-24,
-10,
0,
-1,
-9,
-9,
3,
15,
18,
12,
5,
12,
25,
31,
26,
19,
24,
36,
42,
40,
36,
34,
42,
46,
45,
44,
42,
44,
49,
49,
46,
43,
44,
45,
45,
43,
41,
41,
38,
36,
35,
32,
31,
30,
26,
22,
18,
16,
16,
14,
9,
4,
0,
-2,
-3,
-7,
-9,
-15,
-21,
-21,
-20,
-23,
-28,
-36,
-37,
-32,
-35,
-40,
-47,
-49,
-45,
-42,
-43,
-52,
-58,
-57,
-48,
-44,
-51,
-61,
-63,
-52,
-43,
-47,
-54,
-60,
-53,
-43,
-39,
-42,
-49,
-46,
-37,
-29,
-29,
-35,
-35,
-27,
-15,
-13,
-16,
-17,
-14,
-6,
3,
4,
0,
1,
7,
15,
20,
18,
17,
20,
25,
31,
36,
33,
33,
32,
36,
45,
44,
42,
41,
41,
45,
48,
48,
45,
42,
43,
49,
49,
43,
39,
39,
41,
42,
38,
35,
29,
30,
30,
28,
24,
18,
16,
14,
12,
9,
5,
4,
-3,
-9,
-11,
-8,
-7,
-16,
-26,
-28,
-24,
-21,
-27,
-40,
-43,
-39,
-34,
-35,
-45,
-54,
-54,
-44,
-41,
-50,
-62,
-60,
-52,
-45,
-49,
-59,
-61,
-54,
-46,
-45,
-50,
-54,
-54,
-46,
-38,
-39,
-42,
-42,
-40,
-31,
-26,
-25,
-26,
-27,
-23,
-14,
-8,
-7,
-11,
-9,
0,
9,
12,
8,
4,
11,
21,
28,
24,
18,
22,
34,
44,
37,
30,
31,
40,
49,
45,
41,
39,
44,
50,
49,
45,
42,
46,
49,
47,
41,
38,
43,
45,
41,
34,
30,
32,
35,
31,
24,
17,
18,
19,
17,
12,
5,
2,
4,
1,
-5,
-12,
-14,
-14,
-15,
-18,
-24,
-27,
-31,
-33,
-31,
-31,
-38,
-44,
-47,
-44,
-40,
-42,
-51,
-58,
-55,
-47,
-44,
-51,
-61,
-62,
-52,
-42,
-46,
-58,
-62,
-52,
-41,
-39,
-48,
-54,
-46,
-36,
-29,
-32,
-40,
-39,
-29,
-16,
-14,
-21,
-24,
-16,
-6,
0,
0,
-3,
-2,
4,
12,
17,
16,
14,
18,
23,
30,
31,
29,
30,
33,
36,
43,
44,
39,
39,
43,
47,
48,
45,
43,
44,
45,
47,
49,
45,
39,
39,
42,
44,
41,
35,
31,
31,
32,
31,
27,
21,
17,
16,
15,
15,
10,
4,
-2,
-4,
-4,
-6,
-8,
-13,
-22,
-23,
-20,
-18,
-25,
-37,
-39,
-36,
-31,
-36,
-46,
-50,
-50,
-42,
-40,
-48,
-58,
-61,
-52,
-44,
-48,
-56,
-62,
-56,
-46,
-46,
-51,
-58,
-53,
-47,
-41,
-41,
-45,
-46,
-40,
-32,
-28,
-30,
-31,
-28,
-20,
-17,
-15,
-12,
-12,
-9,
-1,
4,
5,
4,
6,
10,
18,
23,
23,
20,
21,
29,
36,
38,
33,
32,
39,
44,
43,
40,
40,
43,
48,
49,
44,
43,
45,
48,
49,
41,
39,
41,
46,
45,
36,
31,
32,
38,
35,
24,
20,
21,
26,
24,
13,
4,
5,
10,
11,
1,
-11,
-15,
-9,
-6,
-11,
-21,
-28,
-29,
-26,
-26,
-32,
-37,
-43,
-44,
-40,
-38,
-43,
-51,
-55,
-53,
-47,
-46,
-53,
-60,
-59,
-51,
-45,
-47,
-59,
-63,
-53,
-40,
-39,
-49,
-58,
-51,
-36,
-28,
-35,
-46,
-42,
-29,
-16,
-15,
-27,
-29,
-20,
-5,
-1,
-5,
-8,
-5,
5,
11,
12,
9,
11,
16,
22,
27,
28,
27,
28,
31,
36,
38,
41,
39,
39,
40,
44,
49,
46,
41,
41,
46,
50,
49,
45,
41,
40,
44,
44,
44,
36,
33,
36,
35,
32,
28,
24,
22,
18,
17,
15,
14,
7,
1,
1,
-1,
-1,
-7,
-14,
-16,
-19,
-16,
-16,
-26,
-32,
-37,
-32,
-28,
-35,
-43,
-49,
-45,
-41,
-42,
-48,
-59,
-55,
-50,
-46,
-48,
-59,
-61,
-57,
-47,
-47,
-54,
-58,
-55,
-45,
-42,
-43,
-47,
-48,
-42,
-34,
-31,
-35,
-36,
-32,
-24,
-16,
-17,
-16,
-15,
-11,
-5,
-1,
2,
3,
3,
9,
15,
17,
17,
19,
21,
25,
30,
32,
33,
33,
36,
41,
43,
41,
40,
41,
46,
46,
44,
44,
45,
48,
46,
44,
41,
44,
45,
43,
36,
35,
36,
40,
38,
27,
21,
24,
30,
28,
15,
6,
5,
12,
14,
5,
-7,
-13,
-7,
-2,
-7,
-20,
-29,
-26,
-19,
-20,
-31,
-40,
-41,
-36,
-35,
-40,
-47,
-52,
-51,
-45,
-43,
-50,
-57,
-60,
-56,
-48,
-47,
-52,
-58,
-59,
-53,
-44,
-43,
-51,
-56,
-52,
-39,
-31,
-38,
-47,
-45,
-30,
-20,
-20,
-29,
-32,
-22,
-8,
-4,
-11,
-16,
-7,
4,
11,
7,
4,
6,
16,
23,
23,
21,
21,
26,
35,
34,
35,
35,
39,
40,
40,
42,
44,
47,
44,
42,
44,
48,
49,
46,
41,
40,
45,
46,
43,
39,
35,
36,
38,
35,
30,
25,
24,
24,
21,
18,
15,
11,
8,
3,
4,
2,
-2,
-9,
-16,
-15,
-14,
-14,
-20,
-30,
-34,
-32,
-27,
-32,
-42,
-48,
-45,
-37,
-40,
-49,
-57,
-53,
-46,
-46,
-52,
-59,
-60,
-54,
-48,
-48,
-55,
-59,
-53,
-47,
-44,
-47,
-51,
-47,
-41,
-37,
-36,
-36,
-36,
-34,
-28,
-21,
-18,
-18,
-16,
-14,
-9,
-5,
-1,
0,
1,
4,
11,
13,
14,
16,
21,
25,
29,
28,
29,
31,
34,
36,
39,
41,
41,
42,
44,
43,
47,
47,
48,
47,
43,
42,
47,
48,
45,
42,
37,
37,
41,
42,
38,
28,
23,
28,
32,
29,
17,
8,
11,
17,
17,
5,
-6,
-8,
-3,
1,
-5,
-18,
-26,
-23,
-15,
-15,
-29,
-41,
-42,
-32,
-27,
-35,
-48,
-53,
-48,
-42,
-41,
-49,
-58,
-59,
-53,
-45,
-50,
-56,
-60,
-56,
-48,
-45,
-49,
-54,
-56,
-49,
-40,
-37,
-42,
-48,
-45,
-33,
-23,
-26,
-34,
-34,
-23,
-11,
-7,
-13,
-18,
-13,
3,
10,
5,
0,
3,
14,
21,
21,
18,
17,
26,
33,
35,
31,
31,
35,
41,
44,
39,
40,
44,
47,
45,
44,
45,
48,
48,
45,
41,
44,
46,
45,
42,
35,
35,
38,
40,
35,
26,
25,
27,
27,
22,
16,
12,
11,
8,
6,
4,
0,
-6,
-11,
-12,
-12,
-13,
-19,
-26,
-28,
-28,
-27,
-29,
-38,
-45,
-44,
-37,
-36,
-46,
-57,
-54,
-46,
-42,
-49,
-60,
-61,
-53,
-46,
-48,
-55,
-60,
-55,
-47,
-44,
-47,
-54,
-51,
-42,
-38,
-38,
-41,
-37,
-32,
-28,
-26,
-25,
-22,
-21,
-16,
-11,
-8,
-5,
-1,
-2,
1,
6,
12,
15,
14,
14,
20,
24,
29,
29,
27,
31,
34,
38,
40,
40,
39,
40,
44,
45,
46,
46,
45,
45,
44,
45,
50,
47,
41,
38,
40,
45,
43,
35,
30,
28,
34,
35,
28,
18,
11,
15,
22,
19,
4,
-5,
-2,
4,
4,
-6,
-18,
-23,
-17,
-12,
-15,
-27,
-39,
-37,
-29,
-27,
-35,
-47,
-51,
-44,
-38,
-41,
-52,
-58,
-55,
-48,
-44,
-49,
-59,
-62,
-55,
-46,
-45,
-53,
-59,
-55,
-46,
-39,
-42,
-47,
-50,
-44,
-34,
-29,
-31,
-38,
-35,
-26,
-14,
-13,
-19,
-18,
-12,
-2,
4,
1,
-1,
1,
12,
19,
17,
14,
16,
22,
32,
31,
28,
28,
34,
38,
42,
41,
37,
41,
46,
47,
44,
44,
48,
49,
47,
42,
42,
46,
47,
44,
38,
36,
39,
40,
40,
31,
25,
26,
28,
27,
20,
13,
12,
12,
12,
6,
0,
-3,
-7,
-7,
-9,
-11,
-18,
-23,
-24,
-24,
-24,
-28,
-37,
-41,
-40,
-36,
-35,
-44,
-53,
-55,
-46,
-41,
-46,
-58,
-61,
-55,
-46,
-47,
-56,
-60,
-55,
-47,
-44,
-49,
-56,
-52,
-44,
-37,
-40,
-46,
-44,
-35,
-27,
-28,
-29,
-27,
-22,
-18,
-15,
-13,
-9,
-5,
-3,
-3,
1,
8,
13,
14,
11,
14,
21,
29,
29,
25,
25,
32,
38,
39,
39,
37,
39,
44,
48,
45,
43,
43,
45,
48,
47,
46,
44,
41,
42,
43,
45,
45,
37,
31,
30,
36,
39,
32,
19,
15,
20,
27,
22,
9,
-3,
0,
9,
10,
-4,
-17,
-20,
-11,
-7,
-15,
-28,
-35,
-28,
-23,
-26,
-37,
-48,
-46,
-37,
-35,
-42,
-54,
-57,
-51,
-45,
-45,
-53,
-58,
-59,
-53,
-48,
-48,
-53,
-58,
-55,
-48,
-43,
-45,
-49,
-49,
-43,
-37,
-32,
-36,
-38,
-35,
-27,
-17,
-19,
-22,
-21,
-13,
-3,
-3,
-5,
-5,
1,
9,
14,
14,
10,
14,
20,
28,
29,
25,
29,
32,
37,
37,
37,
40,
42,
45,
44,
40,
43,
46,
49,
49,
43,
41,
45,
48,
45,
39,
37,
38,
42,
39,
36,
29,
28,
30,
32,
24,
14,
10,
16,
17,
13,
3,
-5,
-4,
-1,
-1,
-9,
-16,
-22,
-22,
-19,
-19,
-27,
-36,
-39,
-35,
-35,
-37,
-43,
-48,
-49,
-46,
-43,
-47,
-56,
-58,
-54,
-47,
-49,
-55,
-61,
-56,
-48,
-46,
-48,
-55,
-55,
-48,
-40,
-40,
-45,
-47,
-42,
-32,
-27,
-29,
-31,
-27,
-19,
-16,
-15,
-32,
-29,
-33,
-31,
