5-grundlagen-opAmps/data/ALL0056/A0056CH2.CSV

Memory Length,4000,
Trigger Level,0.00000e+00,
Source,CH2,
Probe,1.0X,
Vertical Units,V,
Vertical Scale,5.00000e-02,
Vertical Position,0.00000e+00,
Horizontal Units,S,
Horizontal Scale,5.00000e-08,
Horizontal Position,0.0000000e+00,
Horizontal Mode,Main,
Sampling Period,2.00000e-09,
Firmware,V1.14,
Time, ,
Mode,Fast,
Waveform Data,
-37,
-37,
-36,
-39,
-44,
-41,
-40,
-40,
-41,
-45,
-44,
-41,
-38,
-40,
-44,
-45,
-39,
-36,
-35,
-39,
-40,
-37,
-30,
-27,
-27,
-29,
-26,
-21,
-16,
-15,
-15,
-13,
-9,
-5,
-4,
-1,
0,
2,
5,
9,
11,
12,
12,
14,
19,
23,
24,
25,
27,
27,
32,
33,
34,
32,
32,
34,
38,
37,
34,
33,
34,
37,
37,
33,
31,
33,
35,
33,
32,
27,
26,
28,
30,
24,
18,
17,
18,
18,
12,
6,
6,
6,
6,
1,
-3,
-5,
-5,
-5,
-10,
-14,
-17,
-17,
-15,
-21,
-27,
-31,
-29,
-29,
-31,
-36,
-39,
-38,
-38,
-37,
-40,
-41,
-44,
-44,
-40,
-41,
-42,
-44,
-44,
-41,
-40,
-39,
-39,
-41,
-41,
-36,
-33,
-31,
-33,
-35,
-31,
-23,
-20,
-22,
-22,
-20,
-13,
-8,
-6,
-9,
-10,
-4,
3,
5,
4,
2,
7,
13,
17,
17,
15,
18,
22,
28,
29,
27,
26,
29,
34,
36,
33,
31,
32,
35,
36,
35,
34,
33,
33,
34,
34,
34,
31,
30,
31,
32,
28,
27,
25,
23,
21,
19,
18,
15,
10,
8,
9,
7,
4,
-1,
-3,
-3,
-5,
-8,
-11,
-13,
-14,
-16,
-19,
-22,
-26,
-29,
-29,
-30,
-32,
-36,
-37,
-38,
-39,
-41,
-42,
-40,
-40,
-43,
-45,
-46,
-42,
-41,
-40,
-42,
-45,
-43,
-37,
-37,
-40,
-41,
-37,
-32,
-30,
-32,
-32,
-29,
-24,
-19,
-18,
-19,
-16,
-12,
-7,
-5,
-6,
-6,
-1,
3,
6,
7,
8,
10,
13,
17,
20,
23,
24,
25,
27,
29,
33,
32,
33,
33,
34,
37,
37,
36,
34,
35,
38,
39,
36,
33,
33,
35,
36,
33,
32,
29,
29,
29,
26,
24,
21,
20,
20,
17,
11,
9,
10,
9,
5,
-1,
-1,
-1,
0,
-7,
-12,
-13,
-13,
-15,
-17,
-22,
-28,
-26,
-25,
-27,
-32,
-38,
-37,
-36,
-35,
-39,
-44,
-42,
-40,
-39,
-40,
-44,
-44,
-44,
-39,
-37,
-38,
-43,
-41,
-39,
-35,
-33,
-35,
-37,
-35,
-31,
-25,
-25,
-25,
-25,
-21,
-13,
-10,
-11,
-13,
-10,
-6,
1,
3,
-1,
-1,
5,
12,
15,
15,
12,
15,
22,
27,
28,
25,
25,
28,
34,
35,
33,
29,
31,
37,
39,
36,
33,
34,
35,
35,
33,
34,
32,
31,
32,
32,
32,
28,
25,
26,
24,
22,
20,
16,
14,
12,
11,
9,
5,
1,
-1,
-1,
-2,
-6,
-9,
-12,
-13,
-14,
-17,
-20,
-22,
-25,
-27,
-30,
-31,
-32,
-36,
-35,
-39,
-41,
-39,
-41,
-40,
-41,
-44,
-45,
-42,
-41,
-43,
-44,
-44,
-42,
-39,
-38,
-40,
-42,
-39,
-34,
-30,
-31,
-35,
-32,
-26,
-21,
-21,
-21,
-20,
-15,
-11,
-8,
-8,
-8,
-5,
0,
3,
3,
4,
8,
11,
14,
17,
18,
22,
23,
25,
27,
28,
31,
31,
32,
33,
34,
36,
35,
36,
34,
36,
38,
37,
34,
33,
36,
35,
34,
32,
31,
29,
29,
28,
26,
24,
22,
19,
18,
15,
12,
12,
11,
7,
2,
0,
2,
0,
-5,
-10,
-12,
-10,
-11,
-16,
-21,
-24,
-22,
-23,
-24,
-31,
-36,
-35,
-32,
-31,
-38,
-45,
-41,
-38,
-36,
-39,
-45,
-47,
-41,
-38,
-38,
-40,
-43,
-43,
-37,
-33,
-35,
-39,
-37,
-35,
-29,
-26,
-26,
-26,
-26,
-21,
-15,
-12,
-13,
-15,
-12,
-5,
0,
0,
-2,
-2,
4,
10,
13,
11,
9,
13,
20,
26,
25,
21,
24,
29,
35,
33,
32,
31,
32,
38,
37,
36,
31,
33,
37,
38,
36,
33,
33,
34,
34,
33,
30,
29,
28,
27,
26,
23,
20,
19,
18,
16,
11,
8,
7,
5,
2,
-1,
0,
-3,
-6,
-7,
-11,
-13,
-15,
-19,
-21,
-22,
-24,
-27,
-31,
-31,
-33,
-35,
-38,
-40,
-40,
-40,
-39,
-41,
-45,
-46,
-42,
-41,
-43,
-47,
-47,
-44,
-40,
-42,
-44,
-44,
-41,
-37,
-35,
-36,
-39,
-36,
-30,
-25,
-24,
-25,
-23,
-19,
-14,
-12,
-12,
-11,
-8,
-4,
-1,
0,
0,
2,
8,
11,
13,
13,
16,
19,
21,
24,
26,
26,
27,
29,
31,
32,
33,
33,
35,
34,
34,
35,
34,
35,
33,
33,
34,
34,
32,
30,
29,
28,
27,
26,
26,
23,
20,
17,
15,
15,
12,
8,
6,
5,
2,
1,
0,
-4,
-10,
-8,
-9,
-9,
-15,
-22,
-23,
-21,
-21,
-26,
-32,
-36,
-32,
-31,
-33,
-39,
-44,
-43,
-37,
-36,
-41,
-47,
-47,
-42,
-38,
-41,
-42,
-46,
-44,
-38,
-37,
-39,
-41,
-39,
-36,
-29,
-29,
-32,
-31,
-28,
-23,
-19,
-16,
-17,
-15,
-13,
-6,
-3,
-2,
-4,
-3,
3,
9,
11,
9,
10,
11,
19,
26,
24,
22,
25,
30,
34,
33,
31,
31,
33,
37,
39,
35,
34,
35,
39,
40,
38,
34,
33,
38,
38,
34,
31,
33,
33,
31,
28,
26,
24,
25,
21,
19,
16,
13,
13,
10,
7,
3,
1,
2,
-1,
-4,
-7,
-9,
-9,
-12,
-15,
-17,
-21,
-23,
-25,
-26,
-29,
-30,
-33,
-36,
-37,
-36,
-37,
-38,
-40,
-40,
-39,
-37,
-41,
-43,
-44,
-39,
-36,
-36,
-40,
-42,
-39,
-32,
-32,
-34,
-36,
-33,
-27,
-23,
-22,
-25,
-23,
-18,
-10,
-10,
-11,
-10,
-6,
-2,
1,
2,
2,
5,
9,
12,
16,
16,
16,
20,
24,
25,
28,
29,
31,
32,
33,
37,
36,
36,
34,
37,
37,
38,
37,
36,
37,
36,
37,
38,
35,
34,
33,
34,
34,
29,
29,
28,
26,
23,
21,
19,
17,
15,
9,
8,
8,
6,
3,
0,
-3,
-4,
-5,
-4,
-9,
-14,
-17,
-15,
-16,
-22,
-27,
-30,
-28,
-26,
-31,
-37,
-40,
-38,
-33,
-34,
-38,
-45,
-43,
-38,
-37,
-40,
-45,
-44,
-41,
-36,
-36,
-39,
-41,
-40,
-34,
-31,
-31,
-31,
-33,
-27,
-22,
-19,
-21,
-19,
-16,
-12,
-7,
-5,
-5,
-5,
-2,
3,
6,
7,
7,
10,
14,
19,
21,
20,
20,
23,
28,
31,
33,
32,
31,
35,
37,
36,
35,
35,
37,
39,
39,
38,
35,
36,
38,
39,
36,
31,
33,
35,
35,
29,
26,
26,
26,
25,
21,
17,
14,
14,
14,
10,
6,
2,
3,
3,
-1,
-6,
-11,
-8,
-8,
-12,
-18,
-20,
-21,
-21,
-24,
-27,
-31,
-32,
-33,
-33,
-35,
-36,
-39,
-40,
-39,
-38,
-41,
-41,
-42,
-42,
-41,
-37,
-37,
-42,
-43,
-39,
-37,
-33,
-37,
-39,
-36,
-29,
-27,
-26,
-29,
-28,
-21,
-15,
-13,
-15,
-15,
-10,
-5,
-3,
-3,
-1,
0,
6,
9,
10,
11,
13,
17,
20,
22,
23,
25,
28,
31,
32,
33,
35,
35,
33,
34,
35,
36,
37,
35,
35,
34,
35,
37,
34,
32,
32,
32,
33,
32,
28,
25,
26,
25,
23,
20,
15,
14,
12,
11,
8,
6,
3,
0,
-2,
-3,
-4,
-7,
-11,
-14,
-15,
-15,
-16,
-22,
-28,
-29,
-29,
-27,
-30,
-39,
-40,
-39,
-35,
-35,
-41,
-46,
-44,
-39,
-36,
-41,
-45,
-47,
-41,
-37,
-39,
-44,
-45,
-40,
-34,
-34,
-34,
-37,
-36,
-31,
-25,
-24,
-23,
-23,
-20,
-14,
-12,
-11,
-9,
-8,
-5,
-1,
2,
3,
4,
6,
10,
14,
17,
17,
18,
22,
25,
29,
28,
27,
30,
33,
37,
36,
33,
33,
35,
39,
37,
36,
36,
35,
36,
37,
35,
33,
34,
36,
34,
29,
26,
27,
29,
26,
22,
17,
15,
18,
16,
9,
5,
4,
6,
5,
1,
-5,
-8,
-7,
-6,
-8,
-16,
-21,
-21,
-19,
-20,
-27,
-32,
-34,
-31,
-31,
-34,
-38,
-41,
-39,
-38,
-37,
-40,
-44,
-44,
-42,
-40,
-39,
-41,
-42,
-42,
-40,
-36,
-37,
-39,
-39,
-37,
-30,
-27,
-28,
-30,
-28,
-23,
-18,
-15,
-17,
-16,
-12,
-6,
-3,
-4,
-5,
-1,
3,
7,
8,
8,
10,
13,
17,
20,
20,
22,
26,
28,
31,
32,
32,
35,
34,
33,
34,
35,
37,
35,
33,
34,
36,
36,
35,
33,
32,
33,
33,
33,
29,
25,
25,
28,
25,
21,
17,
14,
15,
13,
11,
7,
3,
2,
1,
1,
-3,
-6,
-8,
-12,
-13,
-13,
-18,
-19,
-25,
-26,
-25,
-25,
-30,
-36,
-39,
-37,
-35,
-35,
-41,
-46,
-42,
-38,
-39,
-42,
-48,
-47,
-41,
-37,
-40,
-44,
-46,
-40,
-36,
-35,
-38,
-40,
-36,
-30,
-27,
-27,
-29,
-26,
-23,
-16,
-14,
-14,
-13,
-10,
-6,
-4,
-3,
1,
1,
4,
7,
9,
12,
13,
17,
19,
22,
25,
26,
28,
29,
33,
33,
33,
33,
32,
35,
37,
37,
34,
33,
37,
37,
36,
33,
32,
34,
35,
33,
31,
27,
28,
29,
28,
23,
19,
19,
19,
19,
11,
6,
7,
8,
8,
0,
-4,
-6,
-5,
-4,
-7,
-15,
-18,
-19,
-16,
-20,
-26,
-33,
-32,
-28,
-29,
-34,
-39,
-41,
-39,
-36,
-37,
-40,
-46,
-44,
-41,
-40,
-40,
-44,
-44,
-42,
-39,
-37,
-38,
-40,
-40,
-37,
-32,
-30,
-31,
-34,
-31,
-25,
-20,
-19,
-19,
-19,
-13,
-7,
-5,
-6,
-7,
-4,
1,
4,
6,
5,
8,
11,
15,
20,
19,
19,
23,
27,
29,
31,
29,
31,
35,
34,
34,
35,
35,
37,
36,
34,
36,
37,
35,
33,
34,
33,
34,
35,
32,
27,
26,
27,
27,
25,
19,
17,
16,
17,
13,
7,
5,
4,
4,
1,
-1,
-5,
-7,
-9,
-10,
-12,
-15,
-20,
-21,
-25,
-25,
-27,
-29,
-32,
-34,
-34,
-34,
-36,
-39,
-43,
-42,
-38,
-38,
-43,
-47,
-47,
-41,
-38,
-39,
-45,
-45,
-41,
-36,
-37,
-39,
-40,
-38,
-31,
-28,
-30,
-31,
-28,
-23,
-19,
-17,
-17,
-14,
-11,
-6,
-5,
-4,
-3,
1,
3,
6,
8,
10,
15,
16,
17,
20,
23,
24,
28,
29,
31,
33,
33,
35,
35,
34,
36,
36,
38,
38,
37,
39,
38,
35,
36,
37,
38,
35,
32,
33,
33,
33,
30,
27,
23,
23,
25,
22,
16,
10,
11,
13,
11,
5,
-2,
-2,
0,
0,
-6,
-12,
-16,
-13,
-11,
-14,
-23,
-29,
-27,
-24,
-25,
-31,
-38,
-37,
-33,
-34,
-36,
-40,
-44,
-41,
-39,
-38,
-40,
-43,
-44,
-41,
-38,
-37,
-39,
-41,
-40,
-36,
-33,
-32,
-32,
-34,
-33,
-26,
-21,
-22,
-23,
-21,
-15,
-10,
-8,
-8,
-8,
-6,
-1,
3,
3,
3,
5,
9,
12,
16,
15,
16,
20,
22,
26,
26,
26,
27,
31,
33,
32,
32,
33,
33,
34,
31,
32,
33,
33,
32,
31,
31,
32,
31,
29,
26,
24,
25,
25,
25,
18,
15,
15,
15,
12,
7,
2,
1,
2,
1,
-4,
-7,
-9,
-11,
-11,
-13,
-18,
-22,
-24,
-24,
-27,
-29,
-33,
-36,
-38,
-36,
-38,
-39,
-42,
-46,
-45,
-45,
-44,
-45,
-49,
-51,
-45,
-44,
-46,
-48,
-50,
-46,
-43,
-42,
-45,
-48,
-44,
-40,
-36,
-38,
-39,
-36,
-32,
-26,
-27,
-25,
-22,
-18,
-15,
-13,
-13,
-9,
-6,
-3,
-1,
1,
2,
6,
10,
10,
12,
15,
19,
22,
23,
25,
24,
27,
31,
32,
31,
28,
33,
36,
36,
34,
33,
32,
34,
35,
35,
33,
33,
29,
30,
32,
31,
28,
25,
24,
24,
24,
20,
16,
12,
11,
14,
12,
4,
-1,
-3,
3,
4,
-4,
-12,
-15,
-10,
-7,
-13,
-21,
-27,
-25,
-21,
-22,
-30,
-38,
-37,
-32,
-29,
-35,
-43,
-43,
-38,
-34,
-38,
-41,
-44,
-42,
-39,
-37,
-37,
-40,
-40,
-38,
-36,
-32,
-35,
-35,
-32,
-30,
-27,
-24,
-22,
-22,
-21,
-15,
-10,
-9,
-10,
-8,
-5,
-2,
2,
4,
2,
5,
10,
12,
16,
15,
15,
20,
24,
25,
26,
27,
30,
32,
33,
34,
34,
35,
36,
35,
34,
36,
36,
37,
35,
33,
33,
35,
35,
33,
31,
29,
31,
28,
27,
25,
22,
20,
20,
17,
12,
10,
7,
8,
6,
2,
-4,
-5,
-5,
-6,
-9,
-14,
-16,
-18,
-20,
-20,
-25,
-29,
-33,
-33,
-32,
-33,
-39,
-40,
-42,
-42,
-40,
-42,
-44,
-46,
-47,
-44,
-42,
-45,
-47,
-47,
-46,
-43,
-43,
-42,
-45,
-43,
-38,
-37,
-38,
-38,
-36,
-32,
-28,
-26,
-27,
-23,
-21,
-16,
-15,
-13,
-12,
-8,
-4,
-1,
-1,
0,
5,
7,
8,
10,
12,
17,
21,
22,
20,
25,
27,
32,
32,
31,
32,
29,
33,
37,
35,
31,
34,
35,
38,
37,
33,
32,
32,
34,
33,
33,
29,
28,
28,
29,
26,
22,
17,
17,
17,
17,
12,
6,
3,
4,
5,
6,
-1,
-7,
-8,
-6,
-4,
-10,
-19,
-22,
-20,
-17,
-21,
-26,
-35,
-32,
-27,
-29,
-34,
-41,
-43,
-37,
-31,
-33,
-43,
-44,
-40,
-35,
-37,
-37,
-40,
-41,
-36,
-34,
-33,
-35,
-35,
-33,
-29,
-26,
-25,
-24,
-24,
-21,
-17,
-13,
-10,
-10,
-9,
-5,
-1,
1,
2,
3,
6,
10,
12,
14,
16,
17,
20,
26,
26,
26,
29,
31,
35,
36,
35,
37,
38,
39,
39,
37,
38,
40,
41,
41,
37,
38,
41,
40,
38,
36,
33,
37,
37,
34,
29,
28,
28,
28,
26,
20,
16,
15,
16,
15,
8,
4,
3,
4,
2,
-1,
-7,
-8,
-8,
-10,
-12,
-15,
-20,
-22,
-24,
-24,
-26,
-30,
-33,
-35,
-35,
-33,
-36,
-37,
-39,
-41,
-38,
-38,
-39,
-41,
-43,
-39,
-36,
-35,
-39,
-39,
-38,
-35,
-33,
-33,
-32,
-31,
-27,
-24,
-22,
-22,
-20,
-16,
-13,
-11,
-11,
-8,
-5,
-3,
-1,
1,
3,
8,
11,
13,
13,
16,
20,
23,
24,
23,
26,
31,
34,
35,
33,
34,
36,
39,
41,
37,
35,
36,
39,
42,
39,
36,
33,
38,
39,
37,
35,
32,
33,
34,
33,
31,
26,
22,
21,
24,
20,
16,
12,
9,
10,
10,
7,
3,
-3,
-3,
-2,
-3,
-6,
-15,
-17,
-15,
-13,
-17,
-25,
-30,
-30,
-25,
-26,
-32,
-39,
-40,
-35,
-31,
-35,
-42,
-44,
-40,
-36,
-35,
-41,
-44,
-41,
-38,
-35,
-36,
-38,
-37,
-35,
-31,
-29,
-30,
-29,
-25,
-23,
-19,
-19,
-16,
-14,
-12,
-7,
-5,
-4,
-3,
-3,
0,
4,
7,
9,
10,
11,
15,
18,
21,
22,
23,
27,
28,
29,
29,
31,
33,
35,
34,
33,
33,
36,
36,
35,
35,
33,
34,
35,
35,
32,
28,
30,
33,
29,
24,
21,
24,
26,
23,
16,
11,
10,
12,
9,
5,
-2,
-3,
-2,
-2,
-5,
-13,
-14,
-14,
-14,
-16,
-23,
-25,
-27,
-28,
-31,
-33,
-37,
-40,
-39,
-40,
-40,
-43,
-46,
-47,
-48,
-45,
-47,
-46,
-49,
-50,
-49,
-46,
-45,
-46,
-49,
-48,
-45,
-41,
-44,
-44,
-41,
-40,
-36,
-35,
-35,
-32,
-27,
-24,
-21,
-20,
-20,
-16,
-14,
-12,
-10,
-7,
-4,
-1,
-1,
2,
4,
9,
11,
13,
13,
15,
19,
24,
23,
22,
23,
27,
29,
28,
27,
26,
27,
32,
33,
29,
27,
26,
31,
32,
31,
25,
25,
26,
27,
26,
21,
19,
17,
18,
17,
16,
11,
6,
5,
6,
6,
2,
-5,
-7,
-6,
-6,
-9,
-13,
-19,
-19,
-19,
-17,
-23,
-28,
-33,
-32,
-28,
-30,
-38,
-41,
-39,
-36,
-36,
-39,
-45,
-45,
-42,
-38,
-39,
-44,
-45,
-42,
-39,
-36,
-39,
-41,
-40,
-35,
-34,
-34,
-32,
-32,
-29,
-25,
-22,
-22,
-22,
-17,
-15,
-12,
-10,
-7,
-5,
-1,
0,
3,
4,
7,
11,
12,
15,
17,
20,
23,
26,
26,
30,
31,
33,
34,
37,
38,
37,
36,
39,
41,
42,
41,
39,
40,
41,
41,
39,
38,
36,
37,
39,
38,
34,
29,
31,
34,
32,
24,
18,
19,
22,
22,
14,
9,
7,
9,
11,
7,
0,
-4,
-3,
-1,
-5,
-12,
-15,
-14,
-14,
-16,
-21,
-24,
-26,
-26,
-27,
-29,
-31,
-33,
-35,
-34,
-35,
-34,
-35,
-38,
-39,
-36,
-35,
-33,
-35,
-38,
-37,
-35,
-30,
-31,
-33,
-32,
-29,
-25,
-23,
-23,
-22,
-18,
-15,
-11,
-11,
-8,
-5,
-3,
-1,
1,
3,
7,
8,
11,
12,
14,
18,
21,
22,
23,
25,
29,
33,
33,
32,
33,
38,
42,
42,
37,
37,
39,
44,
44,
39,
37,
39,
42,
42,
41,
37,
35,
38,
41,
38,
34,
29,
30,
32,
29,
26,
20,
17,
18,
17,
15,
11,
7,
4,
5,
5,
2,
-4,
-7,
-8,
-7,
-11,
-13,
-21,
-22,
-21,
-21,
-24,
-30,
-35,
-33,
-29,
-30,
-37,
-39,
-39,
-35,
-34,
-35,
-41,
-42,
-38,
-34,
-33,
-38,
-40,
-37,
-35,
-32,
-34,
-35,
-32,
-28,
-25,
-24,
-23,
-22,
-20,
-16,
-14,
-13,
-12,
-7,
-4,
-3,
-3,
2,
2,
6,
8,
8,
12,
15,
17,
19,
22,
22,
25,
27,
28,
29,
31,
32,
32,
33,
37,
34,
34,
33,
34,
36,
36,
33,
31,
30,
33,
34,
29,
27,
24,
25,
27,
27,
19,
13,
14,
17,
15,
8,
1,
1,
3,
3,
-3,
-10,
-12,
-11,
-10,
-12,
-19,
-25,
-25,
-22,
-25,
-30,
-36,
-37,
-36,
-35,
-39,
-43,
-45,
-45,
-43,
-45,
-46,
-47,
-48,
-48,
-48,
-48,
-47,
-47,
-48,
-48,
-47,
-45,
-45,
-46,
-46,
-44,
-39,
-35,
-37,
-37,
-35,
-29,
-26,
-24,
-24,
-22,
-18,
-14,
-12,
-11,
-8,
-6,
-4,
-1,
1,
5,
7,
9,
10,
13,
17,
19,
20,
20,
23,
26,
31,
31,
27,
26,
30,
35,
34,
28,
28,
29,
34,
35,
31,
28,
27,
32,
34,
32,
24,
22,
25,
28,
27,
18,
15,
16,
15,
13,
9,
5,
4,
4,
4,
1,
-3,
-7,
-9,
-9,
-9,
-12,
-17,
-19,
-22,
-22,
-22,
-24,
-30,
-33,
-33,
-31,
-31,
-36,
-40,
-39,
-36,
-33,
-39,
-42,
-42,
-38,
-37,
-35,
-38,
-40,
-37,
-33,
-32,
-34,
-35,
-31,
-26,
-25,
-24,
-24,
-22,
-17,
-14,
-14,
-13,
-9,
-5,
-1,
-1,
0,
3,
7,
11,
12,
12,
15,
19,
22,
25,
27,
27,
29,
33,
35,
36,
36,
38,
41,
43,
42,
41,
40,
40,
42,
43,
44,
42,
39,
40,
43,
43,
41,
36,
35,
37,
38,
35,
30,
27,
27,
29,
29,
22,
14,
13,
16,
16,
10,
1,
0,
3,
4,
0,
-7,
-12,
-11,
-9,
-11,
-16,
-23,
-26,
-23,
-23,
-26,
-33,
-35,
-33,
-32,
-34,
-36,
-39,
-39,
-38,
-37,
-37,
-38,
-39,
-38,
-37,
-36,
-36,
-36,
-37,
-35,
-34,
-32,
-28,
-28,
-29,
-26,
-23,
-20,
-18,
-17,
-16,
-12,
-10,
-5,
-3,
-4,
-1,
3,
4,
6,
9,
10,
15,
16,
18,
23,
24,
25,
28,
29,
33,
35,
33,
34,
33,
34,
38,
39,
37,
34,
35,
40,
40,
36,
32,
34,
36,
38,
35,
30,
28,
28,
32,
31,
24,
19,
19,
21,
20,
13,
7,
7,
8,
7,
4,
-2,
-5,
-5,
-5,
-7,
-10,
-15,
-19,
-19,
-21,
-22,
-25,
-29,
-30,
-31,
-33,
-34,
-38,
-40,
-38,
-38,
-37,
-40,
-45,
-44,
-42,
-40,
-42,
-44,
-45,
-41,
-39,
-38,
-40,
-41,
-37,
-35,
-33,
-33,
-34,
-31,
-26,
-23,
-23,
-22,
-19,
-13,
-11,
-11,
-13,
-9,
-4,
1,
0,
0,
2,
7,
11,
12,
12,
14,
18,
23,
25,
24,
23,
25,
29,
32,
32,
28,
29,
32,
34,
35,
33,
31,
31,
29,
33,
34,
29,
26,
27,
30,
31,
25,
18,
18,
19,
21,
18,
11,
6,
6,
9,
8,
2,
-6,
-7,
-3,
-2,
-8,
-17,
-19,
-17,
-15,
-19,
-25,
-32,
-31,
-31,
-31,
-35,
-40,
-43,
-40,
-39,
-42,
-44,
-46,
-46,
-43,
-44,
-45,
-46,
-48,
-47,
-44,
-44,
-44,
-44,
-45,
-45,
-41,
-39,
-37,
-37,
-37,
-35,
-31,
-29,
-26,
-24,
-21,
-17,
-15,
-12,
-10,
-9,
-8,
-4,
-1,
2,
3,
4,
9,
10,
13,
17,
19,
20,
22,
26,
29,
31,
29,
29,
31,
33,
36,
37,
35,
34,
35,
39,
40,
37,
34,
34,
35,
39,
35,
30,
30,
33,
34,
31,
27,
23,
23,
24,
24,
18,
11,
9,
11,
13,
8,
2,
1,
1,
-1,
-3,
-7,
-10,
-12,
-13,
-14,
-16,
-21,
-25,
-25,
-25,
-27,
-31,
-32,
-32,
-34,
-36,
-33,
-33,
-38,
-38,
-38,
-37,
-36,
-39,
-37,
-37,
-35,
-35,
-35,
-36,
-33,
-32,
-31,
-28,
-30,
-25,
-23,
-19,
-19,
-19,
-14,
-9,
-8,
-7,
-7,
-5,
2,
5,
4,
3,
6,
12,
16,
17,
14,
17,
24,
30,
29,
27,
27,
32,
37,
39,
37,
35,
35,
39,
43,
42,
38,
37,
39,
42,
40,
38,
37,
36,
36,
39,
38,
34,
28,
29,
31,
32,
27,
20,
17,
17,
18,
17,
11,
5,
3,
7,
9,
3,
-6,
-10,
-7,
-5,
-10,
-17,
-21,
-22,
-18,
-19,
-26,
-31,
-32,
-31,
-31,
-32,
-38,
-40,
-37,
-35,
-38,
-39,
-42,
-40,
-39,
-39,
-38,
-38,
-38,
-37,
-36,
-38,
-35,
-34,
-33,
-30,
-29,
-28,
-25,
-22,
-22,
-22,
-17,
-13,
-10,
-9,
-8,
-6,
-3,
0,
2,
3,
4,
9,
10,
15,
17,
17,
20,
23,
24,
28,
30,
32,
32,
32,
36,
36,
36,
35,
33,
37,
40,
40,
38,
35,
34,
37,
39,
37,
33,
31,
34,
35,
32,
28,
24,
24,
25,
25,
19,
15,
12,
13,
11,
8,
3,
-1,
0,
-1,
-4,
-8,
-10,
-10,
-13,
-15,
-19,
-22,
-26,
-25,
-27,
-29,
-30,
-35,
-36,
-38,
-37,
-38,
-41,
-40,
-41,
-43,
-41,
-41,
-42,
-43,
-41,
-41,
-41,
-40,
-39,
-39,
-39,
-38,
-37,
-36,
-32,
-31,
-29,
-29,
-27,
-22,
-17,
-15,
-16,
-16,
-11,
-6,
-4,
-7,
-5,
-2,
5,
8,
7,
5,
7,
15,
20,
22,
19,
17,
24,
30,
32,
29,
26,
27,
34,
37,
34,
31,
28,
33,
37,
37,
32,
28,
29,
33,
33,
31,
28,
24,
25,
27,
27,
24,
18,
16,
16,
15,
13,
7,
3,
3,
3,
1,
0,
-8,
-11,
-9,
-8,
-9,
-19,
-24,
-23,
-21,
-22,
-31,
-35,
-37,
-31,
-33,
-37,
-42,
-44,
-39,
-39,
-40,
-45,
-47,
-45,
-42,
-43,
-47,
-45,
-42,
-41,
-41,
-42,
-41,
-38,
-37,
-37,
-35,
-32,
-31,
-27,
-27,
-26,
-23,
-19,
-16,
-14,
-14,
-11,
-8,
-5,
-3,
-1,
0,
3,
7,
10,
11,
13,
15,
17,
20,
24,
27,
28,
27,
28,
32,
35,
35,
33,
32,
34,
37,
37,
34,
33,
33,
36,
38,
35,
32,
31,
33,
35,
33,
26,
25,
26,
27,
23,
17,
14,
14,
15,
12,
8,
3,
2,
0,
1,
0,
-6,
-9,
-9,
-10,
-14,
-18,
-20,
-22,
-24,
-27,
-30,
-31,
-32,
-34,
-36,
-38,
-38,
-39,
-38,
-40,
-42,
-40,
-41,
-40,
-42,
-43,
-41,
-41,
-41,
-40,
-39,
-40,
-38,
-37,
-36,
-32,
-32,
-33,
-30,
-26,
-22,
-20,
-19,
-17,
-15,
-11,
-7,
-6,
-7,
-6,
-1,
4,
8,
5,
6,
8,
14,
20,
20,
18,
19,
26,
32,
33,
28,
26,
31,
35,
36,
35,
31,
32,
36,
39,
39,
34,
30,
33,
37,
38,
33,
29,
29,
32,
31,
29,
25,
22,
20,
21,
20,
17,
11,
8,
9,
10,
6,
1,
-3,
-4,
-4,
-4,
-7,
-13,
-17,
-15,
-15,
-16,
-22,
-31,
-30,
-27,
-27,
-33,
-39,
-40,
-36,
-33,
-36,
-41,
-44,
-42,
-38,
-39,
-42,
-45,
-41,
-38,
-36,
-39,
-40,
-39,
-36,
-35,
-35,
-35,
-29,
-26,
-25,
-25,
-24,
-21,
-15,
-13,
-13,
-12,
-8,
-4,
-1,
-2,
2,
2,
6,
9,
11,
12,
15,
17,
20,
24,
26,
27,
27,
28,
33,
34,
37,
35,
33,
37,
38,
39,
37,
35,
37,
39,
39,
36,
34,
33,
34,
38,
37,
31,
26,
28,
31,
29,
23,
17,
16,
18,
18,
12,
7,
5,
6,
5,
2,
-4,
-6,
-6,
-6,
-8,
-14,
-18,
-17,
-19,
-22,
-27,
-29,
-28,
-30,
-34,
-35,
-37,
-36,
-36,
-39,
-41,
-40,
-39,
-39,
-41,
-42,
-43,
-40,
-39,
-40,
-41,
-39,
-38,
-36,
-36,
-35,
-33,
-31,
-29,
-29,
-25,
-23,
-21,
-19,
-17,
-13,
-10,
-8,
-9,
-8,
-3,
3,
4,
4,
3,
8,
14,
18,
17,
16,
18,
24,
29,
30,
26,
26,
31,
37,
39,
34,
31,
33,
38,
41,
38,
34,
32,
34,
38,
39,
34,
29,
32,
35,
35,
30,
26,
25,
25,
25,
21,
19,
15,
12,
12,
11,
7,
4,
0,
1,
0,
-2,
-6,
-10,
-12,
-12,
-13,
-14,
-20,
-23,
-25,
-25,
-25,
-30,
-35,
-36,
-32,
-33,
-37,
-38,
-40,
-39,
-36,
-38,
-40,
-42,
-41,
-37,
-38,
-39,
-39,
-37,
-32,
-32,
-36,
-34,
-32,
-29,
-26,
-26,
-27,
-22,
-17,
-14,
-14,
-14,
-11,
-5,
-2,
-2,
-3,
0,
4,
9,
11,
11,
12,
16,
20,
24,
24,
24,
27,
29,
33,
35,
34,
34,
35,
36,
39,
40,
38,
36,
37,
39,
39,
38,
34,
34,
35,
38,
37,
33,
31,
28,
32,
32,
27,
20,
17,
20,
19,
15,
9,
7,
8,
8,
4,
1,
-3,
-4,
-5,
-7,
-12,
-14,
-17,
-16,
-19,
-23,
-27,
-9,
-13,
-18,
-17,
