4-transistorverstaerker/data/ALL0085/A0085CH2.CSV

Memory Length,4000,
Trigger Level,4.20000e+01,
Source,CH2,
Probe,1.0X,
Vertical Units,V,
Vertical Scale,5.00000e-01,
Vertical Position,0.00000e+00,
Horizontal Units,S,
Horizontal Scale,5.00000e-04,
Horizontal Position,-7.0000000e-04,
Horizontal Mode,Main,
Sampling Period,2.00000e-06,
Firmware,V1.14,
Time, ,
Mode,Fast,
Waveform Data,
-7,
-7,
-7,
-8,
-8,
-7,
-7,
-5,
-5,
-5,
-5,
-6,
-6,
-5,
-5,
-4,
-4,
-3,
-3,
-4,
-4,
-3,
-3,
-2,
-2,
1,
1,
-3,
-3,
-4,
-4,
-1,
-1,
1,
1,
2,
2,
2,
2,
3,
3,
3,
3,
3,
3,
3,
3,
5,
5,
5,
5,
6,
6,
5,
5,
7,
7,
7,
7,
8,
8,
7,
7,
9,
9,
9,
9,
10,
10,
10,
10,
10,
10,
10,
10,
11,
11,
12,
12,
11,
11,
13,
13,
13,
13,
12,
12,
12,
12,
13,
13,
16,
16,
13,
13,
15,
15,
16,
16,
16,
16,
15,
15,
16,
16,
15,
15,
16,
16,
16,
16,
18,
18,
18,
18,
18,
18,
19,
19,
20,
20,
20,
20,
17,
17,
19,
19,
18,
18,
19,
19,
18,
18,
19,
19,
20,
20,
19,
19,
19,
19,
20,
20,
19,
19,
20,
20,
18,
18,
19,
19,
19,
19,
19,
19,
18,
18,
24,
24,
19,
19,
19,
19,
19,
19,
19,
19,
18,
18,
18,
18,
18,
18,
20,
20,
17,
17,
17,
17,
19,
19,
16,
16,
18,
18,
17,
17,
17,
17,
17,
17,
16,
16,
16,
16,
17,
17,
15,
15,
15,
15,
13,
13,
14,
14,
13,
13,
13,
13,
14,
14,
12,
12,
13,
13,
12,
12,
11,
11,
10,
10,
11,
11,
9,
9,
10,
10,
10,
10,
9,
9,
7,
7,
8,
8,
8,
8,
8,
8,
5,
5,
5,
5,
5,
5,
5,
5,
5,
5,
5,
5,
2,
2,
1,
1,
1,
1,
1,
1,
1,
1,
0,
0,
0,
0,
-1,
-1,
0,
0,
0,
0,
-3,
-3,
-4,
-4,
-4,
-4,
-2,
-2,
-4,
-4,
-6,
-6,
-2,
-2,
-8,
-8,
-8,
-8,
-6,
-6,
-7,
-7,
-8,
-8,
-10,
-10,
-9,
-9,
-9,
-9,
-9,
-9,
-15,
-15,
-12,
-12,
-13,
-13,
-11,
-11,
-12,
-12,
-14,
-14,
-15,
-15,
-14,
-14,
-16,
-16,
-16,
-16,
-17,
-17,
-16,
-16,
-19,
-19,
-16,
-16,
-17,
-17,
-18,
-18,
-19,
-19,
-19,
-19,
-20,
-20,
-19,
-19,
-20,
-20,
-20,
-20,
-19,
-19,
-20,
-20,
-19,
-19,
-21,
-21,
-21,
-21,
-20,
-20,
-22,
-22,
-22,
-22,
-22,
-22,
-21,
-21,
-23,
-23,
-23,
-23,
-23,
-23,
-21,
-21,
-23,
-23,
-23,
-23,
-26,
-26,
-23,
-23,
-24,
-24,
-24,
-24,
-24,
-24,
-25,
-25,
-22,
-22,
-25,
-25,
-25,
-25,
-24,
-24,
-24,
-24,
-24,
-24,
-24,
-24,
-25,
-25,
-24,
-24,
-24,
-24,
-26,
-26,
-23,
-23,
-24,
-24,
-24,
-24,
-24,
-24,
-23,
-23,
-23,
-23,
-22,
-22,
-23,
-23,
-25,
-25,
-26,
-26,
-23,
-23,
-22,
-22,
-21,
-21,
-20,
-20,
-22,
-22,
-21,
-21,
-20,
-20,
-21,
-21,
-21,
-21,
-19,
-19,
-19,
-19,
-16,
-16,
-18,
-18,
-17,
-17,
-18,
-18,
-18,
-18,
-16,
-16,
-17,
-17,
-16,
-16,
-15,
-15,
-14,
-14,
-13,
-13,
-14,
-14,
-14,
-14,
-15,
-15,
-14,
-14,
-13,
-13,
-13,
-13,
-11,
-11,
-11,
-11,
-10,
-10,
-9,
-9,
-8,
-8,
-8,
-8,
-9,
-9,
-7,
-7,
-7,
-7,
-7,
-7,
-7,
-7,
-6,
-6,
-6,
-6,
-3,
-3,
-3,
-3,
-3,
-3,
1,
1,
-1,
-1,
-3,
-3,
0,
0,
0,
0,
0,
0,
-1,
-1,
2,
2,
2,
2,
5,
5,
2,
2,
4,
4,
5,
5,
3,
3,
2,
2,
5,
5,
8,
8,
7,
7,
6,
6,
7,
7,
10,
10,
9,
9,
8,
8,
8,
8,
9,
9,
9,
9,
9,
9,
11,
11,
12,
12,
12,
12,
14,
14,
10,
10,
15,
15,
15,
15,
14,
14,
15,
15,
14,
14,
15,
15,
15,
15,
14,
14,
17,
17,
16,
16,
18,
18,
15,
15,
18,
18,
18,
18,
15,
15,
17,
17,
17,
17,
17,
17,
21,
21,
19,
19,
18,
18,
18,
18,
21,
21,
19,
19,
18,
18,
21,
21,
20,
20,
19,
19,
19,
19,
20,
20,
19,
19,
20,
20,
20,
20,
18,
18,
18,
18,
18,
18,
19,
19,
19,
19,
18,
18,
19,
19,
19,
19,
18,
18,
19,
19,
19,
19,
18,
18,
22,
22,
19,
19,
17,
17,
17,
17,
17,
17,
17,
17,
16,
16,
19,
8,
18,
18,
16,
16,
17,
17,
15,
15,
16,
16,
15,
15,
14,
14,
26,
2,
18,
-4,
10,
10,
12,
12,
15,
15,
14,
14,
11,
11,
11,
11,
11,
11,
9,
9,
9,
9,
8,
8,
14,
-7,
2,
13,
7,
7,
7,
7,
7,
7,
6,
6,
7,
7,
4,
4,
5,
5,
4,
4,
3,
3,
14,
-14,
10,
-3,
0,
0,
0,
0,
1,
1,
0,
0,
1,
1,
1,
1,
-1,
-1,
-5,
-5,
-5,
-5,
-4,
-4,
-4,
-4,
-2,
-2,
-5,
-5,
-5,
-5,
-6,
-6,
-6,
-6,
-8,
-8,
-9,
-9,
-9,
-9,
-8,
-8,
-8,
-8,
-11,
-11,
-10,
-10,
-10,
-10,
-11,
-11,
-10,
-10,
-13,
-13,
-13,
-13,
-13,
-13,
-13,
-13,
-15,
-15,
-14,
-14,
-14,
-14,
-17,
-17,
-14,
-14,
-16,
-16,
-19,
-19,
-15,
-15,
-18,
-18,
-19,
-19,
-19,
-19,
-19,
-19,
-18,
-18,
-20,
-20,
-19,
-19,
-19,
-19,
-20,
-20,
-21,
-21,
-18,
-18,
-24,
-24,
-21,
-21,
-22,
-22,
-22,
-22,
-21,
-21,
-20,
-20,
-24,
-24,
-23,
-23,
-23,
-23,
-24,
-24,
-23,
-23,
-26,
-26,
-29,
-29,
-23,
-23,
-23,
-23,
-24,
-24,
-24,
-24,
-24,
-24,
-25,
-25,
-25,
-25,
-25,
-25,
-25,
-25,
-24,
-24,
-24,
-24,
-28,
-28,
-24,
-24,
-25,
-25,
-25,
-25,
-23,
-23,
-25,
-25,
-24,
-24,
-23,
-23,
-25,
-25,
-25,
-25,
-24,
-24,
-25,
-25,
-24,
-24,
-20,
-20,
-23,
-23,
-23,
-23,
-23,
-23,
-22,
-22,
-22,
-22,
-23,
-23,
-22,
-22,
-22,
-22,
-20,
-20,
-20,
-20,
-21,
-21,
-19,
-19,
-18,
-18,
-20,
-20,
-20,
-20,
-19,
-19,
-18,
-18,
-18,
-18,
-16,
-16,
-17,
-17,
-16,
-16,
-17,
-17,
-14,
-14,
-16,
-16,
-15,
-15,
-14,
-14,
-13,
-13,
-13,
-13,
-12,
-12,
-8,
-8,
-7,
-7,
-11,
-11,
-9,
-23,
-9,
-9,
-9,
-9,
-6,
-6,
-8,
-8,
-7,
-7,
-7,
-7,
-7,
-7,
-7,
-7,
-6,
-6,
-7,
-7,
7,
-20,
5,
-11,
-2,
-2,
-2,
-2,
-2,
-2,
-1,
-1,
-2,
-2,
1,
1,
0,
0,
0,
0,
1,
1,
13,
-14,
2,
2,
3,
3,
2,
2,
4,
4,
5,
5,
4,
4,
5,
5,
2,
2,
5,
5,
6,
6,
7,
7,
7,
7,
7,
7,
8,
8,
12,
12,
9,
9,
9,
9,
9,
9,
9,
9,
12,
12,
9,
9,
10,
10,
11,
11,
11,
11,
12,
12,
13,
13,
14,
14,
14,
14,
16,
16,
15,
15,
15,
15,
17,
17,
18,
18,
15,
15,
17,
17,
17,
17,
17,
17,
17,
17,
15,
15,
18,
18,
19,
19,
19,
19,
19,
19,
18,
18,
18,
18,
18,
18,
19,
19,
20,
20,
18,
18,
20,
20,
20,
20,
19,
19,
19,
19,
19,
19,
18,
18,
19,
19,
19,
19,
18,
18,
18,
18,
19,
19,
18,
18,
18,
18,
19,
19,
19,
19,
17,
17,
17,
17,
18,
18,
21,
21,
23,
23,
15,
15,
16,
16,
21,
21,
16,
16,
18,
18,
16,
16,
18,
18,
17,
17,
15,
15,
15,
15,
12,
12,
19,
19,
15,
15,
15,
15,
13,
13,
13,
13,
13,
13,
13,
13,
15,
15,
11,
11,
11,
11,
11,
11,
6,
6,
9,
9,
10,
10,
10,
10,
7,
7,
8,
8,
8,
8,
8,
8,
18,
-5,
1,
16,
9,
9,
7,
7,
2,
2,
1,
1,
4,
4,
4,
4,
2,
2,
2,
2,
0,
0,
11,
-14,
8,
-5,
0,
0,
-3,
-3,
0,
0,
-1,
-1,
-1,
-1,
-4,
-4,
-4,
-4,
-5,
-5,
-5,
-5,
5,
-21,
-3,
-3,
-7,
-7,
-5,
-5,
-6,
-6,
-8,
-8,
-8,
-8,
-10,
-10,
-10,
-10,
-10,
-10,
-11,
-11,
-11,
-11,
-9,
-9,
-12,
-12,
-12,
-12,
-13,
-13,
-13,
-13,
-13,
-13,
-13,
-13,
-16,
-16,
-16,
-16,
-16,
-16,
-15,
-15,
-17,
-17,
-17,
-17,
-19,
-19,
-18,
-18,
-19,
-19,
-18,
-18,
-21,
-21,
-20,
-20,
-19,
-19,
-21,
-21,
-20,
-20,
-21,
-21,
-21,
-21,
-22,
-22,
-22,
-22,
-22,
-22,
-23,
-23,
-22,
-22,
-23,
-23,
-24,
-24,
-23,
-23,
-25,
-25,
-25,
-25,
-23,
-23,
-22,
-22,
-26,
-26,
-25,
-25,
-25,
-25,
-25,
-25,
-25,
-25,
-24,
-24,
-25,
-25,
-25,
-25,
-24,
-24,
-25,
-25,
-24,
-24,
-24,
-24,
-25,
-25,
-25,
-25,
-26,
-26,
-24,
-24,
-25,
-25,
-25,
-25,
-25,
-25,
-24,
-24,
-25,
-25,
-22,
-22,
-24,
-24,
-23,
-23,
-23,
-23,
-22,
-22,
-22,
-22,
-22,
-22,
-26,
-26,
-24,
-24,
-23,
-23,
-23,
-23,
-21,
-21,
-20,
-20,
-21,
-21,
-20,
-20,
-20,
-20,
-19,
-19,
-19,
-19,
-20,
-20,
-19,
-19,
-18,
-18,
-17,
-17,
-17,
-17,
-17,
-17,
-14,
-14,
-16,
-16,
-16,
-16,
-14,
-14,
-14,
-14,
-15,
-15,
-15,
-15,
-13,
-13,
-14,
-14,
-12,
-12,
-12,
-12,
-13,
-13,
-11,
-11,
-12,
-12,
-8,
-8,
-10,
-10,
-9,
-9,
-8,
-8,
-8,
-8,
-6,
-6,
-6,
-6,
-6,
-6,
-7,
-7,
-5,
-5,
-4,
-4,
-1,
-1,
-2,
-2,
9,
-13,
-6,
8,
-4,
-4,
0,
0,
-1,
-1,
0,
0,
-1,
-1,
1,
1,
0,
0,
-2,
-2,
2,
2,
2,
2,
4,
-7,
2,
2,
4,
4,
5,
5,
4,
4,
6,
6,
7,
7,
7,
7,
9,
9,
12,
12,
11,
-2,
13,
-6,
7,
7,
10,
10,
11,
11,
10,
10,
12,
12,
11,
11,
11,
11,
13,
13,
12,
12,
13,
13,
8,
21,
11,
11,
17,
17,
13,
13,
14,
14,
15,
15,
16,
16,
17,
17,
17,
17,
16,
16,
16,
16,
17,
17,
17,
17,
17,
17,
17,
17,
18,
18,
18,
18,
19,
19,
19,
19,
17,
17,
17,
17,
21,
21,
18,
18,
19,
19,
19,
19,
20,
20,
19,
19,
21,
21,
21,
21,
20,
20,
21,
21,
20,
20,
19,
19,
19,
19,
18,
18,
17,
17,
19,
19,
20,
20,
19,
19,
19,
19,
19,
19,
18,
18,
18,
18,
17,
17,
17,
17,
17,
17,
18,
18,
18,
18,
16,
16,
16,
16,
16,
16,
12,
12,
17,
17,
16,
16,
16,
16,
14,
14,
14,
14,
16,
16,
14,
14,
13,
13,
13,
13,
11,
11,
12,
12,
12,
12,
12,
12,
11,
11,
10,
10,
8,
8,
10,
10,
9,
9,
9,
9,
7,
7,
8,
8,
6,
6,
10,
10,
7,
7,
5,
5,
5,
5,
4,
4,
4,
4,
3,
3,
3,
3,
2,
2,
-1,
-1,
2,
2,
-5,
9,
1,
1,
0,
0,
1,
1,
0,
0,
-2,
-2,
-3,
8,
-7,
5,
-5,
-5,
-5,
-5,
-5,
-5,
-5,
-5,
-6,
-6,
-5,
-5,
-6,
-6,
-7,
-7,
-9,
-9,
-9,
-9,
-13,
2,
-13,
-13,
-13,
-13,
-12,
-12,
-11,
-11,
-11,
-11,
-13,
-13,
-12,
-12,
-14,
-14,
-15,
-15,
-14,
-14,
-15,
-15,
-15,
-15,
-16,
-16,
-15,
-15,
-17,
-17,
-18,
-18,
-17,
-17,
-16,
-16,
-18,
-18,
-18,
-18,
-18,
-18,
-19,
-19,
-19,
-19,
-19,
-19,
-20,
-20,
-21,
-21,
-21,
-21,
-23,
-23,
-21,
-21,
-22,
-22,
-17,
-29,
-19,
-19,
-25,
-25,
-24,
-24,
-23,
-23,
-23,
-23,
-24,
-24,
-24,
-24,
-25,
-25,
-24,
-24,
-23,
-23,
-24,
-24,
-26,
-26,
-21,
-21,
-23,
-23,
-25,
-25,
-25,
-25,
-23,
-23,
-24,
-24,
-24,
-24,
-23,
-23,
-23,
-23,
-24,
-24,
-24,
-24,
-28,
-28,
-27,
-27,
-23,
-23,
-23,
-23,
-23,
-23,
-24,
-24,
-24,
-24,
-23,
-23,
-23,
-23,
-23,
-23,
-22,
-22,
-22,
-22,
-22,
-22,
-20,
-20,
-22,
-22,
-22,
-22,
-23,
-23,
-21,
-21,
-22,
-22,
-22,
-22,
-21,
-21,
-20,
-20,
-21,
-21,
-19,
-19,
-20,
-20,
-19,
-19,
-17,
-17,
-19,
-19,
-16,
-16,
-17,
-17,
-17,
-17,
-17,
-17,
-15,
-15,
-15,
-15,
-15,
-15,
-14,
-14,
-14,
-14,
-14,
-14,
-13,
-13,
-14,
-14,
-13,
-13,
-11,
-11,
-13,
-13,
-12,
-12,
-12,
-12,
-10,
-10,
-10,
-10,
-9,
-9,
-9,
-9,
-8,
-8,
-7,
-7,
-7,
-7,
-7,
-7,
-5,
-5,
-6,
-6,
-3,
-3,
-4,
-4,
-3,
-3,
-1,
-1,
-4,
-4,
-2,
-2,
-1,
-1,
-2,
-2,
1,
1,
1,
1,
2,
2,
1,
1,
2,
2,
3,
3,
1,
1,
4,
4,
4,
4,
5,
5,
5,
5,
4,
4,
3,
3,
5,
16,
7,
7,
6,
6,
9,
9,
9,
9,
9,
9,
8,
8,
11,
11,
10,
10,
10,
10,
11,
11,
10,
22,
13,
13,
15,
15,
15,
15,
13,
13,
14,
14,
14,
14,
15,
15,
15,
15,
15,
15,
16,
16,
17,
5,
17,
17,
19,
19,
18,
18,
16,
16,
16,
16,
17,
17,
17,
17,
17,
17,
18,
18,
18,
18,
17,
17,
19,
19,
18,
18,
18,
18,
19,
19,
19,
19,
19,
19,
20,
20,
18,
18,
19,
19,
19,
19,
19,
19,
19,
19,
22,
22,
18,
18,
19,
19,
19,
19,
19,
19,
20,
20,
19,
19,
20,
20,
19,
19,
18,
18,
19,
19,
18,
18,
18,
18,
18,
18,
16,
16,
18,
18,
16,
16,
16,
16,
16,
16,
16,
16,
16,
16,
15,
15,
15,
15,
15,
15,
15,
15,
12,
12,
13,
13,
14,
14,
14,
14,
12,
12,
13,
13,
12,
12,
12,
12,
13,
13,
12,
12,
11,
11,
11,
11,
11,
11,
6,
6,
7,
7,
10,
10,
7,
7,
8,
8,
8,
8,
7,
7,
5,
5,
5,
5,
4,
4,
5,
5,
4,
4,
5,
5,
1,
1,
1,
1,
3,
3,
1,
1,
-1,
-1,
1,
1,
-1,
-1,
-1,
-1,
-3,
-3,
-4,
-4,
-3,
-3,
-4,
-4,
-2,
-2,
3,
-10,
-6,
-6,
-5,
-5,
-5,
-5,
-7,
-7,
-6,
-6,
-7,
-7,
-9,
-9,
-8,
-8,
-9,
-9,
-10,
-10,
-8,
-8,
-11,
1,
-13,
-13,
-12,
-12,
-10,
-10,
-12,
-12,
-13,
-13,
-14,
-14,
-14,
-14,
-14,
-14,
-16,
-16,
-16,
-16,
-18,
-18,
-18,
-18,
-18,
-18,
-17,
-17,
-17,
-17,
-17,
-17,
-17,
-17,
-19,
-19,
-18,
-18,
-20,
-20,
-19,
-19,
-23,
-12,
-17,
-17,
-21,
-21,
-19,
-19,
-22,
-22,
-22,
-22,
-22,
-22,
-22,
-22,
-23,
-23,
-23,
-23,
-22,
-22,
-24,
-24,
-24,
-24,
-23,
-23,
-23,
-23,
-24,
-24,
-23,
-23,
-24,
-24,
-24,
-24,
-24,
-24,
-24,
-24,
-25,
-25,
-25,
-25,
-24,
-24,
-25,
-25,
-24,
-24,
-26,
-26,
-27,
-27,
-25,
-25,
-25,
-25,
-23,
-23,
-23,
-23,
-22,
-22,
-25,
-25,
-29,
-29,
-23,
-23,
-24,
-24,
-23,
-23,
-23,
-23,
-23,
-23,
-23,
-23,
-22,
-22,
-23,
-23,
-22,
-22,
-22,
-22,
-22,
-22,
-22,
-22,
-22,
-22,
-22,
-22,
-21,
-21,
-21,
-21,
-21,
-21,
-20,
-20,
-20,
-20,
-19,
-19,
-20,
-20,
-19,
-19,
-18,
-18,
-17,
-17,
-15,
-15,
-17,
-17,
-16,
-16,
-16,
-16,
-15,
-15,
-15,
-15,
-15,
-15,
-16,
-16,
-14,
-14,
-14,
-14,
-13,
-13,
-14,
-14,
-12,
-12,
-11,
-11,
-12,
-12,
-11,
-11,
-8,
-8,
-8,
-8,
-9,
-9,
-9,
-9,
-9,
-9,
-7,
-7,
-7,
-7,
-6,
-6,
-7,
-7,
-5,
-5,
-5,
-5,
-5,
-5,
-4,
-4,
-4,
-4,
-3,
-3,
0,
0,
-3,
-3,
-2,
-2,
-1,
-1,
0,
0,
1,
1,
1,
1,
3,
3,
2,
2,
0,
0,
4,
4,
5,
5,
6,
6,
6,
6,
6,
6,
6,
6,
7,
7,
8,
8,
8,
8,
7,
7,
9,
9,
11,
11,
8,
8,
10,
10,
9,
9,
9,
9,
10,
10,
11,
11,
12,
12,
14,
14,
16,
16,
15,
15,
17,
17,
16,
16,
15,
15,
16,
16,
16,
16,
15,
15,
16,
16,
16,
16,
20,
20,
17,
17,
16,
16,
16,
16,
18,
18,
18,
18,
17,
17,
18,
18,
21,
21,
18,
18,
17,
17,
18,
18,
18,
18,
18,
18,
19,
19,
19,
19,
20,
20,
20,
20,
18,
18,
19,
19,
20,
20,
19,
19,
23,
23,
19,
19,
17,
17,
19,
19,
19,
19,
21,
21,
19,
19,
19,
19,
22,
22,
19,
19,
19,
19,
18,
18,
18,
18,
17,
17,
18,
18,
17,
17,
16,
16,
17,
17,
17,
17,
18,
18,
17,
17,
17,
17,
17,
17,
14,
14,
15,
15,
15,
15,
16,
16,
14,
14,
14,
14,
13,
13,
14,
14,
12,
12,
11,
11,
12,
12,
13,
13,
13,
13,
11,
11,
10,
10,
10,
10,
9,
9,
9,
9,
8,
8,
7,
7,
6,
6,
6,
6,
7,
7,
6,
6,
5,
5,
3,
3,
4,
4,
3,
3,
3,
3,
3,
3,
1,
1,
2,
2,
1,
1,
-1,
-1,
-1,
-1,
-2,
-2,
-1,
-1,
-3,
-3,
-2,
-2,
-3,
-3,
-3,
-3,
-4,
-4,
-4,
-4,
-5,
-5,
-7,
-7,
-6,
-6,
-6,
-6,
-7,
-7,
-7,
-7,
-7,
-7,
-6,
-6,
-9,
-9,
-9,
-9,
-10,
-10,
-10,
-10,
-9,
-9,
-11,
-11,
-12,
-12,
-12,
-12,
-13,
-13,
-13,
-13,
-15,
-15,
-15,
-15,
-16,
-16,
-16,
-16,
-17,
-17,
-16,
-16,
-14,
-14,
-16,
-16,
-19,
-19,
-19,
-19,
-18,
-18,
-18,
-18,
-19,
-19,
-19,
-19,
-19,
-19,
-19,
-19,
-32,
-7,
-9,
-28,
-23,
-23,
-21,
-21,
-23,
-23,
-22,
-22,
-22,
-22,
-24,
-24,
-23,
-23,
-21,
-21,
-23,
-23,
-22,
-34,
-32,
-11,
-24,
-24,
-23,
-23,
-23,
-23,
-23,
-23,
-25,
-25,
-26,
-26,
-20,
-20,
-22,
-22,
-25,
-25,
-25,
-25,
-25,
-25,
-24,
-24,
-26,
-26,
-25,
-25,
-23,
-23,
-23,
-23,
-25,
-25,
-28,
-14,
-27,
-27,
-22,
-22,
-26,
-26,
-24,
-24,
-23,
-23,
-23,
-23,
-23,
-23,
-24,
-24,
-22,
-22,
-22,
-22,
-23,
-23,
-20,
-20,
-27,
-13,
-25,
-25,
-22,
-22,
-19,
-19,
-22,
-22,
-21,
-21,
-21,
-21,
-20,
-20,
-19,
-19,
-20,
-20,
-19,
-19,
-19,
-19,
-17,
-17,
-18,
-18,
-17,
-17,
-17,
-17,
-17,
-17,
-16,
-16,
-15,
-15,
-15,
-15,
-14,
-14,
-13,
-13,
-13,
-13,
-13,
-13,
-14,
-14,
-13,
-13,
-13,
-13,
-12,
-12,
-11,
-11,
-11,
-11,
-9,
-9,
-9,
-9,
-8,
-8,
-7,
-7,
-8,
-8,
-7,
-7,
-7,
-7,
-6,
-6,
-6,
-6,
-6,
-6,
-3,
-3,
-3,
-3,
-4,
-4,
-3,
-3,
-2,
-2,
-3,
-3,
-2,
-2,
-1,
-1,
2,
2,
1,
1,
2,
2,
2,
2,
3,
3,
2,
2,
3,
3,
4,
4,
5,
5,
4,
4,
4,
4,
7,
7,
6,
6,
5,
5,
7,
7,
8,
8,
9,
9,
8,
8,
7,
7,
11,
11,
12,
12,
11,
11,
10,
10,
13,
13,
12,
12,
12,
12,
13,
13,
12,
12,
12,
12,
13,
13,
13,
13,
16,
16,
16,
16,
14,
14,
13,
13,
16,
16,
16,
16,
17,
17,
17,
17,
18,
18,
19,
19,
18,
18,
18,
18,
18,
18,
32,
6,
5,
34,
24,
24,
17,
17,
19,
19,
19,
19,
20,
20,
20,
20,
20,
20,
18,
18,
20,
20,
4,
35,
21,
34,
18,
18,
19,
19,
18,
18,
19,
19,
19,
19,
19,
19,
18,
18,
19,
19,
19,
19,
35,
5,
13,
25,
20,
20,
18,
18,
18,
18,
18,
18,
18,
18,
18,
18,
18,
18,
17,
17,
19,
19,
18,
18,
17,
17,
16,
16,
17,
17,
17,
17,
15,
15,
16,
16,
15,
15,
16,
16,
15,
15,
13,
13,
13,
13,
13,
13,
15,
15,
13,
13,
11,
11,
12,
12,
11,
11,
12,
12,
10,
10,
7,
7,
12,
-3,
7,
7,
8,
8,
9,
9,
8,
8,
8,
8,
7,
7,
6,
6,
6,
6,
3,
3,
5,
5,
4,
4,
2,
2,
0,
0,
1,
1,
2,
2,
2,
2,
-1,
-1,
1,
1,
0,
0,
-1,
-1,
-1,
-1,
-2,
-2,
-3,
-3,
2,
-11,
1,
1,
-6,
-6,
-4,
-4,
-6,
-6,
-6,
-6,
-6,
-6,
-5,
-5,
-6,
-6,
-6,
-6,
-9,
-9,
-11,
-11,
-14,
-1,
-5,
-16,
-8,
-8,
-11,
-11,
-11,
-11,
-12,
-12,
-12,
-12,
-14,
-14,
-13,
-13,
-14,
-14,
-14,
-14,
-15,
-15,
-16,
-16,
-16,
-16,
-16,
-16,
-17,
-17,
-16,
-16,
-18,
-18,
-18,
-18,
-16,
-16,
-19,
-19,
-19,
-19,
-18,
-18,
-20,
-20,
-20,
-20,
-20,
-20,
-21,
-21,
-22,
-22,
-21,
-21,
-20,
-20,
-21,
-21,
-21,
-21,
-22,
-22,
-21,
-21,
-22,
-22,
-23,
-23,
-23,
-23,
-35,
-11,
-15,
-31,
-22,
-22,
-24,
-24,
-24,
-24,
-24,
-24,
-25,
-25,
-24,
-24,
-23,
-23,
-24,
-24,
-24,
-24,
-24,
-11,
-28,
-28,
-27,
-27,
-24,
-24,
-26,
-26,
-25,
-25,
-24,
-24,
-23,
-23,
-24,
-24,
-24,
-24,
-24,
-24,
-33,
-11,
-15,
-31,
-25,
-25,
-21,
-21,
-23,
-23,
-22,
-22,
-23,
-23,
-23,
-23,
-22,
-22,
-22,
-22,
-22,
-22,
-21,
-21,
-19,
-19,
-20,
-20,
-21,
-21,
-19,
-19,
-20,
-20,
-22,
-22,
-20,
-20,
-20,
-20,
-20,
-20,
-18,
-18,
-18,
-18,
-19,
-19,
-17,
-17,
-17,
-17,
-16,
-16,
-16,
-16,
-16,
-16,
-14,
-14,
-15,
-15,
-13,
-13,
-14,
-14,
-13,
-13,
-12,
-12,
-12,
-12,
-11,
-11,
-12,
-12,
-11,
-11,
-10,
-10,
-9,
-9,
-8,
-8,
-8,
-8,
-8,
-8,
-6,
-6,
-7,
-7,
-6,
-6,
-5,
-5,
-5,
-5,
-5,
-5,
-4,
-4,
-4,
-4,
-3,
-3,
-2,
-2,
-1,
-1,
-2,
-2,
-1,
-1,
0,
0,
0,
0,
1,
1,
1,
1,
2,
2,
3,
3,
3,
3,
5,
5,
4,
4,
6,
6,
6,
6,
6,
6,
6,
6,
7,
7,
8,
8,
8,
8,
8,
8,
9,
9,
9,
9,
9,
9,
9,
9,
10,
10,
12,
12,
11,
11,
13,
13,
14,
14,
12,
12,
13,
13,
15,
15,
13,
13,
16,
16,
15,
15,
15,
15,
16,
16,
17,
17,
16,
16,
17,
17,
17,
17,
16,
16,
17,
17,
18,
18,
16,
16,
24,
24,
18,
18,
19,
19,
18,
18,
19,
19,
19,
19,
19,
19,
18,
18,
20,
20,
19,
19,
20,
20,
18,
18,
18,
18,
20,
20,
21,
21,
19,
19,
22,
22,
19,
19,
20,
20,
20,
20,
20,
20,
20,
20,
19,
19,
20,
20,
19,
19,
18,
18,
19,
19,
19,
19,
18,
18,
18,
18,
18,
18,
17,
17,
18,
18,
17,
17,
17,
17,
18,
18,
16,
16,
18,
18,
16,
16,
16,
16,
16,
16,
15,
15,
15,
15,
15,
15,
14,
14,
15,
15,
14,
14,
12,
12,
13,
13,
13,
13,
13,
13,
12,
12,
11,
11,
11,
11,
10,
10,
10,
10,
8,
8,
9,
9,
8,
8,
7,
7,
7,
7,
7,
7,
6,
6,
5,
5,
4,
4,
5,
5,
5,
5,
2,
2,
4,
4,
4,
4,
3,
3,
1,
1,
2,
2,
2,
2,
-1,
-1,
-1,
-1,
-1,
-1,
-1,
-1,
-1,
-1,
-1,
-1,
-3,
-3,
-3,
-3,
-3,
-3,
-4,
-4,
-7,
-7,
-6,
-6,
-7,
-7,
-7,
-7,
-8,
-8,
-8,
-8,
-9,
-9,
-10,
-10,
-9,
-9,
-11,
-11,
-11,
-11,
-10,
-10,
-14,
-14,
-14,
-14,
-12,
-12,
-13,
-13,
-13,
-13,
-14,
-14,
-13,
-13,
-15,
-15,
-15,
-15,
-15,
-15,
-16,
-16,
-15,
-15,
-16,
-16,
-16,
-16,
-17,
-17,
-19,
-19,
-18,
-18,
-19,
-19,
-19,
-19,
-21,
-21,
-21,
-21,
-21,
-21,
-21,
-21,
-22,
-22,
-22,
-22,
-22,
-22,
-22,
-22,
-22,
-22,
-22,
-22,
-23,
-23,
-23,
-23,
-21,
-21,
-24,
-24,
-23,
-23,
-24,
-24,
-24,
-24,
-24,
-24,
-24,
-24,
-24,
-24,
-23,
-23,
-23,
-23,
-24,
-24,
-23,
-23,
-23,
-23,
-24,
-24,
-24,
-24,
-25,
-25,
-25,
-25,
-24,
-24,
-24,
-24,
-24,
-24,
-24,
-24,
-23,
-23,
-23,
-23,
-23,
-23,
-23,
-23,
-24,
-24,
-23,
-23,
-22,
-22,
-23,
-23,
-22,
-22,
-22,
-22,
-22,
-22,
-21,
-21,
-20,
-20,
-22,
-22,
-22,
-22,
-21,
-21,
-21,
-21,
-21,
-21,
-19,
-19,
-19,
-19,
-18,
-18,
-19,
-19,
-19,
-19,
-19,
-19,
-17,
-17,
-17,
-17,
-17,
-17,
-16,
-16,
-17,
-17,
-16,
-16,
-17,
-17,
-15,
-15,
-14,
-14,
-16,
-16,
-15,
-15,
-15,
-15,
-14,
-14,
-13,
-13,
-12,
-12,
-11,
-11,
-11,
-11,
-10,
-10,
-13,
-13,
-7,
-7,
-7,
