4-transistorverstaerker/data/ALL0085/A0085CH1.CSV

Memory Length,4000,
Trigger Level,4.20000e+01,
Source,CH1,
Probe,1.0X,
Vertical Units,V,
Vertical Scale,5.00000e-02,
Vertical Position,6.00000e-03,
Horizontal Units,S,
Horizontal Scale,5.00000e-04,
Horizontal Position,-7.0000000e-04,
Horizontal Mode,Main,
Sampling Period,2.00000e-06,
Firmware,V1.14,
Time, ,
Mode,Fast,
Waveform Data,
-1,
-1,
-1,
0,
0,
0,
0,
0,
0,
-1,
-1,
-1,
-1,
0,
0,
0,
0,
-1,
-1,
0,
0,
2,
2,
0,
0,
0,
0,
0,
0,
-1,
-1,
-1,
-1,
0,
0,
-2,
-2,
-1,
-1,
-3,
-3,
-1,
-1,
-3,
-3,
1,
1,
0,
0,
-1,
-1,
-2,
-2,
-1,
-1,
0,
0,
-3,
-3,
-2,
-2,
-3,
-3,
-1,
-1,
0,
0,
-1,
-1,
-4,
-4,
-2,
-2,
-3,
-3,
0,
0,
-3,
-3,
-1,
-1,
0,
0,
-2,
-2,
-3,
-3,
-2,
-2,
-3,
-3,
-2,
-2,
1,
1,
-1,
-1,
-3,
-3,
-2,
-2,
-3,
-3,
-1,
-1,
-2,
-2,
-2,
-2,
-1,
-1,
-4,
-4,
-4,
-4,
-2,
-2,
-4,
-4,
-2,
-2,
-4,
-4,
-3,
-3,
-4,
-4,
-5,
-5,
-2,
-2,
-4,
-4,
-3,
-3,
-4,
-4,
-4,
-4,
-3,
-3,
-5,
-5,
-5,
-5,
-3,
-3,
-6,
-6,
-5,
-5,
-5,
-5,
-6,
-6,
-6,
-6,
-3,
-3,
-5,
-5,
-6,
-6,
-4,
-4,
-4,
-4,
-7,
-7,
-4,
-4,
-5,
-5,
-4,
-4,
-8,
-8,
-8,
-8,
-5,
-5,
-7,
-7,
-4,
-4,
-6,
-6,
-4,
-4,
-8,
-8,
-4,
-4,
-6,
-6,
-7,
-7,
-8,
-8,
-7,
-7,
-5,
-5,
-6,
-6,
-8,
-8,
-4,
-4,
-7,
-7,
-8,
-8,
-5,
-5,
-6,
-6,
-7,
-7,
-8,
-8,
-7,
-7,
-7,
-7,
-4,
-4,
-6,
-6,
-8,
-8,
-7,
-7,
-9,
-9,
-8,
-8,
-5,
-5,
-6,
-6,
-8,
-8,
-7,
-7,
-9,
-9,
-5,
-5,
-8,
-8,
-5,
-5,
-8,
-8,
-6,
-6,
-8,
-8,
-6,
-6,
-6,
-6,
-7,
-7,
-7,
-7,
-8,
-8,
-8,
-8,
-8,
-8,
-8,
-8,
-9,
-9,
-7,
-7,
-7,
-7,
-6,
-6,
-5,
-5,
-6,
-6,
-7,
-7,
-7,
-7,
-7,
-7,
-7,
-7,
-6,
-6,
-6,
-6,
-5,
-5,
-5,
-5,
-7,
-7,
-6,
-6,
-6,
-6,
-6,
-6,
-7,
-7,
-5,
-5,
-5,
-5,
-9,
-9,
-4,
-4,
-6,
-6,
-6,
-6,
-5,
-5,
-7,
-7,
-4,
-4,
-4,
-4,
-7,
-7,
-5,
-5,
-6,
-6,
-5,
-5,
-4,
-4,
-6,
-6,
-5,
-5,
-6,
-6,
-4,
-4,
-7,
-7,
-6,
-6,
-4,
-4,
-4,
-4,
-5,
-5,
-6,
-6,
-5,
-5,
-4,
-4,
-5,
-5,
-5,
-5,
-4,
-4,
-6,
-6,
-5,
-5,
-6,
-6,
-5,
-5,
-3,
-3,
-3,
-3,
-4,
-4,
-5,
-5,
-3,
-3,
-1,
-1,
-3,
-3,
-5,
-5,
-4,
-4,
-4,
-4,
-2,
-2,
-4,
-4,
-2,
-2,
-1,
-1,
-4,
-4,
-3,
-3,
-3,
-3,
-3,
-3,
-5,
-5,
-2,
-2,
0,
0,
-2,
-2,
-1,
-1,
-3,
-3,
0,
0,
-2,
-2,
-3,
-3,
-2,
-2,
-1,
-1,
0,
0,
-2,
-2,
-3,
-3,
-3,
-3,
-2,
-2,
-1,
-1,
-3,
-3,
-1,
-1,
-2,
-2,
0,
0,
0,
0,
0,
0,
-1,
-1,
-1,
-1,
-2,
-2,
-2,
-2,
-2,
-2,
-1,
-1,
-2,
-2,
0,
0,
0,
0,
-1,
-1,
0,
0,
-1,
-1,
-1,
-1,
1,
1,
-1,
-1,
1,
1,
-1,
-1,
-2,
-2,
-1,
-1,
0,
0,
0,
0,
0,
0,
0,
0,
2,
2,
1,
1,
0,
0,
-2,
-2,
1,
1,
-3,
-3,
0,
0,
0,
0,
0,
0,
0,
0,
-2,
-2,
0,
0,
1,
1,
-1,
-1,
0,
0,
0,
0,
-1,
-1,
1,
1,
-1,
-1,
0,
0,
-1,
-1,
-2,
-2,
-1,
-1,
-1,
-1,
-2,
-2,
-2,
-2,
-3,
-3,
0,
0,
-2,
-2,
-1,
-1,
-2,
-2,
-2,
-2,
-1,
-1,
-1,
-1,
-2,
-2,
-2,
-2,
-1,
-1,
-1,
-1,
-3,
-3,
0,
0,
-3,
-3,
-2,
-2,
-3,
-3,
-3,
-3,
-1,
-1,
-2,
-2,
-1,
-1,
-4,
-4,
-3,
-3,
-3,
-3,
-3,
-3,
-2,
-2,
-4,
-4,
-2,
-2,
-2,
-2,
-3,
-3,
-4,
-4,
-3,
-3,
-3,
-3,
-3,
-3,
0,
0,
-3,
-3,
-3,
-3,
-5,
-5,
-4,
-4,
-5,
-5,
-6,
-6,
-5,
-5,
-4,
-4,
-5,
-5,
-4,
-4,
-4,
-4,
-4,
-4,
-4,
-4,
-4,
-4,
-4,
-4,
-4,
-4,
-6,
-6,
-6,
-6,
-4,
-4,
-4,
-4,
-4,
-4,
-4,
-4,
-6,
-6,
-4,
-4,
-5,
-5,
-6,
-6,
-5,
-5,
-7,
-7,
-7,
-7,
-5,
-5,
-8,
-8,
-5,
-5,
-7,
-7,
-6,
-6,
-8,
-8,
-8,
-8,
-8,
-8,
-7,
-7,
-22,
10,
-6,
-6,
-8,
-8,
-8,
-8,
-7,
-7,
-7,
-7,
-7,
-7,
-6,
-6,
-9,
-9,
-5,
-5,
-8,
-8,
-22,
11,
-5,
-5,
-9,
-9,
-8,
-8,
-7,
-7,
-6,
-6,
-6,
-6,
-5,
-5,
-8,
-8,
-8,
-8,
-8,
-8,
-25,
9,
-6,
-6,
-9,
-9,
-7,
-7,
-8,
-8,
-7,
-7,
-6,
-6,
-6,
-6,
-8,
-8,
-7,
-7,
-7,
-7,
-4,
-4,
-7,
-7,
-5,
-5,
-8,
-8,
-8,
-8,
-9,
-9,
-8,
-8,
-7,
-7,
-5,
-5,
-8,
-8,
-7,
-7,
-5,
-5,
-6,
-6,
-7,
-7,
-7,
-7,
-8,
-8,
-6,
-6,
-6,
-6,
-8,
-8,
-7,
-7,
-7,
-7,
-7,
-7,
-5,
-5,
-8,
-8,
-7,
-7,
-5,
-5,
-7,
-7,
-3,
-3,
-9,
-9,
-7,
-7,
-8,
-8,
-5,
-5,
-6,
-6,
-4,
-4,
-5,
-5,
-7,
-7,
-3,
-3,
-6,
-6,
-5,
-5,
-1,
-1,
-6,
-6,
-4,
-4,
-4,
-4,
-3,
-3,
-6,
-6,
-4,
-4,
-6,
-6,
-6,
-6,
-6,
-6,
-3,
-3,
-5,
-5,
-6,
-6,
-3,
-3,
-3,
-3,
-3,
-3,
-4,
-4,
-3,
-3,
-4,
-4,
-2,
-2,
-4,
-4,
-3,
-3,
-4,
-4,
-3,
-3,
-4,
-4,
0,
0,
-4,
-4,
-3,
-3,
-4,
-4,
-3,
-3,
-3,
-3,
-3,
-3,
-4,
-4,
-3,
-3,
-1,
-1,
0,
0,
-1,
-1,
-2,
-2,
-3,
-3,
-2,
-2,
-1,
-1,
-2,
-2,
-2,
-2,
1,
1,
0,
0,
-3,
-3,
-2,
-2,
-2,
-2,
-2,
-2,
0,
0,
-1,
-1,
-3,
-3,
-3,
-3,
0,
0,
-2,
-2,
-1,
-1,
-1,
-1,
-2,
-2,
-2,
-2,
-1,
-1,
-1,
-1,
-2,
-2,
-1,
-1,
0,
0,
0,
0,
0,
0,
-2,
-2,
-1,
-1,
1,
1,
0,
0,
1,
1,
14,
-15,
-2,
-2,
0,
0,
0,
0,
0,
0,
0,
0,
1,
1,
1,
1,
-2,
-2,
2,
2,
-2,
-2,
-18,
16,
0,
0,
0,
0,
-1,
-1,
-2,
-2,
-2,
-2,
-1,
-1,
0,
0,
-2,
-2,
1,
1,
-1,
-1,
-15,
19,
-4,
-4,
1,
1,
0,
0,
-2,
-2,
0,
0,
-1,
-1,
0,
0,
-3,
-3,
0,
0,
-2,
-2,
0,
0,
-3,
-3,
-1,
-1,
-2,
-2,
-2,
-2,
-1,
-1,
-2,
-2,
-2,
-2,
0,
0,
-2,
-2,
-1,
-1,
0,
0,
-3,
-3,
-2,
-2,
-2,
-2,
-2,
-2,
-2,
-2,
-5,
-5,
-2,
-2,
-3,
-3,
-1,
-1,
-1,
-1,
-1,
-1,
-3,
-3,
-1,
-1,
-3,
-3,
-3,
-3,
-6,
-6,
-5,
-5,
-5,
-5,
-5,
-5,
-5,
-5,
-4,
-4,
-3,
-3,
-2,
-2,
-2,
-2,
-4,
-4,
-3,
-3,
-4,
-4,
-5,
-5,
-4,
-4,
-5,
-5,
-5,
-5,
-4,
-4,
-5,
-5,
-4,
-4,
-3,
-3,
-3,
-3,
-3,
-3,
-6,
-6,
-4,
-4,
-6,
-6,
-3,
-3,
-4,
-4,
-7,
-7,
-6,
-6,
-6,
-6,
-5,
-5,
-4,
-4,
-7,
-7,
-6,
-6,
-6,
-6,
-7,
-7,
-5,
-5,
-8,
-8,
-6,
-6,
-7,
-7,
-6,
-6,
-5,
-5,
-7,
-7,
-7,
-7,
-6,
-6,
-8,
-8,
-6,
-6,
-6,
-6,
-8,
-8,
-6,
-6,
-7,
-7,
-6,
-6,
-6,
-6,
-8,
-8,
-9,
-9,
-6,
-6,
-6,
-6,
-9,
-9,
-9,
-9,
-9,
-9,
-7,
-7,
-8,
-8,
-18,
6,
-3,
-16,
-9,
-9,
-7,
-7,
-6,
-6,
-6,
-6,
-8,
-8,
-6,
-6,
-9,
-9,
-6,
-6,
-9,
-9,
-24,
7,
-8,
-8,
-9,
-9,
-9,
-9,
-6,
-6,
-8,
-8,
-8,
-8,
-7,
-7,
-6,
-6,
-8,
-8,
-6,
-6,
-24,
8,
-3,
-3,
-8,
-8,
-6,
-6,
-6,
-6,
-8,
-8,
-7,
-7,
-8,
-8,
-7,
-7,
-5,
-5,
-8,
-8,
-6,
-6,
-6,
-6,
-8,
-8,
-8,
-8,
-8,
-8,
-8,
-8,
-6,
-6,
-6,
-6,
-8,
-8,
-7,
-7,
-7,
-7,
-4,
-4,
-6,
-6,
-7,
-7,
-7,
-7,
-6,
-6,
-8,
-8,
-6,
-6,
-6,
-6,
-6,
-6,
-4,
-4,
-5,
-5,
-6,
-6,
-4,
-4,
-4,
-4,
-5,
-5,
-4,
-4,
-5,
-5,
-3,
-3,
-4,
-4,
-4,
-4,
-4,
-4,
-5,
-5,
-5,
-5,
-3,
-3,
-5,
-5,
-3,
-3,
-2,
-2,
-4,
-4,
-6,
-6,
-5,
-5,
-3,
-3,
-4,
-4,
-5,
-5,
-5,
-5,
-4,
-4,
-3,
-3,
-4,
-4,
-4,
-4,
-2,
-2,
-2,
-2,
-3,
-3,
-2,
-2,
-3,
-3,
-5,
-5,
-3,
-3,
-3,
-3,
-2,
-2,
-3,
-3,
-3,
-3,
-5,
-5,
0,
0,
-2,
-2,
-3,
-3,
-2,
-2,
-2,
-2,
-1,
-1,
-2,
-2,
-1,
-1,
-1,
-1,
-1,
-1,
0,
0,
-2,
-2,
-2,
-2,
1,
1,
-3,
-3,
-1,
-1,
0,
0,
-1,
-1,
-1,
-1,
-1,
-1,
-3,
-3,
0,
0,
-3,
-3,
-1,
-1,
0,
0,
-1,
-1,
-1,
-1,
0,
0,
0,
0,
-1,
-1,
0,
0,
-2,
-2,
1,
1,
-1,
-1,
2,
2,
-3,
-3,
-2,
-2,
0,
0,
0,
0,
1,
1,
-1,
-1,
0,
0,
0,
0,
1,
1,
-1,
-1,
0,
0,
0,
0,
1,
1,
0,
0,
-2,
11,
0,
0,
-1,
-1,
-2,
-2,
-3,
-3,
0,
0,
0,
0,
-2,
-2,
-1,
-1,
0,
0,
-13,
12,
-9,
14,
1,
1,
-2,
-2,
-1,
-1,
-3,
-3,
-4,
-4,
-1,
-1,
-1,
-1,
1,
1,
1,
1,
0,
0,
-14,
13,
-3,
-3,
-2,
-2,
-2,
-2,
0,
0,
0,
0,
0,
0,
-2,
-2,
-1,
-1,
-2,
-2,
-2,
-2,
-4,
-4,
-2,
-2,
-3,
-3,
-2,
-2,
-1,
-1,
-1,
-1,
-2,
-2,
-2,
-2,
-1,
-1,
-1,
-1,
-4,
-4,
-2,
-2,
-2,
-2,
-1,
-1,
-3,
-3,
-3,
-3,
-4,
-4,
-4,
-4,
-4,
-4,
-4,
-4,
-2,
-2,
-5,
-5,
-4,
-4,
-3,
-3,
-2,
-2,
-4,
-4,
-4,
-4,
-5,
-5,
-5,
-5,
-3,
-3,
-4,
-4,
-3,
-3,
-3,
-3,
-5,
-5,
-5,
-5,
-6,
-6,
-5,
-5,
-7,
-7,
-4,
-4,
-5,
-5,
-6,
-6,
-8,
-8,
-6,
-6,
-6,
-6,
-3,
-3,
-5,
-5,
-3,
-3,
-5,
-5,
-8,
-8,
-6,
-6,
-5,
-5,
-5,
-5,
-5,
-5,
-9,
-9,
-7,
-7,
-6,
-6,
-6,
-6,
-8,
-8,
-5,
-5,
-6,
-6,
-6,
-6,
-8,
-8,
-7,
-7,
-6,
-6,
-5,
-5,
-6,
-6,
-5,
-5,
-8,
-8,
-6,
-6,
-6,
-6,
-7,
-7,
-5,
-5,
-7,
-7,
-8,
-8,
-7,
-7,
-8,
-8,
-9,
-9,
-7,
-7,
-8,
-8,
-7,
-7,
-6,
-6,
-6,
-6,
-9,
-9,
-8,
-8,
-8,
-8,
-7,
-7,
-7,
-7,
-7,
-7,
-8,
-8,
-7,
-7,
-8,
-8,
-8,
-8,
-7,
5,
-7,
-7,
-8,
-8,
-7,
-7,
-5,
-5,
-8,
-8,
-10,
-10,
-5,
-5,
-8,
-8,
-4,
-4,
-8,
-8,
7,
-20,
-7,
-7,
-8,
-8,
-9,
-9,
-8,
-8,
-7,
-7,
-6,
-6,
-5,
-5,
-8,
-8,
-6,
-6,
-7,
-7,
-19,
8,
-5,
-5,
-5,
-5,
-4,
-4,
-7,
-7,
-7,
-7,
-4,
-4,
-6,
-6,
-6,
-6,
-4,
-4,
-7,
-7,
-6,
-6,
-6,
-6,
-4,
-4,
-7,
-7,
-5,
-5,
-7,
-7,
-6,
-6,
-4,
-4,
-4,
-4,
-7,
-7,
-3,
-3,
-4,
-4,
-5,
-5,
-4,
-4,
-6,
-6,
-2,
-2,
-7,
-7,
-3,
-3,
-6,
-6,
-4,
-4,
-6,
-6,
-5,
-5,
-5,
-5,
-6,
-6,
-5,
-5,
-4,
-4,
-2,
-2,
-4,
-4,
-4,
-4,
-3,
-3,
-4,
-4,
-4,
-4,
-1,
-1,
-2,
-2,
-4,
-4,
-1,
-1,
-4,
-4,
-4,
-4,
-2,
-2,
-3,
-3,
-2,
-2,
-3,
-3,
-3,
-3,
-5,
-5,
-3,
-3,
-4,
-4,
-2,
-2,
-4,
-4,
-1,
-1,
0,
0,
-2,
-2,
-3,
-3,
-2,
-2,
-1,
-1,
-2,
-2,
-1,
-1,
-1,
-1,
-2,
-2,
0,
0,
-1,
-1,
0,
0,
-4,
-4,
-2,
-2,
-2,
-2,
-1,
-1,
-1,
-1,
0,
0,
-1,
-1,
1,
1,
-1,
-1,
-2,
-2,
-1,
-1,
0,
0,
1,
1,
-1,
-1,
1,
1,
-2,
-2,
0,
0,
-1,
-1,
-1,
-1,
-2,
-2,
-1,
-1,
-1,
-1,
-2,
-2,
0,
0,
-1,
-1,
0,
0,
1,
1,
0,
0,
-2,
-2,
-1,
-1,
0,
0,
0,
0,
0,
0,
1,
1,
-2,
-2,
0,
0,
-2,
-2,
-1,
-1,
1,
1,
-3,
-3,
-2,
-2,
-2,
-2,
1,
1,
-1,
-1,
1,
1,
-1,
-1,
-1,
-1,
-1,
-1,
-2,
-2,
1,
1,
1,
1,
-1,
-1,
-3,
-3,
-1,
-1,
-1,
-1,
-3,
-3,
-2,
-2,
-2,
-2,
-1,
-1,
-17,
11,
-3,
-3,
-1,
-1,
-1,
-1,
-3,
-3,
-2,
-2,
-4,
-4,
0,
0,
0,
0,
-2,
-2,
-2,
-2,
-15,
12,
1,
1,
-5,
-5,
-4,
-4,
-2,
-2,
-4,
-4,
0,
0,
-4,
-4,
-2,
-2,
-4,
-4,
-4,
-4,
-4,
-4,
-3,
-3,
-5,
-5,
-4,
-4,
-4,
-4,
-3,
-3,
-5,
-5,
-5,
-5,
-6,
-6,
-6,
-6,
-4,
-4,
-3,
-3,
-4,
-4,
-4,
-4,
-4,
-4,
-3,
-3,
-4,
-4,
-7,
-7,
-4,
-4,
-5,
-5,
-4,
-4,
-6,
-6,
-5,
-5,
-6,
-6,
-5,
-5,
-4,
-4,
-5,
-5,
-6,
-6,
-7,
-7,
-5,
-5,
-3,
-3,
-6,
-6,
-5,
-5,
-5,
-5,
-4,
-4,
-5,
-5,
-7,
-7,
-7,
-7,
-8,
-8,
-7,
-7,
-7,
-7,
-7,
-7,
-6,
-6,
-8,
-8,
-6,
-6,
-9,
-9,
-7,
-7,
-7,
-7,
-7,
-7,
-6,
-6,
-7,
-7,
-8,
-8,
-7,
-7,
-7,
-7,
-8,
-8,
-9,
-9,
-8,
-8,
-6,
-6,
-8,
-8,
-7,
-7,
-6,
-6,
-8,
-8,
-5,
-5,
-10,
-10,
-9,
-9,
-7,
-7,
-9,
-9,
-7,
-7,
-7,
-7,
-7,
-7,
-8,
-8,
-8,
-8,
-6,
-6,
-8,
-8,
-8,
-8,
-6,
-6,
-8,
-8,
-6,
-6,
-7,
-7,
-7,
-7,
-7,
-7,
-7,
-7,
-6,
-6,
-8,
-8,
-6,
-6,
-7,
-7,
-4,
-4,
-7,
-7,
-7,
-7,
-9,
4,
-5,
-5,
-5,
-5,
-7,
-7,
-5,
-5,
-6,
-6,
-6,
-6,
-4,
-4,
-5,
-5,
-8,
-8,
-5,
-5,
-8,
4,
-6,
-6,
-7,
-7,
-6,
-6,
-8,
-8,
-4,
-4,
-4,
-4,
-7,
-7,
-6,
-6,
-4,
-4,
-5,
-5,
-17,
8,
-5,
-5,
-5,
-5,
-6,
-6,
-6,
-6,
-5,
-5,
-4,
-4,
-5,
-5,
-7,
-7,
-6,
-6,
-6,
-6,
-5,
-5,
-6,
-6,
-3,
-3,
-4,
-4,
-4,
-4,
-4,
-4,
-4,
-4,
-5,
-5,
-2,
-2,
-4,
-4,
-3,
-3,
-6,
-6,
-3,
-3,
-5,
-5,
-4,
-4,
-3,
-3,
-3,
-3,
-6,
-6,
-3,
-3,
-2,
-2,
-3,
-3,
-3,
-3,
-2,
-2,
-4,
-4,
-4,
-4,
-1,
-1,
-4,
-4,
-2,
-2,
-3,
-3,
-1,
-1,
-1,
-1,
-3,
-3,
-1,
-1,
-1,
-1,
-3,
-3,
-1,
-1,
-3,
-3,
-1,
-1,
-2,
-2,
0,
0,
-1,
-1,
-2,
-2,
0,
0,
1,
1,
0,
0,
-4,
-4,
-1,
-1,
-3,
-3,
-2,
-2,
-1,
-1,
-1,
-1,
-1,
-1,
1,
1,
-2,
-2,
-3,
-3,
-1,
-1,
-1,
-1,
1,
1,
-1,
-1,
0,
0,
-2,
-2,
0,
0,
0,
0,
-2,
-2,
1,
1,
0,
0,
1,
1,
-1,
-1,
-1,
-1,
0,
0,
-1,
-1,
2,
2,
2,
2,
-1,
-1,
1,
1,
1,
1,
-1,
-1,
0,
0,
0,
0,
-2,
-2,
-3,
-3,
-1,
-1,
-1,
-1,
0,
0,
-1,
-1,
-1,
-1,
-3,
-3,
-1,
-1,
-1,
-1,
1,
1,
-2,
-2,
0,
0,
0,
0,
-2,
-2,
-1,
-1,
0,
0,
-2,
-2,
-1,
-1,
-1,
-1,
0,
0,
-2,
-2,
1,
1,
-2,
-2,
0,
0,
0,
0,
-2,
-2,
-3,
-3,
-2,
-2,
1,
1,
-2,
-2,
-2,
-2,
1,
1,
-5,
-5,
-3,
-3,
-2,
-2,
-4,
-4,
-3,
-3,
-3,
-3,
-2,
-2,
0,
0,
-5,
-5,
-4,
-4,
-3,
-3,
-2,
-2,
-3,
-3,
-4,
-4,
-5,
-5,
-4,
-4,
-6,
-6,
-5,
-5,
-4,
-4,
-2,
-2,
-2,
-2,
-2,
-2,
-5,
-5,
-3,
-3,
-6,
-6,
-6,
-6,
-3,
-3,
-3,
-3,
-4,
-4,
-3,
-3,
-4,
-4,
-3,
-3,
-5,
-5,
-4,
-4,
-4,
-4,
-5,
-5,
-6,
-6,
-5,
-5,
-7,
-7,
-5,
-5,
-7,
-7,
-5,
-5,
-6,
-6,
-6,
-6,
-8,
-8,
-7,
-7,
-6,
-6,
-4,
-4,
-6,
-6,
-7,
-7,
-4,
-4,
-6,
-6,
-7,
-7,
-6,
-6,
-6,
-6,
-5,
-5,
-5,
-5,
-6,
-6,
-7,
-7,
-7,
-7,
-6,
-6,
-7,
-7,
-7,
-7,
-8,
-8,
-8,
-8,
-7,
-7,
-6,
-6,
-6,
-6,
-6,
-6,
-6,
-6,
-7,
-7,
-7,
-7,
-7,
-7,
-6,
-6,
-9,
-9,
-5,
-5,
-7,
-7,
-8,
-8,
-7,
-7,
-7,
-7,
-9,
-9,
-9,
-9,
-7,
-7,
-7,
-7,
-5,
-5,
-7,
-7,
-8,
-8,
-7,
-7,
-7,
-7,
-8,
-8,
-5,
-5,
-7,
-7,
-9,
-9,
-8,
-8,
-7,
-7,
-7,
-7,
-8,
-8,
-8,
-8,
-7,
-7,
-8,
-8,
-5,
-5,
-6,
-6,
-6,
-6,
-7,
-7,
-7,
-7,
-8,
-8,
-7,
-7,
-5,
-5,
-8,
-8,
-7,
-7,
-7,
-7,
-5,
-5,
-8,
-8,
-7,
-7,
-7,
-7,
-5,
-5,
-6,
-6,
-6,
-6,
-6,
-6,
-7,
-7,
-6,
-6,
-7,
-7,
-7,
-7,
-6,
-6,
-6,
-6,
-6,
-6,
-6,
-6,
-7,
-7,
-5,
-5,
-5,
-5,
-6,
-6,
-5,
-5,
-5,
-5,
-5,
-5,
-5,
-5,
-4,
-4,
-5,
-5,
-5,
-5,
-4,
-4,
-6,
-6,
-4,
-4,
-3,
-3,
-5,
-5,
-2,
-2,
-3,
-3,
-5,
-5,
-5,
-5,
-4,
-4,
-5,
-5,
-5,
-5,
-3,
-3,
-6,
-6,
-3,
-3,
-3,
-3,
0,
0,
-4,
-4,
-4,
-4,
-1,
-1,
-2,
-2,
-3,
-3,
-2,
-2,
-4,
-4,
-4,
-4,
-3,
-3,
-2,
-2,
-2,
-2,
-2,
-2,
-4,
-4,
-1,
-1,
-3,
-3,
-2,
-2,
-3,
-3,
-1,
-1,
-3,
-3,
-2,
-2,
0,
0,
-1,
-1,
-4,
-4,
-1,
-1,
-2,
-2,
-1,
-1,
0,
0,
-1,
-1,
-1,
-1,
-2,
-2,
-1,
-1,
-2,
-2,
-2,
-2,
-1,
-1,
1,
1,
1,
1,
0,
0,
0,
0,
-1,
-1,
0,
0,
-1,
-1,
1,
1,
0,
0,
-1,
-1,
-1,
-1,
-3,
-3,
-1,
-1,
0,
0,
-1,
-1,
-1,
-1,
0,
0,
-2,
-2,
-2,
-2,
-1,
-1,
1,
1,
0,
0,
-1,
-1,
0,
0,
-1,
-1,
0,
0,
0,
0,
-2,
-2,
0,
0,
-1,
-1,
-1,
-1,
1,
1,
0,
0,
0,
0,
1,
1,
-4,
-4,
-1,
-1,
0,
0,
-1,
-1,
-3,
-3,
0,
0,
-2,
-2,
0,
0,
-2,
-2,
0,
0,
-2,
-2,
-4,
-4,
-2,
-2,
0,
0,
0,
0,
-2,
-2,
-1,
-1,
-1,
-1,
-1,
-1,
0,
0,
-2,
-2,
-3,
-3,
-1,
-1,
-3,
-3,
-2,
-2,
-2,
-2,
-3,
-3,
-1,
-1,
-3,
-3,
-2,
-2,
0,
0,
-2,
-2,
0,
0,
-3,
-3,
-3,
-3,
-2,
-2,
-3,
-3,
-5,
-5,
-4,
-4,
-3,
-3,
-4,
-4,
-4,
-4,
-4,
-4,
-2,
-2,
-3,
-3,
-4,
-4,
-4,
-4,
-3,
-3,
-4,
-4,
-4,
-4,
-5,
-5,
-4,
-4,
-5,
-5,
-5,
-5,
-3,
-3,
-4,
-4,
-4,
-4,
-4,
-4,
-6,
-6,
-5,
-5,
-6,
-6,
-5,
-5,
-6,
-6,
-6,
-6,
-5,
-5,
-6,
-6,
-6,
-6,
-4,
-4,
-5,
-5,
-5,
-5,
-5,
-5,
-5,
-5,
-5,
-5,
-6,
-6,
-4,
-4,
-6,
-6,
-6,
-6,
-7,
-7,
-8,
-8,
-4,
-4,
-7,
-7,
-5,
-5,
-6,
-6,
-7,
-7,
-7,
-7,
-7,
-7,
-7,
-7,
-8,
-8,
-6,
-6,
-7,
-7,
-9,
-9,
-6,
-6,
-7,
-7,
-6,
-6,
-7,
-7,
-7,
-7,
-7,
-7,
-7,
-7,
-7,
-7,
-6,
-6,
-7,
-7,
-7,
-7,
-7,
-7,
-9,
-9,
-8,
-8,
-7,
-7,
-8,
-8,
-9,
-9,
-7,
-7,
-6,
-6,
-9,
-9,
-7,
-7,
-8,
-8,
-6,
-6,
-8,
-8,
-6,
-6,
-7,
-7,
-8,
-8,
-8,
-8,
-5,
-5,
-7,
-7,
-7,
-7,
-5,
-5,
-7,
-7,
-8,
-8,
-7,
-7,
-7,
-7,
-6,
-6,
-7,
-7,
-12,
-12,
-7,
-7,
-7,
-7,
-6,
-6,
-7,
-7,
-5,
-5,
-9,
-9,
-7,
-7,
-6,
-6,
-6,
-6,
-6,
-6,
-9,
-9,
-4,
-4,
-8,
-8,
-5,
-5,
-7,
-7,
-6,
-6,
-7,
-7,
-5,
-5,
-5,
-5,
-5,
-5,
-6,
-6,
-4,
-4,
-7,
-7,
-6,
-6,
-5,
-5,
-4,
-4,
-7,
-7,
-8,
-8,
-4,
-4,
-6,
-6,
-8,
-8,
-4,
-4,
-5,
-5,
-4,
-4,
-4,
-4,
-4,
-4,
-5,
-5,
-5,
-5,
-4,
-4,
-3,
-3,
-3,
-3,
-2,
-2,
-4,
-4,
-4,
-4,
-5,
-5,
-1,
-1,
-3,
-3,
-4,
-4,
-5,
-5,
-3,
-3,
-4,
-4,
-5,
-5,
-5,
-5,
-3,
-3,
-3,
-3,
-2,
-2,
-3,
-3,
-1,
-1,
-1,
-1,
-4,
-4,
0,
0,
-3,
-3,
-1,
-1,
1,
1,
-3,
-3,
-3,
-3,
-3,
-3,
-4,
-4,
1,
1,
-4,
-4,
-1,
-1,
-1,
-1,
0,
0,
-4,
-4,
-2,
-2,
0,
0,
-1,
-1,
0,
0,
-3,
-3,
-2,
-2,
-2,
-2,
1,
1,
0,
0,
-1,
-1,
-1,
-1,
-1,
-1,
-2,
-2,
-1,
-1,
0,
0,
1,
1,
0,
0,
-2,
-2,
0,
0,
-2,
-2,
-3,
-3,
-2,
-2,
0,
0,
0,
0,
-3,
-3,
-1,
-1,
-2,
-2,
-2,
-2,
-1,
-1,
0,
0,
-1,
-1,
-1,
-1,
0,
0,
-1,
-1,
-1,
-1,
-1,
-1,
-1,
-1,
-1,
-1,
0,
0,
-1,
-1,
0,
0,
-1,
-1,
0,
0,
0,
0,
-1,
-1,
-1,
-1,
-1,
-1,
0,
0,
-1,
-1,
0,
0,
0,
0,
0,
0,
-3,
-3,
-3,
-3,
-1,
-1,
-2,
-2,
-3,
-3,
-2,
-2,
-1,
-1,
-1,
-1,
0,
0,
-5,
-5,
-2,
-2,
-2,
-2,
-2,
-2,
-3,
-3,
-2,
-2,
1,
1,
-1,
-1,
-2,
-2,
-2,
-2,
-3,
-3,
-1,
-1,
-1,
-1,
-3,
-3,
-3,
-3,
-3,
-3,
-3,
-3,
-1,
-1,
-5,
-5,
-3,
-3,
-3,
-3,
-2,
-2,
-3,
-3,
-4,
-4,
-2,
-2,
-2,
-2,
-3,
-3,
-2,
-2,
-4,
-4,
-6,
-6,
-3,
-3,
-4,
-4,
-2,
-2,
-2,
-2,
-4,
-4,
-4,
-4,
-6,
-6,
-6,
-6,
-3,
-3,
-3,
-3,
-5,
-5,
-6,
-6,
-4,
-4,
-3,
-3,
-5,
-5,
-5,
-5,
-5,
-5,
-7,
-7,
-7,
-7,
-6,
-6,
-6,
-6,
-6,
-6,
-4,
-4,
-5,
-5,
-8,
-8,
-6,
-6,
-6,
-6,
-5,
-5,
-8,
-8,
-5,
-5,
-5,
-5,
-5,
-5,
-5,
-5,
-8,
-8,
-6,
-6,
-9,
-9,
-6,
-6,
-6,
-6,
-6,
-6,
-6,
-6,
-8,
-8,
-5,
-5,
-5,
-5,
-6,
-6,
-7,
-7,
-9,
-9,
-8,
-8,
-8,
-8,
-5,
-5,
-6,
-6,
-8,
-8,
-10,
-10,
-5,
-5,
-9,
-9,
-7,
-7,
-7,
-7,
-7,
-7,
-7,
-7,
-8,
-8,
-10,
-10,
-8,
-8,
-9,
-9,
-7,
-7,
-7,
-7,
-7,
-7,
-8,
-8,
-7,
-7,
-8,
-8,
-5,
-5,
-8,
-8,
-8,
-8,
-7,
-7,
-5,
-5,
-8,
-8,
-6,
-6,
-9,
-9,
-8,
-8,
-5,
-5,
-8,
-8,
-6,
-6,
-7,
-7,
-6,
-6,
-9,
-9,
-9,
-9,
-7,
-7,
-7,
-7,
-6,
-6,
-7,
-7,
-9,
-9,
-6,
-6,
-8,
-8,
-6,
-6,
-7,
-7,
-8,
-8,
-6,
-6,
-6,
-6,
-5,
-5,
-6,
-6,
-7,
-7,
-5,
-5,
-7,
-7,
-7,
-7,
-7,
-7,
-6,
-6,
-6,
-6,
-5,
-5,
-6,
-6,
-6,
-6,
-8,
-8,
-5,
-5,
-5,
-5,
-6,
-6,
-5,
-5,
-5,
-5,
-3,
-3,
-4,
-4,
-3,
-3,
-4,
-4,
-5,
-5,
-5,
-5,
-4,
-4,
-3,
-3,
-6,
-6,
-4,
-4,
-3,
-3,
-3,
-3,
-5,
-5,
-6,
-6,
-2,
-2,
-4,
-4,
-6,
-6,
-5,
-5,
-5,
-5,
-3,
-3,
-4,
-4,
-2,
-2,
-5,
-5,
-1,
-1,
-4,
-4,
-3,
-3,
-4,
-4,
-3,
-3,
-3,
-3,
-3,
-3,
-1,
-1,
-4,
-4,
-1,
-1,
-3,
-3,
-3,
-3,
-1,
-1,
-1,
-1,
-3,
-3,
1,
1,
-2,
-2,
-4,
-4,
-2,
-2,
-3,
-3,
-1,
-1,
-2,
-2,
-3,
-3,
1,
1,
-1,
-1,
-1,
-1,
-2,
-2,
-1,
-1,
-2,
-2,
-1,
-1,
0,
0,
2,
2,
-2,
-2,
0,
0,
-1,
-1,
0,
0,
-3,
-3,
-2,
-2,
0,
0,
0,
0,
-2,
-2,
0,
0,
-1,
-1,
-1,
-1,
-1,
-1,
2,
2,
0,
0,
0,
0,
0,
