2-diodenkennlinien/data/ALL0009/A0009CH1.CSV

Memory Length,4000,
Trigger Level,2.23990e+01,
Source,CH1,
Probe,1.0X,
Vertical Units,V,
Vertical Scale,2.00000e+00,
Vertical Position,-1.80000e+01,
Horizontal Units,S,
Horizontal Scale,1.00000e-02,
Horizontal Position,4.0000000e-04,
Horizontal Mode,Main,
Sampling Period,4.00000e-05,
Firmware,V1.14,
Time, ,
Mode,Fast,
Waveform Data,
291,
291,
291,
292,
292,
293,
293,
294,
294,
296,
296,
296,
296,
297,
297,
298,
298,
299,
299,
299,
299,
299,
299,
300,
300,
300,
300,
300,
300,
300,
300,
300,
300,
300,
300,
300,
300,
299,
299,
298,
298,
297,
297,
296,
296,
295,
295,
294,
294,
292,
292,
292,
292,
291,
291,
290,
290,
288,
288,
288,
288,
286,
286,
285,
285,
284,
284,
284,
284,
283,
283,
282,
282,
281,
281,
280,
280,
278,
278,
278,
278,
276,
276,
276,
276,
274,
274,
274,
274,
273,
273,
272,
272,
271,
271,
270,
270,
269,
269,
268,
268,
267,
267,
266,
266,
265,
265,
265,
265,
263,
263,
262,
262,
261,
261,
260,
260,
260,
260,
258,
258,
258,
258,
257,
257,
256,
256,
255,
255,
254,
254,
253,
253,
252,
252,
252,
252,
250,
250,
250,
250,
248,
248,
248,
248,
247,
247,
246,
246,
245,
245,
244,
244,
244,
244,
243,
243,
242,
242,
241,
241,
240,
240,
240,
240,
238,
238,
237,
237,
237,
237,
236,
236,
234,
234,
235,
235,
234,
234,
232,
232,
232,
232,
232,
232,
230,
230,
229,
229,
228,
228,
227,
227,
226,
226,
225,
225,
225,
225,
224,
224,
222,
222,
222,
222,
222,
222,
221,
221,
220,
220,
220,
220,
219,
219,
218,
218,
217,
217,
216,
216,
216,
216,
214,
214,
214,
214,
213,
213,
212,
212,
212,
212,
211,
211,
209,
209,
209,
209,
208,
208,
208,
208,
207,
207,
206,
206,
206,
206,
205,
205,
204,
204,
203,
203,
203,
203,
202,
202,
202,
202,
200,
200,
200,
200,
199,
199,
198,
198,
197,
197,
196,
196,
196,
196,
196,
196,
194,
194,
193,
193,
193,
193,
192,
192,
192,
192,
191,
191,
190,
190,
190,
190,
189,
189,
188,
188,
188,
188,
187,
187,
186,
186,
186,
186,
185,
185,
184,
184,
184,
184,
183,
183,
182,
182,
181,
181,
180,
180,
180,
180,
179,
179,
179,
179,
178,
178,
177,
177,
177,
177,
176,
176,
176,
176,
175,
175,
175,
175,
174,
174,
173,
173,
173,
173,
172,
172,
171,
171,
171,
171,
169,
169,
170,
170,
169,
169,
168,
168,
168,
168,
167,
167,
166,
166,
166,
166,
165,
165,
164,
164,
164,
164,
164,
164,
163,
163,
162,
162,
163,
163,
161,
161,
161,
161,
160,
160,
159,
159,
160,
160,
158,
158,
157,
157,
158,
158,
156,
156,
156,
156,
156,
156,
156,
156,
154,
154,
154,
154,
154,
154,
153,
153,
153,
153,
152,
152,
151,
151,
151,
151,
150,
150,
150,
150,
149,
149,
149,
149,
148,
148,
148,
148,
148,
148,
148,
148,
148,
148,
150,
150,
155,
155,
160,
160,
166,
166,
172,
172,
178,
178,
186,
186,
192,
192,
198,
198,
205,
205,
212,
212,
220,
220,
224,
224,
228,
228,
232,
232,
237,
237,
242,
242,
248,
248,
251,
251,
254,
254,
258,
258,
264,
264,
266,
266,
271,
271,
274,
274,
278,
278,
281,
281,
282,
282,
284,
284,
288,
288,
289,
289,
290,
290,
292,
292,
293,
293,
294,
294,
295,
295,
296,
296,
297,
297,
298,
298,
298,
298,
300,
300,
300,
300,
300,
300,
300,
300,
300,
300,
300,
300,
300,
300,
300,
300,
300,
300,
299,
299,
298,
298,
296,
296,
296,
296,
296,
296,
293,
293,
293,
293,
292,
292,
291,
291,
290,
290,
288,
288,
288,
288,
286,
286,
285,
285,
285,
285,
284,
284,
283,
283,
282,
282,
280,
280,
280,
280,
279,
279,
278,
278,
276,
276,
276,
276,
275,
275,
273,
273,
272,
272,
272,
272,
271,
271,
270,
270,
269,
269,
268,
268,
267,
267,
266,
266,
265,
265,
265,
265,
263,
263,
262,
262,
261,
261,
260,
260,
260,
260,
258,
258,
257,
257,
256,
256,
256,
256,
256,
256,
254,
254,
253,
253,
252,
252,
252,
252,
250,
250,
250,
250,
249,
249,
248,
248,
247,
247,
246,
246,
246,
246,
244,
244,
244,
244,
242,
242,
242,
242,
241,
241,
240,
240,
239,
239,
238,
238,
237,
237,
236,
236,
235,
235,
234,
234,
234,
234,
233,
233,
233,
233,
232,
232,
230,
230,
230,
230,
229,
229,
228,
228,
227,
227,
226,
226,
226,
226,
224,
224,
225,
225,
223,
223,
222,
222,
221,
221,
221,
221,
220,
220,
220,
220,
218,
218,
218,
218,
217,
217,
216,
216,
216,
216,
214,
214,
214,
214,
212,
212,
212,
212,
212,
212,
210,
210,
210,
210,
210,
210,
209,
209,
208,
208,
206,
206,
206,
206,
205,
205,
204,
204,
204,
204,
204,
204,
203,
203,
202,
202,
201,
201,
200,
200,
199,
199,
199,
199,
198,
198,
197,
197,
196,
196,
196,
196,
195,
195,
194,
194,
194,
194,
192,
192,
192,
192,
192,
192,
191,
191,
190,
190,
189,
189,
188,
188,
188,
188,
188,
188,
187,
187,
186,
186,
185,
185,
185,
185,
184,
184,
184,
184,
183,
183,
183,
183,
180,
180,
181,
181,
181,
181,
179,
179,
179,
179,
179,
179,
178,
178,
177,
177,
176,
176,
176,
176,
176,
176,
175,
175,
173,
173,
173,
173,
172,
172,
172,
172,
171,
171,
171,
171,
170,
170,
170,
170,
169,
169,
168,
168,
168,
168,
167,
167,
167,
167,
166,
166,
165,
165,
164,
164,
165,
165,
164,
164,
162,
162,
163,
163,
162,
162,
162,
162,
160,
160,
160,
160,
160,
160,
159,
159,
158,
158,
158,
158,
157,
157,
157,
157,
156,
156,
156,
156,
155,
155,
155,
155,
154,
154,
154,
154,
153,
153,
153,
153,
152,
152,
152,
152,
151,
151,
150,
150,
150,
150,
149,
149,
148,
148,
148,
148,
148,
148,
147,
147,
147,
147,
148,
148,
151,
151,
154,
154,
160,
160,
166,
166,
172,
172,
178,
178,
185,
185,
193,
193,
200,
200,
208,
208,
212,
212,
219,
219,
225,
225,
230,
230,
234,
234,
237,
237,
242,
242,
246,
246,
250,
250,
253,
253,
258,
258,
262,
262,
268,
268,
272,
272,
275,
275,
276,
276,
281,
281,
284,
284,
285,
285,
288,
288,
289,
289,
290,
290,
292,
292,
292,
292,
294,
294,
295,
295,
296,
296,
296,
296,
298,
298,
298,
298,
299,
299,
300,
300,
300,
300,
300,
300,
300,
300,
300,
300,
300,
300,
300,
300,
300,
300,
299,
299,
298,
298,
297,
297,
296,
296,
296,
296,
295,
295,
292,
292,
292,
292,
291,
291,
290,
290,
289,
289,
287,
287,
287,
287,
286,
286,
284,
284,
284,
284,
283,
283,
281,
281,
281,
281,
280,
280,
278,
278,
278,
278,
276,
276,
275,
275,
275,
275,
274,
274,
272,
272,
272,
272,
271,
271,
270,
270,
269,
269,
268,
268,
267,
267,
266,
266,
265,
265,
264,
264,
263,
263,
262,
262,
262,
262,
260,
260,
260,
260,
258,
258,
257,
257,
256,
256,
256,
256,
255,
255,
254,
254,
253,
253,
252,
252,
251,
251,
250,
250,
249,
249,
249,
249,
248,
248,
247,
247,
246,
246,
245,
245,
244,
244,
244,
244,
242,
242,
241,
241,
241,
241,
239,
239,
239,
239,
239,
239,
238,
238,
236,
236,
235,
235,
235,
235,
235,
235,
233,
233,
232,
232,
232,
232,
231,
231,
230,
230,
229,
229,
228,
228,
227,
227,
226,
226,
226,
226,
224,
224,
224,
224,
223,
223,
222,
222,
222,
222,
221,
221,
220,
220,
219,
219,
219,
219,
218,
218,
217,
217,
216,
216,
216,
216,
215,
215,
213,
213,
213,
213,
212,
212,
212,
212,
211,
211,
210,
210,
209,
209,
208,
208,
208,
208,
206,
206,
206,
206,
206,
206,
205,
205,
204,
204,
204,
204,
203,
203,
202,
202,
201,
201,
201,
201,
200,
200,
199,
199,
197,
197,
197,
197,
197,
197,
196,
196,
195,
195,
194,
194,
194,
194,
193,
193,
192,
192,
191,
191,
191,
191,
190,
190,
189,
189,
189,
189,
188,
188,
186,
186,
187,
187,
186,
186,
186,
186,
185,
185,
184,
184,
183,
183,
183,
183,
182,
182,
181,
181,
180,
180,
180,
180,
180,
180,
179,
179,
178,
178,
178,
178,
176,
176,
176,
176,
176,
176,
175,
175,
174,
174,
174,
174,
173,
173,
172,
172,
172,
172,
172,
172,
171,
171,
170,
170,
170,
170,
169,
169,
168,
168,
168,
168,
167,
167,
167,
167,
166,
166,
166,
166,
165,
165,
164,
164,
164,
164,
162,
162,
163,
163,
161,
161,
161,
161,
161,
161,
160,
160,
160,
160,
159,
159,
158,
158,
157,
157,
157,
157,
156,
156,
156,
156,
156,
156,
156,
156,
155,
155,
155,
155,
153,
153,
153,
153,
152,
152,
152,
152,
152,
152,
151,
151,
150,
150,
149,
149,
149,
149,
149,
149,
148,
148,
148,
148,
147,
147,
147,
147,
148,
148,
152,
152,
156,
156,
160,
160,
166,
166,
171,
171,
177,
177,
185,
185,
190,
190,
200,
200,
206,
206,
212,
212,
219,
219,
224,
224,
230,
230,
234,
234,
238,
238,
243,
243,
247,
247,
250,
250,
254,
254,
258,
258,
263,
263,
267,
267,
271,
271,
274,
274,
277,
277,
280,
280,
282,
282,
286,
286,
288,
288,
288,
288,
290,
290,
292,
292,
293,
293,
294,
294,
295,
295,
296,
296,
297,
297,
298,
298,
299,
299,
299,
299,
300,
300,
300,
300,
300,
300,
300,
300,
300,
300,
300,
300,
300,
300,
300,
300,
299,
299,
298,
298,
297,
297,
296,
296,
295,
295,
294,
294,
292,
292,
292,
292,
291,
291,
290,
290,
288,
288,
288,
288,
287,
287,
285,
285,
285,
285,
284,
284,
282,
282,
282,
282,
281,
281,
280,
280,
279,
279,
277,
277,
276,
276,
276,
276,
275,
275,
272,
272,
273,
273,
272,
272,
271,
271,
270,
270,
269,
269,
268,
268,
267,
267,
266,
266,
266,
266,
264,
264,
263,
263,
262,
262,
261,
261,
260,
260,
260,
260,
259,
259,
257,
257,
256,
256,
255,
255,
255,
255,
254,
254,
253,
253,
252,
252,
252,
252,
251,
251,
250,
250,
249,
249,
248,
248,
247,
247,
246,
246,
245,
245,
245,
245,
244,
244,
242,
242,
242,
242,
240,
240,
240,
240,
239,
239,
238,
238,
237,
237,
237,
237,
236,
236,
234,
234,
234,
234,
233,
233,
232,
232,
232,
232,
231,
231,
230,
230,
229,
229,
228,
228,
227,
227,
226,
226,
226,
226,
224,
224,
224,
224,
224,
224,
222,
222,
222,
222,
220,
220,
220,
220,
219,
219,
219,
219,
218,
218,
216,
216,
216,
216,
216,
216,
216,
216,
214,
214,
213,
213,
212,
212,
212,
212,
211,
211,
210,
210,
209,
209,
208,
208,
208,
208,
207,
207,
206,
206,
206,
206,
205,
205,
204,
204,
204,
204,
202,
202,
201,
201,
201,
201,
200,
200,
200,
200,
199,
199,
198,
198,
198,
198,
196,
196,
196,
196,
195,
195,
194,
194,
194,
194,
193,
193,
192,
192,
191,
191,
191,
191,
190,
190,
189,
189,
189,
189,
188,
188,
187,
187,
187,
187,
186,
186,
186,
186,
185,
185,
184,
184,
184,
184,
183,
183,
182,
182,
181,
181,
181,
181,
180,
180,
180,
180,
179,
179,
178,
178,
177,
177,
177,
177,
176,
176,
176,
176,
175,
175,
174,
174,
174,
174,
173,
173,
173,
173,
172,
172,
171,
171,
171,
171,
170,
170,
170,
170,
169,
169,
168,
168,
168,
168,
167,
167,
166,
166,
166,
166,
166,
166,
164,
164,
164,
164,
164,
164,
163,
163,
162,
162,
162,
162,
161,
161,
160,
160,
160,
160,
160,
160,
159,
159,
158,
158,
158,
158,
157,
157,
156,
156,
156,
156,
156,
156,
155,
155,
154,
154,
154,
154,
154,
154,
154,
154,
152,
152,
151,
151,
152,
152,
150,
150,
150,
150,
150,
150,
150,
150,
148,
148,
148,
148,
148,
148,
148,
148,
148,
148,
148,
148,
151,
151,
155,
155,
160,
160,
164,
164,
172,
172,
178,
178,
187,
187,
193,
193,
199,
199,
206,
206,
214,
214,
220,
220,
224,
224,
228,
228,
235,
235,
239,
239,
243,
243,
247,
247,
252,
252,
256,
256,
260,
260,
262,
262,
267,
267,
272,
272,
275,
275,
278,
278,
280,
280,
283,
283,
285,
285,
288,
288,
290,
290,
291,
291,
292,
292,
294,
294,
294,
294,
295,
295,
296,
296,
296,
296,
297,
297,
298,
298,
298,
298,
300,
300,
300,
300,
300,
300,
300,
300,
301,
301,
300,
300,
300,
300,
300,
300,
299,
299,
298,
298,
297,
297,
296,
296,
294,
294,
294,
294,
293,
293,
292,
292,
291,
291,
290,
290,
288,
288,
287,
287,
286,
286,
285,
285,
285,
285,
284,
284,
283,
283,
281,
281,
280,
280,
279,
279,
279,
279,
277,
277,
276,
276,
276,
276,
275,
275,
274,
274,
273,
273,
272,
272,
271,
271,
270,
270,
269,
269,
268,
268,
267,
267,
265,
265,
264,
264,
264,
264,
264,
264,
262,
262,
262,
262,
260,
260,
260,
260,
259,
259,
257,
257,
257,
257,
256,
256,
254,
254,
254,
254,
253,
253,
252,
252,
251,
251,
251,
251,
250,
250,
248,
248,
248,
248,
247,
247,
246,
246,
245,
245,
244,
244,
243,
243,
242,
242,
242,
242,
241,
241,
240,
240,
240,
240,
238,
238,
237,
237,
236,
236,
236,
236,
235,
235,
235,
235,
233,
233,
232,
232,
232,
232,
230,
230,
229,
229,
228,
228,
227,
227,
227,
227,
226,
226,
225,
225,
225,
225,
224,
224,
224,
224,
223,
223,
222,
222,
221,
221,
220,
220,
220,
220,
219,
219,
218,
218,
217,
217,
216,
216,
216,
216,
214,
214,
214,
214,
213,
213,
212,
212,
211,
211,
211,
211,
210,
210,
208,
208,
208,
208,
208,
208,
208,
208,
206,
206,
205,
205,
205,
205,
204,
204,
203,
203,
203,
203,
202,
202,
201,
201,
200,
200,
200,
200,
198,
198,
198,
198,
198,
198,
196,
196,
196,
196,
195,
195,
194,
194,
193,
193,
193,
193,
192,
192,
191,
191,
191,
191,
190,
190,
189,
189,
189,
189,
188,
188,
187,
187,
187,
187,
186,
186,
185,
185,
184,
184,
184,
184,
184,
184,
183,
183,
182,
182,
181,
181,
180,
180,
180,
180,
180,
180,
180,
180,
178,
178,
177,
177,
177,
177,
176,
176,
176,
176,
176,
176,
174,
174,
174,
174,
173,
173,
173,
173,
172,
172,
170,
170,
170,
170,
170,
170,
169,
169,
169,
169,
168,
168,
168,
168,
167,
167,
167,
167,
166,
166,
166,
166,
164,
164,
165,
165,
163,
163,
162,
162,
164,
164,
162,
162,
162,
162,
160,
160,
160,
160,
160,
160,
160,
160,
160,
160,
157,
157,
157,
157,
157,
157,
156,
156,
156,
156,
155,
155,
155,
155,
154,
154,
154,
154,
152,
152,
152,
152,
152,
152,
152,
152,
152,
152,
150,
150,
149,
149,
149,
149,
148,
148,
148,
148,
148,
148,
146,
146,
147,
147,
148,
148,
152,
152,
156,
156,
160,
160,
165,
165,
172,
172,
177,
177,
185,
185,
192,
192,
199,
199,
207,
207,
213,
213,
221,
221,
226,
226,
230,
230,
234,
234,
238,
238,
242,
242,
246,
246,
250,
250,
254,
254,
258,
258,
263,
263,
266,
266,
271,
271,
275,
275,
278,
278,
281,
281,
284,
284,
286,
286,
288,
288,
289,
289,
290,
290,
292,
292,
293,
293,
294,
294,
294,
294,
296,
296,
297,
297,
297,
297,
298,
298,
299,
299,
299,
299,
300,
300,
300,
300,
300,
300,
300,
300,
300,
300,
300,
300,
299,
299,
300,
300,
298,
298,
296,
296,
296,
296,
295,
295,
293,
293,
292,
292,
291,
291,
291,
291,
289,
289,
288,
288,
288,
288,
286,
286,
285,
285,
284,
284,
284,
284,
282,
282,
281,
281,
281,
281,
280,
280,
278,
278,
277,
277,
277,
277,
276,
276,
274,
274,
274,
274,
272,
272,
271,
271,
270,
270,
269,
269,
269,
269,
268,
268,
267,
267,
266,
266,
265,
265,
264,
264,
263,
263,
262,
262,
261,
261,
260,
260,
258,
258,
258,
258,
258,
258,
257,
257,
256,
256,
255,
255,
254,
254,
254,
254,
252,
252,
251,
251,
251,
251,
249,
249,
248,
248,
248,
248,
247,
247,
246,
246,
244,
244,
244,
244,
243,
243,
242,
242,
241,
241,
241,
241,
240,
240,
238,
238,
238,
238,
237,
237,
236,
236,
236,
236,
235,
235,
234,
234,
233,
233,
232,
232,
231,
231,
231,
231,
230,
230,
228,
228,
228,
228,
227,
227,
226,
226,
225,
225,
224,
224,
224,
224,
223,
223,
222,
222,
222,
222,
221,
221,
220,
220,
220,
220,
218,
218,
217,
217,
217,
217,
216,
216,
215,
215,
215,
215,
213,
213,
213,
213,
212,
212,
211,
211,
211,
211,
209,
209,
209,
209,
208,
208,
208,
208,
207,
207,
206,
206,
205,
205,
204,
204,
204,
204,
203,
203,
203,
203,
202,
202,
201,
201,
200,
200,
199,
199,
199,
199,
198,
198,
197,
197,
196,
196,
196,
196,
196,
196,
194,
194,
193,
193,
192,
192,
192,
192,
192,
192,
191,
191,
190,
190,
190,
190,
188,
188,
188,
188,
188,
188,
187,
187,
186,
186,
185,
185,
185,
185,
184,
184,
184,
184,
183,
183,
181,
181,
181,
181,
181,
181,
180,
180,
178,
178,
179,
179,
178,
178,
177,
177,
177,
177,
176,
176,
176,
176,
175,
175,
175,
175,
174,
174,
173,
173,
172,
172,
172,
172,
171,
171,
171,
171,
170,
170,
170,
170,
169,
169,
168,
168,
168,
168,
167,
167,
166,
166,
166,
166,
164,
164,
165,
165,
164,
164,
164,
164,
163,
163,
162,
162,
162,
162,
160,
160,
161,
161,
160,
160,
159,
159,
160,
160,
158,
158,
158,
158,
157,
157,
157,
157,
156,
156,
156,
156,
155,
155,
154,
154,
154,
154,
153,
153,
154,
154,
152,
152,
152,
152,
151,
151,
151,
151,
150,
150,
150,
150,
149,
149,
148,
148,
148,
148,
148,
148,
148,
148,
146,
146,
148,
148,
152,
152,
154,
154,
160,
160,
164,
164,
170,
170,
178,
178,
187,
187,
194,
194,
199,
199,
208,
208,
214,
214,
219,
219,
224,
224,
229,
229,
233,
233,
238,
238,
242,
242,
248,
248,
252,
252,
254,
254,
258,
258,
264,
264,
268,
268,
270,
270,
274,
274,
278,
278,
281,
281,
284,
284,
286,
286,
288,
288,
289,
289,
290,
290,
292,
292,
292,
292,
294,
294,
295,
295,
296,
296,
296,
296,
297,
297,
299,
299,
299,
299,
300,
300,
300,
300,
300,
300,
300,
300,
300,
300,
300,
300,
300,
300,
300,
300,
299,
299,
298,
298,
297,
297,
296,
296,
295,
295,
294,
294,
292,
292,
292,
292,
291,
291,
289,
289,
289,
289,
288,
288,
287,
287,
285,
285,
284,
284,
284,
284,
282,
282,
281,
281,
280,
280,
279,
279,
279,
279,
277,
277,
276,
276,
276,
276,
275,
275,
274,
274,
273,
273,
272,
272,
271,
271,
270,
270,
268,
268,
268,
268,
266,
266,
266,
266,
265,
265,
264,
264,
264,
264,
262,
262,
262,
262,
260,
260,
259,
259,
258,
258,
257,
257,
256,
256,
255,
255,
255,
255,
253,
253,
253,
253,
252,
252,
251,
251,
250,
250,
250,
250,
248,
248,
248,
248,
248,
248,
246,
246,
244,
244,
244,
244,
244,
244,
242,
242,
241,
241,
240,
240,
240,
240,
239,
239,
238,
238,
238,
238,
236,
236,
236,
236,
235,
235,
234,
234,
233,
233,
232,
232,
232,
232,
231,
231,
229,
229,
229,
229,
228,
228,
227,
227,
226,
226,
226,
226,
225,
225,
225,
225,
223,
223,
222,
222,
221,
221,
221,
221,
220,
220,
219,
219,
219,
219,
217,
217,
217,
217,
216,
216,
215,
215,
215,
215,
214,
214,
213,
213,
212,
212,
212,
212,
211,
211,
209,
209,
209,
209,
208,
208,
207,
207,
207,
207,
206,
206,
205,
205,
204,
204,
204,
204,
203,
203,
203,
203,
202,
202,
201,
201,
200,
200,
200,
200,
199,
199,
198,
198,
197,
197,
196,
196,
196,
196,
195,
195,
194,
194,
193,
193,
193,
193,
193,
193,
192,
192,
191,
191,
190,
190,
190,
190,
188,
188,
188,
188,
187,
187,
187,
187,
186,
186,
186,
186,
185,
185,
184,
184,
183,
183,
182,
182,
181,
181,
181,
181,
180,
180,
179,
179,
179,
179,
179,
179,
178,
178,
177,
177,
177,
177,
176,
176,
176,
176,
175,
175,
174,
174,
174,
174,
173,
173,
172,
172,
172,
172,
172,
172,
171,
171,
170,
170,
170,
170,
169,
169,
169,
169,
168,
168,
167,
167,
167,
167,
165,
165,
166,
166,
164,
164,
164,
164,
164,
164,
163,
163,
163,
163,
161,
161,
160,
160,
161,
161,
160,
160,
160,
160,
159,
159,
158,
158,
158,
158,
157,
157,
156,
156,
156,
156,
156,
156,
155,
155,
154,
154,
154,
154,
153,
153,
153,
153,
152,
152,
152,
152,
151,
151,
150,
150,
150,
150,
150,
150,
148,
148,
149,
149,
148,
148,
147,
147,
147,
147,
147,
147,
148,
148,
151,
151,
156,
156,
161,
161,
164,
164,
173,
173,
178,
178,
184,
184,
192,
192,
201,
201,
206,
206,
215,
215,
221,
221,
226,
226,
230,
230,
234,
234,
238,
238,
241,
241,
247,
247,
250,
250,
254,
254,
259,
259,
263,
263,
268,
268,
272,
272,
276,
276,
278,
278,
281,
281,
283,
283,
285,
285,
286,
286,
288,
288,
290,
290,
292,
292,
292,
292,
294,
294,
296,
296,
296,
296,
297,
297,
298,
298,
298,
298,
300,
300,
300,
300,
300,
300,
300,
300,
300,
300,
300,
300,
300,
300,
300,
300,
300,
300,
298,
298,
298,
298,
297,
297,
296,
296,
294,
294,
294,
294,
293,
293,
292,
292,
291,
291,
290,
290,
288,
288,
288,
288,
286,
286,
286,
286,
284,
284,
284,
284,
282,
282,
281,
281,
280,
280,
280,
280,
278,
278,
277,
277,
276,
276,
275,
275,
275,
275,
273,
273,
272,
272,
271,
271,
270,
270,
270,
270,
270,
270,
268,
268,
266,
266,
266,
266,
266,
266,
264,
264,
264,
264,
262,
262,
261,
261,
260,
260,
260,
260,
260,
260,
257,
257,
256,
256,
256,
256,
255,
255,
254,
254,
253,
253,
252,
252,
250,
250,
251,
251,
250,
250,
248,
248,
248,
248,
247,
247,
246,
246,
245,
245,
244,
244,
243,
243,
243,
243,
242,
242,
241,
241,
240,
240,
239,
239,
238,
238,
237,
237,
236,
236,
236,
236,
234,
234,
234,
234,
232,
232,
232,
232,
232,
232,
231,
231,
230,
230,
228,
228,
228,
228,
228,
228,
226,
226,
225,
225,
224,
224,
225,
225,
224,
224,
222,
222,
222,
222,
221,
221,
220,
220,
219,
219,
218,
218,
217,
217,
217,
217,
217,
217,
216,
216,
214,
214,
213,
213,
212,
212,
212,
212,
212,
212,
211,
211,
210,
210,
209,
209,
209,
209,
208,
208,
207,
207,
206,
206,
205,
205,
205,
205,
204,
204,
203,
203,
202,
202,
201,
201,
201,
201,
200,
200,
200,
200,
199,
199,
198,
198,
198,
198,
196,
196,
195,
195,
195,
195,
194,
194,
194,
194,
193,
193,
192,
192,
192,
192,
191,
191,
189,
189,
190,
190,
189,
189,
188,
188,
188,
188,
187,
187,
186,
186,
185,
185,
186,
186,
184,
184,
184,
184,
183,
183,
182,
182,
181,
181,
181,
181,
180,
180,
180,
180,
179,
179,
178,
178,
178,
178,
176,
176,
176,
176,
176,
176,
175,
175,
174,
174,
174,
174,
173,
173,
173,
173,
172,
172,
171,
171,
171,
171,
170,
170,
169,
169,
169,
169,
168,
168,
168,
168,
166,
166,
166,
166,
166,
166,
165,
165,
164,
164,
164,
164,
163,
163,
163,
163,
162,
162,
162,
162,
161,
161,
161,
161,
160,
160,
159,
159,
159,
159,
158,
158,
157,
157,
157,
157,
157,
157,
156,
156,
156,
156,
155,
155,
155,
155,
154,
154,
153,
153,
153,
153,
152,
152,
152,
152,
152,
152,
152,
152,
150,
150,
150,
150,
149,
149,
149,
149,
148,
148,
148,
148,
