6-anwendungen-opAmps/daten/ALL0023/A0023CH1.CSV

Memory Length,4000,
Trigger Level,4.00000e+00,
Source,CH1,
Probe,1.0X,
Vertical Units,V,
Vertical Scale,1.00000e-01,
Vertical Position,0.00000e+00,
Horizontal Units,S,
Horizontal Scale,1.00000e-05,
Horizontal Position,1.1200000e-05,
Horizontal Mode,Main,
Sampling Period,4.00000e-08,
Firmware,V1.14,
Time, ,
Mode,Fast,
Waveform Data,
-41,
-41,
-41,
-39,
-39,
-39,
-39,
-37,
-37,
-34,
-34,
-31,
-31,
-29,
-29,
-23,
-23,
-19,
-19,
-17,
-17,
-14,
-14,
-10,
-10,
1,
1,
11,
11,
14,
14,
17,
17,
23,
23,
27,
27,
29,
29,
30,
30,
32,
32,
37,
37,
36,
36,
36,
36,
38,
38,
37,
37,
38,
38,
40,
40,
43,
43,
42,
42,
43,
43,
43,
43,
41,
41,
43,
43,
43,
43,
44,
44,
43,
43,
46,
46,
44,
44,
45,
45,
46,
46,
45,
45,
46,
46,
45,
45,
46,
46,
45,
45,
46,
46,
47,
47,
46,
46,
48,
48,
49,
49,
47,
47,
47,
47,
47,
47,
48,
48,
51,
51,
49,
49,
48,
48,
49,
49,
47,
47,
48,
48,
48,
48,
45,
45,
49,
49,
47,
47,
46,
46,
46,
46,
47,
47,
46,
46,
46,
46,
46,
46,
45,
45,
46,
46,
45,
45,
45,
45,
44,
44,
44,
44,
43,
43,
42,
42,
43,
43,
43,
43,
40,
40,
41,
41,
40,
40,
39,
39,
40,
40,
39,
39,
35,
35,
35,
35,
34,
34,
33,
33,
30,
30,
31,
31,
30,
30,
28,
28,
22,
11,
14,
14,
8,
8,
6,
6,
0,
0,
-5,
-5,
-12,
-23,
-22,
-35,
-33,
-33,
-37,
-37,
-37,
-37,
-40,
-40,
-41,
-41,
-43,
-43,
-45,
-45,
-45,
-45,
-45,
-45,
-46,
-46,
-46,
-46,
-48,
-48,
-47,
-47,
-48,
-48,
-49,
-49,
-49,
-49,
-48,
-48,
-51,
-51,
-51,
-51,
-49,
-49,
-50,
-50,
-48,
-48,
-50,
-50,
-52,
-52,
-53,
-53,
-51,
-51,
-52,
-52,
-52,
-52,
-53,
-53,
-56,
-56,
-55,
-55,
-55,
-55,
-53,
-53,
-55,
-55,
-55,
-55,
-53,
-53,
-55,
-55,
-56,
-56,
-53,
-53,
-53,
-53,
-55,
-55,
-53,
-53,
-53,
-53,
-52,
-52,
-50,
-50,
-49,
-49,
-49,
-49,
-51,
-51,
-51,
-51,
-51,
-51,
-51,
-51,
-50,
-50,
-48,
-48,
-51,
-51,
-48,
-48,
-47,
-47,
-49,
-49,
-46,
-46,
-45,
-45,
-47,
-47,
-45,
-45,
-45,
-45,
-45,
-45,
-44,
-44,
-42,
-42,
-42,
-42,
-41,
-41,
-38,
-38,
-36,
-36,
-35,
-35,
-37,
-37,
-31,
-31,
-32,
-32,
-29,
-29,
-20,
-20,
-13,
-13,
-11,
-11,
-5,
-5,
1,
1,
1,
1,
6,
6,
12,
12,
20,
20,
27,
27,
32,
32,
33,
33,
33,
33,
35,
35,
36,
36,
37,
37,
37,
37,
40,
40,
38,
38,
39,
39,
40,
40,
39,
39,
42,
42,
41,
41,
41,
41,
43,
43,
44,
44,
45,
45,
45,
45,
44,
44,
43,
43,
46,
46,
44,
44,
46,
46,
46,
46,
47,
47,
47,
47,
46,
46,
47,
47,
47,
47,
46,
46,
48,
48,
48,
48,
46,
46,
47,
47,
48,
48,
52,
52,
49,
49,
48,
48,
49,
49,
46,
46,
48,
48,
49,
49,
47,
47,
48,
48,
47,
47,
49,
49,
45,
45,
49,
49,
47,
47,
46,
46,
45,
45,
46,
46,
46,
46,
45,
45,
47,
47,
47,
47,
47,
47,
44,
44,
45,
45,
41,
41,
42,
42,
43,
43,
41,
41,
40,
40,
42,
42,
40,
40,
40,
40,
39,
39,
38,
38,
35,
35,
36,
36,
33,
33,
32,
32,
29,
29,
28,
28,
25,
25,
21,
21,
21,
21,
19,
7,
8,
-4,
-3,
-3,
-8,
-8,
-16,
-16,
-22,
-22,
-26,
-26,
-29,
-29,
-36,
-36,
-37,
-37,
-43,
-43,
-44,
-44,
-43,
-43,
-45,
-45,
-46,
-46,
-45,
-45,
-48,
-48,
-49,
-49,
-49,
-49,
-50,
-50,
-50,
-50,
-51,
-51,
-49,
-49,
-51,
-51,
-52,
-52,
-50,
-50,
-50,
-50,
-53,
-53,
-51,
-51,
-52,
-52,
-51,
-51,
-50,
-50,
-49,
-49,
-51,
-51,
-51,
-51,
-55,
-55,
-54,
-54,
-56,
-56,
-56,
-56,
-54,
-54,
-57,
-57,
-53,
-53,
-52,
-52,
-56,
-56,
-53,
-53,
-52,
-52,
-55,
-55,
-54,
-54,
-52,
-52,
-53,
-53,
-53,
-53,
-51,
-51,
-51,
-51,
-51,
-51,
-51,
-51,
-50,
-50,
-51,
-51,
-50,
-50,
-48,
-48,
-50,
-50,
-50,
-50,
-49,
-49,
-47,
-47,
-49,
-49,
-45,
-45,
-44,
-44,
-46,
-46,
-44,
-44,
-45,
-45,
-44,
-44,
-41,
-41,
-42,
-42,
-40,
-40,
-41,
-41,
-40,
-40,
-37,
-37,
-36,
-36,
-31,
-31,
-28,
-28,
-27,
-27,
-23,
-23,
-19,
-19,
-17,
-17,
-9,
-9,
-4,
7,
8,
8,
12,
12,
15,
15,
20,
20,
25,
25,
25,
25,
31,
31,
32,
32,
34,
34,
37,
37,
39,
39,
38,
38,
41,
41,
39,
39,
40,
40,
43,
43,
40,
40,
41,
41,
43,
43,
41,
41,
43,
43,
45,
45,
46,
46,
45,
45,
43,
43,
44,
44,
44,
44,
45,
45,
45,
45,
46,
46,
46,
46,
48,
48,
46,
46,
46,
46,
47,
47,
47,
47,
47,
47,
47,
47,
46,
46,
46,
46,
47,
47,
48,
48,
54,
54,
48,
48,
49,
49,
49,
49,
48,
48,
47,
47,
49,
49,
45,
45,
47,
47,
49,
49,
48,
48,
47,
47,
47,
47,
45,
45,
45,
45,
45,
45,
44,
44,
44,
44,
44,
44,
47,
47,
44,
44,
43,
43,
45,
45,
44,
44,
42,
42,
41,
41,
41,
41,
41,
41,
40,
40,
43,
43,
40,
40,
39,
39,
40,
40,
35,
35,
33,
33,
35,
35,
32,
32,
30,
30,
31,
31,
24,
24,
19,
19,
17,
17,
14,
14,
8,
8,
3,
3,
2,
2,
-7,
-7,
-18,
-31,
-30,
-30,
-34,
-34,
-36,
-36,
-39,
-39,
-39,
-39,
-42,
-42,
-43,
-43,
-45,
-45,
-45,
-45,
-46,
-46,
-46,
-46,
-48,
-48,
-48,
-48,
-48,
-48,
-48,
-48,
-50,
-50,
-50,
-50,
-49,
-49,
-52,
-52,
-49,
-49,
-50,
-50,
-52,
-52,
-53,
-53,
-51,
-51,
-53,
-53,
-53,
-53,
-51,
-51,
-50,
-50,
-50,
-50,
-57,
-57,
-54,
-54,
-55,
-55,
-55,
-55,
-52,
-52,
-54,
-54,
-57,
-57,
-53,
-53,
-53,
-53,
-54,
-54,
-53,
-53,
-52,
-52,
-53,
-53,
-52,
-52,
-54,
-54,
-52,
-52,
-52,
-52,
-50,
-50,
-49,
-49,
-52,
-52,
-51,
-51,
-48,
-48,
-50,
-50,
-49,
-49,
-48,
-48,
-51,
-51,
-50,
-50,
-49,
-49,
-48,
-48,
-46,
-46,
-46,
-46,
-46,
-46,
-45,
-45,
-45,
-45,
-43,
-43,
-45,
-45,
-44,
-44,
-40,
-40,
-38,
-38,
-41,
-41,
-36,
-36,
-35,
-35,
-35,
-35,
-33,
-33,
-32,
-32,
-25,
-25,
-17,
-17,
-10,
-10,
-11,
-11,
-4,
-4,
-2,
-2,
4,
4,
14,
14,
25,
25,
28,
28,
28,
28,
29,
29,
32,
32,
31,
31,
35,
35,
38,
38,
36,
36,
40,
40,
40,
40,
40,
40,
40,
40,
41,
41,
41,
41,
41,
41,
40,
40,
43,
43,
44,
44,
44,
44,
45,
45,
44,
44,
45,
45,
46,
46,
44,
44,
45,
45,
46,
46,
44,
44,
45,
45,
47,
47,
48,
48,
47,
47,
47,
47,
48,
48,
46,
46,
48,
48,
47,
47,
47,
47,
51,
51,
49,
49,
49,
49,
48,
48,
51,
51,
48,
48,
48,
48,
46,
46,
48,
48,
47,
47,
48,
48,
49,
49,
48,
48,
48,
48,
47,
47,
47,
47,
44,
44,
45,
45,
46,
46,
45,
45,
44,
44,
44,
44,
45,
45,
43,
43,
43,
43,
44,
44,
42,
42,
43,
43,
41,
41,
40,
40,
40,
40,
40,
40,
40,
40,
37,
37,
38,
38,
37,
37,
35,
35,
34,
34,
29,
29,
28,
28,
27,
27,
27,
27,
23,
23,
19,
19,
13,
1,
0,
0,
-6,
-6,
-8,
-8,
-18,
-18,
-24,
-24,
-26,
-26,
-38,
-38,
-39,
-39,
-41,
-41,
-42,
-42,
-45,
-45,
-43,
-43,
-44,
-44,
-45,
-45,
-48,
-48,
-48,
-48,
-48,
-48,
-49,
-49,
-48,
-48,
-49,
-49,
-50,
-50,
-48,
-48,
-49,
-49,
-50,
-50,
-49,
-49,
-51,
-51,
-51,
-51,
-53,
-53,
-54,
-54,
-51,
-51,
-52,
-52,
-49,
-49,
-50,
-50,
-58,
-58,
-55,
-55,
-52,
-52,
-55,
-55,
-55,
-55,
-55,
-55,
-56,
-56,
-56,
-56,
-55,
-55,
-54,
-54,
-52,
-52,
-51,
-51,
-53,
-53,
-53,
-53,
-52,
-52,
-50,
-50,
-52,
-52,
-53,
-53,
-50,
-50,
-51,
-51,
-53,
-53,
-49,
-49,
-48,
-48,
-52,
-52,
-50,
-50,
-51,
-51,
-49,
-49,
-47,
-47,
-48,
-48,
-49,
-49,
-47,
-47,
-46,
-46,
-44,
-44,
-45,
-45,
-43,
-43,
-42,
-42,
-43,
-43,
-42,
-42,
-41,
-41,
-40,
-40,
-37,
-37,
-36,
-36,
-35,
-35,
-31,
-31,
-28,
-28,
-25,
-25,
-21,
-21,
-20,
-20,
-11,
-11,
-3,
-3,
1,
1,
8,
8,
13,
13,
17,
17,
19,
19,
25,
25,
29,
29,
34,
34,
33,
33,
33,
33,
37,
37,
36,
36,
36,
36,
39,
39,
42,
42,
41,
41,
42,
42,
43,
43,
41,
41,
42,
42,
42,
42,
43,
43,
43,
43,
45,
45,
46,
46,
44,
44,
46,
46,
45,
45,
45,
45,
44,
44,
46,
46,
45,
45,
46,
46,
47,
47,
47,
47,
48,
48,
47,
47,
48,
48,
46,
46,
47,
47,
47,
47,
46,
46,
46,
46,
49,
49,
50,
50,
49,
49,
49,
49,
48,
48,
47,
47,
48,
48,
48,
48,
47,
47,
47,
47,
48,
48,
46,
46,
45,
45,
47,
47,
46,
46,
47,
47,
45,
45,
47,
47,
44,
44,
44,
44,
45,
45,
42,
42,
43,
43,
45,
45,
41,
41,
43,
43,
41,
41,
41,
41,
41,
41,
41,
41,
38,
38,
37,
37,
37,
37,
35,
35,
34,
34,
33,
33,
35,
35,
31,
31,
29,
29,
23,
23,
18,
18,
17,
17,
12,
12,
7,
7,
4,
-7,
-6,
-21,
-19,
-19,
-25,
-25,
-30,
-30,
-35,
-35,
-39,
-39,
-40,
-40,
-44,
-44,
-44,
-44,
-45,
-45,
-43,
-43,
-45,
-45,
-46,
-46,
-45,
-45,
-45,
-45,
-48,
-48,
-49,
-49,
-49,
-49,
-50,
-50,
-51,
-51,
-49,
-49,
-49,
-49,
-49,
-49,
-50,
-50,
-52,
-52,
-52,
-52,
-52,
-52,
-50,
-50,
-52,
-52,
-52,
-52,
-52,
-52,
-55,
-55,
-55,
-55,
-53,
-53,
-54,
-54,
-56,
-56,
-54,
-54,
-56,
-56,
-56,
-56,
-53,
-53,
-53,
-53,
-53,
-53,
-53,
-53,
-53,
-53,
-52,
-52,
-53,
-53,
-52,
-52,
-51,
-51,
-51,
-51,
-50,
-50,
-50,
-50,
-50,
-50,
-49,
-49,
-50,
-50,
-50,
-50,
-51,
-51,
-48,
-48,
-50,
-50,
-48,
-48,
-48,
-48,
-49,
-49,
-47,
-47,
-46,
-46,
-45,
-45,
-45,
-45,
-45,
-45,
-43,
-43,
-42,
-42,
-43,
-43,
-37,
-37,
-39,
-39,
-40,
-40,
-36,
-36,
-36,
-36,
-35,
-35,
-28,
-28,
-21,
-21,
-19,
-19,
-16,
-16,
-10,
-10,
-9,
-9,
-6,
-6,
2,
2,
11,
11,
19,
19,
25,
25,
27,
27,
28,
28,
31,
31,
34,
34,
34,
34,
37,
37,
38,
38,
35,
35,
38,
38,
40,
40,
39,
39,
40,
40,
42,
42,
42,
42,
43,
43,
41,
41,
44,
44,
41,
41,
42,
42,
45,
45,
46,
46,
44,
44,
45,
45,
45,
45,
44,
44,
46,
46,
45,
45,
46,
46,
45,
45,
47,
47,
46,
46,
47,
47,
46,
46,
48,
48,
48,
48,
48,
48,
49,
49,
52,
52,
45,
45,
48,
48,
47,
47,
49,
49,
48,
48,
46,
46,
49,
49,
48,
48,
48,
48,
48,
48,
47,
47,
46,
46,
46,
46,
44,
44,
48,
48,
46,
46,
45,
45,
46,
46,
44,
44,
44,
44,
45,
45,
43,
43,
44,
44,
44,
44,
42,
42,
43,
43,
41,
41,
41,
41,
42,
42,
40,
40,
39,
39,
37,
37,
37,
37,
37,
37,
35,
35,
32,
32,
31,
31,
32,
32,
28,
28,
29,
29,
26,
26,
17,
17,
8,
8,
4,
4,
1,
1,
-7,
-7,
-10,
-10,
-13,
-13,
-22,
-22,
-32,
-32,
-38,
-38,
-43,
-43,
-42,
-42,
-42,
-42,
-43,
-43,
-44,
-44,
-45,
-45,
-46,
-46,
-48,
-48,
-47,
-47,
-46,
-46,
-49,
-49,
-48,
-48,
-49,
-49,
-50,
-50,
-50,
-50,
-49,
-49,
-49,
-49,
-51,
-51,
-50,
-50,
-50,
-50,
-51,
-51,
-51,
-51,
-52,
-52,
-53,
-53,
-52,
-52,
-50,
-50,
-53,
-53,
-55,
-55,
-52,
-52,
-54,
-54,
-56,
-56,
-54,
-54,
-54,
-54,
-56,
-56,
-55,
-55,
-55,
-55,
-53,
-53,
-54,
-54,
-54,
-54,
-53,
-53,
-53,
-53,
-52,
-52,
-53,
-53,
-53,
-53,
-51,
-51,
-49,
-49,
-52,
-52,
-50,
-50,
-50,
-50,
-51,
-51,
-48,
-48,
-47,
-47,
-48,
-48,
-48,
-48,
-48,
-48,
-47,
-47,
-48,
-48,
-47,
-47,
-44,
-44,
-46,
-46,
-43,
-43,
-43,
-43,
-43,
-43,
-41,
-41,
-40,
-40,
-40,
-40,
-36,
-36,
-34,
-34,
-33,
-33,
-32,
-32,
-28,
-28,
-27,
-27,
-20,
-20,
-15,
-15,
-4,
-4,
1,
1,
1,
1,
12,
12,
13,
13,
17,
17,
27,
27,
32,
32,
31,
31,
34,
34,
36,
36,
34,
34,
37,
37,
35,
35,
40,
40,
38,
38,
41,
41,
41,
41,
40,
40,
42,
42,
44,
44,
43,
43,
42,
42,
45,
45,
43,
43,
43,
43,
44,
44,
44,
44,
46,
46,
45,
45,
46,
46,
45,
45,
44,
44,
46,
46,
47,
47,
46,
46,
47,
47,
46,
46,
46,
46,
49,
49,
48,
48,
47,
47,
49,
49,
47,
47,
45,
45,
49,
49,
49,
49,
48,
48,
48,
48,
49,
49,
48,
48,
48,
48,
47,
47,
48,
48,
45,
45,
46,
46,
47,
47,
45,
45,
47,
47,
47,
47,
45,
45,
45,
45,
45,
45,
45,
45,
45,
45,
44,
44,
43,
43,
43,
43,
41,
41,
42,
42,
42,
42,
42,
42,
44,
44,
40,
40,
37,
37,
39,
39,
36,
36,
36,
36,
35,
35,
32,
32,
32,
32,
32,
32,
28,
28,
27,
27,
22,
22,
18,
18,
16,
16,
11,
11,
5,
5,
-3,
-14,
-17,
-17,
-21,
-21,
-24,
-24,
-33,
-33,
-34,
-34,
-37,
-37,
-42,
-42,
-44,
-44,
-43,
-43,
-45,
-45,
-47,
-47,
-44,
-44,
-45,
-45,
-47,
-47,
-47,
-47,
-49,
-49,
-49,
-49,
-49,
-49,
-49,
-49,
-51,
-51,
-50,
-50,
-49,
-49,
-49,
-49,
-51,
-51,
-52,
-52,
-51,
-51,
-54,
-54,
-53,
-53,
-53,
-53,
-51,
-51,
-55,
-55,
-54,
-54,
-54,
-54,
-55,
-55,
-53,
-53,
-53,
-53,
-54,
-54,
-54,
-54,
-55,
-55,
-55,
-55,
-55,
-55,
-54,
-54,
-53,
-53,
-52,
-52,
-50,
-50,
-53,
-53,
-54,
-54,
-53,
-53,
-51,
-51,
-51,
-51,
-51,
-51,
-51,
-51,
-50,
-50,
-51,
-51,
-49,
-49,
-49,
-49,
-49,
-49,
-49,
-49,
-49,
-49,
-49,
-49,
-46,
-46,
-45,
-45,
-48,
-48,
-44,
-44,
-43,
-43,
-44,
-44,
-43,
-43,
-41,
-41,
-41,
-41,
-39,
-39,
-39,
-39,
-38,
-38,
-37,
-37,
-35,
-35,
-29,
-29,
-26,
-26,
-22,
-22,
-18,
-18,
-14,
-14,
-10,
-10,
-8,
3,
1,
12,
11,
11,
15,
15,
19,
19,
24,
24,
27,
27,
30,
30,
31,
31,
32,
32,
38,
38,
37,
37,
37,
37,
40,
40,
38,
38,
39,
39,
41,
41,
44,
44,
42,
42,
44,
44,
44,
44,
42,
42,
44,
44,
44,
44,
43,
43,
45,
45,
45,
45,
45,
45,
43,
43,
45,
45,
45,
45,
45,
45,
45,
45,
48,
48,
45,
45,
47,
47,
47,
47,
47,
47,
48,
48,
47,
47,
49,
49,
47,
47,
45,
45,
47,
47,
48,
48,
49,
49,
48,
48,
51,
51,
48,
48,
49,
49,
49,
49,
47,
47,
49,
49,
47,
47,
48,
48,
47,
47,
47,
47,
47,
47,
45,
45,
46,
46,
46,
46,
45,
45,
45,
45,
45,
45,
43,
43,
43,
43,
43,
43,
42,
42,
43,
43,
44,
44,
40,
40,
40,
40,
40,
40,
40,
40,
39,
39,
38,
38,
37,
37,
35,
35,
32,
32,
34,
34,
31,
31,
29,
29,
30,
30,
26,
26,
21,
21,
12,
12,
8,
8,
5,
5,
0,
0,
-7,
-7,
-11,
-23,
-24,
-35,
-34,
-34,
-37,
-37,
-38,
-38,
-41,
-41,
-42,
-42,
-44,
-44,
-45,
-45,
-44,
-44,
-48,
-48,
-46,
-46,
-47,
-47,
-47,
-47,
-46,
-46,
-46,
-46,
-51,
-51,
-50,
-50,
-50,
-50,
-50,
-50,
-52,
-52,
-50,
-50,
-49,
-49,
-50,
-50,
-52,
-52,
-51,
-51,
-54,
-54,
-51,
-51,
-51,
-51,
-52,
-52,
-53,
-53,
-54,
-54,
-54,
-54,
-56,
-56,
-53,
-53,
-54,
-54,
-55,
-55,
-54,
-54,
-55,
-55,
-55,
-55,
-53,
-53,
-53,
-53,
-52,
-52,
-53,
-53,
-51,
-51,
-52,
-52,
-53,
-53,
-51,
-51,
-48,
-48,
-52,
-52,
-52,
-52,
-50,
-50,
-50,
-50,
-47,
-47,
-49,
-49,
-49,
-49,
-50,
-50,
-48,
-48,
-47,
-47,
-46,
-46,
-48,
-48,
-47,
-47,
-46,
-46,
-46,
-46,
-43,
-43,
-42,
-42,
-42,
-42,
-41,
-41,
-42,
-42,
-40,
-40,
-34,
-34,
-35,
-35,
-35,
-35,
-31,
-31,
-31,
-31,
-29,
-29,
-19,
-19,
-10,
-10,
-7,
-7,
-5,
-5,
1,
1,
2,
2,
7,
7,
14,
14,
22,
22,
28,
28,
32,
32,
33,
33,
33,
33,
35,
35,
34,
34,
38,
38,
38,
38,
38,
38,
39,
39,
40,
40,
42,
42,
41,
41,
41,
41,
42,
42,
44,
44,
42,
42,
42,
42,
44,
44,
41,
41,
43,
43,
45,
45,
47,
47,
46,
46,
46,
46,
45,
45,
45,
45,
46,
46,
46,
46,
46,
46,
46,
46,
49,
49,
48,
48,
46,
46,
49,
49,
48,
48,
48,
48,
50,
50,
51,
51,
49,
49,
48,
48,
50,
50,
47,
47,
48,
48,
49,
49,
48,
48,
47,
47,
47,
47,
47,
47,
46,
46,
47,
47,
46,
46,
46,
46,
45,
45,
46,
46,
46,
46,
43,
43,
46,
46,
44,
44,
43,
43,
43,
43,
43,
43,
42,
42,
43,
43,
42,
42,
42,
42,
42,
42,
40,
40,
39,
39,
38,
38,
37,
37,
35,
35,
35,
35,
35,
35,
34,
34,
28,
28,
27,
27,
27,
27,
20,
20,
20,
20,
17,
6,
4,
4,
-7,
-7,
-10,
-10,
-16,
-16,
-24,
-24,
-27,
-27,
-29,
-29,
-36,
-36,
-40,
-40,
-42,
-42,
-45,
-45,
-45,
-45,
-43,
-43,
-46,
-46,
-46,
-46,
-45,
-45,
-47,
-47,
-49,
-49,
-47,
-47,
-48,
-48,
-49,
-49,
-50,
-50,
-52,
-52,
-51,
-51,
-50,
-50,
-49,
-49,
-50,
-50,
-52,
-52,
-51,
-51,
-50,
-50,
-53,
-53,
-52,
-52,
-51,
-51,
-56,
-56,
-55,
-55,
-53,
-53,
-54,
-54,
-53,
-53,
-54,
-54,
-56,
-56,
-55,
-55,
-53,
-53,
-53,
-53,
-53,
-53,
-56,
-56,
-53,
-53,
-53,
-53,
-54,
-54,
-51,
-51,
-51,
-51,
-51,
-51,
-51,
-51,
-52,
-52,
-53,
-53,
-49,
-49,
-49,
-49,
-49,
-49,
-50,
-50,
-49,
-49,
-48,
-48,
-49,
-49,
-45,
-45,
-45,
-45,
-47,
-47,
-45,
-45,
-46,
-46,
-45,
-45,
-44,
-44,
-42,
-42,
-43,
-43,
-41,
-41,
-39,
-39,
-40,
-40,
-39,
-39,
-37,
-37,
-35,
-35,
-31,
-31,
-28,
-28,
-27,
-27,
-23,
-23,
-19,
-19,
-14,
-14,
-10,
-10,
-3,
9,
10,
10,
13,
13,
14,
14,
23,
23,
24,
24,
27,
27,
34,
34,
35,
35,
36,
36,
35,
35,
37,
37,
36,
36,
38,
38,
39,
39,
41,
41,
39,
39,
42,
42,
42,
42,
40,
40,
43,
43,
44,
44,
44,
44,
43,
43,
45,
45,
44,
44,
43,
43,
45,
45,
44,
44,
45,
45,
47,
47,
46,
46,
46,
46,
45,
45,
47,
47,
46,
46,
47,
47,
46,
46,
48,
48,
46,
46,
48,
48,
47,
47,
47,
47,
52,
52,
47,
47,
47,
47,
48,
48,
48,
48,
49,
49,
48,
48,
47,
47,
48,
48,
48,
48,
47,
47,
47,
47,
46,
46,
46,
46,
46,
46,
44,
44,
45,
45,
46,
46,
44,
44,
45,
45,
44,
44,
44,
44,
45,
45,
44,
44,
41,
41,
41,
41,
40,
40,
43,
43,
40,
40,
40,
40,
42,
42,
40,
40,
38,
38,
36,
36,
33,
33,
35,
35,
33,
33,
31,
31,
29,
29,
26,
26,
19,
19,
17,
17,
14,
14,
8,
8,
3,
3,
-1,
-1,
-9,
-9,
-18,
-31,
-31,
-31,
-35,
-35,
-35,
-35,
-40,
-40,
-39,
-39,
-40,
-40,
-46,
-46,
-47,
-47,
-45,
-45,
-47,
-47,
-47,
-47,
-46,
-46,
-45,
-45,
-46,
-46,
-48,
-48,
-49,
-49,
-52,
-52,
-50,
-50,
-49,
-49,
-51,
-51,
-53,
-53,
-50,
-50,
-52,
-52,
-52,
-52,
-51,
-51,
-51,
-51,
-52,
-52,
-51,
-51,
-52,
-52,
-56,
-56,
-54,
-54,
-54,
-54,
-55,
-55,
-55,
-55,
-54,
-54,
-53,
-53,
-54,
-54,
-53,
-53,
-52,
-52,
-55,
-55,
-54,
-54,
-52,
-52,
-53,
-53,
-52,
-52,
-50,
-50,
-52,
-52,
-52,
-52,
-50,
-50,
-51,
-51,
-51,
-51,
-51,
-51,
-50,
-50,
-49,
-49,
-50,
-50,
-50,
-50,
-49,
-49,
-47,
-47,
-47,
-47,
-49,
-49,
-47,
-47,
-44,
-44,
-45,
-45,
-45,
-45,
-44,
-44,
-45,
-45,
-42,
-42,
-39,
-39,
-36,
-36,
-37,
-37,
-37,
-37,
-35,
-35,
-35,
-35,
-33,
-33,
-31,
-31,
-23,
-23,
-17,
-17,
-10,
-10,
-9,
-9,
-4,
-4,
0,
0,
5,
5,
15,
15,
23,
23,
26,
26,
29,
29,
30,
30,
33,
33,
32,
32,
34,
34,
37,
37,
39,
39,
39,
39,
37,
37,
41,
41,
39,
39,
41,
41,
41,
41,
44,
44,
41,
41,
45,
45,
44,
44,
43,
43,
44,
44,
43,
43,
44,
44,
44,
44,
45,
45,
46,
46,
45,
45,
45,
45,
46,
46,
46,
46,
45,
45,
47,
47,
46,
46,
47,
47,
47,
47,
47,
47,
47,
47,
48,
48,
47,
47,
46,
46,
49,
49,
48,
48,
49,
49,
49,
49,
49,
49,
48,
48,
47,
47,
49,
49,
48,
48,
47,
47,
48,
48,
47,
47,
45,
45,
47,
47,
46,
46,
46,
46,
46,
46,
45,
45,
45,
45,
45,
45,
44,
44,
45,
45,
41,
41,
43,
43,
43,
43,
40,
40,
41,
41,
42,
42,
39,
39,
40,
40,
40,
40,
38,
38,
38,
38,
37,
37,
33,
33,
32,
32,
29,
29,
28,
28,
25,
25,
26,
26,
25,
25,
18,
18,
10,
-1,
-1,
-1,
-9,
-9,
-10,
-10,
-18,
-18,
-25,
-25,
-29,
-29,
-35,
-35,
-38,
-38,
-41,
-41,
-43,
-43,
-43,
-43,
-45,
-45,
-46,
-46,
-46,
-46,
-47,
-47,
-48,
-48,
-47,
-47,
-47,
-47,
-51,
-51,
-48,
-48,
-48,
-48,
-50,
-50,
-51,
-51,
-49,
-49,
-52,
-52,
-52,
-52,
-49,
-49,
-51,
-51,
-50,
-50,
-50,
-50,
-53,
-53,
-53,
-53,
-52,
-52,
-55,
-55,
-55,
-55,
-54,
-54,
-54,
-54,
-54,
-54,
-55,
-55,
-55,
-55,
-54,
-54,
-56,
-56,
-54,
-54,
-55,
-55,
-53,
-53,
-52,
-52,
-51,
-51,
-53,
-53,
-52,
-52,
-51,
-51,
-50,
-50,
-51,
-51,
-50,
-50,
-50,
-50,
-51,
-51,
-50,
-50,
-50,
-50,
-50,
-50,
-48,
-48,
-46,
-46,
-49,
-49,
-48,
-48,
-46,
-46,
-47,
-47,
-45,
-45,
-44,
-44,
-45,
-45,
-45,
-45,
-44,
-44,
-42,
-42,
-42,
-42,
-41,
-41,
-40,
-40,
-38,
-38,
-36,
-36,
-31,
-31,
-30,
-30,
-31,
-31,
-21,
-21,
-22,
-22,
-19,
-19,
-8,
-8,
1,
1,
0,
0,
10,
10,
15,
15,
16,
16,
21,
21,
25,
25,
31,
31,
32,
32,
36,
36,
37,
37,
35,
35,
38,
38,
39,
39,
38,
38,
39,
39,
40,
40,
40,
40,
40,
40,
43,
43,
42,
42,
43,
43,
42,
42,
45,
45,
44,
44,
44,
44,
46,
46,
44,
44,
44,
44,
44,
44,
46,
46,
44,
44,
47,
47,
48,
48,
45,
45,
48,
48,
46,
46,
46,
46,
48,
48,
48,
48,
48,
48,
46,
46,
47,
47,
49,
49,
49,
49,
48,
48,
51,
51,
47,
47,
48,
48,
48,
48,
47,
47,
49,
49,
48,
48,
46,
46,
47,
47,
46,
46,
46,
46,
47,
47,
46,
46,
45,
45,
45,
45,
44,
44,
45,
45,
45,
45,
44,
44,
45,
45,
44,
44,
43,
43,
43,
43,
41,
41,
41,
41,
41,
41,
39,
39,
40,
40,
40,
40,
39,
39,
37,
37,
34,
34,
33,
33,
31,
31,
31,
31,
29,
29,
28,
28,
20,
20,
19,
19,
16,
16,
10,
10,
7,
7,
4,
-9,
-9,
-23,
-22,
-22,
-26,
-26,
-33,
-33,
-38,
-38,
-37,
-37,
-39,
-39,
-40,
-40,
-42,
-42,
-46,
-46,
-47,
-47,
-46,
-46,
-46,
-46,
-49,
-49,
-48,
-48,
-47,
-47,
-49,
-49,
-50,
-50,
-48,
-48,
-49,
-49,
-52,
-52,
-52,
-52,
-53,
-53,
-53,
-53,
-52,
-52,
-50,
-50,
-52,
-52,
-52,
-52,
-50,
-50,
-51,
-51,
-52,
-52,
-55,
-55,
-53,
-53,
-54,
-54,
-55,
-55,
-54,
-54,
-55,
-55,
-55,
