2-diodenkennlinien/data/ALL0012/A0012CH1.CSV

Memory Length,4000,
Trigger Level,2.28000e+01,
Source,CH1,
Probe,1.0X,
Vertical Units,V,
Vertical Scale,5.00000e+00,
Vertical Position,-1.76000e+01,
Horizontal Units,S,
Horizontal Scale,5.00000e-03,
Horizontal Position,2.0000000e-04,
Horizontal Mode,Main,
Sampling Period,2.00000e-05,
Firmware,V1.14,
Time, ,
Mode,Fast,
Waveform Data,
115,
115,
115,
115,
115,
115,
115,
116,
116,
117,
117,
117,
117,
116,
116,
116,
116,
116,
116,
118,
118,
117,
117,
118,
118,
118,
118,
118,
118,
119,
119,
118,
118,
119,
119,
121,
121,
119,
119,
119,
119,
119,
119,
120,
120,
119,
119,
119,
119,
120,
120,
120,
120,
121,
121,
121,
121,
121,
121,
120,
120,
119,
119,
120,
120,
121,
121,
121,
121,
121,
121,
120,
120,
119,
119,
120,
120,
121,
121,
121,
121,
121,
121,
119,
119,
119,
119,
120,
120,
119,
119,
119,
119,
119,
119,
119,
119,
119,
119,
118,
118,
119,
119,
118,
118,
118,
118,
117,
117,
118,
118,
117,
117,
116,
116,
117,
117,
116,
116,
117,
117,
115,
115,
116,
116,
116,
116,
115,
115,
116,
116,
116,
116,
115,
115,
115,
115,
115,
115,
115,
115,
114,
114,
114,
114,
114,
114,
113,
113,
114,
114,
114,
114,
112,
112,
113,
113,
113,
113,
113,
113,
112,
112,
112,
112,
112,
112,
111,
111,
111,
111,
111,
111,
111,
111,
111,
111,
111,
111,
111,
111,
110,
110,
110,
110,
110,
110,
109,
109,
111,
111,
109,
109,
109,
109,
109,
109,
108,
108,
108,
108,
109,
109,
107,
107,
107,
107,
107,
107,
107,
107,
107,
107,
107,
107,
107,
107,
107,
107,
107,
107,
107,
107,
106,
106,
106,
106,
105,
105,
106,
106,
106,
106,
105,
105,
105,
105,
104,
104,
105,
105,
104,
104,
105,
105,
104,
104,
104,
104,
103,
103,
103,
103,
103,
103,
103,
103,
102,
102,
103,
103,
102,
102,
103,
103,
101,
101,
103,
103,
102,
102,
102,
102,
103,
103,
101,
101,
101,
101,
101,
101,
101,
101,
101,
101,
100,
100,
100,
100,
100,
100,
100,
100,
99,
99,
99,
99,
99,
99,
100,
100,
100,
100,
99,
99,
99,
99,
99,
99,
98,
98,
99,
99,
97,
97,
98,
98,
97,
97,
97,
97,
98,
98,
97,
97,
97,
97,
96,
96,
97,
97,
96,
96,
95,
95,
97,
97,
95,
95,
95,
95,
96,
96,
96,
96,
95,
95,
94,
94,
95,
95,
93,
93,
94,
94,
94,
94,
94,
94,
93,
93,
94,
94,
92,
92,
93,
93,
94,
94,
93,
93,
93,
93,
95,
95,
95,
95,
93,
93,
93,
93,
92,
92,
91,
91,
92,
92,
91,
91,
92,
92,
91,
91,
91,
91,
91,
91,
91,
91,
91,
91,
90,
90,
91,
91,
91,
91,
89,
89,
91,
91,
90,
90,
90,
90,
89,
89,
89,
89,
90,
90,
88,
88,
88,
88,
89,
89,
88,
88,
89,
89,
89,
89,
88,
88,
88,
88,
89,
89,
89,
89,
91,
91,
92,
92,
94,
94,
94,
94,
95,
95,
95,
95,
97,
97,
97,
97,
99,
99,
99,
99,
101,
101,
101,
101,
103,
103,
103,
103,
103,
103,
104,
104,
105,
105,
105,
105,
107,
107,
106,
106,
107,
107,
109,
109,
109,
109,
110,
110,
111,
111,
111,
111,
113,
113,
112,
112,
113,
113,
114,
114,
114,
114,
114,
114,
115,
115,
116,
116,
116,
116,
117,
117,
116,
116,
117,
117,
117,
117,
117,
117,
117,
117,
118,
118,
117,
117,
117,
117,
118,
118,
118,
118,
118,
118,
118,
118,
119,
119,
119,
119,
119,
119,
120,
120,
119,
119,
119,
119,
119,
119,
120,
120,
119,
119,
120,
120,
119,
119,
120,
120,
120,
120,
119,
119,
119,
119,
120,
120,
120,
120,
119,
119,
119,
119,
120,
120,
119,
119,
120,
120,
120,
120,
119,
119,
120,
120,
120,
120,
120,
120,
119,
119,
119,
119,
119,
119,
119,
119,
117,
117,
119,
119,
117,
117,
117,
117,
117,
117,
117,
117,
116,
116,
117,
117,
117,
117,
116,
116,
117,
117,
116,
116,
116,
116,
116,
116,
116,
116,
116,
116,
115,
115,
115,
115,
114,
114,
113,
113,
114,
114,
114,
114,
113,
113,
115,
115,
113,
113,
113,
113,
113,
113,
112,
112,
113,
113,
112,
112,
111,
111,
112,
112,
111,
111,
111,
111,
111,
111,
111,
111,
112,
112,
111,
111,
110,
110,
111,
111,
111,
111,
111,
111,
111,
111,
110,
110,
111,
111,
109,
109,
109,
109,
108,
108,
109,
109,
109,
109,
108,
108,
109,
109,
107,
107,
108,
108,
107,
107,
107,
107,
107,
107,
107,
107,
107,
107,
107,
107,
104,
104,
107,
107,
106,
106,
105,
105,
105,
105,
106,
106,
105,
105,
105,
105,
104,
104,
105,
105,
105,
105,
104,
104,
103,
103,
103,
103,
103,
103,
104,
104,
103,
103,
103,
103,
102,
102,
103,
103,
102,
102,
102,
102,
102,
102,
101,
101,
102,
102,
101,
101,
102,
102,
103,
103,
101,
101,
102,
102,
103,
103,
101,
101,
101,
101,
100,
100,
100,
100,
99,
99,
100,
100,
99,
99,
100,
100,
99,
99,
99,
99,
99,
99,
99,
99,
99,
99,
99,
99,
99,
99,
99,
99,
98,
98,
97,
97,
97,
97,
97,
97,
97,
97,
97,
97,
97,
97,
95,
95,
96,
96,
97,
97,
96,
96,
97,
97,
95,
95,
96,
96,
96,
96,
95,
95,
94,
94,
95,
95,
95,
95,
94,
94,
95,
95,
94,
94,
94,
94,
94,
94,
94,
94,
94,
94,
93,
93,
93,
93,
93,
93,
93,
93,
93,
93,
93,
93,
93,
93,
92,
92,
92,
92,
93,
93,
92,
92,
92,
92,
91,
91,
91,
91,
91,
91,
90,
90,
90,
90,
90,
90,
91,
91,
90,
90,
90,
90,
90,
90,
90,
90,
89,
89,
89,
89,
89,
89,
89,
89,
88,
88,
88,
88,
88,
88,
89,
89,
88,
88,
89,
89,
88,
88,
89,
89,
89,
89,
90,
90,
90,
90,
91,
91,
93,
93,
93,
93,
95,
95,
95,
95,
97,
97,
97,
97,
99,
99,
99,
99,
100,
100,
100,
100,
102,
102,
102,
102,
103,
103,
104,
104,
104,
104,
105,
105,
106,
106,
108,
108,
107,
107,
108,
108,
109,
109,
110,
110,
111,
111,
111,
111,
111,
111,
112,
112,
113,
113,
114,
114,
115,
115,
115,
115,
115,
115,
117,
117,
116,
116,
116,
116,
116,
116,
117,
117,
117,
117,
117,
117,
118,
118,
117,
117,
117,
117,
118,
118,
119,
119,
119,
119,
118,
118,
118,
118,
119,
119,
120,
120,
119,
119,
119,
119,
119,
119,
119,
119,
120,
120,
120,
120,
119,
119,
119,
119,
120,
120,
119,
119,
121,
121,
121,
121,
121,
121,
121,
121,
121,
121,
121,
121,
120,
120,
121,
121,
120,
120,
120,
120,
120,
120,
122,
122,
119,
119,
119,
119,
120,
120,
120,
120,
120,
120,
119,
119,
119,
119,
120,
120,
120,
120,
119,
119,
118,
118,
117,
117,
118,
118,
118,
118,
117,
117,
117,
117,
117,
117,
117,
117,
116,
116,
116,
116,
116,
116,
116,
116,
115,
115,
115,
115,
115,
115,
115,
115,
115,
115,
115,
115,
114,
114,
114,
114,
114,
114,
114,
114,
113,
113,
113,
113,
113,
113,
114,
114,
113,
113,
112,
112,
112,
112,
112,
112,
112,
112,
111,
111,
112,
112,
112,
112,
110,
110,
111,
111,
111,
111,
111,
111,
110,
110,
110,
110,
110,
110,
110,
110,
109,
109,
109,
109,
108,
108,
109,
109,
108,
108,
109,
109,
107,
107,
108,
108,
108,
108,
107,
107,
108,
108,
108,
108,
107,
107,
107,
107,
106,
106,
107,
107,
107,
107,
106,
106,
106,
106,
106,
106,
105,
105,
105,
105,
106,
106,
106,
106,
105,
105,
105,
105,
103,
103,
104,
104,
104,
104,
103,
103,
104,
104,
104,
104,
104,
104,
104,
104,
103,
103,
103,
103,
101,
101,
103,
103,
103,
103,
102,
102,
103,
103,
102,
102,
102,
102,
101,
101,
101,
101,
101,
101,
101,
101,
100,
100,
101,
101,
100,
100,
100,
100,
101,
101,
100,
100,
100,
100,
100,
100,
101,
101,
99,
99,
99,
99,
99,
99,
99,
99,
99,
99,
98,
98,
99,
99,
98,
98,
98,
98,
97,
97,
97,
97,
97,
97,
98,
98,
97,
97,
96,
96,
96,
96,
96,
96,
95,
95,
96,
96,
96,
96,
96,
96,
96,
96,
95,
95,
95,
95,
95,
95,
95,
95,
95,
95,
95,
95,
94,
94,
94,
94,
93,
93,
93,
93,
94,
94,
93,
93,
93,
93,
93,
93,
93,
93,
93,
93,
93,
93,
93,
93,
92,
92,
92,
92,
91,
91,
91,
91,
91,
91,
91,
91,
92,
92,
91,
91,
91,
91,
91,
91,
91,
91,
90,
90,
90,
90,
91,
91,
90,
90,
90,
90,
89,
89,
88,
88,
89,
89,
88,
88,
88,
88,
89,
89,
89,
89,
89,
89,
88,
88,
89,
89,
89,
89,
88,
88,
88,
88,
90,
90,
91,
91,
90,
90,
91,
91,
93,
93,
94,
94,
95,
95,
96,
96,
97,
97,
97,
97,
99,
99,
99,
99,
101,
101,
101,
101,
102,
102,
103,
103,
103,
103,
106,
106,
107,
107,
105,
105,
107,
107,
107,
107,
107,
107,
109,
109,
110,
110,
111,
111,
111,
111,
110,
110,
113,
113,
112,
112,
113,
113,
114,
114,
115,
115,
115,
115,
115,
115,
114,
114,
115,
115,
115,
115,
117,
117,
116,
116,
117,
117,
117,
117,
118,
118,
118,
118,
118,
118,
118,
118,
117,
117,
118,
118,
119,
119,
118,
118,
119,
119,
119,
119,
119,
119,
119,
119,
121,
121,
121,
121,
119,
119,
119,
119,
119,
119,
119,
119,
120,
120,
120,
120,
119,
119,
120,
120,
120,
120,
121,
121,
120,
120,
121,
121,
119,
119,
119,
119,
120,
120,
120,
120,
119,
119,
119,
119,
119,
119,
119,
119,
119,
119,
119,
119,
119,
119,
119,
119,
118,
118,
117,
117,
119,
119,
118,
118,
118,
118,
118,
118,
117,
117,
117,
117,
117,
117,
116,
116,
116,
116,
116,
116,
116,
116,
116,
116,
116,
116,
115,
115,
116,
116,
115,
115,
115,
115,
114,
114,
115,
115,
114,
114,
114,
114,
113,
113,
113,
113,
113,
113,
112,
112,
113,
113,
112,
112,
112,
112,
112,
112,
111,
111,
111,
111,
112,
112,
112,
112,
111,
111,
111,
111,
110,
110,
110,
110,
110,
110,
110,
110,
110,
110,
110,
110,
109,
109,
109,
109,
110,
110,
109,
109,
109,
109,
108,
108,
108,
108,
107,
107,
108,
108,
107,
107,
107,
107,
107,
107,
105,
105,
107,
107,
107,
107,
107,
107,
106,
106,
107,
107,
106,
106,
105,
105,
105,
105,
106,
106,
105,
105,
105,
105,
105,
105,
105,
105,
105,
105,
104,
104,
103,
103,
104,
104,
104,
104,
104,
104,
103,
103,
103,
103,
103,
103,
102,
102,
104,
104,
103,
103,
102,
102,
102,
102,
102,
102,
101,
101,
102,
102,
101,
101,
101,
101,
101,
101,
101,
101,
101,
101,
100,
100,
101,
101,
99,
99,
99,
99,
101,
101,
99,
99,
99,
99,
101,
101,
99,
99,
99,
99,
99,
99,
99,
99,
99,
99,
98,
98,
99,
99,
96,
96,
98,
98,
99,
99,
98,
98,
97,
97,
97,
97,
95,
95,
97,
97,
96,
96,
97,
97,
96,
96,
96,
96,
95,
95,
94,
94,
95,
95,
95,
95,
95,
95,
95,
95,
95,
95,
94,
94,
95,
95,
94,
94,
95,
95,
94,
94,
94,
94,
95,
95,
95,
95,
93,
93,
94,
94,
93,
93,
93,
93,
93,
93,
93,
93,
93,
93,
92,
92,
91,
91,
92,
92,
92,
92,
91,
91,
91,
91,
91,
91,
92,
92,
90,
90,
91,
91,
89,
89,
91,
91,
91,
91,
90,
90,
91,
91,
90,
90,
90,
90,
90,
90,
90,
90,
89,
89,
88,
88,
89,
89,
89,
89,
87,
87,
88,
88,
87,
87,
89,
89,
87,
87,
89,
89,
89,
89,
89,
89,
91,
91,
91,
91,
93,
93,
94,
94,
95,
95,
95,
95,
96,
96,
97,
97,
98,
98,
99,
99,
100,
100,
101,
101,
102,
102,
101,
101,
103,
103,
104,
104,
104,
104,
105,
105,
106,
106,
107,
107,
107,
107,
108,
108,
109,
109,
110,
110,
111,
111,
111,
111,
112,
112,
113,
113,
113,
113,
114,
114,
115,
115,
115,
115,
115,
115,
115,
115,
115,
115,
117,
117,
117,
117,
117,
117,
117,
117,
117,
117,
117,
117,
117,
117,
118,
118,
119,
119,
119,
119,
118,
118,
119,
119,
119,
119,
118,
118,
119,
119,
119,
119,
119,
119,
119,
119,
120,
120,
120,
120,
120,
120,
121,
121,
120,
120,
120,
120,
122,
122,
121,
121,
121,
121,
121,
121,
120,
120,
120,
120,
121,
121,
121,
121,
120,
120,
119,
119,
120,
120,
121,
121,
120,
120,
119,
119,
120,
120,
120,
120,
119,
119,
119,
119,
119,
119,
119,
119,
119,
119,
119,
119,
118,
118,
119,
119,
118,
118,
117,
117,
117,
117,
117,
117,
117,
117,
117,
117,
117,
117,
117,
117,
116,
116,
116,
116,
116,
116,
115,
115,
117,
117,
115,
115,
114,
114,
115,
115,
114,
114,
114,
114,
115,
115,
113,
113,
114,
114,
114,
114,
113,
113,
113,
113,
113,
113,
112,
112,
112,
112,
113,
113,
111,
111,
112,
112,
111,
111,
111,
111,
111,
111,
112,
112,
111,
111,
111,
111,
111,
111,
109,
109,
109,
109,
110,
110,
110,
110,
110,
110,
110,
110,
109,
109,
110,
110,
109,
109,
109,
109,
108,
108,
110,
110,
111,
111,
109,
109,
108,
108,
107,
107,
107,
107,
107,
107,
108,
108,
106,
106,
107,
107,
106,
106,
106,
106,
105,
105,
105,
105,
107,
107,
104,
104,
104,
104,
105,
105,
105,
105,
104,
104,
104,
104,
104,
104,
103,
103,
104,
104,
104,
104,
103,
103,
103,
103,
103,
103,
103,
103,
102,
102,
102,
102,
103,
103,
103,
103,
103,
103,
102,
102,
102,
102,
101,
101,
101,
101,
101,
101,
101,
101,
100,
100,
101,
101,
100,
100,
100,
100,
100,
100,
100,
100,
99,
99,
99,
99,
99,
99,
99,
99,
99,
99,
99,
99,
98,
98,
98,
98,
99,
99,
99,
99,
98,
98,
99,
99,
98,
98,
98,
98,
97,
97,
97,
97,
98,
98,
97,
97,
98,
98,
97,
97,
96,
96,
96,
96,
96,
96,
96,
96,
96,
96,
95,
95,
95,
95,
95,
95,
94,
94,
94,
94,
94,
94,
95,
95,
95,
95,
93,
93,
94,
94,
93,
93,
94,
94,
93,
93,
93,
93,
93,
93,
92,
92,
91,
91,
92,
92,
93,
93,
92,
92,
92,
92,
92,
92,
91,
91,
91,
91,
91,
91,
91,
91,
91,
91,
91,
91,
91,
91,
91,
91,
91,
91,
90,
90,
89,
89,
90,
90,
90,
90,
90,
90,
90,
90,
89,
89,
89,
89,
89,
89,
89,
89,
88,
88,
88,
88,
89,
89,
89,
89,
89,
89,
89,
89,
89,
89,
90,
90,
90,
90,
93,
93,
94,
94,
93,
93,
95,
95,
96,
96,
97,
97,
98,
98,
99,
99,
100,
100,
99,
99,
100,
100,
101,
101,
102,
102,
103,
103,
103,
103,
105,
105,
105,
105,
107,
107,
107,
107,
108,
108,
109,
109,
110,
110,
111,
111,
111,
111,
111,
111,
112,
112,
113,
113,
113,
113,
114,
114,
113,
113,
114,
114,
115,
115,
115,
115,
116,
116,
116,
116,
116,
116,
117,
117,
117,
117,
117,
117,
115,
115,
118,
118,
118,
118,
117,
117,
118,
118,
118,
118,
119,
119,
118,
118,
117,
117,
118,
118,
119,
119,
119,
119,
119,
119,
120,
120,
119,
119,
118,
118,
120,
120,
119,
119,
119,
119,
121,
121,
120,
120,
119,
119,
121,
121,
120,
120,
120,
120,
119,
119,
120,
120,
120,
120,
120,
120,
120,
120,
121,
121,
119,
119,
119,
119,
119,
119,
119,
119,
120,
120,
119,
119,
119,
119,
118,
118,
118,
118,
118,
118,
117,
117,
119,
119,
118,
118,
117,
117,
117,
117,
117,
117,
117,
117,
116,
116,
117,
117,
117,
117,
115,
115,
116,
116,
116,
116,
115,
115,
115,
115,
115,
115,
114,
114,
114,
114,
115,
115,
115,
115,
113,
113,
114,
114,
113,
113,
113,
113,
113,
113,
113,
113,
112,
112,
113,
113,
111,
111,
112,
112,
112,
112,
112,
112,
111,
111,
111,
111,
111,
111,
111,
111,
111,
111,
109,
109,
108,
108,
110,
110,
109,
109,
109,
109,
109,
109,
109,
109,
109,
109,
108,
108,
108,
108,
109,
109,
107,
107,
107,
107,
107,
107,
107,
107,
108,
108,
107,
107,
107,
107,
107,
107,
107,
107,
106,
106,
106,
106,
106,
106,
106,
106,
106,
106,
105,
105,
106,
106,
106,
106,
105,
105,
105,
105,
105,
105,
103,
103,
104,
104,
104,
104,
104,
104,
104,
104,
104,
104,
103,
103,
103,
103,
103,
103,
102,
102,
103,
103,
102,
102,
103,
103,
103,
103,
101,
101,
101,
101,
101,
101,
101,
101,
101,
101,
101,
101,
101,
101,
101,
101,
99,
99,
100,
100,
100,
100,
99,
99,
99,
99,
100,
100,
99,
99,
99,
99,
99,
99,
99,
99,
98,
98,
98,
98,
98,
98,
98,
98,
98,
98,
99,
99,
98,
98,
98,
98,
97,
97,
98,
98,
96,
96,
96,
96,
97,
97,
97,
97,
96,
96,
96,
96,
95,
95,
95,
95,
96,
96,
95,
95,
95,
95,
95,
95,
95,
95,
95,
95,
96,
96,
95,
95,
93,
93,
94,
94,
94,
94,
93,
93,
94,
94,
93,
93,
93,
93,
92,
92,
93,
93,
93,
93,
91,
91,
91,
91,
92,
92,
91,
91,
92,
92,
90,
90,
91,
91,
91,
91,
91,
91,
91,
91,
90,
90,
90,
90,
89,
89,
91,
91,
90,
90,
90,
90,
91,
91,
89,
89,
91,
91,
89,
89,
89,
89,
89,
89,
88,
88,
89,
89,
89,
89,
88,
88,
88,
88,
87,
87,
89,
89,
88,
88,
89,
89,
89,
89,
90,
90,
91,
91,
91,
91,
93,
93,
95,
95,
96,
96,
96,
96,
97,
97,
99,
99,
100,
100,
100,
100,
101,
101,
101,
101,
103,
103,
103,
103,
105,
105,
105,
105,
105,
105,
106,
106,
107,
107,
108,
108,
108,
108,
109,
109,
110,
110,
111,
111,
112,
112,
112,
112,
113,
113,
113,
113,
114,
114,
115,
115,
114,
114,
115,
115,
115,
115,
115,
115,
116,
116,
117,
117,
116,
116,
116,
116,
117,
117,
117,
117,
118,
118,
118,
118,
118,
118,
118,
118,
119,
119,
120,
120,
118,
118,
119,
119,
119,
119,
119,
119,
121,
121,
119,
119,
120,
120,
121,
121,
119,
119,
119,
119,
120,
120,
119,
119,
120,
120,
120,
120,
120,
120,
120,
120,
121,
121,
119,
119,
121,
121,
121,
121,
121,
121,
121,
121,
121,
121,
121,
121,
121,
121,
119,
119,
120,
120,
120,
120,
119,
119,
120,
120,
119,
119,
119,
119,
119,
119,
119,
119,
118,
118,
118,
118,
119,
119,
118,
118,
117,
117,
117,
117,
116,
116,
117,
117,
116,
116,
116,
116,
116,
116,
116,
116,
116,
116,
115,
115,
115,
115,
114,
114,
115,
115,
115,
115,
115,
115,
114,
114,
114,
114,
115,
115,
114,
114,
115,
115,
114,
114,
113,
113,
112,
112,
113,
113,
112,
112,
113,
113,
112,
112,
112,
112,
111,
111,
111,
111,
112,
112,
112,
112,
111,
111,
111,
111,
111,
111,
110,
110,
110,
110,
110,
110,
109,
109,
109,
109,
109,
109,
109,
109,
107,
107,
109,
109,
110,
110,
108,
108,
107,
107,
108,
108,
107,
107,
107,
107,
107,
107,
107,
107,
107,
107,
107,
107,
107,
107,
107,
107,
106,
106,
106,
106,
106,
106,
105,
105,
107,
107,
105,
105,
106,
106,
106,
106,
104,
104,
104,
104,
104,
104,
104,
104,
104,
104,
103,
103,
103,
103,
103,
103,
103,
103,
103,
103,
103,
103,
103,
103,
103,
103,
102,
102,
102,
102,
102,
102,
102,
102,
103,
103,
101,
101,
101,
101,
102,
102,
101,
101,
101,
101,
101,
101,
101,
101,
101,
101,
101,
101,
99,
99,
100,
100,
99,
99,
99,
99,
99,
99,
98,
98,
99,
99,
98,
98,
98,
98,
99,
99,
98,
98,
98,
98,
98,
98,
97,
97,
97,
97,
98,
98,
98,
98,
98,
98,
97,
97,
97,
97,
97,
97,
96,
96,
97,
97,
97,
97,
95,
95,
95,
95,
95,
95,
95,
95,
95,
95,
95,
95,
95,
95,
95,
95,
95,
95,
95,
95,
95,
95,
94,
94,
94,
94,
94,
94,
94,
94,
93,
93,
93,
93,
93,
93,
93,
93,
93,
93,
92,
92,
93,
93,
92,
92,
91,
91,
92,
92,
91,
91,
91,
91,
91,
91,
92,
92,
91,
91,
90,
90,
91,
91,
91,
91,
90,
90,
90,
90,
89,
89,
90,
90,
90,
90,
91,
91,
89,
89,
90,
90,
88,
88,
89,
89,
88,
88,
89,
89,
87,
87,
89,
89,
89,
89,
89,
89,
90,
90,
91,
91,
91,
91,
93,
93,
93,
93,
93,
93,
94,
94,
95,
95,
97,
97,
99,
99,
99,
99,
99,
99,
100,
100,
100,
100,
101,
101,
103,
103,
104,
104,
104,
104,
105,
105,
105,
105,
106,
106,
107,
107,
107,
107,
109,
109,
110,
110,
110,
110,
110,
110,
111,
111,
112,
112,
113,
113,
114,
114,
114,
114,
113,
113,
115,
115,
115,
115,
115,
115,
115,
115,
115,
115,
117,
117,
116,
116,
117,
117,
117,
117,
117,
117,
116,
116,
118,
118,
117,
117,
119,
119,
118,
118,
118,
118,
119,
119,
119,
119,
118,
118,
119,
119,
120,
120,
119,
119,
119,
119,
120,
120,
119,
119,
119,
119,
119,
119,
120,
120,
120,
120,
119,
119,
120,
120,
120,
120,
120,
120,
119,
119,
121,
121,
120,
120,
119,
119,
120,
120,
119,
119,
119,
119,
119,
119,
119,
119,
119,
119,
119,
119,
120,
120,
119,
119,
119,
119,
119,
119,
119,
119,
118,
118,
118,
118,
119,
119,
118,
118,
117,
117,
117,
117,
117,
117,
116,
116,
116,
116,
116,
116,
116,
116,
116,
116,
115,
115,
115,
115,
115,
115,
115,
115,
115,
115,
115,
115,
115,
115,
113,
113,
114,
114,
114,
114,
113,
113,
114,
114,
113,
113,
113,
113,
112,
112,
112,
112,
112,
112,
112,
112,
112,
112,
111,
111,
112,
112,
112,
112,
111,
111,
112,
112,
111,
111,
110,
110,
111,
111,
110,
110,
111,
111,
110,
110,
111,
111,
110,
110,
109,
109,
108,
108,
108,
108,
109,
109,
107,
107,
108,
108,
107,
107,
108,
108,
107,
107,
107,
107,
107,
107,
107,
107,
106,
106,
107,
107,
105,
105,
107,
107,
106,
106,
107,
107,
105,
105,
105,
105,
105,
105,
105,
105,
105,
105,
104,
104,
104,
104,
104,
104,
104,
104,
103,
103,
104,
104,
104,
104,
103,
103,
103,
103,
103,
103,
103,
103,
102,
102,
103,
103,
102,
102,
101,
101,
102,
102,
101,
101,
102,
102,
101,
101,
102,
102,
101,
101,
101,
101,
101,
101,
101,
101,
101,
101,
100,
100,
99,
99,
99,
99,
100,
100,
99,
99,
99,
99,
99,
99,
100,
100,
99,
99,
99,
99,
97,
97,
97,
97,
98,
98,
99,
99,
98,
98,
97,
97,
98,
98,
97,
97,
97,
97,
96,
96,
96,
96,
96,
96,
96,
96,
96,
96,
96,
96,
96,
96,
96,
96,
95,
95,
95,
95,
95,
95,
96,
96,
95,
95,
95,
95,
95,
95,
94,
94,
95,
95,
94,
94,
94,
94,
93,
93,
93,
93,
93,
93,
93,
93,
94,
94,
93,
93,
92,
92,
92,
92,
92,
92,
91,
91,
93,
93,
91,
91,
91,
91,
91,
91,
91,
91,
91,
91,
91,
91,
91,
91,
90,
90,
91,
91,
91,
91,
90,
90,
90,
90,
90,
90,
89,
89,
89,
89,
87,
87,
89,
89,
89,
89,
88,
88,
89,
89,
88,
88,
88,
88,
87,
87,
87,
87,
89,
89,
88,
88,
89,
89,
90,
90,
91,
91,
91,
91,
93,
93,
93,
93,
93,
93,
95,
95,
97,
97,
99,
99,
99,
99,
100,
100,
100,
100,
100,
100,
102,
102,
102,
102,
103,
103,
103,
103,
104,
104,
105,
105,
106,
106,
107,
107,
107,
107,
108,
108,
109,
109,
110,
110,
110,
110,
111,
111,
112,
112,
113,
113,
114,
114,
114,
114,
114,
