6-anwendungen-opAmps/daten/ALL0036/A0036CH1.CSV

Memory Length,4000,
Trigger Level,6.18000e+02,
Source,CH1,
Probe,1.0X,
Vertical Units,V,
Vertical Scale,5.00000e-02,
Vertical Position,-5.06000e-01,
Horizontal Units,S,
Horizontal Scale,5.00000e-04,
Horizontal Position,-7.0000000e-04,
Horizontal Mode,XY Mode,
Sampling Period,2.00000e-06,
Firmware,V1.14,
Time, ,
Mode,Fast,
Waveform Data,
281,
281,
281,
280,
280,
281,
281,
281,
281,
281,
281,
281,
281,
281,
281,
281,
281,
281,
281,
282,
282,
282,
282,
282,
282,
282,
282,
282,
282,
281,
281,
282,
282,
282,
282,
283,
283,
282,
282,
281,
281,
282,
282,
282,
282,
281,
281,
282,
282,
283,
283,
281,
281,
283,
283,
281,
281,
283,
283,
281,
281,
282,
282,
282,
282,
283,
283,
282,
282,
283,
283,
283,
283,
283,
283,
282,
282,
283,
283,
283,
283,
283,
283,
283,
283,
283,
283,
282,
282,
283,
283,
284,
284,
283,
283,
282,
282,
284,
284,
284,
284,
284,
284,
284,
284,
284,
284,
282,
282,
285,
285,
284,
284,
284,
284,
284,
284,
282,
282,
284,
284,
282,
282,
283,
283,
283,
283,
284,
284,
284,
284,
283,
283,
284,
284,
284,
284,
284,
284,
284,
284,
285,
285,
285,
285,
285,
285,
285,
285,
286,
286,
285,
285,
285,
285,
285,
285,
285,
285,
285,
285,
285,
285,
285,
285,
284,
284,
286,
286,
284,
284,
285,
285,
286,
286,
285,
285,
286,
286,
285,
285,
286,
286,
286,
286,
286,
286,
286,
286,
285,
285,
285,
285,
287,
287,
287,
287,
286,
286,
286,
286,
286,
286,
285,
285,
285,
285,
285,
285,
286,
286,
288,
288,
286,
286,
287,
287,
286,
286,
286,
286,
287,
287,
286,
286,
286,
286,
287,
287,
286,
286,
287,
287,
287,
287,
287,
287,
286,
286,
287,
287,
288,
288,
287,
287,
287,
287,
287,
287,
286,
286,
288,
288,
287,
287,
287,
287,
287,
287,
286,
286,
287,
287,
289,
289,
288,
288,
288,
288,
287,
287,
288,
288,
288,
288,
289,
289,
288,
288,
288,
288,
288,
288,
288,
288,
287,
287,
288,
288,
288,
288,
288,
288,
288,
288,
288,
288,
288,
288,
288,
288,
289,
289,
289,
289,
289,
289,
290,
290,
288,
288,
290,
290,
288,
288,
288,
288,
288,
288,
289,
289,
290,
290,
290,
290,
288,
288,
290,
290,
290,
290,
289,
289,
289,
289,
289,
289,
290,
290,
291,
291,
290,
290,
290,
290,
288,
288,
290,
290,
290,
290,
291,
291,
290,
290,
290,
290,
290,
290,
290,
290,
290,
290,
292,
292,
290,
290,
291,
291,
290,
290,
290,
290,
290,
290,
289,
289,
290,
290,
291,
291,
291,
291,
291,
291,
291,
291,
292,
292,
290,
290,
291,
291,
290,
290,
292,
292,
290,
290,
291,
291,
292,
292,
291,
291,
291,
291,
291,
291,
291,
291,
291,
291,
291,
291,
291,
291,
293,
293,
291,
291,
292,
292,
290,
290,
292,
292,
292,
292,
294,
294,
292,
292,
293,
293,
291,
291,
293,
293,
292,
292,
293,
293,
291,
291,
294,
294,
292,
292,
292,
292,
290,
290,
292,
292,
293,
293,
292,
292,
293,
293,
293,
293,
292,
292,
293,
293,
293,
293,
293,
293,
293,
293,
293,
293,
293,
293,
294,
294,
293,
293,
293,
293,
293,
293,
294,
294,
294,
294,
293,
293,
294,
294,
293,
293,
294,
294,
294,
294,
294,
294,
294,
294,
295,
295,
296,
296,
295,
295,
294,
294,
295,
295,
294,
294,
293,
293,
295,
295,
295,
295,
295,
295,
296,
296,
294,
294,
295,
295,
295,
295,
295,
295,
295,
295,
295,
295,
294,
294,
295,
295,
296,
296,
294,
294,
295,
295,
294,
294,
295,
295,
293,
293,
296,
296,
296,
296,
296,
296,
297,
297,
294,
294,
296,
296,
294,
294,
294,
294,
297,
297,
296,
296,
296,
296,
295,
295,
296,
296,
297,
297,
296,
296,
297,
297,
298,
298,
295,
295,
296,
296,
297,
297,
297,
297,
296,
296,
295,
295,
297,
297,
297,
297,
296,
296,
298,
298,
297,
297,
297,
297,
297,
297,
296,
296,
297,
297,
297,
297,
298,
298,
297,
297,
297,
297,
298,
298,
298,
298,
298,
298,
297,
297,
297,
297,
298,
298,
298,
298,
298,
298,
298,
298,
297,
297,
297,
297,
297,
297,
298,
298,
298,
298,
298,
298,
297,
297,
298,
298,
298,
298,
299,
299,
298,
298,
298,
298,
298,
298,
299,
299,
298,
298,
298,
298,
297,
297,
299,
299,
299,
299,
298,
298,
298,
298,
298,
298,
299,
299,
299,
299,
298,
298,
298,
298,
299,
299,
297,
297,
301,
301,
298,
298,
300,
300,
299,
299,
299,
299,
299,
299,
300,
300,
299,
299,
299,
299,
298,
298,
299,
299,
299,
299,
300,
300,
300,
300,
300,
300,
299,
299,
299,
299,
298,
298,
300,
300,
300,
300,
301,
301,
301,
301,
301,
301,
302,
302,
299,
299,
300,
300,
300,
300,
300,
300,
302,
302,
300,
300,
301,
301,
300,
300,
300,
300,
299,
299,
300,
300,
300,
300,
301,
301,
300,
300,
301,
301,
301,
301,
300,
300,
302,
302,
301,
301,
302,
302,
301,
301,
301,
301,
301,
301,
301,
301,
302,
302,
301,
301,
302,
302,
302,
302,
301,
301,
301,
301,
302,
302,
302,
302,
301,
301,
302,
302,
301,
301,
301,
301,
302,
302,
301,
301,
301,
301,
302,
302,
303,
303,
302,
302,
302,
302,
301,
301,
304,
304,
302,
302,
302,
302,
302,
302,
303,
303,
302,
302,
303,
303,
303,
303,
303,
303,
303,
303,
304,
304,
302,
302,
302,
302,
304,
304,
302,
302,
302,
302,
304,
304,
305,
305,
304,
304,
304,
304,
303,
303,
304,
304,
303,
303,
304,
304,
304,
304,
304,
304,
304,
304,
303,
303,
303,
303,
304,
304,
304,
304,
303,
303,
305,
305,
304,
304,
304,
304,
304,
304,
304,
304,
304,
304,
304,
304,
305,
305,
304,
304,
304,
304,
304,
304,
305,
305,
304,
304,
305,
305,
304,
304,
304,
304,
305,
305,
305,
305,
306,
306,
306,
306,
305,
305,
305,
305,
305,
305,
306,
306,
305,
305,
306,
306,
307,
307,
305,
305,
305,
305,
308,
308,
307,
307,
304,
304,
306,
306,
306,
306,
306,
306,
307,
307,
306,
306,
306,
306,
308,
308,
306,
306,
306,
306,
307,
307,
307,
307,
307,
307,
307,
307,
306,
306,
307,
307,
308,
308,
307,
307,
307,
307,
306,
306,
306,
306,
306,
306,
307,
307,
305,
305,
307,
307,
307,
307,
307,
307,
305,
305,
307,
307,
306,
306,
307,
307,
309,
309,
307,
307,
307,
307,
308,
308,
308,
308,
309,
309,
308,
308,
307,
307,
307,
307,
307,
307,
308,
308,
307,
307,
306,
306,
308,
308,
309,
309,
309,
309,
308,
308,
309,
309,
310,
310,
307,
307,
308,
308,
309,
309,
309,
309,
308,
308,
309,
309,
309,
309,
309,
309,
309,
309,
310,
310,
308,
308,
309,
309,
309,
309,
310,
310,
308,
308,
309,
309,
309,
309,
308,
308,
310,
310,
309,
309,
308,
308,
309,
309,
308,
308,
310,
310,
309,
309,
310,
310,
308,
308,
310,
310,
311,
311,
309,
309,
310,
310,
309,
309,
310,
310,
311,
311,
310,
310,
311,
311,
310,
310,
311,
311,
311,
311,
312,
312,
311,
311,
311,
311,
311,
311,
311,
311,
311,
311,
311,
311,
311,
311,
310,
310,
311,
311,
311,
311,
311,
311,
310,
310,
312,
312,
312,
312,
311,
311,
312,
312,
312,
312,
312,
312,
312,
312,
311,
311,
312,
312,
311,
311,
310,
310,
312,
312,
313,
313,
312,
312,
313,
313,
313,
313,
312,
312,
313,
313,
312,
312,
313,
313,
313,
313,
314,
314,
313,
313,
311,
311,
312,
312,
312,
312,
311,
311,
314,
314,
312,
312,
313,
313,
313,
313,
314,
314,
313,
313,
313,
313,
315,
315,
313,
313,
313,
313,
314,
314,
313,
313,
312,
312,
315,
315,
314,
314,
313,
313,
314,
314,
314,
314,
313,
313,
314,
314,
315,
315,
315,
315,
314,
314,
314,
314,
314,
314,
314,
314,
314,
314,
314,
314,
313,
313,
313,
313,
315,
315,
314,
314,
314,
314,
314,
314,
314,
314,
314,
314,
314,
314,
314,
314,
315,
315,
315,
315,
316,
316,
315,
315,
316,
316,
314,
314,
315,
315,
315,
315,
314,
314,
315,
315,
315,
315,
315,
315,
314,
314,
315,
315,
317,
317,
315,
315,
314,
314,
316,
316,
316,
316,
315,
315,
315,
315,
315,
315,
315,
315,
315,
315,
315,
315,
315,
315,
313,
313,
312,
312,
313,
313,
311,
311,
311,
311,
310,
310,
311,
311,
310,
310,
309,
309,
308,
308,
308,
308,
307,
307,
306,
306,
306,
306,
305,
305,
305,
305,
304,
304,
303,
303,
303,
303,
302,
302,
303,
303,
302,
302,
300,
300,
301,
301,
300,
300,
300,
300,
299,
299,
298,
298,
297,
297,
296,
296,
297,
297,
295,
295,
296,
296,
297,
297,
296,
296,
295,
295,
294,
294,
293,
293,
291,
291,
292,
292,
292,
292,
291,
291,
291,
291,
289,
289,
290,
290,
288,
288,
288,
288,
288,
288,
287,
287,
285,
285,
286,
286,
286,
286,
284,
284,
285,
285,
284,
284,
283,
283,
283,
283,
281,
281,
282,
282,
283,
283,
281,
281,
279,
279,
279,
279,
279,
279,
278,
278,
278,
278,
277,
277,
276,
276,
277,
277,
275,
275,
276,
276,
275,
275,
274,
274,
273,
273,
272,
272,
272,
272,
272,
272,
272,
272,
271,
271,
270,
270,
270,
270,
269,
269,
268,
268,
268,
268,
268,
268,
267,
267,
267,
267,
266,
266,
264,
264,
265,
265,
264,
264,
265,
265,
263,
263,
263,
263,
261,
261,
260,
260,
262,
262,
260,
260,
260,
260,
259,
259,
259,
259,
258,
258,
258,
258,
258,
258,
257,
257,
256,
256,
256,
256,
256,
256,
255,
255,
254,
254,
253,
253,
253,
253,
253,
253,
254,
254,
252,
252,
253,
253,
251,
251,
251,
251,
249,
260,
249,
249,
249,
249,
249,
249,
249,
249,
247,
247,
248,
248,
247,
247,
246,
246,
247,
247,
244,
244,
245,
245,
243,
243,
243,
243,
241,
241,
242,
242,
241,
241,
242,
242,
239,
239,
241,
241,
241,
241,
239,
239,
240,
229,
235,
235,
238,
238,
238,
238,
237,
237,
237,
237,
235,
235,
234,
234,
236,
236,
234,
234,
234,
234,
234,
234,
233,
233,
233,
233,
232,
232,
230,
230,
229,
229,
229,
229,
230,
230,
228,
228,
227,
227,
227,
227,
226,
226,
226,
226,
226,
226,
227,
227,
226,
226,
225,
225,
224,
224,
223,
223,
223,
223,
223,
223,
221,
221,
222,
222,
222,
222,
221,
221,
219,
219,
220,
220,
219,
219,
218,
218,
218,
218,
217,
217,
216,
216,
215,
215,
217,
217,
215,
215,
215,
215,
215,
215,
214,
214,
213,
213,
212,
212,
212,
212,
211,
211,
212,
212,
210,
210,
210,
210,
210,
210,
210,
210,
209,
209,
207,
207,
208,
208,
207,
207,
207,
207,
207,
207,
206,
206,
205,
205,
205,
205,
203,
203,
205,
205,
203,
203,
203,
203,
201,
201,
202,
202,
202,
202,
201,
201,
202,
202,
199,
199,
200,
200,
199,
199,
199,
199,
198,
198,
198,
198,
196,
196,
195,
195,
195,
195,
195,
195,
195,
195,
194,
194,
193,
193,
193,
193,
193,
193,
193,
193,
193,
193,
191,
191,
190,
190,
190,
190,
190,
190,
191,
191,
188,
188,
189,
189,
189,
189,
188,
188,
187,
187,
186,
186,
188,
188,
185,
185,
185,
185,
184,
184,
184,
184,
184,
184,
184,
184,
183,
183,
181,
192,
181,
181,
181,
181,
180,
180,
179,
179,
179,
179,
179,
179,
178,
178,
178,
178,
178,
178,
177,
177,
176,
176,
176,
176,
175,
175,
175,
175,
175,
175,
175,
175,
174,
174,
172,
172,
174,
174,
172,
172,
170,
170,
170,
170,
173,
173,
170,
170,
170,
170,
169,
169,
170,
170,
169,
169,
168,
168,
168,
168,
166,
166,
166,
166,
166,
166,
164,
164,
164,
164,
164,
164,
164,
164,
162,
162,
161,
161,
161,
161,
161,
161,
160,
160,
159,
159,
160,
160,
159,
159,
159,
159,
159,
159,
158,
158,
158,
158,
157,
157,
157,
157,
156,
156,
155,
155,
155,
155,
154,
154,
154,
154,
153,
153,
154,
154,
153,
153,
153,
153,
153,
153,
151,
151,
150,
150,
150,
150,
150,
150,
149,
149,
149,
149,
147,
147,
148,
148,
146,
146,
146,
146,
146,
146,
145,
145,
144,
144,
144,
144,
145,
145,
143,
143,
143,
143,
143,
143,
142,
142,
142,
142,
141,
141,
141,
141,
140,
140,
140,
140,
139,
139,
140,
140,
138,
138,
138,
138,
137,
137,
138,
138,
136,
136,
136,
136,
136,
136,
136,
136,
135,
135,
134,
134,
133,
133,
133,
133,
133,
133,
133,
133,
132,
132,
132,
132,
131,
131,
130,
130,
130,
130,
130,
130,
130,
130,
129,
129,
128,
128,
127,
127,
129,
129,
127,
127,
127,
127,
127,
127,
127,
127,
127,
127,
126,
126,
126,
126,
127,
127,
126,
126,
126,
126,
126,
126,
126,
126,
126,
126,
126,
126,
126,
126,
126,
126,
126,
126,
126,
126,
126,
126,
126,
126,
126,
126,
126,
126,
126,
126,
126,
126,
126,
126,
126,
126,
126,
126,
126,
126,
126,
126,
126,
126,
126,
126,
126,
126,
126,
126,
126,
126,
126,
126,
126,
126,
126,
126,
126,
126,
126,
126,
126,
126,
126,
126,
126,
126,
126,
126,
126,
126,
126,
126,
126,
126,
126,
126,
126,
126,
126,
126,
126,
126,
126,
126,
126,
126,
126,
126,
126,
126,
126,
126,
126,
126,
126,
126,
126,
126,
126,
126,
126,
126,
126,
126,
126,
126,
126,
126,
126,
126,
126,
126,
126,
126,
126,
126,
126,
126,
126,
126,
126,
126,
126,
126,
126,
126,
126,
126,
126,
126,
126,
126,
126,
126,
126,
126,
126,
126,
126,
126,
126,
126,
126,
126,
126,
126,
126,
126,
126,
126,
126,
126,
126,
126,
126,
126,
126,
126,
126,
126,
126,
126,
126,
126,
126,
126,
126,
126,
126,
126,
126,
126,
126,
126,
126,
126,
126,
126,
126,
126,
126,
126,
126,
126,
126,
126,
126,
126,
126,
126,
126,
126,
126,
126,
126,
126,
126,
126,
126,
126,
126,
126,
126,
126,
126,
126,
126,
126,
126,
126,
126,
126,
126,
126,
126,
126,
126,
126,
126,
126,
126,
126,
126,
126,
126,
126,
126,
126,
126,
126,
126,
126,
126,
126,
126,
126,
126,
126,
126,
126,
126,
126,
126,
126,
126,
126,
126,
126,
126,
126,
126,
126,
126,
126,
126,
126,
126,
126,
126,
126,
126,
126,
126,
126,
126,
126,
126,
126,
126,
126,
126,
126,
126,
126,
126,
126,
126,
126,
126,
126,
126,
126,
126,
126,
126,
126,
126,
126,
126,
126,
126,
126,
126,
126,
126,
126,
126,
126,
126,
126,
126,
126,
126,
126,
126,
126,
126,
126,
126,
126,
126,
126,
126,
126,
126,
126,
126,
126,
126,
126,
126,
126,
126,
126,
126,
126,
126,
126,
126,
126,
126,
126,
126,
126,
126,
126,
126,
126,
126,
126,
126,
126,
126,
126,
126,
126,
126,
126,
126,
126,
126,
126,
126,
126,
126,
126,
126,
126,
126,
126,
126,
126,
126,
126,
126,
126,
126,
126,
126,
126,
126,
126,
126,
126,
126,
126,
126,
126,
126,
126,
126,
126,
126,
126,
126,
126,
126,
126,
126,
126,
126,
126,
126,
126,
126,
126,
126,
126,
126,
126,
126,
126,
126,
126,
126,
126,
126,
126,
126,
126,
126,
126,
126,
126,
126,
126,
126,
126,
126,
126,
126,
126,
126,
126,
126,
126,
126,
126,
126,
126,
126,
126,
126,
126,
126,
126,
126,
126,
126,
126,
126,
126,
126,
126,
126,
126,
126,
126,
126,
126,
126,
126,
126,
126,
126,
126,
126,
126,
126,
126,
126,
126,
126,
126,
126,
126,
126,
126,
126,
126,
126,
126,
126,
126,
126,
126,
126,
126,
126,
126,
126,
126,
126,
126,
126,
126,
126,
126,
126,
126,
126,
126,
126,
126,
126,
126,
126,
126,
126,
126,
126,
126,
126,
126,
126,
126,
126,
126,
126,
126,
126,
126,
126,
126,
126,
126,
126,
126,
126,
126,
126,
126,
126,
126,
126,
126,
126,
126,
126,
126,
126,
126,
126,
126,
126,
126,
126,
126,
126,
126,
126,
126,
126,
126,
126,
126,
126,
126,
126,
126,
126,
126,
126,
126,
126,
126,
126,
126,
126,
126,
126,
126,
126,
126,
126,
126,
126,
126,
126,
126,
126,
126,
126,
126,
126,
126,
126,
126,
126,
126,
126,
126,
126,
126,
126,
126,
126,
126,
126,
126,
126,
126,
126,
126,
126,
126,
126,
126,
126,
126,
126,
126,
126,
126,
126,
126,
126,
126,
126,
126,
126,
126,
126,
126,
126,
126,
126,
126,
126,
126,
126,
126,
126,
126,
126,
126,
126,
126,
126,
126,
126,
126,
126,
126,
126,
126,
126,
126,
126,
126,
126,
126,
126,
126,
126,
126,
126,
126,
126,
126,
126,
126,
126,
126,
126,
126,
126,
126,
126,
126,
126,
126,
126,
126,
126,
126,
126,
126,
126,
126,
126,
126,
126,
126,
126,
126,
126,
126,
126,
126,
126,
126,
126,
126,
126,
126,
126,
126,
126,
126,
126,
126,
126,
126,
126,
126,
126,
126,
126,
126,
126,
126,
126,
126,
126,
126,
126,
126,
126,
126,
126,
126,
126,
126,
126,
126,
126,
126,
126,
126,
126,
126,
126,
126,
126,
126,
126,
126,
126,
126,
126,
126,
126,
126,
126,
126,
126,
126,
126,
126,
126,
126,
126,
126,
126,
126,
126,
126,
126,
126,
126,
126,
126,
126,
126,
126,
126,
126,
126,
126,
126,
126,
126,
126,
126,
126,
126,
126,
126,
126,
126,
126,
126,
126,
126,
126,
126,
126,
126,
126,
126,
126,
126,
126,
126,
126,
126,
126,
126,
126,
126,
126,
126,
126,
126,
126,
126,
126,
126,
126,
126,
126,
126,
126,
126,
126,
126,
126,
126,
126,
126,
126,
126,
126,
126,
126,
126,
126,
126,
126,
126,
126,
126,
126,
126,
126,
126,
126,
126,
126,
126,
126,
126,
126,
126,
126,
126,
126,
126,
126,
126,
126,
126,
126,
126,
126,
126,
126,
126,
126,
126,
126,
126,
126,
126,
126,
126,
126,
126,
126,
126,
126,
126,
126,
126,
126,
126,
126,
126,
126,
126,
126,
126,
126,
126,
126,
126,
126,
126,
126,
126,
126,
126,
126,
126,
126,
126,
126,
126,
126,
126,
126,
126,
126,
126,
126,
126,
126,
126,
126,
126,
126,
126,
126,
126,
126,
126,
126,
126,
126,
126,
126,
126,
126,
126,
126,
126,
126,
126,
126,
126,
126,
126,
126,
126,
126,
126,
126,
126,
126,
126,
126,
126,
126,
126,
126,
126,
126,
126,
126,
126,
126,
126,
126,
126,
126,
126,
126,
126,
126,
126,
126,
126,
126,
126,
126,
126,
126,
126,
126,
126,
126,
126,
126,
126,
126,
126,
126,
126,
126,
126,
126,
126,
126,
126,
126,
126,
126,
126,
126,
126,
126,
126,
126,
126,
126,
126,
126,
126,
126,
126,
126,
126,
126,
126,
126,
126,
126,
126,
126,
126,
126,
126,
126,
126,
126,
126,
126,
126,
126,
126,
126,
126,
126,
126,
126,
126,
126,
126,
126,
126,
126,
126,
126,
126,
126,
126,
126,
126,
126,
126,
126,
126,
126,
126,
126,
126,
126,
126,
126,
126,
126,
126,
126,
126,
126,
126,
126,
126,
126,
126,
126,
126,
126,
126,
126,
126,
126,
126,
126,
126,
126,
126,
126,
126,
126,
126,
126,
126,
126,
126,
126,
126,
126,
126,
126,
126,
126,
126,
126,
126,
126,
126,
126,
126,
126,
126,
126,
126,
126,
126,
126,
126,
126,
126,
126,
126,
126,
126,
126,
126,
126,
126,
126,
126,
126,
126,
126,
126,
126,
126,
126,
126,
126,
126,
126,
126,
126,
126,
126,
126,
126,
126,
126,
126,
126,
126,
126,
126,
126,
126,
126,
126,
126,
126,
126,
126,
126,
126,
126,
126,
126,
126,
126,
126,
126,
126,
126,
126,
126,
126,
126,
126,
126,
126,
126,
126,
126,
126,
126,
126,
126,
126,
126,
126,
126,
126,
126,
126,
126,
126,
126,
126,
126,
126,
126,
126,
126,
126,
126,
126,
126,
126,
126,
126,
126,
126,
126,
126,
126,
126,
126,
126,
126,
126,
126,
126,
126,
126,
126,
126,
126,
126,
126,
126,
126,
126,
126,
126,
126,
126,
126,
126,
126,
126,
126,
126,
126,
126,
126,
126,
126,
126,
126,
126,
126,
126,
126,
126,
126,
126,
126,
126,
126,
126,
126,
126,
126,
126,
126,
126,
126,
126,
126,
126,
126,
126,
126,
126,
126,
126,
126,
126,
126,
126,
126,
126,
126,
126,
126,
126,
126,
126,
126,
126,
126,
126,
126,
126,
126,
126,
126,
126,
126,
126,
126,
126,
126,
126,
126,
126,
126,
126,
126,
126,
126,
126,
126,
126,
126,
126,
126,
126,
126,
126,
126,
126,
126,
126,
126,
126,
126,
126,
126,
126,
126,
126,
126,
126,
126,
126,
126,
126,
126,
126,
126,
126,
126,
126,
126,
126,
126,
126,
126,
126,
126,
126,
126,
126,
126,
126,
126,
126,
126,
126,
126,
126,
126,
126,
126,
126,
126,
126,
126,
126,
126,
126,
126,
126,
126,
126,
126,
126,
126,
126,
126,
126,
126,
126,
126,
126,
126,
126,
126,
126,
126,
126,
126,
126,
126,
126,
126,
126,
126,
126,
126,
126,
126,
126,
126,
126,
126,
126,
126,
126,
126,
126,
126,
126,
126,
126,
126,
126,
126,
126,
126,
126,
126,
126,
126,
126,
126,
126,
126,
126,
126,
126,
126,
126,
126,
126,
126,
126,
126,
126,
126,
126,
126,
126,
126,
126,
126,
126,
126,
126,
126,
126,
126,
126,
126,
126,
126,
126,
126,
126,
126,
126,
126,
126,
126,
126,
126,
126,
126,
126,
126,
126,
126,
126,
126,
126,
126,
126,
126,
126,
126,
126,
126,
126,
126,
126,
126,
126,
126,
126,
126,
126,
126,
126,
126,
126,
126,
126,
126,
126,
126,
126,
126,
126,
126,
126,
126,
126,
126,
126,
126,
126,
126,
126,
126,
126,
126,
126,
126,
126,
126,
126,
126,
126,
126,
126,
126,
126,
126,
126,
126,
126,
126,
126,
126,
126,
126,
126,
126,
126,
126,
126,
126,
126,
126,
126,
126,
126,
126,
126,
126,
126,
126,
126,
126,
126,
126,
126,
126,
126,
126,
126,
126,
126,
126,
126,
126,
126,
126,
126,
126,
126,
126,
126,
126,
126,
126,
126,
126,
126,
126,
126,
126,
126,
126,
126,
126,
126,
126,
126,
126,
126,
126,
126,
126,
126,
126,
126,
126,
126,
126,
126,
126,
126,
126,
126,
126,
126,
126,
126,
126,
126,
126,
126,
126,
126,
126,
126,
126,
126,
126,
126,
126,
126,
126,
126,
126,
126,
126,
126,
126,
126,
126,
126,
126,
126,
126,
126,
126,
126,
126,
126,
126,
126,
126,
126,
126,
126,
126,
126,
126,
126,
126,
126,
126,
126,
126,
126,
126,
126,
126,
126,
126,
126,
126,
126,
126,
126,
126,
126,
126,
126,
126,
126,
126,
126,
126,
126,
126,
126,
126,
126,
126,
126,
126,
126,
126,
126,
126,
126,
126,
126,
126,
126,
126,
126,
126,
126,
126,
126,
126,
126,
126,
126,
126,
126,
126,
126,
126,
126,
126,
126,
126,
126,
126,
126,
126,
126,
126,
126,
126,
126,
126,
126,
126,
126,
126,
126,
126,
126,
126,
126,
126,
126,
126,
126,
126,
126,
126,
126,
126,
126,
126,
126,
126,
126,
126,
126,
126,
126,
126,
126,
126,
126,
126,
126,
126,
126,
126,
126,
126,
126,
126,
126,
126,
126,
126,
126,
126,
126,
126,
126,
126,
126,
126,
126,
126,
126,
126,
126,
126,
126,
126,
126,
126,
126,
126,
126,
126,
126,
126,
126,
126,
126,
126,
126,
126,
126,
126,
126,
126,
126,
126,
126,
126,
126,
126,
126,
126,
126,
126,
126,
126,
126,
126,
126,
126,
126,
126,
126,
126,
126,
126,
126,
126,
126,
126,
126,
126,
126,
126,
126,
126,
126,
126,
126,
126,
126,
126,
126,
126,
126,
126,
126,
126,
126,
126,
126,
126,
126,
126,
126,
126,
126,
126,
126,
126,
126,
126,
126,
126,
126,
