6-anwendungen-opAmps/daten/ALL0036/A0036CH2.CSV

Memory Length,4000,
Trigger Level,6.18000e+02,
Source,CH2,
Probe,1.0X,
Vertical Units,V,
Vertical Scale,2.00000e-01,
Vertical Position,0.00000e+00,
Horizontal Units,S,
Horizontal Scale,5.00000e-04,
Horizontal Position,-7.0000000e-04,
Horizontal Mode,XY Mode,
Sampling Period,2.00000e-06,
Firmware,V1.14,
Time, ,
Mode,Fast,
Waveform Data,
25,
25,
25,
26,
26,
23,
23,
13,
-18,
-17,
-17,
-21,
-21,
-24,
-24,
-23,
-23,
-17,
18,
16,
16,
21,
21,
24,
24,
24,
24,
20,
20,
12,
-19,
-18,
-18,
-21,
-21,
-24,
-24,
-22,
-22,
-13,
18,
16,
16,
24,
24,
24,
24,
25,
25,
24,
8,
10,
-17,
-17,
-17,
-23,
-23,
-23,
-23,
-22,
-7,
-9,
22,
21,
21,
24,
24,
26,
26,
24,
24,
17,
-6,
-6,
-22,
-21,
-21,
-23,
-23,
-24,
-24,
-18,
17,
15,
15,
23,
23,
27,
27,
24,
24,
21,
8,
10,
-20,
-18,
-18,
-24,
-24,
-22,
-22,
-21,
-5,
-7,
23,
19,
19,
25,
25,
24,
24,
23,
1,
1,
-20,
-17,
-17,
-23,
-23,
-24,
-24,
-20,
-7,
-9,
23,
23,
23,
26,
26,
25,
25,
23,
23,
14,
-18,
-15,
-15,
-23,
-23,
-23,
-23,
-19,
8,
7,
26,
25,
25,
25,
25,
24,
24,
22,
-6,
-5,
-20,
-17,
-17,
-25,
-25,
-21,
-21,
-16,
21,
20,
20,
25,
25,
26,
26,
22,
9,
10,
-17,
-17,
-17,
-21,
-21,
-25,
-25,
-21,
6,
4,
25,
25,
25,
26,
26,
24,
24,
21,
-9,
-6,
-22,
-19,
-19,
-24,
-24,
-20,
-20,
-16,
21,
20,
20,
26,
26,
27,
27,
24,
10,
14,
-19,
-17,
-17,
-23,
-23,
-24,
-24,
-17,
23,
21,
21,
24,
24,
25,
25,
25,
14,
16,
-16,
-15,
-15,
-21,
-21,
-24,
-24,
-19,
16,
16,
16,
23,
23,
27,
27,
24,
4,
3,
-19,
-17,
-17,
-24,
-24,
-24,
-24,
-16,
18,
16,
27,
24,
24,
24,
24,
23,
6,
7,
-21,
-21,
-21,
-22,
-22,
-21,
-21,
-14,
25,
24,
24,
27,
27,
24,
24,
22,
-5,
-3,
-23,
-23,
-23,
-24,
-24,
-21,
13,
13,
27,
24,
24,
26,
26,
23,
23,
16,
-18,
-18,
-18,
-22,
-22,
-22,
-22,
-19,
23,
21,
21,
26,
26,
23,
23,
24,
0,
2,
-23,
-21,
-21,
-25,
-25,
-23,
17,
15,
27,
26,
26,
27,
27,
22,
22,
15,
-22,
-19,
-19,
-23,
-23,
-20,
1,
-1,
25,
23,
23,
26,
26,
24,
24,
19,
-17,
-17,
-17,
-22,
-22,
-23,
-23,
-16,
24,
22,
22,
25,
25,
25,
25,
15,
-19,
-19,
-19,
-24,
-24,
-23,
-23,
-13,
24,
21,
21,
27,
27,
23,
23,
20,
-17,
-17,
-17,
-24,
-24,
-23,
-8,
-11,
24,
23,
23,
26,
26,
23,
23,
17,
-21,
-18,
-18,
-24,
-24,
-21,
13,
13,
26,
25,
25,
27,
27,
24,
13,
14,
-23,
-20,
-20,
-22,
-22,
-20,
10,
7,
26,
24,
24,
27,
27,
19,
-14,
-14,
-14,
-23,
-23,
-24,
-24,
-15,
25,
24,
24,
25,
25,
24,
24,
17,
-15,
-13,
-25,
-24,
-24,
-20,
18,
16,
27,
26,
26,
25,
25,
22,
-3,
-3,
-22,
-22,
-22,
-23,
-23,
-14,
24,
21,
21,
27,
27,
25,
12,
13,
-20,
-19,
-19,
-23,
-23,
-21,
1,
0,
26,
25,
25,
24,
24,
21,
-3,
-2,
-24,
-23,
-23,
-23,
0,
0,
26,
24,
24,
26,
26,
21,
-10,
-10,
-25,
-24,
-24,
-24,
-24,
-19,
26,
26,
26,
27,
27,
24,
13,
14,
-22,
-21,
-21,
-25,
-25,
-20,
25,
22,
22,
25,
25,
24,
0,
0,
-22,
-21,
-21,
-25,
-14,
-15,
26,
24,
24,
27,
27,
23,
11,
13,
-22,
-21,
-21,
-24,
-24,
-14,
26,
23,
23,
26,
26,
23,
9,
10,
-21,
-19,
-19,
-25,
-25,
-19,
26,
25,
25,
27,
27,
24,
-4,
-4,
-24,
-21,
-21,
-23,
-7,
-9,
27,
24,
24,
25,
25,
21,
-16,
-16,
-16,
-21,
-21,
-24,
15,
13,
28,
26,
26,
26,
9,
12,
-22,
-21,
-21,
-23,
-23,
-20,
25,
23,
23,
27,
27,
24,
2,
4,
-22,
-21,
-21,
-24,
10,
10,
27,
26,
26,
26,
26,
17,
-19,
-19,
-19,
-23,
-23,
-21,
23,
21,
21,
26,
26,
25,
-5,
-5,
-24,
-23,
-23,
-24,
-24,
-17,
26,
26,
26,
26,
26,
19,
-17,
-17,
-17,
-25,
-13,
-13,
26,
26,
26,
28,
28,
23,
-12,
-10,
-23,
-23,
-23,
-22,
23,
19,
19,
27,
27,
24,
11,
11,
-21,
-20,
-20,
-24,
13,
12,
27,
26,
26,
28,
15,
16,
-20,
-17,
-17,
-25,
-13,
-13,
25,
21,
21,
27,
27,
22,
-20,
-18,
-18,
-23,
-23,
-17,
26,
26,
26,
26,
26,
24,
1,
2,
-25,
-23,
-23,
-22,
22,
20,
20,
28,
28,
24,
1,
3,
-24,
-23,
-23,
-19,
24,
25,
25,
28,
28,
24,
6,
6,
-23,
-21,
-21,
-24,
8,
10,
29,
27,
27,
25,
9,
11,
-24,
-22,
-22,
-22,
26,
22,
22,
27,
27,
21,
-9,
-10,
-25,
-22,
-22,
-23,
26,
25,
25,
28,
28,
23,
-10,
-10,
-26,
-23,
-23,
-21,
27,
26,
26,
28,
17,
19,
-20,
-18,
-18,
-24,
-24,
-18,
27,
26,
26,
25,
10,
11,
-23,
-20,
-20,
-25,
18,
18,
18,
25,
25,
24,
11,
10,
-24,
-22,
-22,
-25,
24,
21,
21,
29,
29,
23,
-9,
-8,
-25,
-23,
-23,
-22,
26,
25,
25,
27,
27,
23,
-19,
-18,
-18,
-25,
20,
19,
19,
26,
26,
24,
11,
13,
-25,
-24,
-24,
-20,
27,
24,
24,
27,
27,
23,
-22,
-20,
-20,
-25,
-25,
-18,
28,
27,
27,
25,
12,
12,
-24,
-21,
-21,
-24,
22,
20,
31,
26,
26,
19,
-22,
-21,
-21,
-25,
19,
18,
18,
26,
26,
25,
-1,
-1,
-25,
-23,
-23,
-22,
27,
27,
27,
24,
24,
16,
-23,
-21,
-21,
-24,
21,
19,
30,
27,
27,
23,
-20,
-20,
-20,
-25,
18,
19,
31,
28,
28,
26,
-14,
-13,
-25,
-24,
-24,
-21,
29,
26,
26,
25,
8,
10,
-23,
-20,
-20,
-24,
25,
24,
24,
25,
25,
18,
-22,
-21,
-21,
-25,
23,
22,
22,
26,
26,
25,
-18,
-17,
-17,
-23,
-23,
-16,
30,
27,
27,
25,
-21,
-19,
-19,
-24,
-7,
-8,
28,
28,
28,
25,
8,
8,
-24,
-24,
-24,
-14,
28,
26,
26,
25,
0,
2,
-25,
-24,
-24,
-20,
28,
25,
25,
24,
24,
20,
-24,
-24,
-24,
-22,
26,
26,
26,
25,
25,
19,
-25,
-23,
-23,
-20,
27,
23,
23,
27,
-6,
-7,
-26,
-24,
-11,
-10,
28,
27,
27,
27,
2,
2,
-25,
-22,
-22,
-14,
26,
26,
26,
27,
-12,
-10,
-25,
-24,
-24,
-19,
28,
27,
27,
26,
-19,
-18,
-18,
-23,
-23,
-16,
31,
27,
27,
23,
-18,
-16,
-28,
-26,
7,
6,
30,
29,
29,
21,
-23,
-23,
-23,
-23,
27,
24,
24,
27,
27,
21,
-21,
-19,
-19,
-25,
26,
24,
24,
24,
9,
9,
-25,
-24,
-24,
-16,
29,
27,
27,
27,
-5,
-4,
-26,
-23,
15,
16,
30,
27,
27,
23,
-21,
-21,
-21,
-25,
25,
24,
24,
27,
27,
21,
-26,
-23,
-12,
-15,
28,
26,
26,
27,
-15,
-13,
-27,
-27,
18,
17,
31,
28,
28,
24,
-20,
-19,
-19,
-24,
26,
25,
25,
25,
-7,
-5,
-26,
-24,
-3,
-3,
31,
30,
30,
25,
-5,
-3,
-26,
-25,
27,
27,
27,
25,
25,
19,
-23,
-21,
-21,
-21,
31,
28,
28,
25,
-12,
-12,
-28,
-25,
27,
24,
24,
25,
10,
11,
-25,
-23,
-23,
-14,
28,
25,
25,
26,
-22,
-20,
-20,
-25,
26,
24,
24,
27,
27,
21,
-27,
-26,
6,
6,
31,
28,
28,
26,
-24,
-21,
-21,
-25,
27,
27,
27,
26,
26,
20,
-26,
-26,
-26,
-15,
31,
27,
27,
24,
-25,
-25,
-25,
-19,
27,
25,
25,
27,
7,
6,
-28,
-26,
14,
13,
31,
28,
28,
20,
-26,
-25,
-25,
-21,
28,
28,
28,
22,
-23,
-22,
-22,
-25,
23,
22,
22,
27,
27,
18,
-26,
-25,
-25,
-19,
31,
28,
28,
25,
-21,
-21,
-21,
-23,
28,
28,
28,
23,
-12,
-11,
-29,
-26,
24,
23,
23,
28,
28,
23,
-26,
-24,
-24,
-18,
28,
27,
27,
26,
-21,
-20,
-20,
-25,
28,
27,
27,
27,
-16,
-13,
-27,
-25,
8,
7,
32,
28,
28,
23,
-24,
-24,
-24,
-18,
28,
27,
27,
26,
-21,
-18,
-18,
-24,
16,
17,
31,
28,
17,
19,
-24,
-22,
-22,
-19,
28,
28,
28,
25,
-19,
-18,
-29,
-24,
21,
22,
22,
28,
8,
9,
-24,
-24,
-24,
-19,
31,
29,
29,
21,
-21,
-19,
-19,
-20,
26,
26,
26,
27,
-21,
-19,
-19,
-23,
23,
22,
22,
28,
-7,
-5,
-26,
-24,
-24,
-23,
27,
25,
25,
26,
-13,
-10,
-26,
-25,
-6,
-7,
27,
27,
27,
25,
-19,
-19,
-19,
-27,
-4,
-6,
27,
25,
25,
27,
13,
12,
-24,
-23,
-23,
-23,
-9,
-11,
27,
25,
25,
25,
5,
8,
-24,
-22,
-22,
-26,
-13,
-14,
26,
24,
24,
26,
26,
22,
-20,
-21,
-21,
-24,
-24,
-24,
-9,
-12,
25,
22,
22,
26,
26,
24,
8,
9,
-21,
-20,
-20,
-22,
-22,
-22,
-22,
-18,
18,
17,
17,
24,
24,
25,
25,
23,
2,
5,
-23,
-21,
-21,
-22,
-22,
-23,
-23,
-19,
-4,
-7,
19,
18,
18,
24,
24,
28,
28,
24,
24,
15,
-12,
-11,
-22,
-20,
-20,
-23,
-23,
-25,
-25,
-22,
-22,
-18,
-7,
-7,
10,
8,
22,
20,
20,
21,
21,
26,
26,
26,
26,
26,
26,
23,
23,
17,
-12,
-10,
-21,
-18,
-18,
-23,
-23,
-22,
-22,
-24,
-24,
-23,
-23,
-21,
-21,
-20,
-20,
-19,
-19,
-16,
-16,
-14,
-14,
-11,
-11,
-7,
-7,
-3,
-3,
0,
0,
9,
9,
9,
9,
11,
11,
15,
15,
15,
15,
17,
17,
17,
17,
16,
16,
16,
16,
17,
17,
17,
17,
16,
16,
14,
14,
12,
12,
11,
11,
12,
12,
7,
7,
6,
6,
1,
1,
-3,
-3,
-8,
-8,
-12,
-12,
-14,
-14,
-15,
-15,
-19,
-19,
-20,
-20,
-21,
-21,
-22,
-22,
-23,
-23,
-24,
-24,
-24,
-24,
-25,
-25,
-24,
-24,
-25,
-25,
-25,
-25,
-24,
-24,
-25,
-25,
-25,
-25,
-25,
-25,
-25,
-25,
-26,
-26,
-27,
-27,
-28,
-28,
-28,
-28,
-27,
-27,
-27,
-27,
-28,
-28,
-30,
-30,
-30,
-30,
-30,
-30,
-31,
-31,
-29,
-29,
-27,
-27,
-31,
-31,
-27,
-27,
-31,
-31,
-30,
-30,
-31,
-31,
-31,
-31,
-32,
-32,
-30,
-30,
-32,
-32,
-32,
-32,
-30,
-30,
-30,
-30,
-32,
-32,
-29,
-29,
-31,
-31,
-31,
-31,
-31,
-31,
-30,
-30,
-31,
-31,
-32,
-32,
-32,
-32,
-33,
-33,
-31,
-31,
-33,
-33,
-31,
-31,
-33,
-33,
-31,
-31,
-33,
-33,
-33,
-33,
-33,
-33,
-32,
-32,
-31,
-31,
-32,
-32,
-32,
-32,
-33,
-33,
-31,
-31,
-33,
-33,
-33,
-33,
-34,
-34,
-32,
-32,
-33,
-33,
-33,
-33,
-32,
-32,
-34,
-34,
-34,
-34,
-34,
-34,
-33,
-33,
-33,
-33,
-32,
-32,
-35,
-35,
-32,
-32,
-34,
-34,
-34,
-34,
-36,
-36,
-34,
-34,
-34,
-34,
-35,
-35,
-35,
-35,
-35,
-35,
-34,
-34,
-34,
-34,
-35,
-35,
-34,
-34,
-36,
-36,
-35,
-35,
-35,
-35,
-34,
-34,
-35,
-35,
-35,
-35,
-35,
-35,
-34,
-34,
-34,
-34,
-36,
-36,
-35,
-35,
-35,
-35,
-36,
-36,
-35,
-35,
-34,
-34,
-35,
-35,
-34,
-34,
-35,
-35,
-34,
-34,
-34,
-34,
-35,
-35,
-37,
-37,
-35,
-35,
-36,
-36,
-34,
-34,
-36,
-36,
-36,
-36,
-35,
-35,
-36,
-36,
-35,
-35,
-36,
-36,
-36,
-36,
-35,
-35,
-36,
-36,
-34,
-34,
-34,
-34,
-36,
-36,
-36,
-36,
-36,
-36,
-37,
-37,
-36,
-36,
-35,
-35,
-34,
-34,
-35,
-35,
-35,
-35,
-36,
-36,
-35,
-35,
-35,
-35,
-35,
-35,
-36,
-36,
-34,
-34,
-35,
-35,
-37,
-37,
-34,
-34,
-36,
-36,
-36,
-36,
-35,
-35,
-35,
-35,
-36,
-36,
-35,
-35,
-34,
-34,
-37,
-37,
-37,
-37,
-36,
-36,
-36,
-36,
-35,
-35,
-36,
-36,
-34,
-34,
-35,
-35,
-35,
-35,
-36,
-36,
-36,
-36,
-34,
-34,
-35,
-35,
-34,
-34,
-34,
-34,
-36,
-36,
-36,
-36,
-35,
-35,
-35,
-35,
-36,
-36,
-35,
-35,
-36,
-36,
-36,
-36,
-34,
-34,
-34,
-34,
-35,
-35,
-37,
-37,
-34,
-34,
-34,
-34,
-35,
-35,
-37,
-37,
-36,
-36,
-34,
-34,
-34,
-34,
-35,
-35,
-34,
-34,
-37,
-37,
-35,
-35,
-36,
-36,
-35,
-35,
-36,
-36,
-36,
-36,
-36,
-36,
-36,
-36,
-36,
-36,
-36,
-36,
-36,
-36,
-35,
-35,
-36,
-36,
-36,
-36,
-36,
-36,
-36,
-36,
-34,
-34,
-35,
-35,
-35,
-35,
-35,
-35,
-34,
-34,
-35,
-35,
-34,
-34,
-35,
-35,
-34,
-34,
-34,
-34,
-35,
-35,
-35,
-35,
-35,
-35,
-36,
-36,
-35,
-35,
-36,
-36,
-35,
-35,
-35,
-35,
-35,
-35,
-34,
-34,
-34,
-34,
-35,
-35,
-34,
-34,
-34,
-34,
-36,
-36,
-36,
-36,
-35,
-35,
-34,
-34,
-35,
-35,
-35,
-35,
-35,
-35,
-34,
-34,
-35,
-35,
-36,
-36,
-35,
-35,
-35,
-35,
-35,
-35,
-36,
-36,
-35,
-35,
-34,
-34,
-36,
-36,
-34,
-34,
-36,
-36,
-35,
-35,
-35,
-35,
-37,
-37,
-35,
-35,
-35,
-35,
-35,
-35,
-35,
-35,
-36,
-36,
-37,
-37,
-35,
-35,
-36,
-36,
-36,
-36,
-35,
-35,
-35,
-35,
-35,
-35,
-36,
-36,
-36,
-36,
-36,
-36,
-34,
-34,
-36,
-36,
-35,
-35,
-37,
-37,
-35,
-35,
-35,
-35,
-36,
-36,
-35,
-35,
-34,
-34,
-34,
-34,
-35,
-35,
-36,
-36,
-34,
-34,
-35,
-35,
-35,
-35,
-34,
-34,
-34,
-34,
-34,
-34,
-35,
-35,
-35,
-35,
-36,
-36,
-36,
-36,
-35,
-35,
-36,
-36,
-36,
-36,
-33,
-33,
-37,
-37,
-36,
-36,
-34,
-34,
-35,
-35,
-35,
-35,
-38,
-38,
-36,
-36,
-36,
-36,
-35,
-35,
-35,
-35,
-35,
-35,
-34,
-34,
-35,
-35,
-34,
-34,
-35,
-35,
-36,
-36,
-35,
-35,
-37,
-37,
-35,
-35,
-35,
-35,
-36,
-36,
-35,
-35,
-36,
-36,
-34,
-34,
-35,
-35,
-34,
-34,
-34,
-34,
-34,
-34,
-35,
-35,
-36,
-36,
-36,
-36,
-33,
-33,
-35,
-35,
-36,
-36,
-36,
-36,
-33,
-33,
-34,
-34,
-35,
-35,
-35,
-35,
-37,
-37,
-36,
-36,
-35,
-35,
-36,
-36,
-34,
-34,
-35,
-35,
-35,
-35,
-34,
-34,
-35,
-35,
-35,
-35,
-35,
-35,
-35,
-35,
-35,
-35,
-35,
-35,
-36,
-36,
-34,
-34,
-35,
-35,
-36,
-36,
-35,
-35,
-34,
-34,
-36,
-36,
-34,
-34,
-34,
-34,
-34,
-34,
-34,
-34,
-36,
-36,
-34,
-34,
-34,
-34,
-35,
-35,
-36,
-36,
-34,
-34,
-33,
-33,
-34,
-34,
-36,
-36,
-34,
-34,
-35,
-35,
-35,
-35,
-35,
-35,
-35,
-35,
-35,
-35,
-34,
-34,
-36,
-36,
-34,
-34,
-35,
-35,
-35,
-35,
-37,
-37,
-34,
-34,
-35,
-35,
-36,
-36,
-35,
-35,
-35,
-35,
-35,
-35,
-35,
-35,
-35,
-35,
-35,
-35,
-34,
-34,
-35,
-35,
-34,
-34,
-35,
-35,
-36,
-36,
-35,
-35,
-35,
-35,
-35,
-35,
-36,
-36,
-35,
-35,
-35,
-35,
-34,
-34,
-33,
-33,
-36,
-36,
-35,
-35,
-34,
-34,
-34,
-34,
-37,
-37,
-34,
-34,
-36,
-36,
-35,
-35,
-34,
-34,
-36,
-36,
-35,
-35,
-35,
-35,
-35,
-35,
-36,
-36,
-36,
-36,
-34,
-34,
-35,
-35,
-36,
-36,
-34,
-34,
-35,
-35,
-36,
-36,
-36,
-36,
-35,
-35,
-35,
-35,
-36,
-36,
-35,
-35,
-36,
-36,
-35,
-35,
-37,
-37,
-35,
-35,
-35,
-35,
-34,
-34,
-34,
-34,
-34,
-34,
-35,
-35,
-35,
-35,
-35,
-35,
-35,
-35,
-34,
-34,
-36,
-36,
-35,
-35,
-35,
-35,
-33,
-33,
-35,
-35,
-36,
-36,
-36,
-36,
-35,
-35,
-37,
-37,
-35,
-35,
-34,
-34,
-36,
-36,
-35,
-35,
-36,
-36,
-35,
-35,
-35,
-35,
-36,
-36,
-35,
-35,
-36,
-36,
-35,
-35,
-35,
-35,
-36,
-36,
-36,
-36,
-35,
-35,
-34,
-34,
-35,
-35,
-35,
-35,
-36,
-36,
-34,
-34,
-34,
-34,
-34,
-34,
-35,
-35,
-35,
-35,
-35,
-35,
-34,
-34,
-36,
-36,
-36,
-36,
-36,
-36,
-36,
-36,
-34,
-34,
-34,
-34,
-35,
-35,
-35,
-35,
-35,
-35,
-35,
-35,
-35,
-35,
-34,
-34,
-35,
-35,
-35,
-35,
-34,
-34,
-35,
-35,
-34,
-34,
-35,
-35,
-34,
-34,
-34,
-34,
-35,
-35,
-34,
-34,
-34,
-34,
-34,
-34,
-34,
-34,
-33,
-33,
-35,
-35,
-34,
-34,
-34,
-34,
-33,
-33,
-35,
-35,
-35,
-35,
-34,
-34,
-35,
-35,
-35,
-35,
-34,
-34,
-36,
-36,
-35,
-35,
-34,
-34,
-35,
-35,
-34,
-34,
-34,
-34,
-34,
-34,
-35,
-35,
-36,
-36,
-35,
-35,
-35,
-35,
-35,
-35,
-34,
-34,
-34,
-34,
-35,
-35,
-34,
-34,
-34,
-34,
-35,
-35,
-34,
-34,
-34,
-34,
-35,
-35,
-34,
-34,
-35,
-35,
-36,
-36,
-36,
-36,
-34,
-34,
-35,
-35,
-35,
-35,
-36,
-36,
-35,
-35,
-36,
-36,
-35,
-35,
-35,
-35,
-35,
-35,
-37,
-37,
-35,
-35,
-35,
-35,
-35,
-35,
-35,
-35,
-34,
-34,
-35,
-35,
-36,
-36,
-35,
-35,
-34,
-34,
-36,
-36,
-34,
-34,
-36,
-36,
-34,
-34,
-35,
-35,
-36,
-36,
-35,
-35,
-35,
-35,
-35,
-35,
-34,
-34,
-36,
-36,
-34,
-34,
-34,
-34,
-35,
-35,
-36,
-36,
-35,
-35,
-35,
-35,
-34,
-34,
-35,
-35,
-35,
-35,
-34,
-34,
-34,
-34,
-35,
-35,
-34,
-34,
-36,
-36,
-35,
-35,
-36,
-36,
-35,
-35,
-35,
-35,
-35,
-35,
-36,
-36,
-35,
-35,
-37,
-37,
-34,
-34,
-35,
-35,
-36,
-36,
-36,
-36,
-35,
-35,
-35,
-35,
-35,
-35,
-36,
-36,
-34,
-34,
-34,
-34,
-34,
-34,
-35,
-35,
-35,
-35,
-34,
-34,
-36,
-36,
-34,
-34,
-34,
-34,
-35,
-35,
-34,
-34,
-34,
-34,
-37,
-37,
-35,
-35,
-35,
-35,
-34,
-34,
-34,
-34,
-35,
-35,
-36,
-36,
-35,
-35,
-36,
-36,
-34,
-34,
-36,
-36,
-35,
-35,
-36,
-36,
-36,
-36,
-35,
-35,
-35,
-35,
-35,
-35,
-35,
-35,
-34,
-34,
-36,
-36,
-35,
-35,
-34,
-34,
-34,
-34,
-34,
-34,
-35,
-35,
-35,
-35,
-34,
-34,
-35,
-35,
-35,
-35,
-35,
-35,
-34,
-34,
-36,
-36,
-35,
-35,
-35,
-35,
-34,
-34,
-35,
-35,
-35,
-35,
-35,
-35,
-36,
-36,
-35,
-35,
-36,
-36,
-34,
-34,
-36,
-36,
-36,
-36,
-35,
-35,
-36,
-36,
-34,
-34,
-35,
-35,
-35,
-35,
-36,
-36,
-34,
-34,
-34,
-34,
-35,
-35,
-34,
-34,
-35,
-35,
-34,
-34,
-36,
-36,
-34,
-34,
-35,
-35,
-34,
-34,
-37,
-37,
-37,
-37,
-36,
-36,
-36,
-36,
-36,
-36,
-34,
-34,
-34,
-34,
-34,
-34,
-35,
-35,
-34,
-34,
-34,
-34,
-35,
-35,
-35,
-35,
-35,
-35,
-35,
-35,
-36,
-36,
-35,
-35,
-38,
-38,
-35,
-35,
-36,
-36,
-35,
-35,
-35,
-35,
-36,
-36,
-35,
-35,
-35,
-35,
-36,
-36,
-35,
-35,
-35,
-35,
-36,
-36,
-36,
-36,
-36,
-36,
-35,
-35,
-35,
-35,
-34,
-34,
-35,
-35,
-35,
-35,
-35,
-35,
-35,
-35,
-34,
-34,
-35,
-35,
-35,
-35,
-34,
-34,
-33,
-33,
-35,
-35,
-34,
-34,
-35,
-35,
-34,
-34,
-36,
-36,
-36,
-36,
-36,
-36,
-35,
-35,
-35,
-35,
-36,
-36,
-36,
-36,
-35,
-35,
-36,
-36,
-34,
-34,
-34,
-34,
-34,
-34,
-34,
-34,
-35,
-35,
-35,
-35,
-35,
-35,
-34,
-34,
-34,
-34,
-34,
-34,
-37,
-37,
-33,
-33,
-35,
-35,
-35,
-35,
-35,
-35,
-36,
-36,
-36,
-36,
-34,
-34,
-36,
-36,
-35,
-35,
-33,
-33,
-34,
-34,
-34,
-34,
-35,
-35,
-36,
-36,
-35,
-35,
-34,
-34,
-35,
-35,
-36,
-36,
-36,
-36,
-35,
-35,
-36,
-36,
-35,
-35,
-34,
-34,
-34,
-34,
-35,
-35,
-35,
-35,
-33,
-33,
-35,
-35,
-35,
-35,
-35,
-35,
-35,
-35,
-35,
-35,
-36,
-36,
-34,
-34,
-35,
-35,
-35,
-35,
-35,
-35,
-35,
-35,
-35,
-35,
-35,
-35,
-35,
-35,
-35,
-35,
-34,
-34,
-35,
-35,
-35,
-35,
-35,
-35,
-35,
-35,
-35,
-35,
-36,
-36,
-36,
-36,
-36,
-36,
-34,
-34,
-35,
-35,
-36,
-36,
-36,
-36,
-36,
-36,
-35,
-35,
-36,
-36,
-37,
-37,
-36,
-36,
-35,
-35,
-36,
-36,
-34,
-34,
-34,
-34,
-35,
-35,
-36,
-36,
-35,
-35,
-36,
-36,
-33,
-33,
-36,
-36,
-35,
-35,
-35,
-35,
-36,
-36,
-35,
-35,
-36,
-36,
-36,
-36,
-36,
-36,
-34,
-34,
-36,
-36,
-35,
-35,
-35,
-35,
-34,
-34,
-35,
-35,
-34,
-34,
-36,
-36,
-34,
-34,
-34,
-34,
-36,
-36,
-34,
-34,
-34,
-34,
-35,
-35,
-35,
-35,
-35,
-35,
-34,
-34,
-34,
-34,
-34,
-34,
-34,
-34,
-34,
-34,
-36,
-36,
-35,
-35,
-35,
-35,
-33,
-33,
-34,
-34,
-34,
-34,
-36,
-36,
-34,
-34,
-36,
-36,
-34,
-34,
-36,
-36,
-35,
-35,
-35,
-35,
-36,
-36,
-36,
-36,
-36,
-36,
-36,
-36,
-34,
-34,
-36,
-36,
-35,
-35,
-35,
-35,
-35,
-35,
-35,
-35,
-35,
-35,
-36,
-36,
-33,
-33,
-35,
-35,
-36,
-36,
-35,
-35,
-36,
-36,
-35,
-35,
-36,
-36,
-34,
-34,
-36,
-36,
-35,
-35,
-35,
-35,
-34,
-34,
-34,
-34,
-36,
-36,
-34,
-34,
-36,
-36,
-36,
-36,
-36,
-36,
-36,
-36,
-35,
-35,
-35,
-35,
-36,
-36,
-34,
-34,
-34,
-34,
-35,
-35,
-34,
-34,
-34,
-34,
-37,
-37,
-34,
-34,
-35,
-35,
-34,
-34,
-35,
-35,
-34,
-34,
-35,
-35,
-35,
-35,
-35,
-35,
-36,
-36,
-35,
-35,
-35,
-35,
-35,
-35,
-35,
-35,
-36,
-36,
-36,
-36,
-34,
-34,
-34,
-34,
-34,
-34,
-35,
-35,
-34,
-34,
-35,
-35,
-34,
-34,
-34,
-34,
-35,
-35,
-34,
-34,
-35,
-35,
-35,
-35,
-34,
-34,
-33,
-33,
-34,
-34,
-34,
-34,
-36,
-36,
-36,
-36,
-35,
-35,
-35,
-35,
-35,
-35,
-35,
-35,
-34,
-34,
-34,
-34,
-35,
-35,
-34,
-34,
-35,
-35,
-35,
-35,
-36,
-36,
-35,
-35,
-34,
-34,
-35,
-35,
-35,
-35,
-34,
-34,
-34,
-34,
-35,
-35,
-34,
-34,
-36,
-36,
-35,
-35,
-34,
-34,
-36,
-36,
-36,
-36,
-34,
-34,
-34,
-34,
-36,
-36,
-36,
-36,
-35,
-35,
-36,
-36,
-36,
-36,
-35,
-35,
-34,
-34,
-36,
-36,
-35,
-35,
-34,
-34,
-35,
-35,
-34,
-34,
-36,
-36,
-34,
-34,
-36,
-36,
-35,
-35,
-35,
-35,
-35,
-35,
-35,
-35,
-35,
-35,
-35,
-35,
-34,
-34,
-35,
-35,
-35,
-35,
-36,
-36,
-35,
-35,
-35,
-35,
-33,
-33,
-34,
-34,
-36,
-36,
-33,
-33,
-34,
-34,
-36,
-36,
-34,
-34,
-34,
-34,
-34,
-34,
-36,
-36,
-35,
-35,
-34,
-34,
-34,
-34,
-37,
-37,
-36,
-36,
-36,
-36,
-35,
-35,
-34,
-34,
-36,
-36,
-35,
-35,
-34,
-34,
-34,
-34,
-35,
-35,
-35,
-35,
-36,
-36,
-36,
-36,
-34,
-34,
-35,
-35,
-35,
-35,
-34,
-34,
-35,
-35,
-35,
-35,
-36,
-36,
-36,
-36,
-35,
-35,
-36,
-36,
-36,
-36,
-36,
-36,
-36,
-36,
-35,
-35,
-35,
-35,
-35,
-35,
-35,
-35,
-36,
-36,
-34,
-34,
-35,
-35,
-35,
-35,
-36,
-36,
-34,
-34,
-35,
-35,
-35,
-35,
-36,
-36,
-35,
-35,
-36,
-36,
-36,
-36,
-35,
-35,
-36,
-36,
-35,
-35,
-35,
-35,
-35,
-35,
-35,
-35,
-35,
-35,
-35,
-35,
-35,
-35,
-37,
-37,
-34,
-34,
-36,
-36,
-37,
-37,
-36,
-36,
-35,
-35,
-35,
-35,
-37,
-37,
-36,
-36,
-36,
-36,
-36,
-36,
-35,
-35,
-34,
-34,
-36,
-36,
-36,
-36,
-35,
-35,
-35,
-35,
-34,
-34,
-35,
-35,
-35,
-35,
-36,
-36,
-35,
-35,
-35,
-35,
-34,
-34,
-34,
-34,
-36,
-36,
-35,
-35,
-33,
-33,
-37,
-37,
-36,
-36,
-35,
-35,
-36,
-36,
-34,
-34,
-35,
-35,
-36,
-36,
-36,
-36,
-35,
-35,
-36,
-36,
-34,
-34,
-35,
-35,
-35,
-35,
-35,
-35,
-36,
-36,
-36,
-36,
-34,
-34,
-35,
-35,
-34,
-34,
-35,
-35,
-34,
-34,
-35,
-35,
-35,
-35,
-35,
-35,
-34,
-34,
-36,
-36,
-34,
-34,
-35,
-35,
-34,
-34,
-35,
-35,
-36,
-36,
-36,
-36,
-35,
-35,
-36,
-36,
-35,
-35,
-36,
-36,
-36,
-36,
-35,
-35,
-35,
-35,
-35,
-35,
-35,
-35,
-36,
-36,
-35,
-35,
-34,
-34,
-34,
-34,
-35,
-35,
-35,
-35,
-36,
-36,
-35,
-35,
-34,
-34,
-34,
-34,
-36,
-36,
-35,
-35,
-36,
-36,
-35,
-35,
-36,
-36,
-35,
-35,
-36,
-36,
-36,
-36,
-34,
-34,
-36,
-36,
-36,
-36,
-35,
-35,
-35,
-35,
-37,
-37,
-36,
-36,
-35,
-35,
-34,
-34,
-35,
-35,
-35,
-35,
-34,
-34,
-36,
-36,
-34,
-34,
-34,
-34,
-35,
-35,
-36,
-36,
-35,
-35,
-34,
-34,
-36,
-36,
-35,
-35,
-36,
-36,
-36,
-36,
-35,
-35,
-36,
-36,
-34,
-34,
-35,
-35,
-36,
-36,
-36,
-36,
-35,
-35,
-35,
-35,
-35,
-35,
-37,
-37,
-35,
-35,
-35,
-35,
-35,
-35,
-36,
-36,
-36,
-36,
-36,
-36,
-35,
-35,
-36,
-36,
-35,
-35,
-36,
-36,
-35,
-35,
-35,
-35,
-35,
-35,
-35,
-35,
-35,
-35,
-37,
-37,
-34,
-34,
-35,
-35,
-35,
-35,
-35,
-35,
-34,
-34,
-35,
-35,
-36,
-36,
-36,
-36,
-36,
-36,
-36,
-36,
-36,
-36,
-36,
-36,
-35,
-35,
-35,
-35,
-35,
-35,
-34,
-34,
-36,
-36,
-35,
-35,
-33,
-33,
-36,
-36,
-34,
-34,
-35,
-35,
-34,
-34,
-35,
-35,
-36,
-36,
-36,
-36,
-35,
-35,
-35,
-35,
-36,
-36,
-36,
-36,
-35,
-35,
-36,
-36,
-34,
-34,
-37,
-37,
-36,
-36,
-35,
-35,
-35,
-35,
-36,
-36,
-35,
-35,
-35,
