5-grundlagen-opAmps/data/ALL0007/A0007CH2.CSV

Memory Length,4000,
Trigger Level,0.00000e+00,
Source,CH2,
Probe,1.0X,
Vertical Units,V,
Vertical Scale,5.00000e-02,
Vertical Position,0.00000e+00,
Horizontal Units,S,
Horizontal Scale,1.00000e-07,
Horizontal Position,1.0000000e-07,
Horizontal Mode,Main,
Sampling Period,2.00000e-09,
Firmware,V1.14,
Time, ,
Mode,Fast,
Waveform Data,
-26,
-26,
-29,
-33,
-34,
-31,
-28,
-29,
-32,
-36,
-34,
-31,
-29,
-31,
-36,
-37,
-34,
-27,
-29,
-34,
-35,
-32,
-27,
-25,
-25,
-28,
-28,
-23,
-21,
-20,
-23,
-25,
-23,
-19,
-16,
-16,
-17,
-17,
-13,
-8,
-4,
-6,
-7,
-7,
-2,
2,
2,
-1,
0,
1,
4,
8,
8,
5,
8,
11,
15,
17,
18,
15,
19,
21,
23,
24,
21,
23,
24,
27,
27,
25,
25,
28,
30,
31,
31,
31,
32,
33,
34,
33,
35,
34,
30,
31,
30,
32,
32,
30,
30,
26,
28,
31,
31,
28,
24,
25,
27,
27,
24,
18,
18,
19,
20,
17,
14,
12,
11,
13,
12,
11,
6,
6,
6,
7,
6,
1,
-1,
-3,
-3,
-3,
-5,
-7,
-11,
-12,
-9,
-9,
-13,
-18,
-20,
-17,
-16,
-19,
-21,
-25,
-25,
-24,
-24,
-26,
-30,
-32,
-29,
-27,
-29,
-33,
-34,
-30,
-28,
-31,
-33,
-35,
-32,
-32,
-31,
-31,
-33,
-34,
-32,
-30,
-30,
-31,
-29,
-27,
-25,
-26,
-26,
-25,
-24,
-23,
-23,
-22,
-21,
-21,
-18,
-17,
-18,
-18,
-15,
-8,
-8,
-8,
-7,
-6,
-3,
-1,
0,
-1,
-3,
0,
3,
6,
4,
3,
6,
11,
15,
15,
15,
14,
17,
22,
26,
22,
19,
20,
25,
27,
26,
24,
22,
26,
30,
33,
31,
28,
29,
33,
38,
35,
31,
28,
30,
35,
34,
29,
27,
27,
30,
32,
32,
28,
24,
28,
32,
31,
26,
23,
24,
24,
24,
20,
17,
16,
17,
17,
17,
14,
10,
9,
11,
12,
7,
6,
3,
3,
3,
1,
0,
-4,
-7,
-7,
-6,
-7,
-12,
-13,
-14,
-13,
-14,
-17,
-17,
-20,
-20,
-21,
-21,
-24,
-25,
-25,
-27,
-28,
-27,
-30,
-29,
-29,
-30,
-31,
-30,
-29,
-30,
-33,
-35,
-34,
-30,
-32,
-33,
-37,
-34,
-31,
-27,
-28,
-31,
-32,
-26,
-24,
-23,
-27,
-27,
-26,
-22,
-20,
-21,
-23,
-22,
-21,
-16,
-14,
-14,
-15,
-12,
-8,
-6,
-7,
-5,
-4,
-4,
-1,
0,
2,
1,
1,
5,
6,
10,
9,
10,
14,
17,
17,
18,
17,
18,
20,
25,
23,
20,
23,
25,
25,
26,
28,
25,
29,
33,
31,
33,
32,
32,
34,
33,
32,
31,
31,
34,
32,
28,
28,
31,
33,
32,
29,
28,
29,
29,
29,
29,
24,
23,
25,
25,
23,
18,
15,
17,
19,
18,
15,
11,
10,
13,
13,
11,
6,
3,
2,
5,
4,
1,
-5,
-6,
-4,
-2,
-7,
-9,
-15,
-14,
-11,
-9,
-13,
-19,
-21,
-18,
-15,
-19,
-26,
-29,
-26,
-22,
-21,
-26,
-32,
-32,
-27,
-25,
-27,
-31,
-36,
-34,
-29,
-29,
-33,
-35,
-36,
-32,
-29,
-30,
-32,
-34,
-33,
-27,
-25,
-27,
-28,
-29,
-25,
-23,
-24,
-25,
-25,
-25,
-22,
-20,
-19,
-19,
-19,
-15,
-13,
-11,
-11,
-10,
-8,
-6,
-5,
-3,
-4,
-3,
-3,
0,
2,
4,
4,
7,
9,
10,
12,
14,
15,
16,
16,
17,
19,
20,
21,
21,
23,
22,
25,
27,
27,
26,
27,
30,
32,
33,
32,
31,
31,
34,
33,
33,
29,
28,
31,
33,
34,
29,
27,
30,
33,
34,
29,
29,
27,
27,
31,
27,
24,
20,
19,
23,
22,
18,
15,
16,
18,
16,
15,
11,
11,
10,
9,
9,
6,
4,
1,
-1,
0,
-1,
-4,
-7,
-8,
-7,
-10,
-8,
-10,
-14,
-14,
-14,
-15,
-18,
-20,
-21,
-21,
-22,
-25,
-25,
-25,
-27,
-25,
-30,
-29,
-28,
-28,
-30,
-32,
-32,
-33,
-30,
-31,
-34,
-35,
-34,
-30,
-30,
-33,
-34,
-32,
-27,
-26,
-27,
-30,
-30,
-28,
-22,
-24,
-27,
-28,
-26,
-22,
-20,
-21,
-22,
-20,
-16,
-13,
-11,
-12,
-14,
-11,
-8,
-4,
-4,
-7,
-6,
-5,
0,
2,
2,
1,
3,
9,
14,
15,
11,
10,
13,
20,
22,
17,
16,
17,
21,
26,
25,
22,
20,
26,
29,
33,
27,
27,
29,
32,
34,
31,
29,
29,
29,
32,
34,
32,
30,
31,
33,
34,
33,
31,
29,
31,
29,
30,
28,
26,
24,
25,
25,
24,
22,
20,
20,
20,
19,
18,
18,
16,
14,
13,
10,
8,
6,
6,
6,
3,
2,
0,
0,
-1,
-3,
-4,
-5,
-6,
-7,
-10,
-12,
-13,
-15,
-15,
-16,
-19,
-21,
-20,
-19,
-21,
-24,
-27,
-25,
-23,
-23,
-29,
-32,
-31,
-29,
-28,
-30,
-34,
-35,
-33,
-31,
-30,
-32,
-36,
-34,
-29,
-28,
-31,
-31,
-32,
-30,
-27,
-26,
-28,
-29,
-30,
-26,
-24,
-25,
-25,
-24,
-21,
-19,
-18,
-16,
-14,
-15,
-14,
-12,
-9,
-9,
-10,
-9,
-6,
-5,
-5,
-2,
0,
0,
1,
5,
7,
8,
9,
11,
13,
16,
16,
16,
16,
17,
17,
20,
20,
22,
23,
25,
26,
27,
30,
30,
27,
28,
30,
33,
33,
30,
27,
31,
34,
34,
31,
28,
31,
33,
35,
35,
31,
26,
28,
33,
33,
27,
21,
24,
26,
28,
25,
19,
19,
22,
25,
25,
18,
15,
15,
16,
17,
12,
5,
5,
5,
9,
8,
3,
-1,
-3,
-1,
1,
0,
-4,
-10,
-7,
-6,
-7,
-12,
-17,
-18,
-16,
-15,
-16,
-22,
-25,
-24,
-21,
-20,
-24,
-27,
-26,
-25,
-25,
-27,
-32,
-35,
-31,
-31,
-30,
-32,
-33,
-34,
-32,
-30,
-30,
-33,
-31,
-28,
-29,
-32,
-31,
-28,
-29,
-29,
-30,
-28,
-27,
-25,
-25,
-25,
-24,
-22,
-21,
-19,
-18,
-17,
-15,
-14,
-12,
-12,
-10,
-9,
-10,
-8,
-5,
-4,
-4,
-4,
0,
4,
6,
5,
5,
7,
10,
13,
14,
13,
12,
13,
18,
20,
18,
17,
19,
23,
24,
27,
25,
25,
27,
30,
32,
28,
27,
28,
32,
33,
30,
30,
30,
32,
34,
33,
33,
31,
32,
32,
33,
32,
29,
27,
29,
27,
27,
26,
25,
24,
24,
25,
25,
23,
21,
19,
19,
19,
18,
14,
12,
11,
10,
9,
8,
6,
4,
1,
1,
1,
0,
-1,
-4,
-5,
-7,
-7,
-8,
-12,
-14,
-17,
-16,
-14,
-18,
-21,
-23,
-22,
-20,
-21,
-22,
-27,
-27,
-25,
-24,
-25,
-31,
-34,
-34,
-29,
-28,
-33,
-35,
-36,
-31,
-28,
-29,
-34,
-34,
-33,
-27,
-27,
-30,
-36,
-35,
-29,
-26,
-27,
-31,
-31,
-29,
-23,
-20,
-22,
-24,
-23,
-21,
-15,
-15,
-17,
-18,
-15,
-12,
-10,
-8,
-9,
-11,
-7,
-2,
0,
0,
-3,
0,
5,
7,
8,
8,
6,
10,
13,
15,
14,
13,
14,
19,
21,
21,
18,
20,
24,
26,
29,
27,
26,
27,
29,
30,
30,
27,
29,
32,
32,
32,
32,
34,
35,
34,
31,
31,
32,
32,
32,
31,
27,
27,
29,
29,
25,
24,
25,
26,
26,
24,
23,
20,
22,
21,
19,
17,
15,
12,
13,
11,
12,
7,
5,
4,
5,
6,
3,
1,
-3,
-2,
-1,
-2,
-6,
-13,
-12,
-10,
-9,
-12,
-20,
-19,
-19,
-16,
-18,
-23,
-26,
-24,
-21,
-21,
-25,
-29,
-32,
-29,
-27,
-30,
-33,
-34,
-31,
-30,
-32,
-32,
-34,
-31,
-31,
-31,
-29,
-30,
-31,
-31,
-30,
-30,
-31,
-30,
-30,
-30,
-30,
-26,
-26,
-25,
-23,
-23,
-21,
-19,
-19,
-19,
-19,
-17,
-15,
-13,
-13,
-13,
-12,
-10,
-8,
-4,
-3,
-3,
-2,
0,
3,
7,
7,
6,
5,
8,
12,
14,
12,
11,
12,
16,
19,
21,
18,
19,
23,
28,
28,
25,
24,
24,
28,
32,
29,
28,
26,
28,
33,
35,
33,
26,
30,
33,
36,
35,
29,
29,
29,
31,
31,
28,
26,
24,
28,
30,
28,
22,
21,
25,
26,
24,
21,
17,
17,
18,
17,
15,
11,
10,
9,
11,
10,
5,
3,
2,
4,
4,
2,
0,
-5,
-4,
-6,
-7,
-9,
-13,
-14,
-13,
-13,
-16,
-19,
-17,
-18,
-19,
-21,
-23,
-24,
-24,
-23,
-26,
-28,
-28,
-29,
-29,
-29,
-32,
-36,
-32,
-29,
-30,
-34,
-34,
-32,
-30,
-31,
-34,
-36,
-34,
-31,
-29,
-29,
-32,
-34,
-30,
-25,
-25,
-25,
-29,
-25,
-22,
-21,
-19,
-21,
-22,
-20,
-16,
-16,
-16,
-17,
-15,
-10,
-8,
-5,
-6,
-5,
-5,
0,
3,
2,
1,
-1,
2,
7,
9,
7,
7,
9,
16,
18,
17,
16,
17,
20,
24,
24,
21,
20,
26,
26,
27,
27,
25,
26,
29,
31,
32,
32,
32,
33,
34,
34,
34,
33,
32,
32,
30,
31,
31,
32,
28,
28,
30,
29,
31,
28,
27,
27,
27,
28,
25,
22,
19,
17,
19,
18,
16,
12,
13,
13,
12,
12,
8,
5,
6,
5,
6,
4,
-1,
-5,
-5,
-2,
-5,
-7,
-11,
-13,
-13,
-11,
-11,
-16,
-20,
-20,
-17,
-14,
-20,
-26,
-27,
-22,
-21,
-23,
-30,
-32,
-31,
-29,
-26,
-30,
-35,
-35,
-31,
-28,
-29,
-35,
-36,
-35,
-31,
-31,
-32,
-35,
-34,
-32,
-29,
-29,
-30,
-31,
-29,
-25,
-25,
-24,
-27,
-26,
-22,
-21,
-20,
-21,
-22,
-21,
-17,
-14,
-13,
-12,
-10,
-8,
-6,
-6,
-5,
-3,
-3,
-1,
1,
1,
3,
3,
6,
7,
7,
10,
13,
15,
16,
16,
17,
19,
21,
23,
22,
20,
20,
25,
26,
26,
25,
25,
29,
32,
32,
30,
30,
32,
34,
35,
33,
30,
28,
31,
33,
32,
28,
26,
30,
32,
32,
28,
27,
27,
27,
31,
30,
26,
22,
23,
23,
23,
19,
16,
15,
16,
17,
15,
11,
9,
9,
11,
9,
7,
3,
0,
1,
2,
1,
-4,
-7,
-8,
-8,
-9,
-9,
-13,
-16,
-15,
-13,
-14,
-17,
-21,
-21,
-21,
-21,
-25,
-25,
-25,
-26,
-25,
-30,
-28,
-30,
-31,
-30,
-30,
-30,
-31,
-31,
-32,
-33,
-34,
-32,
-30,
-31,
-35,
-34,
-31,
-28,
-31,
-30,
-29,
-27,
-25,
-22,
-26,
-27,
-25,
-22,
-20,
-20,
-23,
-22,
-21,
-16,
-14,
-14,
-13,
-13,
-9,
-5,
-5,
-6,
-7,
-4,
-1,
2,
1,
0,
0,
3,
7,
11,
11,
9,
10,
15,
19,
19,
16,
17,
20,
23,
25,
22,
20,
20,
27,
30,
28,
26,
26,
31,
35,
34,
31,
30,
32,
34,
33,
32,
31,
27,
31,
33,
32,
29,
29,
30,
32,
30,
29,
29,
29,
28,
28,
27,
24,
23,
20,
20,
19,
17,
15,
17,
16,
13,
13,
10,
11,
10,
9,
7,
3,
2,
1,
1,
-1,
-5,
-7,
-6,
-6,
-8,
-12,
-14,
-13,
-12,
-13,
-17,
-21,
-22,
-19,
-18,
-21,
-26,
-30,
-26,
-23,
-23,
-31,
-33,
-31,
-28,
-25,
-29,
-34,
-34,
-33,
-31,
-29,
-32,
-37,
-36,
-32,
-31,
-31,
-32,
-32,
-29,
-26,
-25,
-27,
-30,
-31,
-27,
-23,
-23,
-26,
-25,
-23,
-20,
-19,
-17,
-19,
-17,
-12,
-10,
-8,
-10,
-9,
-8,
-4,
-3,
-5,
-3,
-3,
-1,
1,
4,
5,
6,
9,
11,
14,
15,
14,
15,
18,
19,
20,
20,
19,
21,
20,
24,
25,
26,
27,
27,
28,
29,
32,
33,
32,
29,
31,
33,
35,
34,
30,
29,
31,
33,
32,
31,
30,
28,
33,
33,
32,
26,
26,
29,
29,
27,
25,
19,
23,
22,
24,
19,
17,
15,
14,
16,
16,
14,
9,
8,
10,
9,
7,
3,
-1,
0,
-1,
0,
-3,
-7,
-10,
-7,
-4,
-7,
-12,
-15,
-15,
-14,
-14,
-16,
-22,
-22,
-19,
-21,
-22,
-27,
-30,
-26,
-24,
-25,
-31,
-30,
-30,
-28,
-31,
-32,
-32,
-32,
-33,
-33,
-34,
-33,
-35,
-32,
-31,
-31,
-31,
-31,
-27,
-27,
-28,
-29,
-28,
-26,
-25,
-25,
-26,
-26,
-23,
-22,
-19,
-19,
-20,
-16,
-14,
-12,
-11,
-11,
-10,
-10,
-6,
-4,
-4,
-6,
-5,
-2,
2,
4,
2,
2,
5,
10,
14,
13,
11,
11,
16,
20,
22,
18,
15,
18,
24,
26,
25,
20,
24,
28,
32,
32,
28,
26,
29,
34,
35,
33,
28,
27,
32,
34,
33,
31,
29,
29,
33,
35,
34,
28,
28,
30,
33,
29,
25,
23,
22,
24,
26,
24,
20,
17,
19,
21,
21,
17,
14,
13,
13,
12,
8,
6,
3,
3,
3,
2,
0,
-3,
-3,
-2,
-3,
-4,
-7,
-7,
-9,
-12,
-13,
-15,
-15,
-18,
-21,
-21,
-21,
-20,
-23,
-23,
-25,
-26,
-23,
-25,
-27,
-30,
-32,
-31,
-29,
-30,
-35,
-36,
-34,
-30,
-31,
-33,
-35,
-35,
-32,
-29,
-28,
-30,
-33,
-32,
-28,
-26,
-28,
-30,
-30,
-27,
-24,
-23,
-25,
-26,
-23,
-18,
-15,
-16,
-17,
-18,
-15,
-10,
-9,
-9,
-10,
-10,
-7,
-4,
-3,
-3,
-2,
1,
4,
6,
5,
6,
8,
11,
15,
15,
12,
13,
16,
19,
20,
20,
17,
21,
25,
24,
25,
26,
30,
28,
29,
29,
28,
29,
33,
33,
31,
29,
30,
33,
35,
32,
30,
32,
33,
34,
32,
30,
28,
29,
31,
31,
25,
23,
25,
28,
27,
23,
20,
20,
22,
22,
20,
17,
16,
12,
14,
15,
11,
6,
4,
5,
7,
7,
1,
-3,
-3,
0,
1,
-1,
-8,
-12,
-11,
-7,
-8,
-15,
-20,
-20,
-15,
-14,
-19,
-24,
-26,
-22,
-19,
-19,
-25,
-29,
-30,
-25,
-25,
-29,
-34,
-35,
-31,
-30,
-31,
-34,
-36,
-33,
-31,
-30,
-30,
-31,
-32,
-31,
-28,
-28,
-29,
-31,
-30,
-28,
-27,
-25,
-27,
-28,
-27,
-23,
-20,
-19,
-20,
-19,
-16,
-14,
-13,
-13,
-12,
-12,
-11,
-7,
-8,
-7,
-5,
-4,
-3,
1,
2,
6,
6,
7,
7,
9,
13,
15,
13,
13,
14,
17,
18,
20,
18,
20,
25,
27,
27,
24,
25,
26,
31,
31,
28,
29,
27,
31,
32,
33,
32,
28,
31,
33,
35,
34,
30,
31,
33,
34,
32,
30,
28,
25,
26,
29,
28,
25,
24,
25,
25,
24,
22,
18,
20,
20,
19,
17,
12,
10,
10,
11,
10,
6,
2,
5,
3,
3,
0,
-1,
-1,
-3,
-4,
-6,
-8,
-11,
-11,
-12,
-13,
-16,
-19,
-17,
-19,
-21,
-23,
-22,
-21,
-22,
-23,
-27,
-29,
-27,
-27,
-29,
-31,
-33,
-34,
-31,
-30,
-33,
-37,
-36,
-31,
-29,
-31,
-34,
-35,
-31,
-30,
-29,
-31,
-34,
-34,
-30,
-27,
-28,
-32,
-31,
-27,
-22,
-20,
-21,
-25,
-23,
-19,
-14,
-14,
-17,
-19,
-14,
-9,
-8,
-10,
-13,
-9,
-6,
-1,
1,
-1,
-3,
1,
7,
10,
8,
5,
7,
12,
16,
15,
12,
11,
15,
20,
24,
21,
18,
19,
26,
27,
28,
25,
26,
26,
28,
30,
29,
27,
28,
29,
31,
32,
32,
30,
30,
32,
33,
31,
31,
31,
28,
29,
31,
27,
26,
26,
27,
27,
26,
25,
24,
22,
22,
23,
21,
18,
15,
15,
12,
12,
10,
9,
7,
5,
5,
3,
5,
3,
0,
-3,
-3,
-3,
-4,
-8,
-10,
-13,
-12,
-12,
-13,
-17,
-21,
-19,
-16,
-17,
-22,
-25,
-25,
-21,
-22,
-26,
-31,
-31,
-28,
-30,
-31,
-35,
-36,
-34,
-32,
-30,
-32,
-35,
-34,
-31,
-30,
-31,
-32,
-32,
-32,
-34,
-31,
-30,
-31,
-31,
-32,
-29,
-27,
-26,
-26,
-25,
-23,
-20,
-19,
-19,
-19,
-19,
-15,
-13,
-15,
-15,
-13,
-10,
-8,
-8,
-7,
-5,
-3,
-1,
0,
2,
4,
5,
8,
7,
7,
10,
13,
14,
13,
13,
15,
18,
21,
20,
20,
19,
23,
28,
27,
26,
24,
27,
30,
32,
29,
26,
27,
32,
34,
33,
32,
29,
30,
33,
35,
33,
27,
28,
31,
33,
30,
26,
25,
25,
29,
31,
28,
23,
20,
25,
28,
26,
20,
15,
16,
18,
18,
13,
8,
7,
9,
11,
10,
5,
1,
1,
5,
6,
-1,
-7,
-7,
-6,
-6,
-7,
-12,
-15,
-15,
-12,
-13,
-16,
-20,
-22,
-17,
-18,
-19,
-23,
-25,
-25,
-25,
-24,
-29,
-30,
-30,
-31,
-31,
-30,
-30,
-32,
-32,
-31,
-32,
-33,
-32,
-32,
-32,
-33,
-33,
-31,
-30,
-33,
-32,
-30,
-29,
-28,
-26,
-25,
-25,
-25,
-22,
-22,
-22,
-23,
-20,
-20,
-19,
-17,
-17,
-15,
-14,
-12,
-7,
-4,
-6,
-5,
-4,
0,
3,
1,
1,
0,
3,
7,
10,
7,
6,
9,
13,
19,
18,
16,
17,
20,
24,
25,
24,
22,
22,
27,
29,
26,
24,
27,
29,
32,
33,
31,
31,
34,
34,
33,
34,
33,
32,
31,
31,
31,
29,
30,
30,
27,
27,
28,
30,
27,
26,
27,
26,
27,
24,
21,
23,
19,
18,
17,
16,
15,
13,
11,
10,
10,
9,
7,
6,
3,
4,
3,
1,
-3,
-6,
-6,
-5,
-5,
-10,
-15,
-15,
-12,
-10,
-16,
-18,
-21,
-19,
-17,
-19,
-25,
-30,
-26,
-24,
-22,
-26,
-34,
-34,
-31,
-27,
-30,
-33,
-37,
-32,
-31,
-30,
-31,
-35,
-37,
-36,
-29,
-30,
-35,
-36,
-34,
-30,
-27,
-28,
-31,
-31,
-27,
-24,
-22,
-23,
-27,
-26,
-21,
-18,
-19,
-22,
-23,
-20,
-14,
-11,
-12,
-14,
-12,
-6,
-3,
-4,
-6,
-6,
-3,
1,
3,
2,
2,
2,
5,
9,
11,
10,
12,
14,
18,
19,
17,
19,
20,
22,
23,
23,
23,
23,
26,
26,
28,
27,
29,
31,
31,
30,
30,
32,
33,
33,
32,
30,
31,
32,
31,
31,
29,
28,
29,
31,
29,
26,
27,
28,
28,
27,
25,
25,
21,
21,
23,
19,
16,
14,
13,
15,
17,
12,
7,
7,
8,
11,
7,
5,
1,
-1,
0,
0,
-3,
-7,
-9,
-9,
-7,
-10,
-14,
-15,
-14,
-14,
-15,
-17,
-21,
-22,
-21,
-20,
-23,
-26,
-27,
-29,
-25,
-27,
-31,
-32,
-30,
-30,
-31,
-31,
-31,
-31,
-33,
-33,
-34,
-33,
-33,
-32,
-34,
-33,
-33,
-31,
-29,
-30,
-31,
-27,
-26,
-25,
-25,
-25,
-26,
-23,
-22,
-22,
-21,
-21,
-21,
-18,
-15,
-13,
-13,
-14,
-10,
-8,
-6,
-3,
-5,
-6,
-4,
2,
3,
2,
-1,
0,
6,
11,
12,
9,
9,
12,
18,
22,
19,
16,
17,
22,
26,
24,
20,
19,
23,
28,
30,
29,
25,
26,
32,
35,
35,
28,
29,
32,
35,
34,
30,
30,
27,
29,
33,
33,
31,
26,
29,
32,
34,
29,
25,
25,
27,
27,
26,
20,
18,
18,
19,
21,
18,
13,
13,
13,
16,
13,
9,
8,
7,
9,
6,
3,
0,
-1,
-2,
-3,
-5,
-8,
-9,
-7,
-9,
-12,
-14,
-13,
-15,
-16,
-19,
-19,
-19,
-20,
-23,
-23,
-26,
-27,
-25,
-27,
-28,
-29,
-31,
-30,
-28,
-29,
-33,
-33,
-32,
-32,
-31,
-33,
-34,
-33,
-34,
-31,
-29,
-30,
-33,
-33,
-29,
-25,
-25,
-27,
-29,
-27,
-24,
-23,
-24,
-25,
-24,
-22,
-17,
-18,
-18,
-17,
-13,
-10,
-9,
-8,
-9,
-9,
-5,
-2,
-3,
-3,
-4,
-1,
3,
5,
5,
5,
7,
9,
12,
15,
15,
16,
17,
18,
19,
19,
19,
20,
22,
22,
25,
26,
27,
26,
27,
30,
32,
32,
31,
31,
32,
31,
32,
31,
32,
28,
29,
31,
33,
31,
29,
30,
31,
31,
31,
30,
26,
26,
28,
28,
25,
22,
18,
19,
22,
20,
17,
14,
14,
15,
16,
15,
11,
7,
7,
8,
8,
4,
-1,
-3,
-1,
0,
-2,
-7,
-12,
-12,
-8,
-5,
-9,
-17,
-20,
-15,
-12,
-15,
-23,
-26,
-25,
-21,
-21,
-26,
-28,
-30,
-27,
-25,
-27,
-31,
-35,
-33,
-29,
-29,
-34,
-35,
-36,
-32,
-31,
-33,
-34,
-35,
-35,
-32,
-29,
-30,
-32,
-31,
-29,
-27,
-27,
-29,
-29,
-29,
-24,
-23,
-23,
-23,
-23,
-21,
-15,
-15,
-17,
-15,
-9,
-10,
-10,
-8,
-8,
-6,
-4,
-3,
-3,
-3,
-1,
3,
5,
4,
5,
9,
12,
13,
12,
12,
15,
18,
18,
18,
16,
18,
22,
25,
25,
24,
24,
25,
31,
32,
30,
29,
31,
31,
33,
32,
32,
28,
31,
33,
35,
34,
31,
30,
32,
34,
33,
31,
27,
26,
30,
31,
28,
23,
20,
22,
26,
25,
20,
17,
18,
20,
20,
19,
15,
12,
13,
13,
11,
6,
2,
3,
4,
4,
-1,
-1,
-3,
-3,
-3,
-5,
-5,
-8,
-10,
-12,
-13,
-14,
-17,
-17,
-19,
-20,
-21,
-20,
-21,
-24,
-25,
-25,
-24,
-24,
-25,
-29,
-30,
-30,
-30,
-30,
-32,
-34,
-35,
-33,
-30,
-30,
-35,
-34,
-32,
-29,
-27,
-27,
-31,
-31,
-31,
-26,
-25,
-28,
-31,
-29,
-24,
-22,
-23,
-24,
-25,
-20,
-14,
-11,
-15,
-17,
-17,
-12,
-8,
-7,
-11,
-12,
-8,
-3,
-2,
-1,
-3,
-1,
4,
9,
8,
6,
5,
9,
15,
18,
14,
14,
15,
17,
20,
23,
18,
18,
25,
27,
28,
25,
25,
27,
31,
32,
33,
30,
28,
29,
31,
33,
32,
31,
32,
32,
35,
33,
31,
33,
33,
32,
31,
31,
27,
26,
26,
27,
25,
24,
25,
25,
23,
22,
20,
21,
20,
20,
17,
14,
13,
12,
11,
8,
5,
4,
3,
5,
3,
-1,
-3,
-1,
1,
-1,
-7,
-9,
-10,
-10,
-10,
-12,
-17,
-19,
-19,
-17,
-19,
-22,
-27,
-25,
-21,
-22,
-25,
-29,
-30,
-28,
-25,
-29,
-31,
-34,
-35,
-31,
-31,
-32,
-35,
-36,
-35,
-30,
-31,
-30,
-32,
-32,
-32,
-29,
-28,
-31,
-34,
-32,
-28,
-26,
-27,
-29,
-30,
-23,
-19,
-19,
-20,
-21,
-19,
-15,
-14,
-14,
-14,
-13,
-9,
-10,
-8,
-9,
-6,
-5,
-3,
1,
1,
4,
3,
5,
7,
9,
12,
13,
12,
12,
13,
17,
18,
18,
16,
18,
22,
24,
26,
25,
24,
25,
28,
31,
31,
26,
26,
28,
33,
32,
29,
28,
31,
34,
34,
34,
30,
29,
31,
33,
34,
29,
27,
25,
27,
29,
27,
25,
22,
22,
26,
26,
24,
18,
15,
19,
20,
18,
10,
8,
8,
10,
11,
7,
2,
0,
1,
3,
2,
-2,
-6,
-5,
-3,
-5,
-9,
-12,
-14,
-12,
-13,
-14,
-19,
-21,
-21,
-19,
-20,
-22,
-24,
-23,
-22,
-24,
-25,
-31,
-29,
-30,
-31,
-32,
-34,
-33,
-34,
-33,
-31,
-33,
-34,
-33,
-31,
-30,
-33,
-32,
-31,
-30,
-31,
-32,
-32,
-31,
-31,
-27,
-27,
-30,
-27,
-24,
-21,
-20,
-21,
-21,
-19,
-16,
-15,
-14,
-14,
-15,
-13,
-8,
-7,
-10,
-10,
-9,
-1,
2,
1,
1,
0,
6,
11,
11,
8,
7,
9,
14,
17,
16,
13,
14,
19,
23,
25,
21,
20,
23,
27,
32,
27,
26,
26,
29,
32,
30,
29,
28,
31,
32,
33,
34,
32,
30,
31,
33,
34,
33,
29,
28,
28,
29,
29,
28,
26,
26,
28,
28,
26,
22,
20,
24,
24,
22,
17,
16,
15,
14,
13,
11,
9,
7,
6,
6,
5,
4,
1,
1,
-1,
-3,
-3,
-2,
-6,
-10,
-13,
-12,
-11,
-12,
-17,
-19,
-19,
-17,
-17,
-19,
-23,
-24,
-23,
-21,
-22,
-28,
-33,
-31,
-29,
-28,
-33,
-35,
-36,
-32,
-32,
-31,
-34,
-33,
-34,
-30,
-27,
-29,
-33,
-34,
-32,
-30,
-28,
-29,
-32,
-32,
-27,
-25,
-24,
-26,
-27,
-24,
-19,
-18,
-19,
-21,
-17,
-15,
-13,
-12,
-14,
-14,
-12,
-7,
-6,
-6,
-7,
-5,
0,
3,
3,
3,
4,
7,
9,
11,
10,
10,
12,
13,
16,
16,
17,
20,
22,
22,
24,
25,
26,
26,
28,
28,
27,
28,
29,
30,
28,
28,
29,
33,
34,
33,
31,
30,
33,
34,
32,
33,
29,
28,
30,
31,
31,
25,
25,
28,
28,
28,
25,
24,
23,
24,
26,
21,
18,
13,
15,
17,
17,
11,
6,
7,
10,
12,
7,
1,
0,
2,
4,
3,
-3,
-8,
-11,
-5,
-4,
-10,
-17,
-18,
-15,
-12,
-15,
-17,
-21,
-21,
-18,
-17,
-21,
-26,
-27,
-29,
-25,
-24,
-30,
-31,
-32,
-30,
-31,
-31,
-32,
-32,
-33,
-30,
-29,
-30,
-33,
-35,
-34,
-31,
-31,
-33,
-32,
-31,
-31,
-28,
-27,
-27,
-27,
-25,
-24,
-23,
-23,
-23,
-22,
-20,
-21,
-19,
-17,
-17,
-15,
-14,
-12,
-8,
-7,
-6,
-6,
-5,
-2,
2,
2,
1,
1,
2,
5,
9,
8,
7,
10,
14,
17,
18,
17,
16,
19,
25,
24,
22,
19,
22,
26,
27,
28,
25,
25,
26,
30,
32,
32,
31,
31,
33,
34,
34,
31,
30,
29,
31,
32,
31,
29,
27,
29,
31,
31,
27,
25,
27,
28,
28,
27,
24,
21,
21,
20,
19,
16,
13,
14,
15,
15,
10,
8,
8,
9,
9,
4,
2,
2,
2,
0,
-3,
-6,
-6,
-7,
-7,
-9,
-14,
-13,
-14,
-13,
-15,
-22,
-19,
-19,
-19,
-21,
-25,
-26,
-26,
-24,
-24,
-28,
-31,
-32,
-30,
-27,
-29,
-34,
-33,
-30,
-29,
-31,
-32,
-35,
-35,
-33,
-31,
-29,
-31,
-36,
-32,
-28,
-25,
-26,
-31,
-29,
-26,
-21,
-21,
-24,
-26,
-23,
-19,
-16,
-18,
-23,
-20,
-14,
-9,
-9,
-13,
-12,
-8,
-3,
-1,
-1,
-3,
-2,
3,
4,
6,
3,
4,
6,
11,
14,
14,
13,
13,
17,
20,
22,
21,
20,
22,
23,
24,
25,
24,
25,
26,
29,
31,
32,
29,
31,
34,
35,
35,
33,
33,
33,
32,
32,
32,
32,
29,
29,
31,
32,
31,
30,
31,
29,
27,
29,
28,
27,
25,
21,
21,
21,
20,
17,
16,
16,
15,
14,
14,
10,
8,
9,
