5-grundlagen-opAmps/data/ALL0007/A0007CH1.CSV

Memory Length,4000,
Trigger Level,0.00000e+00,
Source,CH1,
Probe,1.0X,
Vertical Units,V,
Vertical Scale,5.00000e-02,
Vertical Position,0.00000e+00,
Horizontal Units,S,
Horizontal Scale,1.00000e-07,
Horizontal Position,1.0000000e-07,
Horizontal Mode,Main,
Sampling Period,2.00000e-09,
Firmware,V1.14,
Time, ,
Mode,Fast,
Waveform Data,
0,
0,
2,
-2,
-5,
-4,
3,
9,
7,
2,
-2,
4,
14,
14,
9,
5,
6,
15,
18,
16,
10,
10,
14,
22,
25,
17,
10,
13,
23,
27,
24,
16,
13,
19,
26,
26,
19,
14,
15,
20,
26,
21,
16,
15,
16,
20,
22,
17,
14,
12,
14,
17,
18,
12,
7,
8,
12,
12,
9,
5,
3,
4,
5,
5,
3,
-2,
-3,
0,
2,
-3,
-7,
-9,
-8,
-6,
-8,
-10,
-12,
-15,
-15,
-14,
-13,
-16,
-19,
-20,
-23,
-20,
-21,
-20,
-23,
-27,
-30,
-27,
-23,
-23,
-29,
-32,
-29,
-25,
-24,
-29,
-33,
-34,
-27,
-27,
-28,
-32,
-36,
-32,
-27,
-25,
-32,
-35,
-33,
-27,
-24,
-27,
-29,
-30,
-28,
-24,
-19,
-22,
-27,
-27,
-20,
-16,
-16,
-20,
-21,
-19,
-15,
-11,
-10,
-13,
-16,
-14,
-5,
-4,
-6,
-8,
-5,
-1,
1,
0,
-2,
-1,
3,
7,
8,
3,
2,
6,
12,
13,
10,
9,
9,
14,
17,
16,
14,
14,
16,
17,
16,
17,
18,
21,
21,
18,
17,
19,
23,
25,
20,
16,
17,
21,
24,
21,
17,
15,
17,
21,
20,
17,
14,
13,
17,
18,
15,
13,
8,
10,
13,
13,
11,
4,
3,
7,
9,
5,
1,
-4,
-1,
3,
3,
-4,
-9,
-11,
-6,
0,
-3,
-12,
-18,
-16,
-10,
-7,
-14,
-23,
-23,
-17,
-13,
-15,
-24,
-27,
-24,
-18,
-17,
-24,
-32,
-32,
-24,
-21,
-24,
-32,
-35,
-29,
-26,
-25,
-28,
-35,
-35,
-32,
-26,
-27,
-32,
-35,
-32,
-27,
-26,
-27,
-30,
-30,
-29,
-27,
-23,
-26,
-28,
-27,
-23,
-21,
-20,
-22,
-20,
-20,
-18,
-16,
-16,
-16,
-15,
-13,
-12,
-11,
-11,
-9,
-7,
-7,
-6,
-4,
-1,
-2,
-2,
-1,
1,
4,
3,
4,
4,
4,
9,
13,
12,
7,
5,
12,
18,
18,
13,
11,
12,
18,
22,
19,
15,
14,
17,
23,
24,
18,
17,
17,
21,
24,
20,
16,
17,
20,
24,
22,
18,
15,
16,
21,
21,
18,
13,
11,
14,
15,
16,
14,
8,
7,
8,
11,
11,
6,
2,
3,
4,
5,
4,
-1,
-2,
-2,
-1,
-2,
-6,
-9,
-10,
-8,
-9,
-12,
-15,
-13,
-11,
-13,
-18,
-20,
-17,
-18,
-18,
-20,
-23,
-24,
-24,
-25,
-27,
-27,
-29,
-25,
-23,
-29,
-34,
-32,
-25,
-23,
-29,
-35,
-34,
-29,
-25,
-27,
-32,
-36,
-33,
-28,
-24,
-27,
-34,
-35,
-27,
-21,
-24,
-28,
-32,
-27,
-21,
-20,
-19,
-26,
-26,
-20,
-14,
-13,
-18,
-23,
-19,
-11,
-6,
-8,
-14,
-17,
-11,
-1,
2,
-6,
-11,
-9,
1,
7,
4,
-3,
-4,
2,
9,
12,
7,
1,
4,
12,
16,
12,
8,
7,
15,
20,
18,
14,
12,
15,
20,
22,
21,
15,
15,
21,
20,
24,
20,
16,
18,
19,
23,
23,
20,
16,
17,
19,
21,
20,
18,
16,
16,
16,
17,
16,
13,
12,
11,
11,
12,
10,
8,
9,
6,
5,
4,
5,
3,
1,
-2,
-1,
1,
-1,
-4,
-7,
-8,
-7,
-7,
-9,
-13,
-15,
-13,
-10,
-11,
-19,
-23,
-20,
-16,
-13,
-19,
-28,
-28,
-23,
-20,
-21,
-27,
-31,
-29,
-26,
-24,
-27,
-33,
-33,
-29,
-27,
-28,
-32,
-33,
-31,
-29,
-28,
-29,
-31,
-32,
-29,
-27,
-27,
-29,
-32,
-28,
-27,
-24,
-25,
-27,
-25,
-24,
-21,
-18,
-18,
-21,
-23,
-18,
-15,
-14,
-15,
-15,
-15,
-12,
-10,
-7,
-8,
-8,
-6,
-5,
-4,
-2,
1,
2,
0,
0,
3,
5,
7,
6,
6,
6,
9,
11,
13,
11,
9,
11,
17,
19,
13,
10,
15,
21,
25,
20,
15,
12,
20,
26,
26,
19,
12,
14,
23,
29,
22,
16,
13,
18,
25,
24,
19,
13,
13,
18,
22,
20,
12,
8,
12,
17,
17,
11,
5,
5,
9,
14,
11,
2,
-2,
0,
7,
9,
1,
-8,
-8,
-2,
2,
-1,
-10,
-16,
-12,
-6,
-5,
-10,
-19,
-20,
-14,
-11,
-15,
-21,
-24,
-23,
-18,
-19,
-25,
-24,
-26,
-24,
-24,
-28,
-29,
-29,
-28,
-27,
-28,
-30,
-31,
-31,
-29,
-30,
-30,
-29,
-31,
-32,
-32,
-29,
-27,
-29,
-31,
-30,
-29,
-27,
-27,
-26,
-27,
-27,
-28,
-24,
-22,
-21,
-20,
-23,
-21,
-20,
-16,
-14,
-15,
-18,
-18,
-11,
-8,
-9,
-11,
-11,
-8,
-3,
-2,
-4,
-7,
-4,
3,
5,
3,
-1,
0,
6,
10,
9,
4,
4,
10,
15,
17,
13,
8,
9,
16,
20,
18,
14,
12,
16,
20,
22,
19,
17,
17,
19,
21,
21,
20,
18,
20,
20,
19,
18,
19,
18,
18,
18,
19,
18,
15,
14,
16,
16,
17,
14,
12,
10,
11,
11,
12,
9,
6,
3,
5,
5,
5,
4,
1,
-1,
-3,
-2,
0,
-2,
-8,
-12,
-11,
-7,
-7,
-11,
-16,
-17,
-15,
-12,
-13,
-18,
-23,
-22,
-16,
-16,
-21,
-27,
-28,
-23,
-19,
-24,
-31,
-34,
-29,
-24,
-24,
-28,
-38,
-36,
-29,
-21,
-26,
-34,
-38,
-33,
-25,
-23,
-27,
-35,
-35,
-29,
-25,
-23,
-29,
-33,
-29,
-23,
-19,
-22,
-28,
-28,
-21,
-17,
-16,
-20,
-24,
-22,
-14,
-10,
-12,
-18,
-20,
-11,
-6,
-4,
-8,
-12,
-8,
-2,
1,
1,
-4,
-6,
-1,
5,
7,
3,
3,
5,
8,
9,
10,
9,
10,
12,
14,
12,
12,
15,
17,
17,
14,
15,
18,
20,
21,
18,
19,
20,
20,
19,
20,
19,
20,
22,
22,
19,
15,
17,
20,
22,
19,
16,
14,
15,
18,
18,
16,
13,
11,
10,
14,
15,
10,
6,
5,
8,
11,
9,
4,
0,
-1,
2,
5,
1,
-6,
-8,
-4,
-1,
-5,
-12,
-15,
-12,
-8,
-9,
-14,
-18,
-19,
-15,
-11,
-17,
-23,
-25,
-24,
-16,
-20,
-25,
-28,
-27,
-25,
-24,
-26,
-28,
-29,
-31,
-29,
-27,
-27,
-29,
-32,
-32,
-31,
-31,
-29,
-29,
-30,
-31,
-29,
-28,
-28,
-29,
-29,
-27,
-26,
-26,
-26,
-27,
-25,
-25,
-23,
-19,
-21,
-22,
-24,
-17,
-15,
-14,
-15,
-18,
-17,
-13,
-8,
-6,
-10,
-15,
-11,
-3,
1,
-1,
-7,
-7,
-1,
6,
9,
3,
-2,
0,
10,
15,
10,
5,
4,
11,
17,
18,
12,
8,
11,
18,
22,
19,
11,
11,
18,
28,
25,
17,
12,
15,
25,
27,
24,
16,
14,
17,
24,
26,
19,
14,
14,
19,
24,
20,
16,
11,
13,
18,
19,
13,
9,
8,
12,
15,
11,
5,
3,
5,
8,
7,
3,
-2,
-2,
1,
3,
0,
-6,
-8,
-7,
-4,
-7,
-11,
-13,
-12,
-11,
-14,
-15,
-15,
-16,
-16,
-18,
-20,
-22,
-21,
-19,
-19,
-25,
-28,
-26,
-23,
-23,
-28,
-32,
-31,
-27,
-27,
-29,
-32,
-31,
-29,
-29,
-29,
-31,
-34,
-31,
-28,
-27,
-29,
-33,
-31,
-27,
-25,
-27,
-29,
-31,
-29,
-24,
-20,
-21,
-27,
-28,
-23,
-16,
-14,
-19,
-20,
-20,
-15,
-9,
-9,
-15,
-16,
-11,
-5,
-3,
-7,
-11,
-7,
0,
2,
0,
-4,
-1,
2,
7,
9,
4,
2,
7,
10,
12,
9,
9,
11,
14,
16,
16,
15,
15,
15,
16,
18,
19,
19,
19,
17,
17,
19,
23,
23,
20,
17,
18,
21,
23,
21,
19,
17,
18,
21,
20,
18,
14,
15,
17,
16,
15,
12,
10,
11,
13,
14,
12,
6,
4,
5,
11,
11,
3,
-2,
-3,
1,
6,
2,
-5,
-11,
-7,
-2,
0,
-6,
-16,
-17,
-12,
-5,
-9,
-19,
-24,
-19,
-13,
-13,
-19,
-28,
-25,
-21,
-16,
-20,
-29,
-31,
-27,
-20,
-21,
-28,
-35,
-33,
-28,
-25,
-27,
-31,
-35,
-34,
-28,
-24,
-28,
-34,
-36,
-30,
-26,
-26,
-29,
-33,
-30,
-28,
-26,
-24,
-28,
-28,
-25,
-23,
-21,
-23,
-25,
-19,
-17,
-16,
-19,
-18,
-16,
-13,
-11,
-11,
-13,
-12,
-8,
-5,
-7,
-8,
-5,
-2,
0,
-2,
-2,
1,
5,
5,
5,
3,
3,
7,
12,
13,
7,
5,
11,
15,
18,
15,
11,
12,
17,
21,
21,
17,
14,
17,
22,
23,
19,
17,
17,
21,
25,
22,
17,
16,
18,
22,
24,
18,
14,
13,
18,
22,
20,
14,
10,
12,
17,
18,
16,
7,
4,
8,
12,
14,
7,
1,
1,
5,
7,
4,
-2,
-4,
-2,
-1,
-1,
-7,
-9,
-9,
-7,
-6,
-11,
-15,
-15,
-13,
-14,
-16,
-19,
-19,
-20,
-20,
-19,
-19,
-20,
-24,
-27,
-27,
-25,
-25,
-25,
-28,
-31,
-32,
-28,
-24,
-29,
-34,
-34,
-30,
-25,
-26,
-32,
-34,
-34,
-28,
-26,
-27,
-31,
-34,
-29,
-27,
-25,
-28,
-32,
-28,
-23,
-22,
-21,
-24,
-26,
-24,
-16,
-13,
-18,
-22,
-23,
-17,
-8,
-8,
-14,
-18,
-15,
-6,
-1,
-3,
-9,
-13,
-5,
4,
5,
0,
-5,
-1,
7,
11,
7,
3,
2,
8,
16,
15,
10,
6,
9,
17,
19,
15,
11,
13,
18,
20,
21,
17,
15,
17,
19,
22,
22,
18,
17,
18,
22,
21,
19,
19,
18,
19,
20,
20,
17,
16,
17,
17,
16,
15,
14,
14,
15,
12,
10,
9,
9,
10,
10,
5,
3,
3,
7,
4,
1,
-3,
-3,
0,
-1,
-4,
-9,
-8,
-4,
-5,
-9,
-15,
-17,
-14,
-10,
-10,
-18,
-23,
-19,
-15,
-15,
-21,
-28,
-27,
-22,
-21,
-24,
-27,
-30,
-31,
-26,
-23,
-26,
-32,
-34,
-29,
-26,
-28,
-30,
-34,
-31,
-29,
-27,
-27,
-31,
-35,
-32,
-24,
-23,
-29,
-32,
-31,
-25,
-21,
-22,
-28,
-29,
-26,
-19,
-16,
-20,
-25,
-25,
-17,
-14,
-14,
-16,
-16,
-15,
-12,
-10,
-8,
-11,
-11,
-7,
-3,
-2,
-3,
-2,
-1,
1,
2,
3,
4,
5,
4,
8,
8,
11,
11,
9,
9,
12,
16,
17,
15,
10,
11,
18,
20,
21,
16,
13,
17,
22,
24,
22,
16,
15,
19,
25,
25,
18,
15,
16,
22,
25,
21,
16,
13,
16,
19,
20,
17,
10,
10,
16,
18,
15,
8,
5,
9,
12,
12,
7,
0,
0,
4,
9,
7,
-3,
-8,
-5,
1,
2,
-5,
-11,
-12,
-8,
-6,
-8,
-13,
-18,
-16,
-11,
-13,
-18,
-22,
-21,
-17,
-17,
-22,
-28,
-26,
-24,
-22,
-24,
-28,
-28,
-29,
-27,
-27,
-28,
-31,
-32,
-30,
-28,
-30,
-31,
-29,
-29,
-29,
-31,
-31,
-29,
-28,
-29,
-28,
-30,
-30,
-28,
-24,
-25,
-27,
-28,
-27,
-20,
-19,
-20,
-24,
-25,
-21,
-16,
-12,
-17,
-21,
-17,
-10,
-7,
-10,
-14,
-13,
-6,
-1,
-1,
-7,
-9,
-2,
5,
6,
0,
-4,
-1,
8,
13,
9,
4,
1,
9,
15,
17,
14,
7,
9,
17,
21,
19,
14,
14,
16,
20,
22,
20,
17,
15,
20,
24,
23,
18,
16,
17,
22,
25,
22,
17,
15,
17,
20,
21,
18,
13,
13,
19,
20,
17,
11,
9,
12,
13,
14,
11,
4,
5,
6,
7,
6,
3,
1,
0,
1,
0,
-2,
-1,
-3,
-7,
-10,
-8,
-6,
-8,
-12,
-15,
-13,
-12,
-14,
-17,
-19,
-20,
-18,
-13,
-19,
-25,
-27,
-26,
-20,
-20,
-27,
-32,
-31,
-26,
-24,
-27,
-31,
-34,
-32,
-28,
-25,
-28,
-35,
-36,
-30,
-26,
-27,
-31,
-34,
-31,
-29,
-26,
-26,
-30,
-32,
-29,
-23,
-21,
-26,
-30,
-26,
-20,
-18,
-20,
-23,
-23,
-19,
-11,
-12,
-17,
-21,
-19,
-9,
-4,
-7,
-10,
-12,
-6,
-2,
-1,
-1,
-4,
-2,
4,
4,
2,
2,
4,
8,
8,
7,
7,
9,
12,
13,
12,
12,
12,
15,
18,
17,
15,
16,
17,
19,
19,
16,
19,
21,
21,
19,
19,
19,
20,
23,
22,
20,
17,
16,
19,
22,
21,
16,
14,
16,
18,
19,
17,
11,
8,
10,
16,
18,
10,
3,
5,
9,
13,
9,
0,
-3,
1,
5,
6,
-1,
-9,
-8,
0,
2,
-6,
-15,
-16,
-10,
-3,
-7,
-16,
-20,
-19,
-13,
-9,
-17,
-24,
-27,
-24,
-16,
-19,
-24,
-29,
-27,
-23,
-23,
-25,
-29,
-30,
-30,
-27,
-26,
-29,
-34,
-35,
-30,
-26,
-28,
-31,
-33,
-31,
-28,
-27,
-28,
-31,
-33,
-29,
-24,
-24,
-27,
-28,
-28,
-25,
-22,
-24,
-24,
-22,
-23,
-18,
-17,
-17,
-17,
-17,
-16,
-15,
-13,
-10,
-9,
-11,
-13,
-9,
-3,
-1,
-4,
-7,
-4,
1,
4,
5,
0,
0,
5,
10,
11,
6,
3,
7,
15,
17,
14,
9,
9,
17,
20,
21,
15,
11,
14,
19,
24,
21,
16,
13,
18,
22,
24,
23,
17,
17,
19,
24,
23,
18,
15,
16,
21,
22,
18,
14,
13,
15,
18,
18,
12,
8,
10,
16,
14,
8,
3,
3,
8,
9,
5,
0,
-3,
1,
1,
1,
-2,
-6,
-6,
-5,
-6,
-9,
-10,
-9,
-9,
-12,
-16,
-16,
-15,
-15,
-15,
-20,
-24,
-21,
-19,
-19,
-23,
-27,
-29,
-24,
-21,
-26,
-30,
-32,
-28,
-25,
-27,
-31,
-33,
-31,
-27,
-28,
-29,
-34,
-34,
-31,
-25,
-26,
-33,
-36,
-33,
-27,
-22,
-25,
-31,
-31,
-29,
-21,
-18,
-23,
-29,
-29,
-19,
-13,
-15,
-21,
-23,
-19,
-13,
-8,
-13,
-18,
-17,
-7,
-3,
-6,
-12,
-12,
-5,
2,
2,
-3,
-5,
-3,
3,
11,
8,
0,
-1,
5,
14,
14,
9,
7,
9,
14,
16,
17,
15,
13,
14,
19,
19,
19,
17,
18,
20,
19,
21,
19,
19,
18,
19,
23,
22,
19,
18,
18,
20,
21,
18,
17,
17,
17,
18,
16,
15,
14,
13,
14,
14,
13,
11,
10,
6,
5,
6,
11,
9,
2,
-2,
0,
3,
4,
0,
-6,
-8,
-7,
-2,
-3,
-9,
-14,
-14,
-9,
-8,
-13,
-19,
-21,
-15,
-15,
-18,
-24,
-24,
-21,
-19,
-19,
-25,
-28,
-29,
-26,
-22,
-25,
-30,
-32,
-31,
-27,
-26,
-27,
-32,
-34,
-33,
-31,
-27,
-29,
-32,
-34,
-30,
-27,
-28,
-30,
-32,
-28,
-26,
-26,
-27,
-28,
-27,
-24,
-20,
-22,
-25,
-25,
-20,
-18,
-19,
-19,
-18,
-15,
-14,
-13,
-13,
-13,
-10,
-8,
-7,
-10,
-8,
-3,
0,
-3,
-5,
-3,
4,
7,
5,
1,
-1,
5,
10,
13,
9,
4,
6,
12,
18,
17,
11,
11,
13,
20,
21,
16,
12,
15,
19,
24,
22,
17,
13,
17,
25,
26,
19,
15,
14,
21,
26,
24,
18,
11,
13,
23,
24,
18,
10,
8,
15,
21,
19,
11,
4,
7,
14,
16,
12,
2,
-1,
5,
10,
5,
-1,
-5,
-3,
2,
1,
-3,
-9,
-10,
-6,
-3,
-6,
-14,
-16,
-14,
-11,
-12,
-15,
-20,
-19,
-18,
-17,
-19,
-19,
-25,
-27,
-24,
-25,
-22,
-24,
-29,
-29,
-28,
-29,
-28,
-27,
-29,
-31,
-31,
-29,
-29,
-30,
-32,
-30,
-30,
-31,
-30,
-29,
-30,
-30,
-29,
-26,
-25,
-26,
-28,
-27,
-24,
-23,
-24,
-26,
-25,
-23,
-19,
-14,
-19,
-22,
-21,
-15,
-9,
-12,
-15,
-16,
-11,
-6,
-3,
-5,
-11,
-10,
-4,
3,
1,
-3,
-4,
0,
6,
7,
5,
3,
5,
9,
13,
11,
7,
9,
13,
16,
17,
14,
14,
15,
17,
20,
19,
17,
16,
17,
19,
22,
21,
19,
17,
18,
20,
22,
23,
20,
18,
18,
19,
20,
18,
17,
17,
17,
15,
14,
14,
15,
14,
11,
10,
9,
11,
10,
7,
5,
5,
6,
8,
4,
-2,
-3,
3,
3,
-1,
-8,
-10,
-5,
-1,
-4,
-13,
-18,
-15,
-8,
-7,
-13,
-22,
-23,
-15,
-12,
-15,
-23,
-28,
-27,
-19,
-19,
-24,
-29,
-31,
-28,
-24,
-24,
-29,
-35,
-33,
-26,
-24,
-28,
-34,
-36,
-30,
-25,
-26,
-31,
-37,
-36,
-27,
-23,
-25,
-33,
-37,
-29,
-21,
-20,
-26,
-32,
-29,
-22,
-16,
-17,
-26,
-26,
-21,
-15,
-14,
-18,
-20,
-15,
-10,
-8,
-10,
-12,
-12,
-8,
-4,
-2,
-6,
-7,
-3,
1,
2,
1,
0,
3,
5,
6,
9,
8,
9,
8,
10,
12,
12,
14,
13,
15,
13,
14,
17,
20,
18,
15,
16,
17,
21,
21,
21,
18,
17,
18,
23,
23,
20,
18,
16,
19,
21,
21,
18,
16,
17,
18,
19,
16,
12,
11,
16,
17,
14,
7,
6,
10,
12,
11,
6,
1,
-1,
5,
10,
5,
-2,
-6,
-4,
1,
-1,
-5,
-9,
-10,
-8,
-7,
-9,
-12,
-15,
-15,
-12,
-15,
-17,
-21,
-20,
-17,
-20,
-22,
-25,
-24,
-23,
-24,
-27,
-26,
-28,
-29,
-29,
-28,
-27,
-28,
-31,
-31,
-31,
-31,
-29,
-29,
-30,
-33,
-32,
-31,
-27,
-27,
-29,
-31,
-30,
-30,
-27,
-24,
-26,
-29,
-28,
-26,
-20,
-21,
-26,
-24,
-23,
-17,
-15,
-16,
-22,
-21,
-14,
-7,
-10,
-16,
-17,
-10,
-2,
0,
-7,
-11,
-8,
-1,
7,
5,
-5,
-7,
3,
12,
12,
5,
0,
3,
12,
17,
15,
8,
5,
10,
18,
21,
15,
11,
13,
17,
21,
20,
18,
14,
17,
23,
24,
23,
14,
16,
20,
24,
25,
16,
13,
16,
23,
25,
20,
13,
11,
16,
22,
20,
13,
8,
10,
15,
14,
11,
9,
8,
9,
8,
6,
4,
2,
3,
4,
1,
-2,
-3,
-3,
-1,
-6,
-8,
-9,
-8,
-10,
-13,
-13,
-12,
-13,
-15,
-19,
-18,
-19,
-19,
-16,
-20,
-25,
-25,
-24,
-23,
-23,
-27,
-29,
-28,
-25,
-25,
-28,
-30,
-34,
-31,
-28,
-26,
-27,
-34,
-35,
-32,
-27,
-27,
-30,
-33,
-33,
-28,
-26,
-27,
-30,
-32,
-27,
-20,
-22,
-27,
-29,
-27,
-20,
-18,
-20,
-24,
-23,
-18,
-13,
-12,
-17,
-19,
-18,
-9,
-8,
-9,
-11,
-11,
-7,
-5,
-2,
-2,
-4,
-2,
0,
3,
3,
2,
4,
6,
6,
7,
9,
11,
10,
9,
12,
13,
14,
14,
14,
15,
15,
17,
18,
17,
17,
17,
20,
22,
20,
17,
17,
20,
22,
23,
21,
17,
17,
18,
22,
23,
19,
14,
13,
18,
21,
20,
14,
10,
10,
15,
18,
13,
5,
3,
9,
11,
11,
3,
-3,
0,
6,
8,
3,
-7,
-8,
-2,
4,
0,
-11,
-17,
-11,
-5,
-3,
-13,
-20,
-19,
-15,
-9,
-12,
-19,
-26,
-22,
-16,
-15,
-22,
-28,
-29,
-25,
-21,
-23,
-28,
-32,
-31,
-28,
-27,
-27,
-31,
-34,
-32,
-27,
-27,
-32,
-35,
-33,
-28,
-26,
-28,
-32,
-34,
-30,
-24,
-24,
-27,
-32,
-30,
-25,
-22,
-24,
-27,
-24,
-22,
-21,
-20,
-19,
-17,
-16,
-16,
-16,
-16,
-14,
-9,
-7,
-11,
-13,
-8,
-4,
-2,
-3,
-5,
-4,
0,
2,
3,
1,
2,
4,
8,
8,
6,
5,
8,
12,
13,
12,
11,
11,
14,
17,
18,
15,
13,
14,
16,
22,
21,
17,
15,
17,
22,
25,
23,
17,
15,
18,
24,
24,
18,
14,
17,
20,
22,
18,
14,
15,
17,
18,
16,
11,
9,
10,
15,
13,
10,
5,
5,
8,
7,
6,
4,
1,
1,
-1,
0,
-1,
-3,
-5,
-8,
-7,
-7,
-8,
-9,
-10,
-15,
-15,
-12,
-12,
-16,
-19,
-20,
-19,
-18,
-20,
-24,
-26,
-25,
-23,
-24,
-26,
-29,
-30,
-28,
-26,
-26,
-29,
-33,
-32,
-29,
-27,
-28,
-31,
-35,
-34,
-28,
-24,
-28,
-34,
-36,
-31,
-23,
-22,
-28,
-33,
-32,
-26,
-19,
-19,
-27,
-31,
-25,
-17,
-16,
-20,
-27,
-23,
-15,
-9,
-12,
-18,
-19,
-14,
-4,
-4,
-11,
-15,
-12,
0,
3,
0,
-6,
-8,
0,
6,
9,
5,
0,
2,
9,
12,
9,
5,
7,
11,
14,
16,
13,
14,
13,
16,
20,
17,
17,
17,
19,
21,
20,
18,
16,
19,
20,
22,
22,
19,
17,
19,
22,
21,
17,
17,
19,
20,
20,
17,
16,
16,
16,
15,
12,
11,
11,
14,
13,
6,
4,
6,
11,
9,
3,
-2,
-3,
3,
6,
1,
-4,
-8,
-6,
-1,
-4,
-8,
-14,
-12,
-8,
-8,
-13,
-19,
-19,
-16,
-14,
-15,
-21,
-24,
-23,
-20,
-17,
-23,
-28,
-31,
-27,
-23,
-21,
-29,
-32,
-32,
-28,
-25,
-28,
-31,
-35,
-34,
-28,
-26,
-29,
-34,
-35,
-28,
-25,
-26,
-32,
-34,
-30,
-25,
-25,
-26,
-30,
-28,
-24,
-23,
-22,
-24,
-25,
-19,
-18,
-19,
-20,
-17,
-16,
-16,
-15,
-11,
-9,
-11,
-11,
-11,
-8,
-5,
-1,
-2,
-6,
-6,
0,
5,
4,
1,
-1,
3,
9,
10,
8,
5,
5,
9,
16,
16,
12,
10,
12,
18,
19,
17,
13,
15,
18,
22,
23,
17,
15,
16,
21,
25,
24,
17,
14,
17,
25,
26,
21,
15,
12,
19,
24,
23,
14,
8,
13,
17,
21,
15,
7,
6,
11,
15,
14,
5,
1,
2,
9,
9,
2,
-5,
-4,
2,
4,
0,
-7,
-9,
-7,
-4,
-4,
-9,
-15,
-15,
-11,
-11,
-11,
-17,
-24,
-18,
-19,
-18,
-20,
-20,
-21,
-23,
-23,
-24,
-25,
-26,
-27,
-27,
-26,
-30,
-30,
-29,
-28,
-29,
-32,
-31,
-30,
-30,
-29,
-29,
-31,
-32,
-28,
-29,
-31,
-32,
-31,
-27,
-25,
-27,
-29,
-28,
-23,
-21,
-25,
-26,
-27,
-23,
-15,
-15,
-19,
-24,
-21,
-14,
-10,
-12,
-16,
-16,
-12,
-6,
-3,
-7,
-10,
-9,
-4,
3,
1,
-3,
-4,
1,
7,
7,
4,
2,
3,
8,
13,
13,
8,
6,
10,
15,
18,
16,
14,
11,
15,
20,
21,
19,
14,
15,
19,
25,
22,
17,
16,
19,
24,
24,
21,
17,
16,
19,
23,
20,
18,
16,
17,
19,
17,
14,
13,
15,
14,
12,
12,
9,
10,
8,
8,
6,
6,
6,
4,
1,
0,
1,
5,
1,
-4,
-9,
-8,
-1,
-2,
-8,
-15,
-15,
-10,
-8,
-10,
-17,
-21,
-18,
-13,
-14,
-19,
-24,
-25,
-22,
-18,
-21,
-27,
-29,
-29,
-24,
-24,
-26,
-31,
-34,
-29,
-25,
-26,
-30,
-36,
-33,
-28,
-25,
-28,
-33,
-38,
-33,
-26,
-23,
-29,
-36,
-32,
-27,
-21,
-24,
-31,
-32,
-26,
-19,
-20,
-24,
-26,
-24,
-19,
-15,
-17,
-21,
-20,
-13,
-10,
-11,
-14,
-13,
-9,
-6,
-4,
-4,
-7,
-6,
-3,
0,
1,
0,
2,
3,
4,
4,
6,
9,
9,
8,
11,
11,
11,
14,
15,
15,
13,
12,
17,
20,
20,
18,
15,
16,
19,
22,
21,
18,
17,
18,
22,
25,
19,
16,
17,
21,
25,
22,
16,
13,
18,
21,
20,
16,
10,
11,
18,
20,
13,
5,
4,
11,
15,
12,
6,
-1,
1,
7,
9,
5,
-4,
-6,
-2,
3,
1,
-6,
-10,
-11,
-7,
-7,
-9,
-13,
-16,
-15,
-10,
-14,
-17,
-21,
-24,
-18,
-18,
-19,
-24,
-27,
-25,
-23,
-23,
-23,
-28,
-32,
-31,
-27,
-25,
-29,
-33,
-32,
-29,
-27,
-28,
-30,
-31,
-34,
-30,
-28,
-29,
-31,
-32,
-29,
-28,
-29,
-28,
-28,
-27,
-27,
-27,
-23,
-22,
-23,
-25,
-25,
-20,
-17,
-19,
-19,
-19,
-17,
-11,
-9,
-13,
-16,
-14,
-6,
-3,
-5,
-9,
-8,
-4,
1,
4,
0,
-4,
-3,
5,
10,
7,
2,
3,
8,
13,
12,
12,
8,
11,
15,
17,
18,
13,
11,
16,
20,
22,
18,
15,
13,
19,
24,
24,
20,
15,
17,
22,
25,
21,
16,
15,
19,
23,
21,
17,
12,
15,
19,
20,
16,
11,
10,
15,
16,
12,
9,
8,
10,
10,
6,
4,
4,
5,
4,
3,
-1,
-2,
-2,
-2,
-3,
-7,
-8,
-7,
-5,
-9,
-13,
-14,
-12,
-12,
-15,
-16,
-18,
-18,
-16,
-15,
-19,
-25,
-26,
-25,
-20,
-20,
-27,
-32,
-30,
-27,
-25,
-27,
-29,
-35,
-32,
-27,
-26,
-29,
-35,
-36,
-31,
-25,
-25,
-32,
-36,
-31,
-25,
-24,
-28,
-35,
-33,
-26,
-18,
-22,
-30,
-33,
-27,
-17,
-16,
-21,
-28,
-23,
-17,
-11,
-12,
-19,
-22,
-16,
-8,
-6,
-10,
-14,
-12,
-7,
-3,
-2,
-4,
-6,
-5,
0,
4,
3,
1,
2,
5,
7,
8,
8,
8,
8,
10,
16,
14,
12,
10,
13,
17,
19,
17,
16,
15,
17,
19,
22,
20,
18,
17,
18,
21,
25,
20,
19,
17,
17,
18,
21,
22,
18,
16,
16,
17,
21,
16,
13,
12,
13,
16,
16,
9,
6,
6,
13,
14,
7,
1,
0,
5,
8,
5,
-1,
-5,
-3,
1,
2,
-4,
-12,
-14,
-8,
-3,
-7,
-14,
-19,
-16,
-13,
-12,
-15,
-23,
-23,
-20,
-16,
-17,
-23,
-26,
-27,
-24,
-22,
-27,
-28,
-30,
-28,
-27,
-28,
-28,
-32,
-32,
-28,
-26,
-29,
-33,
-35,
-32,
-27,
-27,
-31,
-32,
-30,
-27,
-27,
-27,
-29,
-28,
-27,
-26,
-26,
-26,
-25,
-20,
-20,
-24,
-24,
-20,
-15,
-14,
-18,
-18,
-18,
-14,
-8,
-9,
-14,
-14,
-8,
-2,
-3,
-7,
-8,
-4,
3,
2,
1,
-2,
1,
6,
9,
9,
5,
3,
8,
15,
15,
11,
8,
8,
14,
19,
19,
15,
11,
12,
23,
23,
22,
14,
12,
19,
25,
27,
20,
15,
17,
23,
27,
23,
14,
12,
18,
24,
22,
15,
12,
12,
19,
22,
16,
8,
7,
12,
17,
15,
7,
2,
4,
9,
9,
6,
2,
0,
0,
2,
2,
-1,
-6,
-8,
-6,
-4,
-6,
-9,
-11,
-12,
-11,
-14,
-14,
-15,
-17,
-19,
-16,
-17,
-19,
-22,
-25,
-19,
-21,
-22,
-27,
-27,
-27,
-26,
-27,
-27,
-28,
-32,
-32,
-30,
-27,
-26,
-29,
-32,
-34,
-32,
-29,
-26,
-29,
-34,
-34,
