4-transistorverstaerker/data/ALL0052/A0052CH2.CSV

Memory Length,4000,
Trigger Level,3.80000e+01,
Source,CH2,
Probe,1.0X,
Vertical Units,V,
Vertical Scale,2.00000e-01,
Vertical Position,0.00000e+00,
Horizontal Units,S,
Horizontal Scale,5.00000e-07,
Horizontal Position,-6.8000000e-07,
Horizontal Mode,Main,
Sampling Period,2.00000e-09,
Firmware,V1.14,
Time, ,
Mode,Fast,
Waveform Data,
5,
5,
6,
4,
5,
4,
4,
4,
5,
4,
4,
5,
5,
3,
4,
3,
4,
2,
2,
3,
4,
2,
2,
3,
4,
2,
3,
1,
1,
2,
2,
2,
2,
2,
2,
1,
2,
1,
1,
1,
1,
1,
1,
0,
1,
0,
0,
0,
1,
0,
1,
-1,
0,
-1,
-1,
0,
1,
-2,
-2,
-1,
0,
-2,
-2,
-3,
-2,
-1,
0,
-3,
-3,
-2,
0,
-2,
0,
-4,
-3,
-2,
-1,
-3,
-2,
-4,
-2,
-4,
-3,
-4,
-3,
-4,
-3,
-4,
-4,
-4,
-3,
-3,
-2,
-6,
-5,
-4,
-4,
-6,
-6,
-5,
-4,
-6,
-6,
-6,
-5,
-5,
-5,
-6,
-6,
-6,
-5,
-5,
-5,
-7,
-6,
-6,
-5,
-8,
-7,
-6,
-5,
-7,
-8,
-8,
-7,
-6,
-6,
-9,
-8,
-7,
-6,
-7,
-7,
-9,
-8,
-7,
-6,
-10,
-10,
-7,
-6,
-9,
-9,
-10,
-8,
-8,
-7,
-10,
-9,
-9,
-8,
-9,
-8,
-10,
-10,
-8,
-7,
-10,
-10,
-9,
-8,
-11,
-10,
-10,
-8,
-10,
-10,
-10,
-9,
-10,
-10,
-10,
-9,
-10,
-9,
-10,
-10,
-12,
-10,
-9,
-8,
-12,
-12,
-10,
-8,
-11,
-11,
-12,
-11,
-10,
-10,
-11,
-11,
-11,
-10,
-10,
-9,
-12,
-11,
-10,
-8,
-11,
-11,
-10,
-9,
-11,
-11,
-11,
-9,
-11,
-10,
-11,
-10,
-11,
-10,
-10,
-10,
-12,
-11,
-9,
-9,
-12,
-12,
-11,
-9,
-11,
-11,
-11,
-9,
-10,
-10,
-11,
-11,
-11,
-10,
-9,
-8,
-11,
-10,
-9,
-9,
-11,
-10,
-9,
-8,
-10,
-10,
-9,
-8,
-10,
-10,
-9,
-8,
-9,
-8,
-9,
-8,
-9,
-8,
-8,
-7,
-10,
-10,
-8,
-7,
-8,
-8,
-9,
-8,
-7,
-6,
-8,
-8,
-8,
-6,
-7,
-7,
-9,
-8,
-6,
-5,
-8,
-8,
-7,
-6,
-7,
-6,
-7,
-6,
-7,
-6,
-6,
-6,
-7,
-6,
-5,
-5,
-6,
-6,
-5,
-4,
-6,
-6,
-6,
-5,
-5,
-5,
-5,
-4,
-5,
-4,
-5,
-4,
-5,
-4,
-4,
-3,
-5,
-4,
-4,
-3,
-4,
-4,
-3,
-2,
-4,
-3,
-3,
-2,
-3,
-2,
-3,
-3,
-3,
-2,
-2,
-2,
-3,
-2,
-1,
0,
-3,
-3,
-1,
0,
-1,
-2,
-2,
-1,
0,
0,
-1,
-1,
0,
1,
1,
1,
-1,
0,
1,
2,
0,
0,
0,
1,
2,
2,
1,
2,
1,
2,
2,
2,
2,
2,
2,
2,
2,
3,
3,
3,
1,
2,
3,
5,
2,
2,
3,
4,
4,
4,
2,
4,
5,
6,
4,
4,
3,
4,
6,
6,
3,
4,
4,
6,
4,
3,
5,
6,
6,
6,
4,
5,
6,
7,
5,
5,
5,
7,
7,
7,
5,
6,
8,
9,
6,
6,
6,
8,
7,
8,
6,
6,
7,
8,
6,
6,
7,
8,
8,
8,
6,
7,
7,
8,
7,
8,
8,
9,
7,
7,
7,
8,
9,
9,
8,
8,
9,
10,
9,
9,
7,
9,
10,
11,
8,
8,
10,
11,
9,
9,
8,
9,
10,
11,
8,
8,
8,
10,
10,
11,
8,
8,
9,
10,
9,
9,
9,
9,
9,
10,
9,
10,
10,
11,
8,
9,
9,
10,
9,
10,
9,
9,
10,
10,
9,
9,
10,
11,
9,
10,
9,
10,
9,
9,
9,
9,
9,
9,
9,
9,
8,
8,
8,
8,
8,
8,
9,
10,
8,
8,
8,
9,
9,
9,
8,
8,
8,
9,
9,
9,
7,
8,
8,
9,
7,
7,
7,
8,
8,
8,
6,
7,
8,
9,
7,
7,
6,
7,
8,
8,
6,
6,
7,
8,
7,
8,
6,
7,
6,
6,
6,
6,
5,
6,
5,
6,
5,
6,
5,
5,
5,
6,
5,
6,
4,
4,
6,
7,
4,
3,
4,
5,
5,
5,
3,
3,
4,
6,
4,
4,
2,
2,
5,
5,
2,
2,
3,
4,
2,
2,
2,
3,
2,
2,
1,
2,
2,
3,
1,
1,
1,
2,
2,
2,
0,
0,
1,
2,
0,
0,
-1,
1,
0,
0,
0,
0,
-1,
0,
0,
0,
-2,
-1,
0,
0,
-2,
-2,
-1,
0,
-2,
-2,
-2,
-1,
-1,
0,
-4,
-2,
-2,
-1,
-3,
-2,
-3,
-1,
-2,
-2,
-4,
-3,
-3,
-2,
-5,
-6,
-4,
-3,
-3,
-4,
-5,
-4,
-5,
-3,
-5,
-5,
-5,
-4,
-4,
-4,
-6,
-5,
-5,
-4,
-6,
-6,
-6,
-4,
-6,
-6,
-7,
-6,
-6,
-6,
-7,
-7,
-7,
-6,
-6,
-6,
-8,
-7,
-6,
-5,
-8,
-8,
-8,
-7,
-8,
-8,
-8,
-7,
-8,
-8,
-8,
-7,
-8,
-7,
-8,
-7,
-9,
-8,
-8,
-8,
-10,
-9,
-8,
-7,
-10,
-10,
-9,
-8,
-9,
-9,
-10,
-9,
-9,
-8,
-9,
-9,
-11,
-10,
-8,
-7,
-11,
-11,
-10,
-8,
-10,
-10,
-11,
-10,
-10,
-10,
-10,
-9,
-11,
-10,
-9,
-8,
-12,
-11,
-9,
-8,
-11,
-10,
-11,
-9,
-11,
-10,
-10,
-9,
-11,
-11,
-11,
-10,
-10,
-10,
-11,
-10,
-11,
-10,
-10,
-9,
-12,
-11,
-10,
-9,
-12,
-11,
-11,
-10,
-10,
-10,
-11,
-10,
-11,
-10,
-10,
-9,
-12,
-11,
-10,
-9,
-11,
-11,
-9,
-8,
-11,
-11,
-10,
-9,
-10,
-10,
-11,
-11,
-11,
-10,
-9,
-8,
-12,
-11,
-9,
-8,
-11,
-11,
-10,
-8,
-10,
-10,
-10,
-9,
-9,
-8,
-9,
-8,
-10,
-8,
-7,
-7,
-10,
-10,
-8,
-7,
-8,
-8,
-8,
-7,
-8,
-8,
-8,
-7,
-8,
-8,
-8,
-8,
-8,
-7,
-7,
-7,
-7,
-6,
-6,
-5,
-8,
-8,
-6,
-5,
-6,
-6,
-7,
-6,
-6,
-5,
-7,
-7,
-6,
-5,
-5,
-5,
-7,
-6,
-4,
-3,
-6,
-6,
-5,
-4,
-5,
-5,
-5,
-4,
-4,
-4,
-4,
-4,
-3,
-2,
-4,
-4,
-4,
-3,
-3,
-2,
-4,
-4,
-2,
-1,
-3,
-3,
-3,
-1,
-1,
-1,
-3,
-2,
-1,
0,
-2,
-2,
-2,
-1,
-1,
0,
-2,
-2,
-1,
0,
-1,
-2,
-1,
0,
-1,
-1,
-1,
1,
1,
1,
0,
1,
0,
2,
1,
1,
0,
1,
2,
3,
0,
0,
1,
3,
2,
2,
2,
2,
3,
4,
2,
2,
1,
2,
3,
4,
2,
2,
4,
5,
3,
4,
3,
4,
3,
4,
4,
4,
3,
3,
4,
5,
5,
7,
4,
5,
5,
6,
6,
6,
5,
6,
6,
6,
6,
6,
5,
6,
6,
7,
6,
6,
6,
7,
6,
6,
6,
7,
7,
7,
6,
7,
7,
8,
6,
6,
7,
8,
8,
8,
7,
7,
8,
9,
8,
8,
7,
8,
9,
10,
8,
8,
7,
8,
9,
9,
8,
8,
9,
10,
8,
8,
8,
8,
8,
9,
8,
8,
8,
9,
10,
11,
9,
9,
9,
9,
9,
10,
9,
10,
9,
9,
9,
9,
9,
9,
8,
9,
10,
10,
8,
8,
10,
11,
10,
10,
8,
8,
9,
10,
9,
9,
9,
10,
10,
11,
8,
8,
10,
11,
8,
8,
9,
11,
9,
9,
8,
8,
9,
10,
8,
8,
9,
11,
9,
9,
7,
9,
10,
11,
8,
8,
8,
10,
9,
9,
7,
8,
9,
10,
7,
7,
7,
8,
8,
9,
7,
8,
8,
8,
7,
8,
7,
8,
7,
7,
7,
8,
7,
7,
6,
7,
7,
8,
6,
6,
6,
8,
6,
6,
5,
5,
7,
8,
5,
4,
4,
5,
7,
7,
4,
4,
6,
7,
4,
4,
4,
5,
6,
6,
3,
3,
4,
5,
4,
4,
4,
5,
4,
4,
3,
4,
4,
4,
3,
3,
2,
3,
3,
4,
2,
2,
3,
4,
2,
2,
2,
3,
2,
2,
1,
1,
2,
2,
0,
1,
1,
2,
1,
1,
0,
1,
1,
1,
-1,
-1,
0,
1,
-1,
-1,
-1,
0,
0,
0,
-1,
-1,
-2,
0,
-1,
-1,
-3,
-2,
0,
1,
-3,
-3,
-3,
-2,
-2,
0,
-3,
-2,
-3,
-2,
-3,
-3,
-4,
-3,
-3,
-2,
-5,
-4,
-4,
-4,
-4,
-3,
-4,
-3,
-4,
-4,
-4,
-3,
-6,
-5,
-5,
-5,
-5,
-4,
-5,
-5,
-6,
-6,
-5,
-4,
-7,
-7,
-6,
-4,
-6,
-6,
-7,
-6,
-7,
-6,
-6,
-6,
-7,
-6,
-7,
-6,
-7,
-7,
-7,
-6,
-7,
-6,
-7,
-5,
-9,
-9,
-8,
-7,
-8,
-7,
-8,
-8,
-9,
-8,
-7,
-7,
-10,
-9,
-8,
-7,
-10,
-11,
-9,
-8,
-9,
-8,
-10,
-9,
-9,
-7,
-10,
-9,
-11,
-11,
-9,
-8,
-10,
-10,
-10,
-9,
-10,
-10,
-10,
-9,
-11,
-11,
-10,
-9,
-11,
-10,
-11,
-10,
-10,
-10,
-11,
-10,
-11,
-10,
-9,
-9,
-11,
-11,
-10,
-8,
-11,
-11,
-11,
-9,
-10,
-10,
-12,
-11,
-11,
-10,
-10,
-9,
-12,
-11,
-9,
-8,
-11,
-11,
-11,
-9,
-11,
-11,
-11,
-10,
-10,
-10,
-11,
-11,
-11,
-10,
-9,
-9,
-11,
-10,
-9,
-8,
-11,
-11,
-10,
-8,
-11,
-11,
-10,
-9,
-10,
-10,
-10,
-9,
-9,
-8,
-10,
-10,
-10,
-9,
-8,
-8,
-11,
-10,
-8,
-7,
-11,
-11,
-9,
-7,
-9,
-10,
-10,
-8,
-7,
-6,
-8,
-8,
-9,
-8,
-7,
-7,
-11,
-10,
-7,
-6,
-9,
-9,
-8,
-6,
-7,
-6,
-8,
-7,
-7,
-6,
-7,
-7,
-7,
-6,
-6,
-5,
-7,
-6,
-6,
-5,
-7,
-6,
-6,
-4,
-6,
-6,
-6,
-5,
-5,
-4,
-6,
-6,
-6,
-5,
-4,
-4,
-6,
-5,
-4,
-3,
-5,
-5,
-4,
-3,
-4,
-4,
-4,
-3,
-4,
-3,
-4,
-2,
-4,
-3,
-3,
-3,
-4,
-3,
-3,
-2,
-4,
-3,
-1,
0,
-2,
-2,
-2,
-1,
-1,
0,
-2,
-2,
-1,
0,
0,
0,
-2,
-1,
0,
1,
-1,
-1,
-1,
0,
0,
0,
0,
0,
-1,
0,
1,
2,
1,
1,
2,
4,
0,
1,
1,
1,
2,
4,
2,
3,
2,
2,
3,
3,
2,
2,
3,
3,
3,
4,
3,
3,
2,
3,
5,
5,
3,
4,
3,
6,
4,
4,
3,
4,
5,
6,
4,
5,
5,
6,
5,
6,
4,
5,
6,
6,
4,
4,
6,
7,
6,
6,
6,
6,
7,
8,
5,
5,
6,
8,
8,
8,
6,
6,
7,
8,
6,
6,
6,
8,
8,
8,
6,
7,
7,
8,
7,
7,
7,
8,
8,
9,
7,
8,
8,
8,
7,
8,
10,
11,
8,
7,
8,
9,
9,
9,
7,
7,
10,
11,
9,
8,
8,
10,
10,
11,
7,
7,
10,
12,
9,
8,
8,
9,
10,
11,
8,
8,
9,
10,
10,
10,
7,
8,
10,
11,
8,
9,
9,
11,
9,
8,
9,
9,
10,
10,
8,
9,
9,
10,
8,
8,
8,
10,
10,
11,
8,
8,
10,
11,
8,
8,
8,
9,
9,
9,
8,
8,
9,
10,
8,
8,
7,
8,
8,
8,
8,
9,
9,
9,
7,
7,
9,
10,
8,
8,
6,
8,
9,
10,
7,
6,
7,
8,
8,
8,
6,
7,
8,
9,
7,
7,
7,
8,
7,
8,
6,
7,
6,
6,
6,
7,
6,
6,
6,
7,
5,
6,
6,
6,
5,
7,
6,
7,
5,
5,
5,
6,
5,
5,
4,
4,
5,
6,
4,
4,
3,
4,
4,
5,
2,
2,
4,
5,
4,
4,
2,
3,
3,
3,
3,
3,
2,
3,
3,
3,
2,
2,
2,
3,
1,
1,
2,
3,
2,
2,
1,
1,
1,
2,
1,
1,
1,
2,
1,
1,
-1,
-2,
1,
2,
0,
0,
-2,
0,
0,
0,
-1,
0,
-2,
-1,
-1,
0,
-2,
-2,
-1,
0,
-2,
-1,
-2,
-1,
-3,
-1,
-2,
-1,
-3,
-3,
-3,
-1,
-3,
-2,
-4,
-4,
-3,
-2,
-3,
-3,
-6,
-5,
-3,
-2,
-6,
-6,
-5,
-4,
-4,
-4,
-6,
-5,
-5,
-4,
-5,
-5,
-6,
-5,
-5,
-4,
-6,
-6,
-5,
-4,
-7,
-7,
-6,
-4,
-6,
-6,
-7,
-6,
-6,
-6,
-7,
-7,
-7,
-6,
-7,
-6,
-9,
-8,
-7,
-6,
-9,
-9,
-8,
-7,
-8,
-8,
-8,
-7,
-8,
-8,
-9,
-8,
-9,
-8,
-8,
-8,
-9,
-8,
-7,
-7,
-11,
-10,
-8,
-7,
-10,
-10,
-10,
-8,
-9,
-9,
-11,
-10,
-9,
-8,
-10,
-11,
-12,
-10,
-9,
-8,
-12,
-11,
-9,
-7,
-11,
-11,
-11,
-9,
-10,
-10,
-11,
-11,
-11,
-10,
-9,
-9,
-11,
-10,
-10,
-9,
-12,
-11,
-10,
-9,
-11,
-11,
-10,
-9,
-11,
-12,
-12,
-11,
-10,
-10,
-11,
-11,
-11,
-10,
-10,
-10,
-12,
-11,
-9,
-8,
-12,
-11,
-11,
-9,
-11,
-11,
-11,
-11,
-11,
-10,
-10,
-10,
-10,
-9,
-9,
-9,
-12,
-11,
-9,
-9,
-11,
-11,
-9,
-8,
-10,
-11,
-10,
-9,
-10,
-10,
-10,
-9,
-11,
-10,
-9,
-8,
-10,
-10,
-8,
-7,
-10,
-10,
-9,
-8,
-9,
-8,
-8,
-7,
-9,
-8,
-8,
-7,
-8,
-7,
-9,
-8,
-8,
-8,
-7,
-7,
-8,
-7,
-7,
-6,
-9,
-9,
-7,
-6,
-7,
-6,
-8,
-7,
-7,
-5,
-6,
-6,
-8,
-7,
-5,
-4,
-6,
-6,
-6,
-5,
-6,
-5,
-6,
-5,
-6,
-5,
-5,
-4,
-5,
-4,
-4,
-3,
-5,
-5,
-4,
-3,
-5,
-5,
-4,
-3,
-4,
-4,
-4,
-3,
-3,
-2,
-4,
-3,
-3,
-2,
-2,
-1,
-3,
-2,
-2,
-1,
-3,
-2,
-1,
0,
-1,
-1,
-2,
-1,
-1,
0,
-2,
-2,
-1,
0,
-1,
-1,
-1,
0,
0,
1,
-1,
0,
0,
1,
0,
0,
1,
2,
1,
2,
0,
0,
1,
2,
1,
1,
0,
2,
3,
4,
1,
1,
2,
3,
2,
2,
1,
2,
4,
6,
2,
3,
3,
4,
4,
4,
3,
4,
4,
5,
3,
3,
5,
6,
4,
4,
4,
5,
5,
5,
4,
4,
5,
6,
5,
5,
5,
6,
7,
7,
5,
6,
6,
7,
6,
6,
7,
7,
6,
6,
6,
6,
7,
9,
6,
6,
7,
8,
7,
7,
6,
7,
8,
9,
6,
6,
7,
8,
8,
8,
6,
7,
9,
10,
8,
7,
7,
8,
9,
10,
7,
7,
9,
11,
8,
8,
8,
9,
9,
9,
8,
8,
8,
8,
8,
9,
9,
10,
9,
9,
9,
10,
10,
11,
8,
8,
10,
11,
9,
9,
8,
9,
9,
10,
8,
8,
9,
11,
9,
9,
8,
9,
10,
11,
9,
9,
10,
11,
10,
10,
9,
10,
9,
10,
8,
9,
8,
9,
9,
9,
9,
9,
9,
10,
7,
8,
9,
10,
8,
8,
8,
8,
9,
10,
8,
8,
8,
9,
9,
9,
8,
8,
8,
9,
8,
8,
8,
8,
8,
9,
8,
8,
7,
8,
7,
8,
7,
8,
7,
8,
7,
7,
7,
7,
7,
8,
7,
8,
6,
6,
6,
7,
7,
8,
5,
5,
6,
7,
7,
7,
4,
5,
6,
7,
5,
4,
5,
6,
6,
6,
4,
5,
5,
5,
5,
5,
4,
5,
5,
5,
3,
3,
4,
5,
2,
2,
3,
4,
3,
3,
2,
3,
3,
3,
2,
2,
2,
3,
3,
3,
1,
1,
2,
3,
1,
1,
1,
2,
1,
1,
1,
2,
1,
2,
-1,
0,
0,
0,
0,
0,
-1,
0,
1,
1,
-3,
-2,
-1,
1,
-1,
-2,
-2,
0,
0,
1,
-4,
-3,
-2,
0,
-2,
-2,
-4,
-3,
0,
1,
-4,
-4,
-3,
-2,
-2,
-1,
-4,
-2,
-3,
-2,
-4,
-4,
-5,
-4,
-4,
-2,
-5,
-4,
-4,
-4,
-4,
-3,
-5,
-4,
-6,
-6,
-5,
-4,
-6,
-6,
-6,
-5,
-5,
-5,
-6,
-6,
-6,
-5,
-5,
-5,
-8,
-7,
-5,
-4,
-7,
-7,
-8,
-7,
-7,
-7,
-8,
-7,
-7,
-6,
-8,
-8,
-8,
-7,
-8,
-7,
-9,
-8,
-7,
-7,
-10,
-10,
-8,
-7,
-8,
-8,
-9,
-8,
-8,
-7,
-9,
-8,
-11,
-10,
-9,
-8,
-10,
-10,
-8,
-7,
-10,
-10,
-9,
-8,
-10,
-10,
-10,
-9,
-10,
-10,
-9,
-8,
-10,
-10,
-10,
-10,
-11,
-10,
-9,
-9,
-11,
-10,
-9,
-8,
-11,
-11,
-11,
-9,
-10,
-10,
-11,
-11,
-11,
-10,
-11,
-11,
-12,
-11,
-10,
-9,
-11,
-11,
-10,
-9,
-11,
-11,
-11,
-10,
-10,
-10,
-11,
-11,
-11,
-10,
-10,
-9,
-12,
-11,
-10,
-9,
-11,
-11,
-11,
-9,
-10,
-10,
-11,
-10,
-11,
-10,
-10,
-10,
-11,
-10,
-9,
-8,
-11,
-10,
-10,
-8,
-10,
-10,
-10,
-9,
-10,
-10,
-9,
-8,
-10,
-10,
-10,
-10,
-10,
-9,
-8,
-8,
-10,
-9,
-8,
-7,
-10,
-10,
-8,
-7,
-9,
-10,
-10,
-8,
-7,
-6,
-9,
-9,
-8,
-6,
-7,
-7,
-10,
-10,
-6,
-5,
-9,
-10,
-8,
-6,
-6,
-6,
-8,
-7,
-7,
-6,
-7,
-7,
-7,
-6,
-6,
-5,
-7,
-6,
-5,
-5,
-6,
-6,
-5,
-4,
-6,
-6,
-5,
-4,
-5,
-4,
-5,
-5,
-5,
-3,
-4,
-4,
-5,
-4,
-3,
-2,
-5,
-5,
-3,
-2,
-4,
-4,
-4,
-3,
-3,
-3,
-4,
-3,
-2,
-1,
-3,
-3,
-3,
-2,
-1,
0,
-3,
-3,
-1,
1,
-3,
-3,
-1,
0,
0,
0,
-2,
-2,
0,
1,
0,
0,
-1,
0,
1,
2,
0,
0,
1,
1,
1,
2,
1,
3,
1,
1,
1,
1,
2,
2,
1,
2,
1,
2,
2,
2,
2,
3,
3,
4,
2,
2,
4,
5,
3,
3,
3,
5,
3,
3,
3,
3,
4,
6,
5,
5,
3,
4,
4,
6,
4,
4,
5,
6,
5,
5,
5,
5,
6,
6,
5,
5,
6,
7,
6,
6,
5,
6,
7,
7,
6,
6,
7,
8,
7,
7,
5,
6,
7,
8,
7,
7,
7,
8,
8,
8,
7,
7,
7,
8,
8,
8,
7,
7,
7,
8,
9,
10,
8,
8,
8,
8,
8,
9,
8,
9,
8,
10,
9,
10,
7,
8,
9,
10,
9,
9,
8,
9,
10,
11,
8,
8,
8,
9,
10,
11,
8,
8,
9,
11,
9,
9,
8,
9,
10,
10,
8,
8,
9,
10,
9,
10,
8,
8,
10,
11,
9,
9,
8,
9,
9,
9,
9,
10,
9,
10,
9,
9,
9,
10,
9,
9,
9,
9,
9,
9,
8,
8,
9,
9,
9,
9,
9,
10,
9,
9,
8,
8,
9,
9,
8,
8,
8,
9,
7,
7,
7,
8,
9,
9,
7,
7,
8,
9,
8,
8,
6,
7,
8,
9,
6,
6,
7,
8,
7,
7,
5,
6,
7,
8,
6,
6,
6,
7,
6,
7,
5,
6,
6,
7,
6,
6,
6,
6,
6,
6,
5,
6,
5,
5,
4,
4,
6,
6,
3,
3,
4,
5,
5,
4,
3,
4,
5,
6,
4,
3,
3,
4,
5,
5,
2,
2,
4,
5,
2,
2,
2,
4,
3,
3,
1,
2,
3,
3,
1,
1,
1,
2,
2,
2,
0,
0,
1,
2,
0,
-1,
0,
1,
0,
0,
-1,
0,
0,
0,
0,
0,
-1,
0,
-1,
0,
-2,
-1,
0,
1,
-2,
-1,
-1,
-1,
-2,
-1,
-3,
-1,
-2,
-3,
-3,
-3,
-3,
-2,
-2,
-1,
-4,
-2,
-2,
-2,
-4,
-3,
-3,
-2,
-4,
-4,
-5,
-5,
-4,
-3,
-5,
-4,
-5,
-4,
-4,
-3,
-6,
-6,
-5,
-4,
-5,
-6,
-6,
-6,
-6,
-6,
-6,
-6,
-7,
-6,
-6,
-5,
-7,
-6,
-6,
-5,
-7,
-6,
-7,
-6,
-7,
-7,
-8,
-7,
-7,
-7,
-8,
-7,
-8,
-8,
-8,
-8,
-10,
-9,
-8,
-7,
-9,
-8,
-9,
-8,
-9,
-8,
-9,
-8,
-9,
-8,
-9,
-8,
-9,
-9,
-9,
-8,
-10,
-10,
-8,
-8,
-11,
-10,
-9,
-8,
-11,
-11,
-10,
-8,
-10,
-10,
-11,
-10,
-9,
-8,
-9,
-9,
-11,
-10,
-9,
-8,
-12,
-11,
-10,
-8,
-11,
-11,
-11,
-9,
-11,
-11,
-12,
-11,
-11,
-10,
-11,
-10,
-12,
-11,
-10,
-9,
-12,
-11,
-10,
-9,
-12,
-12,
-11,
-9,
-11,
-11,
-11,
-10,
-10,
-10,
-11,
-11,
-11,
-10,
-10,
-10,
-12,
-11,
-9,
-8,
-11,
-11,
-10,
-8,
-11,
-11,
-11,
-10,
-10,
-10,
-11,
-11,
-10,
-9,
-9,
-9,
-11,
-10,
-8,
-8,
-12,
-11,
-9,
-7,
-10,
-11,
-10,
-8,
-9,
-9,
-11,
-11,
-9,
-7,
-8,
-8,
-10,
-9,
-8,
-7,
-10,
-10,
-8,
-8,
-9,
-8,
-8,
-7,
-8,
-8,
-8,
-7,
-7,
-7,
-8,
-7,
-7,
-6,
-7,
-7,
-8,
-6,
-6,
-5,
-9,
-9,
-6,
-4,
-6,
-6,
-7,
-7,
-5,
-4,
-6,
-6,
-6,
-4,
-5,
-5,
-6,
-6,
-5,
-4,
-6,
-6,
-5,
-4,
-5,
-4,
-5,
-4,
-5,
-4,
-4,
-4,
-4,
-3,
-4,
-3,
-4,
-3,
-3,
-2,
-4,
-3,
-3,
-2,
-3,
-2,
-3,
-2,
-2,
-2,
-2,
-2,
-3,
-2,
-3,
-2,
-2,
-1,
0,
0,
-1,
-1,
-1,
0,
-1,
-1,
-1,
0,
0,
0,
-1,
0,
0,
1,
1,
1,
0,
1,
2,
3,
1,
1,
1,
2,
2,
2,
1,
1,
2,
3,
2,
2,
1,
2,
3,
4,
2,
2,
3,
4,
4,
4,
2,
4,
3,
4,
4,
4,
3,
3,
5,
5,
4,
5,
4,
5,
4,
4,
5,
6,
4,
4,
5,
6,
6,
6,
5,
5,
6,
7,
6,
6,
6,
7,
7,
7,
5,
6,
7,
7,
6,
6,
7,
8,
6,
6,
7,
7,
7,
8,
7,
7,
7,
8,
8,
8,
7,
8,
8,
9,
6,
6,
8,
9,
8,
8,
7,
7,
9,
10,
8,
7,
8,
9,
9,
9,
7,
8,
10,
11,
8,
8,
8,
9,
10,
10,
8,
9,
9,
10,
8,
9,
9,
10,
9,
9,
9,
10,
9,
9,
8,
9,
10,
12,
9,
8,
8,
9,
10,
10,
8,
8,
10,
11,
8,
8,
8,
10,
10,
11,
8,
8,
9,
11,
8,
8,
8,
8,
10,
10,
8,
8,
10,
11,
8,
8,
8,
8,
9,
9,
7,
8,
9,
9,
8,
8,
8,
9,
8,
8,
7,
8,
8,
9,
8,
8,
7,
8,
8,
8,
7,
8,
8,
8,
6,
7,
7,
8,
7,
8,
6,
7,
8,
8,
6,
6,
7,
8,
7,
6,
5,
6,
7,
8,
5,
4,
6,
7,
6,
6,
5,
5,
5,
6,
5,
5,
5,
6,
6,
6,
4,
4,
5,
6,
4,
4,
5,
5,
3,
3,
3,
4,
4,
4,
3,
3,
3,
3,
3,
3,
2,
2,
3,
3,
2,
2,
2,
3,
2,
2,
1,
2,
1,
2,
1,
2,
1,
1,
2,
2,
1,
2,
0,
1,
0,
0,
0,
1,
-1,
-1,
0,
1,
0,
0,
-1,
0,
-1,
0,
0,
0,
-3,
-2,
-1,
0,
-3,
-3,
-1,
1,
-2,
-1,
-3,
-3,
-2,
0,
-4,
-4,
-4,
-3,
-1,
0,
-4,
-4,
-3,
-2,
-4,
-4,
-4,
-4,
-3,
-2,
-5,
-4,
-5,
-4,
-4,
-3,
-5,
-4,
-5,
-4,
-6,
-6,
-5,
-4,
-6,
-6,
-6,
-5,
-6,
-6,
-6,
-5,
-6,
-5,
-7,
-7,
-7,
-6,
-6,
-5,
-8,
-7,
-6,
-5,
-8,
-8,
-7,
-6,
-8,
-8,
-8,
-7,
-7,
-6,
-9,
-8,
-8,
-6,
-7,
-7,
-10,
-10,
-8,
-7,
-10,
-10,
-9,
-7,
-8,
-8,
-10,
-9,
-8,
-7,
-10,
-9,
-10,
-10,
-9,
-8,
-11,
-10,
-9,
-8,
-11,
-11,
-9,
-8,
-11,
-11,
-10,
-8,
-10,
-10,
-11,
-9,
-10,
-10,
-11,
-12,
-11,
-10,
-9,
-9,
-12,
-12,
-9,
-8,
-11,
-11,
-11,
-9,
-10,
-10,
-11,
-11,
-11,
-10,
-11,
-11,
-12,
-11,
-10,
-9,
-12,
-11,
-10,
-8,
-12,
-12,
-10,
-9,
-11,
-11,
-12,
-11,
-11,
-10,
-10,
-10,
-11,
-10,
-9,
-9,
-11,
-10,
-9,
-8,
-11,
-11,
-10,
-9,
-11,
-11,
-10,
-9,
-10,
-10,
-10,
-10,
-11,
-10,
-9,
-8,
-10,
-10,
-9,
-8,
-11,
-11,
-9,
-8,
-10,
-10,
-9,
-8,
-8,
-8,
-9,
-8,
-9,
-8,
-8,
-8,
-9,
-8,
-7,
-6,
-9,
-10,
-8,
-7,
-7,
-7,
-8,
-7,
-7,
-6,
-7,
-7,
-8,
-7,
-6,
-5,
-8,
-8,
-7,
-6,
-6,
-6,
-6,
-5,
-6,
-6,
-6,
-5,
-7,
-6,
-6,
-5,
-6,
-6,
-6,
-5,
-6,
-5,
-5,
-4,
-5,
-5,
-5,
-4,
-5,
-4,
-5,
-4,
-4,
-3,
-4,
-3,
-4,
-3,
-3,
-3,
-4,
-4,
-3,
-2,
-4,
-3,
-3,
-2,
-2,
-2,
-3,
-2,
-2,
-1,
-3,
-3,
-2,
0,
0,
0,
-2,
-2,
-1,
0,
-2,
-2,
-1,
0,
0,
0,
-2,
-1,
0,
1,
1,
1,
0,
0,
2,
3,
0,
1,
1,
2,
1,
2,
2,
3,
2,
2,
1,
2,
2,
2,
2,
2,
3,
4,
3,
3,
1,
2,
5,
5,
2,
2,
3,
5,
4,
3,
3,
4,
5,
6,
4,
4,
4,
5,
5,
5,
4,
6,
5,
6,
4,
4,
6,
7,
5,
5,
5,
6,
6,
7,
5,
6,
6,
8,
6,
6,
6,
7,
7,
7,
6,
6,
7,
8,
6,
6,
7,
8,
8,
8,
7,
7,
8,
9,
7,
8,
7,
8,
8,
8,
7,
8,
8,
9,
8,
8,
8,
9,
8,
8,
7,
8,
9,
10,
8,
8,
9,
10,
9,
9,
7,
8,
10,
11,
8,
8,
9,
10,
10,
10,
8,
8,
10,
11,
9,
9,
8,
9,
10,
11,
8,
9,
6,
