5-grundlagen-opAmps/data/ALL0021/A0021CH1.CSV

Memory Length,4000,
Trigger Level,0.00000e+00,
Source,CH1,
Probe,1.0X,
Vertical Units,V,
Vertical Scale,5.00000e-02,
Vertical Position,0.00000e+00,
Horizontal Units,S,
Horizontal Scale,5.00000e-03,
Horizontal Position,5.0000000e-03,
Horizontal Mode,Main,
Sampling Period,2.00000e-05,
Firmware,V1.14,
Time, ,
Mode,Fast,
Waveform Data,
-6,
-6,
-19,
-6,
-19,
-9,
-9,
-5,
-19,
-10,
-10,
-5,
-21,
-14,
-14,
-13,
-13,
-16,
-16,
-14,
-14,
-18,
-5,
-10,
-25,
-13,
-24,
-11,
-26,
-13,
-27,
-15,
-28,
-17,
-28,
-17,
-17,
-20,
-20,
-19,
-19,
-25,
-11,
-16,
-30,
-20,
-20,
-22,
-22,
-16,
-32,
-16,
-31,
-22,
-22,
-27,
-15,
-23,
-34,
-23,
-34,
-26,
-26,
-28,
-15,
-29,
-15,
-22,
-34,
-30,
-17,
-23,
-36,
-26,
-26,
-29,
-17,
-24,
-36,
-32,
-17,
-29,
-17,
-25,
-36,
-32,
-19,
-24,
-36,
-32,
-19,
-24,
-37,
-31,
-19,
-29,
-18,
-31,
-20,
-29,
-29,
-32,
-20,
-22,
-37,
-29,
-29,
-30,
-30,
-25,
-37,
-23,
-37,
-23,
-38,
-32,
-19,
-29,
-29,
-30,
-18,
-23,
-37,
-31,
-20,
-27,
-27,
-23,
-36,
-30,
-18,
-20,
-36,
-35,
-18,
-27,
-27,
-25,
-25,
-19,
-36,
-31,
-16,
-31,
-17,
-29,
-17,
-31,
-16,
-24,
-24,
-27,
-16,
-23,
-23,
-24,
-24,
-27,
-16,
-22,
-33,
-21,
-32,
-24,
-24,
-21,
-32,
-22,
-22,
-20,
-31,
-24,
-11,
-25,
-12,
-17,
-29,
-20,
-20,
-23,
-9,
-19,
-19,
-18,
-18,
-16,
-16,
-17,
-17,
-20,
-7,
-14,
-25,
-17,
-6,
-13,
-24,
-16,
-5,
-19,
-5,
-15,
-4,
-13,
-13,
-11,
-11,
-15,
-3,
-9,
-9,
-15,
-1,
-7,
-18,
-7,
-18,
-14,
-1,
-3,
-16,
-8,
-8,
-5,
-5,
-1,
-15,
-4,
-4,
-8,
4,
-7,
5,
-2,
-2,
-4,
-4,
-2,
-2,
-8,
8,
-1,
-1,
5,
-9,
-4,
9,
-8,
9,
0,
0,
4,
-7,
1,
12,
-3,
12,
3,
3,
-1,
12,
8,
-4,
7,
7,
6,
6,
9,
-3,
13,
-1,
9,
9,
4,
17,
5,
18,
8,
8,
8,
19,
12,
0,
10,
10,
15,
3,
12,
12,
13,
13,
12,
12,
6,
23,
9,
21,
17,
5,
12,
23,
12,
24,
20,
6,
7,
24,
9,
24,
21,
8,
21,
7,
17,
17,
20,
9,
13,
26,
15,
26,
25,
9,
10,
26,
23,
10,
17,
28,
16,
27,
21,
10,
12,
28,
17,
28,
21,
9,
15,
28,
17,
29,
23,
12,
16,
29,
22,
9,
19,
19,
20,
20,
21,
21,
20,
20,
15,
30,
20,
20,
14,
29,
20,
20,
27,
11,
26,
11,
15,
29,
27,
11,
19,
19,
22,
10,
14,
29,
15,
28,
20,
20,
21,
9,
24,
10,
18,
18,
17,
28,
27,
9,
19,
19,
17,
17,
15,
27,
25,
8,
9,
27,
12,
25,
13,
25,
17,
17,
17,
17,
12,
24,
19,
6,
17,
5,
13,
13,
14,
14,
17,
4,
19,
4,
8,
21,
9,
21,
12,
12,
13,
2,
12,
1,
8,
20,
15,
1,
12,
0,
6,
17,
11,
0,
13,
-2,
12,
-1,
2,
15,
8,
-3,
3,
3,
8,
-4,
6,
6,
-3,
12,
2,
2,
5,
-7,
4,
-7,
1,
-10,
-3,
10,
-3,
8,
-2,
-2,
-5,
7,
-2,
-2,
-11,
7,
-4,
-4,
-2,
-2,
-3,
-3,
-8,
3,
-3,
-15,
-1,
-15,
0,
-18,
-4,
-18,
-4,
-17,
-5,
-16,
-5,
-18,
-5,
-19,
-11,
-11,
-8,
-20,
-6,
-22,
-17,
-3,
-11,
-11,
-13,
-13,
-12,
-23,
-19,
-5,
-18,
-7,
-16,
-16,
-20,
-8,
-15,
-15,
-15,
-26,
-22,
-9,
-19,
-19,
-24,
-11,
-16,
-28,
-19,
-19,
-23,
-12,
-17,
-29,
-25,
-12,
-17,
-31,
-22,
-22,
-20,
-31,
-27,
-14,
-23,
-23,
-21,
-21,
-17,
-32,
-27,
-16,
-26,
-26,
-22,
-33,
-27,
-27,
-26,
-26,
-18,
-35,
-31,
-16,
-27,
-27,
-21,
-35,
-24,
-36,
-32,
-17,
-30,
-17,
-31,
-19,
-32,
-19,
-27,
-27,
-31,
-19,
-28,
-28,
-25,
-36,
-29,
-29,
-33,
-18,
-27,
-27,
-28,
-28,
-33,
-19,
-27,
-38,
-23,
-39,
-30,
-30,
-28,
-28,
-29,
-29,
-24,
-38,
-24,
-37,
-27,
-27,
-20,
-37,
-19,
-37,
-28,
-28,
-27,
-27,
-23,
-37,
-25,
-37,
-27,
-27,
-23,
-35,
-24,
-36,
-22,
-35,
-29,
-17,
-27,
-27,
-20,
-35,
-22,
-35,
-29,
-16,
-18,
-33,
-24,
-24,
-31,
-15,
-21,
-32,
-26,
-14,
-23,
-23,
-20,
-31,
-26,
-14,
-24,
-13,
-28,
-12,
-17,
-29,
-19,
-19,
-19,
-19,
-15,
-28,
-13,
-28,
-18,
-18,
-18,
-18,
-27,
-9,
-16,
-16,
-16,
-16,
-11,
-25,
-15,
-15,
-8,
-24,
-12,
-12,
-15,
-4,
-16,
-3,
-7,
-21,
-16,
-3,
-4,
-19,
-12,
-1,
-7,
-19,
-10,
-10,
-12,
1,
-5,
-16,
-4,
-16,
-14,
3,
-3,
-16,
-3,
-14,
-8,
3,
1,
-14,
-3,
-3,
1,
-12,
-1,
-1,
-3,
8,
1,
-11,
-4,
9,
-2,
9,
6,
-9,
5,
-8,
1,
1,
-5,
11,
6,
-5,
1,
12,
3,
3,
2,
2,
-1,
15,
13,
-3,
9,
9,
6,
6,
8,
8,
8,
8,
9,
9,
12,
0,
7,
19,
6,
18,
6,
19,
12,
12,
9,
21,
14,
3,
6,
22,
13,
13,
16,
4,
14,
14,
13,
13,
20,
5,
18,
6,
14,
25,
13,
26,
14,
27,
16,
16,
11,
26,
11,
26,
16,
16,
14,
28,
18,
18,
17,
28,
17,
17,
13,
28,
21,
9,
24,
10,
15,
30,
20,
20,
20,
20,
16,
29,
17,
29,
20,
20,
14,
29,
20,
20,
17,
30,
21,
21,
20,
20,
16,
30,
16,
29,
21,
21,
22,
10,
29,
12,
15,
29,
21,
10,
21,
21,
20,
20,
19,
19,
16,
30,
16,
29,
23,
12,
21,
10,
22,
9,
20,
9,
18,
18,
19,
19,
25,
9,
19,
8,
18,
18,
17,
17,
23,
8,
17,
17,
14,
25,
16,
16,
17,
6,
18,
7,
14,
14,
10,
24,
17,
5,
15,
4,
20,
4,
19,
3,
11,
22,
10,
21,
16,
3,
8,
21,
8,
20,
5,
19,
6,
19,
11,
0,
11,
0,
15,
-1,
8,
-3,
15,
-3,
13,
-3,
5,
16,
5,
5,
-3,
13,
7,
-4,
5,
5,
2,
2,
1,
1,
-5,
11,
-3,
11,
0,
0,
-1,
10,
2,
2,
-2,
-2,
-1,
-1,
-1,
-1,
2,
-12,
1,
-11,
-9,
5,
-1,
-13,
-8,
4,
-5,
-16,
-4,
-15,
-14,
2,
-8,
-8,
-3,
-18,
-3,
-18,
-6,
-19,
-8,
-19,
-12,
-12,
-13,
-2,
-13,
-13,
-13,
-13,
-9,
-23,
-16,
-5,
-15,
-4,
-21,
-7,
-18,
-18,
-17,
-17,
-15,
-15,
-19,
-19,
-23,
-9,
-19,
-19,
-21,
-10,
-15,
-28,
-24,
-9,
-26,
-11,
-24,
-11,
-19,
-30,
-19,
-30,
-24,
-12,
-20,
-31,
-24,
-24,
-24,
-24,
-20,
-32,
-22,
-33,
-19,
-32,
-18,
-34,
-23,
-23,
-27,
-16,
-20,
-35,
-24,
-35,
-19,
-35,
-32,
-15,
-30,
-17,
-31,
-16,
-24,
-36,
-28,
-28,
-24,
-36,
-25,
-36,
-35,
-19,
-27,
-27,
-28,
-28,
-33,
-19,
-32,
-19,
-25,
-36,
-28,
-28,
-31,
-19,
-31,
-20,
-32,
-19,
-35,
-20,
-27,
-27,
-34,
-20,
-32,
-20,
-32,
-19,
-34,
-20,
-27,
-27,
-36,
-19,
-29,
-29,
-21,
-36,
-36,
-19,
-32,
-19,
-31,
-19,
-30,
-18,
-28,
-28,
-31,
-18,
-31,
-16,
-23,
-35,
-21,
-35,
-28,
-17,
-26,
-26,
-27,
-16,
-19,
-34,
-25,
-25,
-29,
-15,
-23,
-23,
-19,
-32,
-20,
-33,
-24,
-13,
-20,
-32,
-27,
-13,
-25,
-13,
-20,
-31,
-21,
-21,
-19,
-19,
-23,
-11,
-18,
-30,
-16,
-28,
-24,
-9,
-16,
-27,
-14,
-26,
-23,
-8,
-16,
-16,
-17,
-6,
-12,
-23,
-15,
-15,
-16,
-4,
-14,
-14,
-13,
-13,
-13,
-13,
-5,
-21,
-17,
-2,
-20,
-1,
-5,
-19,
-11,
0,
-7,
-18,
-7,
-7,
-10,
1,
-6,
-6,
0,
-15,
-2,
-13,
-2,
-14,
-3,
-14,
-5,
6,
-1,
-12,
-2,
-2,
-3,
8,
-9,
7,
5,
-9,
2,
2,
2,
2,
4,
-7,
2,
2,
1,
1,
2,
2,
4,
4,
-2,
13,
1,
14,
2,
15,
6,
6,
4,
17,
5,
17,
9,
-3,
0,
17,
10,
10,
9,
9,
16,
1,
8,
19,
8,
20,
8,
20,
5,
20,
8,
21,
15,
4,
14,
14,
9,
23,
16,
5,
15,
4,
21,
4,
12,
23,
15,
15,
14,
25,
21,
7,
12,
26,
20,
9,
13,
27,
22,
8,
12,
26,
15,
28,
14,
27,
15,
28,
19,
19,
23,
9,
21,
10,
23,
10,
25,
11,
23,
11,
20,
20,
21,
21,
21,
21,
14,
29,
17,
29,
19,
19,
15,
29,
24,
11,
25,
11,
19,
19,
22,
22,
18,
30,
20,
20,
21,
21,
25,
12,
19,
19,
23,
11,
20,
20,
22,
11,
21,
21,
15,
29,
22,
22,
28,
11,
16,
28,
13,
28,
19,
19,
19,
19,
24,
9,
25,
10,
15,
28,
17,
17,
16,
16,
22,
8,
20,
7,
15,
15,
19,
6,
16,
16,
16,
16,
17,
4,
16,
5,
10,
22,
12,
24,
11,
22,
16,
3,
18,
3,
20,
3,
9,
20,
13,
1,
11,
0,
7,
18,
13,
0,
13,
-1,
9,
9,
7,
7,
4,
16,
4,
4,
5,
5,
4,
4,
0,
13,
5,
5,
-4,
12,
4,
-7,
-5,
11,
-1,
10,
-4,
9,
-5,
9,
3,
-9,
0,
0,
-5,
8,
3,
-11,
-1,
-1,
-6,
5,
-12,
5,
-6,
-6,
3,
-13,
-8,
3,
-1,
-15,
-9,
2,
-14,
1,
-6,
-17,
-11,
0,
-4,
-18,
-5,
-19,
-8,
-19,
-9,
-20,
-9,
-21,
-11,
-22,
-12,
-12,
-11,
-11,
-16,
-5,
-13,
-24,
-19,
-5,
-20,
-6,
-16,
-16,
-14,
-26,
-21,
-8,
-14,
-27,
-22,
-10,
-23,
-9,
-15,
-29,
-18,
-29,
-21,
-21,
-27,
-11,
-17,
-30,
-26,
-13,
-22,
-22,
-25,
-14,
-29,
-14,
-24,
-12,
-28,
-15,
-21,
-33,
-22,
-22,
-25,
-25,
-24,
-36,
-18,
-35,
-29,
-16,
-26,
-26,
-25,
-25,
-25,
-25,
-29,
-17,
-23,
-35,
-31,
-19,
-32,
-18,
-25,
-36,
-34,
-19,
-33,
-18,
-27,
-27,
-32,
-20,
-28,
-28,
-29,
-29,
-32,
-19,
-34,
-19,
-30,
-30,
-29,
-29,
-32,
-18,
-31,
-31,
-25,
-37,
-32,
-19,
-30,
-18,
-25,
-36,
-23,
-37,
-27,
-27,
-30,
-18,
-24,
-36,
-23,
-35,
-29,
-18,
-24,
-36,
-21,
-36,
-26,
-26,
-24,
-36,
-29,
-29,
-25,
-25,
-27,
-27,
-32,
-15,
-27,
-15,
-20,
-33,
-28,
-15,
-27,
-15,
-26,
-15,
-31,
-16,
-20,
-32,
-24,
-24,
-26,
-14,
-23,
-23,
-15,
-31,
-21,
-21,
-27,
-12,
-20,
-20,
-17,
-29,
-24,
-10,
-16,
-28,
-15,
-27,
-19,
-19,
-16,
-27,
-20,
-9,
-14,
-26,
-17,
-17,
-17,
-17,
-18,
-6,
-18,
-5,
-11,
-24,
-13,
-13,
-7,
-22,
-11,
-22,
-5,
-21,
-14,
-2,
-13,
-1,
-10,
-10,
-10,
-10,
-8,
-8,
-11,
0,
-12,
1,
-12,
2,
-9,
3,
-5,
-5,
-5,
-5,
-3,
-14,
-5,
-5,
-1,
-12,
2,
-12,
-7,
8,
-3,
8,
5,
-10,
-7,
8,
-2,
9,
1,
1,
4,
-8,
4,
4,
4,
-7,
6,
6,
9,
-5,
0,
13,
2,
14,
10,
-3,
12,
-2,
8,
-3,
8,
8,
14,
0,
17,
-1,
5,
17,
12,
1,
6,
19,
13,
2,
13,
13,
10,
21,
9,
21,
8,
21,
12,
12,
11,
23,
20,
5,
16,
5,
12,
24,
10,
24,
16,
16,
17,
6,
21,
6,
14,
27,
20,
8,
11,
25,
11,
25,
15,
27,
16,
28,
16,
27,
20,
20,
12,
28,
16,
28,
19,
19,
26,
11,
17,
29,
14,
28,
26,
12,
16,
31,
17,
29,
18,
29,
21,
21,
13,
29,
14,
31,
19,
19,
21,
21,
23,
11,
24,
11,
24,
12,
20,
20,
19,
19,
20,
20,
21,
21,
17,
28,
23,
11,
21,
21,
23,
12,
16,
29,
18,
30,
15,
29,
17,
28,
18,
18,
17,
28,
19,
8,
17,
28,
15,
27,
20,
9,
16,
16,
16,
27,
10,
25,
21,
8,
12,
25,
20,
6,
17,
6,
16,
4,
16,
5,
17,
5,
19,
5,
12,
12,
14,
14,
16,
3,
14,
3,
11,
11,
6,
20,
17,
1,
13,
1,
8,
8,
0,
19,
7,
7,
4,
16,
11,
-2,
6,
6,
3,
14,
5,
5,
5,
5,
8,
-5,
4,
4,
6,
-5,
5,
-7,
0,
11,
6,
-8,
-1,
11,
-2,
9,
-8,
9,
-4,
8,
-1,
-1,
2,
-11,
-9,
5,
0,
-13,
-5,
-5,
-11,
4,
-10,
3,
-8,
3,
-8,
4,
-10,
3,
-8,
-8,
-7,
-7,
-15,
0,
-11,
-11,
-8,
-19,
-10,
-10,
-19,
-2,
-8,
-20,
-14,
-14,
-10,
-23,
-13,
-13,
-7,
-23,
-16,
-16,
-14,
-14,
-13,
-25,
-13,
-25,
-22,
-8,
-18,
-18,
-19,
-19,
-17,
-17,
-23,
-11,
-19,
-19,
-20,
-20,
-21,
-21,
-26,
-13,
-24,
-12,
-28,
-13,
-23,
-23,
-24,
-13,
-16,
-32,
-26,
-14,
-24,
-24,
-26,
-15,
-22,
-34,
-23,
-34,
-27,
-16,
-24,
-35,
-23,
-34,
-23,
-36,
-31,
-17,
-28,
-28,
-20,
-37,
-18,
-35,
-21,
-37,
-37,
-17,
-29,
-18,
-23,
-37,
-32,
-19,
-33,
-19,
-35,
-19,
-32,
-19,
-32,
-19,
-24,
-36,
-27,
-27,
-26,
-37,
-30,
-19,
-27,
-27,
-36,
-19,
-28,
-28,
-28,
-28,
-27,
-27,
-25,
-38,
-27,
-27,
-36,
-19,
-28,
-28,
-27,
-27,
-29,
-29,
-25,
-36,
-27,
-27,
-27,
-27,
-26,
-26,
-24,
-35,
-23,
-36,
-27,
-15,
-26,
-26,
-23,
-35,
-24,
-24,
-24,
-35,
-24,
-24,
-18,
-33,
-27,
-16,
-24,
-24,
-24,
-24,
-27,
-14,
-17,
-32,
-28,
-13,
-24,
-12,
-28,
-12,
-20,
-20,
-17,
-29,
-19,
-19,
-15,
-29,
-19,
-19,
-17,
-28,
-24,
-9,
-14,
-27,
-18,
-7,
-15,
-26,
-20,
-7,
-18,
-7,
-17,
-6,
-17,
-17,
-16,
-5,
-11,
-22,
-15,
-4,
-4,
-21,
-18,
-4,
-12,
-12,
-12,
-1,
-17,
-2,
-5,
-17,
-13,
0,
-1,
-16,
-6,
-6,
-6,
-6,
-9,
2,
-9,
4,
-4,
-4,
1,
-14,
-1,
-12,
1,
-11,
-5,
-5,
-2,
-2,
1,
-10,
1,
-10,
-1,
-1,
0,
0,
0,
0,
-5,
11,
2,
2,
1,
1,
4,
4,
-4,
12,
7,
7,
1,
14,
4,
15,
5,
5,
1,
16,
12,
-1,
3,
16,
5,
18,
9,
9,
11,
11,
7,
19,
12,
12,
12,
12,
11,
11,
12,
12,
11,
11,
18,
4,
9,
24,
10,
22,
10,
23,
16,
16,
16,
16,
19,
7,
15,
15,
17,
17,
16,
16,
19,
8,
21,
8,
14,
27,
13,
27,
20,
9,
17,
17,
19,
19,
16,
28,
14,
27,
18,
18,
17,
29,
20,
20,
23,
11,
19,
19,
20,
20,
24,
12,
13,
28,
23,
12,
22,
22,
25,
11,
22,
22,
23,
11,
16,
31,
16,
29,
17,
29,
20,
9,
23,
12,
20,
20,
17,
28,
20,
20,
18,
29,
13,
29,
19,
19,
20,
20,
19,
19,
25,
10,
17,
28,
22,
11,
23,
9,
16,
28,
16,
16,
15,
27,
13,
27,
14,
27,
18,
18,
13,
26,
20,
6,
23,
6,
19,
7,
13,
24,
15,
15,
17,
4,
16,
4,
17,
5,
11,
11,
9,
21,
10,
21,
8,
21,
10,
21,
17,
2,
10,
10,
11,
11,
8,
8,
14,
0,
3,
17,
7,
7,
7,
7,
10,
-2,
11,
-3,
4,
15,
4,
4,
1,
13,
0,
12,
0,
12,
9,
-7,
4,
-8,
2,
2,
-4,
9,
1,
1,
-2,
9,
2,
-10,
0,
-11,
-9,
7,
-4,
-4,
-3,
-3,
2,
-13,
-1,
-13,
-10,
4,
1,
-15,
-13,
2,
-11,
2,
-4,
-16,
-9,
-9,
-11,
0,
-3,
-18,
-12,
-1,
-8,
-19,
-11,
-11,
-19,
-3,
-16,
-4,
-12,
-23,
-19,
-4,
-10,
-23,
-12,
-24,
-6,
-24,
-16,
-16,
-21,
-8,
-12,
-27,
-16,
-16,
-24,
-9,
-19,
-19,
-14,
-29,
-13,
-29,
-23,
-11,
-11,
-29,
-19,
-31,
-24,
-11,
-24,
-12,
-24,
-13,
-22,
-22,
-23,
-23,
-27,
-15,
-19,
-32,
-29,
-16,
-27,
-16,
-18,
-33,
-23,
-34,
-25,
-25,
-29,
-17,
-31,
-16,
-18,
-35,
-25,
-25,
-28,
-28,
-28,
-28,
-33,
-18,
-24,
-36,
-24,
-35,
-20,
-36,
-23,
-36,
-34,
-19,
-26,
-38,
-35,
-19,
-32,
-19,
-29,
-29,
-27,
-27,
-25,
-37,
-31,
-20,
-23,
-37,
-37,
-20,
-23,
-36,
-24,
-38,
-30,
-30,
-28,
-28,
-33,
-20,
-30,
-19,
-34,
-19,
-24,
-37,
-21,
-36,
-28,
-28,
-27,
-27,
-32,
-19,
-24,
-35,
-29,
-17,
-30,
-18,
-22,
-34,
-34,
-18,
-28,
-17,
-24,
-24,
-23,
-34,
-24,
-35,
-31,
-15,
-26,
-26,
-27,
-15,
-23,
-23,
-18,
-31,
-27,
-14,
-27,
-14,
-24,
-12,
-23,
-23,
-25,
-11,
-17,
-29,
-25,
-11,
-23,
-11,
-20,
-20,
-15,
-28,
-21,
-8,
-19,
-19,
-16,
-27,
-10,
-25,
-15,
-26,
-12,
-24,
-20,
-6,
-19,
-5,
-10,
-23,
-7,
-22,
-17,
-4,
-9,
-21,
-9,
-20,
-13,
-1,
-9,
-20,
-10,
-10,
-8,
-8,
-3,
-17,
-10,
1,
-16,
3,
-8,
-8,
-5,
-5,
-2,
-15,
-7,
4,
-5,
-5,
-7,
6,
-5,
-5,
-1,
-12,
-4,
7,
-1,
-1,
-5,
9,
3,
-8,
1,
1,
9,
-6,
8,
-6,
1,
12,
-2,
12,
3,
3,
3,
3,
0,
14,
4,
4,
2,
15,
4,
16,
4,
15,
4,
16,
7,
7,
7,
7,
8,
8,
12,
1,
8,
19,
14,
3,
13,
2,
13,
13,
9,
21,
15,
3,
17,
4,
13,
13,
7,
23,
6,
23,
19,
6,
15,
15,
17,
17,
20,
7,
15,
15,
11,
26,
13,
26,
20,
8,
23,
9,
21,
8,
17,
28,
22,
10,
17,
17,
19,
19,
22,
10,
22,
11,
20,
20,
23,
11,
20,
20,
19,
19,
21,
21,
17,
28,
21,
21,
19,
19,
25,
11,
17,
31,
20,
20,
23,
11,
26,
11,
22,
22,
21,
21,
16,
29,
25,
12,
16,
29,
20,
31,
15,
29,
13,
29,
23,
11,
19,
19,
23,
11,
18,
18,
24,
11,
17,
29,
22,
10,
18,
18,
21,
8,
17,
17,
14,
27,
16,
28,
25,
9,
14,
27,
21,
8,
16,
16,
20,
6,
16,
16,
18,
5,
12,
24,
8,
23,
13,
13,
11,
23,
12,
23,
13,
13,
15,
4,
12,
12,
9,
20,
9,
20,
11,
11,
10,
10,
14,
0,
9,
9,
6,
17,
13,
-2,
6,
18,
12,
-3,
10,
-3,
9,
-3,
5,
5,
8,
-4,
7,
-4,
5,
5,
5,
5,
7,
-7,
1,
1,
4,
-8,
1,
1,
-2,
9,
-6,
8,
0,
-11,
-7,
8,
-3,
-3,
-2,
-2,
1,
-13,
-3,
-14,
-3,
-15,
1,
-15,
-13,
2,
-5,
-16,
-10,
-10,
-7,
-18,
-16,
-1,
-10,
-10,
-10,
-10,
-12,
-12,
-18,
-3,
-15,
-3,
-15,
-3,
-14,
-14,
-12,
-12,
-12,
-24,
-9,
-24,
-15,
-15,
-7,
-26,
-13,
-26,
-22,
-8,
-16,
-27,
-16,
-27,
-23,
-11,
-25,
-11,
-21,
-21,
-25,
-11,
-21,
-21,
-23,
-11,
-20,
-20,
-22,
-22,
-23,
-12,
-25,
-14,
-19,
-32,
-25,
-13,
-20,
-32,
-21,
-34,
-23,
-34,
-16,
-35,
-28,
-16,
-23,
-35,
-31,
-16,
-31,
-16,
-29,
-16,
-32,
-17,
-34,
-18,
-30,
-18,
-28,
-28,
-25,
-36,
-24,
-37,
-23,
-37,
-27,
-27,
-33,
-19,
-26,
-37,
-22,
-36,
-27,
-27,
-35,
-20,
-26,
-38,
-31,
-20,
-24,
-37,
-29,
-29,
-27,
-27,
-32,
-20,
-23,
-37,
-26,
-26,
-31,
-19,
-28,
-28,
-26,
-37,
-27,
-27,
-29,
-18,
-28,
-28,
-23,
-36,
-20,
-36,
-28,
-17,
-30,
-18,
-28,
-28,
-29,
-18,
-28,
-16,
-30,
-17,
-28,
-16,
-23,
-35,
-26,
-26,
-26,
-26,
-24,
-24,
-25,
-25,
-22,
-33,
-29,
-15,
-18,
-32,
-20,
-31,
-26,
-14,
-24,
-12,
-25,
-13,
-17,
-30,
-27,
-11,
-18,
-29,
-22,
-10,
-19,
-19,
-23,
-10,
-19,
-19,
-23,
-9,
-12,
-27,
-19,
-19,
-21,
-8,
-18,
-6,
-18,
-7,
-18,
-6,
-16,
-16,
-13,
-13,
-17,
-3,
-11,
-22,
-12,
-12,
-7,
-19,
-17,
-1,
-4,
-19,
-13,
-1,
-12,
-1,
-3,
-17,
-10,
1,
-8,
-8,
-6,
-6,
3,
-15,
-12,
3,
-8,
5,
-4,
-4,
-4,
-4,
-3,
-3,
5,
-11,
-1,
-1,
1,
1,
0,
0,
-3,
10,
5,
-7,
0,
12,
-2,
12,
2,
2,
7,
-6,
-3,
12,
8,
-4,
10,
-3,
5,
5,
5,
5,
11,
-2,
2,
16,
8,
8,
9,
9,
4,
18,
9,
9,
9,
20,
10,
10,
11,
11,
9,
22,
6,
20,
5,
21,
12,
12,
9,
22,
15,
4,
16,
5,
17,
6,
23,
6,
13,
24,
17,
6,
13,
27,
17,
17,
10,
26,
23,
8,
20,
8,
20,
9,
23,
9,
19,
19,
13,
28,
16,
28,
13,
28,
20,
20,
22,
11,
22,
22,
20,
20,
27,
12,
17,
29,
25,
12,
20,
20,
14,
30,
28,
11,
20,
20,
20,
20,
20,
20,
20,
20,
27,
11,
21,
21,
15,
29,
20,
20,
20,
20,
13,
30,
20,
20,
22,
22,
20,
20,
16,
29,
16,
28,
16,
28,
12,
27,
22,
11,
14,
28,
21,
10,
13,
27,
20,
20,
11,
26,
20,
9,
23,
9,
15,
15,
13,
26,
21,
8,
13,
25,
20,
8,
21,
6,
19,
7,
13,
24,
17,
5,
13,
13,
11,
11,
17,
3,
13,
13,
16,
2,
17,
3,
15,
3,
12,
12,
4,
20,
13,
0,
12,
-1,
9,
9,
7,
7,
6,
6,
5,
16,
2,
16,
6,
6,
8,
-3,
6,
6,
9,
-5,
1,
12,
-2,
12,
9,
-7,
0,
0,
6,
-8,
-1,
-1,
-4,
9,
6,
-9,
-2,
-2,
2,
-11,
-1,
-1,
-2,
-2,
-4,
-4,
-4,
-4,
-12,
4,
-10,
4,
-1,
-15,
0,
-15,
-8,
-8,
-14,
0,
-12,
0,
-5,
-19,
-6,
-19,
-11,
-11,
-13,
-1,
-5,
-20,
-17,
-4,
-9,
-21,
-10,
-23,
-15,
-15,
-17,
-5,
-17,
-6,
-10,
-24,
-10,
-24,
-12,
-26,
-19,
-8,
-19,
-8,
-11,
-28,
-15,
-27,
-22,
-11,
-12,
-29,
-20,
-20,
-21,
-21,
-19,
-19,
-20,
-31,
-16,
-31,
-21,
-21,
-24,
-13,
-20,
-33,
-25,
-25,
-19,
-33,
-19,
-34,
-27,
-14,
-25,
-25,
-31,
-16,
-22,
-35,
-20,
-36,
-23,
-35,
-29,
-17,
-28,
-17,
-20,
-36,
-31,
-18,
-33,
-18,
-31,
-18,
-31,
-18,
-33,
-19,
-30,
-19,
-26,
-37,
-26,
-38,
-32,
-18,
-29,
-29,
-27,
-27,
-31,
-19,
-29,
-29,
-30,
-30,
-31,
-20,
-24,
-38,
-30,
-19,
-29,
-29,
-29,
-18,
-29,
-29,
-31,
-19,
-28,
-28,
-20,
-36,
-23,
-37,
-33,
-19,
-28,
-28,
-24,
-35,
-31,
-17,
-27,
-27,
-24,
-36,
-26,
-26,
-25,
-25,
-24,
-36,
-29,
-16,
-24,
-24,
-28,
-17,
-22,
-22,
-25,
-14,
-21,
-33,
-28,
-14,
-19,
-32,
-25,
-25,
-24,
-24,
-23,
-23,
-20,
-31,
-26,
-12,
-17,
-29,
-24,
-11,
-22,
-11,
-17,
-29,
-21,
-9,
-17,
-17,
-22,
-9,
-18,
-18,
-14,
-25,
-16,
-16,
-11,
-25,
-15,
-15,
-15,
-15,
-17,
-5,
-11,
-22,
-6,
-23,
-16,
-4,
-4,
-20,
-12,
-12,
-7,
-19,
-5,
-19,
-11,
-11,
-13,
1,
-7,
-7,
-8,
-8,
-4,
-16,
-9,
-9,
-11,
3,
-4,
-15,
-5,
-5,
-4,
-4,
-4,
-4,
-4,
-4,
-5,
7,
1,
-11,
0,
0,
6,
-8,
2,
-9,
-7,
9,
1,
1,
5,
-7,
5,
-6,
0,
13,
8,
-4,
1,
14,
5,
5,
-4,
14,
9,
-3,
6,
17,
5,
16,
12,
-1,
12,
0,
11,
0,
6,
19,
6,
20,
11,
11,
11,
11,
9,
21,
13,
13,
16,
3,
14,
3,
14,
3,
16,
5,
12,
12,
21,
5,
18,
6,
13,
13,
15,
15,
17,
17,
24,
6,
23,
8,
17,
17,
20,
8,
13,
25,
19,
19,
16,
28,
19,
19,
17,
28,
19,
19,
15,
28,
19,
19,
18,
18,
24,
11,
21,
21,
24,
10,
24,
11,
15,
29,
19,
19,
25,
11,
19,
30,
16,
30,
23,
12,
15,
30,
19,
30,
24,
11,
13,
28,
14,
29,
19,
30,
19,
19,
26,
12,
21,
21,
23,
12,
25,
10,
26,
10,
23,
10,
16,
28,
22,
10,
21,
10,
22,
9,
17,
28,
13,
28,
17,
17,
17,
17,
13,
27,
13,
26,
13,
25,
18,
18,
18,
7,
20,
7,
16,
5,
16,
16,
18,
6,
15,
15,
13,
13,
16,
4,
6,
22,
15,
4,
13,
13,
8,
20,
13,
2,
8,
20,
11,
11,
9,
9,
3,
18,
12,
0,
3,
17,
8,
8,
8,
8,
13,
-3,
1,
15,
2,
16,
5,
5,
4,
4,
4,
4,
4,
-7,
3,
3,
1,
1,
-1,
11,
3,
-8,
-3,
9,
-3,
9,
-4,
-4,
-3,
8,
-5,
6,
-10,
5,
-5,
-5,
-3,
-3,
-1,
-15,
-3,
-14,
-13,
3,
-6,
-17,
-7,
-7,
-3,
-16,
-9,
