5-grundlagen-opAmps/data/ALL0059/A0059CH1.CSV

Memory Length,4000,
Trigger Level,0.00000e+00,
Source,CH1,
Probe,1.0X,
Vertical Units,V,
Vertical Scale,5.00000e-02,
Vertical Position,0.00000e+00,
Horizontal Units,S,
Horizontal Scale,2.50000e-07,
Horizontal Position,0.0000000e+00,
Horizontal Mode,Main,
Sampling Period,2.00000e-09,
Firmware,V1.14,
Time, ,
Mode,Fast,
Waveform Data,
13,
13,
11,
12,
14,
18,
21,
21,
18,
16,
19,
28,
27,
28,
22,
22,
29,
34,
34,
33,
27,
30,
36,
40,
38,
33,
32,
39,
41,
42,
38,
39,
41,
44,
42,
40,
43,
46,
46,
44,
42,
44,
47,
48,
45,
42,
44,
49,
51,
45,
42,
44,
50,
51,
46,
41,
43,
48,
51,
48,
44,
40,
43,
48,
49,
43,
38,
41,
44,
45,
41,
39,
38,
38,
38,
41,
39,
35,
32,
32,
36,
37,
34,
29,
25,
28,
32,
32,
28,
19,
18,
24,
29,
25,
14,
13,
18,
23,
20,
12,
7,
10,
14,
14,
8,
2,
3,
7,
6,
1,
-2,
-1,
-1,
-3,
-6,
-7,
-5,
-7,
-11,
-13,
-12,
-10,
-12,
-19,
-22,
-21,
-17,
-13,
-23,
-28,
-29,
-25,
-18,
-22,
-30,
-35,
-32,
-29,
-29,
-35,
-37,
-39,
-36,
-35,
-35,
-39,
-43,
-44,
-42,
-40,
-41,
-43,
-48,
-49,
-46,
-43,
-44,
-51,
-54,
-50,
-45,
-43,
-51,
-59,
-56,
-49,
-44,
-48,
-58,
-62,
-56,
-46,
-45,
-55,
-63,
-60,
-49,
-45,
-50,
-59,
-59,
-54,
-47,
-47,
-54,
-59,
-58,
-50,
-44,
-49,
-54,
-55,
-50,
-45,
-44,
-48,
-53,
-50,
-45,
-42,
-42,
-47,
-48,
-45,
-39,
-37,
-41,
-44,
-43,
-37,
-34,
-34,
-35,
-38,
-36,
-32,
-27,
-27,
-30,
-28,
-27,
-21,
-23,
-24,
-23,
-21,
-20,
-17,
-15,
-15,
-15,
-13,
-11,
-10,
-11,
-8,
-6,
-4,
-4,
-4,
0,
1,
1,
1,
2,
4,
6,
11,
9,
6,
6,
14,
19,
15,
11,
12,
18,
25,
24,
19,
16,
21,
29,
30,
27,
22,
24,
30,
37,
34,
29,
28,
33,
38,
39,
36,
33,
34,
38,
40,
44,
39,
37,
39,
41,
44,
46,
43,
43,
41,
45,
49,
46,
42,
39,
45,
51,
50,
43,
40,
45,
49,
51,
48,
43,
42,
45,
51,
49,
44,
42,
44,
48,
45,
41,
43,
44,
44,
41,
41,
42,
44,
40,
36,
37,
39,
42,
40,
33,
30,
33,
39,
37,
29,
24,
25,
33,
33,
25,
19,
20,
26,
29,
23,
16,
13,
17,
21,
20,
13,
8,
11,
11,
13,
10,
7,
3,
0,
2,
5,
5,
-1,
-9,
-6,
-2,
2,
-3,
-13,
-17,
-12,
-4,
-6,
-16,
-25,
-23,
-11,
-11,
-19,
-29,
-30,
-19,
-17,
-22,
-34,
-36,
-31,
-25,
-24,
-33,
-40,
-39,
-34,
-29,
-36,
-42,
-43,
-41,
-39,
-40,
-43,
-47,
-47,
-45,
-44,
-44,
-46,
-50,
-51,
-48,
-46,
-46,
-51,
-54,
-53,
-50,
-50,
-50,
-54,
-57,
-53,
-52,
-53,
-56,
-56,
-52,
-52,
-54,
-54,
-56,
-53,
-53,
-53,
-54,
-54,
-52,
-52,
-52,
-53,
-54,
-49,
-48,
-51,
-54,
-52,
-47,
-43,
-46,
-51,
-49,
-45,
-41,
-40,
-44,
-48,
-46,
-40,
-35,
-38,
-42,
-43,
-38,
-30,
-30,
-34,
-37,
-35,
-29,
-25,
-24,
-30,
-32,
-26,
-19,
-18,
-21,
-25,
-20,
-16,
-13,
-13,
-15,
-18,
-13,
-5,
-5,
-7,
-10,
-9,
-2,
1,
2,
0,
-3,
0,
3,
10,
8,
5,
3,
7,
15,
17,
16,
12,
10,
18,
21,
23,
18,
16,
19,
25,
28,
25,
24,
25,
29,
32,
30,
30,
32,
33,
34,
33,
36,
37,
37,
37,
35,
39,
42,
44,
40,
36,
38,
45,
49,
44,
38,
40,
46,
52,
48,
39,
40,
45,
52,
54,
45,
38,
41,
51,
54,
48,
42,
40,
46,
50,
50,
46,
43,
42,
45,
49,
48,
44,
39,
39,
44,
46,
45,
40,
34,
37,
42,
44,
40,
29,
28,
36,
44,
38,
27,
23,
28,
37,
35,
25,
19,
20,
28,
30,
24,
15,
14,
21,
24,
20,
12,
11,
13,
15,
13,
9,
6,
7,
6,
4,
4,
2,
1,
0,
-3,
-4,
-4,
-4,
-6,
-11,
-11,
-9,
-10,
-14,
-16,
-18,
-16,
-16,
-19,
-24,
-20,
-22,
-23,
-24,
-28,
-26,
-27,
-30,
-32,
-31,
-32,
-31,
-33,
-40,
-42,
-36,
-34,
-36,
-45,
-49,
-43,
-37,
-38,
-47,
-51,
-49,
-44,
-40,
-46,
-53,
-56,
-49,
-43,
-46,
-54,
-57,
-52,
-47,
-48,
-52,
-56,
-57,
-53,
-49,
-51,
-55,
-58,
-57,
-52,
-50,
-53,
-57,
-58,
-54,
-50,
-48,
-51,
-56,
-57,
-52,
-47,
-47,
-52,
-55,
-53,
-46,
-44,
-46,
-49,
-51,
-47,
-43,
-41,
-45,
-47,
-46,
-41,
-38,
-39,
-40,
-41,
-38,
-35,
-36,
-34,
-35,
-35,
-32,
-29,
-27,
-29,
-29,
-27,
-24,
-23,
-22,
-20,
-22,
-22,
-19,
-15,
-12,
-14,
-13,
-14,
-9,
-6,
-4,
-7,
-10,
-8,
0,
5,
2,
-5,
-4,
3,
10,
12,
6,
3,
6,
14,
19,
16,
9,
8,
16,
23,
22,
18,
14,
20,
29,
29,
26,
21,
25,
29,
35,
35,
31,
28,
29,
35,
38,
38,
37,
32,
34,
39,
45,
45,
36,
34,
40,
48,
49,
42,
38,
38,
47,
51,
47,
40,
39,
45,
51,
51,
43,
40,
47,
51,
49,
44,
43,
45,
49,
48,
44,
43,
45,
48,
48,
43,
42,
44,
45,
45,
42,
39,
43,
44,
41,
36,
37,
41,
42,
38,
35,
34,
36,
36,
36,
32,
30,
29,
28,
29,
30,
27,
26,
21,
21,
22,
24,
23,
15,
11,
15,
20,
19,
11,
6,
6,
13,
17,
8,
0,
-1,
5,
12,
5,
-7,
-12,
-4,
3,
1,
-8,
-16,
-13,
-6,
-5,
-11,
-19,
-20,
-18,
-11,
-16,
-22,
-27,
-27,
-23,
-22,
-26,
-28,
-31,
-31,
-32,
-29,
-28,
-34,
-39,
-40,
-36,
-32,
-38,
-43,
-44,
-42,
-38,
-40,
-45,
-49,
-47,
-42,
-42,
-46,
-52,
-52,
-47,
-45,
-47,
-52,
-53,
-51,
-50,
-51,
-50,
-52,
-54,
-53,
-52,
-51,
-52,
-54,
-55,
-57,
-54,
-51,
-50,
-53,
-59,
-55,
-52,
-48,
-48,
-55,
-57,
-52,
-49,
-47,
-49,
-54,
-55,
-48,
-44,
-45,
-50,
-52,
-47,
-42,
-41,
-45,
-48,
-46,
-42,
-36,
-36,
-43,
-45,
-40,
-32,
-30,
-34,
-39,
-38,
-29,
-26,
-26,
-30,
-32,
-30,
-24,
-18,
-21,
-25,
-24,
-19,
-13,
-14,
-16,
-16,
-16,
-12,
-7,
-7,
-9,
-11,
-6,
-2,
1,
-1,
-4,
-1,
2,
6,
6,
4,
3,
6,
15,
15,
10,
8,
13,
19,
19,
17,
16,
19,
22,
24,
21,
21,
26,
28,
29,
28,
26,
30,
36,
35,
31,
30,
36,
41,
41,
35,
33,
36,
43,
44,
41,
37,
36,
41,
48,
47,
42,
40,
44,
45,
46,
45,
45,
44,
44,
47,
49,
48,
45,
41,
44,
51,
51,
46,
40,
41,
47,
54,
50,
40,
36,
42,
52,
52,
41,
34,
37,
48,
51,
43,
32,
31,
41,
46,
44,
35,
30,
34,
39,
40,
32,
28,
29,
30,
33,
29,
26,
25,
25,
25,
24,
23,
21,
18,
18,
18,
19,
17,
13,
9,
9,
15,
16,
11,
2,
0,
5,
9,
5,
-2,
-5,
-4,
0,
0,
-7,
-9,
-11,
-10,
-8,
-10,
-14,
-16,
-16,
-15,
-19,
-19,
-17,
-19,
-25,
-27,
-25,
-24,
-24,
-31,
-36,
-32,
-27,
-26,
-35,
-41,
-40,
-34,
-31,
-37,
-45,
-46,
-43,
-35,
-39,
-46,
-50,
-47,
-41,
-42,
-47,
-52,
-53,
-48,
-44,
-45,
-52,
-56,
-53,
-50,
-47,
-50,
-53,
-55,
-54,
-51,
-51,
-52,
-55,
-58,
-53,
-49,
-51,
-55,
-57,
-55,
-51,
-49,
-52,
-55,
-56,
-53,
-49,
-47,
-52,
-55,
-51,
-48,
-46,
-49,
-51,
-48,
-46,
-45,
-46,
-45,
-45,
-44,
-43,
-41,
-41,
-42,
-39,
-37,
-38,
-38,
-37,
-34,
-30,
-33,
-34,
-33,
-28,
-25,
-27,
-27,
-28,
-25,
-19,
-16,
-20,
-25,
-21,
-13,
-9,
-13,
-19,
-15,
-10,
-4,
-4,
-9,
-10,
-7,
1,
4,
-1,
-4,
-2,
5,
10,
8,
5,
3,
7,
13,
17,
16,
10,
9,
14,
22,
26,
22,
17,
16,
25,
30,
30,
24,
19,
24,
36,
40,
33,
25,
25,
35,
43,
41,
34,
28,
35,
43,
48,
40,
34,
36,
44,
49,
44,
38,
40,
45,
48,
46,
43,
42,
44,
46,
48,
48,
46,
44,
45,
46,
47,
49,
49,
44,
43,
44,
49,
51,
45,
40,
42,
48,
49,
46,
40,
40,
43,
46,
44,
40,
38,
38,
41,
40,
37,
36,
37,
37,
34,
33,
35,
33,
32,
29,
27,
30,
31,
27,
19,
20,
26,
28,
25,
16,
11,
17,
24,
23,
10,
4,
9,
15,
17,
8,
0,
0,
7,
9,
4,
-2,
-5,
-3,
1,
1,
-7,
-10,
-9,
-9,
-8,
-12,
-14,
-16,
-18,
-17,
-16,
-15,
-21,
-23,
-24,
-23,
-22,
-26,
-29,
-33,
-29,
-27,
-28,
-33,
-39,
-38,
-35,
-33,
-38,
-42,
-43,
-39,
-39,
-41,
-45,
-44,
-43,
-44,
-48,
-48,
-47,
-46,
-46,
-49,
-51,
-48,
-47,
-47,
-52,
-56,
-52,
-49,
-48,
-53,
-58,
-55,
-51,
-49,
-51,
-56,
-56,
-54,
-49,
-48,
-54,
-58,
-57,
-50,
-47,
-51,
-57,
-57,
-52,
-48,
-47,
-51,
-57,
-55,
-48,
-43,
-44,
-52,
-55,
-49,
-41,
-39,
-43,
-49,
-49,
-43,
-35,
-34,
-42,
-46,
-41,
-33,
-29,
-33,
-38,
-39,
-30,
-26,
-25,
-30,
-34,
-32,
-21,
-15,
-19,
-25,
-28,
-19,
-11,
-11,
-16,
-20,
-16,
-8,
-4,
-6,
-13,
-13,
-4,
2,
1,
-4,
-5,
-2,
5,
6,
5,
4,
5,
7,
12,
12,
12,
13,
14,
15,
15,
18,
22,
20,
20,
18,
23,
28,
28,
24,
24,
28,
33,
33,
29,
27,
31,
35,
40,
37,
34,
34,
38,
41,
41,
38,
39,
40,
42,
42,
44,
45,
42,
40,
43,
45,
49,
46,
43,
41,
45,
50,
53,
47,
39,
41,
51,
54,
48,
40,
40,
47,
53,
49,
42,
37,
45,
50,
49,
43,
38,
40,
45,
48,
41,
37,
38,
40,
42,
38,
37,
37,
35,
35,
36,
35,
34,
32,
29,
29,
31,
32,
29,
24,
22,
24,
26,
26,
20,
17,
17,
20,
19,
15,
12,
12,
13,
11,
9,
7,
6,
6,
4,
2,
1,
2,
3,
-1,
-7,
-6,
-3,
-2,
-9,
-15,
-15,
-9,
-8,
-14,
-21,
-23,
-17,
-13,
-13,
-28,
-30,
-26,
-20,
-17,
-29,
-36,
-36,
-28,
-23,
-30,
-39,
-41,
-38,
-34,
-32,
-36,
-43,
-46,
-42,
-37,
-38,
-45,
-49,
-49,
-45,
-40,
-43,
-51,
-54,
-53,
-46,
-43,
-50,
-58,
-57,
-49,
-43,
-47,
-58,
-60,
-54,
-47,
-47,
-53,
-61,
-59,
-52,
-46,
-51,
-59,
-60,
-56,
-48,
-48,
-52,
-56,
-56,
-51,
-49,
-48,
-52,
-55,
-52,
-49,
-47,
-47,
-49,
-48,
-46,
-46,
-45,
-44,
-44,
-45,
-44,
-41,
-41,
-41,
-40,
-39,
-39,
-36,
-35,
-33,
-35,
-35,
-32,
-28,
-27,
-30,
-31,
-29,
-24,
-21,
-20,
-23,
-23,
-22,
-16,
-12,
-15,
-16,
-15,
-12,
-8,
-7,
-8,
-9,
-7,
-4,
0,
2,
1,
-1,
-1,
3,
8,
8,
6,
5,
7,
13,
17,
15,
10,
9,
18,
23,
21,
17,
16,
21,
29,
30,
24,
20,
25,
31,
37,
34,
26,
27,
32,
39,
37,
33,
35,
37,
39,
39,
39,
40,
41,
41,
40,
42,
43,
44,
45,
44,
42,
44,
49,
48,
43,
42,
45,
49,
48,
44,
44,
46,
48,
49,
47,
45,
45,
46,
48,
47,
44,
44,
45,
45,
43,
43,
45,
44,
38,
40,
44,
47,
41,
34,
35,
40,
46,
42,
32,
28,
33,
41,
41,
33,
22,
25,
34,
38,
30,
18,
17,
23,
32,
28,
18,
13,
15,
23,
23,
16,
9,
7,
12,
16,
13,
8,
2,
2,
5,
7,
6,
1,
-6,
-7,
-1,
3,
-3,
-11,
-16,
-12,
-4,
-5,
-13,
-23,
-21,
-14,
-9,
-15,
-27,
-29,
-24,
-16,
-19,
-29,
-33,
-31,
-23,
-26,
-33,
-35,
-38,
-34,
-33,
-37,
-40,
-42,
-39,
-38,
-40,
-44,
-44,
-42,
-44,
-46,
-46,
-45,
-46,
-48,
-50,
-48,
-48,
-48,
-51,
-53,
-53,
-52,
-48,
-48,
-52,
-57,
-56,
-52,
-51,
-52,
-55,
-55,
-55,
-53,
-51,
-52,
-55,
-57,
-55,
-50,
-50,
-52,
-54,
-55,
-51,
-48,
-50,
-51,
-52,
-50,
-47,
-44,
-47,
-50,
-51,
-45,
-41,
-43,
-47,
-47,
-44,
-41,
-36,
-38,
-43,
-44,
-39,
-32,
-30,
-36,
-38,
-37,
-28,
-26,
-28,
-31,
-31,
-27,
-22,
-19,
-23,
-25,
-21,
-17,
-15,
-18,
-17,
-13,
-13,
-11,
-10,
-11,
-8,
-7,
-4,
-4,
-2,
0,
0,
1,
0,
2,
7,
9,
7,
5,
7,
13,
16,
14,
12,
13,
15,
20,
23,
20,
16,
19,
25,
27,
28,
25,
23,
28,
31,
33,
36,
30,
29,
30,
37,
41,
39,
33,
29,
36,
45,
47,
40,
33,
37,
45,
52,
47,
36,
35,
44,
53,
49,
39,
36,
44,
53,
55,
47,
38,
41,
49,
56,
51,
41,
39,
44,
50,
50,
45,
43,
42,
45,
47,
48,
45,
41,
39,
43,
47,
45,
41,
37,
37,
42,
44,
41,
36,
31,
35,
41,
40,
31,
26,
28,
36,
36,
28,
20,
23,
29,
31,
24,
17,
18,
20,
25,
19,
13,
14,
16,
16,
11,
8,
9,
11,
9,
3,
3,
3,
5,
3,
-4,
-6,
-4,
-2,
-1,
-7,
-12,
-13,
-10,
-7,
-11,
-17,
-19,
-17,
-15,
-18,
-21,
-24,
-24,
-23,
-24,
-26,
-27,
-32,
-32,
-29,
-27,
-30,
-36,
-37,
-39,
-35,
-33,
-37,
-43,
-45,
-42,
-36,
-39,
-46,
-51,
-47,
-42,
-40,
-45,
-53,
-53,
-48,
-44,
-45,
-53,
-56,
-53,
-48,
-46,
-52,
-54,
-55,
-52,
-50,
-52,
-53,
-54,
-54,
-52,
-52,
-52,
-55,
-54,
-55,
-52,
-52,
-53,
-53,
-54,
-53,
-50,
-49,
-50,
-52,
-52,
-50,
-47,
-46,
-47,
-47,
-49,
-48,
-44,
-42,
-43,
-47,
-48,
-42,
-39,
-37,
-40,
-43,
-42,
-36,
-32,
-33,
-36,
-39,
-34,
-27,
-24,
-26,
-32,
-29,
-23,
-19,
-19,
-24,
-25,
-23,
-16,
-10,
-13,
-17,
-19,
-13,
-6,
-3,
-8,
-14,
-10,
-3,
5,
4,
-6,
-8,
-2,
11,
13,
5,
-2,
1,
13,
19,
16,
9,
6,
14,
24,
25,
17,
13,
16,
26,
29,
25,
21,
21,
29,
33,
32,
29,
29,
30,
35,
36,
36,
35,
37,
35,
38,
41,
42,
40,
35,
38,
44,
47,
43,
38,
40,
45,
48,
47,
41,
40,
45,
48,
49,
46,
44,
45,
48,
49,
44,
44,
48,
50,
46,
42,
44,
49,
49,
46,
40,
41,
46,
49,
44,
40,
37,
41,
48,
45,
36,
34,
39,
44,
42,
34,
30,
34,
39,
38,
35,
29,
29,
31,
35,
32,
27,
24,
23,
23,
26,
25,
22,
18,
14,
17,
21,
20,
13,
7,
9,
15,
17,
10,
1,
-1,
4,
8,
6,
-1,
-7,
-5,
2,
1,
-6,
-12,
-11,
-8,
-6,
-11,
-16,
-17,
-15,
-15,
-16,
-19,
-22,
-23,
-22,
-24,
-23,
-26,
-28,
-29,
-30,
-31,
-30,
-29,
-35,
-40,
-37,
-35,
-32,
-38,
-44,
-44,
-41,
-38,
-39,
-45,
-48,
-47,
-45,
-41,
-46,
-50,
-51,
-50,
-46,
-47,
-50,
-54,
-53,
-52,
-49,
-48,
-52,
-57,
-57,
-51,
-49,
-50,
-57,
-59,
-55,
-49,
-48,
-52,
-59,
-59,
-51,
-46,
-47,
-56,
-60,
-55,
-46,
-44,
-50,
-56,
-56,
-50,
-43,
-43,
-51,
-56,
-50,
-42,
-39,
-43,
-49,
-49,
-42,
-36,
-39,
-42,
-45,
-41,
-34,
-32,
-36,
-39,
-36,
-31,
-26,
-28,
-32,
-32,
-28,
-24,
-22,
-24,
-24,
-24,
-21,
-17,
-17,
-18,
-16,
-15,
-13,
-11,
-8,
-8,
-9,
-10,
-7,
-1,
-1,
-2,
-1,
0,
2,
4,
6,
5,
6,
8,
11,
11,
11,
13,
16,
16,
14,
15,
20,
24,
22,
20,
18,
23,
30,
29,
25,
24,
30,
35,
37,
31,
26,
31,
40,
42,
34,
30,
33,
41,
47,
42,
35,
35,
42,
47,
48,
41,
37,
41,
48,
50,
45,
41,
41,
45,
47,
48,
48,
45,
44,
45,
48,
50,
48,
43,
43,
46,
49,
50,
44,
41,
43,
49,
51,
47,
38,
38,
44,
50,
44,
36,
36,
41,
45,
42,
37,
32,
34,
38,
38,
36,
32,
31,
31,
31,
30,
30,
30,
28,
23,
20,
24,
26,
25,
17,
12,
17,
20,
20,
15,
8,
8,
12,
15,
10,
1,
2,
6,
8,
4,
-3,
-5,
-3,
1,
0,
-5,
-9,
-11,
-11,
-8,
-7,
-13,
-19,
-18,
-19,
-12,
-15,
-24,
-24,
-27,
-23,
-16,
-23,
-31,
-37,
-32,
-24,
-23,
-33,
-42,
-40,
-32,
-29,
-35,
-43,
-45,
-41,
-35,
-36,
-46,
-51,
-47,
-42,
-41,
-46,
-53,
-52,
-46,
-44,
-45,
-51,
-54,
-54,
-50,
-47,
-50,
-54,
-56,
-54,
-51,
-53,
-52,
-55,
-54,
-55,
-53,
-51,
-54,
-56,
-55,
-53,
-52,
-53,
-53,
-52,
-52,
-53,
-52,
-50,
-50,
-50,
-50,
-49,
-49,
-49,
-48,
-46,
-47,
-47,
-46,
-44,
-43,
-44,
-45,
-43,
-40,
-39,
-39,
-40,
-40,
-38,
-33,
-32,
-33,
-38,
-36,
-28,
-24,
-26,
-32,
-31,
-24,
-19,
-16,
-20,
-27,
-24,
-14,
-10,
-14,
-20,
-20,
-12,
-3,
-4,
-10,
-14,
-9,
0,
4,
1,
-6,
-6,
3,
9,
7,
3,
3,
6,
11,
14,
13,
12,
12,
14,
18,
21,
19,
18,
16,
21,
28,
29,
26,
20,
23,
30,
37,
35,
29,
26,
30,
40,
41,
36,
32,
31,
39,
42,
41,
37,
37,
40,
44,
44,
40,
41,
44,
45,
44,
43,
45,
47,
45,
42,
44,
49,
49,
46,
41,
44,
49,
52,
50,
43,
40,
47,
54,
52,
41,
37,
44,
50,
50,
42,
38,
39,
45,
49,
44,
39,
35,
37,
41,
44,
39,
35,
35,
36,
36,
38,
36,
31,
29,
29,
36,
35,
29,
20,
20,
26,
30,
26,
17,
13,
19,
24,
23,
15,
5,
8,
18,
18,
10,
0,
0,
8,
12,
7,
-3,
-4,
-2,
1,
0,
-4,
-10,
-10,
-5,
-7,
-11,
-14,
-13,
-11,
-15,
-18,
-19,
-18,
-19,
-21,
-24,
-24,
-22,
-25,
-28,
-29,
-29,
-32,
-31,
-33,
-35,
-36,
-36,
-36,
-39,
-40,
-40,
-40,
-41,
-43,
-43,
-43,
-45,
-47,
-47,
-44,
-44,
-48,
-52,
-53,
-47,
-44,
-48,
-53,
-57,
-55,
-48,
-45,
-53,
-59,
-59,
-51,
-46,
-49,
-57,
-59,
-57,
-50,
-47,
-53,
-58,
-61,
-53,
-47,
-50,
-56,
-60,
-55,
-47,
-46,
-51,
-56,
-55,
-49,
-43,
-44,
-51,
-54,
-50,
-42,
-41,
-45,
-49,
-49,
-42,
-37,
-38,
-42,
-43,
-41,
-36,
-32,
-33,
-38,
-39,
-35,
-28,
-27,
-28,
-31,
-30,
-28,
-22,
-19,
-21,
-24,
-24,
-18,
-15,
-15,
-16,
-16,
-13,
-10,
-8,
-10,
-11,
-10,
-5,
-2,
-3,
-2,
-1,
1,
3,
4,
7,
8,
6,
6,
7,
12,
16,
14,
12,
11,
18,
24,
24,
20,
13,
18,
27,
31,
26,
19,
23,
31,
37,
34,
27,
26,
33,
38,
38,
34,
33,
34,
41,
41,
40,
37,
38,
42,
43,
43,
44,
41,
42,
43,
48,
49,
45,
40,
41,
46,
51,
50,
44,
41,
42,
49,
55,
49,
42,
40,
48,
53,
48,
41,
40,
44,
51,
48,
42,
40,
42,
46,
45,
43,
38,
40,
44,
42,
37,
35,
39,
43,
38,
34,
32,
36,
37,
34,
29,
27,
30,
32,
29,
24,
21,
23,
27,
25,
20,
16,
17,
20,
20,
16,
13,
11,
10,
12,
13,
11,
6,
2,
2,
4,
7,
3,
-4,
-8,
-6,
0,
0,
-5,
-15,
-15,
-8,
-4,
-9,
-20,
-24,
-17,
-10,
-14,
-24,
-30,
-27,
-18,
-16,
-24,
-35,
-36,
-28,
-23,
-25,
-35,
-41,
-38,
-31,
-31,
-37,
-43,
-44,
-40,
-37,
-37,
-43,
-48,
-48,
-43,
-41,
-43,
-49,
-51,
-50,
-46,
-44,
-48,
-53,
-56,
-52,
-48,
-49,
-53,
-56,
-56,
-52,
-50,
-52,
-56,
-57,
-55,
-51,
-51,
-54,
-56,
-55,
-53,
-51,
-52,
-53,
-55,
-54,
-53,
-51,
-49,
-51,
-53,
-52,
-49,
-47,
-46,
-48,
-50,
-48,
-46,
-43,
-43,
-45,
-47,
-46,
-40,
-37,
-38,
-42,
-43,
-39,
-34,
-32,
-35,
-39,
-37,
-32,
-24,
-26,
-32,
-34,
-27,
-19,
-19,
-25,
-27,
-22,
-16,
-12,
-14,
-20,
-20,
-13,
-6,
-7,
-11,
-13,
-9,
-3,
-1,
0,
-3,
-2,
-1,
3,
7,
5,
5,
5,
7,
12,
14,
14,
11,
11,
14,
19,
22,
18,
15,
19,
25,
26,
24,
21,
23,
32,
32,
29,
27,
29,
33,
37,
36,
33,
34,
38,
40,
36,
34,
39,
43,
42,
38,
37,
41,
46,
47,
43,
38,
42,
48,
51,
44,
39,
40,
48,
53,
48,
42,
41,
46,
52,
50,
47,
44,
43,
46,
49,
48,
45,
41,
44,
46,
47,
46,
43,
40,
41,
45,
48,
44,
36,
33,
40,
48,
43,
35,
27,
32,
42,
44,
35,
23,
26,
33,
40,
35,
20,
17,
23,
32,
31,
19,
15,
15,
23,
24,
19,
13,
9,
13,
15,
14,
9,
4,
5,
5,
7,
5,
3,
-3,
-3,
-2,
0,
0,
-7,
-12,
-11,
-6,
-6,
-10,
-16,
-19,
-15,
-14,
-14,
-20,
-24,
-23,
-20,
-19,
-25,
-29,
-29,
-28,
-27,
-32,
-33,
-31,
-34,
-37,
-37,
-37,
-36,
-37,
-41,
-43,
-42,
-41,
-40,
-42,
-47,
-46,
-45,
-41,
-45,
-52,
-52,
-48,
-44,
-46,
-53,
-55,
-53,
-48,
-48,
-51,
-57,
-58,
-51,
-48,
-50,
-56,
-59,
-55,
-50,
-49,
-52,
-58,
-57,
-55,
-50,
-48,
-54,
-57,
-56,
-50,
-49,
-49,
-52,
-53,
-51,
-49,
-48,
-48,
-51,
-50,
-47,
-44,
-44,
-46,
-46,
-44,
-41,
-40,
-41,
-42,
-42,
-39,
-36,
-36,
-36,
-37,
-36,
-32,
-29,
-29,
-33,
-31,
-27,
-24,
-24,
-24,
-24,
-23,
-20,
-18,
-19,
-16,
-14,
-12,
-15,
-15,
-11,
-6,
-6,
-8,
-10,
-6,
2,
4,
1,
-4,
-3,
4,
13,
9,
3,
1,
9,
18,
18,
11,
7,
12,
19,
24,
20,
15,
17,
22,
30,
27,
24,
20,
24,
31,
34,
32,
29,
26,
30,
36,
40,
38,
31,
29,
36,
44,
46,
40,
34,
34,
44,
49,
48,
40,
34,
41,
53,
51,
42,
36,
42,
51,
54,
47,
39,
41,
48,
52,
50,
44,
41,
45,
49,
49,
44,
41,
44,
48,
47,
46,
45,
45,
43,
41,
44,
45,
44,
39,
37,
38,
43,
43,
38,
35,
33,
36,
39,
37,
31,
29,
30,
34,
31,
27,
25,
27,
26,
25,
23,
21,
22,
19,
19,
16,
19,
17,
14,
11,
9,
12,
14,
11,
4,
0,
4,
9,
6,
-2,
-7,
-4,
3,
2,
-5,
-12,
-13,
-8,
-4,
-9,
-17,
-20,
-16,
-11,
-15,
-21,
-26,
-24,
-21,
-21,
-25,
-28,
-29,
-30,
-29,
-28,
-31,
-35,
-36,
-35,
-34,
-36,
-37,
-39,
-42,
-40,
-40,
-39,
-44,
-48,
-46,
-43,
-42,
-46,
-48,
-51,
-49,
-47,
-49,
-49,
-51,
-52,
-51,
-49,
-50,
-52,
-53,
-52,
-53,
-54,
-53,
-52,
-52,
-55,
-54,
-53,
-51,
-52,
-53,
-56,
-54,
-50,
-50,
-52,
-54,
-57,
-52,
-48,
-48,
-53,
-55,
-52,
-47,
-45,
-47,
-52,
-52,
-46,
-41,
-40,
-46,
-50,
-46,
-38,
-33,
-39,
-47,
-44,
-35,
-29,
-31,
-38,
-41,
-36,
-27,
-21,
-27,
-34,
-35,
-27,
-19,
-20,
-24,
-28,
-24,
-18,
-12,
-13,
-19,
-21,
-16,
-7,
-6,
-9,
-13,
-12,
-6,
1,
3,
-3,
-8,
-3,
7,
12,
4,
-2,
2,
11,
17,
14,
5,
6,
14,
19,
21,
17,
14,
17,
24,
27,
24,
21,
23,
27,
29,
28,
30,
29,
33,
32,
31,
34,
37,
37,
37,
34,
36,
40,
43,
40,
37,
38,
44,
45,
42,
39,
41,
45,
46,
44,
43,
44,
46,
46,
47,
47,
45,
45,
47,
46,
47,
49,
48,
47,
43,
44,
50,
51,
44,
38,
41,
49,
51,
46,
39,
37,
44,
49,
47,
38,
33,
38,
44,
46,
36,
31,
33,
40,
40,
33,
29,
29,
34,
35,
30,
27,
25,
26,
27,
24,
23,
21,
21,
21,
18,
17,
19,
17,
11,
9,
12,
14,
12,
6,
4,
2,
7,
7,
3,
-1,
-4,
-2,
0,
-1,
-6,
-10,
-8,
-9,
-10,
-11,
-13,
-13,
-17,
-18,
-17,
-16,
-17,
-24,
-26,
-27,
-21,
-23,
-28,
-31,
-31,
-30,
-27,
-29,
-38,
-41,
-36,
-32,
-31,
-40,
-48,
-44,
-38,
-36,
-41,
-48,
-51,
-46,
-39,
-41,
-49,
-55,
-53,
-45,
-43,
-47,
-54,
-59,
-52,
-47,
-47,
-49,
-58,
-58,
-51,
-47,
-49,
-57,
-60,
-55,
-49,
-48,
-53,
-57,
-58,
-53,
-48,
-48,
-55,
-60,
-55,
-48,
-46,
-50,
-55,
-55,
-50,
-46,
-46,
-48,
-53,
-52,
-45,
-40,
-44,
-48,
-48,
-44,
-38,
-39,
-42,
-44,
-42,
-38,
-35,
-35,
-38,
-38,
-34,
-30,
-30,
-33,
-32,
-28,
-26,
-27,
-28,
-24,
-20,
-20,
-20,
-20,
-18,
-15,
-15,
-15,
-17,
-13,
-8,
-5,
-9,
-11,
-7,
-2,
2,
0,
-4,
-1,
3,
7,
7,
-2,
4,
3,
-2,
