5-grundlagen-opAmps/data/ALL0059/A0059CH2.CSV

Memory Length,4000,
Trigger Level,0.00000e+00,
Source,CH2,
Probe,1.0X,
Vertical Units,V,
Vertical Scale,1.00000e-01,
Vertical Position,0.00000e+00,
Horizontal Units,S,
Horizontal Scale,2.50000e-07,
Horizontal Position,0.0000000e+00,
Horizontal Mode,Main,
Sampling Period,2.00000e-09,
Firmware,V1.14,
Time, ,
Mode,Fast,
Waveform Data,
-48,
-48,
-48,
-48,
-47,
-46,
-46,
-46,
-48,
-45,
-44,
-43,
-42,
-44,
-43,
-40,
-41,
-40,
-41,
-40,
-39,
-38,
-36,
-37,
-37,
-36,
-33,
-32,
-32,
-30,
-29,
-30,
-27,
-26,
-26,
-24,
-23,
-23,
-23,
-21,
-19,
-17,
-17,
-16,
-15,
-13,
-12,
-10,
-10,
-8,
-7,
-5,
-5,
-3,
-4,
-3,
-2,
1,
2,
3,
3,
4,
6,
9,
9,
10,
10,
13,
15,
16,
17,
18,
17,
17,
20,
22,
21,
23,
23,
26,
27,
28,
27,
29,
30,
32,
33,
32,
33,
34,
35,
38,
36,
37,
37,
39,
40,
40,
40,
40,
42,
43,
43,
42,
44,
44,
44,
45,
43,
45,
45,
45,
46,
45,
45,
46,
47,
46,
44,
45,
46,
46,
46,
45,
44,
45,
45,
45,
44,
42,
43,
44,
44,
43,
41,
40,
39,
40,
39,
39,
37,
36,
37,
37,
37,
34,
32,
34,
33,
34,
31,
29,
27,
27,
26,
27,
24,
22,
21,
22,
23,
20,
18,
16,
17,
18,
16,
12,
10,
10,
11,
12,
5,
3,
2,
4,
5,
2,
-3,
-4,
-4,
-2,
-3,
-6,
-9,
-10,
-9,
-10,
-13,
-15,
-17,
-15,
-15,
-16,
-20,
-22,
-22,
-21,
-22,
-22,
-26,
-28,
-28,
-27,
-29,
-30,
-31,
-34,
-35,
-35,
-35,
-36,
-38,
-39,
-39,
-38,
-40,
-41,
-42,
-42,
-43,
-42,
-45,
-46,
-45,
-45,
-46,
-46,
-48,
-48,
-47,
-48,
-49,
-49,
-48,
-48,
-50,
-50,
-51,
-50,
-49,
-50,
-51,
-51,
-50,
-49,
-49,
-50,
-50,
-50,
-49,
-47,
-50,
-50,
-50,
-48,
-47,
-46,
-47,
-46,
-45,
-45,
-44,
-43,
-44,
-44,
-42,
-42,
-40,
-40,
-40,
-38,
-38,
-37,
-35,
-35,
-35,
-33,
-31,
-28,
-31,
-29,
-28,
-26,
-25,
-24,
-24,
-24,
-23,
-21,
-19,
-18,
-18,
-16,
-15,
-12,
-11,
-10,
-10,
-8,
-7,
-6,
-5,
-4,
-3,
-2,
-1,
2,
2,
3,
4,
6,
8,
9,
10,
13,
11,
13,
14,
16,
17,
16,
17,
19,
20,
23,
23,
24,
24,
26,
28,
30,
29,
31,
29,
33,
34,
34,
33,
34,
36,
38,
38,
39,
37,
39,
40,
42,
43,
42,
41,
43,
45,
45,
44,
43,
44,
45,
47,
48,
45,
44,
45,
47,
50,
49,
46,
44,
47,
48,
48,
46,
44,
45,
47,
48,
47,
44,
43,
45,
47,
47,
43,
42,
41,
44,
43,
42,
40,
39,
40,
41,
39,
37,
36,
37,
37,
37,
35,
34,
32,
32,
30,
30,
29,
26,
26,
26,
26,
24,
22,
21,
20,
20,
19,
18,
16,
15,
13,
13,
11,
10,
7,
8,
6,
5,
4,
3,
2,
1,
0,
-2,
-3,
-3,
-5,
-6,
-8,
-9,
-10,
-11,
-13,
-14,
-16,
-16,
-17,
-17,
-20,
-22,
-22,
-21,
-22,
-23,
-30,
-29,
-26,
-29,
-30,
-32,
-35,
-34,
-33,
-35,
-38,
-38,
-39,
-38,
-38,
-39,
-41,
-42,
-43,
-43,
-43,
-44,
-46,
-46,
-45,
-45,
-46,
-46,
-48,
-48,
-47,
-47,
-47,
-49,
-50,
-49,
-49,
-49,
-50,
-50,
-52,
-49,
-48,
-48,
-50,
-51,
-50,
-48,
-49,
-50,
-49,
-48,
-49,
-47,
-49,
-47,
-46,
-46,
-45,
-45,
-44,
-44,
-43,
-43,
-43,
-41,
-40,
-39,
-39,
-40,
-39,
-36,
-36,
-35,
-35,
-34,
-33,
-29,
-28,
-30,
-30,
-28,
-26,
-23,
-24,
-25,
-25,
-22,
-19,
-18,
-18,
-16,
-16,
-13,
-12,
-10,
-11,
-9,
-7,
-5,
-5,
-4,
-4,
-3,
-1,
1,
2,
2,
2,
4,
7,
10,
9,
10,
10,
13,
14,
17,
15,
15,
16,
19,
21,
22,
20,
23,
23,
28,
29,
26,
26,
29,
32,
33,
32,
32,
32,
35,
37,
37,
35,
37,
38,
40,
40,
40,
40,
42,
42,
43,
43,
42,
44,
45,
45,
46,
45,
47,
45,
46,
46,
48,
47,
46,
48,
47,
46,
47,
47,
47,
47,
46,
47,
46,
46,
46,
46,
45,
45,
45,
45,
45,
43,
42,
41,
42,
42,
42,
40,
39,
39,
40,
39,
37,
36,
36,
37,
36,
33,
31,
30,
31,
29,
29,
27,
24,
25,
27,
26,
23,
20,
21,
20,
20,
18,
15,
15,
15,
13,
14,
9,
7,
7,
6,
7,
5,
3,
2,
0,
1,
0,
-2,
-4,
-4,
-7,
-6,
-6,
-9,
-12,
-12,
-13,
-13,
-15,
-17,
-19,
-20,
-19,
-20,
-21,
-23,
-24,
-22,
-25,
-27,
-29,
-30,
-31,
-30,
-31,
-33,
-33,
-34,
-36,
-35,
-37,
-37,
-36,
-38,
-41,
-40,
-40,
-39,
-41,
-43,
-43,
-43,
-42,
-42,
-45,
-45,
-46,
-45,
-43,
-46,
-48,
-48,
-46,
-45,
-47,
-48,
-48,
-46,
-45,
-45,
-46,
-48,
-48,
-45,
-44,
-46,
-47,
-47,
-45,
-44,
-44,
-43,
-44,
-44,
-43,
-41,
-39,
-39,
-42,
-41,
-39,
-37,
-37,
-38,
-37,
-36,
-34,
-32,
-32,
-33,
-33,
-29,
-27,
-26,
-26,
-27,
-25,
-22,
-21,
-22,
-23,
-22,
-19,
-17,
-17,
-17,
-15,
-13,
-12,
-10,
-10,
-8,
-7,
-6,
-4,
-3,
-3,
-2,
0,
0,
2,
3,
4,
5,
6,
9,
9,
11,
12,
13,
15,
16,
17,
18,
18,
19,
19,
21,
23,
25,
24,
26,
27,
27,
28,
30,
31,
32,
32,
34,
35,
35,
36,
36,
35,
38,
40,
40,
39,
39,
41,
43,
44,
43,
42,
44,
46,
48,
46,
44,
44,
47,
48,
48,
47,
46,
46,
48,
50,
49,
47,
46,
47,
50,
48,
47,
47,
47,
48,
49,
48,
45,
46,
46,
47,
47,
45,
44,
45,
44,
44,
43,
42,
40,
41,
42,
41,
40,
38,
38,
37,
38,
36,
36,
33,
32,
31,
32,
30,
28,
26,
26,
27,
26,
23,
22,
21,
21,
21,
20,
17,
16,
15,
14,
13,
11,
10,
10,
6,
5,
6,
6,
3,
1,
-1,
0,
0,
-1,
-5,
-7,
-8,
-6,
-8,
-10,
-13,
-14,
-14,
-13,
-15,
-18,
-20,
-20,
-19,
-20,
-22,
-23,
-26,
-25,
-25,
-28,
-30,
-31,
-31,
-30,
-32,
-35,
-35,
-36,
-36,
-35,
-36,
-38,
-39,
-40,
-40,
-39,
-41,
-42,
-45,
-45,
-42,
-42,
-44,
-45,
-48,
-45,
-44,
-45,
-48,
-48,
-47,
-46,
-45,
-48,
-48,
-47,
-48,
-47,
-48,
-48,
-48,
-48,
-46,
-47,
-48,
-47,
-45,
-45,
-45,
-46,
-46,
-44,
-44,
-44,
-44,
-43,
-41,
-41,
-41,
-40,
-40,
-39,
-38,
-38,
-37,
-37,
-36,
-34,
-34,
-32,
-31,
-32,
-31,
-29,
-26,
-25,
-26,
-25,
-23,
-22,
-21,
-21,
-21,
-19,
-16,
-16,
-15,
-16,
-13,
-12,
-9,
-7,
-9,
-8,
-6,
-3,
-1,
-1,
-3,
-2,
0,
3,
4,
4,
5,
7,
10,
13,
11,
11,
12,
16,
17,
17,
17,
18,
19,
23,
23,
25,
24,
25,
26,
30,
29,
31,
29,
31,
33,
35,
35,
35,
36,
37,
38,
40,
39,
39,
39,
41,
42,
44,
43,
44,
44,
45,
45,
45,
46,
45,
46,
48,
48,
48,
47,
48,
49,
49,
49,
48,
49,
50,
48,
48,
49,
49,
48,
48,
49,
49,
48,
48,
48,
46,
47,
48,
48,
45,
44,
44,
45,
45,
43,
40,
40,
41,
42,
42,
39,
36,
38,
40,
38,
35,
33,
33,
33,
34,
29,
29,
28,
27,
27,
26,
25,
23,
21,
22,
22,
20,
18,
16,
16,
15,
15,
13,
10,
9,
8,
9,
6,
5,
2,
2,
3,
1,
-1,
-3,
-4,
-5,
-5,
-6,
-9,
-10,
-13,
-12,
-14,
-15,
-17,
-16,
-17,
-19,
-20,
-22,
-23,
-22,
-23,
-24,
-29,
-28,
-29,
-30,
-32,
-34,
-33,
-33,
-33,
-36,
-36,
-37,
-38,
-37,
-39,
-42,
-41,
-41,
-41,
-42,
-44,
-45,
-46,
-44,
-45,
-45,
-47,
-47,
-48,
-47,
-46,
-47,
-49,
-49,
-47,
-47,
-49,
-49,
-50,
-50,
-48,
-47,
-48,
-49,
-50,
-49,
-47,
-46,
-49,
-50,
-48,
-46,
-45,
-46,
-48,
-47,
-46,
-41,
-42,
-44,
-45,
-44,
-41,
-38,
-40,
-41,
-41,
-38,
-37,
-37,
-36,
-36,
-35,
-32,
-30,
-30,
-31,
-29,
-28,
-26,
-24,
-25,
-24,
-23,
-22,
-21,
-20,
-19,
-18,
-17,
-16,
-12,
-12,
-10,
-10,
-8,
-7,
-6,
-6,
-5,
-4,
-2,
-1,
0,
1,
1,
2,
6,
7,
7,
9,
11,
11,
12,
13,
15,
15,
16,
18,
19,
20,
20,
20,
25,
23,
25,
26,
29,
28,
28,
29,
32,
33,
33,
32,
34,
34,
37,
37,
37,
36,
38,
40,
41,
40,
39,
41,
43,
44,
44,
41,
42,
43,
45,
45,
45,
44,
45,
46,
46,
47,
45,
45,
46,
48,
47,
45,
45,
46,
45,
47,
46,
45,
44,
44,
44,
45,
45,
43,
42,
43,
43,
42,
40,
40,
40,
39,
40,
38,
37,
36,
38,
36,
35,
34,
34,
33,
32,
29,
28,
27,
27,
26,
26,
24,
23,
23,
22,
20,
18,
18,
18,
17,
15,
12,
10,
11,
12,
10,
7,
3,
4,
6,
5,
2,
-1,
-3,
-1,
-1,
-3,
-6,
-7,
-8,
-8,
-9,
-11,
-13,
-15,
-15,
-16,
-16,
-18,
-20,
-20,
-22,
-19,
-22,
-25,
-27,
-27,
-26,
-29,
-30,
-32,
-33,
-32,
-32,
-32,
-38,
-38,
-39,
-37,
-36,
-39,
-43,
-42,
-41,
-40,
-42,
-44,
-45,
-45,
-43,
-44,
-46,
-46,
-47,
-46,
-45,
-46,
-48,
-48,
-48,
-46,
-48,
-49,
-48,
-48,
-49,
-48,
-48,
-47,
-48,
-48,
-48,
-47,
-46,
-47,
-47,
-47,
-47,
-46,
-46,
-45,
-45,
-45,
-44,
-42,
-42,
-42,
-42,
-40,
-39,
-40,
-39,
-38,
-38,
-38,
-36,
-35,
-35,
-33,
-32,
-32,
-30,
-28,
-28,
-26,
-27,
-25,
-23,
-22,
-21,
-22,
-21,
-19,
-18,
-17,
-16,
-16,
-13,
-10,
-10,
-10,
-9,
-8,
-6,
-3,
-2,
-3,
-3,
0,
1,
2,
2,
3,
5,
7,
9,
10,
11,
12,
13,
16,
17,
16,
17,
18,
20,
22,
21,
25,
24,
25,
26,
28,
29,
31,
31,
32,
33,
34,
34,
35,
35,
36,
38,
39,
38,
39,
39,
41,
41,
42,
43,
44,
45,
44,
44,
45,
45,
47,
46,
46,
47,
48,
48,
48,
47,
48,
49,
49,
49,
48,
47,
48,
49,
49,
47,
46,
47,
50,
49,
47,
46,
45,
47,
48,
47,
44,
43,
43,
44,
44,
41,
40,
40,
42,
41,
40,
39,
37,
37,
38,
37,
36,
32,
32,
32,
33,
32,
28,
27,
26,
26,
27,
25,
21,
19,
22,
22,
22,
18,
14,
14,
15,
14,
13,
9,
7,
9,
10,
6,
3,
1,
2,
3,
2,
-2,
-3,
-4,
-4,
-6,
-7,
-9,
-10,
-11,
-11,
-13,
-14,
-17,
-18,
-17,
-19,
-20,
-20,
-22,
-22,
-24,
-22,
-26,
-27,
-29,
-30,
-32,
-31,
-31,
-32,
-34,
-35,
-35,
-36,
-37,
-38,
-39,
-39,
-40,
-40,
-41,
-42,
-43,
-44,
-43,
-44,
-42,
-44,
-45,
-44,
-46,
-45,
-46,
-47,
-48,
-48,
-46,
-46,
-46,
-48,
-48,
-46,
-45,
-47,
-48,
-48,
-48,
-47,
-46,
-47,
-49,
-47,
-45,
-44,
-45,
-46,
-45,
-44,
-42,
-42,
-42,
-42,
-40,
-39,
-39,
-38,
-39,
-39,
-37,
-36,
-36,
-35,
-34,
-33,
-32,
-31,
-29,
-27,
-29,
-27,
-25,
-24,
-23,
-22,
-22,
-21,
-20,
-19,
-17,
-16,
-15,
-15,
-14,
-11,
-9,
-8,
-7,
-6,
-5,
-4,
-3,
-1,
-1,
0,
1,
3,
5,
5,
5,
8,
8,
11,
12,
13,
13,
15,
17,
19,
19,
17,
18,
21,
26,
25,
23,
25,
25,
31,
32,
31,
30,
31,
33,
36,
36,
35,
34,
36,
37,
40,
39,
38,
39,
42,
42,
44,
43,
42,
42,
46,
47,
47,
45,
44,
45,
48,
48,
47,
48,
48,
48,
50,
49,
48,
47,
48,
50,
50,
48,
47,
48,
49,
50,
49,
47,
47,
47,
48,
49,
46,
45,
45,
47,
46,
44,
42,
42,
43,
42,
42,
40,
40,
39,
40,
38,
37,
36,
36,
35,
34,
31,
32,
32,
29,
28,
28,
27,
26,
24,
25,
22,
22,
21,
21,
18,
17,
15,
15,
13,
11,
10,
10,
8,
8,
6,
6,
3,
2,
2,
2,
0,
-1,
-4,
-5,
-6,
-6,
-7,
-10,
-13,
-13,
-12,
-13,
-14,
-17,
-19,
-18,
-19,
-19,
-22,
-24,
-25,
-24,
-25,
-26,
-30,
-30,
-30,
-30,
-32,
-35,
-35,
-35,
-35,
-35,
-37,
-38,
-40,
-39,
-39,
-41,
-42,
-42,
-43,
-43,
-44,
-45,
-44,
-44,
-45,
-45,
-46,
-45,
-46,
-46,
-46,
-48,
-47,
-47,
-48,
-47,
-49,
-48,
-47,
-46,
-48,
-48,
-48,
-47,
-47,
-47,
-46,
-46,
-46,
-46,
-45,
-44,
-45,
-45,
-44,
-42,
-40,
-41,
-41,
-42,
-41,
-38,
-37,
-38,
-40,
-38,
-36,
-34,
-34,
-33,
-35,
-32,
-29,
-27,
-28,
-29,
-28,
-26,
-23,
-23,
-23,
-23,
-21,
-19,
-17,
-17,
-18,
-16,
-13,
-10,
-11,
-10,
-11,
-8,
-5,
-4,
-3,
-5,
-4,
-1,
1,
1,
2,
3,
4,
7,
9,
10,
9,
10,
12,
16,
16,
16,
16,
18,
19,
21,
21,
21,
20,
24,
26,
29,
28,
27,
28,
32,
32,
33,
33,
34,
35,
36,
36,
36,
36,
39,
39,
40,
40,
41,
42,
43,
43,
43,
42,
44,
46,
44,
43,
46,
45,
47,
46,
45,
46,
47,
47,
47,
46,
48,
47,
48,
48,
46,
46,
46,
47,
48,
46,
45,
45,
47,
46,
45,
45,
43,
42,
42,
43,
43,
41,
41,
40,
40,
39,
40,
38,
36,
36,
38,
36,
34,
31,
31,
31,
32,
28,
26,
26,
25,
24,
26,
22,
20,
20,
21,
19,
18,
16,
14,
15,
14,
11,
10,
8,
7,
7,
6,
3,
2,
2,
2,
-1,
-2,
-3,
-4,
-5,
-6,
-10,
-8,
-9,
-11,
-13,
-15,
-15,
-15,
-17,
-19,
-20,
-21,
-21,
-21,
-24,
-25,
-27,
-26,
-29,
-27,
-30,
-32,
-34,
-35,
-33,
-35,
-36,
-37,
-38,
-37,
-38,
-39,
-42,
-43,
-44,
-41,
-42,
-44,
-46,
-48,
-45,
-44,
-46,
-47,
-50,
-48,
-47,
-47,
-48,
-51,
-53,
-49,
-47,
-48,
-51,
-53,
-51,
-48,
-48,
-50,
-52,
-50,
-50,
-48,
-48,
-50,
-50,
-49,
-47,
-46,
-48,
-47,
-47,
-46,
-45,
-44,
-44,
-44,
-44,
-41,
-41,
-40,
-40,
-41,
-40,
-37,
-37,
-37,
-37,
-37,
-35,
-32,
-31,
-31,
-33,
-29,
-27,
-26,
-26,
-26,
-24,
-22,
-22,
-21,
-21,
-20,
-18,
-16,
-15,
-14,
-13,
-10,
-10,
-8,
-8,
-5,
-5,
-4,
-3,
-3,
-2,
0,
1,
2,
2,
4,
7,
8,
9,
10,
10,
12,
15,
16,
15,
15,
17,
19,
20,
23,
20,
22,
24,
26,
26,
28,
28,
28,
31,
32,
32,
32,
33,
34,
35,
37,
37,
37,
36,
38,
39,
41,
40,
40,
41,
42,
44,
43,
41,
42,
44,
45,
45,
45,
43,
45,
46,
45,
46,
46,
45,
46,
47,
47,
45,
45,
45,
46,
45,
45,
45,
45,
44,
44,
43,
44,
43,
42,
43,
42,
41,
42,
41,
39,
38,
38,
39,
37,
36,
35,
34,
35,
35,
33,
31,
29,
28,
30,
28,
25,
23,
26,
23,
24,
22,
20,
19,
18,
18,
18,
16,
14,
12,
13,
11,
11,
7,
4,
3,
5,
4,
3,
0,
-2,
-2,
0,
-2,
-5,
-8,
-8,
-8,
-6,
-12,
-15,
-16,
-14,
-14,
-16,
-20,
-21,
-21,
-19,
-21,
-23,
-27,
-27,
-26,
-27,
-28,
-32,
-34,
-32,
-32,
-33,
-35,
-37,
-36,
-37,
-38,
-37,
-40,
-41,
-42,
-42,
-42,
-42,
-45,
-44,
-45,
-45,
-45,
-45,
-48,
-46,
-48,
-47,
-46,
-48,
-50,
-49,
-49,
-48,
-50,
-50,
-50,
-49,
-49,
-49,
-50,
-50,
-50,
-49,
-49,
-49,
-50,
-49,
-48,
-48,
-49,
-49,
-47,
-46,
-47,
-47,
-46,
-43,
-43,
-44,
-44,
-44,
-42,
-41,
-40,
-40,
-41,
-40,
-38,
-37,
-36,
-37,
-36,
-34,
-33,
-30,
-30,
-30,
-29,
-27,
-26,
-24,
-25,
-25,
-23,
-21,
-19,
-19,
-18,
-17,
-15,
-14,
-13,
-12,
-12,
-8,
-7,
-6,
-5,
-5,
-6,
-2,
0,
0,
1,
2,
2,
5,
7,
8,
8,
10,
11,
13,
13,
15,
15,
16,
17,
18,
18,
20,
23,
23,
23,
27,
25,
27,
27,
29,
30,
32,
32,
33,
32,
33,
34,
37,
36,
37,
36,
38,
40,
42,
40,
40,
40,
42,
43,
43,
44,
43,
43,
45,
45,
45,
44,
44,
46,
47,
47,
45,
45,
45,
46,
47,
47,
45,
45,
45,
46,
47,
45,
44,
43,
45,
46,
45,
43,
41,
41,
43,
43,
40,
37,
38,
39,
41,
39,
35,
35,
35,
37,
36,
33,
30,
29,
31,
32,
28,
26,
26,
26,
26,
24,
22,
20,
20,
21,
20,
18,
17,
16,
15,
13,
12,
9,
10,
8,
7,
6,
4,
3,
2,
1,
2,
0,
-1,
-4,
-4,
-6,
-6,
-8,
-10,
-10,
-12,
-13,
-14,
-17,
-16,
-18,
-19,
-18,
-21,
-22,
-21,
-24,
-24,
-26,
-30,
-29,
-28,
-29,
-32,
-35,
-35,
-33,
-33,
-36,
-38,
-39,
-37,
-37,
-39,
-41,
-43,
-43,
-41,
-42,
-45,
-47,
-47,
-45,
-44,
-46,
-48,
-48,
-47,
-46,
-47,
-48,
-49,
-49,
-48,
-48,
-48,
-50,
-50,
-49,
-48,
-48,
-49,
-49,
-49,
-49,
-48,
-47,
-48,
-49,
-49,
-48,
-46,
-46,
-47,
-47,
-46,
-45,
-43,
-43,
-43,
-44,
-41,
-42,
-40,
-40,
-40,
-40,
-37,
-37,
-37,
-36,
-35,
-33,
-32,
-30,
-30,
-30,
-28,
-28,
-25,
-25,
-23,
-23,
-23,
-21,
-20,
-19,
-17,
-17,
-17,
-15,
-11,
-12,
-9,
-10,
-8,
-6,
-4,
-5,
-4,
-3,
-1,
1,
2,
2,
2,
3,
8,
9,
11,
10,
12,
11,
15,
16,
17,
17,
16,
18,
21,
24,
23,
22,
25,
26,
28,
28,
29,
28,
31,
33,
34,
35,
33,
34,
37,
38,
38,
38,
38,
39,
42,
42,
42,
41,
43,
45,
46,
46,
44,
43,
46,
46,
48,
46,
46,
46,
49,
48,
48,
48,
48,
48,
48,
49,
48,
48,
48,
48,
48,
47,
47,
48,
47,
46,
46,
47,
47,
46,
45,
45,
43,
43,
43,
42,
42,
42,
40,
40,
41,
39,
40,
37,
37,
36,
36,
35,
34,
31,
31,
32,
30,
27,
26,
26,
26,
25,
23,
20,
20,
20,
22,
19,
16,
13,
13,
15,
13,
9,
8,
7,
7,
8,
4,
2,
1,
1,
2,
0,
-3,
-6,
-5,
-5,
-5,
-10,
-10,
-12,
-12,
-12,
-13,
-15,
-17,
-17,
-19,
-18,
-20,
-22,
-22,
-25,
-24,
-25,
-29,
-30,
-30,
-30,
-31,
-32,
-35,
-35,
-35,
-35,
-35,
-37,
-38,
-40,
-39,
-39,
-41,
-41,
-42,
-42,
-42,
-42,
-44,
-44,
-44,
-46,
-45,
-45,
-45,
-46,
-46,
-46,
-47,
-47,
-46,
-47,
-47,
-49,
-47,
-46,
-46,
-48,
-49,
-48,
-46,
-46,
-46,
-47,
-47,
-46,
-45,
-44,
-46,
-46,
-45,
-43,
-42,
-44,
-42,
-42,
-40,
-39,
-39,
-39,
-38,
-38,
-36,
-35,
-34,
-36,
-35,
-32,
-31,
-29,
-28,
-28,
-28,
-26,
-24,
-23,
-23,
-23,
-23,
-20,
-19,
-18,
-18,
-17,
-14,
-13,
-10,
-11,
-10,
-9,
-6,
-6,
-5,
-4,
-3,
-2,
0,
0,
0,
2,
4,
6,
7,
8,
9,
10,
12,
13,
15,
15,
16,
19,
19,
19,
20,
20,
25,
24,
25,
25,
28,
29,
29,
29,
30,
32,
34,
34,
36,
35,
36,
37,
40,
39,
39,
39,
40,
42,
42,
42,
43,
43,
44,
44,
45,
45,
47,
44,
46,
48,
48,
47,
46,
47,
49,
50,
48,
47,
47,
47,
50,
50,
48,
46,
47,
49,
50,
48,
45,
46,
47,
48,
47,
44,
43,
44,
45,
45,
43,
41,
41,
42,
43,
41,
39,
39,
38,
38,
39,
37,
35,
34,
34,
33,
32,
29,
29,
28,
27,
27,
27,
25,
23,
22,
22,
22,
20,
18,
17,
16,
16,
13,
12,
10,
10,
9,
10,
5,
4,
3,
3,
2,
2,
0,
-2,
-2,
-4,
-6,
-8,
-8,
-9,
-12,
-12,
-13,
-13,
-15,
-16,
-19,
-19,
-18,
-20,
-22,
-24,
-26,
-23,
-25,
-26,
-28,
-32,
-32,
-30,
-31,
-35,
-36,
-37,
-36,
-35,
-38,
-39,
-41,
-40,
-40,
-40,
-42,
-43,
-44,
-43,
-42,
-44,
-45,
-45,
-45,
-44,
-46,
-46,
-47,
-47,
-48,
-46,
-46,
-47,
-50,
-48,
-47,
-46,
-47,
-48,
-49,
-48,
-46,
-47,
-47,
-48,
-48,
-46,
-46,
-45,
-47,
-47,
-45,
-44,
-44,
-43,
-42,
-40,
-41,
-41,
-40,
-39,
-38,
-38,
-37,
-37,
-38,
-35,
-33,
-33,
-33,
-31,
-29,
-26,
-27,
-27,
-26,
-24,
-22,
-22,
-22,
-22,
-21,
-19,
-18,
-16,
-16,
-16,
-14,
-10,
-9,
-7,
-8,
-6,
-5,
-2,
-3,
-2,
-2,
-1,
2,
4,
3,
3,
4,
8,
10,
11,
11,
11,
13,
16,
18,
18,
17,
16,
19,
25,
24,
24,
22,
23,
28,
29,
29,
29,
29,
31,
34,
36,
34,
34,
35,
38,
40,
38,
38,
39,
40,
42,
43,
42,
41,
43,
44,
45,
44,
45,
45,
45,
47,
48,
48,
46,
46,
47,
48,
48,
49,
48,
48,
48,
49,
49,
47,
46,
47,
48,
47,
47,
46,
46,
46,
47,
46,
45,
44,
44,
44,
43,
42,
42,
41,
41,
39,
40,
40,
39,
37,
36,
35,
36,
36,
34,
32,
31,
31,
31,
30,
27,
24,
26,
26,
24,
22,
21,
19,
21,
19,
18,
14,
14,
13,
14,
11,
10,
7,
7,
7,
7,
4,
2,
1,
1,
1,
0,
-3,
-4,
-6,
-6,
-7,
-8,
-11,
-13,
-14,
-13,
-14,
-16,
-18,
-19,
-19,
-20,
-20,
-22,
-24,
-23,
-26,
-25,
-28,
-31,
-31,
-30,
-30,
-32,
-35,
-35,
-35,
-35,
-37,
-38,
-39,
-39,
-40,
-40,
-42,
-42,
-42,
-42,
-43,
-46,
-46,
-45,
-44,
-44,
-47,
-47,
-46,
-46,
-46,
-48,
-49,
-48,
-48,
-46,
-48,
-50,
-51,
-49,
-47,
-47,
-49,
-49,
-49,
-46,
-46,
-47,
-48,
-48,
-47,
-46,
-45,
-45,
-47,
-46,
-44,
-41,
-41,
-42,
-43,
-42,
-40,
-38,
-39,
-40,
-40,
-38,
-35,
-34,
-35,
-36,
-34,
-31,
-30,
-29,
-30,
-28,
-26,
-25,
-23,
-24,
-25,
-22,
-21,
-19,
-19,
-20,
-18,
-14,
-13,
-12,
-12,
-11,
-10,
-7,
-6,
-4,
-5,
-4,
-4,
-2,
-1,
1,
1,
2,
3,
6,
8,
8,
9,
10,
11,
14,
14,
15,
15,
18,
18,
19,
20,
21,
24,
24,
24,
28,
26,
27,
28,
30,
31,
32,
32,
34,
33,
34,
35,
36,
35,
37,
37,
39,
40,
42,
40,
42,
41,
43,
44,
43,
44,
43,
43,
46,
45,
45,
44,
45,
47,
48,
46,
46,
45,
46,
47,
47,
46,
45,
46,
46,
47,
45,
44,
45,
46,
47,
45,
44,
44,
44,
43,
43,
42,
42,
40,
40,
40,
39,
39,
38,
38,
37,
36,
36,
35,
34,
34,
33,
31,
31,
27,
27,
27,
27,
25,
25,
22,
23,
22,
21,
19,
19,
18,
17,
15,
14,
12,
13,
11,
9,
7,
6,
6,
5,
4,
2,
-1,
1,
1,
0,
-4,
-6,
-7,
-5,
-6,
-9,
-13,
-14,
-13,
-12,
-14,
-18,
-20,
-19,
-18,
-20,
-22,
-25,
-24,
-22,
-24,
-25,
-30,
-30,
-32,
-29,
-30,
-32,
-35,
-35,
-33,
-35,
-37,
-39,
-41,
-38,
-39,
-38,
-40,
-43,
-44,
-42,
-41,
-42,
-44,
-48,
-46,
-44,
-44,
-45,
-47,
-48,
-47,
-45,
-46,
-48,
-49,
-49,
-47,
-46,
-48,
-49,
-50,
-48,
-47,
-47,
-48,
-48,
-48,
-47,
-47,
-46,
-47,
-46,
-45,
-43,
-44,
-42,
-42,
-42,
-42,
-41,
-41,
-39,
-39,
-40,
-38,
-37,
-36,
-37,
-36,
-35,
-35,
-31,
-29,
-30,
-30,
-28,
-27,
-25,
-24,
-24,
-23,
-22,
-22,
-21,
-19,
-18,
-17,
-16,
-15,
-12,
-12,
-9,
-10,
-9,
-7,
-5,
-4,
-4,
-4,
-2,
0,
2,
1,
1,
3,
7,
9,
9,
10,
11,
11,
14,
15,
14,
14,
16,
19,
20,
20,
20,
20,
25,
25,
26,
26,
28,
29,
31,
32,
32,
32,
33,
33,
36,
35,
37,
37,
39,
38,
39,
40,
42,
41,
42,
42,
44,
44,
44,
44,
44,
46,
47,
46,
47,
46,
47,
47,
47,
48,
49,
48,
47,
48,
49,
48,
48,
48,
47,
48,
49,
49,
48,
46,
46,
48,
48,
46,
44,
44,
44,
45,
44,
42,
40,
41,
44,
43,
40,
37,
37,
39,
39,
38,
34,
32,
33,
34,
34,
31,
27,
26,
29,
29,
26,
23,
22,
24,
24,
22,
21,
17,
17,
16,
16,
15,
11,
9,
10,
10,
10,
7,
4,
3,
3,
4,
2,
0,
-3,
-4,
-2,
-3,
-5,
-9,
-10,
-10,
-9,
-12,
-15,
-16,
-16,
-16,
-16,
-19,
-21,
-22,
-21,
-22,
-24,
-27,
-28,
-29,
-28,
-28,
-31,
-33,
-32,
-32,
-34,
-34,
-37,
-36,
-36,
-39,
-38,
-40,
-39,
-41,
-41,
-43,
-42,
-43,
-43,
-44,
-45,
-46,
-45,
-45,
-44,
-47,
-48,
-46,
-47,
-47,
-48,
-48,
-47,
-49,
-48,
-47,
-47,
-47,
-48,
-48,
-49,
