4-transistorverstaerker/data/ALL0017/A0017CH2.CSV

Memory Length,4000,
Trigger Level,8.10000e+02,
Source,CH2,
Probe,1.0X,
Vertical Units,V,
Vertical Scale,2.00000e-02,
Vertical Position,0.00000e+00,
Horizontal Units,S,
Horizontal Scale,5.00000e-04,
Horizontal Position,-6.8000000e-04,
Horizontal Mode,Main,
Sampling Period,2.00000e-06,
Firmware,V1.14,
Time, ,
Mode,Fast,
Waveform Data,
-5,
-5,
-5,
-6,
-6,
-5,
-5,
-6,
-6,
-5,
-5,
-7,
-7,
-7,
-7,
-7,
-7,
-5,
-5,
-4,
-4,
-5,
-5,
-9,
-9,
-6,
-6,
-5,
-5,
-7,
-7,
-6,
-6,
-7,
-7,
-5,
-5,
-6,
-6,
-4,
-4,
-4,
-4,
-7,
-7,
-6,
-6,
-4,
-4,
-5,
-5,
-6,
-6,
-4,
-4,
-3,
-3,
-4,
-4,
-5,
-5,
-5,
-5,
-3,
-3,
-3,
-3,
-1,
-1,
-2,
-2,
-4,
-4,
-5,
-5,
-3,
-3,
-6,
-6,
-6,
-6,
-1,
-1,
-2,
-2,
-5,
-5,
-1,
-1,
-2,
-2,
-1,
-1,
-1,
-1,
-1,
-1,
1,
1,
-2,
-2,
-1,
-1,
-1,
-1,
-3,
-3,
-3,
-3,
-1,
-1,
-2,
-2,
-2,
-2,
0,
0,
1,
1,
0,
0,
2,
2,
-2,
-2,
1,
1,
-2,
-2,
0,
0,
0,
0,
-2,
-2,
2,
2,
-2,
-2,
-1,
-1,
1,
1,
-1,
-1,
3,
3,
2,
2,
-1,
-1,
3,
3,
2,
2,
2,
2,
2,
2,
0,
0,
-1,
-1,
3,
3,
-1,
-1,
2,
2,
3,
3,
0,
0,
3,
3,
1,
1,
2,
2,
4,
4,
4,
4,
2,
2,
2,
2,
3,
3,
3,
3,
2,
2,
4,
4,
6,
6,
3,
3,
2,
2,
5,
5,
3,
3,
4,
4,
4,
4,
5,
5,
6,
6,
5,
5,
4,
4,
6,
6,
3,
3,
8,
8,
4,
4,
7,
7,
4,
4,
6,
6,
4,
4,
4,
4,
3,
3,
7,
7,
6,
6,
5,
5,
5,
5,
6,
6,
6,
6,
7,
7,
5,
5,
5,
5,
4,
4,
6,
6,
6,
6,
6,
6,
6,
6,
6,
6,
5,
5,
6,
6,
6,
6,
6,
6,
4,
4,
6,
6,
5,
5,
4,
4,
4,
4,
6,
6,
8,
8,
5,
5,
8,
8,
8,
8,
6,
6,
6,
6,
5,
5,
6,
6,
7,
7,
7,
7,
8,
8,
5,
5,
8,
8,
7,
7,
6,
6,
6,
6,
6,
6,
8,
8,
6,
6,
6,
6,
7,
7,
7,
7,
6,
6,
4,
4,
5,
5,
6,
6,
2,
2,
5,
5,
8,
8,
3,
3,
6,
6,
5,
5,
5,
5,
4,
4,
7,
7,
6,
6,
3,
3,
5,
5,
5,
5,
5,
5,
5,
5,
3,
3,
4,
4,
4,
4,
1,
1,
6,
6,
4,
4,
6,
6,
6,
6,
3,
3,
2,
2,
5,
5,
3,
3,
2,
2,
4,
4,
3,
3,
2,
2,
4,
4,
2,
2,
1,
1,
2,
2,
4,
4,
4,
4,
1,
1,
1,
1,
3,
3,
1,
1,
-1,
-1,
-1,
-1,
2,
2,
0,
0,
2,
2,
1,
1,
-1,
-1,
1,
1,
-1,
-1,
2,
2,
1,
1,
-1,
-1,
2,
2,
0,
0,
1,
1,
-1,
-1,
0,
0,
0,
0,
-1,
-1,
-1,
-1,
-2,
-2,
-1,
-1,
-1,
-1,
0,
0,
-3,
-3,
-1,
-1,
-3,
-3,
-1,
-1,
-3,
-3,
-1,
-1,
-3,
-3,
-4,
-4,
-3,
-3,
-3,
-3,
-3,
-3,
-4,
-4,
-1,
-1,
-4,
-4,
-3,
-3,
-1,
-1,
-3,
-3,
-4,
-4,
-3,
-3,
-8,
3,
-5,
-5,
-4,
-4,
-1,
-1,
-6,
-6,
-5,
-5,
-4,
-4,
-5,
-5,
-4,
-4,
-4,
-4,
-4,
-4,
-4,
-4,
-5,
-5,
-3,
-3,
-3,
-3,
-5,
-5,
-7,
-7,
-7,
-7,
-6,
-6,
-6,
-6,
-4,
-4,
-5,
-5,
-5,
-5,
-7,
-7,
-8,
-8,
-4,
-4,
-5,
-5,
-5,
-5,
-10,
-10,
-5,
-5,
-9,
-9,
-6,
-6,
-8,
-8,
-5,
-5,
-6,
-6,
-9,
-9,
-4,
-4,
-8,
-8,
-4,
-4,
-7,
-7,
-4,
-4,
-6,
-6,
-6,
-6,
-6,
-6,
-4,
-4,
-6,
-6,
-6,
-6,
-10,
-10,
-7,
-7,
-7,
-7,
-7,
-7,
-5,
-5,
-7,
-7,
-7,
-7,
-8,
-8,
-6,
-6,
-6,
-6,
-8,
-8,
-8,
-8,
-7,
-7,
-7,
-7,
-5,
-5,
-9,
-9,
-4,
-4,
-6,
-6,
-7,
-7,
-8,
-8,
-8,
-8,
-8,
-8,
-5,
-5,
-5,
-5,
-5,
-5,
-4,
-4,
-3,
-3,
-7,
-7,
-5,
-5,
-8,
-8,
-6,
-6,
-6,
-6,
-6,
-6,
-4,
-4,
-6,
-6,
-4,
-4,
-5,
-5,
-4,
-4,
-6,
-6,
-5,
-5,
-4,
-4,
-3,
-3,
-5,
-5,
-4,
-4,
-5,
-5,
-3,
-3,
-5,
-5,
-3,
-3,
-3,
-3,
-2,
-2,
-6,
-6,
-2,
-2,
-2,
-2,
-4,
-4,
-4,
-4,
-2,
-2,
-2,
-2,
-2,
-2,
-2,
-2,
-1,
-1,
-2,
-2,
-2,
-2,
-1,
-1,
-3,
-3,
0,
0,
-2,
-2,
-2,
-2,
-3,
-3,
-1,
-1,
-3,
-3,
-4,
-4,
-1,
-1,
-3,
-3,
-1,
-1,
1,
1,
2,
2,
-1,
-1,
8,
-7,
0,
0,
1,
1,
-1,
-1,
0,
0,
2,
2,
1,
1,
0,
0,
1,
1,
2,
2,
3,
3,
-3,
12,
-1,
-1,
3,
3,
2,
2,
-1,
-1,
4,
4,
2,
2,
2,
2,
1,
1,
2,
2,
2,
2,
1,
13,
4,
4,
2,
2,
4,
4,
4,
4,
3,
3,
3,
3,
2,
2,
4,
4,
4,
4,
6,
6,
2,
2,
2,
2,
6,
6,
3,
3,
3,
3,
5,
5,
8,
8,
2,
2,
8,
8,
5,
5,
4,
4,
6,
6,
5,
5,
3,
3,
6,
6,
5,
5,
6,
6,
4,
4,
8,
8,
6,
6,
7,
7,
4,
4,
4,
4,
5,
5,
7,
7,
5,
5,
5,
5,
7,
7,
5,
5,
7,
7,
4,
4,
7,
7,
7,
7,
8,
8,
7,
7,
7,
7,
8,
8,
7,
7,
8,
8,
7,
7,
8,
8,
8,
8,
5,
5,
4,
4,
8,
8,
2,
2,
9,
9,
7,
7,
7,
7,
5,
5,
7,
7,
8,
8,
5,
5,
4,
4,
6,
6,
5,
5,
7,
7,
7,
7,
7,
7,
7,
7,
6,
6,
4,
4,
6,
6,
7,
7,
2,
2,
6,
6,
5,
5,
5,
5,
6,
6,
7,
7,
5,
5,
6,
6,
4,
4,
7,
7,
3,
3,
3,
3,
2,
2,
3,
3,
3,
3,
3,
3,
7,
7,
7,
7,
3,
3,
4,
4,
5,
5,
5,
5,
2,
2,
6,
6,
5,
5,
5,
5,
2,
2,
2,
2,
4,
4,
7,
7,
3,
3,
2,
2,
3,
3,
5,
5,
1,
1,
3,
3,
1,
1,
1,
1,
3,
3,
4,
4,
2,
2,
3,
3,
2,
2,
2,
2,
0,
0,
1,
1,
2,
2,
2,
2,
1,
1,
0,
0,
1,
1,
2,
2,
3,
3,
1,
1,
0,
0,
3,
3,
0,
0,
0,
0,
1,
1,
1,
1,
1,
1,
-2,
-2,
1,
1,
-2,
-2,
-1,
-1,
-1,
-1,
-3,
-3,
1,
1,
-1,
-1,
-4,
-4,
-1,
-1,
-1,
-1,
0,
0,
-2,
-2,
-2,
-2,
0,
0,
-1,
-1,
-2,
-2,
-4,
-4,
-3,
-3,
-2,
-2,
-5,
-5,
1,
1,
-3,
-3,
-1,
-1,
-2,
-2,
-3,
-3,
-3,
-3,
-2,
-2,
-3,
-3,
-7,
-7,
-3,
-3,
-5,
-5,
-3,
-3,
-5,
-5,
-1,
-1,
-6,
-6,
-3,
-3,
-4,
-4,
-2,
-2,
-5,
-5,
-5,
-5,
-5,
-5,
-8,
-8,
-5,
-5,
-6,
-6,
-6,
-6,
-6,
-6,
-6,
-6,
-6,
-6,
-6,
-6,
-3,
-3,
-5,
-5,
-4,
-4,
-9,
-9,
-6,
-6,
-6,
-6,
-5,
-5,
-5,
-5,
-4,
-4,
-8,
-8,
-7,
-7,
-6,
-6,
-4,
-4,
-5,
-5,
-7,
-7,
-7,
-7,
-5,
-5,
-7,
-7,
-8,
-8,
-7,
-7,
-6,
-6,
-7,
-7,
-8,
-8,
-6,
-6,
-6,
-6,
-5,
-5,
-4,
-4,
-5,
-5,
-5,
-5,
-5,
-5,
-7,
-7,
-5,
-5,
-6,
-6,
-7,
-7,
-9,
-9,
-7,
-7,
-3,
-3,
-7,
-7,
-5,
-5,
-6,
-6,
-7,
-7,
-5,
-5,
-7,
-7,
-4,
-4,
-8,
-8,
-9,
-9,
-5,
-5,
-6,
-6,
-5,
-5,
-6,
-6,
-6,
-6,
-4,
-4,
-5,
-5,
-5,
-5,
-7,
-7,
-9,
-9,
-7,
-7,
-5,
-5,
-2,
-2,
-8,
-8,
-5,
-5,
-4,
-4,
-7,
-7,
-3,
-3,
-6,
-6,
-4,
-4,
-4,
-4,
-5,
-5,
-4,
-4,
-3,
-3,
-3,
-3,
-2,
-2,
-4,
-4,
-3,
-3,
-3,
-3,
-1,
-1,
-4,
-4,
-3,
-3,
-2,
-2,
-4,
-4,
-5,
-5,
-1,
-1,
-2,
-2,
-2,
-2,
-3,
-3,
-1,
-1,
-2,
-2,
-2,
-2,
-4,
-4,
-3,
-3,
1,
1,
0,
0,
-3,
-3,
1,
1,
0,
0,
-2,
-2,
-2,
-2,
0,
0,
1,
1,
0,
0,
-3,
-3,
0,
0,
-1,
-1,
-1,
-1,
0,
0,
0,
0,
0,
0,
2,
2,
-3,
-3,
-1,
-1,
0,
0,
0,
0,
2,
2,
2,
2,
0,
0,
2,
2,
2,
2,
3,
3,
1,
1,
-1,
-1,
3,
3,
1,
1,
4,
4,
4,
4,
1,
1,
3,
3,
3,
3,
0,
0,
1,
1,
1,
1,
4,
4,
4,
4,
2,
2,
3,
3,
1,
1,
6,
6,
6,
6,
5,
5,
4,
4,
1,
1,
3,
3,
3,
3,
2,
2,
5,
5,
5,
5,
4,
4,
6,
6,
6,
6,
6,
6,
5,
5,
2,
2,
5,
5,
4,
4,
3,
3,
4,
4,
5,
5,
5,
5,
6,
6,
2,
2,
7,
7,
7,
7,
6,
6,
6,
6,
5,
5,
4,
4,
6,
6,
7,
7,
3,
3,
4,
4,
6,
6,
6,
6,
8,
8,
5,
5,
2,
2,
3,
3,
5,
5,
3,
3,
5,
5,
5,
5,
4,
4,
4,
4,
4,
4,
6,
6,
8,
8,
7,
7,
8,
8,
5,
5,
5,
5,
5,
5,
6,
6,
6,
6,
7,
7,
8,
8,
6,
6,
6,
6,
8,
8,
5,
5,
7,
7,
8,
8,
8,
8,
4,
4,
7,
7,
5,
5,
5,
5,
6,
6,
7,
7,
6,
6,
6,
6,
5,
5,
7,
7,
5,
5,
5,
5,
6,
6,
7,
7,
5,
5,
4,
4,
4,
4,
7,
7,
6,
6,
5,
5,
7,
7,
5,
5,
6,
6,
3,
3,
4,
4,
4,
4,
4,
4,
2,
2,
5,
5,
4,
4,
3,
3,
5,
5,
2,
2,
3,
3,
4,
4,
2,
2,
1,
1,
4,
4,
1,
1,
5,
5,
2,
2,
2,
2,
1,
1,
0,
0,
1,
1,
4,
4,
0,
0,
4,
4,
3,
3,
3,
3,
2,
2,
2,
2,
1,
1,
-1,
-1,
0,
0,
-1,
-1,
2,
2,
1,
1,
3,
3,
2,
2,
0,
0,
1,
1,
0,
0,
0,
0,
0,
0,
-3,
-3,
-1,
-1,
-1,
-1,
0,
0,
-3,
-3,
-2,
-2,
-1,
-1,
-1,
-1,
-2,
-2,
-1,
-1,
-2,
-2,
1,
1,
-2,
-2,
-1,
-1,
-2,
-2,
-3,
-3,
-4,
-4,
-3,
-3,
-5,
-5,
-4,
-4,
-1,
-1,
-4,
-4,
-1,
-1,
-4,
-4,
-2,
-2,
-6,
-6,
-4,
-4,
-3,
-3,
-5,
-5,
-3,
-3,
-3,
-3,
-5,
-5,
-1,
-1,
-5,
-5,
-6,
-6,
-5,
-5,
-2,
-2,
-5,
-5,
-2,
-2,
-5,
-5,
-7,
-7,
-6,
-6,
-4,
-4,
-4,
-4,
-6,
-6,
-5,
-5,
-5,
-5,
-6,
-6,
-7,
-7,
-5,
-5,
-6,
-6,
-5,
-5,
-7,
-7,
-4,
-4,
-6,
-6,
-3,
-3,
-4,
-4,
-5,
-5,
-6,
-6,
-5,
-5,
-6,
-6,
-7,
-7,
-5,
-5,
-8,
-8,
-6,
-6,
-8,
-8,
-8,
-8,
-7,
-7,
-7,
-7,
-6,
-6,
-5,
-5,
-4,
-4,
-8,
-8,
-5,
-5,
-6,
-6,
-8,
-8,
-6,
-6,
-4,
-4,
-8,
-8,
-5,
-5,
-8,
-8,
-9,
-9,
-7,
-7,
-6,
-6,
-6,
-6,
-9,
-9,
-7,
-7,
-7,
-7,
-4,
-4,
-6,
-6,
-5,
-5,
-4,
-4,
-5,
-5,
-4,
-4,
-7,
-7,
-5,
-5,
-5,
-5,
-7,
-7,
-3,
-3,
-6,
-6,
-6,
-6,
-4,
-4,
-5,
-5,
-4,
-4,
-7,
-7,
-5,
-5,
-5,
-5,
-4,
-4,
-4,
-4,
-4,
-4,
-4,
-4,
-5,
-5,
-6,
-6,
-4,
-4,
-5,
-5,
-5,
-5,
-3,
-3,
-7,
-7,
-3,
-3,
-5,
-5,
-1,
-1,
-2,
-2,
-3,
-3,
-3,
-3,
-3,
-3,
-4,
-4,
-3,
-3,
-5,
-5,
-4,
-4,
-4,
-4,
-2,
-2,
-4,
-4,
0,
0,
-1,
-1,
-3,
-3,
0,
0,
-2,
-2,
-3,
-3,
-1,
-1,
-1,
-1,
-1,
-1,
-2,
-2,
0,
0,
-2,
-2,
-1,
-1,
-1,
-1,
1,
1,
0,
0,
-2,
-2,
1,
1,
-2,
-2,
2,
2,
-1,
-1,
-1,
-1,
0,
0,
2,
2,
0,
0,
0,
0,
3,
3,
3,
3,
3,
3,
1,
1,
1,
1,
2,
2,
0,
0,
2,
2,
3,
3,
3,
3,
0,
0,
1,
1,
3,
3,
4,
4,
3,
3,
0,
0,
2,
2,
0,
0,
5,
5,
2,
2,
2,
2,
4,
4,
3,
3,
4,
4,
2,
2,
3,
3,
3,
3,
3,
3,
4,
4,
3,
3,
3,
3,
1,
1,
4,
4,
5,
5,
4,
4,
1,
1,
5,
5,
4,
4,
4,
4,
3,
3,
6,
6,
7,
7,
5,
5,
6,
6,
5,
5,
5,
5,
4,
4,
4,
4,
5,
5,
7,
7,
6,
6,
5,
5,
6,
6,
7,
7,
6,
6,
5,
5,
7,
7,
4,
4,
6,
6,
4,
4,
8,
8,
7,
7,
6,
6,
6,
6,
5,
5,
5,
5,
6,
6,
7,
7,
6,
6,
7,
7,
6,
6,
6,
6,
7,
7,
7,
7,
5,
5,
7,
7,
8,
8,
6,
6,
4,
4,
9,
9,
5,
5,
6,
6,
5,
5,
7,
7,
6,
6,
5,
5,
6,
6,
8,
8,
6,
6,
6,
6,
6,
6,
3,
3,
5,
5,
7,
7,
5,
5,
5,
5,
7,
7,
5,
5,
7,
7,
3,
3,
6,
6,
6,
6,
5,
5,
5,
5,
3,
3,
5,
5,
4,
4,
8,
8,
3,
3,
5,
5,
4,
4,
4,
4,
6,
6,
7,
7,
4,
4,
5,
5,
6,
6,
4,
4,
4,
4,
3,
3,
4,
4,
1,
1,
4,
4,
5,
5,
4,
4,
2,
2,
5,
5,
5,
5,
1,
1,
4,
4,
1,
1,
0,
0,
4,
4,
1,
1,
3,
3,
2,
2,
4,
4,
1,
1,
2,
2,
1,
1,
2,
2,
0,
0,
2,
2,
1,
1,
2,
2,
2,
2,
2,
2,
1,
1,
0,
0,
2,
2,
-1,
-1,
-1,
-1,
-1,
-1,
1,
1,
1,
1,
-2,
-2,
-1,
-1,
-2,
-2,
-1,
-1,
-3,
-3,
-2,
-2,
1,
1,
0,
0,
0,
0,
-3,
-3,
1,
1,
-2,
-2,
-3,
-3,
1,
1,
-3,
-3,
-2,
-2,
-1,
-1,
1,
1,
-5,
-5,
-3,
-3,
-4,
-4,
-2,
-2,
-4,
-4,
-3,
-3,
-5,
-5,
-3,
-3,
-4,
-4,
-5,
-5,
-4,
-4,
-3,
-3,
-5,
-5,
-6,
-6,
-4,
-4,
-2,
-2,
-6,
-6,
-4,
-4,
-3,
-3,
-4,
-4,
-2,
-2,
-5,
-5,
-3,
-3,
-7,
-7,
-3,
-3,
-6,
-6,
-4,
-4,
-6,
-6,
-6,
-6,
-6,
-6,
-4,
-4,
-7,
-7,
-5,
-5,
-6,
-6,
-8,
-8,
-5,
-5,
-7,
-7,
-8,
-8,
-7,
-7,
-6,
-6,
-6,
-6,
-7,
-7,
-8,
-8,
-7,
-7,
-5,
-5,
-4,
-4,
-6,
-6,
-8,
-8,
-7,
-7,
-6,
-6,
-6,
-6,
-6,
-6,
-7,
-7,
-8,
-8,
-8,
-8,
-5,
-5,
-6,
-6,
-6,
-6,
-8,
-8,
-6,
-6,
-8,
-8,
-8,
-8,
-5,
-5,
-7,
-7,
-5,
-5,
-9,
-9,
-6,
-6,
-8,
-8,
-7,
-7,
-8,
-8,
-7,
-7,
-5,
-5,
-8,
-8,
-7,
-7,
-6,
-6,
-5,
-5,
-7,
-7,
-7,
-7,
-7,
-7,
-5,
-5,
-5,
-5,
-7,
-7,
-7,
-7,
-5,
-5,
-5,
-5,
-4,
-4,
-5,
-5,
-8,
-8,
-7,
-7,
-6,
-6,
-7,
-7,
-7,
-7,
-5,
-5,
-3,
-3,
-6,
-6,
-6,
-6,
-5,
-5,
-5,
-5,
-4,
-4,
-5,
-5,
-4,
-4,
-2,
-2,
-7,
-7,
-6,
-6,
-6,
-6,
-4,
-4,
-3,
-3,
-5,
-5,
-2,
-2,
-2,
-2,
-4,
-4,
-2,
-2,
-1,
-1,
-1,
-1,
-1,
-1,
-2,
-2,
-3,
-3,
-1,
-1,
-3,
-3,
0,
0,
-2,
-2,
3,
3,
-2,
-2,
-1,
-1,
-3,
-3,
1,
1,
0,
0,
-2,
-2,
0,
0,
0,
0,
0,
0,
1,
1,
0,
0,
1,
1,
-1,
-1,
0,
0,
0,
0,
2,
2,
-2,
-2,
1,
1,
2,
2,
0,
0,
0,
0,
2,
2,
-1,
-1,
2,
2,
1,
1,
0,
0,
1,
1,
0,
0,
4,
4,
3,
3,
3,
3,
4,
4,
3,
3,
2,
2,
6,
6,
4,
4,
4,
4,
2,
2,
3,
3,
2,
2,
2,
2,
1,
1,
4,
4,
3,
3,
4,
4,
4,
4,
4,
4,
3,
3,
3,
3,
5,
5,
5,
5,
6,
6,
5,
5,
3,
3,
5,
5,
6,
6,
4,
4,
4,
4,
5,
5,
3,
3,
7,
7,
3,
3,
5,
5,
5,
5,
6,
6,
5,
5,
7,
7,
3,
3,
6,
6,
6,
6,
6,
6,
2,
2,
6,
6,
7,
7,
7,
7,
8,
8,
5,
5,
6,
6,
7,
7,
8,
8,
6,
6,
3,
3,
7,
7,
6,
6,
6,
6,
7,
7,
7,
7,
7,
7,
9,
9,
6,
6,
6,
6,
8,
8,
6,
6,
5,
5,
5,
5,
5,
5,
8,
8,
5,
5,
4,
4,
6,
6,
7,
7,
6,
6,
8,
8,
4,
4,
4,
4,
6,
6,
5,
5,
5,
5,
6,
6,
5,
5,
4,
4,
3,
3,
8,
8,
8,
8,
4,
4,
8,
8,
5,
5,
7,
7,
5,
5,
3,
3,
8,
8,
5,
5,
6,
6,
5,
5,
2,
2,
6,
6,
4,
4,
7,
7,
6,
6,
5,
5,
4,
4,
1,
1,
5,
5,
5,
5,
3,
3,
3,
3,
4,
4,
5,
5,
4,
4,
3,
3,
2,
2,
1,
1,
1,
1,
3,
3,
3,
3,
2,
2,
3,
3,
2,
2,
2,
2,
2,
2,
1,
1,
3,
3,
3,
3,
3,
3,
1,
1,
3,
3,
2,
2,
2,
2,
3,
3,
2,
2,
-1,
-1,
3,
3,
2,
2,
0,
0,
-1,
-1,
0,
0,
-1,
-1,
-2,
-2,
-1,
-1,
-2,
-2,
-2,
-2,
0,
0,
-4,
-4,
1,
1,
-2,
-2,
0,
0,
1,
1,
0,
0,
-2,
-2,
0,
0,
-1,
-1,
0,
0,
-6,
-6,
-3,
-3,
-3,
-3,
-1,
-1,
-3,
-3,
-3,
-3,
-4,
-4,
-4,
-4,
-5,
-5,
-2,
-2,
-4,
-4,
-1,
-1,
-2,
-2,
-4,
-4,
-4,
-4,
-6,
-6,
-3,
-3,
-3,
-3,
-3,
-3,
-2,
-2,
-5,
-5,
-5,
-5,
-4,
-4,
-5,
-5,
-4,
-4,
-4,
-4,
-2,
-2,
-6,
-6,
-3,
-3,
-5,
-5,
-4,
-4,
-5,
-5,
-5,
-5,
-7,
-7,
-7,
-7,
-5,
-5,
-3,
-3,
-5,
-5,
-7,
-7,
-4,
-4,
-5,
-5,
-4,
-4,
-5,
-5,
-5,
-5,
-5,
-5,
-5,
-5,
-6,
-6,
-4,
-4,
-7,
-7,
-5,
-5,
-9,
-9,
-6,
-6,
-6,
-6,
-6,
-6,
-7,
-7,
-6,
-6,
-5,
-5,
-6,
-6,
-6,
-6,
-8,
-8,
-6,
-6,
-8,
-8,
-4,
-4,
-3,
-3,
-5,
-5,
-8,
-8,
-6,
-6,
-9,
-9,
-4,
-4,
-8,
-8,
-4,
-4,
-7,
-7,
-7,
-7,
-7,
-7,
-5,
-5,
-9,
-9,
-7,
-7,
-7,
-7,
-7,
-7,
-5,
-5,
-6,
-6,
-6,
-6,
-7,
-7,
-5,
-5,
-7,
-7,
-5,
-5,
-6,
-6,
-4,
-4,
-7,
-7,
-5,
-5,
-7,
-7,
-7,
-7,
-6,
-6,
-7,
-7,
-3,
-3,
-5,
-5,
-7,
-7,
-5,
-5,
-5,
-5,
-5,
-5,
-3,
-3,
-4,
-4,
-4,
-4,
-2,
-2,
-7,
-7,
-5,
-5,
-2,
-2,
-2,
-2,
-1,
-1,
-2,
-2,
-3,
-3,
-2,
-2,
-5,
-5,
-3,
-3,
-2,
-2,
-5,
-5,
-2,
-2,
-4,
-4,
-1,
-1,
-4,
-4,
-1,
-1,
-2,
-2,
-3,
-3,
-2,
-2,
-2,
-2,
-4,
-4,
-4,
-4,
-2,
-2,
-2,
-2,
-2,
-2,
-1,
-1,
0,
0,
2,
2,
-2,
-2,
-1,
-1,
-2,
-2,
-1,
-1,
1,
1,
-1,
-1,
0,
0,
-1,
-1,
0,
0,
-1,
-1,
2,
2,
1,
1,
-1,
-1,
0,
0,
1,
1,
-1,
-1,
-1,
-1,
3,
3,
3,
3,
5,
5,
0,
0,
0,
0,
4,
4,
0,
0,
1,
1,
4,
4,
4,
4,
2,
2,
4,
4,
2,
2,
2,
2,
2,
2,
5,
5,
2,
2,
4,
4,
0,
0,
4,
4,
4,
4,
4,
4,
4,
4,
2,
2,
5,
5,
4,
4,
4,
4,
3,
3,
4,
4,
5,
5,
4,
4,
7,
7,
5,
5,
4,
4,
5,
5,
4,
4,
6,
6,
7,
7,
4,
4,
4,
4,
4,
4,
5,
5,
5,
5,
5,
5,
6,
6,
5,
5,
7,
7,
4,
4,
6,
6,
3,
3,
7,
7,
7,
7,
6,
6,
11,
-4,
5,
5,
6,
6,
6,
6,
7,
7,
6,
6,
5,
5,
5,
5,
5,
5,
6,
6,
6,
6,
3,
17,
6,
6,
6,
6,
4,
4,
5,
5,
5,
5,
9,
9,
5,
5,
7,
7,
7,
7,
6,
6,
8,
-3,
7,
7,
5,
5,
9,
9,
5,
5,
7,
7,
7,
7,
6,
6,
6,
6,
6,
6,
5,
5,
8,
8,
4,
4,
6,
6,
5,
5,
5,
5,
6,
6,
6,
6,
6,
6,
6,
6,
6,
6,
5,
5,
6,
6,
6,
6,
4,
4,
4,
4,
6,
6,
5,
5,
6,
6,
4,
4,
6,
6,
5,
5,
5,
5,
4,
4,
6,
6,
5,
5,
5,
5,
5,
5,
5,
5,
4,
4,
1,
1,
4,
4,
4,
4,
5,
5,
4,
4,
2,
2,
4,
4,
2,
2,
4,
4,
1,
1,
2,
2,
4,
4,
4,
4,
2,
2,
4,
4,
3,
3,
3,
3,
-1,
-1,
1,
1,
2,
2,
3,
3,
4,
4,
2,
2,
2,
2,
1,
1,
2,
2,
1,
1,
0,
0,
1,
1,
-1,
-1,
-1,
-1,
0,
0,
-1,
-1,
-1,
-1,
-3,
-3,
1,
1,
1,
1,
-1,
-1,
-1,
-1,
0,
0,
-1,
-1,
2,
2,
1,
1,
-2,
-2,
-1,
-1,
-1,
-1,
0,
0,
-1,
-1,
-1,
-1,
-1,
-1,
-1,
-1,
0,
0,
-4,
-4,
-2,
-2,
-3,
-3,
-2,
-2,
-2,
-2,
-3,
-3,
-1,
-1,
-3,
-3,
-1,
-1,
-2,
-2,
-3,
-3,
-3,
-3,
-2,
-2,
-3,
-3,
-5,
-5,
-3,
-3,
-4,
-4,
-4,
-4,
-3,
-3,
-5,
-5,
-3,
-3,
-3,
-3,
-4,
-4,
-6,
-6,
-5,
-5,
-3,
-3,
-6,
-6,
-3,
-3,
-5,
-5,
-2,
-13,
-7,
-7,
-6,
-6,
-3,
-3,
-6,
-6,
-5,
-5,
-5,
-5,
-8,
-8,
-6,
-6,
-5,
-5,
-5,
-5,
-4,
-15,
-9,
-9,
-7,
-7,
-4,
-4,
-7,
-7,
-6,
-6,
-6,
-6,
-5,
-5,
-5,
-5,
-6,
-6,
-7,
-7,
-4,
-4,
-4,
-4,
-5,
-5,
-4,
-4,
-9,
-9,
-6,
-6,
-7,
-7,
-7,
-7,
-7,
-7,
-7,
-7,
-6,
-6,
-5,
-5,
-5,
-5,
-6,
-6,
-6,
-6,
-4,
-4,
-7,
-7,
-8,
-8,
-5,
-5,
-6,
-6,
-6,
-6,
-6,
-6,
-4,
-4,
-8,
-8,
-6,
-6,
-6,
-6,
-6,
-6,
-8,
-8,
-7,
-7,
-4,
-4,
-5,
-5,
-6,
-6,
-5,
-5,
-5,
-5,
-7,
-7,
-5,
-5,
-6,
-6,
-4,
-4,
-3,
-3,
-7,
-7,
-6,
-6,
-5,
-5,
-3,
-3,
-5,
-5,
-3,
-3,
-5,
-5,
-1,
-1,
-5,
-5,
-3,
-3,
-5,
-5,
-7,
-7,
-1,
-1,
-2,
-2,
-5,
-5,
-3,
-3,
-3,
-3,
-2,
-2,
-3,
-3,
-4,
-4,
-3,
-3,
-3,
-3,
-2,
-2,
-3,
-3,
-4,
-4,
-5,
-5,
-3,
-3,
-4,
-4,
0,
0,
-1,
-1,
-2,
-2,
-1,
-1,
-2,
-2,
-3,
-3,
-2,
-2,
-2,
-2,
-1,
-1,
-2,
-2,
0,
0,
-3,
-3,
1,
1,
-2,
-2,
-1,
-1,
-3,
-3,
0,
0,
0,
0,
-4,
-4,
0,
0,
1,
1,
-2,
-2,
0,
0,
3,
3,
1,
1,
2,
2,
1,
1,
1,
1,
1,
1,
0,
0,
1,
1,
3,
3,
3,
3,
5,
5,
2,
2,
0,
0,
1,
1,
6,
6,
1,
1,
2,
2,
3,
3,
2,
2,
1,
1,
4,
4,
3,
3,
3,
3,
2,
2,
4,
4,
1,
1,
4,
4,
3,
3,
2,
2,
5,
5,
4,
4,
4,
4,
5,
5,
4,
4,
3,
3,
4,
4,
5,
5,
4,
4,
3,
3,
5,
5,
2,
2,
6,
6,
6,
6,
6,
6,
4,
4,
6,
6,
5,
5,
6,
6,
7,
7,
5,
5,
4,
4,
5,
5,
6,
6,
5,
5,
4,
4,
5,
5,
6,
