4-transistorverstaerker/data/ALL0017/A0017CH1.CSV

Memory Length,4000,
Trigger Level,8.10000e+02,
Source,CH1,
Probe,1.0X,
Vertical Units,V,
Vertical Scale,2.00000e-02,
Vertical Position,-8.00000e-04,
Horizontal Units,S,
Horizontal Scale,5.00000e-04,
Horizontal Position,-6.8000000e-04,
Horizontal Mode,Main,
Sampling Period,2.00000e-06,
Firmware,V1.14,
Time, ,
Mode,Fast,
Waveform Data,
77,
77,
77,
74,
74,
72,
72,
72,
72,
71,
71,
72,
72,
71,
71,
71,
71,
70,
70,
68,
80,
66,
78,
65,
79,
70,
70,
67,
67,
67,
67,
67,
67,
66,
66,
66,
66,
65,
65,
66,
66,
60,
60,
59,
59,
60,
60,
61,
61,
57,
57,
58,
58,
59,
59,
60,
60,
55,
55,
52,
52,
50,
50,
56,
45,
52,
52,
49,
49,
48,
48,
49,
49,
46,
46,
46,
46,
46,
46,
42,
42,
42,
42,
40,
40,
39,
39,
37,
37,
36,
36,
33,
33,
32,
32,
33,
33,
27,
27,
31,
31,
28,
28,
27,
27,
24,
24,
22,
22,
23,
11,
22,
22,
18,
18,
18,
18,
13,
13,
13,
13,
12,
12,
11,
11,
9,
9,
7,
7,
7,
7,
8,
-3,
1,
1,
1,
1,
0,
0,
1,
1,
-1,
-1,
-3,
-3,
-8,
-8,
-9,
-9,
-18,
1,
-9,
-20,
-11,
-11,
-14,
-14,
-14,
-14,
-16,
-16,
-15,
-15,
-18,
-18,
-23,
-23,
-20,
-20,
-28,
-28,
-26,
-26,
-25,
-25,
-33,
-33,
-30,
-30,
-30,
-30,
-34,
-34,
-37,
-37,
-37,
-37,
-35,
-52,
-38,
-38,
-43,
-43,
-43,
-43,
-47,
-32,
-46,
-46,
-45,
-45,
-46,
-46,
-47,
-47,
-48,
-48,
-52,
-52,
-51,
-51,
-53,
-53,
-54,
-54,
-55,
-55,
-53,
-70,
-57,
-57,
-59,
-59,
-58,
-58,
-60,
-60,
-58,
-58,
-63,
-63,
-63,
-63,
-63,
-63,
-66,
-66,
-64,
-64,
-54,
-80,
-59,
-86,
-72,
-60,
-68,
-68,
-70,
-70,
-72,
-72,
-70,
-70,
-72,
-72,
-70,
-70,
-73,
-73,
-74,
-74,
-74,
-74,
-73,
-73,
-75,
-75,
-75,
-75,
-76,
-76,
-77,
-77,
-75,
-75,
-74,
-86,
-86,
-71,
-79,
-68,
-72,
-84,
-77,
-77,
-77,
-77,
-77,
-77,
-78,
-78,
-78,
-78,
-79,
-79,
-80,
-80,
-78,
-78,
-78,
-78,
-76,
-76,
-75,
-75,
-78,
-78,
-79,
-79,
-77,
-77,
-77,
-77,
-78,
-78,
-76,
-76,
-74,
-90,
-65,
-88,
-65,
-86,
-81,
-69,
-75,
-75,
-74,
-74,
-72,
-72,
-75,
-75,
-72,
-72,
-72,
-72,
-73,
-73,
-69,
-56,
-75,
-59,
-67,
-78,
-68,
-79,
-68,
-68,
-68,
-68,
-63,
-63,
-66,
-66,
-65,
-65,
-65,
-65,
-63,
-63,
-63,
-63,
-61,
-61,
-61,
-61,
-59,
-59,
-55,
-55,
-60,
-60,
-57,
-57,
-58,
-58,
-54,
-54,
-54,
-54,
-51,
-51,
-51,
-51,
-47,
-47,
-46,
-46,
-48,
-48,
-47,
-47,
-49,
-49,
-44,
-44,
-43,
-43,
-37,
-37,
-39,
-39,
-38,
-38,
-38,
-38,
-35,
-23,
-33,
-33,
-31,
-31,
-28,
-28,
-26,
-26,
-27,
-27,
-25,
-25,
-28,
-28,
-23,
-23,
-23,
-23,
-19,
-19,
-17,
-17,
-15,
-15,
-15,
-15,
-12,
-12,
-11,
-11,
-10,
-10,
-8,
-8,
-7,
-7,
-8,
3,
-3,
-3,
-4,
-4,
-1,
-1,
3,
3,
1,
1,
4,
4,
22,
-11,
-14,
30,
6,
6,
7,
7,
13,
25,
14,
14,
19,
5,
19,
19,
17,
17,
19,
19,
19,
19,
8,
43,
-1,
46,
27,
27,
23,
34,
28,
28,
29,
29,
28,
28,
34,
34,
33,
45,
40,
29,
36,
36,
38,
38,
60,
16,
12,
64,
39,
50,
47,
36,
45,
45,
44,
44,
45,
45,
49,
49,
50,
50,
50,
50,
51,
51,
54,
54,
52,
52,
60,
49,
55,
55,
57,
57,
74,
43,
63,
50,
60,
60,
63,
63,
62,
62,
61,
61,
61,
61,
63,
63,
67,
67,
66,
66,
66,
66,
70,
70,
51,
84,
58,
80,
73,
73,
74,
74,
74,
63,
74,
74,
71,
71,
72,
72,
71,
71,
72,
72,
73,
73,
74,
74,
72,
88,
78,
56,
71,
71,
72,
72,
75,
75,
74,
74,
75,
75,
75,
86,
71,
86,
78,
78,
76,
76,
75,
75,
78,
78,
79,
79,
78,
78,
76,
76,
77,
77,
74,
74,
75,
75,
77,
77,
75,
75,
75,
64,
78,
65,
71,
71,
75,
75,
75,
75,
75,
75,
73,
73,
70,
70,
71,
71,
69,
69,
70,
70,
70,
70,
66,
66,
70,
70,
66,
66,
69,
57,
64,
64,
66,
66,
59,
74,
65,
65,
62,
62,
61,
61,
59,
59,
60,
60,
60,
60,
60,
60,
57,
57,
55,
55,
54,
54,
56,
56,
52,
52,
53,
53,
49,
49,
50,
50,
48,
48,
41,
54,
45,
45,
43,
43,
43,
43,
40,
40,
41,
41,
37,
37,
39,
39,
36,
36,
37,
37,
36,
36,
30,
30,
32,
21,
28,
28,
26,
26,
26,
26,
26,
15,
28,
17,
22,
22,
21,
21,
21,
21,
19,
19,
15,
15,
13,
13,
15,
15,
14,
3,
9,
9,
8,
8,
30,
-24,
-28,
32,
-13,
14,
4,
4,
1,
1,
0,
0,
-3,
-3,
-4,
-4,
-5,
-5,
-1,
-14,
-9,
-9,
12,
-34,
-38,
16,
-14,
-14,
-15,
-15,
-16,
-29,
-14,
-26,
-21,
-21,
-18,
-18,
-23,
-23,
-28,
-15,
-22,
-33,
-27,
-27,
-1,
-62,
-24,
-39,
-30,
-30,
-34,
-34,
-34,
-34,
-33,
-33,
-34,
-34,
-23,
-56,
-28,
-58,
-46,
-32,
-40,
-40,
-40,
-52,
-43,
-43,
-44,
-44,
-48,
-48,
-47,
-47,
-52,
-52,
-49,
-49,
-55,
-55,
-68,
-43,
-38,
-74,
-59,
-59,
-57,
-57,
-55,
-55,
-59,
-48,
-63,
-63,
-60,
-60,
-63,
-63,
-59,
-71,
-60,
-60,
-65,
-65,
-64,
-64,
-49,
-86,
-71,
-55,
-64,
-75,
-71,
-71,
-66,
-66,
-70,
-70,
-69,
-69,
-71,
-71,
-73,
-73,
-72,
-72,
-75,
-75,
-77,
-66,
-70,
-83,
-73,
-73,
-75,
-75,
-74,
-74,
-76,
-76,
-77,
-77,
-80,
-68,
-76,
-76,
-76,
-76,
-77,
-77,
-76,
-76,
-79,
-79,
-79,
-79,
-77,
-77,
-76,
-76,
-80,
-69,
-82,
-82,
-75,
-75,
-81,
-69,
-80,
-80,
-77,
-77,
-79,
-79,
-77,
-77,
-79,
-79,
-77,
-77,
-75,
-75,
-77,
-77,
-78,
-78,
-76,
-76,
-77,
-77,
-78,
-78,
-76,
-76,
-78,
-78,
-72,
-72,
-72,
-72,
-73,
-73,
-68,
-68,
-71,
-71,
-72,
-72,
-72,
-72,
-68,
-68,
-70,
-70,
-68,
-68,
-66,
-66,
-66,
-66,
-66,
-55,
-67,
-67,
-65,
-65,
-63,
-63,
-62,
-62,
-58,
-58,
-61,
-61,
-61,
-49,
-53,
-65,
-32,
-78,
-89,
-30,
-52,
-65,
-56,
-56,
-52,
-52,
-51,
-51,
-51,
-51,
-52,
-52,
-49,
-49,
-46,
-46,
-47,
-47,
-48,
-48,
-75,
-16,
-34,
-50,
-38,
-38,
-39,
-39,
-35,
-35,
-36,
-36,
-35,
-35,
-34,
-34,
-30,
-30,
-29,
-29,
-30,
-30,
-63,
9,
-10,
-36,
-23,
-35,
-27,
-11,
-19,
-19,
-20,
-20,
-16,
-16,
-15,
-15,
-15,
-15,
-13,
-13,
-15,
-15,
-12,
-12,
7,
-25,
-21,
10,
-7,
-7,
-8,
3,
-4,
-4,
0,
0,
-3,
-3,
1,
1,
4,
4,
4,
4,
6,
6,
-4,
21,
8,
8,
28,
-3,
17,
0,
12,
12,
17,
17,
18,
18,
20,
20,
21,
21,
21,
32,
24,
24,
26,
26,
27,
16,
26,
26,
30,
30,
33,
33,
32,
32,
32,
32,
37,
37,
38,
38,
37,
37,
37,
37,
40,
40,
41,
41,
44,
44,
44,
44,
45,
45,
46,
46,
48,
48,
48,
48,
49,
49,
48,
48,
51,
51,
54,
54,
51,
51,
49,
60,
55,
55,
56,
56,
57,
57,
60,
60,
62,
62,
61,
61,
63,
52,
64,
64,
64,
53,
61,
72,
63,
63,
67,
56,
61,
74,
67,
67,
68,
68,
70,
70,
70,
70,
74,
74,
69,
69,
68,
79,
71,
71,
74,
74,
70,
70,
73,
73,
73,
73,
72,
72,
75,
75,
73,
73,
76,
76,
73,
73,
75,
75,
76,
76,
78,
78,
76,
76,
78,
78,
75,
75,
76,
76,
74,
74,
83,
68,
81,
66,
70,
84,
75,
75,
75,
75,
73,
73,
74,
74,
74,
74,
75,
75,
72,
72,
93,
57,
62,
92,
75,
75,
73,
73,
74,
74,
72,
72,
69,
69,
71,
71,
69,
69,
66,
66,
69,
69,
81,
55,
84,
53,
63,
74,
66,
66,
64,
64,
65,
65,
66,
66,
61,
61,
62,
62,
61,
61,
59,
59,
58,
58,
59,
43,
35,
80,
59,
59,
52,
52,
55,
55,
54,
54,
57,
45,
50,
50,
49,
49,
49,
49,
46,
46,
62,
31,
40,
53,
47,
47,
42,
42,
39,
39,
43,
43,
40,
40,
38,
38,
34,
34,
32,
32,
33,
33,
32,
32,
30,
30,
24,
46,
26,
26,
27,
27,
23,
23,
21,
21,
20,
20,
22,
10,
13,
28,
18,
3,
16,
16,
11,
11,
11,
11,
27,
-2,
3,
18,
10,
10,
6,
6,
6,
6,
2,
2,
2,
-10,
-1,
-1,
0,
0,
-4,
-4,
-4,
-4,
-6,
-6,
-8,
-8,
-12,
2,
-9,
-9,
-13,
-13,
-10,
-10,
-16,
-16,
-19,
-19,
-19,
-19,
-20,
-20,
-17,
-28,
-26,
-26,
-22,
-22,
-25,
-25,
-28,
-28,
-29,
-29,
-36,
-24,
-31,
-31,
-26,
-42,
-37,
-37,
-34,
-34,
-37,
-37,
-38,
-38,
-43,
-31,
-42,
-42,
-44,
-44,
-45,
-45,
-44,
-44,
-46,
-46,
-49,
-49,
-50,
-50,
-53,
-53,
-52,
-52,
-52,
-52,
-53,
-53,
-54,
-54,
-53,
-53,
-58,
-58,
-57,
-57,
-57,
-57,
-58,
-58,
-60,
-60,
-63,
-63,
-63,
-63,
-63,
-63,
-64,
-64,
-64,
-64,
-68,
-68,
-67,
-67,
-71,
-71,
-72,
-59,
-72,
-72,
-69,
-69,
-74,
-74,
-71,
-71,
-74,
-74,
-74,
-74,
-74,
-74,
-73,
-73,
-77,
-77,
-78,
-64,
-73,
-73,
-76,
-76,
-75,
-75,
-77,
-77,
-62,
-94,
-74,
-74,
-77,
-77,
-74,
-74,
-76,
-76,
-80,
-68,
-74,
-86,
-78,
-78,
-78,
-78,
-78,
-78,
-80,
-80,
-92,
-64,
-79,
-79,
-77,
-77,
-78,
-78,
-79,
-64,
-68,
-89,
-82,
-70,
-78,
-78,
-77,
-77,
-79,
-79,
-77,
-77,
-91,
-62,
-79,
-79,
-77,
-77,
-75,
-75,
-75,
-75,
-72,
-72,
-59,
-82,
-71,
-71,
-70,
-70,
-72,
-72,
-72,
-72,
-71,
-71,
-70,
-70,
-67,
-67,
-70,
-70,
-65,
-65,
-66,
-66,
-66,
-66,
-64,
-53,
-64,
-64,
-67,
-67,
-63,
-63,
-62,
-62,
-61,
-61,
-61,
-61,
-59,
-46,
-61,
-47,
-57,
-57,
-58,
-58,
-55,
-55,
-52,
-52,
-49,
-49,
-50,
-50,
-46,
-46,
-46,
-46,
-48,
-48,
-43,
-43,
-45,
-45,
-42,
-30,
-37,
-37,
-40,
-40,
-37,
-37,
-35,
-35,
-35,
-35,
-32,
-32,
-34,
-34,
-32,
-32,
-28,
-28,
-26,
-38,
-24,
-24,
-25,
-25,
-26,
-26,
-20,
-20,
-20,
-20,
-20,
-20,
-20,
-20,
-15,
-15,
-21,
-4,
-12,
-12,
-13,
-2,
-12,
-12,
-8,
-8,
-8,
-8,
-5,
-5,
-5,
-5,
-1,
-1,
-2,
-2,
-1,
-1,
5,
5,
4,
4,
4,
4,
9,
9,
9,
9,
8,
8,
11,
11,
13,
13,
17,
17,
15,
15,
18,
18,
20,
20,
23,
23,
23,
23,
25,
25,
26,
26,
27,
27,
25,
25,
27,
27,
31,
31,
31,
31,
31,
46,
37,
25,
38,
38,
35,
35,
41,
41,
40,
40,
43,
43,
43,
43,
45,
45,
46,
46,
47,
47,
48,
48,
48,
48,
51,
51,
50,
50,
52,
52,
51,
51,
56,
56,
56,
56,
56,
56,
59,
59,
61,
61,
59,
70,
61,
61,
60,
60,
60,
60,
65,
65,
64,
64,
63,
63,
66,
66,
66,
66,
70,
70,
68,
68,
64,
80,
72,
61,
73,
73,
70,
70,
68,
68,
70,
70,
71,
71,
72,
83,
66,
81,
77,
77,
77,
77,
75,
75,
73,
73,
75,
75,
73,
73,
74,
74,
77,
77,
76,
76,
75,
75,
78,
78,
75,
75,
77,
77,
78,
78,
76,
76,
76,
76,
78,
78,
75,
75,
75,
75,
74,
74,
74,
74,
77,
77,
75,
86,
73,
84,
71,
82,
71,
71,
77,
77,
73,
73,
75,
75,
71,
71,
72,
72,
72,
72,
73,
73,
69,
69,
67,
67,
68,
68,
67,
67,
67,
67,
64,
77,
66,
66,
67,
67,
65,
65,
64,
64,
62,
62,
64,
64,
61,
61,
63,
63,
57,
57,
57,
57,
56,
56,
54,
54,
56,
56,
55,
55,
54,
41,
51,
51,
50,
39,
51,
51,
50,
50,
46,
46,
51,
40,
45,
45,
42,
42,
43,
43,
42,
30,
41,
41,
36,
36,
37,
37,
33,
33,
35,
35,
30,
30,
31,
31,
30,
30,
27,
27,
26,
26,
28,
28,
24,
24,
23,
23,
18,
18,
18,
18,
15,
15,
17,
17,
16,
16,
15,
15,
15,
15,
12,
12,
8,
8,
10,
-2,
4,
4,
-4,
10,
1,
1,
-1,
-1,
-5,
-5,
-2,
-2,
-3,
-3,
-4,
-4,
-7,
-7,
-7,
-7,
-22,
6,
-11,
-11,
-13,
-13,
-13,
-13,
-15,
-15,
-17,
-17,
-20,
-20,
-17,
-30,
-21,
-21,
-24,
-24,
-26,
-26,
-26,
-26,
-31,
-31,
-28,
-28,
-34,
-34,
-33,
-33,
-34,
-34,
-36,
-36,
-35,
-35,
-36,
-36,
-38,
-38,
-40,
-40,
-42,
-42,
-42,
-42,
-42,
-42,
-47,
-47,
-44,
-44,
-47,
-47,
-48,
-48,
-51,
-51,
-51,
-51,
-54,
-54,
-58,
-47,
-55,
-55,
-57,
-57,
-57,
-57,
-57,
-57,
-59,
-59,
-60,
-60,
-63,
-63,
-62,
-62,
-61,
-61,
-67,
-67,
-64,
-64,
-62,
-73,
-65,
-65,
-66,
-66,
-69,
-69,
-69,
-69,
-71,
-71,
-67,
-67,
-72,
-72,
-69,
-80,
-76,
-61,
-71,
-71,
-77,
-66,
-76,
-76,
-73,
-73,
-73,
-73,
-72,
-72,
-76,
-76,
-74,
-74,
-78,
-78,
-78,
-78,
-76,
-76,
-77,
-77,
-79,
-79,
-78,
-78,
-79,
-79,
-80,
-80,
-76,
-76,
-80,
-80,
-83,
-69,
-76,
-87,
-79,
-79,
-81,
-81,
-74,
-85,
-75,
-75,
-78,
-78,
-76,
-76,
-79,
-79,
-77,
-77,
-79,
-79,
-78,
-78,
-74,
-74,
-74,
-74,
-75,
-64,
-73,
-73,
-74,
-74,
-75,
-75,
-75,
-75,
-71,
-71,
-72,
-72,
-71,
-71,
-70,
-70,
-69,
-58,
-66,
-78,
-71,
-71,
-68,
-68,
-68,
-68,
-66,
-66,
-61,
-61,
-65,
-65,
-64,
-64,
-62,
-62,
-62,
-62,
-63,
-63,
-62,
-62,
-61,
-61,
-56,
-56,
-60,
-60,
-54,
-54,
-52,
-52,
-54,
-54,
-54,
-54,
-52,
-52,
-50,
-50,
-49,
-49,
-47,
-47,
-48,
-48,
-45,
-45,
-46,
-46,
-43,
-43,
-42,
-42,
-40,
-40,
-39,
-39,
-37,
-37,
-36,
-36,
-35,
-35,
-32,
-32,
-33,
-33,
-31,
-31,
-28,
-28,
-28,
-28,
-27,
-27,
-24,
-24,
-24,
-24,
-23,
-12,
-23,
-11,
-16,
-16,
-19,
-19,
-16,
-16,
-15,
-15,
-12,
-12,
-10,
-10,
-9,
-9,
-4,
-4,
-7,
-7,
-1,
-1,
-3,
-3,
-3,
-3,
0,
0,
3,
3,
3,
3,
4,
4,
7,
7,
10,
-4,
12,
12,
10,
10,
10,
10,
14,
14,
14,
14,
18,
18,
18,
18,
21,
21,
21,
21,
24,
24,
30,
18,
29,
29,
28,
28,
26,
26,
31,
31,
33,
33,
32,
32,
34,
34,
36,
36,
39,
39,
36,
36,
41,
41,
40,
40,
41,
41,
52,
35,
52,
37,
48,
48,
48,
48,
49,
49,
51,
51,
51,
51,
52,
52,
52,
52,
53,
53,
57,
57,
56,
56,
59,
59,
56,
56,
56,
56,
59,
59,
61,
61,
63,
63,
62,
62,
65,
65,
65,
65,
63,
74,
67,
67,
67,
67,
69,
69,
67,
67,
67,
67,
70,
70,
71,
71,
71,
71,
72,
72,
72,
72,
75,
75,
71,
83,
68,
80,
73,
73,
74,
74,
75,
75,
75,
75,
74,
74,
76,
76,
73,
73,
76,
76,
77,
77,
74,
86,
81,
69,
76,
76,
77,
77,
77,
77,
76,
76,
76,
76,
73,
73,
72,
72,
75,
75,
75,
75,
75,
75,
75,
75,
77,
77,
75,
75,
72,
72,
72,
72,
76,
76,
69,
69,
71,
82,
72,
72,
71,
71,
74,
74,
72,
72,
69,
69,
69,
69,
70,
70,
68,
68,
68,
68,
65,
65,
66,
66,
66,
66,
65,
65,
65,
65,
63,
63,
63,
63,
64,
64,
59,
59,
60,
60,
58,
58,
52,
52,
55,
55,
54,
54,
54,
54,
50,
50,
50,
50,
50,
50,
48,
48,
47,
47,
46,
46,
43,
43,
45,
30,
41,
41,
37,
48,
38,
49,
41,
41,
38,
38,
36,
36,
35,
35,
37,
37,
33,
33,
29,
29,
31,
31,
29,
29,
26,
26,
34,
15,
26,
26,
24,
24,
21,
21,
17,
17,
16,
16,
12,
12,
15,
15,
11,
11,
13,
13,
11,
11,
6,
6,
5,
5,
4,
4,
6,
6,
3,
3,
2,
2,
-1,
-1,
-4,
-4,
-3,
-3,
-4,
-17,
-7,
-7,
-11,
3,
-11,
-11,
-12,
-12,
-13,
-13,
-15,
-15,
-18,
-18,
-17,
-17,
-23,
-23,
-21,
-21,
-25,
-25,
-27,
-27,
-27,
-27,
-28,
-28,
-29,
-29,
-28,
-28,
-30,
-30,
-35,
-35,
-35,
-35,
-33,
-33,
-34,
-45,
-38,
-38,
-39,
-39,
-43,
-43,
-41,
-41,
-44,
-44,
-43,
-43,
-49,
-49,
-46,
-46,
-47,
-47,
-52,
-65,
-52,
-52,
-52,
-63,
-55,
-55,
-57,
-45,
-52,
-52,
-57,
-57,
-58,
-58,
-60,
-60,
-58,
-58,
-63,
-63,
-63,
-63,
-62,
-62,
-53,
-75,
-63,
-63,
-67,
-67,
-65,
-65,
-67,
-67,
-68,
-68,
-68,
-68,
-69,
-69,
-66,
-66,
-69,
-69,
-76,
-76,
-74,
-74,
-71,
-71,
-73,
-73,
-75,
-75,
-77,
-77,
-73,
-73,
-75,
-75,
-74,
-74,
-76,
-76,
-79,
-68,
-77,
-77,
-73,
-73,
-76,
-76,
-79,
-79,
-77,
-77,
-79,
-79,
-78,
-78,
-75,
-75,
-79,
-79,
-77,
-77,
-76,
-76,
-79,
-79,
-77,
-77,
-77,
-77,
-75,
-75,
-76,
-76,
-77,
-77,
-78,
-78,
-76,
-76,
-76,
-76,
-76,
-76,
-76,
-76,
-76,
-76,
-76,
-76,
-74,
-74,
-76,
-76,
-77,
-77,
-70,
-70,
-75,
-75,
-73,
-73,
-70,
-70,
-75,
-75,
-70,
-70,
-73,
-62,
-70,
-70,
-67,
-78,
-63,
-80,
-62,
-74,
-65,
-65,
-62,
-62,
-63,
-63,
-62,
-62,
-62,
-62,
-62,
-62,
-57,
-69,
-57,
-57,
-59,
-59,
-56,
-56,
-58,
-58,
-56,
-56,
-53,
-53,
-55,
-55,
-50,
-50,
-53,
-53,
-50,
-50,
-48,
-48,
-49,
-49,
-48,
-48,
-43,
-43,
-42,
-42,
-43,
-43,
-42,
-42,
-41,
-30,
-39,
-39,
-36,
-47,
-34,
-34,
-34,
-34,
-31,
-31,
-30,
-30,
-26,
-26,
-28,
-28,
-27,
-27,
-28,
-28,
-24,
-24,
-25,
-25,
-16,
-27,
-25,
-14,
-17,
-17,
-17,
-17,
-15,
-15,
-15,
-15,
-16,
-5,
-8,
-8,
-9,
-9,
-7,
-7,
-8,
-8,
-4,
-4,
-4,
-4,
-2,
-2,
2,
2,
2,
2,
5,
5,
6,
6,
6,
6,
-4,
20,
12,
12,
13,
13,
9,
22,
14,
14,
14,
14,
19,
19,
22,
7,
18,
18,
22,
22,
26,
26,
25,
25,
29,
29,
27,
27,
32,
32,
30,
30,
33,
33,
34,
34,
34,
34,
38,
38,
39,
39,
38,
38,
39,
39,
41,
41,
41,
41,
47,
47,
49,
49,
49,
49,
49,
49,
49,
49,
50,
50,
48,
59,
53,
64,
54,
54,
52,
64,
62,
50,
53,
64,
59,
59,
61,
61,
58,
58,
61,
61,
61,
61,
64,
64,
65,
65,
62,
62,
67,
67,
66,
66,
68,
68,
65,
65,
69,
69,
70,
70,
70,
70,
67,
67,
69,
69,
71,
71,
74,
74,
69,
69,
72,
72,
72,
72,
76,
76,
75,
75,
78,
78,
72,
72,
77,
66,
80,
67,
74,
74,
76,
76,
77,
77,
74,
74,
75,
75,
75,
75,
76,
76,
71,
85,
77,
77,
74,
74,
76,
76,
79,
79,
76,
76,
75,
86,
74,
85,
76,
76,
81,
68,
73,
73,
74,
74,
74,
74,
74,
74,
70,
70,
72,
72,
71,
71,
73,
73,
71,
71,
71,
71,
68,
68,
71,
71,
73,
73,
70,
70,
66,
66,
66,
66,
68,
54,
66,
66,
63,
63,
64,
64,
62,
62,
61,
61,
60,
60,
60,
60,
54,
54,
59,
59,
58,
58,
59,
59,
56,
56,
55,
55,
52,
52,
50,
50,
49,
49,
49,
49,
46,
46,
45,
45,
45,
45,
46,
46,
42,
42,
41,
41,
42,
42,
40,
40,
39,
39,
35,
35,
37,
37,
34,
34,
33,
33,
30,
30,
31,
31,
33,
18,
30,
30,
26,
26,
24,
24,
23,
23,
17,
17,
18,
7,
20,
20,
15,
15,
17,
17,
16,
16,
11,
11,
11,
0,
8,
8,
7,
7,
3,
15,
4,
4,
6,
6,
-1,
-1,
-1,
-1,
3,
-10,
-4,
-4,
-5,
-5,
-3,
-14,
-10,
-10,
-7,
-22,
-8,
-8,
-14,
-14,
-14,
-14,
-22,
-7,
-20,
-20,
-19,
-32,
-23,
-10,
-24,
-24,
-26,
-26,
-22,
-22,
-24,
-24,
-27,
-27,
-28,
-28,
-33,
-33,
-31,
-31,
-31,
-31,
-36,
-25,
-39,
-39,
-38,
-38,
-36,
-47,
-40,
-40,
-40,
-40,
-43,
-43,
-45,
-45,
-46,
-46,
-46,
-46,
-48,
-48,
-50,
-50,
-51,
-51,
-54,
-54,
-53,
-53,
-56,
-56,
-54,
-54,
-59,
-59,
-57,
-57,
-56,
-68,
-58,
-58,
-60,
-60,
-63,
-52,
-62,
-62,
-65,
-65,
-65,
-65,
-64,
-64,
-69,
-69,
-67,
-67,
-67,
-67,
-69,
-81,
-68,
-68,
-67,
-67,
-90,
-49,
-52,
-102,
-73,
-62,
-69,
-82,
-77,
-65,
-75,
-75,
-74,
-74,
-73,
-73,
-78,
-62,
-71,
-82,
-73,
-73,
-79,
-90,
-109,
-47,
-72,
-83,
-76,
-76,
-76,
-76,
-77,
-77,
-78,
-78,
-69,
-85,
-79,
-79,
-79,
-64,
-60,
-95,
-80,
-80,
-114,
-50,
-94,
-65,
-81,
-70,
-79,
-79,
-77,
-77,
-79,
-79,
-77,
-77,
-74,
-74,
-77,
-77,
-75,
-75,
-90,
-59,
-74,
-74,
-73,
-73,
-76,
-76,
-77,
-77,
-75,
-75,
-75,
-75,
-74,
-74,
-67,
-79,
-75,
-75,
-71,
-71,
-72,
-72,
-73,
-60,
-55,
-84,
-70,
-70,
-66,
-66,
-69,
-69,
-65,
-78,
-66,
-66,
-64,
-64,
-57,
-72,
-63,
-63,
-62,
-62,
-61,
-61,
-62,
-62,
-58,
-58,
-55,
-55,
-61,
-61,
-57,
-57,
-55,
-55,
-56,
-56,
-53,
-53,
-52,
-52,
-50,
-50,
-46,
-57,
-49,
-49,
-43,
-43,
-48,
-48,
-44,
-44,
-44,
-44,
-42,
-31,
-37,
-37,
-40,
-40,
-37,
-37,
-36,
-36,
-35,
-35,
-35,
-35,
-30,
-30,
-31,
-18,
-26,
-37,
-24,
-24,
-25,
-25,
-29,
-12,
-22,
-22,
-19,
-19,
-21,
-21,
-23,
-23,
-16,
-16,
-14,
-14,
-12,
-12,
-11,
-11,
-15,
-15,
-5,
-5,
-10,
-10,
-6,
-6,
-5,
-5,
1,
1,
0,
0,
0,
0,
2,
2,
2,
2,
4,
4,
12,
-1,
11,
-4,
9,
9,
10,
10,
12,
12,
13,
13,
16,
16,
20,
20,
18,
18,
18,
18,
25,
25,
20,
31,
28,
28,
27,
27,
28,
28,
28,
28,
32,
32,
34,
34,
31,
31,
34,
34,
34,
34,
37,
37,
39,
39,
40,
40,
39,
39,
45,
45,
45,
45,
63,
27,
20,
71,
49,
49,
51,
51,
53,
53,
50,
50,
50,
50,
54,
54,
54,
54,
55,
55,
55,
55,
56,
56,
25,
85,
45,
70,
63,
63,
58,
58,
65,
54,
57,
72,
67,
67,
65,
65,
69,
69,
70,
70,
68,
68,
35,
94,
54,
81,
67,
67,
69,
69,
68,
68,
71,
71,
73,
73,
73,
73,
69,
69,
69,
69,
72,
72,
73,
73,
75,
75,
70,
70,
72,
86,
77,
77,
72,
72,
77,
77,
74,
74,
78,
78,
77,
77,
75,
75,
74,
74,
79,
79,
74,
74,
76,
76,
72,
89,
73,
84,
72,
83,
73,
73,
75,
75,
75,
75,
74,
74,
74,
74,
74,
74,
76,
76,
75,
75,
74,
74,
73,
84,
60,
84,
68,
81,
72,
72,
70,
70,
73,
73,
70,
70,
69,
69,
70,
70,
67,
67,
65,
65,
66,
66,
67,
67,
65,
65,
65,
65,
61,
61,
63,
63,
61,
61,
60,
60,
62,
50,
55,
55,
60,
48,
55,
55,
56,
56,
55,
55,
53,
53,
52,
52,
51,
51,
52,
52,
48,
48,
48,
48,
49,
49,
44,
44,
44,
44,
45,
45,
43,
43,
41,
41,
38,
38,
38,
38,
37,
37,
34,
34,
31,
31,
31,
31,
33,
33,
25,
25,
29,
29,
28,
17,
23,
23,
24,
12,
22,
22,
19,
19,
18,
18,
19,
19,
15,
15,
14,
14,
14,
14,
12,
12,
10,
10,
10,
10,
7,
7,
4,
4,
6,
6,
5,
-6,
1,
1,
0,
0,
-2,
-2,
1,
-15,
-8,
4,
-9,
-9,
-22,
4,
-9,
-9,
-15,
-15,
-16,
-5,
-16,
-16,
-18,
-18,
-18,
-18,
-19,
-19,
-21,
-21,
-18,
-29,
-24,
-24,
-25,
-36,
-30,
-30,
-28,
-39,
-30,
-30,
-46,
-19,
-14,
-62,
-41,
-20,
-36,
-36,
-36,
-36,
-40,
-40,
-39,
-39,
-41,
-41,
-42,
-42,
-45,
-45,
-42,
-42,
-23,
-69,
-32,
-77,
-51,
-51,
-53,
-53,
-48,
-48,
-52,
-52,
-54,
-54,
-55,
-55,
-55,
-55,
-57,
-57,
-57,
-57,
-59,
-59,
-89,
-38,
-69,
-48,
-65,
-53,
-61,
-61,
-63,
-63,
-65,
-65,
-67,
-67,
-65,
-76,
-69,
-69,
-65,
-65,
-69,
-69,
-69,
-69,
-69,
