5-grundlagen-opAmps/data/ALL0017/A0017CH1.CSV

Memory Length,4000,
Trigger Level,0.00000e+00,
Source,CH1,
Probe,1.0X,
Vertical Units,V,
Vertical Scale,5.00000e-02,
Vertical Position,0.00000e+00,
Horizontal Units,S,
Horizontal Scale,5.00000e-05,
Horizontal Position,5.0000000e-05,
Horizontal Mode,Main,
Sampling Period,2.00000e-07,
Firmware,V1.14,
Time, ,
Mode,Fast,
Waveform Data,
-5,
-5,
-17,
-12,
-12,
-11,
-11,
-9,
-20,
-13,
-13,
-11,
-11,
-17,
-17,
-13,
-13,
-17,
-17,
-11,
-23,
-22,
-10,
-22,
-11,
-15,
-15,
-23,
-23,
-21,
-21,
-18,
-18,
-17,
-28,
-18,
-18,
-16,
-27,
-18,
-18,
-27,
-16,
-23,
-23,
-19,
-19,
-17,
-29,
-21,
-21,
-23,
-23,
-23,
-23,
-22,
-33,
-26,
-26,
-26,
-26,
-23,
-23,
-25,
-25,
-22,
-35,
-28,
-28,
-25,
-25,
-27,
-27,
-28,
-28,
-28,
-28,
-27,
-27,
-28,
-28,
-35,
-22,
-35,
-21,
-27,
-27,
-34,
-23,
-33,
-33,
-28,
-28,
-29,
-29,
-27,
-27,
-26,
-26,
-27,
-27,
-34,
-34,
-34,
-34,
-23,
-39,
-27,
-38,
-26,
-38,
-30,
-30,
-27,
-27,
-32,
-32,
-30,
-30,
-30,
-30,
-31,
-31,
-23,
-38,
-25,
-25,
-31,
-31,
-25,
-25,
-34,
-34,
-31,
-31,
-27,
-27,
-23,
-35,
-30,
-30,
-29,
-29,
-29,
-29,
-21,
-35,
-28,
-28,
-29,
-29,
-24,
-24,
-26,
-26,
-22,
-22,
-23,
-34,
-26,
-26,
-26,
-26,
-25,
-25,
-20,
-20,
-26,
-26,
-18,
-30,
-26,
-26,
-22,
-22,
-19,
-19,
-27,
-14,
-24,
-24,
-19,
-19,
-13,
-27,
-20,
-20,
-16,
-16,
-18,
-18,
-20,
-20,
-19,
-19,
-15,
-15,
-13,
-13,
-10,
-21,
-14,
-14,
-11,
-11,
-12,
-12,
-10,
-10,
-11,
-11,
-13,
-13,
-9,
-9,
-8,
-8,
-13,
-13,
-10,
-10,
-11,
-11,
-2,
-15,
-11,
-11,
-6,
-6,
-8,
-8,
-6,
-6,
-4,
-4,
1,
-10,
-4,
-4,
-2,
-2,
1,
1,
-3,
-3,
-4,
-4,
-3,
-3,
-8,
8,
2,
2,
3,
3,
0,
0,
0,
0,
6,
-5,
3,
3,
5,
5,
3,
3,
7,
7,
6,
6,
1,
12,
12,
0,
5,
5,
3,
14,
7,
7,
6,
6,
12,
12,
10,
10,
13,
13,
8,
8,
17,
6,
16,
5,
13,
13,
19,
6,
18,
6,
12,
12,
14,
14,
16,
16,
10,
22,
11,
23,
17,
17,
20,
9,
14,
14,
14,
14,
15,
15,
17,
17,
19,
19,
18,
18,
18,
18,
16,
16,
18,
18,
20,
20,
14,
14,
19,
19,
19,
19,
20,
20,
19,
19,
21,
21,
18,
18,
20,
20,
24,
24,
23,
23,
19,
19,
23,
23,
26,
12,
16,
16,
21,
21,
19,
19,
17,
17,
16,
16,
21,
21,
27,
13,
13,
26,
16,
16,
17,
17,
20,
20,
20,
20,
20,
20,
19,
19,
18,
18,
19,
19,
14,
14,
10,
22,
14,
14,
12,
12,
22,
9,
17,
17,
13,
13,
11,
11,
15,
15,
14,
14,
12,
12,
12,
12,
12,
12,
15,
15,
7,
18,
11,
11,
9,
9,
11,
11,
10,
10,
10,
10,
11,
11,
7,
7,
9,
9,
6,
6,
13,
1,
11,
11,
2,
2,
9,
9,
9,
9,
1,
13,
0,
0,
3,
3,
-2,
-2,
1,
1,
5,
5,
2,
2,
-4,
8,
0,
0,
-8,
4,
-3,
-3,
-3,
-3,
-2,
-2,
-4,
-4,
-2,
-2,
-5,
-5,
-8,
-8,
-6,
-6,
-3,
-3,
-5,
-5,
-6,
-6,
-11,
-11,
-6,
-6,
-11,
-11,
-10,
-10,
-11,
-11,
-13,
-13,
-17,
-5,
-14,
-14,
-13,
-13,
-16,
-16,
-13,
-13,
-13,
-13,
-13,
-13,
-11,
-11,
-21,
-10,
-20,
-20,
-18,
-18,
-14,
-25,
-21,
-21,
-18,
-18,
-19,
-19,
-19,
-19,
-20,
-20,
-24,
-13,
-19,
-19,
-26,
-26,
-20,
-20,
-20,
-31,
-22,
-22,
-21,
-21,
-28,
-28,
-23,
-23,
-29,
-29,
-24,
-24,
-31,
-20,
-31,
-31,
-27,
-27,
-34,
-21,
-32,
-21,
-26,
-26,
-27,
-27,
-29,
-29,
-23,
-36,
-26,
-26,
-30,
-30,
-33,
-33,
-28,
-28,
-25,
-36,
-30,
-30,
-30,
-30,
-31,
-31,
-32,
-32,
-29,
-29,
-29,
-29,
-30,
-30,
-32,
-32,
-26,
-37,
-32,
-32,
-29,
-29,
-32,
-32,
-31,
-31,
-29,
-29,
-30,
-30,
-32,
-32,
-33,
-33,
-36,
-24,
-29,
-29,
-35,
-21,
-33,
-33,
-27,
-27,
-29,
-29,
-29,
-29,
-23,
-35,
-26,
-26,
-28,
-28,
-35,
-22,
-24,
-24,
-24,
-24,
-24,
-24,
-29,
-29,
-27,
-27,
-27,
-27,
-27,
-27,
-28,
-28,
-24,
-24,
-21,
-21,
-19,
-30,
-21,
-21,
-18,
-29,
-26,
-26,
-22,
-22,
-20,
-20,
-18,
-29,
-20,
-20,
-24,
-24,
-22,
-22,
-16,
-16,
-22,
-11,
-19,
-19,
-12,
-24,
-20,
-20,
-14,
-14,
-15,
-15,
-18,
-18,
-14,
-14,
-13,
-13,
-15,
-15,
-12,
-12,
-9,
-9,
-17,
-6,
-15,
-15,
-7,
-7,
-13,
-13,
-16,
-3,
-4,
-15,
-7,
-7,
-8,
-8,
-6,
-6,
-6,
-6,
-8,
-8,
-6,
-6,
1,
-10,
-2,
-2,
1,
1,
-6,
-6,
-3,
-3,
-1,
-1,
-1,
-1,
0,
0,
0,
0,
4,
4,
4,
4,
0,
0,
2,
2,
-2,
10,
6,
6,
4,
4,
8,
8,
6,
6,
7,
7,
8,
8,
10,
10,
10,
10,
9,
9,
11,
11,
9,
9,
9,
9,
5,
16,
5,
17,
13,
13,
16,
5,
12,
12,
13,
13,
14,
14,
9,
9,
12,
12,
16,
16,
16,
16,
15,
15,
15,
15,
17,
17,
14,
14,
15,
15,
16,
16,
13,
25,
19,
19,
20,
20,
19,
19,
19,
19,
22,
22,
25,
12,
17,
17,
23,
12,
24,
13,
17,
17,
24,
12,
22,
22,
13,
28,
17,
17,
20,
20,
24,
24,
17,
17,
20,
20,
17,
17,
20,
20,
19,
19,
22,
22,
22,
22,
19,
19,
20,
20,
19,
19,
17,
17,
20,
20,
16,
16,
19,
19,
19,
19,
21,
10,
14,
26,
22,
11,
21,
21,
22,
11,
16,
16,
17,
17,
19,
19,
14,
14,
20,
20,
13,
13,
11,
11,
13,
13,
15,
15,
18,
7,
9,
9,
16,
16,
10,
10,
15,
15,
14,
14,
12,
12,
17,
5,
15,
4,
9,
9,
7,
7,
9,
9,
3,
15,
2,
14,
10,
10,
12,
1,
3,
3,
0,
11,
1,
12,
5,
5,
5,
5,
2,
2,
2,
2,
5,
-6,
1,
1,
1,
1,
-5,
6,
1,
1,
-3,
-3,
1,
1,
-5,
-5,
-2,
-2,
-6,
-6,
-4,
-4,
0,
-11,
-3,
-3,
-11,
1,
-3,
-3,
-6,
-6,
-12,
-1,
-7,
-7,
-8,
-8,
-9,
-9,
-5,
-17,
-10,
-10,
-12,
-12,
-12,
-12,
-13,
-13,
-17,
-17,
-12,
-12,
-14,
-14,
-15,
-15,
-17,
-17,
-13,
-13,
-15,
-15,
-23,
-11,
-17,
-17,
-16,
-16,
-22,
-22,
-15,
-15,
-20,
-20,
-23,
-23,
-24,
-24,
-20,
-20,
-25,
-25,
-28,
-16,
-25,
-25,
-28,
-17,
-30,
-17,
-21,
-21,
-26,
-26,
-28,
-28,
-20,
-31,
-21,
-32,
-24,
-24,
-31,
-19,
-25,
-25,
-24,
-24,
-26,
-26,
-30,
-30,
-28,
-28,
-29,
-29,
-30,
-30,
-27,
-27,
-30,
-30,
-30,
-30,
-24,
-36,
-29,
-29,
-28,
-28,
-32,
-32,
-28,
-28,
-31,
-31,
-28,
-28,
-34,
-23,
-32,
-32,
-33,
-33,
-30,
-30,
-34,
-34,
-32,
-32,
-27,
-27,
-34,
-22,
-29,
-29,
-28,
-28,
-28,
-28,
-28,
-28,
-35,
-24,
-27,
-27,
-29,
-29,
-28,
-28,
-31,
-31,
-33,
-22,
-32,
-21,
-30,
-30,
-30,
-30,
-30,
-30,
-26,
-26,
-24,
-24,
-23,
-34,
-21,
-32,
-33,
-19,
-30,
-30,
-21,
-33,
-21,
-33,
-26,
-26,
-22,
-22,
-23,
-23,
-25,
-25,
-25,
-25,
-23,
-23,
-21,
-21,
-23,
-23,
-17,
-29,
-21,
-21,
-20,
-20,
-20,
-20,
-21,
-21,
-19,
-19,
-17,
-17,
-20,
-20,
-22,
-22,
-22,
-9,
-15,
-15,
-18,
-18,
-22,
-11,
-11,
-11,
-15,
-15,
-12,
-12,
-8,
-19,
-9,
-9,
-13,
-13,
-16,
-16,
-5,
-17,
-11,
-11,
-3,
-17,
-12,
-12,
-9,
-9,
-7,
-7,
-10,
-10,
-11,
1,
-4,
-4,
-1,
-12,
-2,
-2,
-1,
-1,
-2,
-2,
-7,
-7,
-4,
-4,
1,
1,
3,
-8,
2,
2,
0,
0,
3,
3,
4,
4,
3,
3,
2,
2,
5,
5,
5,
5,
8,
8,
1,
1,
3,
3,
7,
7,
11,
11,
5,
5,
8,
8,
8,
8,
4,
15,
6,
6,
15,
4,
9,
9,
10,
10,
14,
14,
11,
11,
10,
10,
12,
12,
9,
9,
12,
12,
15,
15,
17,
17,
14,
14,
19,
19,
18,
18,
20,
9,
13,
13,
20,
20,
18,
18,
14,
14,
24,
11,
18,
18,
14,
14,
19,
19,
15,
15,
20,
20,
19,
19,
23,
12,
17,
17,
23,
12,
25,
12,
21,
21,
25,
14,
24,
24,
20,
20,
21,
21,
22,
22,
18,
18,
15,
28,
24,
13,
24,
24,
19,
19,
15,
27,
22,
22,
18,
18,
18,
18,
21,
21,
17,
17,
18,
18,
21,
21,
20,
20,
13,
25,
19,
19,
15,
26,
18,
18,
19,
19,
17,
17,
18,
18,
18,
18,
20,
9,
20,
20,
14,
14,
21,
8,
19,
8,
11,
11,
15,
15,
13,
13,
7,
20,
11,
11,
13,
13,
18,
6,
7,
7,
10,
10,
6,
6,
11,
11,
10,
10,
12,
12,
11,
11,
12,
1,
7,
7,
5,
5,
3,
3,
3,
3,
0,
0,
8,
8,
5,
5,
3,
3,
-2,
10,
2,
2,
4,
4,
2,
2,
-2,
-2,
0,
0,
0,
0,
-4,
-4,
0,
0,
-6,
-6,
-4,
-4,
-2,
-2,
-4,
-4,
-8,
-8,
-4,
-4,
-6,
-6,
-10,
-10,
-3,
-15,
-5,
-5,
-13,
-13,
-4,
-16,
-6,
-17,
-16,
-16,
-11,
-11,
-10,
-10,
-12,
-12,
-10,
-10,
-12,
-12,
-12,
-12,
-17,
-17,
-17,
-17,
-21,
-9,
-15,
-15,
-18,
-18,
-19,
-19,
-20,
-20,
-17,
-17,
-17,
-17,
-25,
-14,
-22,
-22,
-17,
-17,
-22,
-22,
-17,
-29,
-24,
-24,
-23,
-23,
-27,
-16,
-23,
-23,
-27,
-27,
-28,
-28,
-27,
-27,
-30,
-19,
-31,
-18,
-27,
-27,
-25,
-25,
-29,
-29,
-20,
-33,
-21,
-33,
-26,
-26,
-32,
-32,
-26,
-26,
-27,
-27,
-28,
-28,
-30,
-30,
-31,
-31,
-31,
-31,
-31,
-31,
-29,
-29,
-29,
-29,
-32,
-32,
-25,
-37,
-29,
-29,
-29,
-29,
-31,
-31,
-28,
-28,
-33,
-33,
-28,
-28,
-32,
-32,
-34,
-22,
-34,
-34,
-29,
-29,
-35,
-35,
-33,
-33,
-26,
-26,
-31,
-31,
-30,
-30,
-26,
-26,
-29,
-29,
-28,
-28,
-34,
-22,
-26,
-26,
-26,
-26,
-27,
-27,
-31,
-31,
-31,
-31,
-29,
-29,
-29,
-29,
-28,
-28,
-29,
-29,
-24,
-24,
-20,
-31,
-22,
-22,
-20,
-31,
-31,
-16,
-26,
-26,
-20,
-31,
-20,
-31,
-23,
-23,
-22,
-22,
-22,
-22,
-22,
-22,
-23,
-23,
-23,
-23,
-16,
-16,
-21,
-21,
-16,
-16,
-18,
-18,
-18,
-18,
-17,
-17,
-19,
-19,
-17,
-17,
-16,
-16,
-13,
-13,
-21,
-8,
-21,
-8,
-10,
-10,
-18,
-18,
-18,
-18,
-9,
-9,
-11,
-11,
-12,
-12,
-6,
-6,
-9,
-9,
-11,
-11,
-11,
-11,
-3,
-14,
-4,
-4,
-1,
-12,
-8,
-8,
-6,
-6,
-5,
-5,
-4,
-4,
-4,
-4,
-3,
-3,
2,
2,
2,
2,
-3,
-3,
1,
1,
-6,
8,
3,
3,
2,
2,
8,
-4,
2,
2,
3,
3,
6,
6,
7,
7,
8,
8,
6,
6,
8,
8,
8,
8,
9,
9,
3,
15,
6,
6,
9,
9,
12,
12,
10,
10,
9,
9,
11,
11,
9,
9,
10,
10,
13,
13,
14,
14,
13,
13,
13,
13,
15,
15,
14,
14,
16,
16,
12,
23,
12,
23,
16,
16,
20,
20,
16,
16,
19,
19,
23,
10,
24,
10,
15,
15,
23,
12,
20,
20,
16,
16,
23,
23,
18,
18,
13,
26,
19,
19,
21,
21,
24,
13,
14,
26,
19,
19,
16,
16,
21,
21,
23,
23,
24,
24,
23,
23,
23,
23,
20,
20,
18,
18,
16,
16,
20,
20,
15,
15,
25,
12,
22,
22,
19,
19,
12,
25,
21,
21,
19,
19,
19,
19,
16,
16,
17,
17,
19,
19,
15,
15,
17,
17,
13,
13,
14,
14,
15,
15,
17,
17,
17,
17,
12,
12,
15,
15,
12,
12,
20,
6,
18,
18,
12,
12,
19,
8,
17,
6,
10,
10,
8,
19,
8,
8,
6,
17,
6,
6,
15,
4,
14,
3,
5,
16,
4,
4,
5,
5,
6,
6,
5,
5,
5,
5,
5,
5,
7,
7,
1,
1,
3,
3,
-1,
-1,
5,
5,
1,
1,
2,
2,
0,
0,
0,
0,
-2,
-2,
-2,
-2,
3,
-9,
2,
2,
-10,
4,
0,
-11,
1,
1,
-11,
1,
-4,
-4,
-5,
-5,
-8,
-8,
-4,
-4,
-8,
-8,
-8,
-8,
-11,
-11,
-9,
-9,
-17,
-4,
-8,
-8,
-10,
-10,
-11,
-11,
-12,
-12,
-11,
-11,
-13,
-13,
-19,
-8,
-14,
-14,
-13,
-13,
-16,
-16,
-14,
-14,
-18,
-18,
-18,
-18,
-22,
-22,
-18,
-18,
-21,
-21,
-22,
-22,
-24,
-24,
-26,
-14,
-26,
-26,
-19,
-19,
-22,
-22,
-24,
-24,
-17,
-29,
-19,
-30,
-24,
-24,
-31,
-18,
-22,
-22,
-21,
-21,
-23,
-23,
-27,
-27,
-29,
-29,
-29,
-29,
-27,
-27,
-28,
-28,
-28,
-28,
-26,
-26,
-22,
-35,
-26,
-26,
-24,
-35,
-32,
-32,
-28,
-28,
-28,
-28,
-27,
-27,
-29,
-29,
-33,
-33,
-32,
-32,
-24,
-36,
-35,
-22,
-34,
-34,
-22,
-38,
-32,
-32,
-30,
-30,
-27,
-27,
-32,
-32,
-30,
-30,
-33,
-33,
-29,
-29,
-31,
-31,
-23,
-36,
-35,
-22,
-34,
-23,
-28,
-28,
-32,
-32,
-35,
-24,
-28,
-28,
-25,
-36,
-27,
-27,
-29,
-29,
-25,
-37,
-33,
-33,
-26,
-26,
-25,
-25,
-20,
-35,
-27,
-27,
-28,
-28,
-27,
-27,
-22,
-33,
-26,
-26,
-24,
-24,
-21,
-21,
-24,
-24,
-20,
-20,
-24,
-24,
-27,
-27,
-24,
-24,
-20,
-20,
-20,
-20,
-21,
-21,
-19,
-19,
-24,
-24,
-21,
-21,
-17,
-17,
-20,
-20,
-21,
-21,
-18,
-18,
-13,
-13,
-17,
-17,
-15,
-15,
-12,
-24,
-21,
-8,
-17,
-17,
-9,
-9,
-9,
-9,
-9,
-9,
-10,
-21,
-9,
-9,
-10,
-10,
-6,
-6,
-7,
-7,
-8,
-8,
-5,
-5,
-4,
-4,
-9,
2,
-7,
-7,
-7,
-7,
-1,
-1,
-6,
-6,
-3,
-3,
-4,
-4,
-3,
-3,
-1,
-1,
3,
-8,
-1,
-1,
-2,
-2,
3,
3,
2,
2,
-1,
-1,
2,
2,
-2,
-2,
7,
7,
4,
4,
5,
5,
1,
12,
9,
9,
4,
4,
6,
6,
8,
8,
7,
7,
8,
8,
7,
7,
11,
11,
6,
6,
9,
9,
8,
8,
12,
12,
13,
13,
10,
10,
13,
13,
14,
14,
19,
8,
18,
6,
12,
12,
19,
19,
18,
18,
13,
13,
15,
15,
15,
15,
11,
24,
15,
15,
21,
10,
22,
22,
12,
24,
16,
16,
12,
25,
18,
18,
17,
17,
21,
21,
17,
17,
22,
22,
18,
18,
13,
26,
14,
14,
21,
21,
15,
15,
24,
24,
19,
19,
17,
17,
14,
26,
20,
20,
20,
20,
18,
18,
14,
27,
18,
18,
18,
18,
15,
26,
18,
18,
17,
17,
18,
18,
21,
21,
20,
20,
19,
19,
17,
17,
21,
21,
11,
24,
19,
19,
17,
17,
16,
16,
19,
19,
21,
21,
14,
14,
10,
21,
16,
16,
16,
16,
13,
13,
17,
17,
13,
13,
13,
13,
10,
10,
11,
11,
12,
12,
10,
10,
7,
18,
8,
8,
8,
8,
8,
8,
9,
9,
6,
6,
12,
12,
13,
1,
8,
8,
2,
13,
8,
8,
7,
7,
3,
3,
7,
7,
4,
4,
-1,
10,
4,
4,
5,
5,
0,
0,
0,
0,
5,
-6,
0,
0,
1,
1,
1,
1,
-1,
-1,
-7,
-7,
-6,
-6,
-7,
-7,
-5,
-5,
-9,
-9,
-5,
-5,
-11,
0,
-11,
-11,
-4,
-4,
-14,
-2,
-11,
-11,
-7,
-7,
-9,
-9,
-7,
-7,
-14,
-14,
-9,
-9,
-13,
-13,
-12,
-12,
-18,
-18,
-20,
-8,
-17,
-17,
-19,
-19,
-17,
-17,
-18,
-18,
-15,
-15,
-15,
-15,
-15,
-15,
-14,
-14,
-24,
-13,
-22,
-22,
-17,
-17,
-14,
-28,
-21,
-21,
-19,
-19,
-21,
-21,
-23,
-23,
-22,
-22,
-23,
-23,
-21,
-21,
-23,
-23,
-19,
-31,
-26,
-26,
-22,
-22,
-28,
-28,
-27,
-27,
-23,
-23,
-26,
-26,
-27,
-27,
-32,
-20,
-31,
-20,
-25,
-36,
-33,
-33,
-31,
-31,
-25,
-25,
-30,
-30,
-29,
-29,
-24,
-36,
-30,
-30,
-32,
-32,
-32,
-32,
-26,
-37,
-29,
-29,
-23,
-37,
-34,
-23,
-30,
-30,
-30,
-30,
-32,
-32,
-34,
-23,
-29,
-29,
-26,
-37,
-29,
-29,
-31,
-31,
-29,
-29,
-34,
-23,
-28,
-28,
-30,
-30,
-24,
-36,
-30,
-30,
-31,
-31,
-28,
-28,
-23,
-36,
-27,
-27,
-26,
-26,
-25,
-25,
-29,
-29,
-26,
-26,
-28,
-28,
-31,
-19,
-27,
-27,
-25,
-25,
-23,
-23,
-27,
-27,
-20,
-31,
-26,
-26,
-25,
-25,
-25,
-25,
-23,
-23,
-25,
-25,
-23,
-23,
-16,
-30,
-22,
-22,
-22,
-22,
-18,
-18,
-25,
-25,
-20,
-20,
-17,
-17,
-14,
-26,
-18,
-18,
-15,
-15,
-14,
-14,
-13,
-13,
-12,
-23,
-14,
-14,
-13,
-13,
-13,
-13,
-10,
-10,
-16,
-16,
-16,
-5,
-13,
-13,
-7,
-7,
-12,
-12,
-13,
-13,
-6,
-6,
-11,
-11,
-8,
-8,
-3,
-15,
-10,
-10,
-12,
-1,
-1,
-1,
-3,
-3,
-8,
-8,
-4,
-4,
-3,
-3,
-2,
-2,
-2,
-2,
0,
0,
2,
2,
3,
3,
0,
0,
2,
2,
2,
2,
5,
5,
6,
6,
0,
0,
7,
7,
9,
9,
0,
11,
2,
2,
3,
3,
12,
0,
6,
6,
9,
9,
6,
6,
11,
11,
13,
13,
13,
13,
11,
11,
11,
11,
12,
12,
12,
12,
9,
9,
9,
9,
11,
11,
17,
6,
13,
13,
14,
14,
13,
13,
16,
16,
16,
16,
17,
17,
14,
14,
19,
19,
21,
21,
12,
23,
21,
21,
18,
18,
17,
17,
18,
18,
16,
16,
19,
19,
18,
18,
19,
19,
18,
18,
28,
13,
26,
14,
17,
17,
27,
13,
22,
22,
19,
19,
19,
19,
19,
19,
16,
16,
18,
18,
26,
13,
23,
23,
14,
26,
16,
27,
15,
15,
18,
18,
19,
19,
20,
20,
17,
17,
19,
19,
19,
19,
15,
15,
12,
23,
20,
20,
16,
16,
21,
21,
18,
18,
16,
16,
15,
15,
16,
16,
19,
8,
18,
18,
10,
21,
18,
18,
20,
20,
9,
21,
13,
13,
13,
13,
7,
19,
11,
11,
14,
14,
14,
14,
5,
17,
10,
10,
4,
17,
12,
12,
8,
8,
8,
8,
10,
10,
9,
9,
4,
4,
4,
4,
3,
3,
8,
8,
5,
5,
5,
5,
1,
1,
5,
5,
-1,
-1,
2,
2,
7,
-7,
5,
5,
-6,
9,
2,
2,
3,
3,
-6,
5,
1,
1,
-3,
-3,
-4,
-4,
-2,
-2,
-2,
-2,
-4,
-4,
-10,
-10,
-9,
-9,
-12,
0,
-5,
-5,
-7,
-7,
-9,
-9,
-8,
-8,
-8,
-8,
-11,
-11,
-17,
-6,
-16,
-16,
-12,
-12,
-19,
-7,
-9,
-21,
-13,
-13,
-18,
-18,
-22,
-10,
-14,
-14,
-16,
-16,
-19,
-19,
-21,
-10,
-21,
-21,
-19,
-19,
-23,
-23,
-20,
-20,
-23,
-23,
-20,
-20,
-19,
-19,
-19,
-19,
-23,
-23,
-25,
-25,
-20,
-20,
-28,
-17,
-22,
-22,
-22,
-22,
-26,
-26,
-23,
-23,
-22,
-22,
-27,
-27,
-31,
-31,
-26,
-26,
-28,
-28,
-29,
-29,
-25,
-25,
-25,
-25,
-30,
-30,
-32,
-21,
-32,
-32,
-32,
-32,
-34,
-23,
-31,
-31,
-34,
-21,
-30,
-30,
-30,
-30,
-33,
-33,
-32,
-32,
-26,
-26,
-29,
-29,
-30,
-30,
-35,
-23,
-28,
-28,
-28,
-28,
-29,
-29,
-29,
-29,
-30,
-30,
-35,
-24,
-30,
-30,
-31,
-31,
-34,
-34,
-28,
-28,
-27,
-27,
-29,
-29,
-23,
-35,
-32,
-32,
-31,
-31,
-27,
-27,
-23,
-35,
-32,
-21,
-29,
-29,
-29,
-29,
-27,
-27,
-30,
-30,
-27,
-27,
-22,
-34,
-30,
-18,
-23,
-23,
-23,
-23,
-25,
-25,
-24,
-24,
-27,
-27,
-21,
-21,
-23,
-23,
-20,
-20,
-25,
-25,
-25,
-25,
-25,
-25,
-25,
-14,
-25,
-25,
-21,
-21,
-15,
-27,
-17,
-17,
-15,
-28,
-10,
-25,
-22,
-11,
-21,
-21,
-14,
-14,
-12,
-23,
-14,
-14,
-16,
-16,
-15,
-15,
-12,
-12,
-15,
-15,
-13,
-13,
-8,
-8,
-13,
-13,
-7,
-7,
-8,
-8,
-10,
-10,
-10,
-10,
-10,
-10,
-8,
-8,
-7,
-7,
-4,
-4,
-11,
0,
-11,
1,
-3,
-3,
-11,
3,
-10,
3,
1,
-10,
-2,
-2,
-2,
-2,
4,
4,
3,
3,
-1,
-1,
-3,
8,
6,
-5,
5,
5,
5,
5,
3,
3,
2,
2,
3,
3,
4,
4,
7,
7,
6,
6,
8,
8,
13,
2,
8,
8,
11,
11,
5,
5,
9,
9,
10,
10,
13,
13,
9,
9,
10,
10,
11,
11,
16,
16,
11,
11,
7,
19,
19,
8,
14,
14,
15,
15,
18,
18,
18,
18,
16,
16,
12,
12,
22,
9,
17,
17,
22,
10,
13,
13,
16,
16,
18,
18,
15,
15,
16,
16,
20,
20,
21,
21,
21,
21,
20,
20,
21,
21,
14,
27,
21,
21,
20,
20,
25,
13,
23,
23,
20,
20,
21,
21,
22,
22,
21,
21,
19,
19,
23,
23,
21,
21,
22,
22,
16,
16,
18,
18,
21,
21,
22,
22,
17,
17,
19,
19,
21,
21,
14,
25,
15,
15,
24,
13,
17,
17,
17,
17,
20,
20,
17,
17,
15,
15,
18,
18,
12,
12,
15,
15,
17,
17,
18,
18,
15,
15,
20,
9,
17,
17,
18,
7,
12,
12,
18,
6,
16,
16,
11,
11,
14,
14,
12,
12,
5,
19,
8,
8,
10,
10,
15,
4,
6,
6,
10,
10,
4,
4,
7,
7,
9,
9,
10,
-1,
9,
-2,
7,
7,
5,
5,
3,
3,
1,
1,
4,
4,
-1,
-1,
3,
3,
2,
2,
3,
3,
-1,
-1,
2,
2,
2,
2,
3,
-9,
-5,
-5,
1,
-10,
-1,
-1,
-8,
3,
0,
-11,
-5,
-5,
-12,
0,
-7,
-7,
-9,
-9,
-4,
-4,
-12,
-12,
-5,
-16,
-14,
-3,
-6,
-18,
-8,
-8,
-9,
-9,
-8,
-19,
-8,
-19,
-13,
-13,
-16,
-16,
-15,
-15,
-16,
-16,
-19,
-19,
-14,
-14,
-14,
-14,
-17,
-17,
-23,
-12,
-16,
-16,
-17,
-17,
-17,
-17,
-23,
-23,
-20,
-20,
-20,
-20,
-25,
-25,
-18,
-18,
-25,
-25,
-24,
-24,
-22,
-22,
-25,
-25,
-25,
-25,
-28,
-17,
-24,
-24,
-28,
-28,
-20,
-32,
-20,
-33,
-27,
-27,
-21,
-33,
-23,
-23,
-29,
-29,
-30,
-30,
-28,
-28,
-31,
-31,
-32,
-32,
-23,
-35,
-26,
-26,
-33,
-21,
-38,
-24,
-30,
-30,
-28,
-28,
-32,
-32,
-31,
-31,
-31,
-31,
-29,
-29,
-31,
-31,
-31,
-31,
-35,
-24,
-27,
-27,
-32,
-32,
-29,
-29,
-32,
-32,
-31,
-31,
-34,
-34,
-28,
-28,
-25,
-37,
-27,
-27,
-36,
-22,
-28,
-28,
-29,
-29,
-33,
-22,
-29,
-29,
-29,
-29,
-30,
-30,
-27,
-27,
-26,
-26,
-27,
-27,
-32,
-20,
-28,
-28,
-32,
-32,
-27,
-27,
-29,
-29,
-25,
-25,
-27,
-27,
-27,
-27,
-22,
-22,
-31,
-18,
-25,
-25,
-21,
-21,
-25,
-25,
-20,
-20,
-24,
-24,
-20,
-20,
-24,
-24,
-20,
-20,
-20,
-20,
-20,
-20,
-24,
-13,
-20,
-20,
-19,
-19,
-20,
-20,
-17,
-17,
-14,
-14,
-15,
-15,
-9,
-21,
-17,
-17,
-16,
-16,
-13,
-13,
-10,
-10,
-17,
-6,
-12,
-12,
-12,
-12,
-10,
-10,
-11,
-11,
-12,
-12,
-7,
-7,
-12,
-12,
-7,
-7,
-2,
-13,
-3,
-3,
-3,
-3,
-10,
-10,
-1,
-1,
-7,
-7,
-1,
-1,
-5,
-5,
-4,
-4,
-4,
-4,
-4,
-4,
-2,
-2,
0,
0,
3,
3,
3,
3,
4,
4,
8,
-4,
-1,
10,
1,
1,
4,
4,
8,
8,
5,
5,
5,
5,
5,
5,
8,
8,
5,
5,
7,
7,
12,
12,
6,
6,
12,
12,
11,
11,
11,
11,
14,
14,
10,
10,
13,
13,
10,
10,
16,
16,
7,
21,
7,
20,
15,
15,
9,
21,
11,
11,
17,
17,
16,
16,
17,
17,
22,
10,
19,
19,
13,
13,
14,
14,
20,
9,
24,
11,
21,
21,
19,
19,
19,
19,
20,
20,
20,
20,
17,
17,
23,
12,
18,
18,
23,
23,
17,
17,
19,
19,
21,
21,
22,
22,
20,
20,
22,
22,
20,
20,
13,
27,
15,
28,
26,
13,
15,
15,
17,
17,
23,
12,
20,
20,
19,
19,
21,
21,
16,
16,
15,
15,
19,
19,
23,
11,
20,
20,
23,
11,
19,
19,
21,
21,
16,
16,
19,
19,
17,
17,
15,
15,
22,
9,
17,
17,
10,
21,
15,
15,
11,
22,
17,
17,
13,
13,
17,
17,
10,
10,
14,
14,
14,
14,
15,
15,
17,
5,
14,
14,
10,
10,
8,
8,
9,
9,
6,
6,
4,
4,
10,
10,
11,
0,
9,
9,
3,
3,
5,
5,
7,
7,
7,
7,
0,
0,
4,
4,
5,
5,
-3,
9,
6,
-6,
0,
0,
-3,
-3,
0,
0,
-2,
-2,
0,
0,
-6,
-6,
-2,
-2,
-8,
4,
0,
0,
-2,
-2,
-5,
-5,
-1,
-12,
-5,
-5,
-8,
-8,
-10,
-10,
-12,
-12,
-10,
-10,
-13,
