5-grundlagen-opAmps/data/ALL0047/A0047CH1.CSV

Memory Length,4000,
Trigger Level,0.00000e+00,
Source,CH1,
Probe,1.0X,
Vertical Units,V,
Vertical Scale,5.00000e-02,
Vertical Position,0.00000e+00,
Horizontal Units,S,
Horizontal Scale,5.00000e-03,
Horizontal Position,5.0000000e-03,
Horizontal Mode,Main,
Sampling Period,2.00000e-05,
Firmware,V1.14,
Time, ,
Mode,Fast,
Waveform Data,
-7,
-7,
-20,
-9,
3,
-11,
1,
-17,
0,
0,
-22,
-7,
-23,
-4,
-24,
-13,
-25,
-9,
-24,
-22,
-3,
-12,
-25,
-7,
-27,
-16,
-3,
-25,
-5,
-13,
-27,
-12,
-28,
-22,
-7,
-5,
-28,
-20,
-9,
-16,
-30,
-19,
-31,
-19,
-32,
-24,
-11,
-24,
-10,
-16,
-32,
-18,
-31,
-30,
-12,
-22,
-33,
-25,
-13,
-20,
-33,
-27,
-13,
-22,
-34,
-21,
-35,
-30,
-14,
-31,
-15,
-35,
-14,
-29,
-15,
-28,
-15,
-26,
-14,
-28,
-15,
-35,
-16,
-25,
-38,
-30,
-16,
-23,
-36,
-30,
-17,
-24,
-38,
-27,
-39,
-22,
-38,
-30,
-18,
-30,
-16,
-31,
-15,
-19,
-40,
-26,
-39,
-17,
-39,
-17,
-39,
-28,
-28,
-27,
-40,
-29,
-16,
-26,
-40,
-20,
-36,
-24,
-37,
-34,
-17,
-31,
-17,
-32,
-17,
-27,
-15,
-20,
-35,
-21,
-37,
-24,
-37,
-28,
-16,
-20,
-36,
-31,
-15,
-36,
-12,
-28,
-13,
-27,
-16,
-19,
-36,
-33,
-12,
-25,
-12,
-24,
-13,
-20,
-33,
-29,
-14,
-15,
-34,
-20,
-32,
-25,
-11,
-23,
-12,
-23,
-12,
-19,
-32,
-32,
-10,
-16,
-32,
-22,
-9,
-15,
-29,
-19,
-7,
-15,
-30,
-15,
-28,
-18,
-5,
-15,
-26,
-14,
-27,
-18,
-5,
-11,
-25,
-11,
-25,
-16,
-1,
-15,
-1,
-7,
-23,
-15,
-1,
-12,
1,
-19,
-1,
-15,
-1,
-15,
3,
-12,
1,
-4,
-18,
-10,
4,
-3,
-19,
-7,
4,
-4,
-16,
-9,
7,
-5,
-5,
-2,
-14,
-8,
8,
-4,
7,
-8,
10,
-5,
9,
-4,
10,
4,
-10,
4,
-11,
3,
-9,
2,
-9,
5,
-8,
5,
-7,
1,
14,
9,
-7,
5,
17,
2,
17,
3,
17,
-1,
18,
12,
-3,
5,
18,
4,
19,
8,
20,
11,
-3,
8,
20,
13,
-1,
16,
1,
0,
22,
14,
1,
13,
1,
7,
25,
16,
2,
20,
2,
17,
2,
18,
4,
19,
3,
19,
4,
14,
27,
18,
5,
28,
6,
28,
6,
21,
5,
13,
28,
20,
8,
18,
29,
15,
29,
10,
29,
24,
8,
23,
8,
10,
30,
12,
29,
19,
30,
21,
32,
11,
32,
17,
34,
16,
32,
20,
32,
17,
32,
25,
10,
33,
11,
10,
33,
26,
11,
16,
33,
32,
10,
17,
32,
27,
9,
26,
10,
24,
10,
27,
11,
9,
32,
25,
9,
19,
32,
24,
9,
19,
31,
19,
31,
18,
32,
18,
31,
22,
11,
16,
29,
19,
19,
17,
31,
23,
8,
15,
30,
20,
7,
22,
6,
14,
29,
23,
7,
22,
5,
17,
29,
25,
5,
16,
16,
27,
5,
15,
27,
13,
26,
9,
26,
16,
5,
12,
25,
15,
3,
16,
3,
1,
25,
19,
2,
15,
1,
9,
22,
13,
1,
7,
21,
16,
-1,
15,
-3,
-3,
20,
8,
20,
17,
-3,
4,
18,
12,
-4,
11,
-4,
5,
16,
-4,
16,
2,
15,
5,
-8,
-3,
15,
5,
-8,
5,
-10,
12,
-12,
1,
-11,
5,
-11,
-1,
-12,
-4,
10,
4,
-11,
7,
-13,
5,
-15,
-6,
7,
7,
-16,
-4,
-18,
-7,
6,
-4,
-16,
-7,
4,
2,
-18,
-7,
-20,
-5,
-20,
-10,
2,
-16,
1,
-12,
1,
-13,
-1,
-7,
-23,
-8,
-24,
-20,
-1,
-16,
-3,
-9,
-25,
-13,
-26,
-13,
-27,
-12,
-27,
-22,
-4,
-5,
-28,
-21,
-7,
-16,
-28,
-16,
-28,
-14,
-30,
-11,
-31,
-24,
-10,
-17,
-31,
-15,
-32,
-19,
-33,
-19,
-31,
-26,
-11,
-35,
-11,
-21,
-32,
-22,
-22,
-21,
-35,
-25,
-11,
-19,
-34,
-18,
-36,
-27,
-15,
-24,
-35,
-21,
-36,
-20,
-36,
-27,
-13,
-25,
-37,
-24,
-37,
-24,
-36,
-29,
-16,
-27,
-39,
-27,
-15,
-31,
-16,
-16,
-38,
-31,
-17,
-28,
-39,
-29,
-16,
-32,
-15,
-29,
-17,
-37,
-16,
-28,
-28,
-26,
-37,
-32,
-16,
-35,
-16,
-30,
-17,
-27,
-27,
-23,
-37,
-30,
-17,
-35,
-16,
-30,
-16,
-27,
-16,
-32,
-16,
-30,
-16,
-21,
-37,
-26,
-26,
-20,
-39,
-23,
-36,
-30,
-14,
-26,
-15,
-24,
-35,
-27,
-14,
-16,
-35,
-35,
-12,
-19,
-36,
-28,
-14,
-18,
-35,
-18,
-34,
-31,
-13,
-34,
-11,
-24,
-11,
-28,
-11,
-26,
-11,
-15,
-33,
-12,
-31,
-18,
-31,
-25,
-9,
-12,
-28,
-24,
-8,
-18,
-18,
-15,
-30,
-18,
-7,
-23,
-6,
-16,
-27,
-13,
-26,
-21,
-5,
-15,
-15,
-19,
-2,
-17,
-4,
-19,
-3,
-12,
-23,
-17,
-1,
-5,
-23,
-14,
1,
-7,
-21,
0,
-19,
-5,
-19,
-11,
4,
-14,
3,
-8,
3,
-11,
5,
-8,
5,
-4,
-16,
-15,
7,
-3,
-14,
-8,
7,
-9,
8,
-9,
10,
0,
-12,
-6,
10,
-12,
11,
5,
-10,
-1,
12,
-5,
14,
1,
12,
6,
-7,
8,
-8,
8,
-5,
7,
-5,
0,
14,
6,
-5,
2,
16,
1,
18,
5,
17,
9,
-4,
13,
-1,
11,
-1,
5,
21,
16,
0,
4,
21,
13,
2,
11,
23,
11,
23,
10,
23,
14,
2,
11,
25,
11,
24,
15,
26,
10,
25,
16,
3,
11,
25,
21,
4,
20,
4,
18,
18,
17,
17,
17,
29,
16,
27,
22,
8,
18,
29,
19,
19,
25,
9,
20,
20,
18,
29,
24,
8,
28,
8,
13,
30,
17,
32,
15,
33,
21,
10,
33,
9,
25,
12,
17,
32,
29,
9,
26,
9,
28,
11,
23,
9,
24,
11,
19,
32,
23,
10,
19,
32,
12,
33,
11,
33,
16,
32,
30,
10,
25,
11,
16,
31,
21,
9,
22,
11,
13,
30,
25,
11,
16,
31,
20,
9,
17,
30,
17,
31,
31,
8,
22,
8,
12,
30,
25,
9,
11,
29,
22,
6,
15,
29,
6,
28,
21,
5,
23,
6,
20,
4,
15,
27,
19,
6,
20,
4,
10,
25,
25,
4,
11,
25,
4,
23,
13,
13,
16,
1,
11,
22,
9,
22,
9,
21,
7,
20,
11,
0,
8,
20,
15,
-1,
4,
17,
2,
20,
16,
-3,
5,
18,
6,
17,
5,
17,
10,
-8,
1,
15,
14,
-8,
7,
-7,
0,
13,
12,
-8,
-2,
11,
11,
-11,
-7,
11,
-1,
-12,
-5,
9,
-3,
9,
0,
-14,
2,
-13,
-2,
-13,
-2,
-15,
-13,
6,
-1,
-16,
-4,
-16,
-12,
4,
-7,
4,
-11,
2,
-11,
3,
-9,
-21,
-14,
1,
-11,
1,
-11,
1,
-1,
-24,
-13,
-1,
-3,
-25,
-20,
-1,
-12,
-26,
-12,
-24,
-5,
-26,
-19,
-7,
-26,
-4,
-24,
-6,
-13,
-26,
-17,
-6,
-13,
-29,
-16,
-31,
-15,
-31,
-22,
-11,
-26,
-10,
-20,
-20,
-32,
-9,
-19,
-31,
-16,
-31,
-24,
-11,
-19,
-32,
-31,
-13,
-24,
-13,
-30,
-15,
-25,
-13,
-27,
-13,
-31,
-13,
-23,
-36,
-24,
-36,
-23,
-36,
-30,
-15,
-24,
-39,
-33,
-15,
-24,
-35,
-19,
-36,
-23,
-39,
-24,
-37,
-25,
-37,
-23,
-39,
-33,
-16,
-23,
-38,
-31,
-16,
-27,
-38,
-33,
-16,
-40,
-16,
-16,
-38,
-32,
-17,
-37,
-17,
-24,
-37,
-37,
-17,
-24,
-40,
-31,
-16,
-28,
-16,
-20,
-36,
-20,
-35,
-35,
-16,
-19,
-36,
-21,
-38,
-24,
-38,
-18,
-36,
-20,
-36,
-21,
-37,
-21,
-36,
-29,
-13,
-14,
-36,
-30,
-15,
-27,
-13,
-27,
-15,
-35,
-13,
-27,
-13,
-13,
-35,
-22,
-36,
-17,
-34,
-22,
-34,
-27,
-10,
-20,
-32,
-17,
-32,
-29,
-11,
-20,
-31,
-27,
-8,
-15,
-31,
-21,
-8,
-12,
-31,
-12,
-28,
-5,
-28,
-20,
-8,
-20,
-6,
-20,
-5,
-17,
-3,
-22,
-4,
-20,
-4,
-3,
-25,
-24,
0,
-5,
-24,
-15,
0,
-19,
-1,
-15,
0,
-15,
1,
-10,
2,
-16,
2,
4,
-19,
-11,
4,
-9,
4,
-8,
3,
-1,
-18,
-10,
6,
-3,
-16,
-5,
-16,
-1,
-16,
-9,
9,
-7,
8,
-7,
9,
-7,
11,
-5,
11,
5,
-12,
-5,
12,
6,
-10,
7,
-9,
-1,
14,
-1,
13,
3,
14,
4,
16,
8,
-7,
1,
15,
3,
17,
6,
17,
12,
-3,
9,
-5,
6,
19,
12,
-1,
12,
-2,
20,
-2,
12,
-2,
6,
21,
-1,
23,
4,
24,
16,
1,
14,
1,
20,
3,
7,
24,
13,
25,
18,
5,
13,
25,
19,
3,
12,
25,
11,
28,
21,
5,
20,
6,
23,
6,
14,
27,
17,
29,
17,
29,
14,
29,
23,
6,
24,
8,
23,
9,
17,
30,
21,
9,
20,
9,
25,
9,
27,
9,
13,
32,
23,
10,
20,
32,
25,
11,
19,
32,
32,
9,
26,
10,
25,
9,
15,
32,
17,
31,
16,
32,
11,
35,
20,
32,
19,
33,
22,
10,
23,
10,
19,
30,
18,
30,
18,
30,
16,
32,
24,
10,
14,
33,
20,
32,
17,
31,
26,
8,
18,
33,
17,
30,
20,
8,
19,
7,
26,
8,
11,
27,
23,
8,
21,
8,
22,
8,
19,
8,
12,
29,
13,
27,
16,
5,
8,
27,
9,
27,
16,
5,
15,
3,
21,
2,
17,
3,
7,
24,
11,
23,
13,
1,
18,
-1,
17,
0,
13,
-1,
10,
21,
15,
-1,
3,
20,
7,
20,
2,
20,
11,
-3,
9,
-4,
4,
17,
12,
-7,
9,
-7,
-1,
16,
16,
-7,
-1,
16,
10,
-8,
5,
-9,
3,
-8,
8,
-11,
1,
-11,
-1,
11,
-8,
12,
7,
-10,
3,
-11,
-2,
10,
1,
-12,
-4,
9,
-3,
-15,
0,
-17,
-9,
4,
-10,
5,
-8,
5,
-9,
3,
0,
-19,
-7,
-21,
-19,
3,
-4,
-19,
-13,
0,
-11,
1,
-6,
-23,
-11,
-24,
-12,
-23,
-10,
-24,
-19,
-4,
-19,
-3,
-5,
-27,
-26,
-3,
-20,
-5,
-16,
-28,
-13,
-29,
-10,
-29,
-16,
-29,
-20,
-6,
-15,
-31,
-14,
-31,
-23,
-10,
-9,
-32,
-17,
-31,
-13,
-31,
-18,
-31,
-21,
-33,
-16,
-31,
-19,
-32,
-27,
-12,
-21,
-34,
-23,
-35,
-29,
-16,
-28,
-14,
-28,
-15,
-32,
-15,
-32,
-14,
-17,
-35,
-23,
-36,
-32,
-16,
-24,
-36,
-29,
-16,
-28,
-15,
-22,
-39,
-22,
-36,
-20,
-37,
-25,
-38,
-35,
-16,
-30,
-17,
-29,
-17,
-17,
-40,
-16,
-38,
-23,
-37,
-26,
-39,
-23,
-40,
-28,
-40,
-24,
-39,
-24,
-40,
-23,
-39,
-29,
-17,
-20,
-37,
-29,
-15,
-28,
-16,
-23,
-38,
-30,
-16,
-20,
-37,
-27,
-15,
-17,
-40,
-23,
-37,
-31,
-17,
-23,
-36,
-30,
-15,
-17,
-35,
-24,
-35,
-27,
-15,
-31,
-13,
-28,
-12,
-27,
-13,
-20,
-34,
-27,
-12,
-34,
-12,
-27,
-12,
-17,
-33,
-17,
-32,
-25,
-9,
-24,
-9,
-17,
-32,
-18,
-30,
-16,
-29,
-16,
-29,
-16,
-30,
-19,
-8,
-11,
-27,
-23,
-5,
-20,
-7,
-11,
-27,
-16,
-4,
-26,
-4,
-24,
-2,
-15,
-1,
-1,
-23,
-16,
-1,
-16,
-1,
-8,
-23,
-8,
-22,
-2,
-21,
-14,
1,
-13,
2,
-9,
3,
-8,
5,
1,
-17,
-12,
5,
-10,
4,
-2,
-15,
-10,
6,
-14,
8,
-9,
8,
-6,
8,
-13,
11,
1,
-11,
6,
-11,
-11,
11,
4,
-11,
4,
-10,
0,
11,
4,
-9,
-7,
15,
2,
14,
9,
-7,
4,
16,
4,
-8,
4,
17,
3,
16,
3,
20,
-1,
17,
6,
17,
12,
-3,
12,
-3,
18,
-1,
-1,
21,
20,
-1,
1,
21,
10,
23,
13,
2,
10,
22,
15,
2,
14,
3,
13,
25,
15,
3,
13,
27,
16,
4,
15,
15,
16,
4,
23,
7,
20,
6,
16,
29,
17,
30,
12,
29,
20,
9,
21,
7,
22,
5,
22,
8,
25,
9,
18,
18,
21,
21,
17,
31,
16,
31,
22,
9,
10,
32,
25,
11,
21,
10,
12,
30,
18,
32,
20,
32,
17,
32,
22,
33,
24,
9,
16,
32,
17,
33,
23,
10,
18,
32,
20,
33,
16,
31,
21,
10,
20,
33,
12,
31,
18,
32,
29,
9,
23,
9,
14,
31,
32,
9,
27,
9,
19,
8,
18,
29,
15,
30,
21,
9,
19,
19,
22,
9,
14,
28,
16,
27,
17,
28,
14,
29,
21,
8,
17,
28,
15,
28,
15,
15,
18,
6,
15,
26,
9,
27,
19,
4,
13,
24,
16,
3,
13,
1,
9,
23,
12,
23,
12,
0,
8,
22,
4,
22,
20,
-2,
4,
20,
13,
-1,
8,
-3,
4,
19,
10,
-3,
0,
16,
4,
17,
16,
-7,
11,
-4,
9,
-5,
-2,
15,
0,
13,
4,
-9,
7,
-7,
0,
13,
5,
-8,
0,
12,
-6,
9,
-5,
8,
-1,
-13,
-9,
7,
-1,
-13,
-3,
-3,
3,
-13,
1,
-15,
-5,
7,
-3,
-16,
-6,
-6,
-12,
3,
-3,
-17,
-8,
3,
-7,
-19,
-3,
-20,
-8,
-21,
-13,
1,
-1,
-22,
-13,
-1,
-3,
-24,
-23,
-4,
-15,
-3,
-18,
-5,
-11,
-26,
-10,
-24,
-18,
-4,
-11,
-25,
-16,
-28,
-15,
-28,
-19,
-6,
-22,
-7,
-18,
-18,
-19,
-31,
-20,
-8,
-27,
-8,
-23,
-11,
-9,
-31,
-15,
-30,
-10,
-32,
-28,
-11,
-24,
-11,
-28,
-12,
-22,
-33,
-26,
-12,
-12,
-35,
-21,
-35,
-21,
-34,
-13,
-37,
-24,
-37,
-29,
-14,
-20,
-37,
-24,
-36,
-25,
-14,
-28,
-15,
-22,
-38,
-24,
-36,
-26,
-37,
-16,
-39,
-29,
-15,
-38,
-16,
-23,
-36,
-33,
-17,
-32,
-16,
-31,
-18,
-32,
-16,
-16,
-39,
-31,
-17,
-28,
-16,
-33,
-16,
-17,
-39,
-26,
-39,
-20,
-38,
-24,
-38,
-31,
-15,
-32,
-17,
-28,
-16,
-39,
-15,
-24,
-37,
-25,
-36,
-27,
-15,
-28,
-28,
-31,
-16,
-28,
-15,
-20,
-35,
-28,
-15,
-24,
-35,
-30,
-13,
-16,
-33,
-29,
-13,
-26,
-14,
-19,
-35,
-13,
-32,
-23,
-12,
-30,
-11,
-21,
-32,
-23,
-10,
-22,
-10,
-13,
-32,
-20,
-33,
-31,
-8,
-29,
-10,
-13,
-29,
-16,
-28,
-18,
-7,
-27,
-7,
-19,
-6,
-13,
-28,
-16,
-27,
-18,
-4,
-16,
-4,
-21,
-4,
-10,
-24,
-14,
-25,
-19,
-3,
-11,
-22,
-11,
-22,
-12,
0,
-8,
-22,
-12,
1,
-5,
-20,
-9,
-20,
-8,
-20,
-15,
3,
-8,
4,
-3,
-17,
-9,
4,
-1,
-15,
-9,
7,
-9,
5,
-15,
7,
-5,
9,
-8,
9,
0,
-12,
-11,
11,
3,
-9,
-2,
11,
-2,
12,
0,
13,
0,
14,
7,
-8,
6,
-5,
9,
-7,
4,
-7,
11,
-5,
8,
-4,
11,
-5,
8,
-5,
9,
-4,
12,
-3,
15,
-4,
13,
-3,
16,
-2,
8,
21,
11,
-1,
16,
0,
12,
0,
7,
23,
5,
23,
20,
1,
10,
24,
8,
24,
16,
3,
11,
25,
20,
2,
19,
5,
22,
5,
19,
6,
15,
29,
12,
27,
13,
28,
24,
7,
21,
7,
18,
7,
16,
28,
14,
29,
19,
8,
13,
29,
12,
30,
25,
9,
18,
29,
24,
9,
21,
32,
26,
8,
22,
22,
24,
9,
21,
32,
23,
11,
15,
33,
28,
9,
29,
9,
14,
31,
17,
32,
25,
11,
31,
9,
20,
32,
25,
10,
33,
11,
22,
11,
20,
33,
21,
21,
21,
21,
25,
12,
29,
9,
27,
10,
21,
8,
26,
9,
15,
30,
25,
8,
17,
29,
20,
31,
21,
9,
24,
8,
16,
30,
21,
7,
20,
6,
22,
6,
16,
5,
17,
6,
16,
5,
14,
26,
15,
4,
4,
26,
17,
4,
21,
3,
16,
4,
17,
2,
9,
21,
20,
3,
11,
11,
12,
1,
7,
20,
8,
21,
7,
22,
4,
20,
9,
9,
13,
-2,
3,
19,
9,
-4,
11,
-4,
0,
16,
16,
-6,
0,
17,
4,
-7,
-3,
13,
7,
-8,
5,
-8,
5,
-8,
1,
12,
8,
-8,
2,
-11,
9,
-11,
5,
-12,
-9,
8,
-10,
8,
-3,
-3,
-4,
-4,
-3,
-15,
-12,
5,
-3,
-17,
-6,
-17,
0,
-18,
-7,
-7,
-13,
4,
-1,
-19,
-4,
-19,
-13,
1,
-19,
2,
-14,
1,
-8,
-23,
-15,
-1,
-9,
-24,
-19,
-3,
-11,
-24,
-15,
-4,
-8,
-25,
-14,
-27,
-11,
-27,
-11,
-26,
-13,
-28,
-15,
-27,
-24,
-9,
-10,
-30,
-19,
-30,
-27,
-9,
-24,
-9,
-14,
-28,
-24,
-9,
-20,
-32,
-24,
-11,
-27,
-11,
-20,
-32,
-27,
-11,
-25,
-13,
-28,
-15,
-27,
-13,
-17,
-35,
-25,
-25,
-28,
-14,
-37,
-14,
-19,
-37,
-22,
-36,
-22,
-38,
-24,
-37,
-31,
-16,
-23,
-37,
-23,
-36,
-23,
-37,
-27,
-39,
-24,
-37,
-29,
-16,
-32,
-15,
-26,
-38,
-32,
-16,
-17,
-40,
-27,
-15,
-35,
-17,
-30,
-17,
-16,
-41,
-28,
-40,
-33,
-16,
-31,
-16,
-27,
-39,
-24,
-39,
-29,
-16,
-27,
-16,
-21,
-38,
-35,
-16,
-28,
-16,
-21,
-37,
-22,
-37,
-23,
-37,
-26,
-26,
-24,
-37,
-31,
-16,
-20,
-36,
-23,
-35,
-29,
-15,
-29,
-13,
-24,
-13,
-20,
-35,
-28,
-13,
-19,
-32,
-23,
-23,
-18,
-34,
-28,
-12,
-24,
-13,
-21,
-32,
-19,
-32,
-15,
-32,
-19,
-30,
-20,
-8,
-20,
-6,
-23,
-7,
-28,
-9,
-24,
-7,
-12,
-28,
-18,
-7,
-11,
-27,
-9,
-27,
-14,
-27,
-18,
-4,
-11,
-25,
-15,
-3,
-13,
-1,
-17,
-1,
-13,
-1,
-8,
-23,
-7,
-22,
-17,
0,
-14,
1,
-11,
1,
-19,
4,
-5,
-19,
-12,
4,
-9,
4,
-12,
5,
-13,
5,
-14,
5,
1,
-15,
0,
-14,
-1,
-13,
1,
-13,
-6,
11,
1,
-12,
-5,
9,
1,
-12,
5,
-9,
4,
-7,
6,
-8,
5,
-8,
-4,
14,
7,
-8,
-2,
16,
-1,
16,
-1,
16,
-4,
16,
1,
18,
0,
16,
7,
-5,
4,
20,
5,
21,
11,
-1,
7,
20,
10,
22,
16,
0,
8,
21,
13,
1,
11,
23,
5,
25,
9,
25,
16,
3,
9,
25,
8,
25,
16,
1,
26,
2,
12,
28,
17,
5,
19,
5,
14,
28,
4,
28,
25,
8,
23,
6,
21,
8,
19,
7,
9,
29,
25,
8,
16,
30,
22,
7,
21,
7,
29,
9,
9,
31,
28,
8,
19,
32,
16,
32,
24,
10,
24,
9,
28,
11,
21,
32,
18,
30,
28,
10,
12,
31,
18,
33,
21,
21,
22,
9,
21,
34,
24,
11,
18,
33,
9,
31,
19,
33,
23,
10,
28,
9,
11,
32,
11,
31,
17,
30,
25,
10,
21,
8,
18,
30,
17,
31,
16,
30,
23,
9,
13,
29,
15,
29,
20,
7,
15,
27,
24,
7,
9,
29,
18,
4,
5,
28,
5,
28,
12,
26,
17,
17,
17,
3,
11,
24,
13,
24,
8,
25,
17,
1,
13,
2,
22,
1,
16,
0,
15,
-1,
11,
-1,
7,
19,
8,
20,
11,
-2,
15,
-2,
5,
18,
21,
-3,
14,
-4,
14,
-4,
2,
17,
6,
6,
6,
-6,
9,
-7,
8,
-8,
-4,
14,
15,
-8,
10,
-10,
0,
11,
12,
-10,
3,
-11,
5,
-12,
-11,
8,
0,
-12,
-2,
-14,
9,
-15,
-4,
7,
-9,
7,
-4,
-17,
-5,
-17,
-8,
5,
-13,
5,
-9,
4,
-9,
3,
-9,
2,
-5,
-20,
-6,
-20,
-17,
0,
-13,
1,
-15,
0,
-16,
-1,
-16,
-1,
-9,
-26,
-15,
-2,
-12,
-24,
-17,
-5,
-14,
-27,
-13,
-28,
-14,
-28,
-17,
-28,
-16,
-29,
-22,
-8,
-18,
-29,
-14,
-31,
-18,
-32,
-15,
-31,
-16,
-31,
-25,
-11,
-25,
-10,
-26,
-11,
-20,
-32,
-20,
-33,
-20,
-33,
-28,
-12,
-16,
-35,
-24,
-12,
-12,
-34,
-28,
-13,
-25,
-25,
-22,
-35,
-17,
-36,
-31,
-15,
-21,
-36,
-35,
-15,
-28,
-14,
-32,
-15,
-24,
-39,
-19,
-39,
-29,
-14,
-21,
-37,
-26,
-39,
-25,
-37,
-22,
-38,
-24,
-37,
-25,
-37,
-32,
-16,
-20,
-36,
-27,
-16,
-36,
-17,
-27,
-39,
-30,
-17,
-31,
-16,
-26,
-37,
-37,
-15,
-34,
-16,
-28,
-15,
-29,
-17,
-31,
-15,
-35,
-15,
-32,
-16,
-24,
-38,
-31,
-15,
-25,
-37,
-27,
-15,
-27,
-14,
-21,
-36,
-24,
-35,
-25,
-13,
-20,
-35,
-17,
-35,
-35,
-11,
-29,
-12,
-22,
-35,
-27,
-12,
-27,
-12,
-32,
-13,
-35,
-12,
-24,
-10,
-23,
-8,
-26,
-10,
-16,
-32,
-22,
-8,
-16,
-29,
-21,
-7,
-21,
-8,
-19,
-7,
-12,
-29,
-16,
-28,
-23,
-5,
-15,
-26,
-17,
-4,
-2,
-25,
-20,
-5,
-13,
-1,
-19,
-3,
-16,
0,
-4,
-21,
-10,
-21,
-21,
2,
-3,
-21,
-9,
-20,
-3,
-20,
-9,
3,
-10,
2,
1,
-18,
-3,
-16,
2,
-16,
-9,
8,
-8,
7,
-8,
6,
1,
-15,
-4,
9,
-9,
9,
-5,
10,
-5,
10,
11,
-12,
-11,
12,
0,
14,
-1,
13,
1,
13,
6,
-7,
0,
13,
9,
-7,
3,
15,
4,
16,
8,
-5,
-4,
18,
13,
-5,
11,
-4,
4,
18,
10,
-3,
7,
19,
13,
-1,
12,
0,
5,
20,
3,
22,
4,
23,
8,
24,
16,
2,
10,
24,
11,
24,
8,
25,
26,
3,
26,
2,
19,
5,
13,
26,
17,
5,
9,
28,
14,
26,
15,
28,
16,
30,
13,
29,
16,
28,
22,
6,
17,
29,
21,
7,
28,
8,
9,
31,
21,
9,
31,
9,
21,
9,
15,
31,
15,
29,
21,
9,
19,
30,
28,
11,
18,
31,
17,
33,
23,
12,
28,
9,
21,
32,
19,
32,
17,
32,
17,
32,
22,
10,
26,
8,
16,
32,
23,
9,
20,
20,
25,
10,
28,
9,
17,
30,
26,
10,
28,
10,
21,
9,
27,
8,
32,
9,
9,
31,
28,
9,
21,
9,
15,
29,
20,
7,
22,
7,
18,
7,
18,
7,
20,
7,
23,
5,
17,
6,
8,
26,
17,
5,
15,
27,
19,
4,
20,
3,
16,
3,
9,
27,
12,
24,
19,
2,
16,
2,
14,
1,
13,
1,
17,
0,
13,
1,
14,
-1,
15,
0,
13,
-2,
16,
-3,
3,
18,
6,
20,
5,
17,
10,
-4,
5,
17,
4,
17,
7,
-6,
-1,
14,
-4,
15,
6,
-8,
3,
14,
4,
-8,
-2,
12,
-5,
11,
-5,
9,
-8,
10,
2,
-11,
1,
-12,
4,
-12,
-1,
-12,
-5,
8,
-6,
5,
0,
-15,
-4,
-16,
-12,
5,
-10,
3,
-10,
2,
-9,
2,
-4,
-19,
-9,
-21,
-4,
-18,
-4,
-20,
-22,
1,
-9,
-22,
-9,
-22,
-18,
-2,
-19,
-2,
-12,
-26,
-11,
-26,
-26,
-3,
-4,
-26,
-14,
-27,
-9,
-28,
-15,
-28,
-15,
-28,
-13,
-28,
-17,
-28,
-19,
-8,
-22,
-8,
-23,
-10,
-19,
-30,
-11,
-31,
-21,
-33,
-25,
-10,
-19,
-33,
-20,
-34,
-27,
-12,
-18,
-33,
-23,
-12,
-11,
-34,
-28,
-14,
-18,
-35,
-23,
-36,
-24,
-36,
-26,
-14,
-32,
-13,
-30,
-16,
-22,
-35,
-28,
-14,
-39,
-16,
-15,
-38,
-17,
-38,
-29,
-16,
-32,
-16,
-30,
-16,
-26,
-26,
-16,
-38,
-32,
-17,
-22,
-39,
-34,
-17,
-26,
-39,
-39,
-17,
-27,
-38,
-30,
-16,
-26,
-38,
-31,
-16,
-25,
-39,
-23,
-37,
-39,
-17,
-23,
-37,
-24,
-39,
-35,
-15,
-38,
-16,
-35,
-16,
-27,
-27,
-25,
-25,
-31,
-15,
-31,
-15,
-33,
-16,
-25,
-36,
-31,
-14,
-21,
-36,
-25,
-25,
-21,
-35,
-27,
-12,
-25,
-14,
-34,
-12,
-19,
-33,
-23,
-11,
-23,
-12,
-26,
-11,
-21,
-32,
-31,
-8,
-19,
-31,
-23,
-11,
-19,
-31,
-23,
-7,
-13,
-29,
-21,
-8,
-8,
-30,
-11,
-28,
-11,
-27,
-17,
-5,
-27,
-4,
-9,
-26,
-11,
-26,
-9,
-23,
-11,
-23,
-16,
-1,
-23,
-1,
-11,
-23,
-17,
-1,
-3,
-22,
-10,
1,
-12,
0,
-5,
-19,
-8,
-19,
-10,
4,
-11,
4,
-1,
-17,
-7,
5,
-7,
5,
-12,
6,
1,
-14,
-9,
8,
-8,
8,
-1,
10,
0,
-12,
-1,
-1,
3,
-11,
4,
-11,
4,
-10,
7,
-9,
2,
15,
-1,
17,
-3,
14,
6,
-8,
6,
-7,
1,
16,
10,
-5,
11,
-5,
4,
17,
1,
18,
3,
17,
6,
18,
11,
-2,
12,
-1,
20,
-2,
9,
21,
12,
1,
18,
0,
21,
2,
24,
1,
6,
23,
12,
26,
17,
4,
9,
25,
7,
24,
13,
26,
8,
26,
17,
6,
10,
27,
12,
28,
22,
6,
20,
8,
25,
7,
21,
9,
24,
9,
17,
31,
17,
31,
21,
7,
12,
29,
20,
20,
18,
29,
17,
30,
19,
19,
23,
9,
25,
10,
17,
33,
28,
10,
23,
11,
18,
33,
22,
11,
28,
11,
26,
9,
17,
31,
28,
11,
24,
11,
23,
11,
28,
11,
28,
11,
16,
30,
29,
10,
19,
32,
29,
11,
23,
8,
24,
10,
17,
32,
17,
30,
18,
32,
16,
31,
23,
10,
20,
9,
17,
28,
21,
9,
16,
28,
16,
29,
17,
28,
23,
6,
16,
28,
19,
6,
19,
5,
16,
27,
20,
5,
16,
4,
13,
27,
9,
26,
11,
24,
16,
4,
18,
4,
13,
1,
15,
2,
21,
1,
7,
23,
13,
13,
7,
22,
8,
21,
11,
-1,
5,
21,
15,
-3,
9,
-3,
19,
-3,
4,
19,
1,
17,
9,
-5,
7,
-6,
2,
16,
3,
16,
0,
13,
8,
-6,
9,
-9,
2,
-11,
1,
1,
-3,
12,
1,
-11,
0,
-12,
7,
-11,
6,
-14,
-3,
9,
-4,
8,
-8,
8,
5,
-15,
-3,
-16,
-1,
-15,
1,
-16,
-4,
-17,
1,
-17,
-5,
