5-grundlagen-opAmps/data/ALL0047/A0047CH2.CSV

Memory Length,4000,
Trigger Level,0.00000e+00,
Source,CH2,
Probe,1.0X,
Vertical Units,V,
Vertical Scale,5.00000e-02,
Vertical Position,0.00000e+00,
Horizontal Units,S,
Horizontal Scale,5.00000e-03,
Horizontal Position,5.0000000e-03,
Horizontal Mode,Main,
Sampling Period,2.00000e-05,
Firmware,V1.14,
Time, ,
Mode,Fast,
Waveform Data,
-10,
-10,
-10,
-12,
-12,
-13,
-13,
-18,
-18,
-16,
-16,
-19,
-19,
-17,
-17,
-20,
-31,
-18,
-29,
-29,
-16,
-23,
-23,
-21,
-33,
-24,
-24,
-33,
-21,
-30,
-30,
-29,
-29,
-32,
-32,
-31,
-31,
-30,
-30,
-32,
-32,
-35,
-35,
-33,
-33,
-37,
-37,
-36,
-36,
-34,
-45,
-39,
-39,
-44,
-32,
-41,
-41,
-43,
-43,
-37,
-49,
-44,
-44,
-41,
-41,
-41,
-52,
-45,
-45,
-45,
-45,
-51,
-39,
-48,
-48,
-45,
-45,
-48,
-48,
-48,
-48,
-53,
-41,
-47,
-47,
-52,
-52,
-47,
-47,
-48,
-48,
-49,
-49,
-54,
-43,
-53,
-53,
-51,
-51,
-53,
-53,
-49,
-49,
-49,
-49,
-52,
-52,
-51,
-51,
-53,
-53,
-51,
-51,
-53,
-53,
-49,
-49,
-49,
-49,
-46,
-58,
-50,
-50,
-53,
-53,
-52,
-52,
-53,
-42,
-48,
-48,
-45,
-56,
-44,
-56,
-47,
-47,
-48,
-48,
-44,
-55,
-52,
-40,
-49,
-49,
-43,
-43,
-45,
-45,
-41,
-52,
-46,
-46,
-46,
-46,
-45,
-34,
-39,
-39,
-46,
-34,
-35,
-48,
-38,
-38,
-39,
-39,
-42,
-31,
-40,
-40,
-39,
-39,
-42,
-27,
-34,
-34,
-35,
-35,
-32,
-32,
-33,
-33,
-29,
-29,
-28,
-28,
-31,
-31,
-28,
-28,
-28,
-28,
-27,
-27,
-23,
-23,
-22,
-22,
-24,
-24,
-19,
-19,
-16,
-27,
-20,
-20,
-17,
-17,
-18,
-18,
-17,
-17,
-14,
-14,
-11,
-11,
-9,
-9,
-11,
-11,
-5,
-17,
-8,
-8,
-4,
-4,
-4,
-4,
-8,
3,
-5,
-5,
-2,
-2,
0,
0,
0,
0,
0,
0,
3,
3,
5,
5,
11,
0,
11,
11,
9,
9,
12,
12,
10,
22,
9,
9,
18,
7,
15,
15,
15,
15,
17,
17,
14,
25,
21,
21,
20,
20,
20,
20,
24,
24,
27,
27,
25,
25,
27,
15,
35,
19,
29,
16,
26,
38,
32,
32,
28,
28,
34,
34,
35,
35,
33,
33,
37,
37,
39,
39,
38,
38,
34,
47,
37,
37,
27,
50,
43,
32,
43,
43,
36,
48,
43,
32,
43,
43,
38,
50,
38,
51,
46,
46,
48,
48,
40,
52,
41,
53,
43,
43,
48,
37,
45,
45,
48,
48,
47,
47,
50,
50,
47,
47,
49,
49,
51,
51,
49,
49,
51,
51,
46,
46,
50,
50,
46,
57,
53,
41,
51,
40,
49,
49,
51,
51,
48,
48,
48,
48,
49,
49,
49,
49,
49,
49,
45,
45,
47,
47,
44,
44,
47,
47,
46,
46,
45,
45,
44,
44,
46,
46,
40,
40,
43,
43,
47,
36,
42,
42,
46,
34,
40,
40,
38,
38,
45,
33,
39,
39,
36,
36,
39,
39,
37,
37,
31,
43,
37,
37,
31,
31,
34,
34,
35,
35,
26,
39,
35,
23,
31,
31,
31,
31,
31,
20,
23,
23,
27,
27,
24,
24,
16,
30,
20,
20,
23,
23,
20,
20,
22,
11,
21,
10,
17,
17,
11,
23,
13,
13,
16,
5,
9,
9,
7,
7,
11,
11,
11,
0,
4,
4,
7,
7,
2,
2,
5,
5,
6,
-5,
8,
-8,
2,
-9,
-2,
-2,
-5,
-5,
-5,
-5,
-6,
-6,
-8,
-8,
-5,
-5,
-3,
-17,
-8,
-8,
-11,
-11,
-13,
-13,
-17,
-17,
-13,
-24,
-16,
-16,
-19,
-19,
-18,
-18,
-26,
-13,
-20,
-20,
-22,
-22,
-24,
-24,
-22,
-34,
-24,
-24,
-29,
-29,
-28,
-28,
-33,
-22,
-32,
-32,
-32,
-32,
-33,
-33,
-29,
-41,
-35,
-35,
-32,
-43,
-37,
-37,
-33,
-45,
-33,
-47,
-43,
-31,
-43,
-43,
-37,
-48,
-37,
-49,
-41,
-52,
-46,
-46,
-41,
-41,
-41,
-53,
-48,
-37,
-44,
-44,
-46,
-46,
-41,
-54,
-48,
-48,
-49,
-49,
-45,
-45,
-46,
-46,
-49,
-49,
-47,
-47,
-53,
-42,
-53,
-42,
-48,
-48,
-53,
-53,
-52,
-52,
-49,
-60,
-52,
-52,
-49,
-60,
-57,
-44,
-53,
-42,
-50,
-50,
-55,
-44,
-53,
-53,
-53,
-53,
-50,
-50,
-49,
-49,
-52,
-52,
-51,
-51,
-51,
-51,
-50,
-50,
-53,
-41,
-51,
-51,
-45,
-57,
-47,
-47,
-46,
-46,
-50,
-50,
-48,
-48,
-47,
-47,
-44,
-56,
-48,
-48,
-41,
-52,
-42,
-42,
-43,
-43,
-46,
-46,
-39,
-50,
-39,
-51,
-45,
-45,
-40,
-40,
-41,
-41,
-43,
-32,
-38,
-38,
-34,
-45,
-35,
-35,
-36,
-36,
-37,
-37,
-28,
-42,
-34,
-34,
-33,
-33,
-27,
-38,
-31,
-31,
-33,
-22,
-25,
-25,
-24,
-35,
-32,
-17,
-25,
-25,
-26,
-26,
-25,
-25,
-23,
-23,
-18,
-18,
-19,
-19,
-16,
-16,
-18,
-18,
-12,
-23,
-10,
-21,
-12,
-12,
-14,
-14,
-14,
-3,
-15,
-2,
-8,
-8,
-6,
-6,
-4,
-4,
-2,
-2,
2,
-10,
-3,
-3,
-2,
-2,
-4,
7,
2,
2,
1,
1,
6,
6,
8,
8,
8,
8,
6,
6,
7,
19,
13,
13,
12,
12,
15,
15,
14,
14,
15,
15,
18,
18,
17,
17,
18,
18,
19,
19,
22,
22,
27,
16,
23,
23,
20,
32,
29,
29,
23,
34,
28,
39,
30,
30,
27,
27,
26,
41,
33,
33,
32,
32,
33,
33,
37,
37,
31,
42,
36,
36,
38,
38,
40,
40,
37,
37,
41,
41,
43,
43,
43,
43,
41,
41,
45,
45,
42,
42,
46,
35,
47,
47,
48,
48,
45,
45,
46,
46,
49,
49,
46,
46,
49,
49,
46,
46,
45,
45,
51,
40,
51,
51,
49,
49,
54,
41,
52,
52,
51,
51,
51,
40,
53,
41,
46,
46,
47,
47,
46,
46,
44,
56,
43,
55,
49,
49,
52,
52,
50,
50,
48,
48,
49,
49,
45,
45,
43,
54,
48,
48,
45,
45,
47,
47,
47,
47,
42,
42,
45,
45,
45,
45,
39,
39,
48,
37,
42,
42,
43,
43,
38,
38,
38,
49,
43,
43,
38,
38,
39,
39,
39,
39,
42,
29,
37,
37,
34,
34,
39,
27,
29,
29,
27,
39,
34,
34,
31,
31,
31,
31,
29,
29,
30,
30,
27,
27,
26,
26,
22,
22,
26,
15,
20,
20,
21,
21,
25,
13,
19,
19,
19,
19,
15,
15,
16,
16,
14,
14,
19,
5,
15,
3,
9,
9,
14,
1,
7,
7,
8,
8,
3,
3,
7,
-5,
-1,
-1,
3,
3,
4,
-8,
0,
0,
-2,
-2,
2,
-12,
-9,
3,
-1,
-14,
-5,
-5,
-11,
-11,
-12,
-12,
-13,
-13,
-13,
-13,
-13,
-13,
-17,
-17,
-16,
-16,
-14,
-14,
-19,
-19,
-17,
-17,
-20,
-20,
-26,
-14,
-18,
-31,
-23,
-23,
-19,
-34,
-31,
-19,
-23,
-34,
-32,
-21,
-28,
-28,
-27,
-38,
-33,
-33,
-30,
-30,
-32,
-32,
-33,
-33,
-36,
-36,
-34,
-34,
-35,
-35,
-38,
-38,
-35,
-46,
-37,
-48,
-41,
-41,
-46,
-34,
-43,
-43,
-43,
-43,
-41,
-41,
-41,
-41,
-49,
-38,
-43,
-43,
-45,
-45,
-43,
-43,
-51,
-40,
-47,
-47,
-52,
-40,
-47,
-47,
-44,
-57,
-48,
-48,
-48,
-48,
-51,
-51,
-47,
-47,
-54,
-43,
-46,
-57,
-54,
-41,
-49,
-49,
-53,
-53,
-48,
-48,
-45,
-59,
-52,
-52,
-55,
-55,
-54,
-43,
-58,
-45,
-52,
-52,
-52,
-52,
-51,
-51,
-49,
-49,
-47,
-47,
-53,
-42,
-48,
-48,
-47,
-47,
-46,
-46,
-49,
-49,
-45,
-56,
-47,
-47,
-44,
-44,
-45,
-45,
-49,
-38,
-49,
-49,
-46,
-46,
-43,
-43,
-41,
-52,
-45,
-45,
-43,
-43,
-43,
-43,
-38,
-49,
-40,
-40,
-40,
-40,
-41,
-41,
-38,
-38,
-44,
-29,
-36,
-36,
-41,
-29,
-37,
-26,
-36,
-36,
-31,
-31,
-30,
-30,
-28,
-28,
-32,
-32,
-35,
-21,
-31,
-31,
-25,
-25,
-26,
-26,
-31,
-17,
-26,
-26,
-19,
-19,
-14,
-29,
-24,
-12,
-23,
-12,
-20,
-9,
-16,
-16,
-14,
-14,
-18,
-7,
-10,
-21,
-13,
-13,
-9,
-9,
-7,
-18,
-5,
-5,
-9,
-9,
-3,
-3,
-4,
-4,
-1,
-1,
-6,
7,
2,
2,
2,
2,
-1,
-1,
-1,
11,
10,
-3,
5,
5,
10,
10,
10,
10,
8,
8,
9,
9,
14,
3,
15,
15,
12,
25,
16,
16,
16,
16,
22,
22,
24,
12,
18,
18,
22,
22,
25,
25,
24,
24,
25,
25,
24,
24,
26,
26,
26,
39,
25,
36,
33,
20,
34,
23,
35,
35,
28,
40,
35,
35,
35,
35,
35,
35,
39,
39,
38,
38,
33,
45,
40,
40,
41,
30,
41,
41,
39,
39,
39,
39,
42,
42,
41,
41,
47,
36,
47,
36,
44,
44,
45,
45,
43,
43,
49,
49,
51,
39,
50,
39,
45,
45,
48,
48,
46,
46,
53,
40,
46,
46,
48,
48,
50,
50,
51,
51,
46,
46,
47,
47,
47,
47,
48,
48,
45,
56,
49,
49,
50,
50,
47,
47,
48,
48,
46,
46,
50,
50,
47,
47,
51,
51,
41,
54,
47,
47,
45,
45,
51,
39,
43,
43,
42,
42,
46,
46,
43,
43,
49,
37,
39,
50,
44,
44,
45,
45,
45,
34,
41,
41,
39,
39,
33,
45,
38,
38,
31,
44,
32,
45,
37,
37,
36,
36,
37,
26,
36,
25,
31,
31,
30,
30,
31,
31,
34,
22,
30,
30,
30,
19,
29,
29,
27,
27,
19,
31,
20,
20,
21,
21,
25,
14,
22,
11,
21,
21,
19,
19,
16,
16,
11,
24,
16,
5,
10,
21,
16,
4,
11,
11,
8,
8,
15,
-1,
4,
4,
3,
3,
-2,
13,
3,
3,
6,
-6,
1,
1,
0,
0,
-5,
-5,
-2,
-2,
-5,
-5,
-9,
2,
-6,
-6,
-6,
-6,
-10,
-10,
-4,
-18,
-12,
-12,
-12,
-12,
-9,
-22,
-18,
-18,
-15,
-15,
-19,
-19,
-23,
-11,
-17,
-29,
-21,
-21,
-25,
-25,
-25,
-25,
-29,
-18,
-28,
-17,
-26,
-26,
-24,
-36,
-29,
-29,
-26,
-37,
-27,
-39,
-32,
-32,
-31,
-31,
-30,
-42,
-34,
-34,
-36,
-36,
-37,
-37,
-34,
-47,
-36,
-36,
-37,
-48,
-35,
-47,
-37,
-49,
-45,
-34,
-43,
-43,
-41,
-41,
-48,
-37,
-46,
-46,
-48,
-48,
-50,
-39,
-50,
-50,
-41,
-55,
-48,
-48,
-51,
-40,
-45,
-45,
-49,
-49,
-51,
-51,
-45,
-56,
-49,
-49,
-42,
-57,
-52,
-52,
-54,
-54,
-53,
-53,
-50,
-50,
-49,
-49,
-53,
-53,
-49,
-60,
-52,
-52,
-50,
-50,
-51,
-51,
-50,
-50,
-52,
-52,
-46,
-59,
-54,
-43,
-45,
-57,
-51,
-51,
-53,
-41,
-46,
-46,
-49,
-49,
-45,
-57,
-48,
-48,
-50,
-50,
-46,
-46,
-52,
-39,
-46,
-46,
-50,
-39,
-43,
-43,
-47,
-47,
-44,
-44,
-48,
-37,
-45,
-45,
-43,
-43,
-38,
-49,
-46,
-33,
-41,
-41,
-43,
-32,
-37,
-37,
-36,
-47,
-38,
-38,
-42,
-29,
-36,
-36,
-33,
-33,
-33,
-33,
-35,
-24,
-30,
-30,
-29,
-29,
-27,
-27,
-35,
-21,
-30,
-30,
-27,
-27,
-30,
-17,
-29,
-18,
-24,
-24,
-22,
-22,
-18,
-18,
-23,
-23,
-22,
-22,
-17,
-17,
-18,
-18,
-13,
-13,
-17,
-6,
-12,
-12,
-11,
-11,
-10,
-10,
-7,
-7,
-9,
-9,
-11,
-11,
-1,
-12,
-7,
-7,
1,
-11,
-7,
7,
-1,
-1,
3,
3,
4,
4,
7,
7,
5,
5,
9,
9,
9,
9,
10,
10,
9,
9,
12,
12,
12,
12,
18,
6,
15,
15,
15,
15,
18,
18,
14,
25,
22,
11,
14,
27,
24,
24,
26,
15,
22,
22,
28,
17,
26,
26,
31,
20,
22,
36,
23,
36,
33,
33,
35,
24,
33,
33,
31,
43,
33,
33,
39,
27,
36,
36,
38,
38,
36,
36,
39,
39,
40,
40,
42,
42,
38,
49,
44,
33,
39,
39,
41,
41,
45,
45,
45,
45,
46,
46,
48,
48,
43,
43,
45,
45,
44,
44,
43,
43,
48,
48,
50,
50,
51,
40,
47,
47,
47,
47,
49,
49,
47,
47,
48,
48,
50,
50,
51,
51,
45,
56,
47,
47,
50,
50,
51,
51,
49,
49,
46,
46,
50,
50,
46,
46,
44,
55,
46,
46,
51,
39,
48,
48,
46,
46,
47,
47,
51,
39,
44,
44,
45,
45,
45,
45,
46,
35,
46,
46,
43,
43,
42,
42,
42,
42,
40,
40,
41,
41,
43,
43,
39,
39,
41,
41,
38,
38,
40,
40,
35,
35,
31,
42,
39,
27,
31,
31,
35,
35,
34,
34,
31,
31,
28,
28,
31,
31,
27,
27,
26,
26,
27,
27,
23,
23,
29,
17,
24,
24,
22,
22,
19,
19,
19,
19,
19,
19,
14,
25,
21,
8,
19,
8,
11,
22,
11,
11,
12,
12,
11,
11,
7,
7,
7,
7,
9,
9,
4,
4,
3,
3,
3,
3,
-5,
8,
3,
3,
-1,
-1,
-1,
-1,
-1,
-1,
-4,
-4,
-5,
-5,
-6,
-6,
-12,
-12,
-6,
-17,
-9,
-9,
-8,
-20,
-11,
-11,
-14,
-14,
-15,
-15,
-11,
-24,
-19,
-19,
-17,
-17,
-27,
-13,
-23,
-23,
-24,
-24,
-21,
-32,
-23,
-23,
-27,
-27,
-26,
-26,
-29,
-29,
-30,
-30,
-33,
-33,
-31,
-31,
-32,
-32,
-30,
-41,
-35,
-35,
-41,
-27,
-39,
-39,
-36,
-36,
-34,
-45,
-37,
-37,
-41,
-41,
-37,
-49,
-40,
-40,
-41,
-41,
-41,
-41,
-40,
-40,
-42,
-42,
-40,
-53,
-45,
-45,
-46,
-46,
-49,
-49,
-42,
-54,
-45,
-56,
-44,
-44,
-48,
-48,
-48,
-48,
-47,
-47,
-49,
-49,
-49,
-49,
-53,
-42,
-47,
-47,
-51,
-51,
-54,
-54,
-52,
-52,
-49,
-49,
-54,
-54,
-48,
-59,
-51,
-51,
-49,
-49,
-54,
-54,
-53,
-53,
-49,
-49,
-46,
-59,
-53,
-53,
-54,
-42,
-51,
-51,
-49,
-49,
-50,
-50,
-45,
-57,
-46,
-57,
-46,
-46,
-50,
-50,
-54,
-41,
-48,
-48,
-43,
-54,
-46,
-46,
-44,
-44,
-50,
-37,
-41,
-53,
-44,
-44,
-43,
-43,
-41,
-41,
-36,
-51,
-43,
-43,
-44,
-33,
-40,
-40,
-41,
-41,
-42,
-31,
-33,
-44,
-38,
-38,
-38,
-38,
-41,
-27,
-29,
-29,
-30,
-30,
-32,
-32,
-35,
-22,
-29,
-29,
-30,
-30,
-25,
-25,
-29,
-18,
-25,
-25,
-28,
-28,
-20,
-20,
-21,
-21,
-24,
-13,
-20,
-20,
-20,
-20,
-18,
-18,
-14,
-14,
-17,
-17,
-13,
-13,
-12,
-12,
-13,
-13,
-14,
-2,
-5,
-17,
-10,
1,
-7,
-7,
-4,
-4,
-8,
3,
-3,
-3,
-2,
-2,
1,
1,
-2,
9,
2,
2,
4,
4,
7,
7,
0,
14,
2,
15,
8,
8,
9,
9,
10,
10,
13,
13,
16,
5,
15,
15,
17,
17,
19,
19,
19,
19,
18,
18,
23,
23,
25,
25,
26,
15,
24,
24,
26,
15,
22,
34,
30,
30,
32,
21,
30,
30,
26,
38,
27,
39,
35,
35,
31,
31,
29,
41,
37,
37,
34,
34,
39,
28,
37,
37,
41,
29,
38,
38,
38,
38,
39,
39,
41,
41,
43,
43,
42,
42,
40,
52,
42,
42,
37,
51,
46,
46,
42,
42,
44,
44,
47,
47,
41,
53,
48,
48,
48,
48,
51,
40,
49,
49,
49,
49,
50,
50,
49,
49,
43,
56,
50,
50,
55,
42,
43,
57,
50,
50,
50,
50,
53,
53,
45,
45,
49,
49,
52,
41,
48,
48,
48,
48,
49,
49,
49,
49,
48,
48,
51,
39,
51,
40,
48,
48,
48,
48,
44,
44,
46,
46,
43,
43,
44,
44,
43,
43,
47,
47,
42,
42,
42,
42,
41,
41,
45,
34,
36,
47,
37,
37,
40,
40,
35,
35,
37,
37,
39,
28,
35,
35,
38,
38,
33,
33,
35,
35,
31,
31,
37,
22,
30,
30,
32,
20,
28,
28,
27,
27,
27,
27,
24,
24,
22,
22,
22,
22,
20,
20,
21,
21,
21,
21,
17,
17,
20,
8,
10,
23,
13,
13,
12,
12,
14,
3,
14,
3,
13,
1,
9,
9,
7,
7,
11,
-3,
8,
-3,
6,
-5,
-1,
-1,
-2,
-2,
1,
1,
-1,
-1,
-2,
-2,
-5,
-5,
-4,
-4,
-9,
-9,
-5,
-17,
-7,
-7,
-12,
-12,
-6,
-19,
-9,
-21,
-13,
-13,
-19,
-19,
-15,
-15,
-16,
-16,
-21,
-21,
-21,
-21,
-23,
-23,
-20,
-31,
-20,
-32,
-21,
-33,
-29,
-29,
-19,
-35,
-27,
-27,
-29,
-29,
-32,
-32,
-34,
-34,
-30,
-41,
-30,
-41,
-40,
-26,
-36,
-36,
-34,
-34,
-42,
-29,
-38,
-38,
-40,
-40,
-39,
-39,
-37,
-49,
-45,
-34,
-40,
-52,
-42,
-42,
-45,
-45,
-40,
-52,
-44,
-44,
-46,
-46,
-44,
-44,
-40,
-54,
-46,
-46,
-45,
-45,
-43,
-55,
-47,
-47,
-46,
-46,
-45,
-56,
-45,
-57,
-51,
-51,
-48,
-48,
-52,
-52,
-51,
-51,
-50,
-50,
-53,
-53,
-50,
-50,
-52,
-52,
-54,
-43,
-48,
-59,
-51,
-51,
-51,
-51,
-51,
-51,
-51,
-51,
-52,
-52,
-46,
-58,
-55,
-43,
-54,
-43,
-46,
-57,
-53,
-42,
-49,
-49,
-45,
-56,
-50,
-50,
-45,
-57,
-47,
-47,
-45,
-45,
-50,
-50,
-41,
-54,
-44,
-44,
-49,
-38,
-47,
-47,
-41,
-52,
-40,
-51,
-45,
-45,
-39,
-51,
-41,
-41,
-40,
-40,
-43,
-43,
-38,
-38,
-36,
-36,
-33,
-45,
-34,
-34,
-35,
-35,
-32,
-32,
-35,
-35,
-39,
-24,
-37,
-25,
-36,
-23,
-25,
-38,
-32,
-32,
-25,
-25,
-25,
-25,
-23,
-23,
-27,
-27,
-23,
-23,
-24,
-24,
-23,
-23,
-19,
-19,
-20,
-20,
-18,
-18,
-15,
-15,
-18,
-5,
-15,
-3,
-14,
-14,
-9,
-9,
-10,
-10,
-9,
-9,
-8,
-8,
-10,
1,
-9,
3,
-7,
4,
-3,
-3,
3,
-8,
3,
3,
1,
1,
-1,
10,
7,
-5,
1,
12,
6,
6,
9,
9,
9,
9,
11,
11,
10,
10,
6,
19,
11,
22,
12,
12,
15,
15,
15,
15,
14,
25,
19,
19,
16,
27,
21,
21,
19,
30,
18,
31,
25,
25,
24,
24,
27,
27,
28,
28,
27,
38,
28,
28,
32,
32,
29,
29,
31,
31,
35,
35,
31,
31,
34,
34,
35,
35,
38,
38,
39,
39,
38,
38,
39,
39,
37,
37,
37,
50,
42,
42,
44,
44,
46,
46,
44,
44,
40,
51,
45,
45,
46,
46,
50,
38,
43,
54,
50,
38,
49,
49,
48,
48,
44,
55,
46,
46,
49,
49,
46,
46,
50,
50,
50,
50,
46,
46,
51,
51,
46,
46,
48,
48,
48,
48,
51,
51,
50,
50,
53,
40,
45,
45,
46,
46,
45,
45,
50,
50,
51,
51,
47,
47,
41,
54,
41,
55,
53,
40,
47,
47,
48,
48,
45,
45,
44,
44,
45,
45,
41,
41,
40,
40,
46,
46,
43,
43,
47,
35,
40,
40,
40,
40,
40,
40,
39,
39,
35,
35,
42,
31,
35,
35,
31,
31,
35,
35,
31,
31,
34,
34,
32,
32,
35,
23,
31,
31,
30,
30,
28,
28,
27,
27,
20,
32,
27,
16,
28,
16,
23,
23,
24,
24,
21,
21,
21,
21,
14,
25,
15,
15,
18,
18,
17,
6,
15,
15,
8,
8,
13,
2,
14,
1,
7,
7,
11,
-1,
7,
7,
9,
-4,
-3,
10,
6,
-6,
2,
2,
-2,
-2,
-3,
-3,
-6,
-6,
-2,
-2,
-8,
3,
-10,
-10,
-12,
-1,
-12,
-12,
-13,
-13,
-10,
-10,
-13,
-13,
-13,
-13,
-18,
-18,
-17,
-17,
-16,
-16,
-18,
-29,
-21,
-21,
-20,
-20,
-23,
-23,
-23,
-23,
-25,
-25,
-24,
-24,
-23,
-35,
-27,
-27,
-26,
-26,
-29,
-29,
-36,
-25,
-30,
-30,
-29,
-41,
-35,
-35,
-34,
-34,
-33,
-44,
-40,
-40,
-39,
-39,
-40,
-40,
-36,
-47,
-40,
-40,
-42,
-42,
-47,
-35,
-41,
-41,
-40,
-51,
-39,
-51,
-45,
-45,
-48,
-37,
-40,
-53,
-40,
-54,
-52,
-40,
-46,
-46,
-50,
-50,
-49,
-49,
-53,
-42,
-49,
-49,
-42,
-56,
-53,
-42,
-46,
-57,
-52,
-52,
-50,
-50,
-45,
-58,
-49,
-49,
-49,
-49,
-53,
-53,
-46,
-58,
-52,
-52,
-53,
-53,
-48,
-59,
-50,
-50,
-54,
-54,
-50,
-50,
-48,
-48,
-53,
-53,
-50,
-50,
-50,
-50,
-50,
-50,
-52,
-52,
-55,
-42,
-47,
-47,
-49,
-49,
-46,
-46,
-46,
-46,
-48,
-48,
-42,
-54,
-47,
-47,
-51,
-37,
-42,
-42,
-39,
-53,
-42,
-42,
-41,
-41,
-40,
-40,
-43,
-43,
-41,
-41,
-46,
-33,
-39,
-39,
-39,
-39,
-40,
-40,
-37,
-37,
-31,
-43,
-35,
-35,
-31,
-31,
-31,
-31,
-30,
-30,
-31,
-31,
-26,
-26,
-30,
-30,
-32,
-19,
-29,
-29,
-31,
-18,
-24,
-24,
-28,
-16,
-18,
-30,
-24,
-13,
-19,
-19,
-19,
-19,
-17,
-17,
-12,
-24,
-15,
-15,
-11,
-22,
-8,
-19,
-11,
-11,
-10,
-10,
-6,
-17,
-9,
-9,
-7,
-7,
-6,
-6,
-5,
6,
-6,
5,
3,
-8,
0,
0,
-3,
9,
-1,
11,
0,
13,
5,
5,
1,
14,
9,
9,
5,
16,
7,
7,
12,
12,
8,
19,
17,
5,
15,
15,
15,
15,
18,
18,
18,
18,
25,
13,
20,
20,
19,
33,
23,
23,
21,
21,
27,
27,
28,
28,
27,
27,
25,
25,
23,
38,
30,
30,
31,
31,
26,
40,
29,
41,
38,
24,
34,
22,
38,
25,
36,
36,
35,
35,
41,
30,
35,
47,
39,
39,
42,
42,
37,
48,
42,
42,
41,
41,
44,
44,
44,
44,
45,
45,
49,
37,
42,
42,
46,
46,
46,
46,
46,
46,
43,
43,
46,
46,
48,
48,
47,
47,
51,
40,
47,
47,
46,
46,
50,
50,
50,
50,
50,
50,
48,
48,
45,
45,
46,
46,
51,
51,
52,
41,
45,
45,
53,
42,
47,
47,
48,
48,
51,
51,
44,
44,
52,
41,
51,
40,
44,
44,
49,
49,
46,
46,
46,
46,
49,
37,
47,
47,
43,
43,
44,
44,
45,
45,
45,
45,
44,
44,
44,
44,
46,
34,
41,
41,
33,
45,
39,
39,
37,
37,
40,
40,
37,
37,
35,
35,
34,
34,
37,
26,
35,
35,
33,
33,
34,
23,
31,
31,
32,
21,
28,
28,
28,
28,
29,
29,
29,
17,
27,
16,
19,
19,
21,
21,
20,
20,
23,
12,
19,
19,
18,
18,
17,
17,
12,
12,
9,
9,
14,
3,
12,
12,
12,
1,
2,
15,
3,
3,
3,
3,
2,
2,
6,
-6,
2,
2,
2,
2,
1,
1,
-5,
-5,
0,
0,
-6,
-6,
-4,
-4,
-12,
1,
-9,
-9,
-8,
-8,
-11,
-11,
-8,
-19,
-13,
-13,
-16,
-16,
-11,
-24,
-16,
-16,
-15,
-26,
-14,
-27,
-20,
-20,
-22,
-22,
-19,
-31,
-21,
-21,
-26,
-26,
-26,
-26,
-25,
-25,
-22,
-36,
-32,
-32,
-27,
-38,
-32,
-32,
-30,
-30,
-32,
-32,
-35,
-35,
-34,
-34,
-37,
-37,
-31,
-44,
-40,
-40,
-38,
-38,
-37,
-37,
-42,
-42,
-41,
-41,
-39,
-39,
-41,
-41,
-43,
-43,
-46,
-46,
-37,
-54,
-45,
-45,
-47,
-47,
-48,
-48,
-50,
-50,
-49,
-49,
-44,
-44,
-49,
-49,
-49,
-49,
-53,
-42,
-45,
-58,
-52,
-52,
-53,
-41,
-51,
-51,
-53,
-42,
-52,
-52,
-51,
-51,
-50,
-50,
-55,
-44,
-51,
-51,
-54,
-54,
-52,
-52,
-49,
-49,
-49,
-49,
-52,
-52,
-50,
-50,
-48,
-48,
-49,
-49,
-46,
-57,
-50,
-50,
-53,
-53,
-45,
-56,
-54,
-42,
-48,
-48,
-49,
-49,
-50,
-50,
-48,
-48,
-53,
-39,
-45,
-45,
-47,
-47,
-47,
-47,
-46,
-46,
-40,
-52,
-44,
-44,
-44,
-44,
-42,
-42,
-36,
-48,
-40,
-40,
-38,
-38,
-41,
-41,
-40,
-40,
-37,
-37,
-38,
-38,
-37,
-37,
-35,
-35,
-35,
-35,
-29,
-40,
-31,
-31,
-32,
-32,
-26,
-37,
-27,
-27,
-31,
-20,
-26,
-26,
-24,
-24,
-23,
-34,
-23,
-12,
-21,
-21,
-21,
-21,
-21,
-21,
-18,
-18,
-18,
-18,
-13,
-24,
-18,
-7,
-15,
-15,
-10,
-21,
-11,
-11,
-10,
-10,
-11,
-11,
-8,
-8,
-9,
-9,
-7,
-7,
-10,
3,
-1,
-1,
-5,
6,
-2,
-2,
3,
3,
2,
2,
3,
3,
7,
7,
8,
-3,
7,
7,
9,
9,
10,
10,
10,
10,
9,
20,
12,
12,
13,
13,
15,
15,
21,
10,
18,
18,
22,
22,
16,
28,
22,
22,
22,
22,
23,
23,
27,
15,
26,
26,
26,
26,
26,
26,
33,
33,
33,
33,
28,
28,
28,
39,
31,
31,
34,
34,
32,
32,
33,
33,
36,
36,
28,
46,
39,
39,
38,
51,
38,
38,
42,
42,
45,
33,
45,
34,
45,
45,
45,
45,
40,
40,
41,
52,
46,
46,
41,
41,
47,
47,
41,
53,
43,
43,
47,
47,
46,
46,
51,
51,
47,
47,
52,
40,
49,
49,
51,
51,
50,
50,
52,
52,
52,
52,
44,
57,
54,
42,
53,
53,
46,
46,
50,
50,
51,
51,
43,
57,
51,
40,
50,
50,
54,
41,
48,
48,
50,
50,
43,
54,
46,
46,
46,
46,
46,
46,
47,
47,
42,
42,
46,
46,
45,
45,
41,
41,
43,
43,
40,
51,
43,
43,
41,
41,
41,
41,
41,
41,
37,
37,
41,
41,
36,
36,
39,
39,
34,
34,
32,
32,
38,
27,
32,
32,
31,
31,
35,
23,
35,
23,
27,
27,
28,
28,
26,
26,
26,
26,
26,
26,
23,
23,
28,
16,
19,
19,
20,
20,
19,
19,
15,
27,
22,
9,
16,
16,
15,
15,
13,
13,
11,
11,
17,
5,
14,
3,
12,
12,
10,
-1,
7,
7,
6,
6,
4,
4,
7,
-6,
7,
-7,
1,
1,
0,
0,
-2,
-2,
3,
-11,
-4,
-4,
-4,
-4,
-3,
-14,
-4,
-16,
-1,
-16,
-7,
