5-grundlagen-opAmps/data/ALL0048/A0048CH2.CSV

Memory Length,4000,
Trigger Level,0.00000e+00,
Source,CH2,
Probe,1.0X,
Vertical Units,V,
Vertical Scale,5.00000e-02,
Vertical Position,0.00000e+00,
Horizontal Units,S,
Horizontal Scale,1.00000e-02,
Horizontal Position,1.0000000e-02,
Horizontal Mode,Main,
Sampling Period,4.00000e-05,
Firmware,V1.14,
Time, ,
Mode,Fast,
Waveform Data,
-9,
-9,
-22,
-14,
-2,
-13,
-13,
-13,
-13,
-15,
-15,
-16,
-16,
-16,
-16,
-18,
-18,
-22,
-22,
-18,
-29,
-24,
-24,
-21,
-21,
-26,
-26,
-26,
-26,
-28,
-28,
-33,
-22,
-30,
-30,
-32,
-32,
-28,
-39,
-36,
-36,
-33,
-33,
-35,
-35,
-38,
-38,
-34,
-34,
-35,
-35,
-43,
-32,
-34,
-46,
-34,
-46,
-42,
-42,
-43,
-43,
-41,
-41,
-44,
-44,
-39,
-51,
-44,
-44,
-41,
-41,
-45,
-45,
-44,
-44,
-49,
-49,
-49,
-49,
-45,
-45,
-53,
-41,
-46,
-46,
-49,
-49,
-52,
-52,
-52,
-52,
-49,
-49,
-50,
-50,
-52,
-52,
-47,
-59,
-49,
-49,
-52,
-52,
-50,
-50,
-50,
-50,
-49,
-49,
-48,
-48,
-52,
-52,
-52,
-52,
-51,
-51,
-52,
-52,
-49,
-49,
-48,
-48,
-48,
-48,
-54,
-54,
-52,
-52,
-50,
-50,
-52,
-52,
-53,
-42,
-49,
-49,
-45,
-56,
-48,
-48,
-45,
-45,
-47,
-47,
-46,
-46,
-50,
-39,
-43,
-43,
-44,
-44,
-43,
-43,
-41,
-41,
-41,
-41,
-42,
-42,
-42,
-42,
-39,
-39,
-39,
-39,
-41,
-41,
-37,
-37,
-32,
-43,
-37,
-37,
-35,
-35,
-36,
-36,
-31,
-31,
-33,
-33,
-28,
-28,
-32,
-32,
-25,
-38,
-31,
-31,
-29,
-29,
-25,
-25,
-25,
-25,
-23,
-23,
-23,
-23,
-19,
-19,
-27,
-13,
-18,
-18,
-19,
-19,
-17,
-17,
-20,
-9,
-12,
-12,
-15,
-15,
-14,
-14,
-15,
-4,
-9,
-9,
-10,
-10,
-7,
-7,
-5,
-16,
-8,
5,
-2,
-2,
-5,
-5,
0,
0,
-1,
-1,
2,
2,
4,
15,
-9,
19,
2,
14,
9,
9,
5,
5,
8,
8,
11,
11,
0,
24,
12,
23,
15,
15,
15,
15,
19,
19,
18,
18,
14,
27,
20,
20,
19,
19,
19,
19,
22,
22,
24,
24,
24,
24,
29,
29,
30,
30,
28,
28,
29,
29,
31,
31,
32,
32,
32,
32,
31,
31,
31,
31,
36,
36,
35,
35,
38,
38,
38,
38,
38,
38,
37,
37,
39,
39,
38,
38,
38,
38,
45,
45,
42,
42,
41,
41,
45,
45,
44,
44,
45,
45,
49,
49,
43,
43,
43,
43,
43,
43,
44,
44,
45,
45,
50,
50,
49,
49,
46,
46,
45,
56,
49,
49,
46,
46,
49,
49,
51,
51,
48,
48,
48,
48,
45,
45,
51,
51,
49,
49,
50,
50,
49,
49,
50,
50,
47,
47,
48,
36,
47,
47,
50,
50,
47,
47,
50,
50,
47,
47,
44,
55,
47,
47,
47,
47,
46,
46,
41,
41,
47,
47,
45,
45,
43,
43,
46,
35,
40,
40,
43,
43,
40,
40,
37,
37,
37,
37,
43,
26,
37,
37,
41,
30,
34,
34,
35,
35,
35,
35,
30,
42,
36,
23,
34,
34,
32,
32,
29,
29,
28,
28,
30,
19,
26,
26,
20,
33,
26,
26,
21,
21,
21,
21,
19,
19,
19,
19,
18,
7,
19,
19,
19,
19,
18,
18,
12,
12,
16,
4,
12,
12,
11,
11,
9,
9,
5,
5,
6,
6,
11,
-3,
2,
2,
-2,
10,
1,
1,
3,
3,
-2,
-2,
-4,
-4,
-8,
-8,
-8,
-8,
-10,
1,
-7,
-7,
-8,
-8,
-12,
-12,
-12,
-12,
-13,
-13,
-15,
-15,
-15,
-15,
-19,
-19,
-18,
-18,
-16,
-16,
-21,
-21,
-21,
-21,
-27,
-27,
-23,
-23,
-26,
-26,
-24,
-24,
-26,
-26,
-31,
-31,
-29,
-29,
-30,
-30,
-29,
-29,
-32,
-32,
-31,
-31,
-35,
-35,
-33,
-33,
-38,
-38,
-37,
-37,
-37,
-37,
-40,
-40,
-41,
-41,
-37,
-37,
-45,
-45,
-44,
-44,
-41,
-41,
-42,
-42,
-44,
-44,
-45,
-45,
-47,
-47,
-47,
-47,
-45,
-45,
-45,
-45,
-47,
-47,
-48,
-48,
-50,
-50,
-45,
-45,
-51,
-51,
-49,
-49,
-52,
-52,
-52,
-52,
-50,
-50,
-51,
-51,
-50,
-50,
-57,
-44,
-49,
-49,
-53,
-53,
-51,
-51,
-53,
-53,
-53,
-53,
-50,
-50,
-48,
-48,
-54,
-54,
-53,
-53,
-50,
-50,
-53,
-53,
-49,
-49,
-53,
-53,
-49,
-49,
-49,
-49,
-50,
-50,
-47,
-47,
-50,
-50,
-51,
-40,
-47,
-47,
-45,
-45,
-46,
-46,
-46,
-46,
-47,
-47,
-46,
-46,
-45,
-45,
-46,
-46,
-43,
-43,
-40,
-40,
-45,
-45,
-37,
-48,
-38,
-38,
-39,
-39,
-41,
-41,
-34,
-34,
-36,
-36,
-38,
-38,
-31,
-31,
-31,
-31,
-34,
-34,
-27,
-27,
-29,
-29,
-30,
-30,
-25,
-25,
-27,
-27,
-25,
-25,
-22,
-33,
-26,
-26,
-26,
-26,
-21,
-21,
-24,
-24,
-22,
-22,
-15,
-15,
-17,
-17,
-16,
-16,
-14,
-14,
-15,
-15,
-10,
-10,
-10,
-10,
-12,
-12,
-9,
-9,
-5,
-5,
-10,
-10,
-6,
-6,
-5,
-5,
-4,
-4,
1,
-11,
3,
-13,
1,
1,
2,
2,
4,
4,
3,
3,
6,
17,
9,
-5,
11,
-1,
11,
11,
11,
11,
12,
12,
12,
12,
11,
26,
18,
7,
17,
17,
19,
19,
19,
19,
20,
20,
19,
19,
21,
21,
26,
26,
26,
26,
24,
24,
28,
28,
29,
29,
32,
32,
29,
29,
27,
27,
35,
35,
35,
35,
37,
26,
36,
36,
33,
33,
33,
33,
38,
38,
41,
41,
41,
41,
35,
46,
38,
38,
36,
48,
43,
43,
41,
41,
45,
45,
38,
51,
45,
45,
44,
44,
43,
43,
44,
44,
43,
43,
48,
48,
47,
47,
51,
51,
45,
45,
43,
54,
53,
42,
48,
48,
49,
49,
47,
47,
49,
49,
47,
47,
47,
47,
49,
49,
49,
49,
49,
49,
48,
48,
46,
57,
47,
47,
45,
45,
48,
48,
50,
50,
46,
46,
46,
46,
47,
47,
47,
47,
47,
47,
44,
44,
42,
42,
45,
45,
46,
46,
39,
55,
42,
42,
42,
42,
44,
44,
40,
40,
45,
45,
40,
40,
36,
48,
41,
41,
38,
38,
37,
37,
40,
40,
35,
35,
34,
45,
33,
33,
32,
32,
33,
33,
28,
28,
34,
34,
30,
30,
36,
22,
31,
31,
29,
29,
21,
33,
27,
27,
23,
23,
21,
21,
26,
14,
20,
20,
18,
18,
19,
19,
17,
17,
16,
16,
11,
11,
13,
13,
13,
13,
10,
10,
13,
13,
8,
8,
5,
5,
8,
8,
3,
3,
11,
-4,
2,
2,
1,
1,
-6,
5,
-6,
10,
-15,
9,
-5,
-5,
-7,
-7,
-6,
-6,
-6,
-6,
-11,
-11,
-10,
1,
-12,
-12,
-15,
-15,
-14,
-14,
-14,
-14,
-17,
-17,
-21,
-21,
-21,
-21,
-18,
-18,
-18,
-29,
-22,
-22,
-23,
-23,
-22,
-22,
-21,
-33,
-27,
-27,
-26,
-37,
-31,
-31,
-25,
-37,
-30,
-30,
-34,
-34,
-30,
-30,
-33,
-33,
-34,
-34,
-34,
-34,
-39,
-39,
-36,
-36,
-40,
-40,
-42,
-42,
-37,
-48,
-41,
-41,
-37,
-49,
-41,
-41,
-45,
-45,
-44,
-44,
-45,
-45,
-47,
-47,
-45,
-45,
-48,
-48,
-45,
-45,
-46,
-46,
-47,
-47,
-48,
-48,
-50,
-50,
-48,
-48,
-52,
-52,
-52,
-52,
-48,
-48,
-56,
-45,
-51,
-51,
-48,
-48,
-52,
-52,
-51,
-51,
-53,
-53,
-51,
-51,
-50,
-50,
-53,
-53,
-53,
-53,
-49,
-49,
-53,
-53,
-52,
-52,
-51,
-51,
-48,
-48,
-53,
-53,
-49,
-49,
-54,
-43,
-51,
-51,
-50,
-50,
-47,
-47,
-51,
-51,
-46,
-46,
-49,
-49,
-48,
-48,
-45,
-45,
-44,
-55,
-45,
-45,
-45,
-45,
-43,
-43,
-47,
-36,
-46,
-46,
-44,
-44,
-45,
-45,
-44,
-33,
-43,
-43,
-41,
-41,
-38,
-38,
-35,
-35,
-40,
-40,
-37,
-37,
-31,
-31,
-36,
-36,
-32,
-32,
-27,
-27,
-31,
-31,
-32,
-32,
-29,
-29,
-28,
-28,
-24,
-24,
-26,
-26,
-24,
-24,
-19,
-32,
-22,
-22,
-22,
-22,
-24,
-13,
-17,
-17,
-17,
-17,
-22,
-9,
-17,
-17,
-13,
-13,
-7,
-19,
-13,
0,
-9,
-9,
-6,
-6,
-8,
-8,
-7,
-7,
-6,
-6,
-8,
3,
-1,
-13,
-3,
-3,
1,
1,
3,
3,
5,
5,
-9,
18,
8,
-6,
6,
6,
2,
14,
3,
15,
11,
11,
9,
9,
9,
9,
12,
27,
11,
22,
19,
19,
15,
15,
19,
19,
22,
22,
23,
10,
24,
24,
25,
25,
22,
22,
28,
28,
29,
29,
28,
17,
25,
25,
26,
26,
31,
31,
30,
30,
30,
30,
33,
33,
32,
32,
31,
31,
38,
38,
32,
43,
38,
38,
35,
35,
35,
46,
41,
41,
39,
39,
42,
42,
45,
45,
43,
43,
46,
46,
42,
42,
43,
43,
42,
42,
46,
46,
48,
48,
44,
44,
46,
46,
47,
47,
52,
41,
47,
47,
49,
49,
48,
48,
51,
51,
51,
51,
51,
51,
48,
48,
47,
47,
50,
50,
45,
45,
49,
49,
45,
45,
50,
50,
51,
51,
50,
50,
51,
51,
49,
49,
48,
48,
48,
48,
44,
58,
46,
46,
44,
44,
49,
49,
44,
44,
48,
48,
49,
49,
49,
35,
47,
36,
45,
45,
48,
48,
45,
45,
40,
40,
42,
42,
40,
40,
41,
41,
40,
40,
39,
39,
35,
35,
38,
38,
32,
43,
33,
44,
37,
37,
35,
35,
31,
31,
34,
34,
33,
20,
27,
27,
26,
26,
26,
26,
27,
27,
26,
26,
28,
14,
21,
21,
23,
23,
24,
24,
19,
19,
15,
15,
15,
15,
17,
17,
18,
18,
15,
15,
15,
15,
14,
14,
13,
13,
7,
19,
9,
9,
10,
-1,
9,
9,
2,
2,
2,
2,
0,
0,
-3,
-3,
-2,
10,
-2,
-2,
-6,
-6,
-1,
-1,
-3,
-3,
-6,
-6,
-9,
-9,
-14,
-3,
-14,
-2,
-7,
-19,
-11,
-22,
-10,
-10,
-14,
-14,
-18,
-18,
-20,
-20,
-20,
-20,
-20,
-20,
-22,
-22,
-19,
-32,
-21,
-21,
-26,
-26,
-30,
-17,
-29,
-29,
-25,
-25,
-26,
-26,
-29,
-29,
-33,
-33,
-33,
-33,
-34,
-34,
-35,
-35,
-37,
-37,
-33,
-33,
-37,
-37,
-37,
-37,
-37,
-37,
-40,
-40,
-41,
-41,
-43,
-43,
-40,
-40,
-41,
-41,
-41,
-41,
-43,
-43,
-45,
-45,
-47,
-47,
-44,
-44,
-47,
-47,
-47,
-47,
-51,
-51,
-48,
-48,
-53,
-42,
-46,
-46,
-46,
-46,
-48,
-48,
-49,
-49,
-48,
-48,
-50,
-50,
-50,
-50,
-52,
-52,
-52,
-52,
-54,
-54,
-53,
-53,
-57,
-45,
-51,
-51,
-52,
-52,
-52,
-52,
-48,
-48,
-52,
-52,
-53,
-53,
-46,
-57,
-47,
-47,
-50,
-50,
-50,
-50,
-52,
-52,
-53,
-53,
-49,
-49,
-51,
-51,
-46,
-46,
-46,
-46,
-48,
-48,
-46,
-46,
-51,
-40,
-44,
-44,
-40,
-53,
-47,
-47,
-42,
-42,
-40,
-52,
-41,
-41,
-42,
-42,
-42,
-42,
-48,
-34,
-40,
-40,
-36,
-36,
-36,
-36,
-37,
-37,
-39,
-39,
-35,
-35,
-39,
-27,
-30,
-41,
-32,
-32,
-31,
-31,
-26,
-37,
-27,
-27,
-28,
-28,
-30,
-30,
-30,
-30,
-28,
-28,
-26,
-26,
-21,
-21,
-20,
-20,
-20,
-20,
-20,
-20,
-17,
-17,
-15,
-15,
-16,
-16,
-16,
-16,
-14,
-14,
-11,
-11,
-11,
-11,
-11,
-11,
-8,
-8,
-12,
-1,
-5,
-5,
-8,
-8,
-3,
-3,
11,
-13,
-1,
-12,
3,
3,
3,
3,
-5,
9,
6,
6,
6,
-6,
2,
17,
12,
12,
7,
7,
11,
11,
8,
8,
11,
11,
17,
5,
15,
15,
14,
14,
16,
16,
20,
20,
18,
18,
23,
23,
19,
19,
25,
25,
26,
26,
25,
25,
22,
33,
25,
25,
27,
27,
26,
37,
29,
29,
32,
32,
34,
34,
30,
30,
38,
38,
34,
34,
35,
35,
35,
35,
37,
37,
42,
42,
38,
38,
40,
40,
38,
38,
44,
44,
41,
41,
42,
42,
47,
36,
41,
41,
46,
46,
44,
44,
48,
48,
48,
48,
45,
45,
44,
44,
47,
47,
47,
47,
48,
48,
43,
54,
48,
48,
51,
39,
53,
53,
49,
49,
46,
46,
48,
48,
53,
53,
54,
43,
47,
47,
53,
53,
44,
59,
45,
58,
51,
51,
48,
48,
50,
50,
48,
48,
50,
50,
49,
38,
47,
47,
50,
50,
46,
46,
48,
48,
43,
43,
46,
46,
45,
45,
45,
45,
47,
47,
43,
43,
39,
39,
45,
45,
40,
40,
40,
40,
44,
32,
37,
37,
38,
38,
44,
30,
36,
36,
33,
33,
36,
36,
33,
33,
32,
32,
34,
34,
31,
31,
34,
34,
28,
28,
29,
29,
27,
27,
30,
30,
26,
26,
27,
27,
23,
23,
26,
11,
21,
21,
18,
18,
17,
17,
20,
20,
15,
15,
14,
26,
19,
7,
10,
10,
10,
10,
11,
11,
10,
10,
9,
9,
9,
-2,
4,
4,
5,
5,
1,
1,
-2,
-2,
0,
0,
1,
-10,
-5,
9,
0,
0,
-4,
-4,
-1,
-13,
-6,
-6,
-9,
-9,
-5,
-21,
-9,
-23,
-13,
-13,
-9,
-21,
-12,
-12,
-15,
-15,
-17,
-17,
-14,
-25,
-23,
-23,
-17,
-17,
-19,
-31,
-21,
-21,
-20,
-31,
-20,
-33,
-25,
-25,
-27,
-27,
-31,
-31,
-29,
-29,
-32,
-32,
-35,
-35,
-28,
-28,
-30,
-30,
-35,
-35,
-31,
-31,
-38,
-38,
-34,
-34,
-35,
-35,
-37,
-37,
-35,
-46,
-42,
-42,
-39,
-39,
-44,
-44,
-49,
-37,
-41,
-41,
-44,
-44,
-46,
-46,
-49,
-49,
-43,
-43,
-48,
-48,
-43,
-43,
-45,
-45,
-47,
-47,
-46,
-46,
-48,
-48,
-50,
-50,
-52,
-52,
-51,
-51,
-52,
-52,
-53,
-53,
-53,
-53,
-53,
-53,
-50,
-50,
-46,
-58,
-53,
-53,
-48,
-59,
-50,
-50,
-53,
-53,
-54,
-54,
-49,
-49,
-55,
-44,
-49,
-49,
-52,
-52,
-53,
-42,
-49,
-49,
-46,
-58,
-45,
-57,
-50,
-50,
-49,
-49,
-45,
-45,
-49,
-49,
-48,
-48,
-50,
-50,
-48,
-48,
-49,
-49,
-44,
-44,
-47,
-47,
-41,
-52,
-49,
-38,
-41,
-41,
-47,
-47,
-39,
-39,
-41,
-41,
-42,
-42,
-38,
-38,
-39,
-39,
-41,
-41,
-37,
-37,
-37,
-37,
-40,
-29,
-35,
-35,
-35,
-35,
-32,
-32,
-31,
-31,
-31,
-31,
-32,
-32,
-29,
-29,
-27,
-27,
-23,
-23,
-25,
-25,
-25,
-25,
-26,
-15,
-21,
-21,
-20,
-20,
-20,
-20,
-20,
-20,
-17,
-17,
-15,
-15,
-13,
-13,
-16,
-16,
-11,
-11,
-16,
-5,
-8,
-8,
-10,
-10,
-8,
-8,
-1,
-12,
-6,
-6,
-4,
-4,
-6,
8,
-1,
11,
-2,
-2,
0,
0,
-3,
9,
7,
7,
5,
5,
3,
16,
7,
7,
9,
9,
11,
11,
11,
23,
10,
26,
10,
10,
12,
12,
15,
15,
17,
17,
17,
17,
18,
18,
16,
31,
19,
19,
27,
16,
19,
31,
28,
28,
29,
29,
27,
27,
31,
31,
27,
27,
34,
23,
35,
22,
30,
30,
34,
34,
37,
37,
37,
37,
35,
35,
35,
35,
37,
37,
37,
37,
38,
38,
40,
40,
44,
44,
43,
43,
43,
43,
44,
44,
41,
41,
45,
45,
40,
40,
44,
44,
47,
47,
47,
47,
47,
47,
47,
47,
50,
50,
43,
43,
49,
49,
46,
46,
43,
54,
48,
48,
53,
53,
47,
47,
51,
51,
46,
46,
50,
50,
53,
53,
47,
47,
45,
56,
50,
50,
46,
46,
46,
46,
49,
49,
45,
45,
48,
48,
50,
50,
51,
36,
47,
47,
51,
51,
48,
48,
47,
47,
47,
47,
40,
54,
48,
48,
43,
43,
47,
47,
43,
43,
41,
41,
40,
53,
42,
42,
41,
41,
39,
39,
42,
42,
39,
39,
43,
32,
37,
37,
37,
25,
35,
35,
30,
41,
32,
32,
33,
33,
37,
22,
31,
31,
31,
31,
30,
30,
29,
29,
28,
28,
20,
33,
22,
22,
24,
24,
22,
22,
23,
23,
22,
22,
22,
22,
19,
19,
16,
16,
14,
14,
11,
11,
9,
9,
13,
13,
10,
10,
10,
10,
12,
0,
6,
6,
6,
6,
9,
-4,
6,
6,
-1,
-1,
3,
-11,
0,
0,
2,
-9,
-4,
-4,
-1,
-1,
-4,
-4,
-10,
-10,
-3,
-20,
-5,
-21,
-10,
-10,
-11,
-11,
-11,
-11,
-19,
-8,
-17,
-17,
-16,
-16,
-15,
-15,
-17,
-17,
-25,
-25,
-23,
-23,
-20,
-20,
-23,
-23,
-23,
-23,
-25,
-25,
-24,
-24,
-29,
-29,
-33,
-33,
-33,
-33,
-29,
-29,
-38,
-26,
-36,
-36,
-30,
-30,
-35,
-35,
-37,
-37,
-37,
-37,
-34,
-34,
-42,
-42,
-37,
-37,
-37,
-37,
-38,
-38,
-38,
-49,
-43,
-43,
-41,
-41,
-39,
-51,
-43,
-43,
-46,
-46,
-42,
-42,
-42,
-53,
-48,
-48,
-51,
-38,
-48,
-48,
-54,
-42,
-53,
-53,
-46,
-46,
-48,
-48,
-48,
-48,
-54,
-54,
-50,
-50,
-48,
-48,
-51,
-51,
-50,
-50,
-51,
-51,
-53,
-53,
-53,
-53,
-49,
-49,
-51,
-51,
-51,
-51,
-49,
-49,
-48,
-48,
-52,
-52,
-49,
-49,
-54,
-54,
-53,
-53,
-53,
-53,
-49,
-49,
-50,
-50,
-49,
-49,
-53,
-53,
-47,
-47,
-48,
-48,
-46,
-46,
-47,
-47,
-47,
-47,
-45,
-45,
-47,
-47,
-47,
-47,
-47,
-47,
-44,
-44,
-41,
-41,
-47,
-47,
-46,
-35,
-40,
-40,
-44,
-33,
-41,
-41,
-37,
-37,
-38,
-38,
-36,
-36,
-32,
-32,
-34,
-34,
-31,
-31,
-33,
-33,
-33,
-33,
-35,
-24,
-27,
-27,
-28,
-28,
-27,
-27,
-25,
-25,
-24,
-24,
-24,
-24,
-23,
-23,
-25,
-25,
-21,
-21,
-21,
-21,
-20,
-20,
-15,
-15,
-20,
-20,
-16,
-16,
-13,
-13,
-8,
-8,
-8,
-8,
-7,
-20,
-8,
-8,
-9,
-9,
-6,
-6,
-4,
-4,
-2,
-2,
-17,
8,
2,
-9,
3,
3,
2,
2,
5,
5,
6,
6,
5,
-7,
6,
18,
8,
8,
8,
8,
3,
16,
7,
19,
11,
11,
13,
24,
9,
25,
17,
17,
17,
17,
20,
20,
16,
16,
20,
20,
21,
21,
27,
16,
23,
23,
26,
26,
25,
25,
26,
26,
26,
37,
27,
27,
29,
29,
27,
40,
33,
33,
33,
33,
31,
31,
33,
33,
34,
34,
35,
35,
37,
37,
39,
39,
46,
32,
43,
43,
38,
38,
44,
44,
39,
50,
44,
44,
45,
45,
42,
42,
47,
47,
48,
48,
42,
42,
49,
49,
46,
46,
46,
46,
47,
47,
48,
48,
44,
55,
49,
49,
48,
48,
51,
51,
50,
50,
48,
48,
50,
50,
50,
50,
50,
50,
49,
49,
49,
49,
47,
47,
45,
45,
53,
41,
48,
48,
55,
40,
49,
49,
47,
47,
43,
54,
49,
49,
49,
49,
46,
46,
51,
40,
47,
47,
48,
48,
45,
45,
48,
35,
45,
45,
43,
43,
45,
45,
41,
41,
45,
45,
42,
42,
37,
50,
39,
39,
43,
43,
39,
39,
39,
39,
36,
36,
35,
35,
33,
46,
33,
33,
31,
31,
35,
35,
34,
34,
31,
31,
26,
26,
34,
21,
32,
21,
28,
28,
30,
18,
26,
26,
24,
24,
23,
23,
23,
23,
22,
22,
19,
19,
23,
10,
14,
14,
17,
5,
12,
12,
11,
11,
9,
9,
13,
13,
16,
3,
11,
0,
10,
-1,
11,
-1,
8,
8,
3,
3,
-2,
-2,
0,
0,
1,
-13,
-7,
8,
-3,
-3,
-3,
-3,
-7,
-7,
-5,
-5,
-8,
-8,
-8,
-8,
-10,
-10,
-12,
-12,
-13,
-13,
-14,
-14,
-13,
-13,
-11,
-25,
-19,
-19,
-23,
-23,
-21,
-21,
-21,
-21,
-26,
-26,
-23,
-23,
-27,
-27,
-23,
-34,
-27,
-27,
-30,
-30,
-32,
-21,
-30,
-30,
-28,
-28,
-29,
-29,
-35,
-35,
-29,
-40,
-35,
-35,
-34,
-34,
-39,
-39,
-42,
-31,
-37,
-37,
-38,
-38,
-39,
-39,
-40,
-40,
-38,
-49,
-40,
-40,
-49,
-37,
-42,
-42,
-43,
-43,
-42,
-42,
-45,
-45,
-45,
-45,
-49,
-49,
-51,
-51,
-47,
-47,
-46,
-46,
-47,
-47,
-44,
-56,
-50,
-50,
-50,
-50,
-49,
-49,
-51,
-51,
-49,
-49,
-54,
-54,
-48,
-48,
-46,
-57,
-53,
-53,
-54,
-54,
-48,
-48,
-50,
-50,
-54,
-54,
-56,
-45,
-47,
-58,
-51,
-51,
-50,
-50,
-53,
-53,
-47,
-47,
-51,
-51,
-52,
-52,
-52,
-52,
-49,
-49,
-46,
-46,
-49,
-49,
-48,
-48,
-49,
-49,
-48,
-48,
-46,
-46,
-44,
-44,
-45,
-45,
-47,
-47,
-39,
-51,
-45,
-45,
-44,
-44,
-39,
-39,
-44,
-44,
-45,
-34,
-42,
-42,
-41,
-41,
-37,
-37,
-34,
-34,
-36,
-36,
-39,
-39,
-29,
-41,
-33,
-33,
-35,
-35,
-35,
-35,
-34,
-23,
-29,
-29,
-30,
-30,
-33,
-21,
-24,
-24,
-21,
-34,
-29,
-17,
-18,
-30,
-23,
-23,
-18,
-18,
-21,
-21,
-18,
-18,
-21,
-10,
-14,
-14,
-18,
-18,
-15,
-15,
-9,
-20,
-13,
-13,
-9,
-9,
-9,
-9,
-8,
-8,
-10,
1,
-5,
-5,
-13,
6,
-1,
-1,
-1,
-1,
1,
1,
-1,
-1,
-8,
15,
1,
13,
10,
-8,
3,
3,
8,
8,
7,
7,
7,
7,
14,
3,
14,
14,
8,
20,
14,
14,
18,
18,
18,
18,
20,
20,
19,
19,
19,
30,
27,
15,
22,
22,
26,
26,
25,
25,
24,
24,
28,
28,
31,
31,
25,
36,
33,
33,
28,
28,
34,
34,
30,
30,
34,
34,
36,
36,
39,
28,
39,
39,
39,
39,
38,
38,
42,
42,
40,
40,
43,
43,
42,
42,
40,
40,
42,
42,
43,
43,
42,
42,
46,
46,
46,
46,
47,
47,
49,
49,
52,
41,
49,
49,
49,
49,
47,
47,
44,
44,
49,
49,
45,
45,
50,
50,
49,
49,
50,
50,
54,
41,
52,
52,
48,
48,
47,
47,
48,
48,
47,
47,
51,
51,
45,
57,
43,
55,
49,
49,
51,
51,
51,
51,
47,
47,
49,
49,
50,
50,
51,
51,
47,
47,
45,
45,
42,
55,
45,
45,
42,
42,
42,
42,
44,
44,
45,
45,
42,
42,
43,
43,
40,
52,
41,
41,
40,
40,
44,
32,
40,
40,
34,
47,
39,
39,
40,
29,
36,
36,
34,
34,
35,
35,
37,
26,
34,
34,
30,
30,
33,
33,
31,
31,
25,
25,
27,
27,
27,
27,
24,
24,
25,
25,
24,
24,
23,
23,
19,
19,
15,
15,
22,
11,
18,
18,
15,
15,
12,
12,
15,
15,
10,
10,
11,
11,
5,
18,
6,
6,
8,
8,
4,
4,
-2,
10,
1,
1,
-1,
-1,
3,
-11,
3,
-8,
-2,
-2,
-4,
-4,
-6,
-6,
-9,
-9,
-5,
-17,
-9,
-9,
-10,
-10,
-13,
-13,
-10,
-10,
-11,
-11,
-15,
-15,
-11,
-26,
-15,
-15,
-19,
-19,
-15,
-15,
-18,
-18,
-21,
-21,
-26,
-26,
-24,
-24,
-22,
-22,
-26,
-26,
-27,
-27,
-29,
-29,
-26,
-26,
-27,
-27,
-29,
-29,
-31,
-31,
-32,
-32,
-32,
-32,
-34,
-34,
-36,
-36,
-34,
-34,
-41,
-41,
-41,
-41,
-43,
-43,
-39,
-39,
-42,
-42,
-41,
-41,
-39,
-39,
-42,
-42,
-45,
-45,
-49,
-49,
-50,
-39,
-43,
-55,
-44,
-44,
-44,
-44,
-47,
-47,
-48,
-48,
-48,
-48,
-50,
-50,
-48,
-48,
-51,
-51,
-51,
-51,
-49,
-49,
-52,
-52,
-52,
-52,
-50,
-50,
-53,
-53,
-50,
-50,
-52,
-52,
-48,
-48,
-51,
-51,
-55,
-55,
-52,
-52,
-52,
-52,
-47,
-59,
-53,
-53,
-52,
-52,
-50,
-50,
-48,
-48,
-50,
-50,
-53,
-42,
-48,
-48,
-51,
-51,
-43,
-56,
-45,
-57,
-48,
-48,
-51,
-40,
-46,
-46,
-50,
-50,
-43,
-54,
-49,
-38,
-50,
-39,
-42,
-42,
-42,
-42,
-39,
-52,
-40,
-40,
-42,
-42,
-42,
-42,
-36,
-47,
-41,
-41,
-39,
-39,
-41,
-41,
-39,
-39,
-37,
-37,
-37,
-37,
-35,
-35,
-38,
-26,
-30,
-30,
-37,
-25,
-32,
-32,
-26,
-26,
-24,
-35,
-28,
-28,
-29,
-18,
-26,
-26,
-24,
-24,
-27,
-16,
-19,
-19,
-20,
-20,
-18,
-18,
-17,
-17,
-13,
-13,
-13,
-13,
-17,
-17,
-15,
-4,
-12,
-12,
-7,
-7,
-12,
-12,
-6,
-6,
-8,
-8,
-2,
-13,
-1,
-12,
1,
-13,
0,
0,
0,
0,
6,
6,
0,
0,
1,
1,
3,
17,
17,
-2,
1,
14,
13,
2,
8,
8,
7,
7,
13,
2,
11,
22,
14,
25,
13,
24,
17,
17,
17,
17,
21,
21,
22,
22,
17,
29,
27,
27,
27,
27,
27,
27,
27,
27,
28,
28,
26,
26,
31,
31,
32,
32,
30,
42,
30,
30,
30,
30,
30,
41,
36,
36,
33,
33,
35,
35,
38,
38,
35,
35,
40,
40,
39,
39,
39,
39,
39,
39,
38,
38,
45,
45,
46,
46,
45,
45,
47,
47,
45,
45,
47,
47,
47,
47,
44,
44,
46,
46,
48,
48,
47,
47,
46,
46,
50,
50,
48,
48,
51,
51,
51,
51,
51,
51,
50,
50,
54,
54,
50,
50,
45,
45,
49,
49,
48,
48,
48,
48,
50,
50,
49,
49,
48,
48,
47,
47,
47,
47,
50,
39,
51,
51,
44,
44,
50,
50,
48,
48,
46,
46,
46,
46,
46,
46,
41,
53,
42,
42,
45,
45,
45,
45,
46,
46,
44,
33,
37,
52,
41,
41,
37,
37,
43,
43,
37,
37,
40,
40,
43,
29,
37,
37,
35,
35,
31,
31,
34,
34,
31,
31,
30,
30,
32,
32,
32,
32,
32,
21,
26,
26,
27,
27,
25,
25,
25,
25,
25,
14,
23,
23,
18,
18,
19,
19,
17,
17,
17,
17,
20,
9,
16,
16,
18,
18,
15,
15,
14,
14,
15,
3,
14,
1,
11,
0,
9,
9,
6,
6,
7,
7,
4,
4,
0,
0,
-1,
-1,
1,
-13,
-1,
-1,
-2,
-2,
-5,
-5,
-4,
-4,
-7,
-7,
-9,
-9,
-6,
