5-grundlagen-opAmps/data/ALL0048/A0048CH1.CSV

Memory Length,4000,
Trigger Level,0.00000e+00,
Source,CH1,
Probe,1.0X,
Vertical Units,V,
Vertical Scale,5.00000e-02,
Vertical Position,0.00000e+00,
Horizontal Units,S,
Horizontal Scale,1.00000e-02,
Horizontal Position,1.0000000e-02,
Horizontal Mode,Main,
Sampling Period,4.00000e-05,
Firmware,V1.14,
Time, ,
Mode,Fast,
Waveform Data,
-8,
-8,
3,
-10,
2,
-13,
0,
-5,
-18,
-12,
0,
-6,
-22,
-14,
-1,
-9,
-23,
-18,
-2,
-10,
-23,
-15,
-3,
-15,
-4,
-16,
-16,
-14,
-26,
-17,
-4,
-23,
-7,
-17,
-28,
-8,
-30,
-15,
-29,
-27,
-9,
-15,
-29,
-17,
-17,
-26,
-9,
-23,
-10,
-16,
-31,
-29,
-11,
-17,
-32,
-13,
-31,
-23,
-12,
-29,
-14,
-21,
-32,
-27,
-15,
-21,
-34,
-24,
-24,
-21,
-35,
-21,
-37,
-25,
-25,
-29,
-16,
-34,
-16,
-24,
-35,
-33,
-17,
-28,
-16,
-29,
-16,
-31,
-17,
-31,
-17,
-23,
-38,
-29,
-29,
-36,
-18,
-31,
-17,
-30,
-18,
-29,
-17,
-24,
-38,
-28,
-28,
-27,
-27,
-27,
-27,
-24,
-37,
-31,
-19,
-30,
-18,
-27,
-39,
-26,
-38,
-27,
-39,
-24,
-36,
-33,
-19,
-33,
-19,
-26,
-37,
-35,
-18,
-26,
-37,
-29,
-17,
-25,
-37,
-28,
-16,
-16,
-36,
-26,
-26,
-25,
-36,
-30,
-16,
-27,
-15,
-31,
-17,
-21,
-34,
-24,
-24,
-23,
-35,
-23,
-34,
-19,
-33,
-19,
-31,
-25,
-12,
-18,
-32,
-23,
-11,
-18,
-31,
-24,
-11,
-33,
-9,
-31,
-9,
-21,
-21,
-17,
-30,
-16,
-28,
-15,
-28,
-11,
-29,
-19,
-7,
-16,
-28,
-13,
-25,
-14,
-27,
-16,
-5,
-7,
-25,
-13,
-25,
-19,
-4,
-11,
-23,
-13,
-2,
-10,
-21,
-13,
-1,
-6,
-20,
-12,
1,
-13,
1,
-11,
1,
-9,
2,
-8,
-8,
-5,
-17,
-3,
-15,
-4,
-15,
-3,
-14,
-7,
5,
-2,
-13,
-4,
-4,
-3,
8,
1,
-11,
0,
-11,
0,
0,
2,
2,
2,
2,
3,
-9,
5,
-7,
1,
12,
5,
5,
9,
-5,
8,
-5,
9,
-3,
6,
-5,
-1,
16,
12,
-2,
3,
19,
1,
17,
8,
19,
5,
18,
5,
20,
12,
1,
20,
1,
10,
10,
11,
11,
12,
12,
14,
3,
12,
12,
15,
4,
5,
25,
14,
14,
13,
24,
16,
4,
17,
6,
21,
6,
17,
6,
15,
27,
14,
26,
11,
25,
24,
8,
23,
8,
16,
29,
19,
8,
19,
8,
25,
10,
27,
9,
15,
29,
18,
30,
14,
30,
16,
29,
14,
31,
24,
10,
24,
12,
19,
31,
19,
31,
24,
11,
13,
32,
24,
12,
19,
31,
20,
31,
17,
32,
16,
31,
23,
23,
20,
31,
20,
20,
18,
31,
21,
21,
19,
30,
24,
12,
22,
22,
22,
33,
21,
21,
28,
12,
21,
10,
22,
9,
24,
10,
21,
9,
17,
28,
14,
29,
19,
19,
24,
9,
20,
9,
22,
9,
17,
28,
20,
7,
16,
16,
9,
25,
16,
16,
23,
6,
16,
4,
21,
5,
11,
24,
13,
25,
19,
4,
16,
4,
12,
23,
16,
2,
11,
11,
9,
21,
11,
0,
13,
1,
6,
20,
13,
0,
15,
-1,
4,
18,
6,
19,
9,
-4,
6,
17,
9,
-3,
7,
-5,
9,
-4,
8,
-5,
4,
4,
3,
14,
-1,
13,
0,
11,
4,
-9,
1,
1,
-3,
10,
8,
-10,
-2,
-2,
-7,
7,
1,
-12,
7,
-13,
1,
-12,
-4,
-15,
-4,
-16,
-6,
-6,
-11,
4,
-3,
-16,
-3,
-17,
-9,
3,
-15,
1,
-4,
-20,
-7,
-19,
-16,
0,
-12,
-1,
-15,
-2,
-12,
-12,
-12,
-1,
-15,
-4,
-17,
-4,
-17,
-5,
-19,
-7,
-13,
-25,
-8,
-26,
-22,
-5,
-17,
-17,
-13,
-28,
-14,
-28,
-18,
-29,
-12,
-29,
-16,
-29,
-18,
-29,
-28,
-11,
-20,
-32,
-19,
-31,
-21,
-21,
-24,
-12,
-23,
-23,
-29,
-13,
-22,
-35,
-20,
-34,
-19,
-33,
-24,
-13,
-29,
-15,
-28,
-15,
-31,
-15,
-22,
-36,
-25,
-36,
-27,
-27,
-26,
-26,
-33,
-17,
-17,
-36,
-31,
-17,
-28,
-28,
-30,
-17,
-31,
-18,
-31,
-17,
-25,
-39,
-30,
-18,
-32,
-16,
-27,
-38,
-30,
-17,
-25,
-38,
-32,
-19,
-31,
-17,
-28,
-28,
-28,
-28,
-28,
-28,
-33,
-18,
-29,
-18,
-30,
-18,
-26,
-38,
-35,
-17,
-27,
-16,
-22,
-38,
-29,
-17,
-24,
-37,
-28,
-28,
-32,
-17,
-22,
-36,
-24,
-36,
-27,
-15,
-27,
-27,
-28,
-15,
-31,
-14,
-28,
-15,
-30,
-14,
-17,
-33,
-21,
-34,
-27,
-13,
-18,
-33,
-19,
-33,
-21,
-33,
-24,
-11,
-14,
-31,
-20,
-31,
-20,
-20,
-15,
-30,
-20,
-20,
-21,
-9,
-12,
-28,
-16,
-29,
-17,
-17,
-12,
-27,
-12,
-27,
-27,
-5,
-15,
-15,
-14,
-25,
-20,
-5,
-10,
-24,
-11,
-22,
-16,
-3,
-9,
-22,
-14,
-3,
-5,
-19,
-7,
-20,
-14,
0,
-7,
-19,
-2,
-18,
-11,
3,
0,
-17,
-3,
-17,
-10,
3,
-11,
5,
-4,
-4,
-4,
-4,
-3,
-3,
4,
-13,
-1,
-12,
-1,
-1,
1,
-12,
-4,
9,
4,
-9,
-1,
11,
8,
-8,
2,
13,
4,
4,
4,
-7,
2,
13,
4,
15,
5,
-6,
5,
16,
4,
16,
3,
16,
9,
-3,
5,
18,
7,
19,
9,
9,
11,
11,
9,
9,
12,
12,
17,
3,
16,
2,
14,
1,
5,
22,
19,
3,
20,
4,
20,
5,
17,
5,
9,
25,
13,
26,
17,
4,
20,
7,
27,
5,
17,
6,
14,
27,
8,
27,
20,
8,
13,
29,
22,
8,
12,
30,
19,
30,
20,
20,
20,
9,
19,
19,
17,
30,
27,
11,
22,
22,
22,
11,
17,
32,
16,
29,
28,
12,
11,
33,
25,
12,
19,
31,
32,
10,
17,
32,
16,
31,
22,
22,
27,
12,
21,
32,
20,
31,
15,
32,
17,
31,
16,
31,
18,
30,
26,
12,
19,
30,
17,
30,
19,
31,
23,
11,
21,
21,
19,
31,
15,
31,
17,
31,
19,
30,
12,
29,
16,
30,
24,
8,
19,
19,
13,
28,
24,
9,
13,
28,
16,
28,
16,
27,
17,
17,
16,
4,
21,
6,
12,
26,
12,
24,
12,
25,
9,
23,
17,
4,
8,
24,
14,
2,
12,
12,
17,
3,
14,
1,
15,
1,
1,
20,
17,
1,
2,
21,
9,
9,
11,
-1,
4,
17,
3,
17,
-1,
17,
2,
15,
3,
15,
-1,
14,
4,
15,
6,
-7,
4,
-8,
2,
2,
3,
-9,
-4,
11,
1,
-11,
1,
-11,
7,
-11,
1,
-11,
-4,
-4,
-9,
8,
-10,
5,
-7,
5,
-7,
5,
-8,
4,
-7,
4,
-4,
-18,
-5,
-17,
-10,
1,
-5,
-18,
-11,
0,
-9,
2,
-3,
-22,
-10,
-10,
-19,
-1,
-14,
-3,
-12,
-12,
-9,
-24,
-16,
-4,
-15,
-4,
-13,
-26,
-7,
-27,
-13,
-26,
-17,
-17,
-17,
-17,
-10,
-28,
-15,
-28,
-22,
-9,
-18,
-30,
-15,
-29,
-16,
-30,
-18,
-32,
-24,
-12,
-15,
-31,
-27,
-13,
-23,
-34,
-19,
-33,
-23,
-23,
-17,
-33,
-26,
-13,
-28,
-13,
-28,
-13,
-29,
-15,
-32,
-15,
-25,
-36,
-24,
-35,
-19,
-37,
-23,
-36,
-32,
-16,
-24,
-35,
-29,
-16,
-28,
-17,
-35,
-18,
-29,
-18,
-21,
-37,
-36,
-19,
-27,
-27,
-23,
-39,
-32,
-16,
-26,
-38,
-32,
-19,
-30,
-18,
-21,
-39,
-27,
-27,
-29,
-18,
-24,
-39,
-39,
-16,
-19,
-39,
-35,
-17,
-24,
-37,
-29,
-18,
-29,
-29,
-29,
-17,
-35,
-17,
-31,
-17,
-23,
-36,
-31,
-18,
-29,
-17,
-24,
-37,
-33,
-17,
-28,
-15,
-24,
-35,
-22,
-34,
-25,
-25,
-19,
-33,
-31,
-15,
-27,
-15,
-29,
-15,
-21,
-33,
-27,
-12,
-31,
-13,
-22,
-33,
-24,
-12,
-20,
-31,
-24,
-12,
-19,
-30,
-19,
-30,
-22,
-10,
-22,
-9,
-14,
-28,
-14,
-28,
-20,
-6,
-16,
-27,
-15,
-27,
-15,
-15,
-20,
-5,
-18,
-7,
-12,
-26,
-16,
-4,
-19,
-4,
-17,
-3,
-9,
-23,
-11,
-23,
-16,
0,
-12,
-1,
-7,
-19,
-3,
-20,
-11,
1,
-3,
-16,
-7,
-18,
-9,
4,
-7,
4,
-5,
-5,
-14,
5,
0,
-13,
-4,
-4,
-3,
8,
5,
-13,
-2,
9,
0,
-11,
3,
-10,
-3,
9,
-5,
11,
-3,
12,
1,
12,
5,
-6,
0,
12,
3,
3,
1,
15,
10,
-5,
0,
15,
1,
16,
8,
-3,
18,
-1,
12,
-3,
8,
19,
11,
-1,
12,
1,
12,
0,
12,
1,
5,
21,
8,
22,
9,
20,
13,
2,
17,
3,
12,
23,
10,
23,
8,
24,
19,
4,
16,
5,
12,
27,
19,
6,
11,
26,
19,
8,
17,
6,
24,
6,
19,
8,
19,
7,
20,
20,
17,
29,
16,
29,
16,
30,
23,
11,
19,
31,
19,
19,
17,
28,
26,
10,
28,
12,
19,
31,
20,
32,
22,
33,
23,
11,
23,
12,
23,
11,
24,
12,
20,
33,
21,
32,
19,
31,
26,
12,
15,
32,
21,
32,
22,
22,
22,
22,
19,
31,
28,
12,
23,
12,
22,
22,
14,
30,
15,
30,
12,
30,
21,
21,
20,
20,
18,
29,
22,
9,
24,
9,
19,
8,
16,
30,
25,
9,
24,
9,
12,
28,
15,
27,
14,
27,
17,
17,
18,
6,
16,
16,
8,
26,
17,
17,
11,
24,
17,
5,
13,
24,
15,
3,
11,
11,
14,
3,
13,
13,
4,
21,
7,
21,
7,
20,
10,
21,
4,
19,
14,
0,
3,
17,
9,
9,
9,
-2,
4,
18,
6,
17,
2,
16,
2,
16,
9,
-6,
7,
-4,
5,
5,
2,
13,
8,
-8,
-1,
14,
-1,
12,
-1,
11,
3,
-9,
2,
-10,
0,
-13,
-6,
9,
-8,
7,
-5,
7,
-2,
-15,
-10,
5,
-3,
-15,
0,
-15,
-7,
-7,
-5,
-16,
-11,
2,
-11,
1,
-2,
-19,
-12,
0,
-5,
-19,
-11,
-11,
-13,
-1,
-8,
-23,
-16,
-3,
-7,
-22,
-17,
-4,
-11,
-24,
-17,
-5,
-13,
-24,
-23,
-5,
-19,
-6,
-15,
-27,
-12,
-27,
-20,
-8,
-20,
-7,
-20,
-8,
-19,
-32,
-20,
-9,
-24,
-10,
-25,
-11,
-23,
-11,
-25,
-12,
-20,
-31,
-26,
-11,
-28,
-15,
-28,
-13,
-20,
-32,
-19,
-35,
-26,
-15,
-23,
-34,
-23,
-35,
-23,
-35,
-18,
-35,
-23,
-35,
-27,
-16,
-29,
-16,
-29,
-15,
-31,
-16,
-28,
-16,
-20,
-35,
-30,
-16,
-21,
-38,
-21,
-37,
-29,
-16,
-34,
-18,
-31,
-18,
-29,
-29,
-31,
-17,
-28,
-28,
-37,
-19,
-24,
-39,
-33,
-17,
-25,
-38,
-26,
-37,
-28,
-39,
-35,
-18,
-21,
-37,
-26,
-39,
-28,
-28,
-16,
-38,
-27,
-39,
-34,
-19,
-30,
-19,
-28,
-16,
-25,
-36,
-23,
-37,
-29,
-16,
-27,
-16,
-29,
-17,
-23,
-35,
-18,
-35,
-32,
-15,
-20,
-33,
-21,
-34,
-20,
-34,
-17,
-33,
-23,
-23,
-31,
-14,
-24,
-13,
-17,
-31,
-16,
-32,
-20,
-31,
-19,
-31,
-31,
-9,
-24,
-11,
-15,
-29,
-17,
-29,
-23,
-9,
-11,
-28,
-13,
-28,
-19,
-6,
-19,
-7,
-19,
-6,
-15,
-15,
-14,
-14,
-11,
-25,
-15,
-3,
-9,
-23,
-12,
-23,
-13,
-13,
-9,
-22,
-9,
-22,
-9,
-21,
-15,
0,
-3,
-19,
-7,
-18,
-13,
2,
-1,
-19,
-17,
5,
1,
-15,
-12,
6,
-5,
-5,
-8,
6,
-7,
7,
-3,
-14,
3,
-12,
-9,
8,
-1,
-1,
-1,
10,
0,
11,
6,
-9,
2,
2,
3,
-8,
0,
13,
5,
5,
9,
-6,
6,
-7,
9,
-4,
1,
16,
10,
-4,
5,
17,
15,
-3,
9,
9,
14,
0,
11,
-2,
6,
20,
1,
20,
7,
20,
5,
20,
4,
20,
10,
10,
16,
3,
15,
4,
14,
3,
20,
5,
11,
24,
15,
15,
10,
25,
15,
27,
26,
8,
10,
27,
15,
27,
8,
28,
17,
28,
15,
28,
13,
30,
17,
17,
18,
18,
9,
32,
19,
19,
21,
21,
22,
9,
16,
29,
17,
32,
21,
9,
16,
30,
22,
11,
19,
31,
21,
21,
28,
11,
27,
13,
21,
32,
18,
30,
22,
10,
22,
22,
26,
12,
21,
32,
29,
13,
14,
31,
16,
31,
20,
32,
21,
21,
23,
11,
23,
10,
23,
12,
18,
30,
19,
31,
22,
11,
31,
9,
25,
10,
18,
31,
27,
11,
16,
30,
19,
31,
23,
9,
17,
28,
11,
28,
23,
8,
13,
28,
16,
28,
20,
7,
11,
27,
18,
7,
25,
7,
10,
24,
12,
26,
13,
24,
13,
24,
15,
3,
16,
3,
15,
3,
18,
3,
11,
22,
9,
21,
7,
21,
18,
0,
9,
20,
10,
-1,
8,
20,
13,
-2,
11,
-1,
4,
17,
8,
-4,
8,
-6,
5,
17,
17,
-5,
13,
-4,
-2,
14,
15,
-9,
4,
-8,
-1,
13,
2,
2,
2,
-11,
-1,
10,
1,
-11,
-5,
8,
-7,
9,
-5,
7,
-1,
-13,
-5,
6,
2,
-16,
-1,
-15,
-3,
-16,
-2,
-15,
-9,
3,
-5,
-18,
-1,
-18,
-11,
1,
-4,
-19,
-2,
-19,
-10,
-10,
-15,
-2,
-4,
-22,
-16,
0,
-12,
-23,
-9,
-24,
-9,
-23,
-11,
-24,
-7,
-26,
-5,
-27,
-15,
-15,
-20,
-7,
-16,
-27,
-20,
-8,
-25,
-9,
-11,
-29,
-14,
-30,
-20,
-31,
-16,
-29,
-24,
-11,
-18,
-30,
-21,
-32,
-20,
-32,
-14,
-33,
-27,
-13,
-18,
-34,
-29,
-13,
-31,
-15,
-21,
-34,
-25,
-25,
-25,
-25,
-28,
-16,
-25,
-36,
-29,
-16,
-24,
-36,
-21,
-37,
-28,
-17,
-27,
-27,
-25,
-36,
-26,
-26,
-27,
-27,
-29,
-18,
-26,
-39,
-29,
-18,
-33,
-16,
-29,
-17,
-28,
-28,
-24,
-39,
-31,
-19,
-24,
-39,
-29,
-29,
-31,
-17,
-32,
-17,
-27,
-27,
-32,
-18,
-28,
-28,
-31,
-19,
-28,
-17,
-27,
-27,
-26,
-38,
-27,
-38,
-31,
-18,
-31,
-17,
-19,
-36,
-30,
-16,
-31,
-16,
-28,
-15,
-27,
-16,
-29,
-15,
-24,
-24,
-29,
-14,
-23,
-36,
-31,
-16,
-24,
-35,
-28,
-15,
-21,
-33,
-26,
-13,
-19,
-32,
-20,
-32,
-22,
-11,
-28,
-13,
-23,
-10,
-22,
-9,
-24,
-11,
-23,
-11,
-29,
-11,
-21,
-10,
-15,
-28,
-15,
-30,
-17,
-28,
-16,
-28,
-22,
-6,
-16,
-16,
-10,
-26,
-21,
-4,
-15,
-15,
-9,
-23,
-11,
-23,
-12,
-12,
-14,
-1,
-10,
-10,
-15,
-2,
-13,
0,
-16,
0,
-5,
-19,
-10,
1,
-1,
-17,
-15,
2,
-9,
2,
0,
-16,
-3,
-16,
-2,
-15,
-7,
6,
-3,
-3,
-9,
7,
1,
-12,
-5,
9,
3,
-11,
-3,
9,
-6,
11,
4,
-9,
4,
-10,
5,
-7,
-4,
14,
-1,
14,
-3,
13,
-3,
15,
2,
15,
4,
16,
6,
6,
3,
16,
2,
17,
5,
17,
15,
-1,
5,
19,
11,
0,
8,
20,
12,
12,
18,
3,
13,
2,
17,
2,
17,
3,
11,
22,
19,
4,
15,
15,
17,
5,
12,
25,
17,
6,
13,
25,
11,
26,
19,
8,
18,
7,
16,
27,
19,
19,
23,
8,
20,
8,
15,
28,
21,
9,
17,
28,
20,
20,
18,
29,
22,
9,
22,
11,
21,
21,
23,
10,
17,
31,
23,
11,
18,
31,
16,
31,
20,
32,
24,
12,
20,
31,
31,
12,
13,
32,
24,
12,
25,
11,
16,
31,
17,
32,
21,
32,
20,
31,
21,
32,
21,
33,
17,
31,
21,
21,
23,
11,
23,
12,
19,
30,
28,
9,
19,
19,
20,
20,
27,
10,
17,
29,
24,
8,
15,
29,
21,
9,
16,
31,
15,
29,
17,
29,
23,
6,
22,
8,
15,
27,
24,
8,
19,
6,
26,
6,
13,
26,
17,
3,
13,
26,
13,
24,
15,
4,
11,
25,
23,
3,
10,
22,
12,
12,
10,
21,
17,
0,
10,
10,
2,
21,
12,
-1,
5,
18,
12,
-2,
7,
7,
12,
-2,
9,
-3,
8,
-4,
7,
-4,
9,
-5,
0,
15,
-1,
13,
0,
12,
4,
4,
4,
-8,
9,
-8,
-4,
10,
6,
-10,
9,
-10,
1,
-10,
-4,
9,
1,
-12,
-1,
-12,
5,
-15,
-5,
6,
-1,
-16,
-2,
-16,
-7,
-7,
0,
-17,
0,
-17,
-11,
1,
-9,
-9,
-8,
-21,
-15,
0,
-11,
1,
-4,
-21,
-4,
-20,
-8,
-23,
-18,
-4,
-16,
-3,
-10,
-22,
-14,
-26,
-13,
-24,
-13,
-26,
-11,
-26,
-14,
-26,
-22,
-6,
-23,
-8,
-21,
-8,
-27,
-9,
-17,
-28,
-16,
-29,
-20,
-31,
-22,
-11,
-20,
-31,
-21,
-21,
-21,
-21,
-22,
-22,
-21,
-33,
-19,
-32,
-22,
-35,
-27,
-15,
-18,
-35,
-17,
-35,
-29,
-14,
-25,
-25,
-20,
-36,
-28,
-16,
-27,
-16,
-33,
-16,
-25,
-37,
-31,
-16,
-36,
-17,
-22,
-35,
-26,
-38,
-28,
-17,
-36,
-17,
-27,
-38,
-24,
-37,
-33,
-17,
-29,
-40,
-29,
-18,
-30,
-18,
-32,
-18,
-24,
-37,
-29,
-29,
-26,
-38,
-28,
-28,
-21,
-37,
-31,
-17,
-23,
-37,
-31,
-19,
-27,
-27,
-31,
-18,
-27,
-39,
-31,
-17,
-31,
-16,
-33,
-16,
-23,
-37,
-30,
-16,
-24,
-35,
-28,
-15,
-28,
-16,
-24,
-24,
-27,
-16,
-28,
-16,
-21,
-35,
-28,
-15,
-21,
-32,
-27,
-13,
-28,
-12,
-27,
-14,
-23,
-12,
-25,
-11,
-13,
-32,
-21,
-21,
-20,
-20,
-19,
-19,
-13,
-30,
-19,
-31,
-22,
-10,
-18,
-18,
-19,
-19,
-17,
-17,
-16,
-27,
-16,
-28,
-21,
-5,
-14,
-27,
-17,
-5,
-14,
-3,
-18,
-3,
-16,
-3,
-14,
-3,
-14,
-14,
-10,
-22,
-15,
-2,
-9,
-9,
-3,
-18,
-9,
-9,
-3,
-19,
-5,
-17,
-11,
3,
-8,
3,
-9,
4,
-9,
5,
-5,
-5,
0,
-14,
4,
-14,
3,
-12,
-4,
8,
2,
-11,
3,
-11,
1,
-11,
5,
-8,
-2,
10,
-1,
12,
-2,
13,
-2,
13,
-3,
12,
3,
3,
-2,
15,
6,
-6,
9,
-4,
5,
17,
0,
18,
5,
17,
4,
17,
13,
-2,
3,
19,
15,
-3,
12,
0,
8,
21,
4,
20,
10,
22,
0,
24,
9,
23,
13,
13,
13,
24,
16,
3,
12,
24,
13,
13,
13,
25,
15,
4,
17,
6,
21,
5,
20,
8,
12,
28,
24,
8,
16,
28,
19,
19,
21,
8,
19,
8,
24,
8,
25,
10,
20,
20,
25,
10,
19,
19,
22,
11,
15,
31,
19,
31,
17,
31,
23,
11,
26,
10,
18,
30,
24,
11,
20,
20,
15,
32,
19,
30,
19,
31,
21,
21,
16,
32,
17,
32,
17,
30,
27,
11,
26,
11,
29,
11,
20,
32,
18,
32,
16,
31,
25,
11,
21,
32,
19,
32,
27,
9,
17,
32,
23,
11,
17,
30,
27,
11,
18,
18,
20,
20,
7,
30,
18,
18,
21,
9,
17,
17,
13,
27,
18,
5,
26,
8,
15,
27,
23,
5,
12,
27,
18,
5,
15,
4,
12,
23,
13,
24,
15,
15,
19,
2,
14,
3,
3,
21,
21,
3,
17,
1,
8,
20,
17,
0,
10,
10,
5,
18,
4,
17,
7,
7,
9,
-3,
11,
-2,
15,
-3,
2,
14,
2,
15,
3,
14,
0,
14,
-6,
13,
8,
-6,
9,
-10,
8,
-9,
2,
-11,
-3,
9,
3,
-11,
-3,
8,
-5,
8,
-3,
9,
-7,
8,
-14,
6,
-5,
6,
-8,
5,
-5,
-16,
-5,
-16,
-10,
5,
-5,
-18,
-4,
-17,
-13,
2,
-8,
-19,
-14,
0,
-11,
-11,
-3,
-21,
-17,
-3,
-19,
-3,
-19,
-2,
-14,
-14,
-3,
-26,
-13,
-24,
-19,
-3,
-13,
-27,
-19,
-5,
-19,
-7,
-20,
-8,
-19,
-7,
-17,
-28,
-15,
-30,
-23,
-8,
-11,
-29,
-20,
-31,
-25,
-11,
-24,
-11,
-24,
-11,
-23,
-12,
-20,
-32,
-25,
-12,
-27,
-13,
-22,
-33,
-15,
-35,
-33,
-14,
-21,
-35,
-21,
-34,
-27,
-14,
-20,
-34,
-27,
-15,
-35,
-15,
-26,
-37,
-27,
-27,
-21,
-36,
-24,
-37,
-24,
-36,
-32,
-17,
-28,
-17,
-31,
-18,
-29,
-18,
-26,
-37,
-29,
-17,
-19,
-37,
-24,
-36,
-30,
-17,
-33,
-16,
-23,
-37,
-32,
-17,
-34,
-18,
-35,
-19,
-24,
-38,
-30,
-18,
-31,
-17,
-30,
-18,
-24,
-38,
-28,
-28,
-32,
-18,
-32,
-18,
-32,
-17,
-22,
-37,
-27,
-27,
-26,
-37,
-29,
-15,
-25,
-25,
-24,
-36,
-26,
-26,
-27,
-27,
-28,
-15,
-20,
-35,
-28,
-13,
-25,
-14,
-19,
-33,
-29,
-14,
-23,
-12,
-24,
-11,
-29,
-12,
-19,
-32,
-15,
-32,
-20,
-9,
-24,
-10,
-16,
-30,
-16,
-29,
-27,
-9,
-19,
-8,
-24,
-8,
-15,
-28,
-22,
-8,
-22,
-9,
-13,
-25,
-13,
-25,
-20,
-5,
-11,
-24,
-13,
-13,
-11,
-23,
-10,
-25,
-16,
-2,
-15,
0,
-12,
0,
-15,
0,
-11,
0,
-11,
2,
-18,
4,
-6,
-17,
-11,
1,
-8,
3,
-15,
4,
-7,
4,
-12,
6,
-2,
-15,
-3,
-3,
1,
-13,
-2,
-13,
-2,
-2,
-10,
12,
6,
-10,
11,
-11,
5,
-9,
-2,
13,
-2,
11,
5,
-9,
9,
-6,
-4,
13,
9,
-5,
7,
-5,
13,
-7,
9,
-4,
11,
-3,
9,
-3,
16,
-4,
6,
17,
10,
-2,
8,
20,
0,
20,
10,
21,
14,
1,
5,
21,
15,
4,
9,
22,
17,
3,
15,
4,
17,
3,
19,
4,
23,
4,
15,
15,
21,
6,
12,
26,
21,
6,
16,
27,
19,
5,
20,
9,
16,
28,
16,
28,
19,
6,
21,
10,
21,
9,
21,
9,
23,
12,
24,
10,
27,
10,
21,
21,
18,
31,
22,
22,
17,
31,
23,
12,
23,
12,
23,
12,
19,
31,
18,
31,
29,
12,
24,
11,
21,
33,
20,
31,
21,
21,
17,
32,
24,
12,
16,
32,
17,
33,
20,
32,
23,
11,
26,
11,
13,
31,
25,
12,
22,
10,
20,
9,
20,
31,
20,
20,
12,
29,
26,
10,
13,
29,
15,
29,
21,
9,
21,
8,
19,
8,
23,
8,
16,
28,
19,
19,
16,
28,
21,
6,
21,
5,
13,
26,
22,
6,
16,
5,
12,
24,
16,
4,
11,
23,
17,
2,
18,
1,
16,
3,
17,
3,
17,
1,
5,
20,
6,
21,
14,
0,
8,
8,
9,
20,
9,
-4,
12,
-3,
6,
17,
2,
18,
9,
-4,
9,
-5,
2,
15,
-3,
14,
7,
-6,
-1,
15,
-1,
13,
-3,
12,
-2,
12,
5,
-8,
1,
1,
-2,
-2,
-3,
9,
-5,
9,
0,
-11,
6,
-13,
3,
-13,
-5,
-5,
-7,
4,
-4,
-15,
-3,
-16,
-3,
-16,
-9,
3,
-8,
-8,
-9,
-9,
-10,
-10,
-12,
0,
-5,
-21,
-11,
-22,
-1,
-23,
-11,
-22,
-11,
-23,
-15,
-15,
-21,
-4,
-15,
-15,
-14,
-25,
-15,
-26,
-19,
-7,
-21,
-5,
-15,
-27,
-16,
-28,
-16,
-28,
-19,
-8,
-19,
-8,
-16,
-29,
-17,
-31,
-17,
-31,
-20,
-32,
-24,
-11,
-30,
-12,
-21,
-32,
-20,
-32,
-24,
-24,
-21,
-33,
-20,
-33,
-26,
-14,
-27,
-15,
-24,
-36,
-32,
-16,
-20,
-36,
-23,
-36,
-25,
-36,
-27,
-27,
-29,
-16,
-20,
-36,
-27,
-27,
-25,
-36,
-30,
-17,
-26,
-37,
-29,
-18,
-27,
-27,
-24,
-37,
-28,
-17,
-28,
-39,
-29,
-17,
-35,
-18,
-27,
-38,
-32,
-19,
-32,
-17,
-31,
-19,
-32,
-19,
-21,
-38,
-31,
-18,
-32,
-17,
-26,
-37,
-23,
-37,
-32,
-18,
-31,
-18,
-21,
-39,
-31,
-17,
-18,
-36,
-24,
-37,
-22,
-37,
-33,
-17,
-30,
-16,
-33,
-15,
-17,
-35,
-31,
-18,
-33,
-15,
-21,
-35,
-27,
-15,
-20,
-34,
-35,
-12,
-23,
-35,
-26,
-13,
-19,
-32,
-24,
-12,
-20,
-34,
-30,
-11,
-23,
-11,
-27,
-9,
-24,
-11,
-19,
-30,
-29,
-9,
-13,
-28,
-24,
-8,
-19,
-8,
-17,
-6,
-18,
-7,
-15,
-15,
-18,
-5,
-19,
-5,
-13,
-24,
-18,
-3,
-12,
-23,
-15,
-2,
-11,
-22,
-10,
-21,
-4,
-19,
-7,
-19,
-7,
-22,
-17,
0,
-8,
-19,
-2,
-18,
-12,
2,
-3,
-17,
-6,
-17,
-5,
-16,
1,
-14,
-2,
-14,
1,
-14,
-1,
-14,
1,
-12,
-7,
7,
-5,
8,
4,
-11,
3,
-8,
-4,
9,
7,
-9,
4,
-8,
-4,
12,
1,
12,
0,
13,
2,
15,
1,
16,
3,
16,
8,
-3,
2,
16,
8,
-3,
4,
18,
11,
-3,
13,
0,
11,
11,
17,
1,
9,
21,
9,
21,
15,
2,
9,
21,
10,
21,
9,
23,
5,
23,
10,
23,
15,
15,
11,
25,
16,
5,
10,
25,
15,
15,
19,
6,
13,
28,
16,
27,
16,
29,
11,
28,
22,
9,
25,
9,
16,
29,
22,
8,
24,
9,
20,
9,
29,
9,
18,
29,
17,
31,
16,
32,
20,
20,
15,
32,
21,
10,
22,
11,
25,
12,
24,
12,
27,
13,
21,
32,
31,
12,
24,
11,
16,
30,
24,
12,
19,
32,
20,
33,
25,
11,
20,
33,
18,
30,
25,
12,
23,
11,
21,
32,
22,
22,
15,
31,
25,
10,
18,
31,
18,
32,
21,
9,
16,
29,
17,
29,
19,
19,
19,
19,
26,
7,
16,
28,
23,
8,
15,
27,
11,
28,
16,
27,
20,
7,
11,
27,
20,
5,
23,
5,
20,
4,
18,
4,
15,
15,
13,
25,
11,
23,
8,
23,
12,
1,
14,
3,
18,
0,
15,
1,
9,
20,
12,
-1,
15,
1,
11,
0,
12,
-1,
4,
18,
5,
18,
4,
16,
7,
-4,
8,
-4,
3,
15,
9,
-4,
2,
13,
4,
4,
5,
-8,
10,
-8,
9,
-8,
7,
-9,
1,
1,
7,
-12,
-7,
9,
-5,
8,
-4,
7,
0,
-14,
3,
-13,
-2,
-15,
-4,
-16,
0,
-16,
-1,
-17,
-12,
3,
-5,
