4-transistorverstaerker/data/ALL0002/A0002CH1.CSV

Memory Length,4000,
Trigger Level,1.55900e+00,
Source,CH1,
Probe,1.0X,
Vertical Units,V,
Vertical Scale,1.00000e+00,
Vertical Position,0.00000e+00,
Horizontal Units,S,
Horizontal Scale,5.00000e-04,
Horizontal Position,-6.4000000e-04,
Horizontal Mode,Main,
Sampling Period,2.00000e-06,
Firmware,V1.14,
Time, ,
Mode,Fast,
Waveform Data,
26,
26,
26,
25,
25,
25,
25,
25,
25,
25,
25,
24,
24,
24,
24,
24,
24,
23,
23,
24,
24,
23,
23,
23,
23,
23,
23,
23,
23,
23,
23,
23,
23,
23,
23,
21,
21,
22,
22,
23,
23,
22,
22,
22,
22,
21,
21,
22,
22,
22,
22,
21,
21,
20,
20,
21,
21,
20,
20,
21,
21,
20,
20,
21,
21,
20,
20,
21,
21,
20,
20,
20,
20,
20,
20,
20,
20,
19,
19,
21,
21,
20,
20,
19,
19,
20,
20,
19,
19,
19,
19,
19,
19,
20,
20,
19,
19,
19,
19,
19,
19,
20,
20,
19,
19,
19,
19,
19,
19,
19,
19,
19,
19,
19,
19,
19,
19,
19,
19,
19,
19,
19,
19,
19,
19,
20,
20,
19,
19,
20,
20,
20,
20,
20,
20,
19,
19,
19,
19,
20,
20,
21,
21,
20,
20,
20,
20,
20,
20,
20,
20,
20,
20,
20,
20,
20,
20,
20,
20,
21,
21,
20,
20,
21,
21,
21,
21,
21,
21,
21,
21,
20,
20,
22,
22,
21,
21,
21,
21,
21,
21,
22,
22,
21,
21,
21,
21,
22,
22,
23,
23,
22,
22,
22,
22,
23,
23,
23,
23,
23,
23,
23,
23,
23,
23,
23,
23,
24,
24,
24,
24,
24,
24,
24,
24,
25,
25,
25,
25,
25,
25,
24,
24,
25,
25,
26,
26,
26,
26,
26,
26,
26,
26,
27,
27,
26,
26,
28,
28,
27,
27,
27,
27,
27,
27,
27,
27,
28,
28,
28,
28,
28,
28,
29,
29,
29,
29,
30,
30,
30,
30,
30,
30,
30,
30,
30,
30,
31,
31,
31,
31,
31,
31,
32,
32,
31,
31,
32,
32,
33,
33,
32,
32,
33,
33,
34,
34,
34,
34,
33,
33,
34,
34,
34,
34,
35,
35,
35,
35,
35,
35,
36,
36,
36,
36,
36,
36,
36,
36,
37,
37,
37,
37,
37,
37,
38,
38,
38,
38,
38,
38,
39,
39,
39,
39,
39,
39,
40,
40,
40,
40,
40,
40,
40,
40,
41,
41,
42,
42,
42,
42,
42,
42,
42,
42,
43,
43,
43,
43,
43,
43,
43,
43,
44,
44,
45,
45,
45,
45,
45,
45,
45,
45,
44,
44,
45,
45,
46,
46,
46,
46,
47,
47,
47,
47,
47,
47,
48,
48,
48,
48,
48,
48,
48,
48,
48,
48,
49,
49,
49,
49,
50,
50,
50,
50,
50,
50,
51,
51,
51,
51,
51,
51,
51,
51,
52,
52,
52,
52,
52,
52,
53,
53,
53,
53,
54,
54,
53,
53,
54,
54,
54,
54,
54,
54,
54,
54,
55,
55,
55,
55,
56,
56,
55,
55,
56,
56,
57,
57,
57,
57,
58,
58,
57,
57,
57,
57,
59,
59,
58,
58,
58,
58,
59,
59,
59,
59,
59,
59,
60,
60,
60,
60,
60,
60,
60,
60,
60,
60,
61,
61,
61,
61,
62,
62,
61,
61,
62,
62,
62,
62,
62,
62,
63,
63,
63,
63,
63,
63,
63,
63,
63,
63,
64,
64,
64,
64,
64,
64,
64,
64,
65,
65,
64,
64,
65,
65,
65,
65,
64,
64,
65,
65,
66,
66,
65,
65,
66,
66,
66,
66,
67,
67,
66,
66,
67,
67,
67,
67,
66,
66,
67,
67,
67,
67,
67,
67,
67,
67,
67,
67,
68,
68,
68,
68,
67,
67,
68,
68,
68,
68,
68,
68,
68,
68,
68,
68,
68,
68,
69,
69,
68,
68,
69,
69,
69,
69,
69,
69,
69,
69,
69,
69,
70,
70,
69,
69,
69,
69,
69,
69,
70,
70,
69,
69,
70,
70,
70,
70,
70,
70,
69,
69,
70,
70,
70,
70,
70,
70,
70,
70,
70,
70,
70,
70,
71,
71,
70,
70,
70,
70,
71,
71,
71,
71,
70,
70,
70,
70,
71,
71,
70,
70,
70,
70,
70,
70,
70,
70,
70,
70,
71,
71,
70,
70,
70,
70,
70,
70,
70,
70,
70,
70,
69,
69,
69,
69,
70,
70,
70,
70,
69,
69,
69,
69,
69,
69,
70,
70,
69,
69,
69,
69,
69,
69,
69,
69,
68,
68,
67,
67,
68,
68,
68,
68,
68,
68,
68,
68,
68,
68,
67,
67,
67,
67,
68,
68,
67,
67,
67,
67,
67,
67,
66,
66,
67,
67,
67,
67,
66,
66,
66,
66,
66,
66,
66,
66,
66,
66,
66,
66,
65,
65,
66,
66,
66,
66,
64,
64,
65,
65,
65,
65,
64,
64,
64,
64,
63,
63,
64,
64,
63,
63,
64,
64,
63,
63,
62,
62,
63,
63,
62,
62,
62,
62,
62,
62,
62,
62,
62,
62,
62,
62,
61,
61,
61,
61,
61,
61,
60,
60,
60,
60,
60,
60,
59,
59,
59,
59,
59,
59,
59,
59,
58,
58,
58,
58,
58,
58,
58,
58,
57,
57,
58,
58,
57,
57,
56,
56,
57,
57,
56,
56,
55,
55,
56,
56,
55,
55,
54,
54,
55,
55,
53,
53,
54,
54,
53,
53,
53,
53,
53,
53,
52,
52,
52,
52,
51,
51,
51,
51,
52,
52,
51,
51,
51,
51,
51,
51,
51,
51,
50,
50,
50,
50,
50,
50,
50,
50,
48,
48,
48,
48,
48,
48,
48,
48,
47,
47,
47,
47,
47,
47,
47,
47,
46,
46,
46,
46,
45,
45,
45,
45,
46,
46,
45,
45,
44,
44,
44,
44,
44,
44,
44,
44,
43,
43,
43,
43,
43,
43,
42,
42,
42,
42,
42,
42,
41,
41,
41,
41,
40,
40,
40,
40,
40,
40,
39,
39,
40,
40,
39,
39,
39,
39,
38,
38,
37,
37,
38,
38,
37,
37,
37,
37,
36,
36,
37,
37,
36,
36,
36,
36,
35,
35,
35,
35,
35,
35,
34,
34,
34,
34,
34,
34,
34,
34,
34,
34,
34,
34,
34,
34,
33,
33,
33,
33,
32,
32,
32,
32,
31,
31,
31,
31,
32,
32,
31,
31,
31,
31,
30,
30,
30,
30,
30,
30,
30,
30,
29,
29,
29,
29,
28,
28,
28,
28,
28,
28,
27,
27,
28,
28,
27,
27,
27,
27,
27,
27,
27,
27,
26,
26,
26,
26,
25,
25,
27,
27,
26,
26,
26,
26,
26,
26,
25,
25,
26,
26,
24,
24,
24,
24,
24,
24,
24,
24,
24,
24,
24,
24,
23,
23,
23,
23,
23,
23,
23,
23,
22,
22,
23,
23,
23,
23,
23,
23,
22,
22,
22,
22,
23,
23,
22,
22,
22,
22,
21,
21,
22,
22,
20,
20,
21,
21,
21,
21,
21,
21,
21,
21,
20,
20,
20,
20,
20,
20,
19,
19,
21,
21,
20,
20,
21,
21,
20,
20,
20,
20,
19,
19,
20,
20,
20,
20,
19,
19,
19,
19,
20,
20,
19,
19,
20,
20,
19,
19,
19,
19,
19,
19,
19,
19,
19,
19,
20,
20,
19,
19,
19,
19,
19,
19,
19,
19,
19,
19,
19,
19,
19,
19,
19,
19,
19,
19,
19,
19,
19,
19,
19,
19,
19,
19,
20,
20,
19,
19,
20,
20,
19,
19,
19,
19,
19,
19,
20,
20,
19,
19,
20,
20,
20,
20,
20,
20,
20,
20,
20,
20,
20,
20,
21,
21,
21,
21,
21,
21,
21,
21,
20,
20,
21,
21,
22,
22,
21,
21,
22,
22,
21,
21,
21,
21,
22,
22,
22,
22,
22,
22,
22,
22,
22,
22,
22,
22,
22,
22,
23,
23,
23,
23,
24,
24,
23,
23,
24,
24,
24,
24,
24,
24,
24,
24,
24,
24,
25,
25,
24,
24,
25,
25,
25,
25,
26,
26,
25,
25,
26,
26,
26,
26,
26,
26,
26,
26,
26,
26,
27,
27,
27,
27,
27,
27,
28,
28,
28,
28,
28,
28,
28,
28,
28,
28,
29,
29,
29,
29,
30,
30,
30,
30,
30,
30,
31,
31,
31,
31,
31,
31,
31,
31,
32,
32,
32,
32,
32,
32,
32,
32,
32,
32,
31,
31,
33,
33,
33,
33,
33,
33,
33,
33,
34,
34,
34,
34,
35,
35,
35,
35,
35,
35,
35,
35,
36,
36,
36,
36,
36,
36,
36,
36,
37,
37,
37,
37,
37,
37,
38,
38,
38,
38,
39,
39,
39,
39,
39,
39,
40,
40,
39,
39,
40,
40,
40,
40,
40,
40,
40,
40,
41,
41,
41,
41,
42,
42,
43,
43,
42,
42,
44,
44,
44,
44,
43,
43,
44,
44,
45,
45,
45,
45,
45,
45,
46,
46,
46,
46,
46,
46,
46,
46,
47,
47,
46,
46,
47,
47,
48,
48,
48,
48,
48,
48,
48,
48,
48,
48,
49,
49,
50,
50,
50,
50,
50,
50,
50,
50,
51,
51,
50,
50,
51,
51,
51,
51,
51,
51,
52,
52,
52,
52,
52,
52,
52,
52,
53,
53,
54,
54,
54,
54,
54,
54,
54,
54,
55,
55,
55,
55,
55,
55,
56,
56,
56,
56,
56,
56,
57,
57,
57,
57,
57,
57,
58,
58,
58,
58,
58,
58,
58,
58,
58,
58,
59,
59,
59,
59,
59,
59,
60,
60,
59,
59,
60,
60,
60,
60,
60,
60,
61,
61,
61,
61,
62,
62,
62,
62,
62,
62,
62,
62,
62,
62,
63,
63,
63,
63,
63,
63,
64,
64,
63,
63,
63,
63,
64,
64,
64,
64,
65,
65,
64,
64,
65,
65,
65,
65,
65,
65,
66,
66,
65,
65,
66,
66,
66,
66,
66,
66,
66,
66,
66,
66,
66,
66,
66,
66,
68,
68,
67,
67,
67,
67,
67,
67,
67,
67,
67,
67,
68,
68,
68,
68,
68,
68,
68,
68,
68,
68,
68,
68,
68,
68,
68,
68,
68,
68,
69,
69,
68,
68,
69,
69,
68,
68,
69,
69,
68,
68,
69,
69,
69,
69,
69,
69,
69,
69,
69,
69,
69,
69,
69,
69,
70,
70,
71,
71,
70,
70,
69,
69,
69,
69,
70,
70,
70,
70,
69,
69,
70,
70,
70,
70,
70,
70,
70,
70,
71,
71,
70,
70,
70,
70,
71,
71,
69,
69,
70,
70,
70,
70,
70,
70,
70,
70,
70,
70,
69,
69,
70,
70,
70,
70,
69,
69,
69,
69,
70,
70,
70,
70,
70,
70,
70,
70,
69,
69,
70,
70,
69,
69,
70,
70,
69,
69,
69,
69,
70,
70,
69,
69,
69,
69,
68,
68,
69,
69,
69,
69,
68,
68,
68,
68,
68,
68,
69,
69,
68,
68,
67,
67,
68,
68,
68,
68,
67,
67,
67,
67,
67,
67,
67,
67,
67,
67,
67,
67,
66,
66,
66,
66,
66,
66,
66,
66,
67,
67,
65,
65,
66,
66,
65,
65,
65,
65,
65,
65,
65,
65,
65,
65,
65,
65,
64,
64,
64,
64,
64,
64,
64,
64,
64,
64,
63,
63,
63,
63,
63,
63,
63,
63,
63,
63,
62,
62,
62,
62,
62,
62,
62,
62,
61,
61,
61,
61,
61,
61,
61,
61,
60,
60,
60,
60,
60,
60,
60,
60,
60,
60,
60,
60,
59,
59,
58,
58,
59,
59,
58,
58,
59,
59,
58,
58,
57,
57,
57,
57,
57,
57,
56,
56,
56,
56,
55,
55,
55,
55,
55,
55,
56,
56,
55,
55,
54,
54,
54,
54,
53,
53,
52,
52,
53,
53,
53,
53,
52,
52,
52,
52,
51,
51,
51,
51,
51,
51,
51,
51,
50,
50,
51,
51,
49,
49,
50,
50,
49,
49,
48,
48,
49,
49,
48,
48,
48,
48,
48,
48,
47,
47,
47,
47,
47,
47,
46,
46,
46,
46,
46,
46,
45,
45,
45,
45,
45,
45,
45,
45,
44,
44,
44,
44,
43,
43,
43,
43,
43,
43,
43,
43,
43,
43,
42,
42,
43,
43,
42,
42,
41,
41,
42,
42,
41,
41,
40,
40,
40,
40,
40,
40,
39,
39,
39,
39,
39,
39,
38,
38,
38,
38,
38,
38,
37,
37,
37,
37,
37,
37,
36,
36,
36,
36,
36,
36,
35,
35,
35,
35,
35,
35,
34,
34,
35,
35,
34,
34,
34,
34,
33,
33,
33,
33,
34,
34,
33,
33,
32,
32,
32,
32,
32,
32,
32,
32,
31,
31,
31,
31,
31,
31,
31,
31,
31,
31,
30,
30,
30,
30,
29,
29,
29,
29,
29,
29,
29,
29,
28,
28,
29,
29,
28,
28,
28,
28,
28,
28,
27,
27,
28,
28,
27,
27,
27,
27,
27,
27,
26,
26,
26,
26,
25,
25,
25,
25,
25,
25,
25,
25,
25,
25,
24,
24,
25,
25,
24,
24,
24,
24,
24,
24,
23,
23,
23,
23,
24,
24,
23,
23,
23,
23,
23,
23,
23,
23,
22,
22,
22,
22,
23,
23,
22,
22,
22,
22,
22,
22,
22,
22,
22,
22,
21,
21,
22,
22,
21,
21,
21,
21,
21,
21,
21,
21,
21,
21,
21,
21,
21,
21,
21,
21,
20,
20,
20,
20,
20,
20,
19,
19,
20,
20,
19,
19,
19,
19,
19,
19,
19,
19,
19,
19,
19,
19,
20,
20,
19,
19,
19,
19,
20,
20,
20,
20,
19,
19,
19,
19,
19,
19,
19,
19,
19,
19,
19,
19,
19,
19,
19,
19,
20,
20,
19,
19,
19,
19,
19,
19,
19,
19,
19,
19,
19,
19,
19,
19,
19,
19,
20,
20,
20,
20,
19,
19,
20,
20,
20,
20,
20,
20,
20,
20,
21,
21,
19,
19,
20,
20,
20,
20,
19,
19,
20,
20,
20,
20,
21,
21,
20,
20,
21,
21,
21,
21,
20,
20,
21,
21,
21,
21,
22,
22,
22,
22,
21,
21,
21,
21,
21,
21,
22,
22,
22,
22,
23,
23,
23,
23,
23,
23,
23,
23,
23,
23,
24,
24,
23,
23,
24,
24,
24,
24,
24,
24,
24,
24,
25,
25,
25,
25,
24,
24,
25,
25,
25,
25,
26,
26,
26,
26,
26,
26,
26,
26,
26,
26,
26,
26,
26,
26,
27,
27,
27,
27,
28,
28,
28,
28,
28,
28,
28,
28,
29,
29,
28,
28,
29,
29,
29,
29,
29,
29,
29,
29,
30,
30,
30,
30,
30,
30,
31,
31,
31,
31,
31,
31,
32,
32,
32,
32,
31,
31,
32,
32,
32,
32,
33,
33,
32,
32,
34,
34,
34,
34,
34,
34,
34,
34,
35,
35,
35,
35,
36,
36,
35,
35,
36,
36,
37,
37,
36,
36,
37,
37,
36,
36,
38,
38,
38,
38,
38,
38,
39,
39,
38,
38,
40,
40,
39,
39,
39,
39,
40,
40,
40,
40,
40,
40,
41,
41,
42,
42,
42,
42,
42,
42,
43,
43,
43,
43,
43,
43,
43,
43,
44,
44,
44,
44,
44,
44,
44,
44,
45,
45,
45,
45,
45,
45,
46,
46,
46,
46,
46,
46,
46,
46,
47,
47,
47,
47,
47,
47,
48,
48,
47,
47,
48,
48,
49,
49,
49,
49,
50,
50,
50,
50,
51,
51,
51,
51,
51,
51,
51,
51,
51,
51,
52,
52,
52,
52,
52,
52,
53,
53,
53,
53,
53,
53,
53,
53,
53,
53,
54,
54,
55,
55,
55,
55,
55,
55,
55,
55,
55,
55,
55,
55,
56,
56,
56,
56,
57,
57,
58,
58,
58,
58,
57,
57,
57,
57,
58,
58,
58,
58,
59,
59,
59,
59,
59,
59,
59,
59,
60,
60,
60,
60,
60,
60,
60,
60,
61,
61,
61,
61,
61,
61,
61,
61,
62,
62,
62,
62,
62,
62,
62,
62,
62,
62,
63,
63,
63,
63,
63,
63,
63,
63,
64,
64,
63,
63,
63,
63,
64,
64,
64,
64,
65,
65,
65,
65,
65,
65,
65,
65,
65,
65,
66,
66,
65,
65,
66,
66,
66,
66,
67,
67,
67,
67,
66,
66,
66,
66,
67,
67,
67,
67,
67,
67,
68,
68,
67,
67,
67,
67,
67,
67,
68,
68,
68,
68,
68,
68,
68,
68,
68,
68,
69,
69,
69,
69,
68,
68,
69,
69,
69,
69,
69,
69,
69,
69,
69,
69,
69,
69,
69,
69,
70,
70,
70,
70,
70,
70,
69,
69,
69,
69,
71,
71,
69,
69,
70,
70,
70,
70,
70,
70,
70,
70,
71,
71,
70,
70,
70,
70,
70,
70,
71,
71,
70,
70,
70,
70,
70,
70,
70,
70,
70,
70,
71,
71,
70,
70,
70,
70,
71,
71,
71,
71,
70,
70,
71,
71,
70,
70,
70,
70,
71,
71,
70,
70,
70,
70,
69,
69,
70,
70,
70,
70,
69,
69,
69,
69,
70,
70,
69,
69,
69,
69,
69,
69,
69,
69,
69,
69,
68,
68,
69,
69,
69,
69,
69,
69,
69,
69,
68,
68,
68,
68,
68,
68,
68,
68,
68,
68,
68,
68,
68,
68,
67,
67,
67,
67,
68,
68,
67,
67,
67,
67,
67,
67,
67,
67,
67,
67,
67,
67,
67,
67,
66,
66,
66,
66,
66,
66,
65,
65,
65,
65,
65,
65,
66,
66,
65,
65,
65,
65,
64,
64,
64,
64,
64,
64,
64,
64,
63,
63,
64,
64,
63,
63,
63,
63,
63,
63,
63,
63,
62,
62,
62,
62,
61,
61,
62,
62,
61,
61,
61,
61,
61,
61,
61,
61,
60,
60,
60,
60,
60,
60,
60,
60,
60,
60,
60,
60,
59,
59,
58,
58,
59,
59,
59,
59,
57,
57,
58,
58,
57,
57,
56,
56,
57,
57,
57,
57,
56,
56,
56,
56,
56,
56,
55,
55,
55,
55,
54,
54,
54,
54,
54,
54,
54,
54,
53,
53,
53,
53,
52,
52,
52,
52,
52,
52,
52,
52,
52,
52,
51,
51,
51,
51,
51,
51,
50,
50,
50,
50,
50,
50,
48,
48,
49,
49,
49,
49,
48,
48,
48,
48,
48,
48,
48,
48,
47,
47,
47,
47,
47,
47,
46,
46,
46,
46,
46,
46,
46,
46,
45,
45,
45,
45,
45,
45,
44,
44,
44,
44,
44,
44,
43,
43,
43,
43,
43,
43,
42,
42,
42,
42,
42,
42,
41,
41,
41,
41,
41,
41,
40,
40,
41,
41,
40,
40,
39,
39,
39,
39,
38,
38,
38,
38,
38,
38,
37,
37,
37,
37,
37,
37,
37,
37,
37,
37,
36,
36,
36,
36,
36,
36,
35,
35,
35,
35,
35,
35,
34,
34,
34,
34,
34,
34,
34,
34,
34,
34,
33,
33,
34,
34,
32,
32,
32,
32,
32,
32,
31,
31,
31,
31,
32,
32,
31,
31,
30,
30,
30,
30,
30,
30,
29,
29,
29,
29,
28,
28,
29,
29,
29,
29,
28,
28,
28,
28,
28,
28,
27,
27,
28,
28,
27,
27,
28,
28,
27,
27,
27,
27,
26,
26,
26,
26,
26,
26,
26,
26,
25,
25,
26,
26,
25,
25,
25,
25,
25,
25,
24,
24,
25,
25,
24,
24,
23,
23,
24,
24,
24,
24,
24,
24,
23,
23,
23,
23,
23,
23,
23,
23,
23,
23,
22,
22,
23,
23,
22,
22,
22,
22,
22,
22,
22,
22,
22,
22,
22,
22,
21,
21,
21,
21,
21,
21,
21,
21,
20,
20,
20,
20,
20,
20,
20,
20,
20,
20,
20,
20,
20,
20,
20,
20,
20,
20,
20,
20,
20,
20,
20,
20,
19,
19,
19,
19,
19,
19,
19,
19,
19,
19,
19,
19,
19,
19,
19,
19,
19,
19,
19,
19,
19,
19,
20,
20,
19,
19,
20,
20,
19,
19,
19,
19,
19,
19,
19,
19,
19,
19,
19,
19,
19,
19,
19,
19,
19,
19,
19,
19,
19,
19,
19,
19,
20,
20,
19,
19,
20,
20,
20,
20,
19,
19,
19,
19,
19,
19,
20,
20,
20,
20,
20,
20,
20,
20,
21,
21,
20,
20,
20,
20,
20,
20,
21,
21,
21,
21,
21,
21,
21,
21,
21,
21,
21,
21,
22,
22,
21,
21,
22,
22,
22,
22,
22,
22,
22,
22,
22,
22,
24,
24,
22,
22,
23,
23,
23,
23,
23,
23,
23,
23,
24,
24,
24,
24,
24,
24,
24,
24,
24,
24,
25,
25,
24,
24,
24,
24,
25,
25,
26,
26,
26,
26,
25,
25,
26,
26,
26,
26,
26,
26,
27,
27,
28,
28,
27,
27,
27,
27,
27,
27,
28,
28,
28,
28,
28,
28,
28,
28,
28,
28,
29,
29,
29,
29,
29,
29,
30,
30,
30,
30,
30,
30,
30,
30,
32,
32,
31,
31,
31,
31,
31,
31,
32,
32,
32,
32,
32,
32,
32,
32,
33,
33,
33,
33,
34,
34,
34,
34,
34,
34,
35,
35,
35,
35,
35,
35,
35,
35,
36,
36,
36,
36,
36,
36,
36,
36,
37,
37,
37,
37,
37,
37,
38,
38,
38,
38,
39,
39,
39,
39,
39,
39,
40,
40,
40,
40,
40,
40,
40,
40,
40,
40,
41,
41,
42,
42,
41,
41,
42,
42,
42,
42,
42,
42,
43,
43,
43,
43,
43,
43,
44,
44,
44,
44,
44,
44,
44,
44,
45,
45,
46,
46,
45,
45,
45,
45,
46,
46,
47,
47,
47,
47,
47,
47,
47,
47,
48,
48,
48,
48,
48,
48,
48,
48,
49,
49,
49,
49,
50,
50,
50,
50,
50,
50,
51,
51,
51,
51,
52,
52,
51,
51,
51,
51,
52,
52,
52,
52,
52,
52,
53,
53,
53,
53,
54,
54,
53,
53,
54,
54,
54,
54,
56,
56,
55,
55,
55,
55,
56,
56,
56,
56,
56,
56,
57,
57,
57,
57,
58,
58,
57,
57,
58,
58,
58,
58,
58,
58,
58,
58,
59,
59,
59,
59,
59,
59,
60,
60,
60,
60,
60,
60,
60,
60,
61,
61,
61,
61,
61,
61,
62,
62,
62,
62,
62,
62,
62,
62,
62,
62,
62,
62,
63,
63,
63,
63,
64,
64,
63,
63,
63,
63,
64,
64,
64,
64,
64,
64,
64,
64,
65,
65,
64,
64,
65,
65,
65,
65,
65,
65,
65,
65,
66,
66,
66,
66,
66,
66,
66,
66,
67,
67,
67,
67,
67,
67,
68,
68,
66,
66,
67,
67,
67,
67,
67,
67,
67,
67,
67,
67,
68,
68,
68,
68,
67,
67,
68,
68,
68,
68,
68,
68,
68,
68,
69,
69,
69,
69,
69,
69,
68,
68,
69,
69,
69,
69,
69,
69,
70,
70,
69,
69,
70,
70,
70,
70,
70,
70,
70,
70,
70,
70,
69,
69,
70,
70,
70,
70,
70,
70,
70,
70,
70,
70,
70,
70,
71,
71,
71,
71,
71,
71,
70,
70,
71,
71,
70,
70,
70,
70,
71,
71,
70,
70,
70,
70,
70,
70,
70,
70,
71,
71,
70,
70,
70,
70,
70,
70,
70,
70,
70,
70,
70,
70,
69,
69,
69,
69,
70,
70,
69,
69,
69,
69,
70,
70,
69,
69,
69,
69,
69,
69,
69,
69,
70,
70,
70,
70,
68,
68,
69,
69,
69,
69,
68,
68,
68,
68,
69,
69,
68,
68,
68,
68,
68,
68,
67,
67,
68,
68,
68,
68,
68,
68,
67,
67,
68,
68,
67,
67,
67,
67,
67,
67,
66,
66,
66,
66,
67,
67,
66,
66,
66,
66,
66,
66,
66,
66,
66,
66,
66,
66,
65,
65,
65,
65,
65,
65,
65,
65,
64,
64,
64,
64,
64,
64,
64,
64,
64,
64,
63,
63,
64,
64,
63,
63,
63,
63,
63,
63,
62,
62,
62,
62,
62,
62,
62,
62,
62,
62,
61,
61,
61,
61,
61,
61,
61,
61,
60,
60,
60,
60,
59,
59,
59,
59,
59,
59,
59,
59,
59,
59,
59,
59,
58,
58,
58,
58,
57,
57,
58,
58,
57,
57,
57,
57,
56,
56,
56,
56,
55,
55,
56,
56,
55,
55,
55,
55,
54,
54,
54,
54,
54,
54,
54,
54,
53,
53,
53,
53,
53,
53,
52,
52,
52,
52,
51,
51,
51,
51,
51,
51,
51,
51,
51,
51,
50,
50,
50,
50,
50,
50,
49,
49,
49,
49,
49,
49,
49,
49,
48,
48,
48,
48,
47,
47,
47,
47,
47,
47,
46,
46,
47,
47,
46,
46,
46,
46,
45,
45,
45,
45,
44,
44,
44,
44,
44,
44,
44,
44,
43,
43,
44,
44,
43,
43,
43,
43,
42,
42,
42,
42,
41,
41,
41,
41,
41,
41,
41,
41,
40,
40,
40,
40,
40,
40,
39,
39,
39,
39,
39,
39,
38,
38,
38,
38,
38,
38,
38,
38,
37,
37,
36,
36,
36,
36,
36,
36,
36,
36,
35,
35,
35,
35,
34,
34,
35,
35,
35,
35,
34,
34,
34,
34,
34,
34,
34,
34,
33,
33,
33,
33,
32,
32,
32,
32,
32,
32,
31,
31,
31,
31,
31,
31,
31,
31,
31,
31,
31,
31,
31,
31,
30,
30,
29,
29,
29,
29,
29,
29,
29,
29,
28,
28,
29,
29,
28,
28,
28,
28,
27,
27,
27,
27,
26,
26,
28,
28,
26,
26,
26,
26,
26,
26,
26,
26,
26,
