4-transistorverstaerker/data/ALL0030/A0030CH1.CSV

Memory Length,4000,
Trigger Level,1.11989e+01,
Source,CH1,
Probe,1.0X,
Vertical Units,V,
Vertical Scale,2.00000e-02,
Vertical Position,-8.00000e-04,
Horizontal Units,S,
Horizontal Scale,2.50000e-06,
Horizontal Position,-3.4000000e-06,
Horizontal Mode,Main,
Sampling Period,1.00000e-08,
Firmware,V1.14,
Time, ,
Mode,Fast,
Waveform Data,
-35,
-35,
-35,
-36,
-36,
-33,
-33,
-36,
-36,
-29,
-29,
-35,
-35,
-34,
-34,
-30,
-30,
-32,
-32,
-29,
-29,
-32,
-32,
-30,
-30,
-30,
-30,
-30,
-30,
-31,
-31,
-27,
-27,
-27,
-27,
-28,
-28,
-24,
-24,
-28,
-28,
-21,
-21,
-25,
-25,
-23,
-23,
-19,
-19,
-20,
-20,
-19,
-19,
-20,
-20,
-15,
-26,
-22,
-22,
-11,
-25,
-22,
-22,
-10,
-23,
-19,
-19,
-12,
-12,
-19,
-19,
-12,
-12,
-18,
-18,
-11,
-11,
-15,
-15,
-10,
-10,
-11,
-11,
-11,
-11,
-10,
-10,
-6,
-6,
-11,
-11,
-1,
-1,
-7,
-7,
-1,
-1,
-8,
-8,
1,
1,
-9,
-9,
4,
-8,
-8,
-8,
4,
4,
-3,
-3,
2,
2,
-3,
-3,
3,
3,
-1,
-1,
3,
3,
2,
2,
4,
4,
7,
7,
2,
2,
5,
5,
9,
9,
6,
6,
10,
10,
9,
9,
13,
13,
9,
9,
14,
14,
6,
6,
18,
18,
11,
11,
15,
15,
15,
15,
14,
14,
17,
17,
13,
25,
17,
17,
16,
16,
23,
23,
14,
28,
25,
25,
16,
28,
23,
23,
21,
21,
25,
25,
25,
25,
28,
28,
25,
25,
27,
27,
27,
27,
27,
27,
30,
30,
31,
31,
27,
27,
33,
33,
25,
39,
34,
34,
26,
38,
34,
34,
29,
29,
41,
28,
28,
40,
43,
30,
30,
30,
41,
41,
35,
35,
40,
40,
38,
38,
44,
44,
38,
38,
41,
41,
42,
42,
43,
43,
42,
42,
43,
43,
41,
41,
48,
37,
37,
49,
47,
47,
41,
41,
49,
49,
42,
42,
52,
52,
42,
42,
53,
53,
45,
45,
49,
49,
51,
51,
50,
50,
51,
51,
51,
51,
52,
52,
50,
50,
54,
54,
49,
49,
55,
55,
52,
52,
52,
52,
55,
55,
51,
51,
54,
54,
53,
53,
55,
55,
55,
55,
58,
58,
54,
54,
57,
57,
58,
58,
53,
53,
62,
48,
55,
55,
61,
61,
54,
54,
61,
61,
52,
52,
62,
62,
51,
51,
63,
63,
57,
57,
58,
58,
56,
56,
59,
59,
57,
57,
59,
59,
57,
57,
61,
61,
59,
59,
59,
59,
56,
56,
63,
63,
54,
54,
65,
65,
54,
54,
64,
64,
54,
54,
63,
63,
52,
52,
63,
63,
53,
53,
61,
61,
56,
56,
58,
58,
58,
58,
56,
56,
56,
56,
59,
59,
57,
57,
59,
59,
59,
59,
57,
57,
55,
55,
60,
60,
53,
53,
61,
61,
53,
53,
59,
59,
54,
54,
57,
57,
52,
52,
56,
56,
53,
53,
55,
55,
56,
56,
51,
62,
58,
58,
49,
60,
54,
54,
51,
51,
56,
56,
49,
49,
55,
55,
50,
50,
52,
52,
52,
52,
49,
49,
53,
53,
51,
51,
49,
49,
49,
49,
48,
48,
50,
50,
46,
46,
50,
50,
44,
44,
54,
38,
38,
53,
53,
38,
38,
50,
59,
32,
32,
56,
52,
33,
33,
57,
44,
44,
36,
53,
39,
39,
41,
41,
39,
39,
40,
40,
40,
40,
40,
40,
38,
38,
38,
38,
38,
38,
37,
37,
40,
40,
33,
33,
44,
28,
28,
28,
41,
30,
30,
30,
38,
38,
32,
32,
38,
38,
31,
31,
35,
35,
30,
30,
28,
28,
31,
31,
28,
28,
30,
30,
27,
27,
28,
28,
27,
27,
23,
23,
23,
23,
24,
24,
25,
25,
20,
20,
26,
26,
19,
19,
22,
22,
20,
20,
16,
16,
23,
9,
18,
18,
18,
18,
13,
13,
20,
8,
8,
8,
20,
8,
7,
7,
18,
7,
8,
8,
12,
12,
7,
7,
10,
10,
5,
5,
9,
9,
7,
7,
6,
6,
6,
6,
3,
3,
2,
2,
7,
7,
-3,
-3,
7,
-5,
-3,
-3,
3,
3,
-7,
-7,
5,
5,
-9,
-9,
3,
3,
-11,
-11,
0,
0,
-8,
-8,
-5,
-5,
-10,
-10,
-7,
-7,
-11,
-11,
-8,
-8,
-10,
-10,
-10,
-10,
-10,
-10,
-14,
-14,
-16,
-16,
-10,
-10,
-18,
-18,
-12,
-12,
-19,
-19,
-14,
-14,
-22,
-22,
-15,
-15,
-25,
-25,
-15,
-15,
-24,
-24,
-21,
-21,
-22,
-22,
-24,
-24,
-23,
-23,
-28,
-28,
-25,
-25,
-27,
-27,
-22,
-22,
-32,
-21,
-25,
-25,
-32,
-32,
-29,
-29,
-30,
-30,
-31,
-31,
-30,
-30,
-31,
-31,
-33,
-33,
-33,
-33,
-34,
-34,
-37,
-37,
-35,
-35,
-35,
-35,
-40,
-29,
-34,
-34,
-43,
-29,
-33,
-33,
-43,
-43,
-33,
-45,
-45,
-45,
-33,
-49,
-49,
-37,
-38,
-38,
-41,
-41,
-38,
-38,
-45,
-45,
-43,
-43,
-43,
-43,
-40,
-40,
-48,
-48,
-46,
-46,
-45,
-45,
-45,
-45,
-47,
-47,
-45,
-45,
-50,
-50,
-41,
-54,
-54,
-54,
-43,
-43,
-52,
-52,
-44,
-44,
-53,
-53,
-44,
-44,
-54,
-54,
-46,
-46,
-53,
-53,
-51,
-51,
-50,
-50,
-52,
-52,
-52,
-52,
-53,
-53,
-53,
-53,
-55,
-55,
-53,
-53,
-56,
-56,
-53,
-53,
-54,
-54,
-57,
-57,
-51,
-51,
-59,
-59,
-55,
-55,
-56,
-56,
-53,
-53,
-56,
-56,
-54,
-54,
-58,
-58,
-57,
-57,
-55,
-55,
-62,
-62,
-53,
-66,
-62,
-62,
-55,
-55,
-63,
-63,
-56,
-56,
-64,
-64,
-56,
-56,
-65,
-65,
-55,
-55,
-61,
-61,
-60,
-60,
-60,
-60,
-60,
-60,
-60,
-60,
-57,
-57,
-62,
-62,
-57,
-68,
-58,
-58,
-61,
-61,
-67,
-67,
-55,
-66,
-66,
-66,
-54,
-65,
-66,
-66,
-56,
-56,
-67,
-67,
-58,
-58,
-67,
-67,
-57,
-57,
-67,
-67,
-59,
-59,
-62,
-62,
-61,
-61,
-61,
-61,
-61,
-61,
-62,
-62,
-57,
-57,
-60,
-60,
-59,
-59,
-60,
-60,
-58,
-58,
-64,
-64,
-56,
-56,
-65,
-65,
-55,
-55,
-65,
-65,
-58,
-58,
-62,
-62,
-59,
-59,
-63,
-63,
-57,
-57,
-59,
-59,
-59,
-59,
-55,
-55,
-61,
-61,
-54,
-54,
-60,
-60,
-56,
-56,
-55,
-55,
-53,
-53,
-58,
-58,
-55,
-55,
-56,
-56,
-55,
-55,
-55,
-55,
-57,
-57,
-52,
-52,
-53,
-53,
-56,
-56,
-52,
-52,
-55,
-55,
-51,
-51,
-55,
-55,
-49,
-49,
-55,
-55,
-43,
-60,
-60,
-36,
-44,
-60,
-53,
-53,
-55,
-55,
-42,
-42,
-56,
-37,
-37,
-53,
-52,
-52,
-40,
-40,
-52,
-52,
-38,
-38,
-48,
-48,
-41,
-41,
-42,
-42,
-43,
-43,
-41,
-41,
-45,
-45,
-36,
-36,
-44,
-44,
-33,
-46,
-46,
-35,
-28,
-44,
-44,
-44,
-32,
-32,
-38,
-38,
-32,
-32,
-35,
-35,
-31,
-31,
-35,
-35,
-31,
-31,
-32,
-32,
-33,
-33,
-30,
-30,
-33,
-33,
-30,
-30,
-28,
-28,
-31,
-31,
-26,
-26,
-31,
-31,
-26,
-26,
-25,
-25,
-21,
-21,
-26,
-26,
-18,
-18,
-23,
-23,
-20,
-20,
-20,
-20,
-21,
-21,
-15,
-29,
-19,
-19,
-15,
-15,
-19,
-19,
-12,
-23,
-21,
-21,
-12,
-12,
-19,
-19,
-11,
-11,
-15,
-15,
-14,
-14,
-14,
-14,
-11,
-11,
-14,
-14,
-8,
-8,
-9,
-9,
-8,
-8,
-7,
-7,
-5,
-5,
-9,
-9,
0,
-13,
-10,
-10,
2,
-10,
-7,
-7,
2,
2,
-7,
-7,
2,
2,
-6,
-6,
5,
5,
-7,
-7,
4,
4,
0,
0,
1,
1,
-1,
-1,
5,
5,
2,
2,
7,
7,
6,
6,
7,
7,
8,
8,
9,
9,
5,
5,
15,
15,
7,
7,
16,
16,
8,
8,
15,
15,
9,
9,
15,
15,
8,
8,
17,
17,
13,
13,
14,
14,
17,
17,
15,
26,
18,
18,
16,
16,
20,
20,
20,
20,
25,
25,
19,
19,
25,
25,
23,
23,
23,
23,
27,
27,
25,
25,
29,
29,
27,
27,
26,
26,
28,
28,
27,
27,
27,
27,
29,
29,
33,
33,
27,
39,
37,
25,
25,
43,
37,
37,
29,
29,
37,
37,
32,
32,
43,
32,
32,
32,
41,
41,
36,
36,
41,
41,
39,
39,
39,
39,
41,
41,
45,
45,
39,
39,
43,
43,
40,
40,
44,
44,
40,
40,
48,
48,
38,
49,
51,
38,
38,
50,
49,
49,
44,
44,
52,
52,
44,
44,
53,
53,
47,
47,
54,
54,
50,
50,
48,
48,
53,
53,
53,
53,
52,
52,
52,
52,
48,
48,
51,
51,
51,
51,
52,
52,
53,
53,
58,
58,
49,
49,
59,
59,
51,
51,
55,
55,
55,
55,
58,
58,
57,
57,
57,
57,
57,
57,
57,
57,
60,
60,
53,
53,
63,
50,
53,
53,
61,
61,
54,
54,
59,
59,
55,
55,
59,
59,
54,
54,
61,
61,
59,
59,
56,
56,
59,
59,
59,
59,
58,
58,
62,
62,
56,
56,
63,
63,
58,
58,
63,
63,
54,
54,
66,
54,
53,
53,
66,
54,
52,
52,
64,
64,
55,
55,
60,
60,
54,
54,
61,
61,
55,
55,
59,
59,
59,
59,
56,
56,
58,
58,
59,
59,
55,
55,
62,
62,
56,
56,
60,
60,
55,
55,
60,
60,
53,
53,
61,
61,
51,
51,
62,
62,
53,
53,
57,
57,
55,
55,
54,
54,
52,
52,
55,
55,
54,
54,
52,
52,
57,
57,
49,
49,
55,
55,
51,
51,
53,
53,
53,
53,
53,
53,
52,
52,
51,
51,
52,
52,
50,
50,
52,
52,
47,
47,
51,
51,
51,
51,
45,
45,
51,
51,
43,
55,
49,
49,
43,
43,
51,
51,
42,
42,
46,
46,
46,
46,
43,
43,
52,
33,
47,
59,
49,
34,
49,
49,
46,
35,
47,
47,
43,
43,
44,
44,
41,
41,
44,
44,
37,
37,
46,
31,
31,
45,
45,
29,
29,
44,
40,
40,
31,
31,
39,
39,
30,
30,
40,
29,
29,
29,
36,
36,
32,
32,
34,
34,
33,
33,
32,
32,
32,
32,
32,
32,
30,
30,
27,
27,
31,
31,
27,
27,
26,
26,
29,
29,
22,
22,
28,
28,
20,
20,
22,
22,
22,
22,
25,
25,
17,
17,
23,
23,
19,
19,
18,
18,
21,
21,
14,
14,
23,
8,
15,
15,
18,
18,
12,
12,
17,
17,
8,
8,
16,
16,
6,
6,
13,
13,
10,
10,
7,
7,
6,
6,
7,
7,
4,
4,
7,
7,
4,
4,
6,
6,
2,
2,
5,
5,
-1,
-1,
6,
-7,
-5,
-5,
7,
-7,
-5,
-5,
3,
3,
-8,
-8,
0,
0,
-10,
-10,
0,
0,
-11,
-11,
-4,
-4,
-8,
-8,
-10,
-10,
-12,
-12,
-8,
-8,
-12,
-12,
-10,
-10,
-13,
-13,
-11,
-11,
-14,
-14,
-12,
-12,
-19,
-19,
-9,
-9,
-21,
-21,
-12,
-12,
-22,
-22,
-17,
-17,
-23,
-23,
-19,
-19,
-27,
-27,
-18,
-18,
-22,
-22,
-25,
-25,
-21,
-21,
-28,
-28,
-24,
-24,
-29,
-29,
-27,
-27,
-28,
-28,
-25,
-25,
-30,
-30,
-29,
-29,
-30,
-30,
-33,
-33,
-30,
-30,
-35,
-35,
-33,
-33,
-34,
-34,
-37,
-37,
-34,
-34,
-36,
-36,
-35,
-35,
-37,
-37,
-31,
-42,
-42,
-31,
-32,
-45,
-45,
-34,
-34,
-34,
-44,
-44,
-37,
-37,
-44,
-44,
-37,
-37,
-46,
-46,
-42,
-42,
-45,
-45,
-43,
-43,
-44,
-44,
-45,
-45,
-44,
-44,
-41,
-41,
-49,
-49,
-44,
-44,
-49,
-49,
-44,
-44,
-50,
-50,
-42,
-54,
-54,
-54,
-40,
-56,
-56,
-56,
-45,
-45,
-52,
-52,
-46,
-46,
-54,
-54,
-48,
-48,
-53,
-53,
-50,
-50,
-52,
-52,
-55,
-55,
-49,
-60,
-55,
-55,
-54,
-54,
-53,
-53,
-56,
-56,
-54,
-54,
-54,
-54,
-52,
-52,
-54,
-54,
-50,
-50,
-60,
-60,
-52,
-52,
-60,
-60,
-57,
-57,
-57,
-57,
-55,
-55,
-55,
-55,
-58,
-58,
-55,
-55,
-61,
-61,
-54,
-54,
-65,
-65,
-52,
-64,
-61,
-61,
-56,
-56,
-60,
-60,
-57,
-57,
-61,
-61,
-56,
-56,
-60,
-60,
-58,
-58,
-56,
-56,
-61,
-61,
-60,
-60,
-58,
-58,
-62,
-62,
-58,
-58,
-65,
-65,
-57,
-57,
-64,
-64,
-58,
-58,
-68,
-68,
-54,
-54,
-69,
-69,
-54,
-54,
-67,
-67,
-57,
-57,
-64,
-64,
-60,
-60,
-65,
-65,
-57,
-57,
-60,
-60,
-60,
-60,
-62,
-62,
-61,
-61,
-62,
-62,
-60,
-60,
-63,
-63,
-58,
-58,
-64,
-64,
-55,
-55,
-62,
-62,
-56,
-56,
-65,
-65,
-55,
-55,
-65,
-65,
-54,
-54,
-60,
-60,
-58,
-58,
-57,
-57,
-61,
-61,
-58,
-58,
-58,
-58,
-55,
-55,
-61,
-61,
-54,
-54,
-60,
-60,
-54,
-54,
-58,
-58,
-57,
-57,
-54,
-54,
-55,
-55,
-56,
-56,
-55,
-55,
-54,
-54,
-55,
-55,
-53,
-53,
-55,
-55,
-52,
-52,
-48,
-48,
-58,
-42,
-49,
-49,
-55,
-55,
-48,
-48,
-54,
-54,
-46,
-46,
-49,
-49,
-34,
-57,
-57,
-45,
-31,
-59,
-59,
-40,
-32,
-57,
-57,
-42,
-34,
-53,
-53,
-40,
-36,
-52,
-52,
-36,
-40,
-40,
-47,
-47,
-41,
-41,
-47,
-36,
-38,
-38,
-46,
-46,
-38,
-38,
-43,
-43,
-36,
-36,
-40,
-40,
-33,
-33,
-39,
-39,
-31,
-31,
-39,
-39,
-32,
-32,
-33,
-33,
-32,
-32,
-32,
-32,
-33,
-33,
-31,
-31,
-30,
-30,
-32,
-32,
-35,
-35,
-27,
-27,
-30,
-30,
-29,
-29,
-26,
-26,
-29,
-29,
-25,
-25,
-27,
-27,
-25,
-25,
-22,
-22,
-17,
-17,
-22,
-22,
-19,
-19,
-19,
-19,
-20,
-20,
-15,
-27,
-24,
-24,
-12,
-25,
-20,
-20,
-16,
-16,
-21,
-21,
-13,
-13,
-20,
-20,
-11,
-11,
-17,
-17,
-12,
-12,
-11,
-11,
-11,
-11,
-12,
-12,
-7,
-7,
-9,
-9,
-5,
-5,
-7,
-7,
-3,
-3,
-6,
-6,
-2,
-2,
-10,
-10,
2,
-10,
-10,
-10,
2,
2,
-7,
-7,
0,
0,
-8,
-8,
4,
4,
-6,
-6,
5,
5,
-1,
-1,
2,
2,
3,
3,
4,
4,
3,
3,
10,
10,
6,
6,
9,
9,
7,
7,
11,
11,
8,
8,
12,
12,
5,
5,
16,
16,
8,
8,
14,
14,
10,
10,
15,
15,
12,
12,
15,
15,
13,
13,
17,
17,
20,
20,
14,
27,
22,
22,
17,
17,
23,
23,
20,
20,
24,
24,
23,
23,
26,
26,
22,
22,
25,
25,
25,
25,
23,
23,
28,
28,
26,
26,
27,
27,
30,
30,
23,
38,
29,
29,
26,
37,
32,
32,
28,
39,
39,
27,
27,
40,
40,
29,
29,
29,
39,
39,
33,
33,
39,
39,
35,
35,
43,
43,
36,
36,
41,
41,
39,
39,
39,
39,
41,
41,
42,
42,
39,
39,
47,
47,
37,
48,
44,
44,
41,
41,
49,
49,
39,
39,
51,
40,
40,
40,
52,
52,
43,
43,
50,
50,
48,
48,
51,
51,
49,
49,
51,
51,
50,
50,
50,
50,
52,
52,
48,
48,
53,
53,
52,
52,
49,
49,
53,
53,
50,
50,
53,
53,
52,
52,
56,
56,
53,
53,
59,
59,
53,
53,
58,
58,
57,
57,
55,
55,
60,
49,
55,
55,
61,
49,
55,
55,
60,
60,
54,
54,
62,
62,
51,
51,
62,
62,
56,
56,
58,
58,
56,
56,
58,
58,
56,
56,
59,
59,
57,
57,
59,
59,
59,
59,
60,
60,
57,
57,
64,
53,
55,
55,
65,
52,
54,
54,
65,
54,
55,
55,
62,
62,
52,
52,
65,
65,
53,
53,
61,
61,
56,
56,
58,
58,
55,
55,
57,
57,
55,
55,
59,
59,
58,
58,
57,
57,
58,
58,
59,
59,
56,
56,
60,
60,
53,
53,
63,
63,
53,
53,
59,
59,
54,
54,
58,
58,
51,
51,
59,
59,
53,
53,
55,
55,
55,
55,
51,
62,
55,
55,
51,
51,
54,
54,
52,
52,
56,
56,
51,
51,
55,
55,
52,
52,
54,
54,
53,
53,
49,
49,
55,
55,
52,
52,
49,
49,
51,
51,
49,
49,
50,
50,
47,
47,
50,
50,
45,
45,
53,
40,
40,
55,
50,
50,
43,
43,
51,
40,
40,
40,
60,
32,
32,
56,
54,
32,
32,
58,
43,
30,
40,
40,
41,
41,
39,
39,
43,
43,
36,
47,
41,
41,
36,
36,
37,
37,
39,
39,
39,
39,
34,
34,
42,
42,
32,
32,
41,
41,
32,
32,
39,
39,
33,
33,
39,
39,
31,
31,
38,
38,
31,
31,
32,
32,
33,
33,
30,
30,
31,
31,
30,
30,
27,
27,
28,
28,
27,
27,
23,
23,
26,
26,
28,
28,
20,
20,
26,
26,
21,
21,
24,
24,
21,
21,
19,
19,
24,
10,
20,
20,
21,
21,
16,
16,
21,
10,
12,
12,
21,
8,
9,
9,
18,
18,
11,
11,
12,
12,
7,
7,
14,
14,
6,
6,
11,
11,
8,
8,
7,
7,
6,
6,
6,
6,
3,
3,
8,
8,
0,
0,
8,
-3,
0,
0,
6,
6,
-4,
-4,
6,
6,
-7,
-7,
6,
-6,
-9,
-9,
1,
1,
-7,
-7,
-4,
-4,
-10,
-10,
-4,
-4,
-10,
-10,
-7,
-7,
-10,
-10,
-10,
-10,
-10,
-10,
-12,
-12,
-15,
-15,
-9,
-9,
-15,
-15,
-10,
-10,
-17,
-17,
-13,
-13,
-20,
-20,
-14,
-14,
-25,
-25,
-13,
-13,
-21,
-21,
-20,
-20,
-21,
-21,
-23,
-23,
-24,
-24,
-25,
-25,
-23,
-23,
-27,
-27,
-21,
-21,
-31,
-20,
-24,
-24,
-29,
-29,
-27,
-27,
-28,
-28,
-30,
-30,
-28,
-28,
-29,
-29,
-32,
-32,
-32,
-32,
-31,
-31,
-34,
-34,
-34,
-34,
-31,
-31,
-39,
-39,
-32,
-32,
-42,
-29,
-33,
-33,
-42,
-42,
-32,
-43,
-43,
-43,
-32,
-45,
-45,
-45,
-36,
-36,
-44,
-44,
-39,
-39,
-42,
-42,
-41,
-41,
-42,
-42,
-40,
-40,
-46,
-46,
-44,
-44,
-45,
-45,
-44,
-44,
-46,
-46,
-42,
-42,
-51,
-51,
-40,
-53,
-53,
-53,
-44,
-44,
-51,
-51,
-42,
-53,
-53,
-53,
-44,
-44,
-52,
-52,
-46,
-46,
-51,
-51,
-51,
-51,
-47,
-47,
-51,
-51,
-49,
-49,
-52,
-52,
-51,
-51,
-54,
-54,
-50,
-50,
-55,
-55,
-52,
-52,
-50,
-50,
-57,
-57,
-52,
-52,
-58,
-58,
-54,
-54,
-56,
-56,
-55,
-55,
-56,
-56,
-54,
-54,
-56,
-56,
-58,
-58,
-53,
-64,
-62,
-62,
-51,
-65,
-61,
-61,
-55,
-55,
-61,
-61,
-55,
-55,
-63,
-63,
-55,
-55,
-63,
-63,
-58,
-58,
-59,
-59,
-61,
-61,
-61,
-61,
-60,
-60,
-60,
-60,
-59,
-59,
-62,
-62,
-57,
-57,
-62,
-62,
-59,
-59,
-66,
-66,
-55,
-55,
-68,
-68,
-53,
-64,
-67,
-67,
-55,
-55,
-66,
-66,
-59,
-59,
-68,
-68,
-57,
-57,
-64,
-64,
-61,
-61,
-61,
-61,
-62,
-62,
-61,
-61,
-62,
-62,
-62,
-62,
-59,
-59,
-62,
-62,
-60,
-60,
-62,
-62,
-59,
-59,
-65,
-65,
-56,
-56,
-66,
-66,
-55,
-55,
-63,
-63,
-59,
-59,
-61,
-61,
-59,
-59,
-62,
-62,
-58,
-58,
-56,
-56,
-62,
-62,
-57,
-57,
-61,
-61,
-53,
-53,
-60,
-60,
-57,
-57,
-59,
-59,
-54,
-54,
-57,
-57,
-55,
-55,
-57,
-57,
-56,
-56,
-54,
-54,
-58,
-58,
-53,
-53,
-52,
-52,
-58,
-45,
-52,
-52,
-56,
-56,
-50,
-50,
-56,
-56,
-46,
-46,
-56,
-56,
-43,
-56,
-56,
-56,
-45,
-45,
-55,
-42,
-45,
-45,
-52,
-52,
-54,
-54,
-42,
-42,
-58,
-58,
-38,
-49,
-57,
-57,
-36,
-50,
-52,
-52,
-40,
-40,
-46,
-46,
-42,
-42,
-42,
-42,
-43,
-43,
-38,
-38,
-43,
-43,
-34,
-45,
-45,
-45,
-31,
-45,
-45,
-45,
-34,
-34,
-41,
-41,
-36,
-36,
-34,
-45,
-35,
-35,
-33,
-33,
-33,
-33,
-35,
-35,
-35,
-35,
-29,
-29,
-33,
-33,
-31,
-31,
-31,
-31,
-31,
-31,
-28,
-28,
-29,
-29,
-28,
-28,
-27,
-27,
-22,
-22,
-26,
-26,
-22,
-22,
-24,
-24,
-22,
-22,
-20,
-31,
-25,
-25,
-16,
-31,
-24,
-24,
-17,
-17,
-24,
-24,
-15,
-15,
-26,
-26,
-12,
-12,
-22,
-22,
-12,
-12,
-17,
-17,
-14,
-14,
-16,
-16,
-11,
-11,
-16,
-16,
-8,
-8,
-9,
-9,
-8,
-8,
-11,
-11,
-7,
-7,
-11,
-11,
-2,
-14,
-14,
-14,
-1,
-1,
-10,
-10,
-2,
-2,
-11,
-11,
0,
0,
-8,
-8,
2,
2,
-6,
-6,
0,
0,
-1,
-1,
0,
0,
-1,
-1,
3,
3,
3,
3,
5,
5,
4,
4,
6,
6,
6,
6,
7,
7,
3,
3,
13,
13,
4,
4,
14,
14,
7,
7,
11,
11,
8,
8,
11,
11,
9,
9,
12,
12,
14,
14,
8,
25,
17,
17,
16,
16,
21,
21,
14,
14,
20,
20,
20,
20,
25,
25,
17,
17,
23,
23,
22,
22,
22,
22,
25,
25,
23,
23,
24,
24,
28,
28,
22,
34,
28,
28,
23,
23,
28,
28,
25,
36,
34,
34,
24,
38,
38,
26,
26,
38,
38,
38,
29,
29,
37,
37,
33,
33,
41,
41,
33,
33,
40,
40,
36,
36,
38,
38,
40,
40,
38,
38,
38,
38,
44,
44,
35,
35,
42,
42,
39,
39,
45,
45,
38,
38,
48,
48,
39,
39,
51,
40,
40,
40,
48,
48,
45,
45,
49,
49,
47,
47,
50,
50,
48,
48,
50,
50,
50,
50,
46,
46,
52,
52,
47,
47,
50,
50,
51,
51,
49,
49,
52,
52,
49,
49,
52,
52,
51,
51,
57,
57,
52,
52,
57,
57,
53,
53,
54,
54,
57,
57,
54,
54,
60,
47,
54,
54,
57,
57,
52,
52,
60,
60,
50,
50,
62,
51,
53,
53,
58,
58,
54,
54,
58,
58,
54,
54,
58,
58,
55,
55,
60,
60,
58,
58,
58,
58,
58,
58,
61,
61,
56,
56,
64,
52,
53,
53,
65,
54,
55,
55,
61,
61,
52,
52,
64,
64,
52,
52,
62,
62,
55,
55,
59,
59,
57,
57,
56,
56,
55,
55,
59,
59,
57,
57,
58,
58,
59,
59,
58,
58,
58,
58,
59,
59,
54,
54,
63,
63,
55,
55,
60,
60,
56,
56,
59,
59,
53,
53,
59,
59,
54,
54,
56,
56,
56,
56,
52,
64,
59,
59,
51,
62,
57,
57,
51,
51,
58,
58,
53,
53,
58,
58,
52,
52,
58,
58,
53,
53,
53,
53,
56,
56,
55,
55,
52,
52,
54,
54,
50,
50,
53,
53,
50,
50,
51,
51,
49,
49,
55,
43,
43,
57,
54,
43,
43,
54,
54,
54,
44,
44,
53,
53,
46,
46,
55,
43,
43,
43,
44,
44,
52,
36,
39,
57,
57,
31,
45,
58,
51,
34,
49,
49,
45,
45,
45,
45,
45,
45,
45,
45,
40,
40,
48,
34,
34,
34,
47,
33,
33,
33,
44,
44,
34,
34,
41,
41,
36,
36,
40,
40,
35,
35,
34,
34,
38,
38,
32,
32,
37,
37,
31,
31,
34,
34,
31,
31,
32,
32,
27,
27,
32,
32,
29,
29,
28,
28,
30,
30,
26,
26,
30,
30,
24,
24,
24,
24,
28,
16,
23,
23,
26,
15,
21,
21,
25,
25,
16,
16,
24,
13,
11,
11,
25,
11,
13,
13,
19,
19,
12,
12,
17,
17,
10,
10,
16,
16,
11,
11,
15,
15,
12,
12,
11,
11,
9,
9,
12,
12,
4,
4,
12,
1,
2,
2,
10,
10,
1,
1,
7,
7,
-4,
-4,
9,
-2,
-7,
-7,
7,
7,
-3,
-3,
0,
0,
-4,
-4,
-1,
-1,
-4,
-4,
-3,
-3,
-6,
-6,
-5,
-5,
-4,
-4,
-10,
-10,
-9,
-9,
-8,
-8,
-11,
-11,
-7,
-7,
-14,
-14,
-9,
-9,
-14,
-14,
-13,
-13,
-20,
-20,
-10,
-10,
-18,
-18,
-15,
-15,
-17,
-17,
-19,
-19,
-17,
-17,
-23,
-12,
-19,
-19,
-23,
-23,
-18,
-18,
-27,
-16,
-18,
-18,
-27,
-27,
-21,
-21,
-27,
-27,
-26,
-26,
-25,
-25,
-26,
-26,
-29,
-29,
-27,
-27,
-29,
-29,
-31,
-31,
-30,
-30,
-30,
-30,
-34,
-34,
-28,
-28,
-38,
-26,
-28,
-41,
-41,
-29,
-30,
-41,
-41,
-41,
-29,
-41,
-41,
-41,
-30,
-41,
-41,
-41,
-34,
-34,
-39,
-39,
-39,
-39,
-36,
-36,
-37,
-37,
-41,
-41,
-39,
-39,
-42,
-42,
-41,
-41,
-43,
-43,
-41,
-41,
-46,
-46,
-38,
-50,
-50,
-50,
-40,
-40,
-49,
-49,
-42,
-42,
-50,
-50,
-44,
-44,
-49,
-49,
-43,
-43,
-50,
-50,
-49,
-49,
-45,
-56,
-52,
-52,
-46,
-46,
-51,
-51,
-49,
-49,
-53,
-53,
-50,
-50,
-55,
-55,
-50,
-50,
-52,
-52,
-54,
-54,
-50,
-50,
-55,
-55,
-53,
-53,
-55,
-55,
-54,
-54,
-53,
-53,
-55,
-55,
-54,
-54,
-55,
-55,
-53,
-53,
-62,
-62,
-49,
-64,
-63,
-63,
-52,
-52,
-62,
-62,
-54,
-54,
-62,
-62,
-55,
-55,
-64,
-64,
-55,
-55,
-61,
-61,
-59,
-59,
-60,
-60,
-60,
-60,
-59,
-59,
-59,
-59,
-63,
-63,
-55,
-55,
-61,
-61,
-59,
-59,
-63,
-63,
-57,
-57,
-67,
-67,
-53,
-53,
-69,
-69,
-53,
-53,
-65,
-65,
-59,
-59,
-66,
-66,
-58,
-58,
-65,
-65,
-60,
-60,
-62,
-62,
-61,
-61,
-59,
-59,
-63,
-63,
-61,
-61,
-60,
-60,
-62,
-62,
-59,
-59,
-61,
-61,
-61,
-61,
-63,
-63,
-59,
-59,
-65,
-65,
-55,
-55,
-65,
-65,
-59,
-59,
-61,
-61,
-62,
-62,
-61,
-61,
-60,
-60,
-59,
-59,
-62,
-62,
-57,
-57,
-63,
-63,
-53,
-64,
-64,
-53,
-56,
-56,
-60,
-60,
-55,
-55,
-60,
-60,
-54,
-54,
-59,
-59,
-56,
-56,
-57,
-57,
-59,
-59,
-54,
-54,
-54,
-54,
-57,
-57,
-54,
-54,
-58,
-58,
-51,
-51,
-58,
-58,
-49,
-49,
-59,
-59,
-47,
-47,
-57,
-57,
-43,
-58,
-58,
-58,
-48,
-48,
-54,
-54,
-47,
-47,
-49,
-49,
-48,
-48,
-47,
