5-grundlagen-opAmps/data/ALL0065/A0065CH1.CSV

Memory Length,4000,
Trigger Level,-1.00000e+01,
Source,CH1,
Probe,1.0X,
Vertical Units,V,
Vertical Scale,5.00000e-02,
Vertical Position,0.00000e+00,
Horizontal Units,S,
Horizontal Scale,1.00000e-05,
Horizontal Position,0.0000000e+00,
Horizontal Mode,Main,
Sampling Period,4.00000e-08,
Firmware,V1.14,
Time, ,
Mode,Fast,
Waveform Data,
5,
5,
5,
9,
9,
12,
12,
11,
11,
8,
8,
13,
13,
17,
17,
13,
13,
18,
18,
14,
14,
15,
15,
19,
19,
20,
20,
17,
17,
25,
25,
29,
29,
25,
25,
26,
26,
24,
24,
28,
28,
30,
30,
31,
31,
29,
29,
30,
30,
31,
31,
31,
31,
35,
35,
32,
32,
41,
30,
34,
34,
34,
34,
42,
42,
34,
34,
40,
40,
42,
42,
35,
35,
40,
40,
44,
44,
44,
44,
46,
46,
46,
46,
44,
44,
40,
40,
43,
43,
46,
46,
44,
44,
39,
50,
48,
48,
48,
48,
42,
42,
49,
49,
46,
46,
43,
43,
42,
42,
44,
44,
45,
45,
43,
43,
52,
40,
43,
43,
44,
44,
45,
45,
48,
48,
45,
45,
44,
44,
49,
49,
44,
44,
42,
42,
41,
41,
48,
37,
45,
45,
43,
43,
46,
46,
40,
40,
44,
44,
44,
33,
37,
37,
41,
41,
38,
38,
38,
38,
35,
35,
34,
34,
36,
36,
35,
35,
34,
34,
34,
34,
28,
28,
28,
28,
31,
31,
29,
29,
32,
32,
27,
27,
26,
26,
22,
22,
18,
30,
20,
20,
21,
21,
19,
19,
20,
20,
16,
16,
17,
17,
21,
10,
15,
15,
15,
15,
16,
16,
7,
7,
9,
9,
9,
9,
7,
7,
9,
9,
4,
4,
5,
5,
6,
6,
4,
4,
0,
0,
-2,
-2,
-3,
-3,
-3,
-3,
-5,
-5,
-9,
-9,
-5,
-5,
-2,
-13,
-11,
-11,
-9,
-9,
-11,
-11,
-12,
-12,
-10,
-10,
-10,
-10,
-18,
-18,
-19,
-19,
-24,
-24,
-22,
-22,
-20,
-20,
-23,
-23,
-18,
-18,
-27,
-27,
-23,
-23,
-25,
-25,
-33,
-33,
-29,
-29,
-28,
-28,
-37,
-25,
-32,
-32,
-31,
-31,
-32,
-32,
-30,
-30,
-34,
-34,
-37,
-37,
-43,
-43,
-41,
-41,
-36,
-36,
-44,
-44,
-46,
-46,
-38,
-38,
-40,
-40,
-46,
-46,
-40,
-40,
-44,
-44,
-46,
-46,
-50,
-50,
-50,
-50,
-47,
-47,
-52,
-52,
-43,
-54,
-51,
-51,
-51,
-51,
-48,
-48,
-50,
-50,
-53,
-53,
-52,
-52,
-50,
-50,
-53,
-53,
-54,
-54,
-58,
-58,
-52,
-52,
-51,
-51,
-52,
-52,
-51,
-51,
-53,
-53,
-51,
-51,
-51,
-51,
-56,
-56,
-51,
-51,
-53,
-53,
-50,
-50,
-51,
-51,
-53,
-53,
-52,
-52,
-52,
-52,
-50,
-50,
-49,
-49,
-50,
-50,
-49,
-49,
-49,
-49,
-50,
-50,
-47,
-47,
-49,
-49,
-48,
-48,
-51,
-51,
-55,
-41,
-51,
-51,
-46,
-46,
-47,
-47,
-48,
-48,
-46,
-46,
-44,
-44,
-42,
-42,
-45,
-45,
-43,
-43,
-37,
-37,
-44,
-44,
-43,
-43,
-36,
-36,
-40,
-40,
-35,
-35,
-38,
-38,
-36,
-36,
-38,
-38,
-28,
-28,
-31,
-31,
-30,
-30,
-29,
-29,
-27,
-27,
-29,
-29,
-31,
-31,
-28,
-28,
-20,
-20,
-23,
-23,
-17,
-17,
-20,
-20,
-22,
-22,
-16,
-16,
-12,
-12,
-19,
-19,
-13,
-13,
-19,
-7,
-18,
-18,
-12,
-12,
-8,
-8,
-9,
-9,
-10,
-10,
-2,
-2,
-5,
-5,
-4,
-4,
-3,
-3,
3,
3,
-4,
-4,
-1,
-1,
5,
5,
8,
8,
9,
9,
8,
8,
9,
9,
4,
4,
8,
8,
13,
13,
8,
8,
14,
14,
17,
17,
17,
17,
16,
16,
16,
16,
19,
19,
23,
23,
22,
22,
22,
22,
25,
25,
19,
19,
27,
27,
23,
23,
29,
29,
31,
31,
25,
25,
31,
31,
32,
32,
30,
30,
33,
33,
31,
31,
30,
30,
32,
32,
36,
36,
41,
41,
38,
38,
42,
42,
39,
39,
37,
37,
37,
37,
45,
45,
43,
43,
44,
44,
46,
46,
43,
43,
44,
44,
43,
43,
47,
47,
44,
44,
45,
45,
51,
51,
44,
44,
46,
46,
50,
50,
47,
47,
46,
46,
44,
44,
43,
43,
42,
42,
48,
48,
48,
48,
44,
44,
41,
41,
45,
45,
41,
41,
43,
43,
44,
44,
49,
49,
44,
44,
42,
42,
47,
47,
38,
38,
41,
41,
44,
44,
41,
41,
37,
37,
45,
33,
41,
41,
41,
41,
43,
43,
41,
41,
37,
37,
37,
37,
33,
33,
36,
36,
33,
33,
37,
37,
37,
37,
29,
29,
33,
33,
36,
36,
29,
29,
29,
29,
26,
26,
23,
23,
23,
23,
30,
19,
19,
19,
24,
24,
26,
15,
19,
19,
23,
23,
17,
17,
20,
20,
16,
16,
15,
15,
12,
12,
15,
15,
10,
10,
11,
11,
10,
10,
9,
9,
11,
11,
5,
5,
2,
2,
6,
6,
-2,
-2,
1,
1,
0,
0,
-8,
3,
-3,
-3,
-2,
-2,
-3,
-3,
-2,
-2,
-6,
-6,
-11,
-11,
-14,
-14,
-13,
-13,
-8,
-19,
-15,
-15,
-21,
-21,
-14,
-14,
-18,
-18,
-23,
-23,
-15,
-15,
-19,
-19,
-24,
-24,
-30,
-19,
-29,
-29,
-25,
-25,
-29,
-29,
-23,
-23,
-28,
-28,
-34,
-23,
-29,
-29,
-29,
-29,
-37,
-37,
-35,
-35,
-33,
-33,
-35,
-35,
-36,
-36,
-39,
-39,
-38,
-38,
-40,
-40,
-41,
-41,
-39,
-39,
-47,
-47,
-41,
-41,
-41,
-41,
-44,
-44,
-45,
-45,
-44,
-44,
-42,
-42,
-47,
-47,
-45,
-45,
-45,
-45,
-48,
-48,
-50,
-50,
-51,
-51,
-54,
-54,
-50,
-50,
-50,
-50,
-49,
-49,
-51,
-51,
-50,
-50,
-53,
-53,
-57,
-57,
-57,
-57,
-52,
-52,
-54,
-54,
-55,
-55,
-54,
-54,
-54,
-54,
-50,
-50,
-51,
-51,
-54,
-54,
-53,
-53,
-52,
-52,
-55,
-55,
-58,
-47,
-53,
-53,
-50,
-50,
-48,
-48,
-51,
-51,
-52,
-52,
-55,
-55,
-48,
-48,
-49,
-49,
-47,
-47,
-48,
-48,
-48,
-48,
-46,
-46,
-53,
-42,
-46,
-46,
-45,
-45,
-46,
-46,
-42,
-42,
-46,
-46,
-46,
-46,
-43,
-43,
-41,
-41,
-48,
-35,
-40,
-40,
-43,
-43,
-43,
-43,
-40,
-40,
-35,
-35,
-35,
-35,
-35,
-35,
-34,
-34,
-30,
-30,
-37,
-37,
-34,
-34,
-30,
-30,
-36,
-36,
-33,
-33,
-23,
-23,
-24,
-24,
-20,
-20,
-20,
-20,
-19,
-19,
-26,
-15,
-23,
-23,
-18,
-18,
-22,
-22,
-16,
-16,
-14,
-14,
-16,
-16,
-17,
-17,
-11,
-11,
-9,
-9,
-8,
-8,
-10,
-10,
-12,
-1,
-7,
-7,
-8,
-8,
-4,
-4,
-6,
-6,
-3,
-3,
6,
6,
-2,
-2,
1,
1,
4,
4,
6,
6,
8,
8,
7,
7,
6,
6,
8,
8,
9,
9,
12,
12,
15,
15,
14,
14,
15,
15,
14,
14,
17,
17,
24,
24,
22,
22,
26,
15,
28,
28,
20,
20,
27,
27,
27,
27,
31,
31,
29,
29,
28,
28,
32,
32,
29,
29,
30,
30,
36,
36,
33,
33,
30,
30,
35,
35,
33,
33,
33,
33,
37,
37,
36,
36,
36,
36,
35,
35,
42,
42,
40,
40,
35,
35,
43,
43,
43,
43,
41,
41,
38,
49,
45,
45,
42,
42,
45,
45,
46,
46,
43,
43,
39,
51,
45,
45,
48,
48,
46,
46,
51,
51,
49,
49,
47,
47,
45,
45,
45,
45,
46,
46,
46,
46,
48,
48,
47,
47,
42,
42,
48,
48,
50,
50,
42,
42,
44,
44,
44,
44,
38,
38,
44,
44,
45,
45,
44,
44,
46,
46,
43,
43,
44,
44,
37,
37,
34,
45,
42,
42,
39,
39,
37,
37,
40,
40,
37,
37,
38,
38,
37,
37,
37,
37,
31,
31,
40,
40,
30,
30,
30,
30,
32,
32,
26,
26,
29,
29,
24,
24,
25,
25,
27,
27,
30,
18,
24,
24,
22,
22,
20,
20,
18,
18,
18,
18,
13,
25,
19,
19,
21,
21,
8,
8,
18,
18,
16,
16,
11,
11,
16,
16,
12,
12,
6,
6,
3,
3,
0,
0,
3,
3,
3,
3,
7,
7,
2,
2,
-4,
-4,
1,
1,
1,
1,
-6,
-6,
-4,
-4,
-1,
-1,
-12,
-12,
-7,
-7,
-10,
-10,
-7,
-18,
-9,
-9,
-13,
-13,
-13,
-13,
-20,
-20,
-16,
-16,
-11,
-25,
-23,
-23,
-24,
-24,
-23,
-23,
-22,
-22,
-26,
-26,
-25,
-25,
-26,
-26,
-28,
-28,
-33,
-33,
-31,
-31,
-30,
-30,
-36,
-36,
-29,
-29,
-34,
-34,
-34,
-34,
-36,
-36,
-38,
-38,
-41,
-41,
-41,
-41,
-41,
-41,
-42,
-42,
-45,
-34,
-45,
-45,
-45,
-45,
-43,
-43,
-41,
-41,
-42,
-42,
-45,
-45,
-45,
-45,
-48,
-48,
-50,
-50,
-47,
-47,
-47,
-47,
-46,
-46,
-51,
-51,
-47,
-58,
-48,
-48,
-50,
-50,
-51,
-51,
-52,
-52,
-56,
-56,
-50,
-50,
-51,
-51,
-55,
-55,
-51,
-51,
-51,
-51,
-50,
-50,
-55,
-55,
-60,
-48,
-54,
-54,
-54,
-54,
-52,
-52,
-53,
-53,
-53,
-53,
-55,
-55,
-55,
-55,
-52,
-52,
-54,
-54,
-46,
-57,
-55,
-55,
-53,
-53,
-49,
-49,
-54,
-54,
-49,
-49,
-51,
-51,
-53,
-53,
-52,
-52,
-43,
-55,
-47,
-47,
-45,
-45,
-46,
-46,
-49,
-49,
-49,
-49,
-51,
-39,
-44,
-44,
-43,
-43,
-48,
-48,
-36,
-36,
-39,
-39,
-41,
-41,
-35,
-35,
-37,
-37,
-41,
-41,
-39,
-39,
-40,
-40,
-35,
-35,
-37,
-37,
-28,
-28,
-34,
-34,
-35,
-35,
-27,
-27,
-27,
-27,
-27,
-27,
-25,
-25,
-19,
-19,
-28,
-28,
-24,
-24,
-23,
-23,
-16,
-16,
-14,
-14,
-17,
-17,
-14,
-14,
-20,
-20,
-15,
-15,
-8,
-21,
-16,
-16,
-8,
-8,
-7,
-7,
-7,
-7,
-7,
-7,
-6,
-6,
-5,
-5,
-4,
-4,
-2,
-2,
0,
0,
0,
0,
1,
1,
4,
4,
4,
4,
7,
7,
7,
7,
8,
8,
5,
16,
5,
5,
8,
8,
10,
10,
9,
9,
12,
12,
13,
13,
19,
19,
22,
22,
21,
21,
21,
21,
23,
23,
18,
18,
20,
31,
27,
27,
27,
27,
30,
30,
29,
29,
32,
32,
30,
30,
33,
33,
34,
34,
31,
31,
32,
32,
39,
39,
35,
35,
33,
33,
36,
36,
43,
31,
39,
39,
39,
39,
35,
35,
38,
38,
39,
39,
45,
45,
40,
40,
42,
42,
39,
39,
37,
48,
41,
41,
40,
40,
47,
47,
43,
43,
44,
44,
46,
46,
42,
42,
47,
47,
48,
48,
41,
41,
41,
41,
52,
38,
47,
47,
48,
48,
50,
50,
45,
45,
44,
44,
42,
42,
45,
45,
44,
44,
40,
40,
49,
49,
45,
45,
43,
43,
46,
46,
47,
47,
41,
41,
41,
41,
37,
37,
41,
41,
37,
37,
45,
45,
39,
39,
40,
40,
42,
31,
37,
37,
37,
37,
39,
39,
42,
30,
35,
35,
33,
33,
32,
32,
33,
33,
35,
35,
32,
32,
35,
35,
29,
29,
33,
33,
33,
33,
24,
24,
30,
30,
24,
24,
25,
25,
23,
23,
21,
21,
23,
23,
19,
19,
20,
20,
18,
18,
16,
16,
15,
15,
15,
15,
15,
15,
16,
16,
11,
11,
5,
5,
4,
4,
2,
13,
1,
1,
6,
6,
1,
1,
0,
0,
-5,
-5,
1,
1,
-1,
-1,
-5,
-5,
-1,
-1,
-2,
-2,
-10,
-10,
-11,
-11,
-6,
-6,
-11,
-11,
-10,
-10,
-11,
-11,
-13,
-13,
-15,
-15,
-14,
-14,
-16,
-16,
-20,
-20,
-21,
-21,
-17,
-17,
-22,
-22,
-24,
-24,
-24,
-24,
-20,
-32,
-29,
-29,
-28,
-28,
-28,
-28,
-33,
-33,
-30,
-30,
-27,
-27,
-36,
-36,
-37,
-37,
-39,
-39,
-43,
-43,
-40,
-40,
-38,
-38,
-38,
-38,
-40,
-40,
-40,
-40,
-41,
-41,
-44,
-44,
-45,
-45,
-39,
-39,
-48,
-48,
-47,
-47,
-42,
-42,
-43,
-43,
-44,
-44,
-44,
-44,
-47,
-47,
-51,
-51,
-49,
-49,
-50,
-50,
-53,
-53,
-53,
-53,
-49,
-49,
-49,
-49,
-55,
-55,
-52,
-52,
-51,
-51,
-51,
-51,
-55,
-55,
-54,
-54,
-53,
-53,
-59,
-59,
-51,
-51,
-58,
-58,
-52,
-52,
-51,
-51,
-56,
-56,
-51,
-51,
-52,
-52,
-52,
-52,
-51,
-51,
-55,
-55,
-56,
-56,
-54,
-54,
-54,
-54,
-48,
-48,
-47,
-47,
-49,
-49,
-47,
-47,
-51,
-51,
-51,
-51,
-44,
-44,
-50,
-50,
-47,
-47,
-45,
-45,
-50,
-50,
-44,
-44,
-46,
-46,
-41,
-41,
-40,
-40,
-44,
-44,
-40,
-40,
-46,
-46,
-42,
-42,
-34,
-45,
-41,
-41,
-38,
-38,
-39,
-39,
-41,
-41,
-38,
-38,
-31,
-31,
-34,
-34,
-32,
-32,
-36,
-36,
-31,
-31,
-31,
-31,
-31,
-31,
-27,
-27,
-22,
-22,
-30,
-30,
-25,
-25,
-20,
-20,
-27,
-16,
-22,
-22,
-21,
-21,
-22,
-22,
-20,
-20,
-13,
-13,
-14,
-14,
-11,
-11,
-10,
-10,
-11,
-11,
-13,
-13,
-12,
-12,
-10,
-10,
-7,
-7,
-8,
-8,
3,
-9,
3,
3,
-2,
-2,
2,
2,
4,
4,
4,
4,
4,
4,
3,
3,
2,
2,
7,
7,
13,
2,
5,
5,
10,
10,
16,
16,
14,
14,
15,
15,
11,
11,
19,
19,
14,
14,
18,
18,
18,
18,
25,
25,
24,
24,
23,
23,
22,
22,
22,
22,
29,
29,
28,
28,
23,
35,
30,
30,
29,
29,
34,
34,
31,
31,
29,
29,
29,
29,
38,
38,
36,
36,
39,
39,
40,
40,
37,
37,
37,
37,
34,
34,
41,
41,
41,
41,
38,
38,
44,
44,
41,
41,
38,
38,
46,
46,
46,
46,
38,
38,
40,
40,
40,
40,
46,
46,
44,
44,
48,
48,
46,
46,
43,
43,
47,
47,
49,
49,
43,
43,
46,
46,
51,
51,
47,
47,
45,
45,
46,
46,
47,
47,
48,
48,
45,
45,
50,
39,
42,
42,
46,
46,
47,
47,
42,
42,
46,
46,
43,
43,
43,
43,
41,
41,
43,
43,
44,
44,
42,
42,
39,
39,
37,
37,
36,
36,
37,
37,
38,
38,
38,
38,
36,
36,
37,
37,
32,
32,
31,
31,
31,
31,
31,
31,
31,
31,
28,
28,
31,
31,
24,
24,
29,
29,
30,
19,
25,
25,
28,
28,
23,
23,
20,
20,
18,
18,
22,
22,
22,
22,
22,
22,
19,
19,
16,
16,
15,
15,
16,
16,
17,
17,
10,
10,
9,
9,
11,
11,
10,
10,
5,
5,
8,
8,
8,
8,
1,
1,
3,
3,
-1,
-1,
-3,
-3,
-3,
-3,
-1,
-1,
-8,
-8,
-7,
-7,
-6,
-6,
-12,
-12,
-12,
-12,
-9,
-9,
-9,
-9,
-11,
-11,
-16,
-16,
-14,
-14,
-20,
-20,
-19,
-19,
-17,
-17,
-23,
-23,
-23,
-23,
-19,
-19,
-24,
-24,
-23,
-23,
-19,
-30,
-25,
-25,
-29,
-29,
-28,
-28,
-31,
-31,
-32,
-32,
-36,
-36,
-31,
-31,
-33,
-33,
-40,
-29,
-32,
-32,
-33,
-33,
-39,
-39,
-43,
-43,
-45,
-45,
-45,
-45,
-45,
-45,
-40,
-40,
-45,
-45,
-44,
-44,
-39,
-39,
-45,
-45,
-46,
-46,
-47,
-47,
-43,
-54,
-46,
-46,
-47,
-47,
-50,
-50,
-49,
-49,
-52,
-52,
-49,
-49,
-46,
-46,
-53,
-53,
-47,
-47,
-53,
-53,
-53,
-53,
-48,
-48,
-54,
-54,
-50,
-50,
-51,
-51,
-57,
-57,
-51,
-51,
-52,
-52,
-52,
-52,
-49,
-49,
-54,
-54,
-56,
-56,
-56,
-56,
-56,
-56,
-48,
-48,
-55,
-55,
-58,
-58,
-51,
-51,
-52,
-52,
-52,
-52,
-48,
-48,
-55,
-55,
-52,
-52,
-54,
-54,
-50,
-50,
-47,
-47,
-51,
-51,
-43,
-43,
-48,
-48,
-52,
-52,
-49,
-49,
-43,
-43,
-47,
-47,
-44,
-44,
-43,
-43,
-47,
-47,
-46,
-46,
-44,
-44,
-36,
-36,
-38,
-38,
-38,
-38,
-35,
-35,
-40,
-40,
-38,
-38,
-34,
-34,
-36,
-36,
-33,
-33,
-30,
-30,
-32,
-32,
-33,
-33,
-30,
-30,
-28,
-28,
-28,
-28,
-26,
-26,
-25,
-25,
-27,
-27,
-24,
-24,
-19,
-19,
-20,
-20,
-20,
-20,
-18,
-18,
-14,
-14,
-20,
-9,
-22,
-9,
-15,
-15,
-15,
-15,
-14,
-14,
-8,
-8,
-8,
-8,
-6,
-6,
-3,
-3,
-5,
-5,
-7,
-7,
-1,
-1,
-5,
-5,
-1,
-1,
1,
1,
4,
4,
7,
7,
2,
2,
7,
7,
7,
7,
13,
13,
9,
9,
9,
9,
9,
9,
13,
13,
14,
14,
8,
19,
16,
16,
24,
11,
18,
18,
24,
24,
20,
20,
23,
23,
25,
25,
28,
28,
21,
21,
27,
27,
24,
24,
26,
26,
30,
30,
30,
30,
34,
34,
30,
30,
32,
32,
36,
36,
32,
32,
37,
37,
42,
31,
31,
42,
34,
34,
42,
42,
43,
43,
46,
35,
43,
43,
40,
40,
38,
38,
39,
39,
47,
35,
39,
39,
40,
40,
46,
46,
46,
46,
41,
41,
47,
47,
45,
45,
43,
43,
42,
42,
42,
42,
47,
47,
42,
42,
52,
41,
46,
46,
43,
43,
47,
47,
45,
45,
43,
43,
45,
45,
47,
47,
45,
45,
43,
43,
41,
41,
44,
44,
48,
48,
46,
46,
48,
48,
43,
43,
43,
43,
45,
45,
39,
39,
45,
45,
43,
43,
42,
42,
41,
41,
42,
42,
42,
42,
39,
39,
39,
39,
36,
36,
33,
33,
37,
37,
35,
35,
36,
36,
35,
35,
37,
37,
32,
32,
24,
35,
21,
34,
25,
25,
26,
26,
27,
27,
26,
26,
21,
21,
23,
23,
22,
22,
18,
18,
18,
18,
23,
12,
14,
14,
13,
13,
14,
14,
14,
14,
16,
16,
12,
12,
11,
11,
9,
9,
13,
2,
7,
7,
4,
4,
7,
7,
5,
5,
4,
4,
-4,
-4,
-2,
-2,
3,
3,
-7,
-7,
0,
0,
-5,
-5,
-8,
-8,
-5,
-5,
-2,
-13,
-14,
-14,
-11,
-11,
-16,
-16,
-18,
-18,
-18,
-18,
-15,
-15,
-16,
-16,
-18,
-18,
-19,
-19,
-20,
-20,
-25,
-25,
-21,
-21,
-19,
-30,
-30,
-30,
-29,
-29,
-26,
-26,
-28,
-28,
-26,
-26,
-27,
-27,
-30,
-30,
-36,
-36,
-33,
-33,
-31,
-43,
-39,
-39,
-39,
-39,
-38,
-38,
-41,
-41,
-44,
-33,
-39,
-39,
-39,
-39,
-44,
-44,
-45,
-45,
-45,
-45,
-44,
-44,
-49,
-49,
-42,
-42,
-47,
-47,
-46,
-46,
-47,
-47,
-50,
-50,
-51,
-51,
-50,
-50,
-50,
-50,
-48,
-48,
-54,
-54,
-53,
-53,
-54,
-54,
-52,
-52,
-49,
-49,
-49,
-49,
-52,
-52,
-51,
-51,
-54,
-54,
-54,
-54,
-47,
-58,
-53,
-53,
-51,
-51,
-53,
-53,
-53,
-53,
-50,
-50,
-53,
-53,
-51,
-51,
-55,
-55,
-56,
-56,
-49,
-49,
-54,
-54,
-51,
-51,
-50,
-50,
-48,
-48,
-52,
-52,
-54,
-54,
-55,
-55,
-52,
-52,
-50,
-50,
-49,
-49,
-48,
-48,
-50,
-50,
-46,
-46,
-48,
-48,
-48,
-48,
-46,
-46,
-44,
-44,
-48,
-48,
-48,
-48,
-41,
-41,
-41,
-41,
-41,
-41,
-39,
-39,
-43,
-43,
-43,
-43,
-32,
-43,
-32,
-32,
-35,
-35,
-32,
-32,
-34,
-34,
-35,
-35,
-36,
-36,
-33,
-33,
-27,
-27,
-32,
-32,
-22,
-22,
-23,
-23,
-29,
-29,
-24,
-24,
-21,
-21,
-26,
-26,
-20,
-20,
-23,
-23,
-23,
-23,
-20,
-20,
-13,
-13,
-18,
-18,
-14,
-14,
-12,
-12,
-10,
-10,
-9,
-9,
-10,
-10,
-1,
-1,
-11,
-11,
-9,
-9,
-3,
-3,
2,
2,
3,
3,
4,
4,
6,
6,
0,
0,
6,
6,
7,
7,
2,
2,
9,
9,
9,
9,
10,
10,
7,
7,
11,
11,
14,
14,
16,
16,
14,
14,
18,
18,
18,
18,
14,
14,
20,
20,
19,
19,
25,
25,
23,
23,
21,
21,
24,
24,
26,
26,
25,
25,
33,
33,
27,
27,
27,
27,
26,
26,
30,
30,
36,
36,
37,
37,
37,
37,
37,
37,
30,
30,
37,
37,
43,
43,
38,
38,
43,
43,
42,
42,
40,
40,
44,
44,
41,
41,
46,
46,
44,
44,
40,
40,
47,
47,
40,
40,
43,
43,
48,
48,
46,
46,
44,
44,
46,
46,
44,
44,
46,
46,
47,
47,
46,
46,
46,
46,
44,
44,
45,
45,
43,
43,
44,
44,
48,
48,
48,
48,
44,
44,
44,
44,
46,
46,
41,
41,
43,
43,
45,
45,
39,
39,
39,
39,
46,
46,
45,
45,
45,
45,
46,
46,
41,
41,
40,
40,
39,
39,
40,
40,
38,
38,
34,
34,
44,
32,
41,
41,
35,
35,
39,
39,
37,
37,
34,
34,
32,
32,
30,
30,
29,
29,
28,
28,
36,
22,
26,
26,
29,
29,
31,
31,
28,
28,
25,
25,
20,
20,
25,
25,
20,
20,
23,
23,
16,
16,
21,
21,
17,
17,
16,
16,
17,
17,
11,
11,
18,
18,
13,
13,
9,
9,
10,
10,
6,
6,
9,
9,
4,
4,
3,
3,
5,
5,
5,
5,
0,
0,
1,
1,
0,
0,
-1,
-1,
-7,
-7,
-6,
-6,
-2,
-13,
-8,
-8,
-12,
-12,
-11,
-11,
-15,
-15,
-15,
-15,
-9,
-9,
-13,
-13,
-17,
-17,
-24,
-24,
-23,
-23,
-19,
-19,
-23,
-23,
-20,
-20,
-19,
-19,
-29,
-29,
-25,
-25,
-27,
-27,
-30,
-30,
-24,
-36,
-28,
-28,
-31,
-31,
-34,
-34,
-32,
-32,
-36,
-36,
-35,
-35,
-34,
-34,
-33,
-33,
-39,
-39,
-41,
-41,
-38,
-38,
-41,
-41,
-42,
-42,
-38,
-38,
-39,
-39,
-43,
-43,
-42,
-42,
-40,
-40,
-49,
-49,
-45,
-45,
-49,
-49,
-51,
-51,
-49,
-49,
-45,
-45,
-47,
-47,
-49,
-49,
-50,
-50,
-50,
-50,
-55,
-55,
-55,
-55,
-51,
-51,
-56,
-56,
-56,
-56,
-52,
-52,
-51,
-51,
-47,
-60,
-51,
-51,
-53,
-53,
-54,
-54,
-51,
-51,
-53,
-53,
-60,
-46,
-51,
-51,
-52,
-52,
-52,
-52,
-55,
-55,
-53,
-53,
-56,
-56,
-50,
-50,
-52,
-52,
-52,
-52,
-49,
-49,
-51,
-51,
-49,
-49,
-55,
-55,
-51,
-51,
-46,
-46,
-52,
-52,
-47,
-47,
-50,
-50,
-52,
-52,
-45,
-45,
-44,
-44,
-50,
-50,
-48,
-48,
-46,
-46,
-47,
-47,
-42,
-42,
-42,
-42,
-41,
-41,
-43,
-43,
-40,
-40,
-32,
-44,
-38,
-38,
-36,
-36,
-30,
-30,
-38,
-38,
-35,
-35,
-29,
-29,
-27,
-27,
-29,
-29,
-30,
-30,
-25,
-25,
-34,
-34,
-25,
-25,
-25,
-25,
-23,
-23,
-24,
-24,
-21,
-21,
-19,
-19,
-24,
-24,
-19,
-19,
-16,
-16,
-16,
-16,
-17,
-17,
-15,
-15,
-14,
-14,
-17,
-17,
-10,
-10,
-13,
-13,
-9,
-9,
-6,
-6,
-8,
-8,
-2,
-2,
-1,
-1,
2,
2,
1,
1,
-3,
-3,
2,
2,
3,
3,
5,
5,
13,
1,
10,
10,
11,
11,
9,
9,
9,
9,
10,
10,
16,
16,
18,
18,
21,
10,
18,
18,
16,
16,
21,
21,
17,
17,
25,
25,
24,
24,
19,
19,
26,
26,
24,
24,
24,
24,
34,
21,
30,
30,
29,
29,
29,
29,
28,
28,
31,
31,
33,
33,
31,
31,
33,
33,
32,
32,
38,
38,
39,
39,
38,
38,
41,
41,
43,
32,
36,
36,
36,
36,
45,
45,
37,
37,
40,
40,
41,
41,
41,
41,
41,
41,
47,
47,
46,
46,
47,
47,
46,
46,
46,
46,
44,
44,
43,
43,
46,
46,
46,
46,
44,
44,
49,
49,
48,
48,
43,
43,
52,
40,
48,
48,
44,
44,
42,
42,
40,
40,
41,
41,
44,
44,
49,
49,
45,
45,
40,
40,
49,
49,
47,
47,
42,
42,
40,
40,
46,
46,
39,
39,
43,
43,
41,
41,
45,
34,
42,
42,
40,
40,
41,
41,
35,
35,
40,
40,
37,
37,
33,
33,
33,
33,
36,
36,
36,
36,
32,
32,
31,
31,
31,
31,
33,
33,
29,
29,
30,
30,
28,
28,
22,
22,
27,
27,
20,
20,
26,
26,
24,
24,
16,
16,
21,
21,
18,
18,
16,
16,
18,
18,
16,
16,
10,
10,
10,
10,
7,
7,
13,
13,
8,
8,
12,
12,
9,
9,
4,
4,
5,
5,
4,
4,
1,
1,
5,
5,
4,
4,
-4,
-4,
0,
0,
-5,
-5,
-4,
-4,
-3,
-3,
-7,
-7,
-3,
-3,
-12,
-12,
-13,
-13,
-6,
-6,
-14,
-14,
-13,
-13,
-16,
-16,
-21,
-21,
-19,
-19,
-16,
-16,
-18,
-18,
-23,
-23,
-27,
-27,
-28,
-28,
-27,
-27,
-29,
-29,
-27,
-27,
-22,
-36,
-30,
-30,
-31,
-31,
-30,
-30,
-41,
-28,
-37,
-37,
-37,
-37,
-39,
-39,
-42,
-42,
-37,
-37,
-42,
-42,
-37,
-37,
-38,
-38,
-41,
-41,
-44,
-44,
-43,
-43,
-45,
-45,
-46,
-46,
-46,
-46,
-42,
-42,
-43,
-43,
-48,
-48,
-43,
-43,
-45,
-45,
-48,
-48,
-49,
-49,
-54,
-54,
-54,
-54,
-51,
-51,
-47,
-47,
-53,
-53,
-53,
-53,
-47,
-47,
-53,
-53,
-53,
-53,
-56,
-56,
-52,
-52,
-56,
-56,
-53,
-53,
-56,
-56,
-51,
-51,
-52,
-52,
-56,
-56,
-55,
-55,
-56,
-56,
-51,
-51,
-53,
-53,
-57,
-57,
-51,
-51,
-51,
-51,
-50,
-50,
-50,
-50,
-57,
-57,
-53,
-53,
-46,
-46,
-47,
-47,
-46,
-46,
-46,
-46,
-50,
-50,
-49,
-49,
-51,
-51,
-45,
-45,
-47,
-47,
-51,
-51,
-44,
-44,
-48,
-48,
-49,
-49,
-43,
-43,
-43,
-43,
-45,
-45,
-44,
-44,
-43,
-43,
-40,
-40,
-44,
-44,
-36,
-36,
-37,
-37,
-38,
-38,
-36,
-36,
-32,
-32,
-33,
-33,
-29,
-29,
-28,
-28,
-30,
-30,
-32,
-32,
-28,
-28,
-26,
-26,
-25,
-25,
-22,
-22,
-16,
-28,
-24,
-24,
-22,
-22,
-18,
-18,
-17,
-17,
-14,
-14,
-14,
-14,
-14,
-14,
-15,
-15,
-11,
-11,
-5,
-18,
-13,
-13,
-8,
-8,
-9,
-9,
-10,
-10,
-4,
-4,
-5,
-5,
0,
0,
0,
0,
0,
0,
3,
3,
-3,
-3,
0,
0,
7,
