5-grundlagen-opAmps/data/ALL0097/A0097CH1.CSV

Memory Length,4000,
Trigger Level,2.00000e+01,
Source,CH1,
Probe,1.0X,
Vertical Units,V,
Vertical Scale,2.00000e+00,
Vertical Position,0.00000e+00,
Horizontal Units,S,
Horizontal Scale,5.00000e-02,
Horizontal Position,0.0000000e+00,
Horizontal Mode,Roll Mode,
Waveform Last Dot Address,4000,
Sampling Period,2.00000e-04,
Firmware,V1.14,
Time, ,
Mode,Fast,
Waveform Data,
19,
36,
35,
47,
46,
46,
-49,
-49,
-51,
-51,
-46,
-34,
-35,
-17,
-17,
2,
2,
21,
21,
37,
37,
37,
47,
47,
50,
50,
45,
32,
32,
16,
17,
-3,
-3,
-22,
-22,
-38,
-38,
-49,
-49,
-49,
-51,
-51,
-47,
-35,
-35,
-18,
-18,
1,
0,
20,
20,
36,
36,
47,
46,
46,
50,
50,
45,
34,
34,
17,
18,
-2,
-1,
-22,
-20,
-37,
-37,
-48,
-48,
-48,
-52,
-52,
-48,
-36,
-36,
-20,
-20,
0,
0,
19,
19,
36,
35,
46,
45,
45,
49,
49,
46,
35,
35,
18,
19,
-1,
-1,
-20,
-20,
-37,
-36,
-48,
-48,
-48,
-52,
-52,
-48,
-37,
-37,
-20,
-20,
-1,
-2,
18,
18,
35,
35,
46,
45,
45,
50,
50,
46,
35,
36,
19,
20,
0,
2,
-19,
-18,
-36,
-36,
-48,
-47,
-47,
-51,
-51,
-49,
-37,
-37,
-21,
-21,
-2,
-3,
17,
16,
34,
33,
45,
45,
45,
50,
50,
47,
36,
36,
20,
21,
1,
1,
-18,
-18,
-36,
-35,
-47,
-47,
-47,
-51,
-51,
-49,
-38,
-39,
-22,
-23,
-4,
-4,
16,
15,
33,
32,
45,
44,
44,
50,
50,
47,
47,
37,
21,
22,
2,
3,
-17,
-16,
-34,
-33,
-46,
-46,
-46,
-51,
-51,
-49,
-38,
-40,
-24,
-24,
-5,
-5,
15,
15,
32,
32,
45,
45,
45,
50,
50,
47,
47,
37,
22,
23,
3,
4,
-16,
-16,
-34,
-33,
-46,
-46,
-46,
-52,
-52,
-49,
-49,
-40,
-25,
-25,
-5,
-5,
14,
14,
31,
31,
44,
44,
44,
51,
51,
48,
48,
39,
23,
23,
4,
4,
-15,
-15,
-33,
-32,
-45,
-45,
-45,
-51,
-51,
-49,
-49,
-41,
-26,
-26,
-6,
-6,
13,
12,
30,
30,
44,
43,
43,
49,
49,
48,
48,
38,
24,
25,
5,
6,
-14,
-13,
-32,
-30,
-45,
-44,
-44,
-51,
-51,
-50,
-50,
-41,
-27,
-27,
-8,
-9,
12,
12,
29,
29,
43,
42,
42,
48,
48,
48,
48,
40,
26,
26,
7,
7,
-13,
-12,
-31,
-30,
-44,
-44,
-44,
-51,
-51,
-50,
-50,
-42,
-28,
-28,
-9,
-10,
11,
11,
28,
28,
42,
42,
42,
49,
49,
48,
48,
40,
26,
27,
8,
8,
-12,
-11,
-30,
-29,
-44,
-44,
-44,
-51,
-51,
-50,
-50,
-43,
-29,
-29,
-10,
-11,
10,
10,
28,
27,
42,
41,
41,
48,
48,
48,
48,
41,
27,
28,
9,
10,
-11,
-10,
-30,
-30,
-43,
-43,
-43,
-50,
-50,
-51,
-51,
-44,
-29,
-30,
-12,
-12,
8,
8,
27,
26,
41,
41,
41,
48,
48,
48,
48,
43,
28,
28,
10,
11,
-9,
-9,
-29,
-28,
-42,
-42,
-42,
-50,
-50,
-50,
-50,
-45,
-30,
-31,
-13,
-13,
7,
7,
26,
26,
40,
40,
40,
48,
48,
49,
49,
43,
28,
29,
12,
12,
-8,
-8,
-27,
-27,
-42,
-42,
-42,
-50,
-50,
-50,
-50,
-45,
-31,
-32,
-13,
-13,
7,
5,
25,
25,
40,
39,
39,
48,
48,
49,
49,
44,
30,
31,
12,
13,
-7,
-6,
-26,
-25,
-41,
-41,
-41,
-49,
-49,
-51,
-51,
-45,
-32,
-33,
-14,
-14,
5,
5,
23,
23,
39,
39,
39,
47,
47,
50,
50,
43,
31,
31,
14,
14,
-6,
-5,
-26,
-25,
-40,
-40,
-40,
-49,
-49,
-51,
-51,
-45,
-33,
-34,
-16,
-16,
4,
3,
23,
22,
38,
38,
38,
47,
47,
49,
49,
44,
31,
32,
15,
15,
-5,
-5,
-24,
-24,
-40,
-39,
-39,
-49,
-49,
-51,
-51,
-46,
-34,
-34,
-17,
-17,
3,
3,
22,
22,
37,
37,
48,
47,
47,
50,
50,
45,
32,
32,
16,
16,
-4,
-4,
-24,
-22,
-38,
-38,
-49,
-49,
-49,
-51,
-51,
-46,
-34,
-34,
-18,
-18,
2,
1,
20,
20,
37,
36,
47,
46,
46,
50,
50,
45,
33,
34,
16,
17,
-3,
-2,
-23,
-22,
-38,
-37,
-49,
-48,
-48,
-52,
-52,
-48,
-36,
-36,
-18,
-18,
0,
0,
20,
19,
36,
35,
47,
46,
46,
50,
50,
46,
34,
35,
18,
18,
-1,
-1,
-22,
-21,
-37,
-37,
-48,
-48,
-48,
-51,
-51,
-48,
-36,
-37,
-20,
-21,
-1,
-2,
19,
18,
35,
35,
46,
46,
46,
49,
49,
47,
35,
35,
19,
19,
0,
0,
-20,
-20,
-36,
-36,
-48,
-47,
-47,
-52,
-52,
-48,
-37,
-37,
-21,
-21,
-2,
-2,
18,
17,
35,
35,
46,
45,
45,
49,
49,
46,
35,
36,
20,
20,
0,
0,
-20,
-18,
-36,
-36,
-48,
-48,
-48,
-51,
-51,
-49,
-38,
-38,
-22,
-22,
-3,
-3,
17,
16,
34,
34,
45,
44,
44,
49,
49,
47,
36,
36,
20,
21,
2,
3,
-18,
-17,
-35,
-34,
-46,
-46,
-46,
-51,
-51,
-49,
-38,
-39,
-23,
-23,
-4,
-4,
16,
15,
32,
32,
45,
44,
44,
50,
50,
48,
37,
38,
22,
22,
3,
3,
-17,
-16,
-34,
-33,
-46,
-46,
-46,
-52,
-52,
-49,
-49,
-40,
-24,
-25,
-5,
-5,
15,
14,
32,
31,
44,
44,
44,
50,
50,
47,
47,
39,
22,
23,
4,
4,
-16,
-16,
-33,
-33,
-46,
-45,
-45,
-52,
-52,
-50,
-50,
-40,
-25,
-26,
-6,
-7,
14,
13,
31,
30,
44,
44,
44,
50,
50,
47,
47,
38,
24,
24,
5,
5,
-14,
-14,
-33,
-31,
-45,
-45,
-45,
-52,
-52,
-49,
-49,
-41,
-26,
-27,
-7,
-7,
12,
12,
30,
29,
43,
43,
43,
49,
49,
48,
48,
39,
25,
25,
6,
7,
-13,
-13,
-32,
-32,
-45,
-44,
-44,
-51,
-51,
-50,
-50,
-42,
-27,
-28,
-9,
-9,
11,
10,
29,
29,
43,
42,
42,
49,
49,
48,
48,
40,
26,
27,
7,
8,
-12,
-12,
-30,
-30,
-44,
-44,
-44,
-50,
-50,
-50,
-50,
-42,
-28,
-28,
-10,
-10,
10,
9,
28,
28,
42,
42,
42,
48,
48,
48,
48,
41,
27,
27,
8,
8,
-11,
-11,
-30,
-29,
-44,
-43,
-43,
-50,
-50,
-50,
-50,
-43,
-29,
-29,
-11,
-11,
9,
8,
28,
27,
42,
40,
40,
48,
48,
48,
48,
42,
28,
28,
9,
9,
-10,
-10,
-28,
-28,
-43,
-42,
-42,
-51,
-51,
-50,
-50,
-44,
-30,
-30,
-12,
-12,
8,
7,
26,
26,
40,
40,
40,
48,
48,
49,
49,
43,
28,
28,
11,
11,
-9,
-9,
-28,
-27,
-43,
-41,
-41,
-49,
-49,
-51,
-51,
-45,
-30,
-31,
-13,
-14,
7,
7,
25,
25,
40,
40,
40,
48,
48,
49,
49,
43,
29,
29,
12,
12,
-8,
-7,
-27,
-26,
-41,
-41,
-41,
-49,
-49,
-51,
-51,
-45,
-31,
-32,
-14,
-15,
5,
5,
24,
24,
39,
39,
39,
47,
47,
50,
50,
44,
30,
31,
13,
14,
-7,
-6,
-25,
-25,
-41,
-40,
-40,
-49,
-49,
-52,
-52,
-45,
-32,
-33,
-15,
-16,
4,
4,
23,
23,
39,
38,
38,
47,
47,
50,
50,
44,
31,
31,
14,
14,
-6,
-5,
-25,
-25,
-41,
-40,
-40,
-49,
-49,
-51,
-51,
-46,
-33,
-33,
-16,
-17,
3,
3,
22,
21,
39,
37,
37,
47,
47,
49,
49,
44,
32,
32,
15,
15,
-4,
-4,
-24,
-22,
-39,
-39,
-39,
-49,
-49,
-51,
-51,
-46,
-34,
-34,
-17,
-17,
2,
2,
22,
20,
37,
36,
47,
47,
47,
50,
50,
45,
32,
32,
16,
16,
-4,
-3,
-22,
-22,
-38,
-38,
-49,
-48,
-48,
-51,
-51,
-47,
-35,
-36,
-18,
-18,
2,
1,
20,
20,
36,
36,
47,
46,
46,
50,
50,
45,
34,
35,
17,
17,
-2,
-2,
-22,
-21,
-37,
-37,
-48,
-48,
-48,
-52,
-52,
-47,
-36,
-37,
-20,
-20,
0,
0,
19,
19,
35,
35,
46,
46,
46,
49,
49,
46,
35,
35,
18,
18,
-1,
-1,
-21,
-21,
-37,
-37,
-48,
-47,
-47,
-52,
-52,
-48,
-37,
-37,
-20,
-20,
-1,
-1,
18,
18,
35,
35,
47,
45,
45,
50,
50,
47,
35,
35,
19,
20,
0,
0,
-19,
-19,
-36,
-36,
-48,
-46,
-46,
-52,
-52,
-48,
-37,
-38,
-21,
-21,
-2,
-2,
18,
18,
34,
34,
46,
45,
45,
50,
50,
47,
36,
36,
20,
20,
1,
1,
-18,
-18,
-35,
-34,
-47,
-46,
-46,
-51,
-51,
-49,
-38,
-38,
-22,
-22,
-4,
-4,
16,
15,
33,
32,
45,
45,
45,
49,
49,
47,
47,
37,
21,
22,
2,
2,
-17,
-17,
-34,
-34,
-46,
-46,
-46,
-52,
-52,
-48,
-48,
-39,
-23,
-24,
-4,
-4,
15,
15,
32,
32,
45,
44,
44,
49,
49,
47,
47,
38,
22,
22,
3,
4,
-16,
-16,
-33,
-33,
-46,
-46,
-46,
-51,
-51,
-50,
-50,
-40,
-25,
-25,
-5,
-5,
14,
31,
31,
31,
44,
44,
44,
49,
49,
47,
47,
39,
23,
23,
4,
5,
-16,
-15,
-33,
-33,
-45,
-45,
-45,
-51,
-51,
-49,
-49,
-41,
-26,
-26,
-7,
-7,
13,
12,
31,
30,
44,
43,
43,
50,
50,
48,
48,
40,
23,
24,
6,
6,
-14,
-13,
-32,
-32,
-45,
-44,
-44,
-51,
-51,
-49,
-49,
-41,
-26,
-27,
-8,
-8,
12,
11,
30,
28,
43,
43,
43,
49,
49,
48,
48,
40,
26,
26,
7,
7,
-13,
-12,
-31,
-31,
-45,
-44,
-44,
-50,
-50,
-50,
-50,
-42,
-28,
-28,
-9,
-9,
11,
11,
28,
28,
42,
42,
42,
48,
48,
48,
48,
41,
27,
27,
8,
8,
-12,
-12,
-30,
-30,
-44,
-44,
-44,
-51,
-51,
-50,
-50,
-42,
-29,
-29,
-10,
-11,
10,
9,
28,
28,
42,
41,
41,
48,
48,
49,
49,
42,
27,
27,
9,
10,
-11,
-10,
-29,
-29,
-44,
-43,
-43,
-50,
-50,
-51,
-51,
-44,
-29,
-30,
-12,
-12,
8,
8,
27,
27,
41,
40,
40,
48,
48,
50,
50,
42,
28,
29,
10,
10,
-9,
-9,
-29,
-29,
-43,
-42,
-42,
-50,
-50,
-51,
-51,
-44,
-30,
-30,
-12,
-12,
7,
7,
26,
26,
40,
40,
40,
48,
48,
48,
48,
43,
29,
30,
11,
11,
-9,
-9,
-27,
-27,
-42,
-41,
-41,
-49,
-49,
-51,
-51,
-45,
-30,
-30,
-13,
-13,
6,
6,
25,
24,
40,
39,
39,
48,
48,
49,
49,
43,
30,
30,
12,
13,
-7,
-7,
-26,
-26,
-41,
-41,
-41,
-50,
-50,
-52,
-52,
-45,
-32,
-33,
-14,
-15,
5,
5,
24,
23,
39,
38,
38,
48,
48,
49,
49,
44,
31,
31,
14,
14,
-6,
-5,
-25,
-25,
-41,
-40,
-40,
-49,
-49,
-52,
-52,
-45,
-33,
-33,
-16,
-16,
4,
4,
23,
23,
38,
38,
38,
47,
47,
49,
49,
44,
31,
31,
15,
15,
-5,
-5,
-24,
-24,
-40,
-39,
-39,
-49,
-49,
-51,
-51,
-45,
-34,
-34,
-16,
-17,
3,
2,
22,
21,
38,
36,
47,
47,
47,
50,
50,
44,
32,
33,
16,
16,
-4,
-4,
-23,
-22,
-39,
-38,
-49,
-49,
-49,
-52,
-52,
-46,
-35,
-35,
-17,
-18,
2,
1,
20,
20,
37,
37,
37,
47,
47,
49,
49,
45,
34,
34,
16,
17,
-3,
-3,
-22,
-22,
-38,
-38,
-49,
-48,
-48,
-51,
-51,
-47,
-36,
-36,
-18,
-19,
0,
0,
20,
19,
36,
35,
47,
47,
47,
50,
50,
46,
34,
35,
18,
18,
-2,
-1,
-21,
-20,
-37,
-37,
-48,
-48,
-48,
-51,
-51,
-48,
-36,
-36,
-20,
-20,
-1,
-1,
19,
18,
35,
35,
47,
46,
46,
50,
50,
46,
35,
35,
19,
19,
0,
0,
-20,
-19,
-36,
-36,
-48,
-48,
-48,
-51,
-51,
-48,
-37,
-37,
-21,
-21,
-2,
-2,
18,
17,
35,
35,
46,
46,
46,
50,
50,
47,
35,
36,
19,
20,
0,
0,
-19,
-18,
-36,
-35,
-48,
-47,
-47,
-51,
-51,
-48,
-48,
-38,
-22,
-22,
-3,
-3,
16,
16,
34,
32,
45,
45,
45,
50,
50,
47,
36,
37,
20,
21,
1,
1,
-18,
-17,
-35,
-34,
-47,
-46,
-46,
-51,
-51,
-48,
-48,
-39,
-23,
-24,
-4,
-4,
15,
15,
34,
33,
45,
44,
44,
50,
50,
47,
47,
37,
22,
22,
3,
3,
-17,
-16,
-34,
-34,
-46,
-46,
-46,
-52,
-52,
-49,
-49,
-40,
-24,
-24,
-4,
-5,
15,
15,
32,
31,
44,
44,
44,
50,
50,
47,
47,
38,
23,
23,
4,
4,
-16,
-16,
-33,
-33,
-46,
-45,
-45,
-51,
-51,
-49,
-49,
-40,
-25,
-25,
-6,
-6,
14,
13,
31,
30,
44,
43,
43,
50,
50,
48,
48,
39,
23,
24,
5,
5,
-14,
-14,
-33,
-32,
-45,
-45,
-45,
-51,
-51,
-50,
-50,
-41,
-26,
-27,
-7,
12,
12,
12,
30,
30,
43,
43,
43,
50,
50,
48,
48,
39,
24,
25,
6,
7,
-13,
-13,
-32,
-31,
-44,
-44,
-44,
-51,
-51,
-50,
-50,
-42,
-27,
-27,
-8,
-9,
11,
11,
29,
28,
43,
42,
42,
50,
50,
48,
48,
41,
26,
26,
7,
7,
-12,
-12,
-30,
-30,
-44,
-44,
-44,
-50,
-50,
-49,
-49,
-43,
-28,
-29,
-10,
-10,
10,
10,
28,
28,
42,
42,
42,
48,
48,
48,
48,
42,
27,
27,
8,
8,
-12,
-12,
-30,
-29,
-43,
-43,
-43,
-50,
-50,
-51,
-51,
-43,
-29,
-29,
-11,
-11,
9,
8,
28,
27,
42,
41,
41,
48,
48,
49,
49,
42,
27,
28,
9,
10,
-10,
-10,
-29,
-28,
-43,
-43,
-43,
-50,
-50,
-51,
-51,
-44,
-30,
-30,
-12,
-12,
8,
7,
26,
26,
41,
40,
40,
48,
48,
48,
48,
42,
28,
29,
11,
11,
-9,
-9,
-28,
-27,
-42,
-42,
-42,
-50,
-50,
-51,
-51,
-45,
-30,
-31,
-13,
-13,
7,
6,
25,
24,
40,
40,
40,
48,
48,
48,
48,
42,
29,
29,
12,
13,
-8,
-8,
-27,
-27,
-42,
-42,
-42,
-50,
-50,
-50,
-50,
-45,
-32,
-32,
-14,
-14,
6,
5,
24,
23,
40,
40,
40,
48,
48,
49,
49,
43,
30,
30,
13,
14,
-7,
-6,
-25,
-25,
-41,
-40,
-40,
-50,
-50,
-51,
-51,
-45,
-32,
-33,
-15,
-16,
4,
4,
23,
23,
39,
38,
38,
47,
47,
49,
49,
44,
31,
32,
14,
14,
-6,
-5,
-25,
-25,
-40,
-39,
-39,
-49,
-49,
-51,
-51,
-45,
-33,
-33,
-16,
-17,
3,
3,
22,
22,
38,
37,
37,
47,
47,
50,
50,
44,
32,
32,
15,
15,
-5,
-4,
-24,
-23,
-39,
-39,
-39,
-48,
-48,
-51,
-51,
-46,
-34,
-35,
-17,
-17,
3,
2,
22,
22,
37,
36,
47,
47,
47,
50,
50,
45,
33,
34,
16,
16,
-4,
-4,
-23,
-22,
-38,
-38,
-49,
-48,
-48,
-52,
-52,
-46,
-35,
-36,
-18,
-19,
2,
1,
20,
20,
36,
36,
47,
46,
46,
49,
49,
45,
33,
34,
17,
17,
-2,
-2,
-22,
-21,
-38,
-37,
-48,
-48,
-48,
-52,
-52,
-47,
-36,
-37,
-19,
-19,
0,
0,
20,
19,
36,
35,
46,
46,
46,
50,
50,
46,
35,
35,
18,
18,
-1,
-1,
-20,
-20,
-37,
-37,
-48,
-48,
-48,
-52,
-52,
-48,
-37,
-37,
-20,
-21,
-1,
-1,
19,
18,
35,
35,
46,
45,
45,
50,
50,
46,
46,
36,
19,
19,
-1,
-1,
-20,
-19,
-36,
-35,
-48,
-48,
-48,
-51,
-51,
-48,
-37,
-38,
-21,
-22,
-2,
-2,
18,
16,
34,
34,
46,
44,
44,
50,
50,
47,
36,
36,
20,
20,
1,
1,
-18,
-18,
-36,
-34,
-47,
-47,
-47,
-51,
-51,
-49,
-38,
-39,
-22,
-23,
-4,
-4,
16,
16,
34,
34,
45,
44,
44,
50,
50,
47,
36,
37,
21,
21,
2,
3,
-17,
-17,
-34,
-34,
-46,
-46,
-46,
-51,
-51,
-49,
-49,
-39,
-24,
-24,
-4,
-5,
15,
15,
32,
32,
45,
44,
44,
49,
49,
47,
47,
38,
22,
22,
3,
4,
-16,
-15,
-34,
-33,
-46,
-45,
-45,
-51,
-51,
-49,
-49,
-40,
-24,
-24,
-5,
-5,
14,
14,
32,
31,
44,
44,
44,
49,
49,
47,
47,
39,
23,
23,
4,
4,
-15,
-14,
-33,
-32,
-45,
-45,
-45,
-51,
-51,
-50,
-50,
-41,
-25,
-26,
-7,
-8,
13,
12,
30,
30,
44,
43,
43,
49,
49,
48,
48,
39,
24,
24,
5,
6,
-14,
-13,
-32,
-31,
-45,
-45,
-45,
-51,
-51,
-50,
-50,
-42,
-26,
-26,
-8,
-9,
12,
11,
30,
29,
43,
43,
43,
50,
50,
48,
48,
39,
25,
25,
7,
7,
-13,
-13,
-32,
-31,
-44,
-44,
-44,
-51,
-51,
-49,
-49,
-42,
-28,
-28,
-9,
-9,
11,
10,
28,
28,
43,
42,
42,
50,
50,
48,
48,
40,
26,
26,
8,
8,
-12,
-12,
-30,
-30,
-44,
-44,
-44,
-50,
-50,
-50,
-50,
-43,
-28,
-29,
-10,
-11,
10,
9,
28,
28,
42,
42,
42,
49,
49,
49,
49,
42,
27,
27,
9,
9,
-11,
-10,
-29,
-28,
-43,
-43,
-43,
-50,
-50,
-51,
-51,
-43,
-29,
-29,
-12,
-12,
8,
8,
27,
26,
41,
40,
40,
48,
48,
49,
49,
42,
28,
28,
10,
11,
-9,
-9,
-28,
-28,
-42,
-42,
-42,
-49,
-49,
-50,
-50,
-44,
-30,
-30,
-12,
-13,
7,
7,
26,
25,
40,
40,
40,
48,
48,
49,
49,
42,
28,
30,
11,
12,
-8,
-8,
-28,
-27,
-42,
-42,
-42,
-50,
-50,
-51,
-51,
-45,
-30,
-30,
-13,
-13,
6,
5,
24,
24,
40,
39,
39,
48,
48,
49,
49,
43,
29,
30,
12,
12,
-8,
-6,
-26,
-26,
-41,
-41,
-41,
-50,
-50,
-52,
-52,
-45,
-32,
-32,
-14,
-15,
6,
6,
24,
23,
39,
38,
38,
48,
48,
49,
49,
44,
30,
31,
14,
14,
-6,
-6,
-25,
-25,
-41,
-40,
-40,
-49,
-49,
-51,
-51,
-46,
-33,
-33,
-16,
-16,
4,
4,
23,
22,
38,
38,
38,
47,
47,
50,
50,
45,
31,
32,
14,
15,
-5,
-5,
-24,
-24,
-40,
-40,
-40,
-49,
-49,
-51,
-51,
-46,
-34,
-34,
-17,
-17,
3,
2,
22,
20,
38,
37,
48,
47,
47,
50,
50,
44,
32,
33,
15,
16,
-4,
-4,
-24,
-22,
-39,
-39,
-39,
-49,
-49,
-52,
-52,
-46,
-35,
-35,
-17,
-18,
3,
0,
20,
20,
37,
36,
47,
46,
46,
50,
50,
44,
33,
33,
16,
17,
-3,
-2,
-22,
-21,
-38,
-37,
-48,
-48,
-48,
-52,
-52,
-47,
-36,
-36,
-18,
-19,
0,
0,
20,
20,
36,
36,
47,
46,
46,
49,
49,
46,
34,
34,
18,
18,
-1,
-1,
-21,
-21,
-37,
-37,
-48,
-48,
-48,
-51,
-51,
-48,
-36,
-36,
-20,
-20,
-1,
-1,
19,
18,
35,
35,
46,
46,
46,
50,
50,
46,
35,
35,
18,
18,
-1,
0,
-20,
-19,
-36,
-36,
-48,
-48,
-48,
-51,
-51,
-48,
-37,
-37,
-21,
-21,
-1,
-2,
18,
18,
34,
34,
46,
45,
45,
49,
49,
47,
35,
36,
20,
20,
0,
0,
-18,
-18,
-36,
-35,
-48,
-47,
-47,
-51,
-51,
-49,
-37,
-38,
-22,
-22,
-3,
-3,
17,
16,
34,
33,
45,
45,
45,
50,
50,
47,
36,
36,
20,
21,
1,
1,
-17,
-17,
-35,
-34,
-47,
-46,
-46,
-51,
-51,
-49,
-38,
-38,
-23,
-24,
-4,
-4,
16,
15,
33,
32,
45,
44,
44,
49,
49,
47,
47,
37,
22,
22,
3,
3,
-16,
-16,
-34,
-33,
-46,
-46,
-46,
-51,
-51,
-49,
-49,
-40,
-24,
-25,
-5,
-5,
15,
15,
32,
31,
44,
44,
44,
49,
49,
47,
47,
39,
22,
23,
4,
4,
-16,
-16,
-33,
-33,
-46,
-45,
-45,
-52,
-52,
-49,
-49,
-41,
-25,
-26,
-6,
-6,
14,
14,
31,
31,
44,
43,
43,
49,
49,
48,
48,
39,
23,
24,
5,
5,
-15,
-15,
-33,
-32,
-45,
-45,
-45,
-52,
-52,
-50,
-50,
-41,
-26,
-27,
-7,
-7,
12,
12,
30,
30,
43,
43,
43,
48,
48,
48,
48,
40,
24,
25,
6,
7,
-13,
-13,
-32,
-32,
-45,
-44,
-44,
-50,
-50,
-50,
-50,
-42,
-27,
-28,
-9,
-9,
11,
11,
29,
28,
43,
43,
43,
48,
48,
48,
48,
40,
25,
25,
7,
8,
-13,
-12,
-30,
-29,
-44,
-44,
-44,
-52,
-52,
-51,
-51,
-42,
-28,
-29,
-10,
-10,
11,
10,
28,
27,
42,
41,
41,
50,
50,
48,
48,
41,
26,
26,
8,
8,
-11,
-11,
-29,
-29,
-44,
-43,
-43,
-51,
-51,
-50,
-50,
-43,
-29,
-29,
-11,
-11,
9,
8,
28,
27,
42,
40,
40,
49,
49,
48,
48,
41,
27,
27,
10,
10,
-10,
-10,
-29,
-29,
-43,
-43,
-43,
-50,
-50,
-50,
-50,
-44,
-29,
-30,
-12,
-12,
8,
8,
26,
26,
40,
40,
40,
48,
48,
49,
49,
43,
28,
28,
11,
11,
-9,
-9,
-28,
-28,
-42,
-42,
-42,
-50,
-50,
-51,
-51,
-44,
-30,
-31,
-13,
-13,
7,
6,
26,
24,
40,
40,
40,
48,
48,
50,
50,
43,
29,
29,
12,
12,
-8,
-8,
-27,
-26,
-41,
-41,
-41,
-50,
-50,
-52,
-52,
-45,
-32,
-32,
-14,
-14,
6,
4,
24,
24,
39,
39,
39,
48,
48,
49,
49,
44,
30,
31,
12,
12,
-7,
-7,
-25,
-25,
-41,
-41,
-41,
-49,
-49,
-51,
-51,
-46,
-32,
-32,
-14,
-14,
4,
4,
23,
23,
39,
38,
38,
47,
47,
50,
50,
44,
31,
32,
14,
15,
-6,
-6,
-25,
-24,
-40,
-39,
-39,
-49,
-49,
-52,
-52,
-46,
-33,
-33,
-16,
-16,
4,
3,
22,
22,
37,
37,
48,
47,
47,
50,
50,
44,
32,
32,
15,
15,
-4,
-4,
-24,
-23,
-40,
-39,
-39,
-49,
-49,
-51,
-51,
-46,
-34,
-34,
-17,
-17,
3,
1,
22,
22,
37,
37,
37,
47,
47,
50,
50,
45,
33,
33,
15,
16,
-4,
-3,
-22,
-22,
-38,
-37,
-49,
-48,
-48,
-51,
-51,
-46,
-35,
-36,
-18,
-18,
2,
0,
20,
20,
36,
36,
47,
46,
46,
50,
50,
45,
33,
34,
16,
18,
-2,
-1,
-21,
-21,
-37,
-37,
-49,
-48,
-48,
-52,
-52,
-47,
-36,
-36,
-19,
-20,
0,
0,
19,
19,
36,
36,
47,
46,
46,
50,
50,
45,
45,
35,
18,
19,
-1,
-1,
-20,
-20,
-37,
-36,
-48,
-48,
-48,
-51,
-51,
-48,
-37,
-37,
-20,
-21,
-1,
-1,
18,
18,
35,
34,
46,
46,
46,
50,
50,
46,
35,
36,
19,
20,
-1,
0,
-19,
-19,
-36,
-35,
-48,
-48,
-48,
-51,
-51,
-48,
-37,
-38,
-21,
-21,
-2,
-2,
17,
16,
34,
34,
46,
45,
45,
50,
50,
47,
36,
36,
20,
21,
1,
1,
-18,
-18,
-36,
-34,
-48,
-48,
-48,
-52,
-52,
-49,
-38,
-39,
-22,
-22,
-4,
-4,
16,
16,
34,
33,
45,
44,
44,
49,
49,
47,
36,
37,
20,
21,
2,
2,
-17,
-17,
-34,
-34,
-46,
-46,
-46,
-51,
-51,
-49,
-38,
-39,
-23,
-24,
-4,
-4,
15,
15,
32,
32,
44,
44,
44,
49,
49,
48,
37,
37,
22,
22,
3,
3,
-16,
-16,
-34,
-34,
-46,
-46,
-46,
-51,
-51,
-49,
-49,
-40,
-24,
-25,
-5,
-6,
14,
14,
32,
31,
44,
43,
43,
49,
49,
48,
48,
38,
23,
23,
4,
4,
-16,
-15,
-33,
-33,
-45,
-45,
-45,
-51,
-51,
-49,
-49,
-41,
-26,
-26,
-6,
-6,
13,
12,
30,
30,
44,
44,
44,
49,
49,
48,
48,
39,
24,
25,
6,
6,
-14,
-14,
-32,
-32,
-45,
-44,
-44,
-51,
-51,
-50,
-50,
-41,
-26,
-27,
-8,
-8,
12,
11,
30,
29,
43,
43,
43,
50,
50,
47,
47,
40,
25,
25,
7,
7,
-13,
-12,
-31,
-31,
-44,
-44,
-44,
-50,
-50,
-50,
-50,
-42,
-28,
-28,
-9,
-9,
12,
11,
29,
28,
42,
42,
42,
48,
48,
48,
48,
41,
26,
27,
8,
8,
-12,
-12,
-30,
-30,
-44,
-43,
-43,
-50,
-50,
-50,
-50,
-43,
-28,
-29,
-10,
-10,
10,
9,
28,
27,
42,
40,
40,
48,
48,
48,
48,
41,
27,
27,
9,
9,
-11,
-11,
-29,
-29,
-43,
-43,
-43,
-50,
-50,
-51,
-51,
-43,
-29,
-29,
-11,
-11,
8,
8,
27,
27,
41,
41,
41,
48,
48,
49,
49,
42,
28,
28,
10,
10,
-9,
-9,
-28,
-28,
-43,
-42,
-42,
-50,
-50,
-51,
-51,
-44,
-30,
-31,
-12,
-13,
7,
7,
26,
26,
40,
40,
40,
48,
48,
49,
49,
43,
28,
28,
11,
11,
-9,
-9,
-28,
-28,
-42,
-42,
-42,
-49,
-49,
-50,
-50,
-45,
-31,
-32,
-13,
-14,
6,
6,
25,
24,
40,
39,
39,
47,
47,
50,
50,
43,
30,
30,
12,
13,
-8,
-8,
-26,
-25,
-41,
-41,
-41,
-49,
-49,
-51,
-51,
-45,
-32,
-33,
-14,
-15,
5,
5,
24,
23,
39,
38,
38,
47,
47,
49,
49,
44,
30,
30,
13,
13,
-6,
-6,
-25,
-25,
-41,
-40,
-40,
-48,
-48,
-52,
-52,
-46,
-33,
-33,
-16,
-16,
4,
4,
23,
23,
38,
38,
38,
47,
47,
50,
50,
44,
31,
32,
14,
15,
-5,
-5,
-25,
-24,
-40,
-39,
-39,
-48,
-48,
-51,
-51,
-46,
-34,
-34,
-16,
-16,
3,
2,
22,
20,
37,
36,
47,
47,
47,
49,
49,
44,
32,
33,
15,
16,
-4,
-4,
-23,
-23,
-39,
-39,
-39,
-49,
-49,
-52,
-52,
-47,
-35,
-35,
-18,
-18,
3,
1,
21,
20,
36,
36,
47,
46,
46,
50,
50,
45,
33,
34,
16,
17,
-3,
-3,
-22,
-21,
-38,
-37,
-49,
-48,
-48,
-52,
-52,
-47,
-35,
-36,
-19,
-20,
0,
0,
20,
