5-grundlagen-opAmps/data/ALL0000/A0000CH1.CSV

Memory Length,4000,
Trigger Level,0.00000e+00,
Source,CH1,
Probe,1.0X,
Vertical Units,V,
Vertical Scale,5.00000e-02,
Vertical Position,0.00000e+00,
Horizontal Units,S,
Horizontal Scale,1.00000e-07,
Horizontal Position,1.0000000e-07,
Horizontal Mode,Main,
Sampling Period,2.00000e-09,
Firmware,V1.14,
Time, ,
Mode,Fast,
Waveform Data,
-24,
-24,
-17,
-14,
-19,
-27,
-30,
-25,
-20,
-22,
-29,
-34,
-31,
-24,
-27,
-33,
-35,
-32,
-27,
-27,
-31,
-34,
-31,
-28,
-27,
-28,
-31,
-29,
-25,
-23,
-25,
-27,
-24,
-18,
-18,
-22,
-24,
-18,
-11,
-9,
-11,
-16,
-13,
-8,
-1,
0,
-6,
-8,
-4,
5,
7,
5,
3,
2,
7,
12,
14,
11,
6,
9,
16,
21,
18,
12,
12,
17,
25,
26,
18,
10,
12,
20,
29,
26,
13,
6,
14,
26,
26,
16,
6,
8,
18,
24,
19,
5,
1,
7,
16,
13,
2,
-6,
-4,
4,
7,
-1,
-10,
-11,
-6,
-3,
-5,
-11,
-19,
-18,
-10,
-11,
-14,
-22,
-28,
-24,
-20,
-19,
-20,
-27,
-32,
-31,
-26,
-24,
-27,
-36,
-35,
-30,
-25,
-29,
-34,
-33,
-30,
-27,
-28,
-31,
-31,
-30,
-25,
-24,
-25,
-27,
-28,
-24,
-21,
-21,
-19,
-16,
-17,
-18,
-16,
-12,
-8,
-7,
-7,
-12,
-8,
-2,
4,
2,
-4,
-5,
3,
11,
10,
4,
3,
7,
15,
18,
15,
11,
11,
17,
22,
21,
13,
12,
17,
24,
25,
19,
13,
13,
20,
24,
24,
18,
12,
13,
18,
22,
19,
12,
10,
10,
14,
16,
12,
4,
3,
6,
8,
6,
-1,
-4,
-3,
0,
0,
-6,
-11,
-13,
-9,
-8,
-10,
-16,
-21,
-19,
-16,
-17,
-21,
-26,
-24,
-24,
-23,
-26,
-28,
-28,
-28,
-30,
-31,
-29,
-30,
-29,
-31,
-33,
-34,
-32,
-27,
-27,
-31,
-35,
-32,
-25,
-22,
-26,
-30,
-27,
-20,
-17,
-19,
-23,
-25,
-18,
-9,
-9,
-15,
-19,
-14,
-6,
1,
-3,
-9,
-10,
-2,
6,
9,
5,
-2,
-2,
8,
15,
15,
6,
4,
8,
18,
24,
19,
11,
9,
16,
26,
25,
14,
9,
16,
27,
30,
20,
10,
8,
20,
28,
24,
13,
4,
9,
22,
24,
15,
4,
3,
11,
17,
11,
3,
-1,
2,
6,
4,
0,
-7,
-7,
-4,
-4,
-8,
-12,
-15,
-14,
-13,
-14,
-15,
-19,
-22,
-24,
-21,
-19,
-22,
-27,
-29,
-29,
-26,
-24,
-29,
-32,
-31,
-32,
-29,
-30,
-31,
-31,
-32,
-29,
-30,
-31,
-28,
-27,
-27,
-29,
-29,
-24,
-22,
-23,
-26,
-26,
-18,
-15,
-15,
-18,
-19,
-14,
-8,
-4,
-13,
-15,
-8,
1,
5,
-3,
-8,
-4,
4,
11,
9,
3,
1,
6,
16,
17,
13,
7,
11,
18,
20,
19,
14,
15,
17,
21,
23,
20,
16,
15,
21,
21,
21,
18,
13,
15,
18,
20,
20,
13,
9,
9,
16,
16,
11,
5,
4,
5,
8,
4,
0,
-3,
-2,
-2,
-4,
-4,
-9,
-8,
-8,
-12,
-15,
-15,
-14,
-15,
-18,
-20,
-23,
-19,
-22,
-26,
-28,
-28,
-23,
-24,
-28,
-32,
-32,
-29,
-25,
-26,
-34,
-38,
-35,
-27,
-22,
-29,
-36,
-35,
-29,
-22,
-24,
-29,
-32,
-29,
-19,
-16,
-20,
-26,
-28,
-17,
-10,
-11,
-16,
-19,
-14,
-6,
0,
-3,
-11,
-12,
-2,
8,
8,
1,
-5,
-2,
9,
17,
15,
6,
1,
8,
19,
23,
15,
7,
11,
19,
28,
22,
12,
13,
20,
27,
27,
17,
11,
12,
25,
25,
19,
11,
9,
16,
21,
20,
13,
6,
7,
11,
14,
10,
3,
2,
3,
4,
2,
-1,
-3,
-4,
-5,
-7,
-8,
-9,
-11,
-13,
-15,
-15,
-17,
-18,
-20,
-20,
-20,
-21,
-24,
-23,
-27,
-27,
-26,
-28,
-28,
-32,
-31,
-32,
-30,
-31,
-30,
-29,
-33,
-34,
-34,
-28,
-23,
-27,
-32,
-34,
-28,
-21,
-20,
-24,
-31,
-27,
-19,
-11,
-16,
-24,
-21,
-13,
-4,
-7,
-16,
-16,
-8,
2,
3,
-3,
-9,
-6,
7,
12,
6,
1,
0,
8,
14,
14,
13,
10,
10,
14,
19,
19,
17,
16,
16,
20,
21,
20,
18,
17,
18,
22,
23,
19,
15,
15,
18,
21,
18,
13,
12,
12,
15,
16,
11,
8,
5,
5,
6,
5,
3,
0,
0,
-3,
-6,
-4,
-4,
-4,
-11,
-15,
-13,
-10,
-8,
-16,
-24,
-23,
-19,
-14,
-19,
-27,
-30,
-28,
-19,
-20,
-30,
-37,
-35,
-24,
-20,
-29,
-38,
-39,
-29,
-22,
-24,
-32,
-39,
-36,
-28,
-18,
-24,
-32,
-35,
-30,
-19,
-17,
-21,
-27,
-25,
-17,
-9,
-10,
-18,
-21,
-13,
-5,
-1,
-6,
-13,
-11,
-1,
7,
6,
-1,
-7,
-1,
12,
17,
10,
3,
3,
12,
21,
19,
13,
7,
13,
21,
24,
20,
12,
13,
20,
26,
21,
16,
15,
17,
25,
23,
18,
14,
14,
18,
19,
16,
11,
10,
12,
13,
11,
8,
7,
6,
3,
2,
1,
1,
1,
-3,
-7,
-8,
-9,
-7,
-7,
-11,
-15,
-17,
-16,
-16,
-17,
-20,
-25,
-24,
-22,
-22,
-24,
-27,
-28,
-28,
-28,
-25,
-29,
-34,
-34,
-30,
-26,
-28,
-35,
-37,
-31,
-25,
-24,
-28,
-36,
-36,
-27,
-17,
-21,
-29,
-33,
-25,
-16,
-14,
-19,
-26,
-21,
-13,
-6,
-10,
-15,
-15,
-7,
0,
-1,
-6,
-8,
-3,
4,
7,
6,
3,
3,
7,
11,
15,
12,
9,
11,
12,
16,
18,
19,
17,
14,
17,
20,
23,
20,
17,
17,
20,
21,
20,
18,
17,
17,
19,
19,
15,
12,
11,
14,
15,
12,
9,
9,
8,
4,
4,
7,
4,
-1,
-6,
-4,
-1,
0,
-6,
-14,
-16,
-12,
-6,
-8,
-16,
-25,
-24,
-15,
-12,
-19,
-29,
-31,
-25,
-17,
-21,
-32,
-36,
-30,
-23,
-24,
-29,
-39,
-38,
-28,
-23,
-25,
-34,
-38,
-33,
-25,
-21,
-27,
-31,
-34,
-28,
-20,
-15,
-22,
-28,
-27,
-19,
-11,
-13,
-19,
-20,
-13,
-7,
-3,
-7,
-13,
-11,
0,
6,
3,
-4,
-5,
2,
12,
11,
6,
1,
5,
14,
19,
16,
10,
11,
16,
20,
19,
16,
14,
19,
21,
19,
18,
16,
20,
20,
20,
17,
15,
18,
20,
20,
13,
12,
14,
16,
14,
9,
8,
8,
10,
9,
4,
1,
0,
1,
4,
0,
-7,
-11,
-8,
-3,
-5,
-11,
-19,
-17,
-15,
-11,
-12,
-19,
-27,
-26,
-20,
-17,
-21,
-29,
-34,
-31,
-22,
-23,
-32,
-35,
-35,
-28,
-24,
-28,
-36,
-38,
-31,
-23,
-23,
-32,
-37,
-32,
-23,
-18,
-25,
-29,
-31,
-25,
-15,
-15,
-21,
-25,
-21,
-12,
-10,
-12,
-15,
-12,
-8,
-6,
-3,
-4,
-6,
-2,
1,
4,
4,
4,
4,
5,
9,
10,
13,
12,
11,
12,
16,
20,
20,
15,
13,
16,
20,
24,
22,
17,
14,
18,
24,
22,
19,
16,
15,
17,
18,
18,
16,
13,
10,
11,
14,
13,
10,
4,
4,
7,
9,
6,
-2,
-5,
-4,
2,
4,
-5,
-16,
-18,
-8,
-1,
-8,
-20,
-27,
-20,
-10,
-12,
-21,
-32,
-29,
-21,
-15,
-21,
-31,
-36,
-32,
-21,
-23,
-33,
-37,
-34,
-27,
-24,
-29,
-33,
-36,
-33,
-25,
-23,
-28,
-33,
-32,
-28,
-19,
-19,
-25,
-28,
-26,
-18,
-12,
-13,
-20,
-21,
-14,
-7,
-6,
-11,
-13,
-8,
-1,
2,
0,
-4,
-1,
5,
8,
6,
1,
3,
11,
16,
13,
10,
11,
17,
18,
16,
16,
15,
21,
22,
19,
16,
17,
21,
25,
21,
14,
13,
17,
23,
21,
15,
11,
13,
17,
18,
16,
9,
6,
8,
13,
12,
4,
0,
0,
4,
4,
-2,
-7,
-10,
-7,
-3,
-2,
-10,
-18,
-20,
-13,
-7,
-11,
-22,
-29,
-24,
-16,
-13,
-21,
-32,
-34,
-27,
-18,
-23,
-32,
-38,
-36,
-26,
-23,
-30,
-36,
-36,
-28,
-24,
-26,
-33,
-36,
-30,
-24,
-20,
-28,
-32,
-29,
-23,
-18,
-18,
-20,
-23,
-20,
-16,
-13,
-11,
-12,
-13,
-9,
-8,
-4,
-4,
-4,
-2,
-3,
1,
4,
5,
5,
4,
7,
11,
12,
12,
11,
11,
13,
18,
19,
17,
15,
15,
19,
23,
21,
18,
15,
16,
21,
24,
23,
17,
13,
15,
20,
22,
17,
10,
8,
12,
18,
18,
11,
2,
3,
8,
12,
8,
-3,
-7,
-1,
4,
1,
-8,
-15,
-13,
-4,
-2,
-11,
-19,
-23,
-17,
-8,
-12,
-22,
-28,
-25,
-19,
-19,
-24,
-32,
-33,
-27,
-25,
-26,
-31,
-34,
-32,
-29,
-27,
-29,
-34,
-35,
-31,
-27,
-28,
-28,
-31,
-30,
-26,
-22,
-20,
-26,
-27,
-24,
-18,
-15,
-18,
-20,
-17,
-14,
-11,
-9,
-11,
-10,
-6,
-4,
-4,
-4,
-2,
4,
7,
3,
0,
3,
8,
14,
10,
5,
7,
15,
20,
18,
13,
10,
16,
24,
24,
15,
10,
16,
27,
26,
18,
12,
12,
21,
26,
23,
13,
9,
12,
20,
23,
14,
7,
6,
10,
15,
13,
7,
0,
0,
3,
7,
4,
-6,
-12,
-8,
-1,
-1,
-10,
-20,
-18,
-11,
-5,
-11,
-22,
-28,
-24,
-13,
-15,
-24,
-35,
-35,
-23,
-18,
-23,
-33,
-37,
-31,
-24,
-26,
-30,
-35,
-34,
-28,
-26,
-29,
-33,
-33,
-28,
-25,
-26,
-28,
-28,
-28,
-24,
-21,
-19,
-21,
-22,
-20,
-17,
-13,
-12,
-13,
-11,
-12,
-10,
-4,
-2,
-3,
-6,
-4,
0,
5,
5,
5,
4,
4,
7,
11,
13,
12,
9,
12,
16,
18,
18,
16,
15,
15,
22,
22,
20,
15,
15,
22,
27,
24,
15,
11,
14,
21,
26,
17,
9,
7,
13,
22,
19,
9,
2,
4,
11,
13,
5,
-3,
-4,
2,
4,
2,
-8,
-13,
-9,
-4,
-3,
-12,
-18,
-19,
-15,
-11,
-16,
-25,
-26,
-24,
-20,
-21,
-24,
-29,
-30,
-27,
-27,
-27,
-29,
-32,
-30,
-30,
-30,
-29,
-31,
-30,
-32,
-31,
-29,
-28,
-29,
-28,
-27,
-26,
-26,
-26,
-22,
-22,
-21,
-21,
-18,
-17,
-16,
-14,
-13,
-13,
-11,
-5,
-4,
-8,
-10,
-6,
3,
5,
2,
-3,
-2,
7,
14,
16,
4,
0,
7,
19,
23,
14,
6,
11,
20,
28,
23,
12,
11,
18,
28,
27,
19,
10,
14,
28,
27,
21,
12,
7,
16,
21,
22,
14,
5,
5,
10,
16,
16,
5,
-2,
-1,
6,
9,
4,
-5,
-10,
-6,
0,
0,
-10,
-19,
-16,
-9,
-5,
-14,
-24,
-25,
-18,
-13,
-16,
-26,
-32,
-27,
-22,
-20,
-26,
-34,
-35,
-29,
-26,
-27,
-32,
-34,
-31,
-30,
-31,
-29,
-29,
-29,
-32,
-31,
-29,
-25,
-24,
-27,
-27,
-23,
-22,
-20,
-20,
-22,
-21,
-15,
-10,
-12,
-16,
-15,
-11,
-6,
-4,
-4,
-7,
-6,
0,
5,
5,
2,
1,
3,
8,
12,
14,
13,
9,
8,
14,
20,
21,
14,
10,
14,
21,
25,
19,
13,
16,
20,
25,
24,
15,
11,
16,
24,
24,
14,
8,
11,
18,
22,
17,
8,
3,
7,
12,
11,
5,
-1,
-1,
3,
3,
-1,
-6,
-7,
-7,
-7,
-9,
-12,
-12,
-15,
-14,
-15,
-16,
-19,
-21,
-23,
-23,
-23,
-24,
-26,
-27,
-27,
-28,
-28,
-28,
-29,
-30,
-31,
-30,
-30,
-29,
-29,
-30,
-32,
-33,
-29,
-27,
-25,
-29,
-32,
-27,
-23,
-20,
-21,
-24,
-25,
-21,
-14,
-12,
-16,
-19,
-16,
-8,
-4,
-7,
-12,
-12,
-2,
6,
6,
0,
-8,
-3,
11,
18,
9,
0,
0,
10,
22,
22,
12,
5,
10,
21,
26,
19,
10,
10,
19,
28,
25,
16,
12,
17,
23,
26,
20,
12,
11,
15,
23,
23,
13,
5,
7,
13,
18,
14,
6,
-1,
1,
8,
9,
4,
-6,
-8,
-3,
3,
-2,
-11,
-15,
-13,
-8,
-8,
-16,
-20,
-20,
-17,
-13,
-20,
-26,
-27,
-25,
-21,
-25,
-29,
-30,
-28,
-28,
-31,
-32,
-29,
-28,
-30,
-33,
-33,
-28,
-26,
-28,
-31,
-33,
-32,
-25,
-20,
-27,
-30,
-28,
-22,
-17,
-19,
-24,
-24,
-17,
-14,
-12,
-14,
-15,
-12,
-7,
-4,
-4,
-5,
-6,
-3,
2,
6,
7,
3,
1,
4,
13,
16,
10,
5,
7,
16,
22,
20,
14,
11,
15,
22,
24,
19,
12,
14,
25,
25,
21,
14,
12,
19,
25,
22,
15,
11,
13,
18,
19,
13,
10,
7,
10,
11,
7,
4,
4,
4,
0,
-1,
-1,
-2,
-1,
-7,
-10,
-11,
-10,
-8,
-12,
-14,
-19,
-19,
-15,
-17,
-21,
-24,
-24,
-23,
-22,
-25,
-29,
-31,
-29,
-28,
-27,
-29,
-31,
-34,
-29,
-26,
-27,
-32,
-37,
-34,
-27,
-23,
-25,
-31,
-34,
-31,
-21,
-15,
-23,
-31,
-29,
-18,
-9,
-12,
-21,
-24,
-16,
-6,
-2,
-9,
-17,
-14,
0,
8,
3,
-7,
-8,
1,
12,
14,
5,
-3,
3,
13,
22,
19,
8,
4,
12,
21,
25,
18,
12,
12,
19,
24,
26,
19,
12,
16,
23,
25,
19,
12,
15,
17,
22,
19,
12,
7,
10,
16,
17,
13,
4,
1,
7,
10,
8,
1,
-5,
-3,
-2,
-2,
-3,
-9,
-11,
-11,
-9,
-12,
-15,
-16,
-16,
-15,
-20,
-23,
-21,
-20,
-21,
-26,
-28,
-28,
-26,
-26,
-28,
-31,
-30,
-29,
-26,
-31,
-35,
-36,
-29,
-23,
-28,
-33,
-35,
-31,
-21,
-22,
-28,
-32,
-28,
-22,
-18,
-16,
-22,
-24,
-19,
-14,
-11,
-13,
-16,
-13,
-10,
-5,
-4,
-4,
-7,
-5,
2,
7,
5,
0,
-1,
5,
12,
15,
11,
4,
6,
15,
24,
20,
10,
8,
16,
24,
25,
17,
12,
16,
23,
26,
20,
16,
16,
19,
21,
19,
14,
14,
19,
18,
13,
11,
13,
13,
11,
8,
6,
6,
7,
3,
1,
-1,
-1,
1,
-1,
-7,
-11,
-10,
-5,
-6,
-12,
-18,
-19,
-15,
-15,
-16,
-20,
-26,
-25,
-24,
-18,
-23,
-28,
-32,
-33,
-27,
-23,
-28,
-34,
-35,
-30,
-26,
-24,
-32,
-38,
-34,
-27,
-18,
-26,
-36,
-37,
-28,
-15,
-16,
-27,
-35,
-27,
-14,
-8,
-13,
-24,
-25,
-14,
-4,
-3,
-13,
-16,
-9,
1,
4,
0,
-7,
-7,
2,
11,
11,
2,
0,
5,
16,
18,
14,
11,
9,
15,
20,
23,
16,
12,
14,
19,
23,
22,
17,
13,
17,
21,
23,
19,
16,
15,
19,
22,
19,
14,
12,
15,
16,
14,
10,
7,
8,
7,
7,
5,
0,
1,
0,
0,
-3,
-6,
-6,
-7,
-8,
-12,
-15,
-12,
-11,
-15,
-20,
-25,
-23,
-18,
-18,
-21,
-29,
-30,
-26,
-22,
-23,
-30,
-36,
-32,
-24,
-25,
-31,
-36,
-35,
-27,
-25,
-29,
-33,
-35,
-30,
-25,
-23,
-28,
-33,
-30,
-23,
-17,
-18,
-24,
-26,
-23,
-15,
-10,
-12,
-17,
-19,
-12,
-5,
-1,
-6,
-9,
-7,
0,
5,
6,
0,
-2,
2,
12,
15,
7,
4,
9,
17,
19,
16,
12,
12,
17,
22,
22,
17,
15,
17,
20,
21,
20,
18,
19,
19,
18,
16,
19,
21,
18,
14,
12,
12,
17,
16,
10,
6,
6,
10,
12,
6,
-2,
-3,
2,
5,
0,
-8,
-12,
-8,
-4,
-6,
-11,
-17,
-19,
-15,
-11,
-12,
-20,
-26,
-26,
-23,
-18,
-22,
-28,
-32,
-30,
-25,
-24,
-27,
-36,
-39,
-31,
-23,
-23,
-34,
-40,
-34,
-22,
-19,
-29,
-36,
-36,
-25,
-16,
-18,
-30,
-35,
-26,
-12,
-11,
-20,
-27,
-24,
-11,
-5,
-8,
-15,
-17,
-10,
-1,
0,
-3,
-5,
-3,
4,
7,
4,
4,
3,
7,
11,
12,
12,
9,
10,
14,
19,
19,
17,
15,
16,
20,
22,
20,
18,
17,
18,
21,
21,
18,
18,
18,
17,
16,
15,
15,
17,
17,
14,
11,
8,
10,
12,
11,
3,
0,
3,
6,
5,
-4,
-8,
-4,
-1,
-2,
-11,
-15,
-14,
-8,
-8,
-13,
-23,
-24,
-19,
-11,
-16,
-26,
-33,
-31,
-22,
-19,
-25,
-33,
-35,
-30,
-25,
-25,
-29,
-36,
-35,
-31,
-26,
-28,
-33,
-36,
-30,
-25,
-23,
-28,
-32,
-29,
-24,
-20,
-17,
-23,
-27,
-24,
-14,
-10,
-14,
-20,
-17,
-12,
-5,
-2,
-8,
-10,
-7,
0,
5,
3,
0,
1,
4,
10,
9,
9,
9,
11,
13,
14,
16,
13,
16,
18,
19,
18,
18,
19,
20,
18,
18,
22,
24,
21,
16,
16,
18,
25,
23,
16,
10,
10,
17,
21,
17,
6,
3,
9,
15,
13,
4,
0,
-1,
3,
5,
0,
-7,
-11,
-8,
-4,
-2,
-11,
-19,
-19,
-12,
-9,
-14,
-23,
-28,
-25,
-20,
-17,
-19,
-30,
-34,
-30,
-20,
-20,
-28,
-39,
-36,
-27,
-24,
-26,
-36,
-39,
-32,
-24,
-22,
-31,
-37,
-32,
-21,
-18,
-24,
-32,
-32,
-21,
-14,
-16,
-21,
-25,
-20,
-12,
-9,
-12,
-16,
-13,
-7,
-4,
-4,
-5,
-3,
0,
1,
3,
4,
5,
6,
8,
10,
10,
10,
12,
13,
14,
15,
16,
16,
17,
18,
20,
20,
18,
18,
19,
20,
19,
16,
18,
20,
20,
18,
14,
14,
18,
22,
17,
9,
5,
10,
16,
18,
6,
-2,
0,
8,
11,
3,
-7,
-9,
-2,
3,
0,
-11,
-18,
-14,
-5,
-5,
-15,
-22,
-24,
-14,
-12,
-17,
-27,
-33,
-27,
-21,
-19,
-27,
-32,
-33,
-31,
-24,
-23,
-31,
-36,
-35,
-28,
-24,
-28,
-31,
-35,
-32,
-27,
-24,
-28,
-34,
-31,
-24,
-19,
-22,
-26,
-27,
-22,
-14,
-12,
-15,
-19,
-18,
-9,
-5,
-6,
-9,
-10,
-5,
-1,
0,
2,
2,
1,
3,
4,
8,
10,
11,
12,
10,
11,
14,
18,
19,
14,
12,
17,
21,
21,
18,
16,
15,
22,
26,
21,
16,
13,
19,
26,
22,
14,
8,
12,
19,
21,
16,
8,
3,
9,
15,
14,
6,
-3,
-3,
5,
7,
2,
-6,
-11,
-8,
-3,
-4,
-9,
-16,
-17,
-14,
-9,
-12,
-22,
-26,
-24,
-16,
-16,
-23,
-33,
-33,
-25,
-20,
-21,
-32,
-37,
-34,
-27,
-23,
-29,
-37,
-36,
-29,
-23,
-27,
-33,
-33,
-29,
-24,
-25,
-28,
-29,
-26,
-19,
-18,
-22,
-24,
-21,
-15,
-15,
-15,
-16,
-13,
-9,
-10,
-9,
-8,
-3,
-2,
-1,
-1,
-1,
2,
7,
9,
7,
3,
7,
11,
15,
15,
13,
11,
12,
16,
21,
22,
17,
14,
16,
19,
25,
22,
15,
16,
19,
25,
23,
16,
10,
13,
23,
25,
15,
5,
5,
13,
22,
17,
5,
-2,
3,
12,
13,
4,
-9,
-9,
0,
5,
0,
-13,
-16,
-12,
-6,
-7,
-16,
-19,
-19,
-15,
-14,
-17,
-26,
-29,
-25,
-21,
-19,
-26,
-32,
-34,
-30,
-25,
-26,
-28,
-38,
-37,
-30,
-23,
-25,
-32,
-37,
-33,
-25,
-24,
-27,
-32,
-30,
-24,
-22,
-19,
-26,
-26,
-21,
-16,
-16,
-17,
-18,
-14,
-11,
-10,
-8,
-8,
-7,
-6,
-4,
-2,
1,
2,
2,
1,
1,
6,
12,
13,
8,
5,
10,
17,
22,
17,
13,
11,
17,
24,
24,
16,
13,
15,
24,
25,
19,
14,
13,
20,
25,
21,
16,
11,
14,
18,
23,
16,
7,
4,
9,
16,
13,
7,
-1,
-1,
3,
7,
5,
-4,
-11,
-9,
-2,
0,
-9,
-16,
-16,
-12,
-9,
-14,
-24,
-24,
-21,
-18,
-19,
-26,
-31,
-28,
-24,
-20,
-27,
-34,
-34,
-29,
-24,
-27,
-32,
-34,
-31,
-28,
-30,
-31,
-31,
-31,
-28,
-28,
-28,
-30,
-27,
-19,
-22,
-26,
-26,
-20,
-17,
-15,
-16,
-20,
-17,
-12,
-8,
-9,
-12,
-11,
-5,
1,
1,
-4,
-3,
1,
7,
8,
5,
3,
4,
9,
16,
17,
11,
7,
12,
20,
25,
22,
15,
10,
17,
25,
26,
20,
11,
13,
22,
29,
22,
12,
10,
16,
25,
25,
13,
3,
9,
18,
23,
16,
1,
-2,
6,
16,
11,
0,
-8,
-5,
5,
4,
-2,
-11,
-15,
-10,
-6,
-8,
-15,
-19,
-16,
-15,
-15,
-19,
-25,
-24,
-23,
-21,
-24,
-26,
-29,
-32,
-28,
-26,
-24,
-30,
-36,
-34,
-30,
-25,
-28,
-30,
-35,
-32,
-27,
-26,
-28,
-32,
-31,
-25,
-23,
-24,
-22,
-24,
-21,
-20,
-23,
-16,
-15,
-14,
-12,
-13,
-10,
-8,
-4,
-5,
-9,
-6,
2,
5,
1,
-3,
0,
9,
15,
12,
7,
3,
10,
18,
20,
16,
7,
11,
19,
24,
22,
15,
15,
19,
24,
25,
19,
16,
15,
18,
22,
19,
17,
12,
15,
17,
18,
16,
11,
8,
9,
12,
15,
8,
-1,
-1,
5,
8,
3,
-5,
-8,
-6,
-1,
-2,
-8,
-12,
-14,
-12,
-10,
-13,
-20,
-20,
-16,
-17,
-21,
-26,
-29,
-23,
-23,
-26,
-28,
-31,
-28,
-28,
-29,
-32,
-31,
-30,
-28,
-30,
-35,
-32,
-28,
-26,
-27,
-34,
-32,
-28,
-20,
-22,
-28,
-29,
-26,
-19,
-12,
-16,
-22,
-23,
-16,
-8,
-6,
-11,
-16,
-11,
-4,
0,
1,
-5,
-6,
-1,
7,
11,
4,
0,
2,
12,
19,
17,
10,
4,
11,
20,
25,
21,
9,
8,
18,
28,
26,
16,
10,
14,
25,
29,
22,
12,
10,
18,
26,
21,
10,
4,
13,
21,
20,
10,
3,
3,
10,
15,
10,
0,
-4,
-1,
4,
3,
-3,
-9,
-10,
-8,
-7,
-9,
-12,
-15,
-16,
-17,
-16,
-16,
-20,
-24,
-24,
-23,
-23,
-24,
-27,
-29,
-27,
-27,
-28,
-30,
-31,
-32,
-30,
-28,
-30,
-32,
-33,
-31,
-29,
-27,
-28,
-28,
-28,
-28,
-28,
-23,
-20,
-21,
-24,
-27,
-21,
-15,
-13,
-12,
-19,
-18,
-11,
-3,
-3,
-10,
-11,
-6,
3,
6,
0,
-3,
0,
8,
13,
9,
3,
3,
12,
19,
17,
12,
9,
12,
19,
23,
19,
15,
14,
16,
23,
22,
20,
17,
16,
18,
20,
20,
20,
15,
14,
16,
17,
17,
11,
9,
12,
13,
13,
7,
4,
3,
5,
7,
2,
-4,
-7,
-5,
-1,
-3,
-8,
-14,
-12,
-11,
-13,
-15,
-17,
-16,
-17,
-23,
-25,
-23,
-20,
-20,
-25,
-32,
-31,
-25,
-24,
-27,
-33,
-38,
-29,
-24,
-26,
-34,
-37,
-32,
-24,
-24,
-31,
-35,
-31,
-25,
-19,
-24,
-31,
-32,
-27,
-15,
-14,
-18,
-25,
-24,
-15,
-7,
-8,
-12,
-17,
-13,
-3,
3,
1,
-7,
-9,
-1,
9,
10,
4,
-2,
1,
12,
21,
16,
5,
3,
14,
24,
22,
13,
7,
11,
25,
28,
23,
12,
9,
18,
28,
28,
17,
10,
13,
21,
25,
19,
13,
12,
15,
18,
18,
11,
6,
8,
11,
11,
5,
2,
0,
1,
3,
1,
-3,
-6,
-8,
-7,
-7,
-9,
-12,
-14,
-16,
-16,
-16,
-16,
-19,
-23,
-23,
-24,
-24,
-22,
-25,
-26,
-27,
-29,
-28,
-30,
-28,
-29,
-31,
-33,
-32,
-28,
-28,
-31,
-34,
-31,
-25,
-25,
-28,
-31,
-30,
-25,
-20,
-19,
-25,
-28,
-21,
-13,
-10,
-17,
-25,
-18,
-10,
-3,
-4,
-12,
-12,
-7,
3,
5,
-1,
-5,
-2,
5,
11,
8,
4,
5,
11,
16,
16,
14,
9,
13,
18,
21,
18,
16,
16,
17,
21,
24,
21,
19,
15,
17,
21,
23,
20,
15,
13,
16,
18,
18,
13,
12,
11,
11,
12,
9,
6,
5,
7,
6,
1,
-1,
-1,
-1,
-4,
-7,
-7,
-7,
-8,
-12,
-16,
-15,
-13,
-12,
-18,
-25,
-25,
-20,
-12,
-20,
-30,
-36,
-29,
-18,
-20,
-29,
-39,
-37,
-26,
-22,
-28,
-35,
-39,
-31,
-24,
-23,
-31,
-38,
-34,
-24,
-20,
-25,
-32,
-32,
-23,
-16,
-15,
-19,
-27,
-24,
-15,
-5,
-8,
-16,
-20,
-15,
-3,
1,
-2,
-9,
-10,
-2,
11,
9,
1,
-3,
0,
13,
17,
10,
4,
5,
15,
23,
20,
12,
9,
14,
24,
27,
18,
11,
16,
21,
26,
22,
16,
15,
18,
20,
19,
19,
15,
15,
16,
16,
13,
10,
12,
11,
9,
6,
6,
5,
3,
2,
-1,
-1,
-2,
-4,
-4,
-7,
-9,
-11,
-11,
-11,
-15,
-16,
-16,
-15,
-18,
-21,
-25,
-26,
-26,
-23,
-19,
-23,
-30,
-32,
-30,
-25,
-23,
-30,
-36,
-35,
-29,
-26,
-28,
-32,
-36,
-34,
-26,
-23,
-28,
-35,
-33,
-23,
-17,
-21,
-27,
-31,
-19,
-13,
-13,
-16,
-24,
-19,
-9,
-4,
-8,
-14,
-14,
-7,
2,
3,
0,
-3,
-1,
4,
9,
8,
5,
5,
9,
12,
13,
14,
13,
13,
15,
17,
17,
17,
17,
16,
22,
21,
21,
19,
16,
19,
21,
23,
22,
17,
13,
14,
17,
20,
15,
11,
11,
9,
11,
10,
11,
8,
3,
1,
1,
4,
2,
-2,
-8,
-8,
-4,
-2,
-6,
-15,
-18,
-14,
-9,
-11,
-21,
-28,
-24,
-14,
-13,
-22,
-35,
-33,
-25,
-16,
-19,
-32,
-39,
-35,
-24,
-20,
-29,
-38,
-38,
-30,
-22,
-24,
-32,
-36,
-31,
-24,
-21,
-26,
-30,
-31,
-26,
-16,
-15,
-23,
-28,
-25,
-14,
-8,
-10,
-15,
-21,
-14,
-3,
1,
-4,
-14,
-11,
1,
7,
6,
0,
-3,
3,
12,
13,
9,
3,
6,
17,
19,
13,
9,
13,
20,
24,
18,
15,
13,
19,
24,
21,
20,
16,
18,
21,
19,
18,
16,
20,
18,
14,
12,
13,
16,
16,
12,
7,
4,
7,
9,
9,
3,
-2,
-3,
-2,
1,
-2,
-7,
-9,
-11,
-8,
-8,
-11,
-15,
-20,
-17,
-14,
-15,
-23,
-29,
-25,
-20,
-19,
-24,
-34,
-33,
-28,
-22,
-25,
-33,
-39,
-38,
-27,
-20,
-27,
-36,
-39,
-32,
-23,
-25,
-32,
-34,
-31,
-24,
-21,
-22,
-28,
-26,
-20,
-15,
-15,
-20,
-23,
-16,
-9,
-8,
-8,
-11,
-12,
-7,
-2,
0,
0,
-3,
-3,
1,
5,
8,
9,
5,
6,
9,
13,
17,
13,
12,
13,
17,
18,
18,
18,
17,
17,
19,
20,
19,
18,
18,
18,
19,
20,
18,
18,
15,
15,
17,
17,
16,
9,
6,
12,
13,
14,
8,
-1,
0,
5,
8,
6,
-3,
-11,
-8,
2,
3,
-7,
-17,
-19,
-12,
-7,
-12,
