5-grundlagen-opAmps/data/ALL0000/A0000CH2.CSV

Memory Length,4000,
Trigger Level,0.00000e+00,
Source,CH2,
Probe,1.0X,
Vertical Units,V,
Vertical Scale,5.00000e-02,
Vertical Position,0.00000e+00,
Horizontal Units,S,
Horizontal Scale,1.00000e-07,
Horizontal Position,1.0000000e-07,
Horizontal Mode,Main,
Sampling Period,2.00000e-09,
Firmware,V1.14,
Time, ,
Mode,Fast,
Waveform Data,
26,
26,
26,
25,
23,
20,
23,
25,
27,
22,
19,
20,
22,
23,
20,
17,
17,
19,
20,
16,
12,
14,
15,
14,
9,
6,
5,
6,
6,
2,
-1,
-3,
-2,
-1,
-3,
-8,
-8,
-7,
-6,
-8,
-14,
-16,
-14,
-14,
-16,
-17,
-21,
-21,
-20,
-19,
-21,
-23,
-25,
-22,
-22,
-19,
-23,
-25,
-25,
-22,
-21,
-19,
-20,
-25,
-24,
-21,
-16,
-18,
-21,
-21,
-19,
-14,
-12,
-13,
-15,
-15,
-7,
-4,
-3,
-7,
-10,
-4,
3,
6,
1,
-3,
0,
7,
11,
8,
6,
7,
13,
19,
18,
16,
15,
17,
22,
22,
22,
19,
20,
22,
23,
25,
23,
22,
24,
24,
24,
23,
25,
24,
20,
22,
25,
24,
21,
18,
17,
20,
21,
17,
13,
13,
13,
12,
9,
8,
5,
6,
7,
5,
1,
0,
0,
0,
-2,
-5,
-7,
-7,
-8,
-12,
-15,
-16,
-13,
-14,
-19,
-21,
-20,
-19,
-19,
-19,
-25,
-24,
-19,
-19,
-22,
-27,
-27,
-23,
-21,
-21,
-27,
-29,
-25,
-21,
-22,
-24,
-25,
-24,
-19,
-16,
-19,
-20,
-19,
-15,
-13,
-12,
-12,
-13,
-11,
-10,
-7,
-5,
-4,
-4,
-4,
-1,
2,
4,
5,
5,
7,
10,
13,
14,
12,
12,
16,
18,
19,
18,
16,
18,
22,
22,
21,
20,
23,
25,
26,
25,
24,
24,
25,
27,
24,
21,
23,
23,
22,
20,
17,
19,
21,
19,
17,
15,
15,
16,
15,
13,
10,
7,
9,
9,
5,
1,
-2,
0,
2,
0,
-5,
-7,
-8,
-6,
-7,
-9,
-13,
-14,
-14,
-12,
-13,
-19,
-23,
-20,
-19,
-18,
-21,
-22,
-27,
-25,
-20,
-21,
-23,
-26,
-25,
-23,
-20,
-19,
-25,
-25,
-22,
-19,
-17,
-19,
-22,
-22,
-18,
-12,
-13,
-16,
-19,
-15,
-8,
-5,
-7,
-11,
-8,
-3,
2,
2,
-2,
-1,
1,
6,
10,
6,
5,
8,
11,
14,
14,
14,
14,
17,
19,
19,
19,
20,
21,
22,
23,
22,
24,
24,
23,
21,
24,
25,
23,
20,
19,
22,
23,
21,
18,
17,
18,
20,
19,
16,
16,
14,
12,
12,
10,
7,
7,
8,
5,
3,
1,
3,
1,
-3,
-5,
-5,
-5,
-4,
-7,
-13,
-13,
-12,
-12,
-15,
-20,
-20,
-18,
-15,
-18,
-23,
-27,
-24,
-18,
-20,
-23,
-27,
-26,
-21,
-21,
-21,
-26,
-27,
-22,
-21,
-22,
-24,
-25,
-22,
-20,
-18,
-21,
-20,
-16,
-16,
-14,
-13,
-10,
-7,
-10,
-8,
-7,
-5,
-3,
-4,
-3,
-1,
1,
4,
3,
4,
5,
10,
12,
12,
12,
13,
16,
18,
17,
17,
18,
20,
20,
19,
19,
20,
25,
24,
24,
22,
25,
28,
27,
24,
20,
24,
26,
24,
20,
18,
18,
20,
20,
18,
12,
12,
15,
18,
16,
10,
7,
8,
13,
11,
2,
0,
-1,
0,
1,
-2,
-7,
-10,
-7,
-7,
-7,
-12,
-15,
-14,
-13,
-12,
-13,
-17,
-21,
-22,
-22,
-18,
-20,
-25,
-30,
-25,
-21,
-21,
-25,
-30,
-29,
-23,
-20,
-21,
-27,
-28,
-24,
-19,
-16,
-22,
-26,
-23,
-17,
-14,
-19,
-19,
-18,
-14,
-9,
-9,
-12,
-12,
-6,
-3,
-3,
-1,
-3,
-1,
2,
4,
5,
4,
6,
7,
7,
10,
11,
12,
15,
16,
16,
18,
20,
21,
19,
20,
23,
22,
23,
23,
23,
21,
23,
22,
21,
22,
21,
22,
19,
19,
20,
20,
19,
19,
18,
17,
17,
16,
12,
12,
11,
13,
12,
7,
2,
2,
4,
5,
0,
-3,
-5,
-4,
-1,
-2,
-7,
-12,
-8,
-8,
-8,
-14,
-21,
-19,
-16,
-14,
-19,
-22,
-25,
-22,
-19,
-20,
-24,
-26,
-24,
-19,
-19,
-22,
-24,
-24,
-21,
-22,
-22,
-21,
-22,
-20,
-21,
-20,
-18,
-18,
-18,
-18,
-14,
-13,
-11,
-9,
-10,
-10,
-7,
-3,
-3,
-3,
-3,
0,
2,
4,
3,
3,
6,
9,
9,
10,
13,
14,
16,
17,
17,
19,
20,
24,
20,
20,
25,
24,
26,
22,
20,
22,
26,
27,
25,
19,
20,
24,
29,
27,
20,
18,
23,
27,
24,
18,
12,
15,
19,
18,
12,
8,
7,
11,
12,
9,
5,
3,
2,
5,
5,
0,
-5,
-5,
-5,
-5,
-7,
-10,
-13,
-14,
-13,
-12,
-13,
-16,
-21,
-20,
-16,
-14,
-20,
-22,
-22,
-21,
-18,
-21,
-25,
-29,
-26,
-21,
-20,
-24,
-30,
-26,
-21,
-18,
-19,
-22,
-21,
-19,
-16,
-14,
-17,
-19,
-16,
-13,
-9,
-13,
-13,
-10,
-7,
-5,
-5,
-3,
0,
2,
3,
3,
4,
7,
9,
10,
8,
10,
11,
13,
15,
15,
15,
17,
20,
20,
21,
20,
23,
23,
25,
25,
24,
23,
23,
23,
24,
24,
25,
24,
21,
22,
24,
21,
20,
16,
17,
19,
20,
16,
13,
13,
12,
16,
12,
7,
3,
5,
7,
6,
0,
-4,
-4,
0,
0,
-4,
-10,
-9,
-7,
-7,
-7,
-11,
-16,
-15,
-15,
-15,
-18,
-20,
-21,
-21,
-19,
-22,
-25,
-22,
-21,
-21,
-23,
-22,
-22,
-24,
-23,
-22,
-21,
-20,
-20,
-22,
-22,
-19,
-19,
-18,
-19,
-18,
-17,
-15,
-12,
-13,
-13,
-9,
-7,
-4,
-3,
-3,
-1,
-1,
-1,
3,
3,
4,
5,
5,
6,
9,
11,
13,
14,
13,
15,
19,
20,
19,
17,
19,
25,
25,
24,
20,
19,
22,
27,
27,
23,
19,
20,
26,
27,
22,
17,
17,
23,
25,
20,
17,
15,
16,
19,
18,
13,
8,
9,
11,
10,
7,
2,
1,
3,
3,
1,
0,
-2,
-6,
-6,
-4,
-4,
-9,
-14,
-14,
-13,
-13,
-15,
-18,
-21,
-20,
-18,
-17,
-21,
-25,
-25,
-23,
-18,
-22,
-27,
-28,
-24,
-21,
-23,
-26,
-28,
-26,
-22,
-21,
-25,
-26,
-22,
-19,
-19,
-19,
-20,
-16,
-12,
-12,
-15,
-13,
-9,
-7,
-7,
-7,
-8,
-5,
-1,
1,
-2,
-3,
1,
5,
7,
9,
7,
9,
13,
15,
13,
15,
16,
17,
17,
19,
19,
19,
19,
22,
23,
23,
25,
23,
23,
23,
26,
27,
25,
21,
20,
25,
25,
22,
17,
14,
18,
20,
20,
16,
12,
12,
17,
18,
12,
7,
6,
9,
9,
6,
-1,
-4,
-1,
0,
-3,
-6,
-8,
-9,
-7,
-6,
-8,
-12,
-13,
-13,
-14,
-16,
-18,
-18,
-20,
-21,
-20,
-21,
-19,
-23,
-24,
-25,
-22,
-21,
-23,
-23,
-25,
-23,
-23,
-20,
-20,
-22,
-22,
-19,
-19,
-18,
-19,
-19,
-16,
-14,
-14,
-13,
-12,
-11,
-11,
-7,
-4,
-2,
-3,
-3,
-3,
0,
4,
7,
5,
3,
6,
9,
12,
12,
9,
10,
15,
20,
20,
17,
15,
18,
25,
27,
24,
19,
19,
25,
28,
24,
19,
19,
23,
26,
25,
20,
16,
19,
23,
24,
22,
17,
17,
19,
19,
17,
14,
11,
10,
12,
11,
7,
5,
3,
1,
3,
3,
0,
-3,
-4,
-4,
-4,
-5,
-8,
-10,
-14,
-12,
-12,
-15,
-19,
-21,
-18,
-16,
-19,
-23,
-24,
-22,
-20,
-20,
-26,
-26,
-24,
-22,
-22,
-25,
-26,
-25,
-21,
-21,
-26,
-26,
-23,
-20,
-20,
-21,
-23,
-21,
-16,
-13,
-16,
-16,
-14,
-7,
-6,
-7,
-10,
-7,
-3,
0,
-3,
-3,
-2,
1,
5,
7,
7,
6,
9,
12,
14,
16,
16,
15,
16,
18,
22,
21,
21,
19,
19,
23,
25,
24,
20,
19,
24,
25,
25,
24,
19,
20,
26,
28,
24,
18,
17,
21,
25,
20,
15,
11,
13,
17,
15,
9,
7,
8,
9,
9,
5,
1,
2,
1,
2,
0,
-4,
-6,
-7,
-6,
-10,
-12,
-11,
-12,
-14,
-17,
-15,
-15,
-17,
-19,
-21,
-21,
-19,
-20,
-20,
-24,
-25,
-22,
-23,
-23,
-26,
-26,
-25,
-23,
-22,
-23,
-21,
-20,
-21,
-20,
-18,
-17,
-18,
-19,
-18,
-14,
-14,
-12,
-14,
-14,
-11,
-6,
-3,
-3,
-5,
-3,
3,
5,
4,
2,
3,
6,
11,
11,
8,
6,
10,
15,
19,
17,
14,
15,
19,
24,
23,
18,
18,
23,
25,
25,
23,
20,
20,
24,
27,
23,
21,
18,
20,
22,
22,
19,
17,
19,
19,
19,
18,
16,
13,
12,
12,
11,
10,
7,
5,
2,
3,
1,
1,
-3,
-4,
-3,
-3,
-5,
-8,
-10,
-8,
-8,
-12,
-17,
-17,
-16,
-16,
-19,
-21,
-22,
-22,
-20,
-22,
-25,
-26,
-23,
-20,
-21,
-24,
-29,
-24,
-21,
-20,
-23,
-25,
-23,
-19,
-19,
-21,
-25,
-22,
-17,
-14,
-14,
-18,
-19,
-13,
-9,
-7,
-9,
-8,
-6,
-4,
-2,
0,
-2,
-1,
1,
3,
6,
6,
5,
7,
10,
13,
16,
16,
14,
15,
17,
22,
23,
20,
18,
19,
24,
26,
23,
18,
20,
23,
26,
26,
21,
19,
24,
27,
26,
21,
17,
19,
23,
23,
18,
15,
15,
16,
16,
13,
9,
7,
9,
9,
6,
2,
2,
5,
2,
-1,
-3,
-3,
-3,
-4,
-8,
-10,
-9,
-11,
-14,
-16,
-15,
-16,
-16,
-16,
-19,
-22,
-23,
-18,
-19,
-23,
-23,
-25,
-22,
-22,
-24,
-25,
-27,
-25,
-25,
-25,
-24,
-23,
-23,
-23,
-21,
-19,
-18,
-17,
-20,
-19,
-15,
-13,
-12,
-16,
-16,
-13,
-8,
-5,
-8,
-8,
-4,
2,
5,
4,
0,
1,
7,
13,
11,
8,
5,
9,
15,
15,
13,
13,
15,
20,
23,
19,
22,
21,
23,
27,
25,
23,
25,
22,
23,
23,
22,
23,
22,
21,
21,
20,
19,
19,
17,
18,
17,
18,
15,
14,
14,
12,
12,
11,
10,
6,
5,
6,
3,
0,
-1,
0,
-1,
-4,
-7,
-7,
-6,
-6,
-9,
-13,
-13,
-12,
-12,
-15,
-19,
-22,
-20,
-15,
-19,
-23,
-25,
-25,
-19,
-18,
-23,
-26,
-27,
-21,
-19,
-22,
-27,
-27,
-23,
-18,
-16,
-22,
-25,
-21,
-16,
-14,
-17,
-19,
-19,
-15,
-10,
-8,
-10,
-10,
-7,
-4,
-1,
1,
-2,
-2,
1,
5,
7,
7,
5,
6,
9,
15,
16,
15,
13,
15,
19,
22,
23,
19,
18,
22,
27,
26,
22,
18,
21,
24,
26,
23,
19,
21,
23,
25,
24,
19,
19,
22,
25,
24,
18,
18,
18,
18,
16,
13,
11,
13,
11,
6,
5,
7,
7,
4,
-1,
-2,
-1,
0,
-1,
-4,
-8,
-8,
-7,
-8,
-11,
-15,
-17,
-15,
-13,
-17,
-22,
-22,
-21,
-20,
-22,
-21,
-23,
-22,
-23,
-21,
-22,
-24,
-23,
-24,
-26,
-22,
-23,
-22,
-25,
-26,
-23,
-21,
-19,
-20,
-23,
-19,
-14,
-12,
-13,
-14,
-14,
-10,
-5,
-6,
-9,
-9,
-3,
0,
0,
-2,
-3,
1,
6,
9,
6,
7,
9,
13,
15,
15,
14,
15,
17,
19,
17,
16,
19,
23,
19,
21,
20,
23,
24,
24,
24,
24,
24,
25,
25,
23,
20,
20,
18,
18,
17,
15,
17,
17,
15,
14,
12,
13,
11,
10,
9,
9,
8,
4,
1,
-1,
0,
0,
-4,
-6,
-8,
-7,
-4,
-7,
-12,
-16,
-13,
-9,
-10,
-17,
-23,
-22,
-18,
-16,
-22,
-26,
-27,
-24,
-20,
-22,
-28,
-30,
-27,
-22,
-21,
-25,
-29,
-29,
-22,
-18,
-20,
-24,
-25,
-22,
-19,
-16,
-18,
-21,
-20,
-16,
-11,
-11,
-13,
-12,
-9,
-6,
-2,
-1,
-3,
-3,
0,
3,
6,
5,
2,
5,
9,
11,
11,
10,
11,
13,
17,
19,
18,
16,
18,
24,
24,
23,
23,
21,
23,
24,
25,
21,
23,
22,
24,
24,
20,
19,
20,
25,
21,
19,
19,
19,
20,
17,
15,
14,
15,
16,
12,
7,
6,
7,
6,
5,
1,
-1,
0,
3,
0,
-5,
-7,
-5,
-6,
-8,
-11,
-14,
-14,
-15,
-15,
-17,
-18,
-19,
-21,
-20,
-21,
-21,
-23,
-22,
-22,
-22,
-20,
-21,
-24,
-25,
-24,
-19,
-20,
-21,
-24,
-25,
-20,
-16,
-18,
-22,
-22,
-18,
-15,
-11,
-13,
-16,
-13,
-7,
-5,
-6,
-7,
-6,
-3,
0,
-1,
-1,
0,
4,
5,
5,
6,
9,
12,
14,
14,
14,
15,
18,
19,
18,
19,
21,
22,
22,
23,
20,
20,
24,
25,
25,
22,
21,
24,
25,
25,
23,
21,
23,
23,
21,
21,
22,
18,
17,
17,
18,
15,
12,
9,
10,
12,
12,
9,
4,
3,
4,
7,
5,
-1,
-6,
-6,
0,
-1,
-8,
-15,
-16,
-10,
-8,
-12,
-17,
-22,
-17,
-14,
-14,
-20,
-25,
-23,
-19,
-16,
-22,
-30,
-29,
-24,
-21,
-23,
-25,
-27,
-27,
-23,
-19,
-21,
-20,
-22,
-20,
-16,
-16,
-17,
-18,
-18,
-15,
-13,
-9,
-11,
-14,
-12,
-7,
-3,
-4,
-4,
-3,
0,
6,
6,
5,
3,
5,
10,
12,
11,
9,
10,
13,
16,
17,
16,
19,
20,
21,
25,
20,
23,
24,
25,
26,
22,
23,
25,
25,
23,
21,
21,
24,
24,
21,
17,
19,
22,
22,
20,
16,
15,
16,
16,
16,
11,
9,
8,
9,
9,
3,
-1,
-1,
0,
1,
-1,
-4,
-6,
-6,
-7,
-6,
-8,
-12,
-14,
-14,
-15,
-15,
-17,
-19,
-22,
-20,
-21,
-19,
-23,
-24,
-23,
-23,
-19,
-22,
-25,
-27,
-25,
-21,
-20,
-22,
-25,
-24,
-20,
-18,
-19,
-22,
-23,
-19,
-14,
-14,
-18,
-17,
-13,
-10,
-9,
-8,
-6,
-4,
-3,
-2,
-3,
-1,
1,
4,
3,
2,
5,
8,
10,
10,
8,
11,
16,
19,
17,
16,
16,
19,
24,
25,
22,
19,
21,
23,
24,
22,
22,
24,
23,
23,
24,
20,
22,
20,
21,
25,
23,
20,
16,
17,
19,
17,
16,
13,
8,
9,
12,
13,
7,
1,
0,
5,
9,
3,
-5,
-5,
-3,
2,
-4,
-8,
-14,
-15,
-9,
-8,
-15,
-21,
-21,
-17,
-15,
-19,
-25,
-26,
-21,
-18,
-19,
-24,
-27,
-24,
-25,
-20,
-23,
-26,
-26,
-25,
-23,
-25,
-23,
-23,
-25,
-23,
-21,
-19,
-19,
-19,
-19,
-16,
-10,
-10,
-12,
-13,
-10,
-7,
-5,
-5,
-7,
-6,
-1,
2,
1,
1,
3,
7,
8,
10,
9,
9,
15,
16,
15,
16,
16,
19,
19,
18,
16,
17,
23,
27,
24,
20,
23,
25,
28,
26,
24,
22,
23,
25,
25,
20,
17,
18,
20,
22,
19,
15,
14,
16,
17,
16,
12,
11,
10,
10,
9,
7,
3,
2,
1,
0,
2,
-1,
-6,
-6,
-6,
-6,
-7,
-8,
-13,
-14,
-12,
-12,
-13,
-19,
-21,
-18,
-17,
-17,
-23,
-23,
-24,
-22,
-20,
-22,
-24,
-24,
-22,
-19,
-20,
-23,
-23,
-21,
-19,
-20,
-20,
-21,
-20,
-17,
-17,
-16,
-15,
-13,
-13,
-12,
-12,
-10,
-5,
-4,
-3,
-3,
-3,
1,
4,
3,
1,
3,
5,
10,
11,
9,
8,
13,
17,
18,
18,
17,
16,
19,
23,
22,
21,
20,
23,
24,
26,
25,
22,
21,
25,
27,
25,
22,
20,
20,
23,
25,
26,
20,
18,
18,
20,
24,
19,
12,
9,
14,
16,
13,
5,
2,
3,
8,
9,
2,
-4,
-4,
1,
0,
-2,
-9,
-12,
-7,
-5,
-10,
-16,
-18,
-17,
-14,
-15,
-19,
-22,
-22,
-19,
-21,
-22,
-23,
-23,
-22,
-21,
-23,
-25,
-23,
-23,
-23,
-23,
-22,
-21,
-23,
-23,
-21,
-21,
-18,
-19,
-18,
-17,
-16,
-14,
-12,
-12,
-12,
-10,
-6,
-6,
-6,
-5,
-2,
0,
-1,
-2,
1,
4,
7,
7,
6,
8,
13,
15,
15,
13,
14,
18,
20,
21,
18,
16,
21,
24,
23,
20,
19,
23,
25,
27,
26,
22,
22,
27,
28,
25,
22,
18,
19,
23,
20,
16,
16,
16,
16,
17,
16,
15,
11,
9,
10,
10,
8,
6,
2,
-1,
1,
-1,
-3,
-5,
-7,
-7,
-5,
-5,
-10,
-13,
-13,
-10,
-12,
-16,
-17,
-20,
-19,
-18,
-19,
-22,
-24,
-23,
-21,
-22,
-25,
-25,
-25,
-21,
-23,
-27,
-24,
-21,
-22,
-23,
-22,
-20,
-19,
-18,
-20,
-20,
-17,
-15,
-13,
-14,
-15,
-14,
-10,
-5,
-6,
-8,
-7,
-2,
3,
3,
2,
0,
3,
8,
10,
10,
6,
7,
11,
14,
16,
14,
14,
16,
19,
22,
23,
22,
19,
22,
26,
26,
24,
20,
21,
23,
24,
27,
26,
20,
19,
24,
25,
23,
20,
17,
19,
23,
22,
16,
12,
14,
15,
17,
12,
6,
4,
7,
10,
6,
0,
-4,
-1,
2,
1,
-5,
-7,
-8,
-5,
-7,
-10,
-12,
-14,
-14,
-15,
-16,
-20,
-21,
-18,
-19,
-21,
-23,
-22,
-24,
-21,
-22,
-24,
-22,
-23,
-23,
-23,
-22,
-22,
-23,
-21,
-21,
-21,
-22,
-21,
-20,
-19,
-18,
-15,
-16,
-15,
-13,
-10,
-7,
-8,
-8,
-7,
-4,
0,
-2,
-3,
-3,
3,
5,
7,
3,
2,
9,
14,
16,
12,
9,
13,
19,
22,
20,
17,
16,
22,
26,
24,
23,
19,
20,
27,
26,
22,
19,
21,
25,
24,
25,
23,
23,
22,
22,
23,
20,
20,
16,
16,
17,
16,
12,
10,
8,
9,
11,
10,
6,
2,
3,
3,
3,
0,
-4,
-5,
-4,
-3,
-9,
-12,
-13,
-12,
-12,
-13,
-15,
-18,
-18,
-18,
-17,
-19,
-22,
-19,
-20,
-21,
-23,
-25,
-24,
-23,
-24,
-27,
-25,
-23,
-22,
-23,
-24,
-25,
-20,
-15,
-17,
-21,
-22,
-17,
-13,
-13,
-17,
-17,
-14,
-10,
-7,
-9,
-10,
-8,
-4,
0,
2,
0,
-1,
3,
7,
10,
7,
9,
9,
10,
13,
15,
15,
12,
14,
18,
22,
23,
19,
20,
21,
24,
27,
25,
23,
21,
23,
28,
27,
22,
20,
21,
24,
24,
19,
15,
18,
22,
23,
21,
15,
13,
15,
17,
16,
11,
7,
9,
10,
6,
3,
1,
0,
2,
1,
-3,
-6,
-6,
-4,
-5,
-8,
-12,
-12,
-11,
-9,
-16,
-19,
-19,
-17,
-19,
-20,
-21,
-24,
-22,
-23,
-22,
-22,
-24,
-24,
-22,
-22,
-22,
-23,
-25,
-21,
-21,
-22,
-19,
-21,
-22,
-23,
-18,
-16,
-16,
-20,
-18,
-13,
-10,
-10,
-12,
-12,
-7,
-1,
0,
-4,
-6,
-2,
4,
6,
5,
0,
2,
8,
13,
12,
9,
10,
12,
19,
22,
18,
15,
17,
23,
26,
22,
19,
20,
23,
24,
24,
24,
23,
22,
24,
24,
23,
21,
20,
21,
22,
21,
21,
19,
17,
18,
17,
18,
15,
10,
8,
9,
11,
10,
5,
2,
2,
4,
3,
2,
-3,
-4,
-2,
-3,
-7,
-11,
-12,
-12,
-12,
-15,
-18,
-16,
-16,
-18,
-21,
-22,
-19,
-18,
-21,
-24,
-24,
-24,
-20,
-20,
-26,
-25,
-23,
-20,
-20,
-26,
-27,
-25,
-21,
-18,
-22,
-24,
-22,
-17,
-15,
-12,
-16,
-16,
-12,
-9,
-7,
-9,
-10,
-8,
-5,
-4,
-2,
-2,
-2,
0,
2,
6,
8,
7,
7,
10,
15,
16,
15,
13,
15,
17,
19,
21,
17,
16,
18,
25,
25,
23,
19,
20,
27,
26,
26,
23,
23,
24,
25,
26,
19,
16,
19,
23,
19,
16,
14,
15,
18,
17,
12,
10,
12,
12,
10,
6,
4,
3,
2,
2,
-2,
-5,
-5,
-2,
-5,
-8,
-12,
-10,
-9,
-9,
-11,
-15,
-16,
-17,
-17,
-18,
-20,
-22,
-24,
-22,
-20,
-23,
-25,
-25,
-25,
-22,
-22,
-23,
-25,
-26,
-23,
-19,
-19,
-20,
-23,
-23,
-19,
-16,
-19,
-19,
-21,
-16,
-11,
-10,
-12,
-15,
-13,
-5,
-1,
-3,
-7,
-5,
-1,
6,
5,
3,
0,
4,
10,
13,
9,
8,
9,
15,
19,
18,
17,
16,
19,
22,
25,
23,
22,
22,
23,
25,
25,
23,
23,
23,
23,
24,
25,
24,
23,
21,
20,
24,
23,
19,
18,
19,
18,
18,
15,
14,
11,
10,
12,
7,
6,
4,
4,
5,
3,
0,
-2,
-1,
-2,
-5,
-7,
-7,
-7,
-9,
-12,
-13,
-14,
-14,
-16,
-20,
-21,
-20,
-19,
-18,
-21,
-26,
-23,
-20,
-19,
-22,
-28,
-26,
-22,
-20,
-22,
-25,
-27,
-22,
-20,
-21,
-22,
-24,
-22,
-17,
-16,
-16,
-19,
-17,
-12,
-11,
-11,
-8,
-6,
-8,
-5,
-4,
-3,
-1,
-3,
-1,
1,
4,
6,
7,
7,
9,
13,
15,
16,
14,
15,
19,
22,
21,
19,
18,
20,
22,
23,
21,
20,
23,
25,
25,
23,
21,
25,
25,
25,
22,
20,
24,
24,
22,
17,
16,
18,
18,
17,
14,
8,
11,
13,
13,
7,
4,
3,
6,
8,
3,
-2,
-2,
-1,
0,
-4,
-8,
-10,
-12,
-9,
-9,
-14,
-17,
-18,
-16,
-15,
-16,
-21,
-21,
-20,
-20,
-18,
-21,
-23,
-25,
-29,
-21,
-19,
-23,
-27,
-29,
-24,
-19,
-19,
-22,
-25,
-22,
-15,
-13,
-17,
-21,
-21,
-16,
-9,
-11,
-17,
-17,
-13,
-7,
-4,
-5,
-8,
-5,
1,
5,
5,
2,
2,
7,
10,
11,
9,
9,
11,
12,
14,
16,
16,
17,
18,
19,
22,
22,
23,
23,
24,
24,
25,
25,
24,
22,
23,
24,
24,
23,
20,
23,
22,
22,
21,
19,
19,
18,
17,
19,
16,
16,
13,
12,
11,
10,
9,
8,
5,
2,
1,
1,
2,
1,
-5,
-6,
-5,
-5,
-5,
-8,
-13,
-12,
-10,
-12,
-16,
-22,
-21,
-18,
-16,
-19,
-26,
-26,
-23,
-19,
-20,
-25,
-26,
-25,
-21,
-19,
-22,
-25,
-25,
-21,
-20,
-22,
-23,
-23,
-21,
-18,
-17,
-18,
-17,
-16,
-15,
-13,
-9,
-9,
-8,
-7,
-6,
-4,
-3,
0,
-1,
-1,
1,
5,
5,
6,
7,
7,
11,
14,
13,
13,
15,
18,
17,
19,
19,
20,
24,
24,
22,
20,
24,
24,
24,
22,
21,
23,
25,
25,
23,
19,
23,
25,
25,
23,
17,
18,
22,
24,
17,
10,
9,
15,
16,
12,
5,
5,
7,
9,
7,
2,
-2,
0,
1,
1,
-2,
-7,
-11,
-8,
-8,
-11,
-13,
-15,
-16,
-16,
-15,
-14,
-19,
-22,
-22,
-20,
-17,
-19,
-25,
-27,
-25,
-20,
-22,
-24,
-30,
-29,
-22,
-18,
-21,
-26,
-26,
-22,
-16,
-14,
-20,
-21,
-19,
-12,
-12,
-15,
-16,
-16,
-11,
-8,
-7,
-9,
-9,
-4,
-1,
0,
1,
3,
3,
6,
8,
8,
10,
10,
11,
13,
12,
15,
15,
16,
18,
19,
20,
24,
23,
21,
22,
25,
25,
24,
25,
24,
24,
23,
25,
24,
22,
23,
21,
20,
20,
20,
19,
19,
17,
16,
15,
18,
16,
11,
9,
11,
11,
9,
5,
1,
1,
3,
2,
-1,
-5,
-7,
-4,
-2,
-5,
-11,
-14,
-11,
-7,
-12,
-18,
-21,
-20,
-17,
-17,
-21,
-25,
-24,
-22,
-22,
-22,
-25,
-27,
-24,
-21,
-21,
-23,
-23,
-21,
-22,
-22,
-22,
-21,
-20,
-20,
-19,
-17,
-17,
-17,
-16,
-16,
-14,
-12,
-9,
-7,
-8,
-7,
-4,
-1,
-1,
-2,
-1,
1,
4,
4,
6,
5,
6,
9,
9,
11,
15,
15,
17,
18,
18,
20,
21,
23,
21,
20,
24,
25,
26,
22,
20,
22,
25,
27,
25,
19,
19,
25,
26,
24,
19,
17,
21,
24,
22,
15,
11,
14,
17,
17,
13,
5,
4,
7,
8,
6,
1,
-1,
1,
2,
0,
-3,
-6,
-8,
-6,
-8,
-7,
-11,
-15,
-17,
-15,
-13,
-14,
-21,
-23,
-23,
-18,
-16,
-20,
-25,
-26,
-20,
-19,
-19,
-24,
-28,
-25,
-20,
-19,
-23,
-26,
-24,
-20,
-18,
-19,
-22,
-22,
-16,
-13,
-14,
-16,
-16,
-10,
-9,
-8,
-9,
-8,
-5,
-4,
-5,
-3,
-2,
0,
2,
3,
5,
6,
10,
12,
11,
13,
14,
16,
18,
18,
17,
19,
19,
21,
20,
23,
23,
22,
25,
24,
24,
24,
25,
25,
24,
25,
27,
25,
22,
20,
20,
24,
23,
18,
15,
16,
20,
20,
15,
12,
10,
14,
15,
13,
5,
2,
5,
5,
3,
-2,
-6,
-7,
-2,
-3,
-9,
-11,
-13,
-8,
-9,
-10,
-15,
-17,
-15,
-15,
-16,
-20,
-23,
-21,
-21,
-21,
-22,
-25,
-25,
-25,
-23,
-23,
-22,
-21,
-24,
-24,
-22,
-21,
-19,
-20,
-20,
-21,
-18,
-17,
-16,
-18,
-17,
-14,
-13,
-12,
-12,
-11,
-7,
-6,
-4,
-1,
0,
1,
0,
2,
3,
4,
7,
8,
7,
9,
11,
14,
15,
14,
14,
17,
21,
22,
20,
19,
20,
24,
28,
24,
22,
20,
25,
28,
27,
21,
17,
21,
24,
26,
20,
17,
17,
22,
25,
22,
16,
13,
16,
18,
18,
12,
7,
8,
8,
7,
5,
3,
0,
1,
1,
2,
0,
-5,
-6,
-5,
-4,
-6,
-11,
-14,
-15,
-14,
-13,
-15,
-19,
-22,
-21,
-17,
-17,
-23,
-27,
-25,
-21,
-19,
-22,
-29,
-27,
-22,
-21,
-22,
-25,
-26,
-23,
-19,
-20,
-23,
-23,
-19,
-16,
-16,
-19,
-16,
-14,
-10,
-9,
-10,
-9,
-7,
-5,
-4,
-4,
-4,
-4,
2,
2,
1,
1,
3,
8,
10,
10,
10,
12,
15,
17,
17,
17,
19,
18,
19,
20,
20,
20,
21,
22,
23,
25,
25,
23,
21,
23,
26,
27,
24,
21,
20,
23,
26,
25,
18,
16,
18,
20,
20,
15,
9,
9,
14,
13,
8,
2,
3,
6,
7,
3,
-1,
-3,
-2,
1,
-3,
-7,
-11,
-11,
-10,
-9,
-14,
-16,
-16,
-16,
-17,
-20,
-17,
-18,
-20,
-21,
-21,
-21,
-20,
-22,
-24,
-26,
-23,
-23,
-23,
-25,
-26,
-25,
-21,
-19,
-21,
-22,
-19,
-17,
-17,
-18,
-16,
-17,
-16,
-15,
-14,
-12,
-12,
-11,
-9,
-6,
-3,
-1,
0,
0,
0,
2,
7,
9,
6,
5,
8,
12,
15,
12,
9,
11,
17,
23,
23,
18,
16,
19,
26,
27,
23,
