2-diodenkennlinien/data/ALL0023/A0023CH1.CSV

Memory Length,4000,
Trigger Level,6.80000e+00,
Source,CH1,
Probe,1.0X,
Vertical Units,V,
Vertical Scale,5.00000e+00,
Vertical Position,2.00000e+00,
Horizontal Units,S,
Horizontal Scale,1.00000e-02,
Horizontal Position,4.0000000e-04,
Horizontal Mode,Main,
Sampling Period,4.00000e-05,
Firmware,V1.14,
Time, ,
Mode,Fast,
Waveform Data,
39,
39,
39,
40,
40,
39,
39,
40,
40,
39,
39,
40,
40,
39,
39,
40,
40,
39,
39,
39,
39,
40,
40,
40,
40,
39,
39,
40,
40,
41,
41,
39,
39,
39,
39,
39,
39,
40,
40,
41,
41,
40,
40,
40,
40,
41,
41,
40,
40,
41,
41,
39,
39,
40,
40,
41,
41,
40,
40,
39,
39,
41,
41,
41,
41,
39,
39,
39,
39,
39,
39,
40,
40,
41,
41,
40,
40,
39,
39,
41,
41,
41,
41,
39,
39,
39,
39,
39,
39,
40,
40,
40,
40,
41,
41,
40,
40,
40,
40,
39,
39,
40,
40,
40,
40,
40,
40,
39,
39,
41,
41,
40,
40,
40,
40,
41,
41,
40,
40,
40,
40,
40,
40,
40,
40,
39,
39,
41,
41,
39,
39,
39,
39,
41,
41,
39,
39,
40,
40,
39,
39,
40,
40,
40,
40,
39,
39,
39,
39,
40,
40,
39,
39,
40,
40,
40,
40,
40,
40,
40,
40,
40,
40,
39,
39,
39,
39,
39,
39,
39,
39,
39,
39,
39,
39,
39,
39,
39,
39,
39,
39,
39,
39,
40,
40,
39,
39,
39,
39,
40,
40,
39,
39,
40,
40,
40,
40,
38,
38,
41,
41,
40,
40,
38,
38,
39,
39,
39,
39,
39,
39,
40,
40,
39,
39,
39,
39,
39,
39,
39,
39,
39,
39,
38,
38,
39,
39,
38,
38,
38,
38,
39,
39,
39,
39,
39,
39,
38,
38,
38,
38,
39,
39,
38,
38,
39,
39,
38,
38,
38,
38,
38,
38,
38,
38,
38,
38,
37,
37,
37,
37,
36,
36,
37,
37,
35,
35,
37,
37,
35,
35,
35,
35,
35,
35,
35,
35,
35,
35,
35,
35,
35,
35,
35,
35,
35,
35,
33,
33,
35,
35,
34,
34,
34,
34,
34,
34,
34,
34,
34,
34,
33,
33,
33,
33,
32,
32,
33,
33,
33,
33,
32,
32,
33,
33,
33,
33,
32,
32,
32,
32,
31,
31,
30,
30,
31,
31,
31,
31,
29,
29,
31,
31,
30,
30,
31,
31,
30,
30,
29,
29,
30,
30,
29,
29,
29,
29,
29,
29,
30,
30,
29,
29,
29,
29,
29,
29,
28,
28,
27,
27,
28,
28,
29,
29,
28,
28,
28,
28,
27,
27,
28,
28,
28,
28,
28,
28,
29,
29,
27,
27,
27,
27,
27,
27,
25,
25,
25,
25,
26,
26,
26,
26,
26,
26,
26,
26,
25,
25,
25,
25,
25,
25,
25,
25,
24,
24,
24,
24,
24,
24,
24,
24,
24,
24,
24,
24,
24,
24,
23,
23,
23,
23,
23,
23,
23,
23,
24,
24,
23,
23,
22,
22,
23,
23,
22,
22,
23,
23,
23,
23,
22,
22,
22,
22,
21,
21,
23,
23,
21,
21,
22,
22,
22,
22,
21,
21,
21,
21,
22,
22,
21,
21,
21,
21,
21,
21,
21,
21,
22,
22,
23,
23,
24,
24,
23,
23,
26,
26,
26,
26,
27,
27,
28,
28,
29,
29,
31,
31,
31,
31,
33,
33,
35,
35,
37,
37,
36,
36,
38,
38,
39,
39,
39,
39,
39,
39,
39,
39,
40,
40,
39,
39,
39,
39,
39,
39,
39,
39,
39,
39,
41,
41,
40,
40,
40,
40,
40,
40,
40,
40,
41,
41,
40,
40,
40,
40,
40,
40,
40,
40,
40,
40,
39,
39,
41,
41,
41,
41,
40,
40,
39,
39,
40,
40,
39,
39,
40,
40,
40,
40,
40,
40,
38,
38,
40,
40,
39,
39,
41,
41,
40,
40,
41,
41,
40,
40,
41,
41,
40,
40,
41,
41,
39,
39,
40,
40,
39,
39,
40,
40,
38,
38,
39,
39,
41,
41,
39,
39,
40,
40,
39,
39,
40,
40,
40,
40,
39,
39,
40,
40,
39,
39,
41,
41,
40,
40,
41,
41,
40,
40,
41,
41,
40,
40,
39,
39,
41,
41,
40,
40,
40,
40,
40,
40,
40,
40,
40,
40,
40,
40,
41,
41,
39,
39,
40,
40,
39,
39,
40,
40,
40,
40,
40,
40,
40,
40,
41,
41,
40,
40,
39,
39,
39,
39,
41,
41,
39,
39,
39,
39,
39,
39,
40,
40,
40,
40,
39,
39,
40,
40,
41,
41,
39,
39,
40,
40,
40,
40,
40,
40,
40,
40,
40,
40,
39,
39,
39,
39,
39,
39,
39,
39,
39,
39,
39,
39,
39,
39,
40,
40,
40,
40,
39,
39,
39,
39,
39,
39,
39,
39,
39,
39,
38,
38,
39,
39,
39,
39,
39,
39,
39,
39,
39,
39,
39,
39,
39,
39,
37,
37,
39,
39,
39,
39,
38,
38,
38,
38,
38,
38,
37,
37,
39,
39,
37,
37,
37,
37,
37,
37,
37,
37,
37,
37,
37,
37,
37,
37,
36,
36,
36,
36,
36,
36,
34,
34,
36,
36,
35,
35,
35,
35,
34,
34,
33,
33,
34,
34,
33,
33,
34,
34,
33,
33,
33,
33,
33,
33,
33,
33,
34,
34,
33,
33,
33,
33,
33,
33,
33,
33,
32,
32,
32,
32,
31,
31,
32,
32,
32,
32,
31,
31,
31,
31,
30,
30,
31,
31,
30,
30,
30,
30,
29,
29,
31,
31,
30,
30,
30,
30,
30,
30,
29,
29,
30,
30,
29,
29,
29,
29,
29,
29,
28,
28,
29,
29,
28,
28,
28,
28,
29,
29,
29,
29,
28,
28,
27,
27,
27,
27,
28,
28,
27,
27,
27,
27,
27,
27,
26,
26,
27,
27,
25,
25,
26,
26,
27,
27,
25,
25,
25,
25,
25,
25,
25,
25,
26,
26,
25,
25,
25,
25,
26,
26,
25,
25,
25,
25,
25,
25,
24,
24,
23,
23,
25,
25,
23,
23,
23,
23,
24,
24,
23,
23,
25,
25,
23,
23,
23,
23,
22,
22,
23,
23,
23,
23,
23,
23,
22,
22,
22,
22,
23,
23,
21,
21,
22,
22,
21,
21,
21,
21,
21,
21,
21,
21,
21,
21,
21,
21,
21,
21,
21,
21,
21,
21,
22,
22,
23,
23,
23,
23,
25,
25,
25,
25,
25,
25,
27,
27,
27,
27,
28,
28,
29,
29,
30,
30,
33,
33,
33,
33,
34,
34,
35,
35,
37,
37,
39,
39,
39,
39,
39,
39,
40,
40,
39,
39,
39,
39,
39,
39,
39,
39,
41,
41,
39,
39,
39,
39,
41,
41,
39,
39,
39,
39,
40,
40,
41,
41,
40,
40,
40,
40,
39,
39,
40,
40,
40,
40,
41,
41,
41,
41,
40,
40,
40,
40,
40,
40,
40,
40,
39,
39,
40,
40,
39,
39,
40,
40,
40,
40,
40,
40,
40,
40,
40,
40,
40,
40,
40,
40,
41,
41,
40,
40,
41,
41,
40,
40,
41,
41,
39,
39,
39,
39,
40,
40,
40,
40,
41,
41,
39,
39,
41,
41,
39,
39,
40,
40,
41,
41,
40,
40,
40,
40,
39,
39,
41,
41,
40,
40,
39,
39,
40,
40,
39,
39,
41,
41,
40,
40,
40,
40,
41,
41,
40,
40,
41,
41,
40,
40,
39,
39,
39,
39,
40,
40,
41,
41,
40,
40,
40,
40,
40,
40,
40,
40,
40,
40,
39,
39,
39,
39,
40,
40,
40,
40,
40,
40,
41,
41,
40,
40,
39,
39,
39,
39,
40,
40,
40,
40,
39,
39,
39,
39,
39,
39,
40,
40,
39,
39,
39,
39,
39,
39,
39,
39,
40,
40,
39,
39,
39,
39,
40,
40,
39,
39,
39,
39,
40,
40,
41,
41,
39,
39,
39,
39,
40,
40,
40,
40,
39,
39,
39,
39,
39,
39,
39,
39,
39,
39,
39,
39,
38,
38,
40,
40,
39,
39,
39,
39,
39,
39,
38,
38,
39,
39,
38,
38,
39,
39,
39,
39,
38,
38,
39,
39,
37,
37,
38,
38,
38,
38,
37,
37,
37,
37,
37,
37,
37,
37,
36,
36,
36,
36,
36,
36,
37,
37,
37,
37,
36,
36,
35,
35,
35,
35,
35,
35,
34,
34,
34,
34,
35,
35,
34,
34,
34,
34,
34,
34,
34,
34,
33,
33,
33,
33,
33,
33,
33,
33,
33,
33,
33,
33,
33,
33,
32,
32,
33,
33,
31,
31,
31,
31,
32,
32,
32,
32,
31,
31,
32,
32,
31,
31,
31,
31,
31,
31,
30,
30,
31,
31,
31,
31,
30,
30,
30,
30,
29,
29,
29,
29,
28,
28,
29,
29,
28,
28,
29,
29,
29,
29,
29,
29,
28,
28,
29,
29,
29,
29,
28,
28,
28,
28,
27,
27,
28,
28,
27,
27,
27,
27,
28,
28,
27,
27,
27,
27,
27,
27,
27,
27,
27,
27,
27,
27,
26,
26,
25,
25,
25,
25,
26,
26,
25,
25,
25,
25,
25,
25,
25,
25,
25,
25,
25,
25,
25,
25,
25,
25,
25,
25,
25,
25,
25,
25,
24,
24,
24,
24,
24,
24,
23,
23,
23,
23,
24,
24,
23,
23,
23,
23,
22,
22,
22,
22,
22,
22,
22,
22,
23,
23,
23,
23,
22,
22,
22,
22,
21,
21,
22,
22,
21,
21,
21,
21,
21,
21,
21,
21,
22,
22,
21,
21,
21,
21,
22,
22,
23,
23,
24,
24,
25,
25,
25,
25,
27,
27,
27,
27,
28,
28,
29,
29,
30,
30,
32,
32,
33,
33,
34,
34,
36,
36,
36,
36,
38,
38,
38,
38,
39,
39,
39,
39,
38,
38,
39,
39,
39,
39,
40,
40,
40,
40,
39,
39,
39,
39,
40,
40,
41,
41,
40,
40,
40,
40,
40,
40,
40,
40,
40,
40,
40,
40,
39,
39,
39,
39,
40,
40,
39,
39,
39,
39,
40,
40,
39,
39,
39,
39,
41,
41,
40,
40,
39,
39,
39,
39,
39,
39,
39,
39,
39,
39,
40,
40,
40,
40,
40,
40,
40,
40,
39,
39,
39,
39,
39,
39,
41,
41,
40,
40,
40,
40,
40,
40,
39,
39,
40,
40,
39,
39,
39,
39,
41,
41,
39,
39,
40,
40,
39,
39,
41,
41,
41,
41,
41,
41,
40,
40,
41,
41,
41,
41,
40,
40,
40,
40,
40,
40,
39,
39,
39,
39,
41,
41,
41,
41,
39,
39,
40,
40,
41,
41,
40,
40,
40,
40,
41,
41,
40,
40,
40,
40,
40,
40,
39,
39,
40,
40,
40,
40,
39,
39,
39,
39,
41,
41,
39,
39,
39,
39,
40,
40,
39,
39,
40,
40,
40,
40,
39,
39,
39,
39,
40,
40,
40,
40,
40,
40,
40,
40,
39,
39,
39,
39,
40,
40,
39,
39,
39,
39,
40,
40,
40,
40,
40,
40,
39,
39,
39,
39,
40,
40,
40,
40,
39,
39,
39,
39,
40,
40,
38,
38,
39,
39,
39,
39,
39,
39,
39,
39,
39,
39,
38,
38,
38,
38,
38,
38,
39,
39,
38,
38,
39,
39,
39,
39,
38,
38,
38,
38,
37,
37,
38,
38,
38,
38,
37,
37,
37,
37,
37,
37,
37,
37,
36,
36,
37,
37,
36,
36,
37,
37,
36,
36,
35,
35,
35,
35,
36,
36,
35,
35,
36,
36,
35,
35,
35,
35,
35,
35,
35,
35,
35,
35,
34,
34,
34,
34,
33,
33,
33,
33,
33,
33,
33,
33,
33,
33,
33,
33,
33,
33,
33,
33,
33,
33,
33,
33,
32,
32,
32,
32,
32,
32,
32,
32,
31,
31,
33,
33,
31,
31,
31,
31,
31,
31,
31,
31,
31,
31,
30,
30,
30,
30,
30,
30,
29,
29,
30,
30,
29,
29,
29,
29,
29,
29,
29,
29,
28,
28,
28,
28,
29,
29,
29,
29,
27,
27,
27,
27,
28,
28,
26,
26,
28,
28,
27,
27,
27,
27,
27,
27,
27,
27,
27,
27,
26,
26,
27,
27,
26,
26,
25,
25,
25,
25,
27,
27,
25,
25,
26,
26,
25,
25,
26,
26,
25,
25,
25,
25,
23,
23,
25,
25,
25,
25,
25,
25,
24,
24,
24,
24,
23,
23,
23,
23,
23,
23,
24,
24,
23,
23,
23,
23,
24,
24,
23,
23,
22,
22,
23,
23,
22,
22,
23,
23,
22,
22,
22,
22,
22,
22,
21,
21,
22,
22,
21,
21,
21,
21,
21,
21,
22,
22,
22,
22,
21,
21,
21,
21,
21,
21,
21,
21,
21,
21,
23,
23,
22,
22,
25,
25,
25,
25,
25,
25,
27,
27,
28,
28,
29,
29,
31,
31,
33,
33,
33,
33,
34,
34,
36,
36,
37,
37,
38,
38,
39,
39,
38,
38,
40,
40,
39,
39,
39,
39,
39,
39,
39,
39,
41,
41,
40,
40,
40,
40,
41,
41,
40,
40,
40,
40,
40,
40,
39,
39,
40,
40,
40,
40,
39,
39,
40,
40,
39,
39,
40,
40,
39,
39,
41,
41,
39,
39,
40,
40,
41,
41,
41,
41,
40,
40,
40,
40,
40,
40,
40,
40,
40,
40,
40,
40,
40,
40,
41,
41,
40,
40,
39,
39,
41,
41,
41,
41,
40,
40,
41,
41,
41,
41,
41,
41,
40,
40,
40,
40,
41,
41,
40,
40,
39,
39,
40,
40,
41,
41,
40,
40,
40,
40,
40,
40,
41,
41,
40,
40,
39,
39,
40,
40,
40,
40,
39,
39,
41,
41,
40,
40,
40,
40,
40,
40,
39,
39,
40,
40,
40,
40,
39,
39,
40,
40,
38,
38,
41,
41,
40,
40,
40,
40,
41,
41,
39,
39,
39,
39,
41,
41,
40,
40,
39,
39,
39,
39,
40,
40,
39,
39,
39,
39,
39,
39,
39,
39,
40,
40,
39,
39,
39,
39,
39,
39,
38,
38,
40,
40,
40,
40,
40,
40,
39,
39,
39,
39,
39,
39,
39,
39,
40,
40,
39,
39,
39,
39,
39,
39,
39,
39,
39,
39,
39,
39,
39,
39,
40,
40,
39,
39,
39,
39,
39,
39,
39,
39,
39,
39,
39,
39,
39,
39,
40,
40,
39,
39,
39,
39,
38,
38,
38,
38,
38,
38,
39,
39,
37,
37,
38,
38,
37,
37,
38,
38,
38,
38,
37,
37,
38,
38,
37,
37,
37,
37,
37,
37,
37,
37,
36,
36,
37,
37,
37,
37,
36,
36,
36,
36,
35,
35,
35,
35,
35,
35,
34,
34,
36,
36,
35,
35,
33,
33,
34,
34,
34,
34,
34,
34,
34,
34,
33,
33,
34,
34,
34,
34,
33,
33,
32,
32,
33,
33,
33,
33,
33,
33,
33,
33,
31,
31,
31,
31,
32,
32,
32,
32,
32,
32,
33,
33,
31,
31,
32,
32,
31,
31,
30,
30,
30,
30,
30,
30,
30,
30,
30,
30,
30,
30,
29,
29,
29,
29,
28,
28,
29,
29,
29,
29,
29,
29,
29,
29,
29,
29,
29,
29,
28,
28,
29,
29,
29,
29,
28,
28,
28,
28,
29,
29,
27,
27,
27,
27,
28,
28,
27,
27,
27,
27,
27,
27,
27,
27,
26,
26,
25,
25,
27,
27,
26,
26,
25,
25,
25,
25,
25,
25,
26,
26,
25,
25,
25,
25,
25,
25,
25,
25,
25,
25,
24,
24,
24,
24,
23,
23,
24,
24,
24,
24,
23,
23,
24,
24,
23,
23,
23,
23,
23,
23,
23,
23,
23,
23,
23,
23,
22,
22,
21,
21,
23,
23,
22,
22,
22,
22,
21,
21,
22,
22,
22,
22,
22,
22,
22,
22,
21,
21,
21,
21,
21,
21,
21,
21,
21,
21,
23,
23,
22,
22,
23,
23,
23,
23,
25,
25,
25,
25,
26,
26,
27,
27,
28,
28,
29,
29,
30,
30,
33,
33,
33,
33,
35,
35,
35,
35,
37,
37,
38,
38,
39,
39,
38,
38,
39,
39,
39,
39,
39,
39,
40,
40,
39,
39,
40,
40,
40,
40,
39,
39,
39,
39,
39,
39,
40,
40,
40,
40,
39,
39,
39,
39,
39,
39,
40,
40,
40,
40,
40,
40,
40,
40,
39,
39,
40,
40,
39,
39,
40,
40,
40,
40,
39,
39,
40,
40,
41,
41,
40,
40,
39,
39,
40,
40,
41,
41,
40,
40,
40,
40,
40,
40,
41,
41,
40,
40,
40,
40,
40,
40,
41,
41,
41,
41,
40,
40,
40,
40,
41,
41,
39,
39,
41,
41,
39,
39,
40,
40,
40,
40,
39,
39,
41,
41,
40,
40,
40,
40,
40,
40,
40,
40,
40,
40,
39,
39,
41,
41,
40,
40,
40,
40,
40,
40,
40,
40,
41,
41,
41,
41,
40,
40,
40,
40,
39,
39,
41,
41,
40,
40,
39,
39,
39,
39,
40,
40,
39,
39,
40,
40,
39,
39,
39,
39,
39,
39,
39,
39,
40,
40,
41,
41,
39,
39,
40,
40,
39,
39,
39,
39,
39,
39,
40,
40,
39,
39,
40,
40,
39,
39,
39,
39,
40,
40,
39,
39,
39,
39,
40,
40,
39,
39,
40,
40,
40,
40,
40,
40,
39,
39,
40,
40,
39,
39,
39,
39,
39,
39,
39,
39,
40,
40,
39,
39,
39,
39,
39,
39,
40,
40,
39,
39,
39,
39,
39,
39,
39,
39,
39,
39,
39,
39,
39,
39,
37,
37,
39,
39,
38,
38,
38,
38,
39,
39,
39,
39,
37,
37,
37,
37,
37,
37,
37,
37,
38,
38,
38,
38,
37,
37,
37,
37,
37,
37,
37,
37,
37,
37,
37,
37,
36,
36,
35,
35,
37,
37,
35,
35,
34,
34,
34,
34,
35,
35,
34,
34,
34,
34,
35,
35,
33,
33,
33,
33,
34,
34,
33,
33,
33,
33,
33,
33,
34,
34,
33,
33,
33,
33,
32,
32,
32,
32,
32,
32,
33,
33,
32,
32,
31,
31,
31,
31,
31,
31,
32,
32,
31,
31,
31,
31,
30,
30,
30,
30,
30,
30,
30,
30,
30,
30,
30,
30,
29,
29,
30,
30,
30,
30,
30,
30,
29,
29,
29,
29,
29,
29,
28,
28,
28,
28,
29,
29,
27,
27,
28,
28,
27,
27,
27,
27,
28,
28,
27,
27,
27,
27,
27,
27,
27,
27,
26,
26,
26,
26,
27,
27,
25,
25,
25,
25,
26,
26,
25,
25,
26,
26,
25,
25,
25,
25,
25,
25,
25,
25,
24,
24,
24,
24,
24,
24,
25,
25,
25,
25,
24,
24,
24,
24,
23,
23,
24,
24,
24,
24,
23,
23,
24,
24,
24,
24,
23,
23,
23,
23,
24,
24,
23,
23,
23,
23,
22,
22,
22,
22,
21,
21,
22,
22,
22,
22,
22,
22,
21,
21,
21,
21,
21,
21,
22,
22,
22,
22,
21,
21,
21,
21,
22,
22,
22,
22,
23,
23,
23,
23,
23,
23,
25,
25,
25,
25,
27,
27,
28,
28,
29,
29,
30,
30,
31,
31,
33,
33,
33,
33,
36,
36,
37,
37,
38,
38,
39,
39,
39,
39,
39,
39,
41,
41,
39,
39,
40,
40,
39,
39,
39,
39,
40,
40,
39,
39,
39,
39,
40,
40,
40,
40,
40,
40,
40,
40,
40,
40,
41,
41,
40,
40,
41,
41,
40,
40,
40,
40,
40,
40,
41,
41,
40,
40,
40,
40,
41,
41,
40,
40,
40,
40,
40,
40,
40,
40,
39,
39,
41,
41,
40,
40,
40,
40,
41,
41,
41,
41,
40,
40,
40,
40,
40,
40,
41,
41,
40,
40,
41,
41,
40,
40,
39,
39,
40,
40,
41,
41,
40,
40,
41,
41,
41,
41,
41,
41,
41,
41,
41,
41,
40,
40,
40,
40,
40,
40,
40,
40,
40,
40,
41,
41,
41,
41,
41,
41,
41,
41,
40,
40,
39,
39,
39,
39,
41,
41,
41,
41,
40,
40,
39,
39,
39,
39,
39,
39,
39,
39,
39,
39,
40,
40,
41,
41,
39,
39,
41,
41,
41,
41,
40,
40,
40,
40,
41,
41,
39,
39,
40,
40,
39,
39,
39,
39,
40,
40,
39,
39,
40,
40,
39,
39,
41,
41,
41,
41,
39,
39,
41,
41,
40,
40,
40,
40,
40,
40,
39,
39,
40,
40,
40,
40,
40,
40,
40,
40,
39,
39,
40,
40,
39,
39,
39,
39,
39,
39,
39,
39,
39,
39,
40,
40,
39,
39,
38,
38,
39,
39,
39,
39,
38,
38,
39,
39,
39,
39,
39,
39,
38,
38,
39,
39,
37,
37,
38,
38,
37,
37,
38,
38,
39,
39,
37,
37,
37,
37,
37,
37,
37,
37,
37,
37,
37,
37,
37,
37,
37,
37,
37,
37,
37,
37,
37,
37,
37,
37,
36,
36,
35,
35,
35,
35,
35,
35,
35,
35,
34,
34,
35,
35,
34,
34,
34,
34,
34,
34,
33,
33,
34,
34,
33,
33,
33,
33,
33,
33,
34,
34,
33,
33,
33,
33,
33,
33,
32,
32,
32,
32,
33,
33,
32,
32,
32,
32,
32,
32,
31,
31,
31,
31,
32,
32,
30,
30,
30,
30,
31,
31,
31,
31,
30,
30,
30,
30,
29,
29,
29,
29,
29,
29,
29,
29,
29,
29,
29,
29,
29,
29,
29,
29,
29,
29,
28,
28,
29,
29,
29,
29,
29,
29,
28,
28,
28,
28,
28,
28,
27,
27,
27,
27,
28,
28,
26,
26,
26,
26,
27,
27,
27,
27,
26,
26,
25,
25,
26,
26,
26,
26,
25,
25,
26,
26,
25,
25,
25,
25,
25,
25,
25,
25,
25,
25,
25,
25,
25,
25,
25,
25,
24,
24,
23,
23,
24,
24,
24,
24,
25,
25,
25,
25,
24,
24,
23,
23,
23,
23,
23,
23,
25,
25,
23,
23,
23,
23,
23,
23,
23,
23,
22,
22,
23,
23,
21,
21,
22,
22,
21,
21,
21,
21,
21,
21,
21,
21,
21,
21,
21,
21,
21,
21,
22,
22,
21,
21,
22,
22,
22,
22,
24,
24,
25,
25,
25,
25,
27,
27,
27,
27,
29,
29,
29,
29,
30,
30,
31,
31,
33,
33,
35,
35,
35,
35,
37,
37,
38,
38,
38,
38,
39,
39,
38,
38,
39,
39,
39,
39,
39,
39,
40,
40,
39,
39,
39,
39,
39,
39,
39,
39,
39,
39,
40,
40,
41,
41,
41,
41,
41,
41,
41,
41,
39,
39,
40,
40,
41,
41,
41,
41,
39,
39,
40,
40,
40,
40,
40,
40,
39,
39,
40,
40,
39,
39,
39,
39,
39,
39,
40,
40,
41,
41,
41,
41,
41,
41,
40,
40,
41,
41,
41,
41,
39,
39,
40,
40,
40,
40,
40,
40,
40,
40,
41,
41,
40,
40,
40,
40,
39,
39,
40,
40,
40,
40,
39,
39,
41,
41,
39,
39,
40,
40,
40,
40,
39,
39,
39,
39,
40,
40,
39,
39,
41,
41,
40,
40,
40,
40,
39,
39,
40,
40,
40,
40,
40,
40,
40,
40,
41,
41,
41,
41,
40,
40,
41,
41,
41,
41,
40,
40,
40,
40,
39,
39,
39,
39,
40,
40,
39,
39,
40,
40,
40,
40,
39,
39,
40,
40,
39,
39,
40,
40,
40,
40,
39,
39,
39,
39,
39,
39,
40,
40,
41,
41,
40,
40,
39,
39,
39,
39,
39,
39,
40,
40,
39,
39,
41,
41,
39,
39,
40,
40,
39,
39,
39,
39,
39,
39,
39,
39,
40,
40,
39,
39,
40,
40,
39,
39,
39,
39,
39,
39,
40,
40,
39,
39,
41,
41,
39,
39,
39,
39,
39,
39,
39,
39,
39,
39,
39,
39,
39,
39,
39,
39,
37,
37,
38,
38,
38,
38,
38,
38,
37,
37,
38,
38,
39,
39,
38,
38,
37,
37,
37,
37,
37,
37,
37,
37,
37,
37,
37,
37,
37,
37,
37,
37,
36,
36,
36,
36,
36,
36,
35,
35,
35,
35,
35,
35,
35,
35,
34,
34,
35,
35,
34,
34,
35,
35,
34,
34,
34,
34,
34,
34,
34,
34,
33,
33,
33,
33,
33,
33,
32,
32,
33,
33,
33,
33,
31,
31,
33,
33,
32,
32,
33,
33,
32,
32,
32,
32,
31,
31,
32,
32,
31,
31,
30,
30,
30,
30,
30,
30,
31,
31,
29,
29,
29,
29,
29,
29,
30,
30,
29,
29,
29,
29,
30,
30,
29,
29,
29,
29,
29,
29,
28,
28,
28,
28,
27,
27,
28,
28,
28,
28,
27,
27,
27,
27,
27,
27,
27,
27,
28,
28,
26,
26,
27,
27,
25,
25,
25,
25,
26,
26,
25,
25,
26,
26,
26,
26,
25,
25,
27,
27,
25,
25,
25,
25,
25,
25,
25,
25,
25,
25,
25,
25,
24,
24,
24,
24,
25,
25,
23,
23,
25,
25,
25,
25,
23,
23,
24,
24,
23,
23,
23,
23,
24,
24,
23,
23,
23,
23,
23,
23,
23,
23,
23,
23,
22,
22,
23,
23,
22,
22,
22,
22,
21,
21,
22,
22,
22,
22,
21,
21,
22,
22,
21,
21,
21,
21,
21,
21,
22,
22,
22,
22,
21,
21,
23,
23,
24,
24,
24,
24,
25,
25,
26,
26,
28,
28,
29,
29,
30,
30,
31,
31,
33,
33,
33,
33,
33,
33,
36,
36,
37,
37,
38,
