1-signale-auf-leitern/data/ALL0023/A0023CH1.CSV

Memory Length,4000,
Trigger Level,6.40000e+00,
Source,CH1,
Probe,1.0X,
Vertical Units,V,
Vertical Scale,5.00000e+00,
Vertical Position,0.00000e+00,
Horizontal Units,S,
Horizontal Scale,2.50000e-05,
Horizontal Position,8.6000000e-05,
Horizontal Mode,Main,
Sampling Period,1.00000e-07,
Firmware,V1.14,
Time, ,
Mode,Fast,
Waveform Data,
-10,
-10,
-10,
-11,
-11,
-12,
-12,
-10,
-10,
-10,
-10,
-10,
-10,
-12,
-12,
-11,
-11,
-10,
-10,
-10,
-10,
-10,
-10,
-11,
-11,
-12,
-12,
-10,
-10,
-10,
-10,
-10,
-10,
-11,
-11,
-12,
-12,
-11,
-11,
-10,
-10,
-9,
-9,
-11,
-11,
-10,
-10,
-10,
-10,
-11,
-11,
-12,
-12,
-10,
-10,
-11,
-11,
-10,
-10,
-10,
-10,
-10,
-10,
-10,
-10,
-10,
-10,
-10,
-10,
-10,
-10,
-12,
-12,
-10,
-10,
-10,
-10,
-10,
-10,
-10,
-10,
-9,
-9,
-10,
-10,
-10,
-10,
-11,
-11,
-11,
-11,
-11,
-11,
-12,
-12,
-12,
-12,
-10,
-10,
-11,
-11,
-10,
-10,
-10,
-10,
-11,
-11,
-10,
-10,
-10,
-10,
-12,
-12,
-10,
-10,
-10,
-10,
-10,
-10,
-11,
-11,
-10,
-10,
-11,
-11,
-12,
-12,
-10,
-10,
-9,
-9,
-11,
-11,
-10,
-10,
-10,
-10,
-5,
37,
38,
38,
43,
43,
44,
44,
46,
46,
46,
46,
46,
46,
46,
46,
45,
45,
46,
46,
46,
46,
46,
46,
47,
47,
47,
47,
42,
42,
42,
42,
43,
43,
44,
44,
44,
44,
44,
44,
44,
44,
43,
43,
44,
44,
45,
45,
44,
44,
46,
46,
45,
45,
44,
44,
44,
44,
45,
45,
47,
47,
47,
47,
49,
49,
49,
49,
49,
49,
47,
47,
48,
48,
47,
47,
48,
48,
47,
47,
51,
51,
46,
32,
32,
19,
19,
19,
10,
10,
8,
8,
8,
8,
7,
7,
8,
8,
9,
9,
9,
9,
8,
8,
10,
10,
10,
10,
8,
8,
6,
6,
5,
5,
6,
6,
7,
7,
7,
7,
7,
7,
7,
7,
6,
6,
7,
7,
7,
7,
7,
7,
8,
8,
7,
7,
5,
5,
5,
5,
7,
7,
10,
10,
10,
10,
10,
10,
10,
10,
10,
10,
10,
10,
10,
10,
10,
10,
8,
8,
10,
10,
10,
10,
9,
9,
3,
3,
2,
2,
3,
3,
4,
4,
6,
6,
7,
7,
7,
7,
8,
8,
7,
7,
6,
6,
7,
7,
9,
9,
6,
6,
5,
5,
7,
7,
7,
7,
7,
7,
7,
7,
5,
5,
6,
6,
6,
6,
6,
6,
5,
5,
7,
7,
9,
9,
7,
7,
5,
5,
6,
6,
6,
6,
8,
8,
9,
9,
7,
7,
6,
6,
7,
7,
6,
6,
6,
6,
7,
7,
7,
7,
7,
7,
7,
7,
5,
5,
5,
5,
4,
4,
5,
5,
7,
7,
7,
7,
7,
7,
7,
7,
7,
7,
6,
6,
7,
7,
5,
5,
6,
6,
6,
6,
7,
7,
5,
5,
6,
6,
7,
7,
7,
7,
5,
5,
5,
5,
6,
6,
6,
6,
7,
7,
7,
7,
7,
7,
5,
5,
5,
5,
7,
7,
7,
7,
8,
8,
7,
7,
5,
5,
6,
6,
7,
7,
5,
5,
6,
6,
7,
7,
6,
6,
7,
7,
6,
6,
5,
5,
6,
6,
7,
7,
6,
6,
7,
7,
7,
7,
7,
7,
5,
5,
7,
7,
6,
6,
6,
6,
6,
6,
7,
7,
5,
5,
6,
6,
7,
7,
7,
7,
7,
7,
6,
6,
7,
7,
5,
5,
7,
7,
5,
5,
7,
7,
7,
7,
6,
6,
5,
5,
7,
7,
6,
6,
7,
7,
5,
5,
7,
7,
7,
7,
7,
7,
5,
5,
6,
6,
6,
6,
5,
5,
7,
7,
6,
6,
6,
6,
7,
7,
5,
5,
5,
5,
6,
6,
6,
6,
7,
7,
5,
5,
5,
5,
6,
6,
6,
6,
6,
6,
6,
6,
7,
7,
7,
7,
5,
5,
7,
7,
7,
7,
6,
6,
7,
7,
6,
6,
7,
7,
6,
6,
6,
6,
7,
7,
6,
6,
5,
5,
5,
5,
7,
7,
5,
5,
7,
7,
7,
7,
7,
7,
6,
6,
7,
7,
6,
6,
7,
7,
6,
6,
6,
6,
7,
7,
7,
7,
7,
7,
7,
7,
7,
7,
7,
7,
6,
6,
6,
6,
7,
7,
7,
7,
7,
7,
7,
7,
7,
7,
-2,
-36,
-37,
-37,
-47,
-47,
-49,
-49,
-49,
-49,
-50,
-50,
-49,
-49,
-49,
-49,
-50,
-50,
-50,
-50,
-50,
-50,
-50,
-50,
-50,
-50,
-51,
-51,
-49,
-49,
-47,
-47,
-48,
-48,
-47,
-47,
-49,
-49,
-48,
-48,
-49,
-49,
-49,
-49,
-49,
-49,
-48,
-48,
-49,
-49,
-49,
-49,
-50,
-50,
-49,
-49,
-48,
-48,
-50,
-50,
-51,
-51,
-51,
-51,
-52,
-52,
-51,
-51,
-53,
-53,
-53,
-53,
-53,
-53,
-51,
-51,
-53,
-53,
-51,
-51,
-54,
-54,
-54,
-42,
-42,
-25,
-25,
-25,
-17,
-17,
-13,
-13,
-13,
-13,
-11,
-11,
-11,
-11,
-13,
-13,
-13,
-13,
-13,
-13,
-13,
-13,
-15,
-15,
-13,
-13,
-10,
-10,
-10,
-10,
-11,
-11,
-11,
-11,
-11,
-11,
-12,
-12,
-10,
-10,
-10,
-10,
-9,
-9,
-10,
-10,
-11,
-11,
-12,
-12,
-12,
-12,
-9,
-9,
-10,
-10,
-12,
-12,
-13,
-13,
-13,
-13,
-14,
-14,
-15,
-15,
-14,
-14,
-15,
-15,
-14,
-14,
-13,
-13,
-13,
-13,
-14,
-14,
-15,
-15,
-13,
-13,
-9,
-9,
-7,
-7,
-7,
-7,
-9,
-9,
-9,
-9,
-11,
-11,
-12,
-12,
-12,
-12,
-12,
-12,
-11,
-11,
-12,
-12,
-11,
-11,
-9,
-9,
-9,
-9,
-10,
-10,
-12,
-12,
-10,
-10,
-9,
-9,
-12,
-12,
-11,
-11,
-10,
-10,
-11,
-11,
-10,
-10,
-11,
-11,
-12,
-12,
-10,
-10,
-10,
-10,
-11,
-11,
-12,
-12,
-13,
-13,
-13,
-13,
-12,
-12,
-12,
-12,
-12,
-12,
-10,
-10,
-10,
-10,
-11,
-11,
-12,
-12,
-10,
-10,
-12,
-12,
-10,
-10,
-9,
-9,
-9,
-9,
-9,
-9,
-11,
-11,
-12,
-12,
-12,
-12,
-11,
-11,
-11,
-11,
-11,
-11,
-13,
-13,
-11,
-11,
-11,
-11,
-11,
-11,
-10,
-10,
-10,
-10,
-11,
-11,
-10,
-10,
-9,
-9,
-12,
-12,
-11,
-11,
-12,
-12,
-11,
-11,
-11,
-11,
-11,
-11,
-10,
-10,
-9,
-9,
-10,
-10,
-10,
-10,
-12,
-12,
-12,
-12,
-11,
-11,
-12,
-12,
-11,
-11,
-10,
-10,
-9,
-9,
-11,
-11,
-11,
-11,
-11,
-11,
-10,
-10,
-12,
-12,
-10,
-10,
-10,
-10,
-11,
-11,
-11,
-11,
-11,
-11,
-11,
-11,
-10,
-10,
-12,
-12,
-12,
-12,
-11,
-11,
-10,
-10,
-12,
-12,
-10,
-10,
-9,
-9,
-11,
-11,
-12,
-12,
-11,
-11,
-9,
-9,
-10,
-10,
-9,
-9,
-12,
-12,
-10,
-10,
-10,
-10,
-10,
-10,
-11,
-11,
-10,
-10,
-11,
-11,
-11,
-11,
-10,
-10,
-11,
-11,
-11,
-11,
-10,
-10,
-11,
-11,
-9,
-9,
-12,
-12,
-10,
-10,
-10,
-10,
-10,
-10,
-11,
-11,
-11,
-11,
-10,
-10,
-11,
-11,
-11,
-11,
-11,
-11,
-11,
-11,
-10,
-10,
-12,
-12,
-11,
-11,
-9,
-9,
-10,
-10,
-11,
-11,
-11,
-11,
-11,
-11,
-11,
-11,
-11,
-11,
-11,
-11,
-12,
-12,
-10,
-10,
-11,
-11,
-11,
-11,
-12,
-12,
-10,
-10,
-12,
-12,
-12,
-12,
-10,
-10,
-11,
-11,
-10,
-10,
-10,
-10,
-11,
-11,
-12,
-12,
-11,
-11,
-12,
-12,
-11,
-11,
-11,
-11,
-9,
-9,
-12,
-12,
-9,
-9,
-11,
-11,
-10,
-10,
-9,
5,
7,
35,
36,
36,
43,
43,
46,
46,
45,
45,
45,
45,
44,
44,
46,
46,
47,
47,
47,
47,
45,
45,
46,
46,
45,
45,
46,
46,
44,
44,
44,
44,
44,
44,
45,
45,
44,
44,
45,
45,
45,
45,
44,
44,
43,
43,
44,
44,
44,
44,
44,
44,
46,
46,
43,
43,
44,
44,
45,
45,
47,
47,
48,
48,
47,
47,
48,
48,
47,
47,
48,
48,
47,
47,
47,
47,
48,
48,
47,
47,
50,
50,
44,
30,
31,
17,
17,
17,
13,
13,
8,
8,
7,
7,
7,
7,
9,
9,
9,
9,
9,
9,
8,
8,
8,
8,
9,
9,
7,
7,
6,
6,
6,
6,
5,
5,
6,
6,
7,
7,
6,
6,
7,
7,
5,
5,
6,
6,
7,
7,
6,
6,
8,
8,
7,
7,
5,
5,
6,
6,
7,
7,
10,
10,
11,
11,
9,
9,
10,
10,
10,
10,
10,
10,
10,
10,
10,
10,
8,
8,
10,
10,
12,
12,
8,
8,
4,
4,
1,
1,
2,
2,
5,
5,
6,
6,
7,
7,
6,
6,
8,
8,
6,
6,
6,
6,
8,
8,
7,
7,
5,
5,
5,
5,
5,
5,
6,
6,
7,
7,
7,
7,
6,
6,
7,
7,
6,
6,
7,
7,
6,
6,
8,
8,
8,
8,
6,
6,
5,
5,
5,
5,
7,
7,
8,
8,
7,
7,
7,
7,
7,
7,
6,
6,
7,
7,
7,
7,
7,
7,
6,
6,
7,
7,
7,
7,
6,
6,
6,
6,
5,
5,
5,
5,
6,
6,
6,
6,
7,
7,
7,
7,
7,
7,
6,
6,
7,
7,
6,
6,
7,
7,
6,
6,
5,
5,
7,
7,
6,
6,
7,
7,
6,
6,
7,
7,
6,
6,
7,
7,
6,
6,
7,
7,
7,
7,
6,
6,
6,
6,
5,
5,
7,
7,
7,
7,
7,
7,
7,
7,
6,
6,
7,
7,
6,
6,
6,
6,
7,
7,
5,
5,
6,
6,
5,
5,
6,
6,
6,
6,
6,
6,
5,
5,
7,
7,
7,
7,
7,
7,
6,
6,
7,
7,
7,
7,
6,
6,
7,
7,
7,
7,
5,
5,
5,
5,
7,
7,
8,
8,
7,
7,
7,
7,
7,
7,
6,
6,
7,
7,
6,
6,
5,
5,
7,
7,
5,
5,
6,
6,
5,
5,
6,
6,
6,
6,
6,
6,
6,
6,
6,
6,
5,
5,
7,
7,
7,
7,
6,
6,
7,
7,
5,
5,
6,
6,
7,
7,
6,
6,
7,
7,
7,
7,
7,
7,
6,
6,
7,
7,
5,
5,
5,
5,
6,
6,
6,
6,
6,
6,
7,
7,
5,
5,
7,
7,
6,
6,
7,
7,
7,
7,
5,
5,
6,
6,
6,
6,
7,
7,
5,
5,
7,
7,
6,
6,
7,
7,
5,
5,
6,
6,
6,
6,
6,
6,
7,
7,
6,
6,
7,
7,
6,
6,
5,
5,
7,
7,
6,
6,
6,
6,
6,
6,
6,
6,
5,
5,
7,
7,
7,
7,
7,
7,
6,
6,
6,
6,
6,
6,
6,
6,
7,
7,
6,
6,
7,
7,
6,
6,
6,
6,
7,
-36,
-37,
-37,
-46,
-46,
-49,
-49,
-49,
-49,
-49,
-49,
-50,
-50,
-49,
-49,
-49,
-49,
-50,
-50,
-50,
-50,
-50,
-50,
-49,
-49,
-50,
-50,
-49,
-49,
-48,
-48,
-47,
-47,
-49,
-49,
-48,
-48,
-49,
-49,
-49,
-49,
-49,
-49,
-49,
-49,
-49,
-49,
-49,
-49,
-49,
-49,
-49,
-49,
-49,
-49,
-49,
-49,
-50,
-50,
-51,
-51,
-51,
-51,
-53,
-53,
-53,
-53,
-52,
-52,
-53,
-53,
-51,
-51,
-52,
-52,
-53,
-53,
-50,
-50,
-56,
-56,
-53,
-39,
-39,
-28,
-27,
-27,
-17,
-17,
-13,
-13,
-13,
-13,
-12,
-12,
-13,
-13,
-13,
-13,
-14,
-14,
-14,
-14,
-13,
-13,
-13,
-13,
-13,
-13,
-10,
-10,
-10,
-10,
-11,
-11,
-11,
-11,
-11,
-11,
-10,
-10,
-11,
-11,
-11,
-11,
-10,
-10,
-10,
-10,
-12,
-12,
-12,
-12,
-12,
-12,
-9,
-9,
-9,
-9,
-11,
-11,
-14,
-14,
-14,
-14,
-15,
-15,
-15,
-15,
-16,
-16,
-14,
-14,
-13,
-13,
-15,
-15,
-14,
-14,
-14,
-14,
-15,
-15,
-14,
-14,
-9,
-9,
-7,
-7,
-7,
-7,
-8,
-8,
-11,
-11,
-12,
-12,
-12,
-12,
-11,
-11,
-12,
-12,
-11,
-11,
-13,
-13,
-13,
-13,
-11,
-11,
-9,
-9,
-9,
-9,
-11,
-11,
-11,
-11,
-10,
-10,
-10,
-10,
-9,
-9,
-10,
-10,
-10,
-10,
-9,
-9,
-12,
-12,
-11,
-11,
-10,
-10,
-9,
-9,
-10,
-10,
-12,
-12,
-13,
-13,
-13,
-13,
-12,
-12,
-11,
-11,
-12,
-12,
-11,
-11,
-10,
-10,
-12,
-12,
-11,
-11,
-11,
-11,
-12,
-12,
-11,
-11,
-9,
-9,
-9,
-9,
-9,
-9,
-11,
-11,
-12,
-12,
-12,
-12,
-10,
-10,
-12,
-12,
-10,
-10,
-10,
-10,
-11,
-11,
-11,
-11,
-9,
-9,
-10,
-10,
-11,
-11,
-11,
-11,
-10,
-10,
-12,
-12,
-10,
-10,
-10,
-10,
-11,
-11,
-10,
-10,
-10,
-10,
-11,
-11,
-12,
-12,
-10,
-10,
-11,
-11,
-9,
-9,
-11,
-11,
-12,
-12,
-11,
-11,
-11,
-11,
-12,
-12,
-11,
-11,
-10,
-10,
-11,
-11,
-11,
-11,
-11,
-11,
-11,
-11,
-11,
-11,
-10,
-10,
-12,
-12,
-11,
-11,
-11,
-11,
-11,
-11,
-12,
-12,
-10,
-10,
-11,
-11,
-10,
-10,
-12,
-12,
-11,
-11,
-10,
-10,
-10,
-10,
-10,
-10,
-9,
-9,
-11,
-11,
-11,
-11,
-12,
-12,
-10,
-10,
-11,
-11,
-10,
-10,
-11,
-11,
-10,
-10,
-11,
-11,
-11,
-11,
-11,
-11,
-12,
-12,
-10,
-10,
-11,
-11,
-12,
-12,
-12,
-12,
-10,
-10,
-11,
-11,
-10,
-10,
-11,
-11,
-11,
-11,
-9,
-9,
-10,
-10,
-11,
-11,
-11,
-11,
-10,
-10,
-12,
-12,
-10,
-10,
-10,
-10,
-11,
-11,
-10,
-10,
-9,
-9,
-10,
-10,
-10,
-10,
-10,
-10,
-10,
-10,
-11,
-11,
-11,
-11,
-11,
-11,
-11,
-11,
-12,
-12,
-10,
-10,
-11,
-11,
-10,
-10,
-11,
-11,
-11,
-11,
-10,
-10,
-10,
-10,
-10,
-10,
-11,
-11,
-12,
-12,
-11,
-11,
-11,
-11,
-10,
-10,
-11,
-11,
-10,
-10,
-9,
-9,
-10,
-10,
-11,
-11,
-11,
-11,
-11,
-11,
-12,
-12,
-9,
-9,
-11,
-11,
-10,
-10,
1,
35,
35,
35,
41,
41,
44,
44,
45,
45,
45,
45,
45,
45,
47,
47,
45,
45,
46,
46,
46,
46,
47,
47,
47,
47,
45,
45,
43,
43,
43,
43,
44,
44,
43,
43,
43,
43,
43,
43,
44,
44,
43,
43,
44,
44,
44,
44,
44,
44,
45,
45,
44,
44,
44,
44,
44,
44,
47,
47,
47,
47,
47,
47,
47,
47,
47,
47,
48,
48,
47,
47,
48,
48,
49,
49,
47,
47,
46,
46,
51,
51,
47,
31,
31,
19,
18,
18,
11,
11,
9,
9,
7,
7,
7,
7,
8,
8,
9,
9,
9,
9,
9,
9,
9,
9,
10,
10,
8,
8,
5,
5,
5,
5,
7,
7,
6,
6,
7,
7,
7,
7,
5,
5,
7,
7,
7,
7,
7,
7,
6,
6,
7,
7,
7,
7,
5,
5,
5,
5,
7,
7,
9,
9,
10,
10,
11,
11,
9,
9,
9,
9,
9,
9,
9,
9,
10,
10,
9,
9,
10,
10,
12,
12,
8,
8,
4,
4,
1,
1,
3,
3,
5,
5,
7,
7,
6,
6,
7,
7,
7,
7,
7,
7,
7,
7,
8,
8,
7,
7,
6,
6,
5,
5,
5,
5,
7,
7,
7,
7,
7,
7,
7,
7,
7,
7,
6,
6,
6,
6,
5,
5,
7,
7,
7,
7,
5,
5,
5,
5,
7,
7,
7,
7,
8,
8,
7,
7,
7,
7,
6,
6,
7,
7,
6,
6,
8,
8,
6,
6,
7,
7,
6,
6,
8,
8,
5,
5,
5,
5,
5,
5,
6,
6,
8,
8,
7,
7,
7,
7,
8,
8,
7,
7,
6,
6,
7,
7,
7,
7,
7,
7,
7,
7,
5,
5,
7,
7,
7,
7,
6,
6,
7,
7,
5,
5,
6,
6,
7,
7,
6,
6,
5,
5,
7,
7,
7,
7,
6,
6,
6,
6,
7,
7,
8,
8,
7,
7,
7,
7,
7,
7,
6,
6,
7,
7,
5,
5,
6,
6,
5,
5,
5,
5,
7,
7,
7,
7,
7,
7,
6,
6,
7,
7,
7,
7,
7,
7,
7,
7,
7,
7,
7,
7,
5,
5,
7,
7,
7,
7,
7,
7,
5,
5,
6,
6,
5,
5,
5,
5,
7,
7,
5,
5,
7,
7,
7,
7,
6,
6,
6,
6,
7,
7,
7,
7,
6,
6,
6,
6,
7,
7,
7,
7,
8,
8,
6,
6,
7,
7,
6,
6,
7,
7,
6,
6,
6,
6,
5,
5,
7,
7,
7,
7,
6,
6,
5,
5,
6,
6,
7,
7,
6,
6,
6,
6,
7,
7,
6,
6,
7,
7,
5,
5,
5,
5,
7,
7,
6,
6,
7,
7,
6,
6,
6,
6,
6,
6,
7,
7,
6,
6,
6,
6,
6,
6,
6,
6,
6,
6,
7,
7,
5,
5,
5,
5,
6,
6,
6,
6,
6,
6,
7,
7,
5,
5,
7,
7,
7,
7,
7,
7,
6,
6,
7,
7,
6,
6,
6,
6,
7,
7,
6,
6,
5,
5,
7,
7,
6,
6,
6,
6,
6,
6,
5,
5,
6,
6,
6,
6,
7,
7,
6,
6,
6,
6,
5,
5,
6,
6,
6,
6,
6,
-34,
-34,
-46,
-46,
-46,
-49,
-49,
-49,
-49,
-49,
-49,
-49,
-49,
-49,
-49,
-49,
-49,
-49,
-49,
-50,
-50,
-51,
-51,
-50,
-50,
-51,
-51,
-48,
-48,
-48,
-48,
-47,
-47,
-48,
-48,
-48,
-48,
-48,
-48,
-48,
-48,
-49,
-49,
-49,
-49,
-48,
-48,
-49,
-49,
-49,
-49,
-49,
-49,
-49,
-49,
-49,
-49,
-49,
-49,
-50,
-50,
-52,
-52,
-52,
-52,
-51,
-51,
-51,
-51,
-53,
-53,
-53,
-53,
-52,
-52,
-54,
-54,
-50,
-50,
-54,
-54,
-53,
-42,
-42,
-25,
-25,
-25,
-17,
-17,
-14,
-14,
-13,
-13,
-12,
-12,
-12,
-12,
-13,
-13,
-13,
-13,
-13,
-13,
-13,
-13,
-15,
-15,
-13,
-13,
-10,
-10,
-10,
-10,
-11,
-11,
-12,
-12,
-10,
-10,
-11,
-11,
-9,
-9,
-10,
-10,
-10,
-10,
-10,
-10,
-9,
-9,
-12,
-12,
-11,
-11,
-10,
-10,
-9,
-9,
-10,
-10,
-13,
-13,
-15,
-15,
-13,
-13,
-13,
-13,
-14,
-14,
-13,
-13,
-13,
-13,
-14,
-14,
-14,
-14,
-13,
-13,
-15,
-15,
-13,
-13,
-12,
-12,
-7,
-7,
-7,
-7,
-9,
-9,
-9,
-9,
-11,
-11,
-12,
-12,
-13,
-13,
-13,
-13,
-11,
-11,
-12,
-12,
-11,
-11,
-10,
-10,
-10,
-10,
-10,
-10,
-10,
-10,
-13,
-13,
-12,
-12,
-11,
-11,
-12,
-12,
-9,
-9,
-12,
-12,
-11,
-11,
-11,
-11,
-12,
-12,
-12,
-12,
-10,
-10,
-10,
-10,
-11,
-11,
-12,
-12,
-12,
-12,
-12,
-12,
-11,
-11,
-12,
-12,
-12,
-12,
-10,
-10,
-12,
-12,
-10,
-10,
-10,
-10,
-12,
-12,
-11,
-11,
-10,
-10,
-9,
-9,
-9,
-9,
-12,
-12,
-12,
-12,
-12,
-12,
-12,
-12,
-11,
-11,
-10,
-10,
-10,
-10,
-12,
-12,
-11,
-11,
-11,
-11,
-10,
-10,
-10,
-10,
-11,
-11,
-11,
-11,
-10,
-10,
-11,
-11,
-10,
-10,
-12,
-12,
-11,
-11,
-10,
-10,
-10,
-10,
-11,
-11,
-10,
-10,
-10,
-10,
-11,
-11,
-12,
-12,
-11,
-11,
-11,
-11,
-11,
-11,
-10,
-10,
-9,
-9,
-10,
-10,
-10,
-10,
-10,
-10,
-10,
-10,
-10,
-10,
-10,
-10,
-11,
-11,
-10,
-10,
-11,
-11,
-10,
-10,
-12,
-12,
-10,
-10,
-12,
-12,
-11,
-11,
-10,
-10,
-10,
-10,
-11,
-11,
-11,
-11,
-10,
-10,
-10,
-10,
-10,
-10,
-11,
-11,
-12,
-12,
-11,
-11,
-10,
-10,
-10,
-10,
-10,
-10,
-9,
-9,
-11,
-11,
-12,
-12,
-11,
-11,
-11,
-11,
-10,
-10,
-11,
-11,
-10,
-10,
-12,
-12,
-11,
-11,
-10,
-10,
-10,
-10,
-11,
-11,
-11,
-11,
-12,
-12,
-11,
-11,
-12,
-12,
-11,
-11,
-10,
-10,
-11,
-11,
-12,
-12,
-10,
-10,
-11,
-11,
-12,
-12,
-10,
-10,
-11,
-11,
-12,
-12,
-10,
-10,
-10,
-10,
-10,
-10,
-10,
-10,
-9,
-9,
-11,
-11,
-10,
-10,
-11,
-11,
-10,
-10,
-10,
-10,
-10,
-10,
-11,
-11,
-10,
-10,
-11,
-11,
-12,
-12,
-9,
-9,
-10,
-10,
-10,
-10,
-10,
-10,
-12,
-12,
-12,
-12,
-10,
-10,
-11,
-11,
-11,
-11,
-9,
-9,
-11,
-11,
-10,
-10,
-10,
-10,
-10,
-10,
-10,
-10,
-12,
-12,
-9,
-9,
-9,
37,
37,
37,
43,
43,
44,
44,
45,
45,
45,
45,
45,
45,
45,
45,
46,
46,
46,
46,
47,
47,
47,
47,
47,
47,
47,
47,
43,
43,
43,
43,
44,
44,
44,
44,
44,
44,
44,
44,
43,
43,
44,
44,
45,
45,
43,
43,
44,
44,
45,
45,
45,
45,
44,
44,
44,
44,
45,
45,
47,
47,
47,
47,
49,
49,
49,
49,
49,
49,
47,
47,
48,
48,
48,
48,
49,
49,
47,
47,
50,
50,
47,
33,
33,
19,
19,
19,
11,
11,
9,
9,
7,
7,
7,
7,
8,
8,
8,
8,
9,
9,
8,
8,
9,
9,
10,
10,
8,
8,
5,
5,
5,
5,
5,
5,
6,
6,
7,
7,
7,
7,
5,
5,
5,
5,
6,
6,
6,
6,
7,
7,
8,
8,
6,
6,
5,
5,
6,
6,
8,
8,
8,
8,
10,
10,
11,
11,
9,
9,
10,
10,
10,
10,
9,
9,
11,
11,
9,
9,
10,
10,
11,
11,
7,
7,
4,
4,
2,
2,
2,
2,
4,
4,
5,
5,
7,
7,
7,
7,
7,
7,
7,
7,
7,
7,
9,
9,
8,
8,
5,
5,
5,
5,
7,
7,
7,
7,
7,
7,
7,
7,
7,
7,
7,
7,
7,
7,
7,
7,
7,
7,
8,
8,
7,
7,
5,
5,
7,
7,
6,
6,
7,
7,
7,
7,
8,
8,
7,
7,
7,
7,
7,
7,
5,
5,
7,
7,
6,
6,
6,
6,
7,
7,
7,
7,
5,
5,
5,
5,
5,
5,
5,
5,
7,
7,
7,
7,
6,
6,
7,
7,
7,
7,
5,
5,
5,
5,
7,
7,
7,
7,
5,
5,
6,
6,
7,
7,
7,
7,
7,
7,
6,
6,
7,
7,
6,
6,
7,
7,
6,
6,
6,
6,
7,
7,
7,
7,
6,
6,
5,
5,
6,
6,
7,
7,
7,
7,
7,
7,
6,
6,
6,
6,
6,
6,
7,
7,
7,
7,
6,
6,
6,
6,
7,
7,
5,
5,
7,
7,
6,
6,
6,
6,
7,
7,
6,
6,
7,
7,
7,
7,
6,
6,
5,
5,
6,
6,
6,
6,
7,
7,
5,
5,
6,
6,
6,
6,
8,
8,
6,
6,
5,
5,
6,
6,
7,
7,
6,
6,
6,
6,
7,
7,
6,
6,
6,
6,
5,
5,
6,
6,
7,
7,
7,
7,
7,
7,
5,
5,
7,
7,
7,
7,
5,
5,
7,
7,
5,
5,
7,
7,
7,
7,
6,
6,
6,
6,
6,
6,
5,
5,
6,
6,
6,
6,
7,
7,
6,
6,
8,
8,
7,
7,
6,
6,
7,
7,
6,
6,
7,
7,
7,
7,
7,
7,
5,
5,
6,
6,
6,
6,
6,
6,
7,
7,
6,
6,
7,
7,
5,
5,
7,
7,
7,
7,
7,
7,
7,
7,
7,
7,
5,
5,
6,
6,
8,
8,
6,
6,
6,
6,
6,
6,
6,
6,
7,
7,
6,
6,
6,
6,
6,
6,
7,
7,
7,
7,
6,
6,
5,
5,
7,
7,
6,
6,
6,
6,
7,
7,
5,
5,
6,
6,
7,
7,
5,
5,
7,
7,
7,
7,
2,
-35,
-36,
-47,
-47,
-47,
-48,
-48,
-49,
-49,
-49,
-49,
-48,
-48,
-49,
-49,
-49,
-49,
-49,
-49,
-49,
-49,
-49,
-49,
-50,
-50,
-50,
-50,
-49,
-49,
-47,
-47,
-48,
-48,
-48,
-48,
-49,
-49,
-48,
-48,
-49,
-49,
-49,
-49,
-47,
-47,
-49,
-49,
-48,
-48,
-49,
-49,
-50,
-50,
-48,
-48,
-48,
-48,
-49,
-49,
-50,
-50,
-52,
-52,
-53,
-53,
-52,
-52,
-52,
-52,
-52,
-52,
-52,
-52,
-53,
-53,
-52,
-52,
-50,
-50,
-54,
-54,
-54,
-54,
-42,
-26,
-26,
-26,
-17,
-17,
-13,
-13,
-13,
-13,
-13,
-13,
-13,
-13,
-13,
-13,
-13,
-13,
-13,
-13,
-13,
-13,
-14,
-14,
-13,
-13,
-9,
-9,
-10,
-10,
-11,
-11,
-11,
-11,
-12,
-12,
-10,
-10,
-9,
-9,
-10,
-10,
-9,
-9,
-12,
-12,
-9,
-9,
-12,
-12,
-12,
-12,
-9,
-9,
-9,
-9,
-12,
-12,
-13,
-13,
-15,
-15,
-13,
-13,
-15,
-15,
-15,
-15,
-15,
-15,
-14,
-14,
-14,
-14,
-13,
-13,
-13,
-13,
-16,
-16,
-14,
-14,
-9,
-9,
-7,
-7,
-7,
-7,
-8,
-8,
-10,
-10,
-12,
-12,
-11,
-11,
-13,
-13,
-12,
-12,
-11,
-11,
-11,
-11,
-12,
-12,
-10,
-10,
-9,
-9,
-9,
-9,
-10,
-10,
-11,
-11,
-11,
-11,
-11,
-11,
-12,
-12,
-11,
-11,
-10,
-10,
-10,
-10,
-11,
-11,
-11,
-11,
-11,
-11,
-9,
-9,
-9,
-9,
-11,
-11,
-13,
-13,
-13,
-13,
-12,
-12,
-10,
-10,
-11,
-11,
-12,
-12,
-10,
-10,
-10,
-10,
-10,
-10,
-11,
-11,
-12,
-12,
-10,
-10,
-9,
-9,
-10,
-10,
-9,
-9,
-10,
-10,
-12,
-12,
-11,
-11,
-13,
-13,
-11,
-11,
-12,
-12,
-10,
-10,
-11,
-11,
-9,
-9,
-9,
-9,
-9,
-9,
-10,
-10,
-10,
-10,
-11,
-11,
-12,
-12,
-11,
-11,
-10,
-10,
-10,
-10,
-11,
-11,
-12,
-12,
-11,
-11,
-10,
-10,
-10,
-10,
-10,
-10,
-10,
-10,
-12,
-12,
-13,
-13,
-10,
-10,
-12,
-12,
-11,
-11,
-12,
-12,
-10,
-10,
-11,
-11,
-11,
-11,
-11,
-11,
-10,
-10,
-10,
-10,
-11,
-11,
-10,
-10,
-10,
-10,
-10,
-10,
-12,
-12,
-10,
-10,
-11,
-11,
-11,
-11,
-12,
-12,
-10,
-10,
-10,
-10,
-11,
