5-grundlagen-opAmps/data/ALL0028/A0028CH2.CSV

Memory Length,4000,
Trigger Level,0.00000e+00,
Source,CH2,
Probe,1.0X,
Vertical Units,V,
Vertical Scale,1.00000e+00,
Vertical Position,0.00000e+00,
Horizontal Units,S,
Horizontal Scale,1.00000e-06,
Horizontal Position,1.0000000e-06,
Horizontal Mode,Main,
Sampling Period,4.00000e-09,
Firmware,V1.14,
Time, ,
Mode,Fast,
Waveform Data,
-12,
-12,
-13,
-12,
-13,
-13,
-12,
-12,
-12,
-13,
-12,
-12,
-12,
-12,
-12,
-12,
-13,
-12,
-13,
-13,
-13,
-13,
-13,
-13,
-13,
-12,
-13,
-13,
-13,
-13,
-13,
-13,
-13,
-13,
-13,
-13,
-13,
-13,
-13,
-13,
-13,
-13,
-13,
-13,
-14,
-12,
-13,
-13,
-13,
-13,
-13,
-13,
-13,
-13,
-13,
-13,
-14,
-12,
-13,
-12,
-12,
-13,
-12,
-12,
-13,
-11,
-13,
-12,
-12,
-11,
-12,
-12,
-12,
-12,
-12,
-12,
-12,
-11,
-12,
-10,
-12,
-12,
-12,
-11,
-11,
-10,
-11,
-10,
-11,
-10,
-11,
-10,
-11,
-10,
-11,
-9,
-11,
-10,
-11,
-9,
-10,
-10,
-10,
-9,
-10,
-9,
-9,
-8,
-9,
-8,
-9,
-8,
-9,
-8,
-8,
-8,
-8,
-8,
-9,
-7,
-7,
-7,
-7,
-7,
-7,
-6,
-7,
-7,
-7,
-6,
-7,
-7,
-7,
-6,
-7,
-6,
-7,
-6,
-6,
-6,
-6,
-5,
-6,
-6,
-5,
-5,
-5,
-4,
-4,
-4,
-5,
-4,
-5,
-3,
-4,
-4,
-4,
-3,
-4,
-2,
-3,
-3,
-3,
-3,
-3,
-2,
-3,
-2,
-2,
-2,
-3,
-2,
-2,
-1,
-2,
-1,
-1,
-1,
-1,
-1,
-1,
0,
0,
0,
0,
1,
0,
0,
0,
1,
1,
1,
1,
2,
1,
2,
1,
3,
1,
3,
2,
2,
2,
3,
3,
2,
2,
3,
3,
3,
3,
4,
3,
4,
4,
4,
4,
4,
4,
4,
4,
5,
4,
4,
5,
5,
5,
6,
5,
6,
5,
6,
5,
6,
6,
7,
6,
7,
7,
7,
7,
7,
7,
7,
7,
7,
7,
7,
7,
7,
7,
8,
7,
9,
8,
8,
9,
8,
9,
9,
8,
8,
9,
9,
9,
10,
9,
10,
9,
10,
9,
10,
9,
10,
9,
9,
10,
9,
9,
10,
9,
10,
9,
10,
9,
10,
10,
10,
10,
10,
10,
10,
11,
11,
11,
11,
11,
11,
10,
11,
10,
11,
11,
11,
11,
10,
11,
11,
11,
11,
11,
11,
12,
11,
11,
11,
12,
11,
11,
11,
11,
11,
10,
11,
11,
11,
11,
11,
11,
11,
11,
11,
11,
12,
9,
11,
11,
11,
11,
11,
11,
11,
11,
11,
10,
11,
10,
10,
10,
11,
11,
11,
9,
11,
11,
10,
9,
9,
9,
10,
9,
10,
9,
10,
9,
9,
9,
9,
9,
9,
9,
10,
9,
9,
8,
9,
8,
8,
8,
7,
8,
8,
7,
7,
7,
7,
7,
7,
7,
7,
7,
7,
7,
7,
7,
7,
6,
7,
7,
6,
6,
6,
5,
6,
5,
6,
5,
6,
5,
6,
5,
5,
5,
5,
5,
5,
4,
4,
3,
3,
5,
4,
4,
4,
3,
3,
3,
3,
3,
3,
2,
3,
1,
2,
2,
3,
1,
2,
1,
2,
1,
1,
1,
2,
1,
0,
1,
1,
0,
0,
0,
0,
-1,
0,
-1,
0,
-1,
-1,
-1,
-1,
-1,
-1,
-2,
-1,
-3,
-1,
-2,
-3,
-2,
-3,
-3,
-2,
-3,
-2,
-3,
-3,
-4,
-3,
-4,
-2,
-4,
-4,
-5,
-4,
-5,
-5,
-5,
-4,
-5,
-5,
-5,
-5,
-6,
-5,
-6,
-5,
-5,
-6,
-6,
-5,
-7,
-6,
-7,
-7,
-7,
-6,
-7,
-7,
-7,
-7,
-7,
-7,
-8,
-7,
-7,
-7,
-8,
-7,
-9,
-8,
-8,
-8,
-8,
-8,
-9,
-8,
-9,
-8,
-10,
-9,
-10,
-9,
-10,
-9,
-11,
-9,
-10,
-9,
-10,
-10,
-11,
-9,
-11,
-11,
-11,
-10,
-11,
-11,
-12,
-10,
-12,
-11,
-12,
-11,
-12,
-12,
-12,
-11,
-12,
-11,
-12,
-12,
-12,
-12,
-13,
-12,
-13,
-12,
-12,
-13,
-12,
-12,
-13,
-12,
-13,
-13,
-13,
-13,
-13,
-12,
-13,
-13,
-13,
-13,
-13,
-13,
-13,
-12,
-13,
-13,
-13,
-13,
-13,
-13,
-13,
-12,
-14,
-13,
-13,
-13,
-13,
-13,
-13,
-13,
-13,
-13,
-14,
-13,
-13,
-13,
-13,
-12,
-13,
-13,
-12,
-13,
-13,
-13,
-12,
-12,
-13,
-13,
-13,
-12,
-12,
-12,
-13,
-11,
-13,
-12,
-12,
-12,
-13,
-12,
-12,
-12,
-12,
-12,
-13,
-12,
-12,
-11,
-11,
-12,
-12,
-10,
-12,
-12,
-12,
-11,
-12,
-10,
-11,
-11,
-11,
-10,
-11,
-10,
-11,
-9,
-11,
-9,
-10,
-9,
-10,
-9,
-11,
-9,
-9,
-10,
-10,
-9,
-9,
-9,
-9,
-8,
-9,
-8,
-8,
-8,
-9,
-7,
-9,
-8,
-7,
-7,
-8,
-7,
-7,
-7,
-7,
-7,
-7,
-6,
-7,
-7,
-7,
-5,
-7,
-6,
-6,
-6,
-6,
-5,
-6,
-5,
-6,
-6,
-6,
-5,
-5,
-5,
-4,
-4,
-5,
-5,
-4,
-4,
-4,
-3,
-4,
-3,
-4,
-3,
-3,
-4,
-4,
-3,
-3,
-2,
-2,
-2,
-3,
-2,
-2,
-2,
-2,
-1,
-2,
-1,
-1,
-1,
-1,
0,
-1,
0,
-1,
0,
-1,
0,
0,
1,
1,
1,
1,
1,
1,
1,
1,
2,
1,
2,
1,
1,
2,
2,
1,
3,
2,
3,
3,
2,
3,
3,
3,
4,
3,
4,
3,
4,
3,
3,
4,
4,
4,
4,
5,
5,
5,
5,
5,
6,
5,
6,
5,
5,
6,
5,
6,
6,
5,
6,
7,
7,
6,
7,
6,
7,
7,
7,
7,
7,
7,
8,
8,
8,
7,
8,
8,
8,
8,
8,
8,
8,
9,
8,
9,
9,
9,
8,
9,
9,
9,
10,
9,
9,
9,
9,
9,
10,
10,
10,
9,
10,
10,
10,
10,
10,
9,
10,
9,
10,
10,
10,
9,
11,
11,
11,
11,
10,
10,
11,
10,
11,
11,
11,
11,
10,
10,
11,
11,
11,
10,
12,
11,
11,
10,
11,
11,
11,
11,
11,
10,
11,
11,
11,
10,
11,
11,
11,
11,
11,
11,
11,
11,
11,
11,
11,
11,
11,
10,
11,
10,
11,
10,
10,
10,
10,
11,
10,
10,
11,
10,
10,
10,
10,
10,
10,
10,
10,
9,
9,
9,
10,
9,
9,
10,
9,
9,
10,
9,
9,
9,
8,
9,
8,
9,
8,
9,
9,
9,
8,
8,
9,
8,
8,
8,
8,
7,
7,
7,
7,
7,
7,
7,
7,
7,
7,
7,
6,
6,
7,
6,
6,
6,
7,
5,
5,
6,
5,
5,
5,
5,
6,
5,
4,
5,
4,
5,
5,
4,
4,
3,
4,
3,
3,
4,
4,
3,
3,
2,
3,
3,
3,
2,
3,
2,
2,
1,
2,
2,
2,
1,
3,
1,
2,
1,
0,
1,
0,
1,
0,
0,
0,
0,
0,
-1,
0,
-1,
-1,
-1,
-1,
-1,
-1,
-1,
-2,
-1,
-1,
-1,
-2,
-2,
-2,
-2,
-2,
-3,
-3,
-3,
-2,
-4,
-2,
-4,
-3,
-4,
-4,
-5,
-4,
-5,
-4,
-4,
-5,
-5,
-4,
-5,
-5,
-5,
-5,
-6,
-5,
-5,
-5,
-7,
-5,
-6,
-6,
-7,
-5,
-7,
-6,
-7,
-6,
-7,
-7,
-7,
-7,
-8,
-7,
-8,
-8,
-8,
-8,
-8,
-8,
-8,
-7,
-9,
-9,
-8,
-8,
-9,
-9,
-10,
-9,
-10,
-9,
-10,
-9,
-10,
-9,
-10,
-9,
-10,
-10,
-10,
-10,
-11,
-9,
-11,
-10,
-11,
-10,
-11,
-10,
-12,
-10,
-11,
-11,
-11,
-11,
-12,
-12,
-12,
-11,
-12,
-11,
-12,
-11,
-12,
-12,
-12,
-13,
-12,
-13,
-13,
-12,
-12,
-12,
-12,
-12,
-13,
-12,
-13,
-12,
-12,
-13,
-13,
-12,
-13,
-12,
-13,
-13,
-13,
-13,
-13,
-13,
-14,
-13,
-13,
-13,
-14,
-13,
-14,
-13,
-13,
-13,
-13,
-13,
-13,
-13,
-13,
-13,
-13,
-13,
-13,
-13,
-13,
-12,
-13,
-13,
-13,
-13,
-13,
-12,
-13,
-12,
-13,
-12,
-13,
-13,
-13,
-12,
-12,
-12,
-12,
-12,
-13,
-12,
-12,
-12,
-12,
-12,
-13,
-12,
-12,
-12,
-12,
-12,
-12,
-11,
-12,
-12,
-12,
-11,
-12,
-11,
-11,
-10,
-11,
-11,
-11,
-10,
-11,
-10,
-11,
-9,
-12,
-10,
-11,
-10,
-11,
-9,
-9,
-9,
-9,
-9,
-10,
-9,
-9,
-8,
-9,
-8,
-9,
-8,
-8,
-8,
-9,
-8,
-8,
-8,
-9,
-7,
-7,
-8,
-7,
-7,
-7,
-7,
-8,
-7,
-7,
-6,
-7,
-6,
-7,
-6,
-6,
-6,
-6,
-5,
-6,
-5,
-6,
-5,
-5,
-5,
-5,
-4,
-4,
-4,
-5,
-5,
-5,
-4,
-4,
-5,
-4,
-3,
-4,
-3,
-4,
-3,
-3,
-3,
-3,
-3,
-3,
-2,
-2,
-2,
-2,
-1,
-2,
-2,
-2,
-1,
-2,
-1,
-1,
0,
-1,
0,
-1,
0,
1,
0,
0,
1,
1,
1,
0,
1,
1,
2,
1,
1,
1,
2,
2,
3,
1,
2,
2,
3,
2,
2,
3,
3,
3,
3,
2,
4,
3,
4,
3,
4,
4,
4,
4,
4,
3,
5,
5,
5,
5,
5,
5,
5,
6,
5,
5,
5,
5,
6,
6,
5,
5,
6,
7,
7,
6,
7,
6,
7,
7,
7,
7,
7,
8,
8,
8,
8,
7,
8,
8,
9,
8,
8,
8,
8,
8,
8,
8,
8,
8,
8,
9,
9,
8,
9,
9,
9,
9,
10,
9,
10,
9,
10,
10,
10,
9,
9,
10,
10,
9,
10,
10,
9,
9,
11,
10,
10,
9,
11,
11,
11,
10,
10,
11,
11,
10,
11,
11,
11,
11,
10,
11,
11,
10,
11,
11,
11,
11,
11,
11,
11,
11,
11,
11,
11,
11,
11,
11,
12,
11,
11,
11,
11,
10,
11,
11,
11,
10,
11,
10,
11,
11,
11,
11,
11,
10,
11,
11,
10,
10,
11,
9,
11,
10,
10,
9,
10,
10,
11,
9,
10,
9,
10,
9,
9,
10,
10,
9,
10,
9,
10,
9,
9,
9,
9,
9,
9,
9,
8,
9,
8,
8,
8,
8,
8,
9,
8,
8,
8,
7,
7,
8,
8,
7,
7,
7,
7,
7,
7,
7,
7,
6,
7,
7,
5,
6,
5,
6,
6,
5,
5,
5,
5,
5,
5,
5,
5,
5,
4,
5,
5,
4,
5,
3,
4,
4,
3,
3,
4,
4,
3,
2,
3,
3,
3,
2,
2,
2,
3,
1,
2,
1,
2,
1,
2,
1,
2,
1,
1,
0,
1,
1,
0,
-1,
1,
0,
-1,
-1,
1,
0,
0,
-1,
-1,
-1,
-2,
-2,
-1,
-2,
-1,
-3,
-2,
-2,
-3,
-2,
-2,
-4,
-2,
-3,
-2,
-2,
-3,
-4,
-2,
-4,
-4,
-5,
-4,
-4,
-3,
-5,
-4,
-5,
-5,
-5,
-5,
-5,
-5,
-5,
-5,
-5,
-5,
-7,
-5,
-7,
-6,
-7,
-6,
-6,
-6,
-7,
-6,
-7,
-7,
-7,
-7,
-7,
-7,
-7,
-7,
-8,
-7,
-8,
-8,
-9,
-8,
-9,
-8,
-8,
-9,
-9,
-8,
-9,
-8,
-10,
-9,
-9,
-9,
-10,
-9,
-11,
-10,
-11,
-9,
-10,
-10,
-11,
-10,
-11,
-10,
-11,
-11,
-12,
-11,
-12,
-11,
-12,
-11,
-12,
-11,
-11,
-10,
-12,
-12,
-12,
-11,
-12,
-12,
-12,
-11,
-12,
-11,
-13,
-12,
-12,
-13,
-12,
-13,
-13,
-12,
-13,
-12,
-13,
-12,
-13,
-13,
-13,
-13,
-13,
-13,
-13,
-13,
-13,
-13,
-13,
-13,
-12,
-13,
-13,
-13,
-14,
-13,
-13,
-12,
-14,
-13,
-14,
-13,
-13,
-13,
-13,
-13,
-13,
-13,
-13,
-13,
-13,
-12,
-13,
-12,
-12,
-12,
-12,
-12,
-13,
-13,
-13,
-12,
-12,
-13,
-13,
-13,
-13,
-12,
-13,
-12,
-12,
-12,
-12,
-12,
-12,
-12,
-12,
-12,
-13,
-12,
-12,
-12,
-12,
-12,
-12,
-12,
-12,
-10,
-12,
-11,
-11,
-12,
-12,
-10,
-11,
-11,
-11,
-10,
-11,
-10,
-11,
-10,
-11,
-10,
-11,
-9,
-11,
-9,
-10,
-9,
-10,
-9,
-8,
-9,
-10,
-8,
-9,
-8,
-9,
-8,
-8,
-8,
-9,
-8,
-9,
-8,
-8,
-7,
-8,
-8,
-7,
-7,
-7,
-6,
-7,
-6,
-7,
-6,
-7,
-6,
-7,
-6,
-6,
-5,
-6,
-5,
-6,
-5,
-6,
-5,
-5,
-5,
-5,
-5,
-5,
-4,
-4,
-4,
-4,
-3,
-4,
-3,
-4,
-3,
-4,
-4,
-3,
-3,
-3,
-2,
-3,
-2,
-3,
-2,
-3,
-1,
-1,
-1,
-2,
-2,
-1,
-1,
-1,
-1,
-1,
-1,
0,
1,
-1,
1,
0,
0,
1,
0,
1,
1,
0,
1,
1,
1,
1,
2,
1,
2,
2,
3,
3,
2,
2,
3,
3,
3,
3,
2,
3,
3,
3,
4,
3,
4,
4,
4,
4,
4,
5,
5,
5,
5,
5,
5,
5,
5,
5,
5,
5,
5,
6,
5,
6,
6,
6,
6,
6,
7,
7,
7,
7,
7,
7,
7,
7,
7,
7,
7,
7,
8,
7,
8,
8,
8,
8,
8,
9,
8,
8,
8,
8,
9,
9,
9,
9,
9,
9,
10,
9,
9,
10,
10,
9,
9,
9,
10,
9,
10,
9,
10,
10,
10,
10,
11,
10,
11,
11,
10,
10,
10,
10,
10,
11,
11,
11,
11,
9,
11,
11,
11,
9,
10,
11,
11,
10,
11,
10,
11,
11,
10,
11,
11,
11,
11,
11,
11,
11,
11,
11,
11,
11,
11,
11,
11,
11,
11,
11,
11,
11,
11,
10,
10,
10,
10,
11,
10,
11,
11,
10,
11,
10,
10,
10,
10,
10,
11,
11,
10,
10,
10,
9,
10,
10,
10,
10,
10,
9,
9,
9,
10,
9,
10,
9,
10,
9,
10,
9,
9,
9,
9,
9,
10,
9,
8,
9,
8,
8,
9,
8,
7,
8,
7,
8,
8,
8,
8,
7,
8,
7,
7,
7,
7,
6,
7,
6,
7,
6,
6,
6,
6,
6,
6,
6,
5,
6,
5,
4,
5,
5,
5,
5,
5,
5,
5,
5,
5,
3,
4,
3,
4,
3,
3,
3,
3,
3,
3,
2,
3,
3,
2,
1,
3,
1,
2,
2,
2,
1,
1,
1,
1,
1,
1,
1,
1,
1,
1,
0,
1,
0,
0,
0,
0,
-1,
0,
-1,
-1,
-1,
-1,
-1,
-1,
-1,
-1,
-1,
0,
-2,
-1,
-2,
-3,
-3,
-2,
-3,
-3,
-4,
-3,
-3,
-4,
-3,
-2,
-4,
-4,
-4,
-4,
-5,
-5,
-4,
-5,
-5,
-5,
-5,
-5,
-5,
-5,
-6,
-5,
-6,
-6,
-7,
-5,
-6,
-6,
-7,
-6,
-7,
-7,
-7,
-6,
-7,
-7,
-7,
-6,
-7,
-7,
-8,
-8,
-8,
-8,
-9,
-8,
-9,
-8,
-9,
-9,
-9,
-8,
-9,
-9,
-9,
-8,
-10,
-9,
-9,
-9,
-11,
-9,
-10,
-10,
-11,
-10,
-11,
-9,
-11,
-9,
-11,
-11,
-11,
-10,
-11,
-10,
-12,
-11,
-12,
-11,
-11,
-11,
-11,
-12,
-12,
-11,
-12,
-13,
-12,
-11,
-12,
-12,
-12,
-12,
-12,
-11,
-13,
-13,
-12,
-12,
-13,
-13,
-12,
-12,
-12,
-12,
-12,
-13,
-13,
-12,
-13,
-13,
-12,
-13,
-13,
-13,
-13,
-12,
-13,
-13,
-13,
-13,
-13,
-13,
-14,
-12,
-12,
-13,
-13,
-13,
-13,
-13,
-13,
-11,
-13,
-13,
-13,
-13,
-13,
-13,
-13,
-12,
-12,
-12,
-13,
-13,
-13,
-13,
-13,
-12,
-13,
-13,
-12,
-12,
-13,
-12,
-12,
-12,
-12,
-12,
-12,
-12,
-13,
-12,
-13,
-12,
-12,
-12,
-12,
-12,
-12,
-10,
-12,
-11,
-11,
-11,
-12,
-10,
-12,
-10,
-11,
-10,
-12,
-10,
-10,
-10,
-10,
-9,
-11,
-9,
-11,
-9,
-10,
-9,
-9,
-9,
-10,
-9,
-9,
-9,
-10,
-8,
-9,
-8,
-9,
-8,
-9,
-8,
-7,
-8,
-8,
-7,
-7,
-8,
-8,
-7,
-7,
-6,
-7,
-7,
-7,
-6,
-7,
-6,
-7,
-6,
-7,
-6,
-6,
-5,
-6,
-5,
-6,
-5,
-5,
-5,
-5,
-4,
-5,
-4,
-5,
-4,
-4,
-3,
-4,
-4,
-4,
-4,
-4,
-3,
-3,
-3,
-3,
-3,
-2,
-3,
-3,
-3,
-3,
-2,
-3,
-2,
-2,
-1,
-2,
-1,
-2,
-1,
-1,
-1,
0,
0,
-1,
1,
0,
0,
1,
1,
0,
0,
0,
1,
1,
2,
1,
2,
1,
2,
1,
2,
1,
2,
1,
2,
2,
3,
3,
2,
2,
4,
4,
3,
3,
4,
3,
3,
4,
3,
4,
4,
5,
5,
5,
5,
4,
5,
6,
5,
6,
6,
5,
6,
5,
5,
7,
6,
5,
6,
6,
6,
7,
6,
7,
7,
7,
7,
7,
7,
7,
7,
7,
7,
8,
8,
8,
9,
8,
8,
9,
9,
9,
8,
8,
9,
8,
8,
9,
9,
9,
9,
9,
10,
9,
10,
10,
10,
9,
10,
9,
10,
10,
10,
10,
10,
10,
11,
9,
10,
11,
11,
11,
10,
9,
10,
10,
10,
10,
11,
11,
10,
11,
11,
12,
11,
10,
12,
11,
11,
11,
11,
11,
11,
11,
11,
11,
11,
11,
11,
11,
11,
12,
11,
11,
11,
10,
11,
10,
11,
11,
11,
11,
11,
11,
11,
10,
11,
11,
11,
10,
11,
11,
11,
11,
11,
10,
11,
10,
10,
10,
10,
10,
10,
11,
10,
9,
11,
9,
10,
9,
10,
9,
10,
9,
10,
9,
9,
9,
9,
9,
9,
9,
9,
9,
9,
9,
9,
9,
8,
7,
8,
8,
8,
8,
7,
8,
8,
8,
8,
7,
7,
8,
8,
7,
7,
7,
7,
7,
7,
7,
6,
6,
7,
7,
7,
6,
5,
6,
5,
5,
5,
5,
6,
4,
5,
5,
5,
4,
4,
4,
5,
3,
4,
4,
4,
3,
3,
3,
3,
3,
3,
2,
2,
1,
3,
2,
3,
2,
2,
1,
3,
1,
1,
1,
1,
1,
1,
1,
0,
1,
0,
0,
0,
-1,
0,
1,
-1,
-1,
0,
-1,
0,
-1,
-1,
-1,
-1,
-2,
-1,
-3,
-1,
-2,
-3,
-1,
-2,
-2,
-3,
-4,
-2,
-3,
-4,
-4,
-3,
-4,
-4,
-4,
-4,
-5,
-4,
-5,
-4,
-5,
-5,
-5,
-5,
-5,
-5,
-6,
-4,
-6,
-6,
-7,
-7,
-7,
-6,
-6,
-6,
-6,
-7,
-7,
-7,
-8,
-7,
-7,
-7,
-7,
-7,
-8,
-7,
-8,
-8,
-8,
-8,
-9,
-8,
-8,
-8,
-9,
-8,
-9,
-9,
-10,
-9,
-10,
-9,
-10,
-9,
-10,
-9,
-11,
-10,
-11,
-9,
-10,
-10,
-11,
-10,
-11,
-10,
-11,
-11,
-11,
-10,
-12,
-10,
-11,
-11,
-12,
-12,
-12,
-10,
-13,
-12,
-12,
-11,
-12,
-12,
-12,
-12,
-13,
-12,
-13,
-12,
-12,
-13,
-12,
-12,
-13,
-12,
-13,
-12,
-12,
-12,
-13,
-13,
-14,
-13,
-12,
-13,
-13,
-12,
-13,
-13,
-13,
-13,
-13,
-13,
-13,
-13,
-14,
-13,
-14,
-13,
-13,
-13,
-13,
-13,
-13,
-12,
-14,
-13,
-13,
-12,
-13,
-13,
-13,
-13,
-12,
-13,
-12,
-12,
-12,
-13,
-13,
-12,
-12,
-13,
-12,
-13,
-13,
-13,
-13,
-12,
-12,
-13,
-13,
-12,
-12,
-11,
-12,
-12,
-12,
-12,
-13,
-12,
-11,
-12,
-11,
-11,
-12,
-11,
-12,
-12,
-12,
-10,
-12,
-10,
-11,
-9,
-11,
-10,
-10,
-10,
-11,
-10,
-11,
-9,
-10,
-10,
-11,
-9,
-10,
-9,
-10,
-9,
-8,
-9,
-10,
-8,
-9,
-8,
-9,
-8,
-8,
-8,
-9,
-8,
-9,
-7,
-8,
-8,
-7,
-6,
-7,
-7,
-7,
-7,
-7,
-6,
-7,
-6,
-7,
-6,
-7,
-6,
-6,
-5,
-6,
-5,
-6,
-5,
-6,
-4,
-5,
-5,
-4,
-5,
-5,
-4,
-4,
-4,
-4,
-3,
-4,
-3,
-4,
-3,
-3,
-3,
-3,
-4,
-3,
-2,
-3,
-2,
-2,
-2,
-2,
-2,
-2,
-1,
-2,
-1,
-1,
-1,
-2,
-1,
-1,
0,
0,
0,
-1,
1,
0,
1,
0,
0,
1,
2,
1,
1,
1,
1,
1,
1,
1,
2,
2,
2,
2,
2,
2,
2,
2,
3,
3,
3,
3,
3,
3,
4,
3,
4,
4,
5,
4,
4,
4,
5,
4,
4,
5,
5,
5,
5,
5,
5,
5,
6,
6,
6,
6,
6,
6,
7,
6,
7,
6,
6,
7,
6,
6,
8,
7,
8,
7,
7,
7,
8,
7,
8,
8,
8,
8,
8,
9,
8,
7,
8,
8,
8,
9,
9,
9,
10,
10,
9,
9,
10,
9,
10,
9,
10,
9,
9,
9,
10,
9,
9,
9,
10,
10,
9,
9,
10,
10,
10,
10,
11,
11,
11,
10,
11,
10,
10,
10,
11,
10,
11,
11,
10,
11,
11,
10,
12,
11,
12,
11,
11,
10,
11,
11,
11,
11,
11,
11,
11,
10,
11,
11,
11,
11,
11,
11,
11,
11,
11,
11,
11,
11,
11,
9,
11,
11,
10,
11,
11,
11,
10,
11,
11,
10,
11,
10,
11,
9,
10,
9,
10,
10,
10,
9,
10,
9,
10,
9,
10,
9,
10,
9,
9,
9,
8,
9,
10,
8,
9,
8,
8,
9,
8,
8,
8,
9,
8,
8,
8,
8,
8,
7,
8,
8,
7,
7,
8,
7,
8,
7,
7,
7,
7,
7,
7,
6,
7,
6,
6,
6,
6,
5,
7,
5,
6,
6,
6,
5,
6,
5,
5,
5,
5,
4,
5,
5,
5,
4,
4,
3,
4,
3,
3,
4,
4,
3,
3,
2,
3,
2,
2,
3,
2,
1,
2,
2,
2,
1,
2,
1,
2,
1,
1,
1,
1,
1,
0,
-1,
1,
0,
0,
0,
0,
-1,
0,
-1,
-1,
-1,
-1,
-1,
-1,
-1,
-1,
-3,
-1,
-1,
-3,
-3,
-2,
-3,
-2,
-3,
-2,
-2,
-4,
-4,
-2,
-4,
-4,
-4,
-3,
-4,
-4,
-4,
-3,
-4,
-5,
-5,
-5,
-5,
-5,
-5,
-6,
-6,
-6,
-6,
-5,
-6,
-6,
-6,
-6,
-7,
-6,
-7,
-5,
-7,
-7,
-7,
-7,
-7,
-7,
-7,
-7,
-8,
-7,
-8,
-8,
-8,
-8,
-9,
-8,
-9,
-8,
-9,
-8,
-9,
-9,
-9,
-8,
-10,
-8,
-10,
-9,
-10,
-9,
-10,
-10,
-10,
-9,
-11,
-9,
-11,
-9,
-11,
-10,
-11,
-10,
-11,
-10,
-12,
-11,
-12,
-12,
-11,
-11,
-12,
-11,
-12,
-11,
-12,
-11,
-12,
-12,
-13,
-12,
-12,
-12,
-12,
-12,
-13,
-12,
-13,
-13,
-13,
-13,
-13,
-13,
-13,
-13,
-13,
-13,
-13,
-13,
-13,
-13,
-14,
-13,
-13,
-13,
-13,
-13,
-13,
-13,
-13,
-13,
-13,
-13,
-13,
-13,
-13,
-13,
-13,
-12,
-13,
-13,
-13,
-13,
-13,
-13,
-13,
-13,
-13,
-12,
-13,
-13,
-13,
-12,
-13,
-12,
-13,
-12,
-13,
-12,
-12,
-13,
-12,
-13,
-13,
-12,
-13,
-11,
-13,
-12,
-12,
-12,
-12,
-12,
-12,
-12,
-12,
-12,
-12,
-12,
-12,
-11,
-11,
-12,
-11,
-12,
-11,
-10,
-11,
-10,
-11,
-10,
-11,
-10,
-11,
-10,
-11,
-9,
-11,
-10,
-11,
-9,
-10,
-9,
-10,
-9,
-9,
-9,
-10,
-9,
-9,
-8,
-9,
-8,
-8,
-8,
-9,
-9,
-9,
-7,
-9,
-7,
-7,
-7,
-7,
-8,
-7,
-8,
-8,
-7,
-7,
-6,
-7,
-7,
-6,
-7,
-6,
-6,
-7,
-6,
-7,
-5,
-6,
-5,
-5,
-5,
-5,
-5,
-5,
-5,
-5,
-5,
-5,
-4,
-4,
-4,
-4,
-3,
-4,
-3,
-4,
-3,
-4,
-3,
-3,
-3,
-3,
-2,
-3,
-2,
-2,
-1,
-2,
-2,
-2,
-1,
-2,
-1,
-1,
-1,
0,
0,
-1,
0,
-1,
0,
-1,
0,
0,
0,
0,
1,
1,
0,
1,
1,
1,
2,
1,
2,
2,
2,
1,
3,
2,
2,
2,
2,
3,
3,
3,
3,
3,
3,
3,
3,
4,
4,
5,
4,
4,
5,
4,
5,
5,
4,
5,
6,
5,
6,
5,
6,
5,
6,
6,
6,
5,
6,
7,
6,
6,
6,
7,
7,
7,
7,
7,
7,
7,
7,
7,
7,
8,
8,
8,
8,
7,
8,
8,
8,
9,
9,
8,
9,
9,
9,
9,
9,
9,
9,
9,
10,
10,
9,
9,
9,
9,
10,
9,
9,
10,
10,
9,
10,
9,
10,
10,
11,
11,
10,
9,
11,
10,
10,
10,
11,
10,
11,
10,
10,
10,
11,
9,
11,
11,
11,
11,
11,
10,
11,
11,
11,
10,
11,
11,
11,
11,
11,
11,
11,
11,
11,
11,
11,
11,
10,
11,
11,
11,
10,
11,
11,
11,
11,
11,
11,
11,
11,
10,
11,
10,
11,
10,
11,
10,
11,
10,
11,
11,
10,
9,
11,
9,
10,
10,
11,
9,
10,
9,
10,
10,
10,
9,
10,
9,
9,
9,
10,
9,
10,
9,
10,
9,
10,
9,
8,
9,
8,
8,
8,
8,
8,
9,
8,
7,
8,
8,
8,
7,
7,
8,
8,
7,
7,
7,
7,
7,
7,
7,
6,
7,
7,
6,
7,
6,
6,
5,
5,
5,
5,
6,
5,
5,
5,
5,
5,
4,
4,
4,
4,
4,
4,
3,
3,
3,
3,
3,
4,
2,
3,
3,
3,
3,
3,
2,
3,
2,
2,
2,
2,
1,
1,
1,
2,
1,
1,
1,
0,
1,
1,
1,
1,
0,
0,
0,
-1,
-1,
0,
-1,
0,
-1,
-1,
-2,
-2,
-2,
-1,
-2,
-1,
-2,
-2,
-2,
-2,
-4,
-2,
-3,
-2,
-3,
-2,
-4,
-3,
-4,
-3,
-4,
-4,
-4,
-5,
-4,
-4,
-5,
-5,
-6,
-5,
-5,
-6,
-5,
-5,
-7,
-5,
-7,
-6,
-6,
-6,
-7,
-7,
-7,
-6,
-7,
-7,
-7,
-6,
-7,
-7,
-7,
-7,
-7,
-7,
-8,
-8,
-8,
-8,
-9,
-8,
-9,
-9,
-8,
-9,
-9,
-8,
-9,
-8,
-10,
-9,
-10,
-9,
-11,
-9,
-11,
-9,
-9,
-9,
-10,
-10,
-11,
-9,
-10,
-10,
-11,
-9,
-12,
-12,
-11,
-11,
-11,
-11,
-12,
-10,
-12,
-10,
-12,
-11,
-12,
-11,
-12,
-12,
-12,
-12,
-12,
-12,
-13,
-12,
-12,
-12,
-12,
-13,
-13,
-12,
-12,
-12,
-13,
-13,
-13,
-13,
-13,
-13,
-13,
-13,
-13,
-13,
-14,
-13,
-13,
-13,
-13,
-13,
-13,
-13,
-13,
-12,
-13,
-12,
-13,
-13,
-13,
-13,
-13,
-12,
-13,
-13,
-13,
-13,
-13,
-13,
-13,
-12,
-14,
-13,
