5-grundlagen-opAmps/data/ALL0028/A0028CH1.CSV

Memory Length,4000,
Trigger Level,0.00000e+00,
Source,CH1,
Probe,1.0X,
Vertical Units,V,
Vertical Scale,5.00000e-02,
Vertical Position,0.00000e+00,
Horizontal Units,S,
Horizontal Scale,1.00000e-06,
Horizontal Position,1.0000000e-06,
Horizontal Mode,Main,
Sampling Period,4.00000e-09,
Firmware,V1.14,
Time, ,
Mode,Fast,
Waveform Data,
-11,
-11,
-14,
-17,
-9,
-16,
-14,
-8,
-20,
-8,
-11,
-18,
-5,
-14,
-16,
-3,
-16,
-11,
-4,
-16,
-8,
-6,
-16,
-4,
-8,
-12,
-2,
-10,
-9,
-1,
-12,
-3,
-4,
-10,
-3,
-4,
-7,
-2,
-5,
-5,
-2,
-3,
-5,
-1,
-3,
-2,
-1,
-2,
-2,
-1,
-1,
-2,
1,
1,
-2,
4,
-2,
0,
6,
-3,
3,
4,
-3,
7,
0,
2,
7,
0,
5,
6,
2,
5,
7,
3,
6,
8,
3,
8,
5,
3,
11,
5,
6,
10,
6,
9,
7,
9,
9,
8,
10,
7,
12,
9,
8,
14,
6,
13,
14,
6,
15,
12,
8,
16,
12,
10,
18,
11,
10,
19,
8,
15,
20,
7,
21,
15,
7,
23,
11,
14,
22,
9,
17,
18,
11,
19,
17,
12,
20,
16,
15,
21,
15,
18,
23,
12,
20,
20,
15,
21,
17,
17,
19,
18,
19,
19,
20,
19,
18,
20,
18,
20,
21,
18,
21,
20,
17,
23,
19,
17,
25,
16,
20,
24,
16,
23,
22,
15,
24,
19,
19,
24,
18,
20,
24,
19,
21,
22,
18,
22,
23,
17,
23,
20,
17,
23,
18,
20,
20,
20,
20,
20,
22,
17,
23,
21,
16,
25,
17,
20,
25,
14,
22,
22,
14,
25,
19,
15,
24,
16,
16,
24,
15,
17,
24,
13,
21,
21,
11,
26,
16,
13,
25,
12,
18,
22,
12,
20,
16,
14,
18,
16,
15,
17,
16,
14,
18,
13,
16,
16,
13,
17,
15,
13,
14,
14,
15,
12,
14,
14,
9,
17,
11,
10,
16,
8,
13,
13,
8,
15,
11,
8,
14,
8,
9,
14,
6,
10,
13,
4,
11,
10,
3,
12,
8,
5,
10,
5,
5,
8,
4,
5,
7,
3,
5,
6,
1,
5,
5,
1,
5,
4,
0,
4,
4,
-1,
3,
3,
-2,
5,
-1,
-1,
6,
-6,
1,
4,
-8,
3,
-1,
-8,
3,
-4,
-5,
3,
-6,
-5,
1,
-9,
-3,
-1,
-12,
-1,
-5,
-10,
3,
-12,
-9,
-1,
-13,
-4,
-7,
-10,
-5,
-10,
-9,
-9,
-9,
-8,
-12,
-8,
-12,
-10,
-11,
-11,
-10,
-12,
-12,
-13,
-13,
-13,
-13,
-10,
-19,
-9,
-15,
-18,
-9,
-19,
-16,
-10,
-23,
-12,
-16,
-21,
-12,
-18,
-19,
-13,
-22,
-17,
-15,
-21,
-19,
-15,
-24,
-16,
-19,
-24,
-15,
-21,
-22,
-17,
-23,
-22,
-20,
-21,
-21,
-20,
-24,
-24,
-20,
-24,
-23,
-20,
-28,
-22,
-21,
-28,
-22,
-24,
-29,
-21,
-26,
-27,
-20,
-28,
-27,
-20,
-31,
-24,
-23,
-31,
-22,
-27,
-31,
-20,
-30,
-29,
-23,
-31,
-29,
-24,
-32,
-27,
-26,
-32,
-23,
-29,
-30,
-24,
-32,
-27,
-27,
-31,
-27,
-30,
-29,
-29,
-31,
-27,
-33,
-28,
-29,
-31,
-27,
-30,
-32,
-28,
-31,
-30,
-29,
-31,
-30,
-28,
-33,
-27,
-29,
-36,
-23,
-32,
-34,
-22,
-37,
-28,
-26,
-37,
-24,
-30,
-34,
-25,
-33,
-29,
-28,
-32,
-29,
-27,
-33,
-30,
-26,
-32,
-27,
-28,
-34,
-26,
-32,
-30,
-28,
-30,
-29,
-28,
-28,
-29,
-27,
-28,
-32,
-24,
-31,
-29,
-23,
-33,
-27,
-23,
-33,
-23,
-26,
-31,
-22,
-28,
-29,
-21,
-29,
-26,
-21,
-29,
-24,
-22,
-31,
-20,
-26,
-28,
-20,
-27,
-25,
-21,
-28,
-22,
-23,
-26,
-22,
-22,
-24,
-20,
-24,
-22,
-23,
-23,
-20,
-21,
-21,
-20,
-22,
-18,
-24,
-20,
-18,
-24,
-16,
-18,
-23,
-14,
-22,
-20,
-14,
-21,
-17,
-14,
-21,
-14,
-15,
-20,
-10,
-16,
-21,
-8,
-20,
-17,
-8,
-21,
-11,
-11,
-19,
-8,
-14,
-14,
-9,
-14,
-13,
-9,
-12,
-12,
-7,
-13,
-11,
-6,
-14,
-7,
-8,
-12,
-6,
-8,
-9,
-7,
-7,
-8,
-6,
-5,
-11,
-3,
-6,
-8,
1,
-8,
-5,
0,
-11,
0,
-2,
-9,
2,
-3,
-5,
1,
-4,
-2,
1,
-2,
-1,
3,
-4,
1,
1,
-3,
7,
-1,
0,
7,
-2,
4,
5,
0,
6,
2,
4,
4,
3,
7,
4,
5,
6,
3,
7,
5,
5,
9,
4,
7,
10,
3,
10,
10,
3,
12,
8,
5,
16,
6,
8,
16,
5,
11,
13,
5,
15,
11,
7,
17,
9,
9,
18,
6,
13,
17,
7,
17,
14,
10,
17,
14,
13,
16,
14,
14,
16,
15,
15,
18,
14,
16,
18,
13,
17,
19,
14,
18,
17,
16,
17,
19,
16,
19,
20,
15,
21,
17,
15,
25,
14,
19,
22,
12,
23,
18,
14,
24,
17,
19,
22,
19,
19,
21,
18,
19,
22,
16,
21,
21,
16,
24,
18,
21,
22,
17,
22,
19,
21,
20,
18,
25,
16,
22,
23,
15,
25,
19,
18,
25,
18,
21,
23,
17,
22,
22,
15,
25,
22,
15,
25,
19,
15,
28,
14,
20,
26,
12,
23,
21,
14,
25,
17,
17,
24,
16,
18,
23,
16,
19,
22,
15,
20,
20,
15,
22,
17,
17,
18,
18,
17,
17,
17,
17,
20,
16,
15,
20,
14,
15,
19,
13,
16,
19,
12,
17,
17,
11,
17,
16,
10,
18,
12,
11,
19,
8,
15,
15,
9,
17,
12,
11,
16,
10,
11,
12,
12,
9,
11,
11,
10,
12,
8,
10,
10,
8,
10,
8,
9,
8,
9,
8,
4,
12,
3,
6,
13,
-1,
11,
7,
0,
12,
1,
4,
8,
-1,
6,
5,
-1,
6,
4,
-2,
7,
3,
-4,
8,
-3,
-1,
8,
-6,
3,
3,
-7,
5,
-4,
-5,
3,
-5,
-1,
0,
-6,
-2,
-3,
-5,
-2,
-2,
-7,
-4,
-4,
-7,
-4,
-6,
-6,
-6,
-7,
-7,
-8,
-4,
-9,
-7,
-7,
-11,
-6,
-10,
-12,
-5,
-14,
-9,
-8,
-15,
-8,
-9,
-16,
-8,
-12,
-15,
-9,
-15,
-15,
-9,
-17,
-11,
-13,
-17,
-14,
-14,
-16,
-15,
-16,
-16,
-16,
-14,
-18,
-16,
-16,
-18,
-16,
-18,
-20,
-16,
-18,
-21,
-17,
-18,
-23,
-15,
-23,
-22,
-15,
-26,
-18,
-17,
-30,
-14,
-23,
-26,
-14,
-28,
-23,
-18,
-28,
-20,
-22,
-28,
-20,
-23,
-29,
-19,
-26,
-28,
-19,
-31,
-25,
-20,
-33,
-22,
-25,
-29,
-22,
-28,
-27,
-25,
-29,
-24,
-28,
-26,
-28,
-26,
-27,
-29,
-26,
-29,
-29,
-25,
-29,
-27,
-27,
-29,
-30,
-27,
-30,
-29,
-25,
-32,
-28,
-27,
-35,
-24,
-32,
-31,
-23,
-34,
-29,
-27,
-34,
-27,
-29,
-32,
-27,
-29,
-32,
-28,
-30,
-32,
-28,
-31,
-30,
-28,
-32,
-30,
-29,
-31,
-30,
-28,
-31,
-30,
-28,
-31,
-31,
-28,
-34,
-27,
-29,
-34,
-27,
-29,
-34,
-25,
-32,
-30,
-24,
-35,
-29,
-23,
-36,
-24,
-27,
-35,
-21,
-31,
-32,
-21,
-35,
-27,
-25,
-33,
-24,
-26,
-32,
-22,
-29,
-30,
-24,
-30,
-28,
-20,
-32,
-25,
-24,
-30,
-23,
-26,
-26,
-24,
-27,
-23,
-27,
-23,
-25,
-25,
-22,
-25,
-23,
-22,
-27,
-20,
-25,
-24,
-20,
-23,
-25,
-19,
-23,
-23,
-17,
-23,
-23,
-16,
-27,
-17,
-20,
-24,
-14,
-23,
-19,
-14,
-24,
-15,
-18,
-20,
-15,
-17,
-19,
-17,
-15,
-18,
-16,
-14,
-18,
-13,
-15,
-16,
-12,
-15,
-15,
-13,
-15,
-14,
-12,
-14,
-15,
-9,
-17,
-11,
-8,
-17,
-9,
-9,
-16,
-4,
-13,
-12,
-4,
-14,
-10,
-4,
-14,
-6,
-6,
-13,
-3,
-8,
-12,
0,
-9,
-7,
-1,
-10,
-3,
-3,
-9,
-1,
-6,
-6,
1,
-6,
-3,
0,
-5,
-1,
0,
-3,
0,
0,
-1,
1,
-2,
2,
-1,
1,
3,
-2,
4,
1,
0,
7,
-2,
4,
5,
0,
7,
3,
1,
9,
3,
3,
9,
3,
5,
10,
1,
7,
11,
1,
11,
7,
4,
14,
4,
9,
12,
5,
13,
9,
8,
11,
11,
9,
9,
14,
8,
11,
14,
7,
14,
12,
10,
15,
12,
12,
15,
12,
11,
17,
12,
12,
20,
9,
15,
19,
7,
21,
15,
9,
24,
11,
14,
21,
10,
19,
19,
12,
20,
17,
12,
21,
16,
14,
23,
13,
16,
22,
14,
20,
19,
17,
21,
16,
19,
20,
18,
21,
17,
20,
19,
20,
22,
18,
20,
22,
17,
22,
22,
16,
23,
20,
16,
25,
17,
21,
24,
15,
22,
22,
15,
23,
20,
16,
25,
18,
18,
25,
16,
19,
26,
16,
21,
23,
15,
24,
19,
17,
24,
18,
20,
22,
19,
20,
21,
20,
18,
23,
18,
18,
24,
16,
20,
22,
13,
23,
20,
16,
22,
18,
16,
21,
17,
17,
23,
15,
17,
24,
11,
22,
21,
9,
24,
15,
12,
22,
12,
18,
19,
12,
20,
16,
13,
18,
15,
13,
18,
15,
13,
18,
13,
15,
16,
11,
17,
12,
14,
14,
11,
15,
9,
14,
14,
8,
16,
10,
10,
16,
6,
13,
13,
5,
13,
9,
6,
13,
8,
6,
13,
5,
6,
13,
2,
10,
10,
2,
11,
5,
3,
11,
2,
4,
8,
1,
5,
7,
2,
5,
5,
0,
5,
3,
2,
3,
0,
2,
2,
0,
0,
1,
-1,
-1,
4,
-3,
-3,
3,
-5,
-1,
1,
-8,
1,
-4,
-6,
0,
-5,
-6,
-3,
-7,
-6,
-1,
-10,
-5,
-2,
-12,
-2,
-6,
-13,
-1,
-10,
-8,
-4,
-12,
-7,
-9,
-11,
-7,
-11,
-10,
-10,
-10,
-12,
-10,
-11,
-13,
-11,
-13,
-13,
-12,
-13,
-12,
-15,
-10,
-17,
-14,
-11,
-20,
-11,
-15,
-22,
-9,
-21,
-16,
-12,
-24,
-13,
-16,
-22,
-13,
-21,
-21,
-14,
-20,
-22,
-13,
-24,
-21,
-15,
-25,
-17,
-18,
-27,
-15,
-24,
-23,
-16,
-26,
-21,
-20,
-26,
-22,
-21,
-24,
-25,
-20,
-25,
-24,
-21,
-27,
-23,
-23,
-26,
-23,
-26,
-27,
-24,
-25,
-29,
-22,
-29,
-28,
-22,
-31,
-27,
-23,
-33,
-23,
-26,
-31,
-23,
-29,
-30,
-22,
-32,
-27,
-24,
-32,
-28,
-26,
-33,
-25,
-30,
-30,
-26,
-31,
-29,
-28,
-31,
-27,
-30,
-29,
-30,
-30,
-27,
-32,
-30,
-29,
-32,
-27,
-32,
-30,
-29,
-31,
-31,
-27,
-33,
-30,
-25,
-35,
-28,
-27,
-37,
-23,
-34,
-32,
-23,
-37,
-27,
-27,
-38,
-24,
-32,
-33,
-26,
-31,
-31,
-26,
-33,
-31,
-25,
-33,
-29,
-23,
-35,
-25,
-29,
-32,
-24,
-32,
-29,
-26,
-32,
-27,
-27,
-28,
-28,
-26,
-28,
-29,
-25,
-29,
-28,
-24,
-31,
-25,
-26,
-30,
-26,
-27,
-28,
-23,
-27,
-28,
-24,
-27,
-28,
-20,
-29,
-24,
-21,
-29,
-21,
-23,
-28,
-19,
-26,
-24,
-20,
-26,
-22,
-20,
-25,
-20,
-23,
-23,
-21,
-21,
-22,
-20,
-21,
-20,
-23,
-18,
-20,
-21,
-16,
-20,
-19,
-16,
-23,
-15,
-18,
-19,
-13,
-19,
-19,
-12,
-22,
-16,
-12,
-21,
-13,
-12,
-24,
-9,
-15,
-20,
-6,
-18,
-14,
-7,
-20,
-9,
-11,
-17,
-6,
-13,
-14,
-6,
-12,
-11,
-6,
-11,
-12,
-6,
-13,
-9,
-6,
-11,
-5,
-7,
-9,
-4,
-9,
-6,
-6,
-6,
-6,
-6,
-4,
-8,
-2,
-4,
-8,
1,
-7,
-4,
0,
-8,
0,
-2,
-5,
1,
-3,
-3,
3,
-1,
-3,
4,
0,
-1,
5,
-3,
3,
5,
-3,
6,
1,
0,
8,
1,
4,
5,
3,
5,
4,
5,
4,
6,
7,
3,
8,
6,
4,
10,
5,
6,
11,
6,
8,
12,
5,
10,
12,
4,
13,
9,
6,
17,
8,
9,
17,
4,
13,
15,
5,
17,
14,
6,
19,
11,
9,
19,
9,
14,
19,
8,
19,
14,
10,
20,
13,
13,
18,
13,
15,
18,
14,
16,
18,
15,
17,
18,
16,
19,
18,
17,
18,
17,
17,
17,
20,
16,
18,
21,
14,
23,
19,
15,
24,
15,
18,
23,
15,
21,
21,
17,
21,
20,
18,
20,
20,
17,
23,
18,
18,
25,
16,
22,
22,
16,
23,
20,
21,
21,
19,
21,
18,
23,
19,
19,
24,
17,
23,
21,
16,
25,
18,
19,
24,
17,
19,
23,
16,
22,
25,
14,
22,
23,
13,
27,
19,
14,
28,
13,
20,
24,
12,
25,
22,
13,
24,
17,
16,
24,
16,
18,
22,
15,
19,
20,
14,
21,
18,
15,
20,
16,
17,
19,
17,
17,
17,
17,
16,
17,
17,
14,
17,
16,
13,
17,
15,
13,
17,
13,
14,
18,
10,
14,
15,
8,
18,
13,
9,
18,
10,
11,
16,
9,
12,
13,
8,
13,
12,
9,
13,
11,
8,
12,
8,
8,
12,
6,
9,
9,
6,
9,
9,
8,
5,
9,
7,
3,
11,
2,
6,
9,
-1,
10,
5,
0,
10,
0,
3,
8,
-2,
4,
7,
-3,
2,
5,
-4,
5,
2,
-6,
8,
-4,
-1,
7,
-10,
2,
1,
-9,
5,
-4,
-5,
2,
-6,
-3,
-2,
-6,
-3,
-3,
-6,
-5,
-4,
-7,
-4,
-6,
-7,
-5,
-8,
-5,
-9,
-7,
-8,
-10,
-6,
-11,
-10,
-6,
-14,
-6,
-9,
-14,
-8,
-12,
-14,
-9,
-15,
-12,
-10,
-16,
-11,
-10,
-19,
-9,
-15,
-18,
-10,
-16,
-15,
-12,
-20,
-14,
-14,
-18,
-15,
-15,
-19,
-16,
-16,
-19,
-17,
-18,
-19,
-17,
-20,
-19,
-18,
-19,
-22,
-17,
-21,
-23,
-16,
-23,
-24,
-15,
-29,
-20,
-20,
-28,
-17,
-24,
-26,
-17,
-28,
-23,
-20,
-28,
-24,
-20,
-29,
-23,
-23,
-30,
-20,
-24,
-31,
-19,
-31,
-26,
-22,
-32,
-22,
-26,
-30,
-22,
-31,
-27,
-27,
-29,
-27,
-28,
-27,
-28,
-28,
-26,
-29,
-27,
-28,
-28,
-28,
-28,
-30,
-28,
-28,
-31,
-26,
-29,
-32,
-24,
-35,
-27,
-26,
-36,
-24,
-30,
-33,
-23,
-33,
-29,
-27,
-34,
-28,
-27,
-33,
-28,
-28,
-32,
-28,
-29,
-33,
-26,
-31,
-31,
-27,
-33,
-29,
-28,
-31,
-29,
-29,
-30,
-30,
-28,
-31,
-29,
-27,
-32,
-28,
-28,
-34,
-26,
-30,
-32,
-26,
-32,
-31,
-23,
-33,
-29,
-24,
-35,
-25,
-27,
-34,
-22,
-30,
-31,
-24,
-33,
-27,
-23,
-34,
-25,
-26,
-31,
-25,
-26,
-31,
-23,
-28,
-27,
-22,
-29,
-25,
-24,
-29,
-21,
-27,
-25,
-25,
-26,
-21,
-27,
-22,
-23,
-26,
-19,
-26,
-23,
-22,
-26,
-21,
-20,
-25,
-21,
-20,
-25,
-19,
-19,
-26,
-14,
-23,
-22,
-14,
-27,
-16,
-16,
-26,
-11,
-21,
-20,
-14,
-21,
-18,
-14,
-20,
-16,
-15,
-18,
-16,
-14,
-19,
-12,
-14,
-18,
-10,
-16,
-16,
-11,
-16,
-13,
-13,
-12,
-13,
-11,
-12,
-14,
-8,
-13,
-12,
-7,
-16,
-6,
-8,
-14,
-4,
-11,
-12,
-2,
-12,
-8,
-3,
-11,
-7,
-3,
-12,
-3,
-5,
-10,
-1,
-7,
-6,
0,
-8,
-2,
-1,
-8,
0,
-2,
-5,
0,
-3,
-2,
-1,
-3,
-2,
0,
-1,
1,
-2,
1,
1,
0,
3,
-1,
2,
4,
-2,
6,
2,
0,
10,
-1,
4,
8,
-1,
7,
8,
0,
8,
6,
3,
11,
5,
4,
12,
2,
9,
12,
0,
14,
9,
3,
15,
6,
9,
13,
6,
11,
12,
9,
10,
12,
10,
11,
15,
9,
13,
13,
9,
15,
12,
11,
16,
13,
14,
15,
14,
11,
16,
15,
12,
20,
11,
14,
21,
9,
20,
16,
12,
22,
13,
16,
22,
14,
18,
19,
15,
18,
20,
15,
20,
19,
15,
23,
16,
18,
22,
16,
21,
19,
18,
21,
18,
20,
18,
19,
22,
18,
22,
19,
17,
24,
18,
19,
24,
17,
19,
23,
16,
23,
22,
15,
26,
19,
18,
27,
14,
21,
26,
14,
24,
23,
15,
25,
20,
17,
26,
17,
18,
26,
15,
23,
23,
16,
25,
20,
18,
25,
18,
19,
21,
19,
20,
21,
19,
17,
22,
19,
17,
22,
17,
19,
21,
15,
20,
19,
18,
19,
18,
15,
20,
19,
14,
22,
16,
15,
23,
13,
18,
20,
10,
22,
16,
14,
22,
13,
17,
19,
14,
16,
16,
14,
14,
16,
13,
16,
16,
11,
16,
12,
14,
14,
11,
14,
11,
14,
12,
10,
16,
7,
13,
13,
6,
16,
8,
8,
16,
6,
9,
13,
4,
11,
12,
3,
11,
9,
2,
13,
4,
5,
14,
-1,
7,
10,
-1,
12,
5,
-1,
10,
1,
3,
7,
0,
4,
5,
0,
4,
4,
-1,
4,
1,
-1,
3,
0,
1,
0,
0,
-1,
-1,
-1,
-2,
0,
-1,
-4,
0,
-4,
-3,
0,
-7,
-2,
-3,
-7,
-3,
-3,
-10,
-2,
-5,
-10,
-2,
-8,
-10,
-2,
-12,
-5,
-6,
-12,
-5,
-10,
-11,
-6,
-12,
-9,
-9,
-11,
-11,
-11,
-12,
-12,
-10,
-13,
-14,
-10,
-14,
-13,
-13,
-12,
-15,
-12,
-14,
-17,
-10,
-18,
-16,
-11,
-23,
-10,
-19,
-22,
-9,
-21,
-19,
-12,
-24,
-15,
-16,
-23,
-16,
-18,
-24,
-15,
-21,
-24,
-14,
-23,
-22,
-15,
-28,
-18,
-19,
-27,
-16,
-23,
-26,
-18,
-26,
-22,
-23,
-25,
-24,
-23,
-24,
-24,
-24,
-25,
-25,
-22,
-26,
-25,
-24,
-27,
-26,
-23,
-27,
-25,
-24,
-29,
-25,
-25,
-31,
-23,
-28,
-29,
-25,
-29,
-27,
-25,
-31,
-25,
-27,
-31,
-26,
-28,
-33,
-24,
-31,
-30,
-26,
-30,
-29,
-27,
-31,
-27,
-30,
-30,
-29,
-28,
-29,
-30,
-29,
-31,
-30,
-27,
-33,
-28,
-30,
-33,
-28,
-29,
-32,
-27,
-32,
-32,
-25,
-33,
-31,
-25,
-37,
-26,
-27,
-38,
-22,
-33,
-35,
-21,
-37,
-28,
-25,
-36,
-26,
-28,
-34,
-26,
-29,
-32,
-25,
-30,
-32,
-23,
-34,
-28,
-25,
-35,
-26,
-28,
-32,
-24,
-31,
-28,
-27,
-29,
-26,
-29,
-27,
-29,
-29,
-25,
-30,
-24,
-27,
-28,
-24,
-28,
-27,
-25,
-28,
-26,
-24,
-27,
-27,
-21,
-29,
-22,
-24,
-28,
-20,
-26,
-27,
-18,
-28,
-22,
-23,
-26,
-20,
-22,
-25,
-20,
-23,
-24,
-21,
-20,
-23,
-19,
-22,
-21,
-18,
-21,
-21,
-18,
-19,
-19,
-18,
-19,
-20,
-14,
-22,
-17,
-15,
-21,
-15,
-16,
-22,
-12,
-17,
-19,
-10,
-18,
-18,
-10,
-21,
-13,
-10,
-20,
-9,
-12,
-20,
-5,
-17,
-14,
-6,
-18,
-9,
-8,
-16,
-6,
-10,
-13,
-8,
-9,
-11,
-7,
-11,
-9,
-5,
-10,
-6,
-6,
-11,
-4,
-8,
-7,
-4,
-8,
-4,
-7,
-4,
-4,
-8,
1,
-7,
-3,
1,
-7,
1,
-2,
-5,
2,
-4,
-2,
3,
-3,
-1,
3,
-3,
1,
4,
-4,
6,
3,
-4,
8,
0,
0,
6,
-1,
7,
3,
2,
5,
2,
4,
5,
7,
5,
5,
7,
3,
8,
7,
3,
11,
7,
5,
10,
7,
7,
12,
7,
8,
14,
6,
9,
14,
3,
15,
13,
5,
18,
8,
8,
18,
6,
13,
18,
7,
16,
15,
8,
18,
14,
11,
19,
10,
14,
18,
11,
17,
17,
12,
18,
15,
16,
18,
16,
15,
17,
16,
17,
17,
17,
18,
17,
17,
18,
17,
19,
16,
18,
20,
14,
23,
16,
16,
25,
14,
21,
22,
14,
23,
18,
16,
24,
19,
17,
22,
17,
19,
24,
16,
20,
24,
15,
24,
23,
16,
26,
18,
19,
23,
17,
22,
21,
20,
20,
20,
20,
18,
24,
19,
20,
24,
16,
24,
22,
16,
23,
20,
18,
24,
19,
19,
24,
18,
18,
25,
15,
22,
25,
12,
24,
19,
14,
28,
14,
19,
24,
13,
20,
20,
14,
22,
18,
17,
21,
17,
17,
21,
15,
18,
20,
15,
18,
18,
16,
18,
15,
18,
16,
16,
18,
14,
19,
16,
14,
19,
13,
15,
18,
12,
17,
16,
10,
18,
14,
10,
21,
11,
11,
19,
7,
14,
16,
7,
15,
11,
8,
15,
10,
9,
14,
8,
10,
14,
6,
10,
13,
4,
11,
8,
6,
11,
7,
7,
9,
7,
6,
6,
8,
4,
8,
5,
2,
10,
1,
4,
8,
-1,
7,
5,
-1,
7,
3,
0,
6,
1,
-1,
4,
-1,
-1,
5,
-5,
1,
3,
-7,
5,
-4,
-6,
5,
-7,
-1,
0,
-6,
0,
-5,
-4,
-3,
-4,
-4,
-4,
-5,
-5,
-5,
-6,
-7,
-6,
-7,
-6,
-8,
-7,
-9,
-8,
-6,
-11,
-8,
-7,
-15,
-3,
-11,
-14,
-4,
-15,
-11,
-7,
-16,
-8,
-12,
-17,
-7,
-14,
-17,
-8,
-18,
-14,
-8,
-19,
-13,
-12,
-21,
-10,
-16,
-18,
-12,
-17,
-17,
-14,
-20,
-17,
-16,
-19,
-18,
-16,
-23,
-16,
-18,
-22,
-18,
-18,
-23,
-19,
-19,
-23,
-20,
-19,
-25,
-17,
-23,
-24,
-18,
-27,
-22,
-18,
-29,
-19,
-23,
-27,
-20,
-25,
-27,
-20,
-25,
-27,
-21,
-27,
-27,
-21,
-31,
-23,
-25,
-30,
-21,
-29,
-27,
-21,
-30,
-24,
-29,
-27,
-26,
-29,
-26,
-29,
-28,
-26,
-31,
-26,
-29,
-29,
-27,
-29,
-29,
-27,
-31,
-29,
-26,
-32,
-29,
-25,
-35,
-25,
-28,
-34,
-22,
-33,
-31,
-22,
-38,
-25,
-28,
-34,
-25,
-32,
-33,
-24,
-31,
-31,
-26,
-33,
-31,
-26,
-36,
-29,
-27,
-34,
-26,
-30,
-32,
-26,
-33,
-29,
-29,
-31,
-28,
-29,
-30,
-31,
-28,
-30,
-31,
-26,
-32,
-29,
-27,
-32,
-29,
-26,
-32,
-27,
-28,
-32,
-26,
-29,
-31,
-23,
-32,
-27,
-25,
-32,
-26,
-27,
-32,
-24,
-27,
-29,
-25,
-27,
-28,
-23,
-29,
-25,
-24,
-28,
-24,
-25,
-27,
-23,
-27,
-23,
-25,
-25,
-24,
-27,
-22,
-24,
-26,
-18,
-28,
-22,
-21,
-28,
-18,
-22,
-25,
-18,
-23,
-22,
-17,
-24,
-22,
-16,
-26,
-17,
-18,
-27,
-13,
-20,
-23,
-10,
-25,
-18,
-12,
-24,
-12,
-16,
-21,
-12,
-19,
-18,
-13,
-17,
-18,
-11,
-17,
-15,
-11,
-18,
-12,
-11,
-17,
-10,
-15,
-13,
-11,
-12,
-11,
-12,
-10,
-12,
-11,
-8,
-14,
-7,
-10,
-11,
-4,
-13,
-9,
-5,
-12,
-6,
-7,
-10,
-4,
-6,
-10,
-4,
-7,
-8,
-2,
-7,
-6,
-1,
-9,
-1,
-3,
-6,
0,
-3,
-4,
-1,
-2,
-1,
-2,
-1,
0,
0,
-1,
-1,
0,
1,
0,
2,
1,
0,
4,
2,
0,
7,
-1,
2,
7,
-3,
9,
5,
-2,
10,
3,
2,
11,
3,
7,
10,
1,
9,
12,
1,
13,
7,
2,
16,
4,
7,
17,
3,
10,
12,
5,
14,
8,
9,
13,
9,
11,
12,
11,
11,
15,
11,
11,
16,
11,
13,
15,
12,
14,
14,
15,
13,
16,
15,
12,
19,
12,
16,
18,
11,
20,
13,
13,
22,
12,
17,
20,
13,
19,
18,
16,
19,
18,
16,
18,
18,
17,
21,
17,
18,
21,
16,
21,
19,
17,
21,
18,
20,
19,
21,
18,
17,
24,
17,
19,
23,
16,
22,
22,
17,
24,
20,
17,
25,
19,
18,
26,
15,
21,
25,
14,
24,
22,
14,
27,
17,
17,
26,
15,
21,
26,
14,
23,
21,
15,
26,
19,
17,
26,
17,
20,
25,
16,
23,
21,
18,
23,
19,
20,
20,
20,
20,
19,
20,
18,
20,
20,
18,
20,
19,
18,
19,
19,
18,
20,
20,
15,
22,
16,
15,
23,
12,
18,
20,
11,
22,
15,
14,
22,
12,
17,
17,
14,
16,
17,
15,
15,
18,
13,
14,
17,
11,
16,
13,
12,
16,
11,
13,
13,
12,
12,
13,
14,
9,
16,
10,
8,
18,
6,
12,
15,
4,
14,
9,
4,
15,
6,
7,
15,
5,
8,
12,
2,
9,
11,
0,
11,
6,
0,
13,
1,
4,
10,
-1,
8,
5,
0,
9,
2,
1,
6,
1,
2,
4,
-1,
3,
3,
0,
1,
1,
0,
0,
-2,
1,
-3,
-1,
0,
-4,
0,
-3,
-4,
0,
-7,
-2,
-1,
-6,
-3,
-4,
-8,
-1,
-5,
-8,
-1,
-9,
-8,
-1,
-12,
-4,
-6,
-11,
-5,
-10,
-11,
-5,
-12,
-10,
-9,
-10,
-11,
-9,
-11,
-11,
-9,
-14,
-13,
-9,
-16,
-11,
-12,
-15,
-14,
-13,
-15,
-15,
-14,
-16,
-14,
-15,
-21,
-10,
-20,
-19,
-10,
-22,
-14,
-14,
-25,
-12,
-20,
-21,
-14,
-22,
-19,
-15,
-24,
-20,
-17,
-25,
-17,
-18,
-27,
-15,
-23,
-26,
-16,
-26,
-22,
-20,
-27,
-18,
-25,
-23,
-22,
-26,
-21,
-25,
-24,
-23,
-26,
-24,
-26,
-24,
-23,
-26,
-26,
-24,
-28,
-25,
-24,
-29,
-24,
-24,
-31,
-23,
-29,
-29,
-23,
-32,
-28,
-24,
-34,
-24,
-29,
-31,
-24,
-31,
-32,
-24,
-32,
-28,
-26,
-32,
-28,
-28,
-33,
-27,
-29,
-30,
-29,
-30,
-30,
-28,
-30,
-31,
-28,
-29,
-32,
-26,
-32,
-30,
-27,
-33,
-30,
-27,
-34,
-28,
-28,
-32,
-29,
-28,
-35,
-26,
-31,
-33,
-24,
-35,
-30,
-23,
-38,
-25,
-29,
-34,
-25,
-32,
-31,
-26,
-32,
-29,
-27,
-31,
-29,
-27,
-33,
-26,
-27,
-33,
-25,
-30,
-29,
-25,
-33,
-26,
-29,
-29,
-26,
-31,
-26,
-29,
-30,
-23,
-31,
-25,
-28,
-29,
-23,
-29,
-26,
-22,
-30,
-25,
-24,
-28,
-25,
-21,
-31,
-21,
-23,
-29,
-19,
-27,
-26,
-17,
-29,
-20,
-22,
-28,
-17,
-24,
-26,
-17,
-25,
-23,
-20,
-23,
-22,
-18,
-23,
-19,
-19,
-22,
-18,
-18,
-21,
-17,
-19,
-20,
-17,
-17,
-20,
-16,
-18,
-21,
-14,
-17,
-20,
-11,
-21,
-17,
-11,
-19,
-14,
-13,
-19,
-11,
-15,
-18,
-9,
-15,
-15,
-7,
-18,
-11,
-9,
-16,
-8,
-11,
-14,
-6,
-12,
-10,
-8,
-11,
-9,
-8,
-11,
-7,
-8,
-10,
-6,
-7,
-9,
-6,
-8,
-5,
-7,
-6,
-4,
-8,
-2,
-5,
-8,
2,
-8,
-2,
0,
-9,
3,
-3,
-6,
4,
-5,
-1,
