5-grundlagen-opAmps/data/ALL0011/A0011CH1.CSV

Memory Length,4000,
Trigger Level,0.00000e+00,
Source,CH1,
Probe,1.0X,
Vertical Units,V,
Vertical Scale,5.00000e-02,
Vertical Position,0.00000e+00,
Horizontal Units,S,
Horizontal Scale,2.50000e-07,
Horizontal Position,2.5000000e-07,
Horizontal Mode,Main,
Sampling Period,2.00000e-09,
Firmware,V1.14,
Time, ,
Mode,Fast,
Waveform Data,
-23,
-23,
-17,
-10,
-5,
-11,
-23,
-25,
-17,
-9,
-14,
-21,
-27,
-24,
-15,
-15,
-21,
-27,
-27,
-23,
-19,
-19,
-25,
-29,
-28,
-23,
-22,
-24,
-29,
-28,
-27,
-26,
-26,
-29,
-30,
-30,
-28,
-27,
-28,
-31,
-34,
-30,
-27,
-29,
-32,
-32,
-30,
-30,
-29,
-30,
-31,
-32,
-30,
-29,
-30,
-33,
-32,
-28,
-28,
-32,
-34,
-32,
-27,
-26,
-31,
-33,
-30,
-27,
-24,
-27,
-31,
-32,
-29,
-21,
-23,
-27,
-32,
-28,
-21,
-21,
-25,
-28,
-26,
-22,
-19,
-17,
-25,
-26,
-20,
-16,
-13,
-19,
-24,
-20,
-17,
-14,
-14,
-16,
-19,
-18,
-11,
-7,
-11,
-14,
-14,
-11,
-6,
-6,
-9,
-11,
-11,
-6,
-2,
-3,
-7,
-8,
-5,
0,
1,
-2,
-3,
-3,
1,
2,
4,
2,
2,
2,
6,
7,
5,
3,
5,
8,
8,
6,
9,
8,
7,
10,
12,
11,
13,
11,
8,
11,
13,
16,
17,
14,
10,
11,
17,
20,
17,
13,
13,
17,
22,
23,
18,
14,
15,
21,
24,
21,
14,
14,
19,
24,
25,
18,
16,
16,
21,
27,
22,
16,
15,
18,
25,
24,
18,
12,
15,
20,
26,
24,
17,
11,
17,
23,
25,
21,
10,
9,
17,
22,
21,
14,
9,
12,
19,
20,
15,
8,
7,
13,
19,
15,
8,
3,
7,
16,
15,
8,
3,
3,
9,
12,
9,
3,
1,
2,
7,
6,
1,
-1,
0,
3,
2,
0,
-1,
-2,
-3,
-3,
-4,
-5,
-6,
-6,
-5,
-9,
-7,
-9,
-8,
-8,
-10,
-12,
-14,
-11,
-11,
-11,
-11,
-15,
-16,
-15,
-13,
-14,
-18,
-22,
-19,
-16,
-16,
-21,
-26,
-24,
-19,
-18,
-21,
-27,
-28,
-23,
-19,
-19,
-28,
-32,
-28,
-19,
-19,
-26,
-35,
-33,
-26,
-21,
-25,
-32,
-35,
-32,
-26,
-23,
-29,
-36,
-35,
-28,
-23,
-27,
-33,
-35,
-30,
-28,
-28,
-29,
-35,
-35,
-29,
-26,
-27,
-32,
-36,
-32,
-27,
-25,
-28,
-32,
-35,
-29,
-27,
-24,
-28,
-34,
-31,
-27,
-22,
-25,
-29,
-29,
-27,
-24,
-24,
-23,
-25,
-26,
-24,
-21,
-22,
-22,
-21,
-20,
-21,
-21,
-20,
-17,
-18,
-20,
-19,
-15,
-13,
-14,
-16,
-17,
-15,
-10,
-8,
-11,
-16,
-15,
-8,
-4,
-7,
-12,
-12,
-8,
-2,
0,
-4,
-10,
-9,
-2,
5,
3,
-3,
-8,
-4,
5,
6,
2,
-2,
-1,
4,
8,
9,
5,
1,
3,
11,
14,
10,
3,
4,
10,
17,
16,
9,
4,
7,
15,
19,
18,
9,
6,
16,
19,
21,
15,
8,
12,
19,
22,
20,
13,
12,
18,
24,
23,
18,
14,
17,
21,
22,
19,
16,
17,
21,
23,
21,
17,
18,
19,
22,
21,
18,
17,
19,
21,
20,
17,
18,
19,
20,
19,
18,
17,
18,
18,
18,
17,
15,
16,
18,
18,
15,
13,
13,
15,
16,
15,
13,
9,
10,
14,
15,
13,
7,
5,
9,
12,
12,
7,
3,
3,
7,
10,
8,
3,
-2,
1,
7,
8,
1,
-5,
-4,
2,
6,
1,
-7,
-11,
-4,
1,
2,
-7,
-13,
-12,
-3,
0,
-8,
-15,
-15,
-11,
-6,
-7,
-14,
-15,
-17,
-14,
-9,
-12,
-17,
-21,
-19,
-16,
-16,
-18,
-20,
-21,
-20,
-17,
-20,
-24,
-26,
-26,
-21,
-19,
-22,
-26,
-29,
-26,
-22,
-22,
-27,
-30,
-29,
-27,
-25,
-26,
-28,
-31,
-32,
-28,
-27,
-28,
-29,
-31,
-31,
-32,
-29,
-27,
-28,
-33,
-34,
-32,
-28,
-27,
-31,
-34,
-34,
-30,
-27,
-28,
-32,
-37,
-32,
-27,
-23,
-29,
-36,
-32,
-26,
-24,
-27,
-32,
-34,
-28,
-21,
-23,
-27,
-33,
-32,
-23,
-18,
-22,
-28,
-30,
-25,
-19,
-16,
-19,
-26,
-26,
-20,
-15,
-15,
-21,
-24,
-20,
-13,
-12,
-15,
-19,
-19,
-14,
-8,
-9,
-16,
-18,
-14,
-5,
-6,
-10,
-13,
-13,
-6,
-2,
-4,
-7,
-9,
-5,
0,
1,
-3,
-6,
-3,
2,
3,
1,
0,
1,
4,
5,
4,
3,
2,
6,
7,
7,
5,
5,
11,
11,
10,
7,
6,
12,
15,
14,
11,
8,
11,
16,
18,
15,
11,
11,
17,
20,
18,
14,
12,
16,
21,
22,
19,
14,
14,
20,
24,
23,
16,
12,
17,
23,
28,
20,
15,
15,
19,
26,
25,
17,
13,
15,
24,
27,
21,
12,
13,
19,
26,
24,
16,
12,
15,
20,
24,
20,
13,
13,
18,
22,
19,
14,
11,
12,
17,
19,
16,
11,
10,
12,
16,
15,
10,
6,
7,
11,
12,
11,
7,
5,
5,
6,
10,
8,
4,
1,
1,
5,
5,
2,
0,
-2,
0,
1,
1,
-2,
-4,
-5,
-4,
-3,
-3,
-6,
-8,
-6,
-7,
-8,
-7,
-11,
-12,
-14,
-8,
-7,
-10,
-14,
-19,
-16,
-12,
-11,
-14,
-20,
-20,
-18,
-13,
-13,
-20,
-26,
-25,
-17,
-16,
-22,
-28,
-28,
-22,
-18,
-20,
-27,
-30,
-28,
-23,
-20,
-25,
-31,
-32,
-27,
-22,
-25,
-29,
-32,
-30,
-27,
-26,
-27,
-32,
-34,
-33,
-27,
-27,
-31,
-34,
-33,
-29,
-26,
-27,
-32,
-35,
-33,
-28,
-27,
-29,
-34,
-32,
-29,
-26,
-28,
-32,
-31,
-28,
-26,
-28,
-31,
-30,
-28,
-25,
-26,
-28,
-30,
-29,
-24,
-23,
-27,
-27,
-24,
-21,
-23,
-26,
-26,
-23,
-21,
-20,
-20,
-23,
-21,
-16,
-12,
-18,
-23,
-21,
-15,
-11,
-13,
-16,
-18,
-16,
-10,
-7,
-10,
-16,
-16,
-10,
-4,
-4,
-9,
-14,
-10,
-4,
0,
-2,
-9,
-9,
-3,
4,
4,
-2,
-8,
-4,
4,
8,
5,
-2,
-3,
4,
10,
12,
6,
-3,
0,
9,
16,
11,
3,
2,
7,
17,
17,
10,
4,
6,
15,
19,
16,
10,
7,
15,
18,
19,
15,
12,
13,
19,
21,
20,
16,
14,
17,
20,
21,
19,
16,
17,
20,
21,
22,
19,
18,
18,
18,
21,
21,
20,
18,
18,
20,
21,
21,
20,
17,
18,
20,
22,
21,
18,
17,
16,
19,
20,
19,
18,
16,
14,
16,
20,
19,
13,
11,
13,
17,
18,
14,
11,
9,
12,
16,
14,
8,
6,
7,
14,
14,
7,
2,
4,
8,
12,
8,
0,
-1,
2,
7,
8,
3,
-4,
-3,
0,
4,
1,
-4,
-6,
-4,
0,
-2,
-5,
-9,
-9,
-7,
-6,
-5,
-10,
-12,
-9,
-9,
-9,
-13,
-13,
-15,
-13,
-12,
-13,
-15,
-18,
-19,
-15,
-15,
-17,
-20,
-21,
-18,
-18,
-20,
-23,
-22,
-21,
-21,
-24,
-24,
-24,
-23,
-21,
-25,
-28,
-28,
-26,
-24,
-25,
-31,
-32,
-28,
-24,
-26,
-31,
-33,
-31,
-26,
-24,
-29,
-35,
-35,
-28,
-23,
-28,
-34,
-35,
-30,
-25,
-26,
-32,
-36,
-35,
-28,
-24,
-28,
-34,
-37,
-33,
-26,
-24,
-29,
-36,
-34,
-27,
-22,
-24,
-30,
-33,
-30,
-24,
-19,
-24,
-32,
-32,
-25,
-18,
-20,
-28,
-32,
-27,
-19,
-15,
-19,
-27,
-28,
-20,
-14,
-15,
-21,
-26,
-19,
-13,
-12,
-16,
-22,
-21,
-14,
-8,
-8,
-15,
-17,
-13,
-9,
-4,
-8,
-11,
-10,
-7,
-5,
-4,
-4,
-6,
-6,
-3,
-2,
-1,
-1,
-3,
-1,
0,
2,
2,
2,
1,
2,
4,
5,
4,
4,
4,
8,
7,
9,
10,
8,
7,
8,
12,
11,
13,
10,
9,
11,
15,
16,
14,
13,
11,
13,
19,
20,
17,
12,
13,
18,
20,
20,
16,
12,
17,
22,
24,
20,
13,
15,
21,
25,
22,
16,
15,
18,
24,
25,
18,
16,
17,
21,
25,
21,
17,
14,
19,
23,
21,
18,
16,
15,
19,
20,
20,
17,
14,
16,
18,
17,
18,
15,
15,
16,
15,
14,
15,
14,
13,
12,
12,
13,
11,
11,
12,
11,
9,
7,
8,
9,
7,
6,
7,
5,
6,
5,
3,
1,
2,
3,
3,
1,
-3,
-4,
0,
3,
0,
-7,
-10,
-5,
1,
0,
-7,
-13,
-13,
-6,
-1,
-6,
-16,
-19,
-8,
-4,
-6,
-15,
-21,
-17,
-10,
-8,
-15,
-24,
-22,
-17,
-11,
-12,
-22,
-26,
-24,
-16,
-13,
-20,
-28,
-29,
-22,
-18,
-19,
-26,
-31,
-30,
-24,
-17,
-22,
-31,
-36,
-31,
-21,
-22,
-28,
-33,
-34,
-28,
-22,
-24,
-34,
-36,
-30,
-26,
-25,
-32,
-37,
-32,
-28,
-25,
-28,
-34,
-34,
-32,
-27,
-27,
-30,
-34,
-32,
-29,
-27,
-29,
-31,
-31,
-30,
-29,
-28,
-28,
-28,
-29,
-29,
-27,
-26,
-26,
-28,
-28,
-27,
-26,
-24,
-24,
-23,
-26,
-26,
-23,
-21,
-20,
-21,
-20,
-20,
-20,
-17,
-17,
-19,
-20,
-19,
-16,
-13,
-16,
-17,
-16,
-13,
-12,
-11,
-11,
-15,
-14,
-8,
-4,
-7,
-12,
-12,
-6,
-2,
-2,
-6,
-9,
-7,
-2,
3,
2,
-4,
-6,
0,
4,
5,
1,
-3,
1,
7,
7,
5,
3,
4,
5,
11,
10,
7,
6,
8,
12,
12,
11,
10,
10,
12,
14,
14,
12,
13,
13,
15,
16,
16,
16,
16,
16,
17,
16,
18,
19,
18,
16,
18,
19,
20,
20,
20,
18,
18,
19,
23,
23,
19,
16,
18,
21,
25,
23,
17,
17,
18,
21,
24,
20,
15,
15,
20,
25,
21,
15,
13,
16,
22,
24,
19,
10,
11,
18,
24,
21,
12,
7,
14,
21,
21,
13,
5,
8,
15,
19,
16,
7,
2,
8,
16,
16,
6,
2,
3,
8,
12,
8,
3,
-1,
1,
7,
9,
2,
-3,
-5,
1,
6,
3,
-3,
-8,
-5,
1,
1,
-3,
-11,
-12,
-8,
0,
-4,
-11,
-16,
-13,
-6,
-6,
-10,
-16,
-16,
-12,
-11,
-11,
-16,
-18,
-18,
-16,
-15,
-19,
-21,
-20,
-16,
-19,
-23,
-24,
-23,
-20,
-23,
-25,
-24,
-23,
-24,
-26,
-28,
-26,
-25,
-25,
-26,
-28,
-30,
-27,
-25,
-25,
-29,
-32,
-29,
-27,
-27,
-28,
-31,
-33,
-32,
-29,
-27,
-29,
-33,
-34,
-31,
-27,
-28,
-31,
-35,
-34,
-29,
-27,
-28,
-33,
-35,
-31,
-26,
-25,
-30,
-35,
-31,
-26,
-24,
-28,
-32,
-31,
-27,
-21,
-23,
-28,
-30,
-28,
-21,
-21,
-23,
-28,
-27,
-22,
-20,
-20,
-21,
-23,
-22,
-19,
-19,
-19,
-19,
-19,
-17,
-16,
-17,
-14,
-13,
-13,
-15,
-16,
-12,
-10,
-11,
-11,
-12,
-10,
-8,
-7,
-6,
-10,
-8,
-5,
-3,
-4,
-6,
-7,
-4,
0,
1,
1,
-2,
-2,
-1,
5,
6,
1,
-2,
0,
5,
10,
9,
4,
1,
4,
10,
16,
12,
3,
2,
11,
18,
16,
8,
6,
8,
17,
20,
16,
9,
7,
14,
23,
21,
13,
8,
13,
21,
26,
20,
13,
12,
19,
25,
24,
17,
11,
14,
23,
27,
21,
14,
13,
18,
27,
25,
18,
14,
15,
21,
26,
22,
15,
14,
19,
22,
25,
18,
15,
16,
19,
24,
21,
15,
12,
16,
21,
20,
15,
12,
12,
16,
18,
16,
12,
10,
13,
15,
14,
12,
9,
10,
12,
11,
8,
7,
11,
9,
7,
5,
5,
9,
6,
4,
2,
1,
3,
4,
4,
-1,
-3,
-1,
1,
4,
-3,
-7,
-6,
-3,
-1,
-6,
-9,
-9,
-7,
-5,
-6,
-10,
-13,
-14,
-8,
-8,
-10,
-16,
-18,
-15,
-12,
-11,
-15,
-19,
-21,
-18,
-13,
-13,
-19,
-25,
-25,
-18,
-17,
-21,
-26,
-27,
-23,
-18,
-20,
-26,
-29,
-28,
-24,
-23,
-26,
-31,
-30,
-26,
-23,
-26,
-31,
-32,
-29,
-27,
-28,
-30,
-31,
-30,
-29,
-28,
-30,
-31,
-30,
-29,
-30,
-32,
-30,
-30,
-29,
-34,
-35,
-31,
-27,
-27,
-31,
-34,
-31,
-30,
-28,
-25,
-30,
-34,
-31,
-27,
-25,
-27,
-31,
-29,
-26,
-24,
-24,
-27,
-30,
-27,
-22,
-19,
-22,
-28,
-29,
-24,
-17,
-18,
-21,
-28,
-24,
-18,
-12,
-13,
-22,
-24,
-20,
-10,
-8,
-16,
-24,
-22,
-11,
-5,
-7,
-15,
-20,
-14,
-3,
-1,
-9,
-16,
-13,
-4,
1,
-2,
-9,
-11,
-4,
1,
4,
-1,
-7,
-6,
4,
6,
2,
-2,
-3,
2,
10,
9,
5,
1,
3,
7,
12,
11,
5,
3,
9,
12,
13,
11,
8,
10,
12,
14,
16,
12,
11,
14,
17,
17,
14,
14,
17,
18,
18,
16,
16,
17,
19,
20,
18,
17,
17,
19,
20,
19,
16,
18,
22,
22,
19,
17,
17,
21,
24,
20,
18,
16,
19,
24,
24,
18,
14,
16,
22,
24,
20,
15,
14,
19,
22,
21,
18,
12,
15,
19,
20,
19,
12,
11,
15,
18,
17,
14,
9,
10,
13,
15,
14,
9,
7,
8,
13,
12,
7,
3,
3,
8,
9,
8,
4,
-1,
1,
5,
8,
4,
-2,
-4,
-1,
3,
1,
-3,
-5,
-4,
-2,
-3,
-4,
-7,
-8,
-7,
-5,
-8,
-9,
-10,
-10,
-10,
-12,
-13,
-10,
-11,
-13,
-16,
-16,
-12,
-13,
-18,
-21,
-19,
-15,
-16,
-19,
-23,
-23,
-21,
-17,
-16,
-23,
-29,
-27,
-20,
-19,
-23,
-29,
-30,
-26,
-23,
-21,
-27,
-31,
-32,
-28,
-23,
-24,
-30,
-35,
-32,
-26,
-24,
-28,
-33,
-35,
-32,
-26,
-24,
-32,
-38,
-35,
-27,
-21,
-28,
-38,
-39,
-30,
-23,
-25,
-32,
-39,
-35,
-26,
-21,
-27,
-35,
-36,
-30,
-21,
-23,
-32,
-34,
-29,
-24,
-23,
-24,
-30,
-32,
-25,
-20,
-22,
-26,
-28,
-24,
-20,
-19,
-23,
-26,
-24,
-20,
-17,
-17,
-20,
-22,
-20,
-15,
-15,
-17,
-16,
-18,
-14,
-13,
-13,
-13,
-15,
-13,
-9,
-9,
-11,
-11,
-7,
-6,
-7,
-9,
-8,
-4,
-3,
-3,
-5,
-7,
-3,
0,
4,
-2,
-5,
-3,
4,
9,
4,
0,
0,
4,
10,
8,
4,
1,
4,
10,
12,
8,
3,
5,
12,
18,
13,
8,
6,
12,
17,
19,
15,
9,
10,
14,
21,
20,
13,
10,
13,
19,
21,
18,
16,
15,
18,
21,
24,
20,
15,
15,
20,
24,
21,
17,
16,
17,
24,
23,
20,
17,
17,
20,
23,
22,
17,
16,
20,
21,
22,
19,
16,
16,
18,
19,
20,
18,
17,
16,
17,
17,
18,
18,
16,
14,
12,
15,
17,
16,
11,
8,
11,
16,
15,
12,
7,
4,
10,
13,
12,
5,
2,
5,
11,
12,
5,
-1,
-1,
5,
10,
4,
-2,
-5,
-2,
3,
5,
1,
-8,
-9,
-4,
0,
1,
-7,
-12,
-10,
-6,
-2,
-5,
-12,
-17,
-13,
-5,
-6,
-12,
-19,
-20,
-11,
-10,
-11,
-19,
-23,
-17,
-13,
-12,
-16,
-25,
-25,
-17,
-15,
-19,
-26,
-28,
-23,
-17,
-20,
-26,
-29,
-27,
-23,
-21,
-24,
-28,
-30,
-28,
-24,
-25,
-29,
-31,
-30,
-28,
-28,
-29,
-29,
-31,
-30,
-30,
-29,
-31,
-33,
-31,
-28,
-29,
-31,
-31,
-30,
-28,
-29,
-32,
-32,
-30,
-29,
-28,
-31,
-31,
-32,
-28,
-27,
-28,
-33,
-34,
-28,
-24,
-24,
-31,
-32,
-29,
-24,
-23,
-26,
-31,
-30,
-24,
-17,
-20,
-27,
-31,
-24,
-17,
-16,
-24,
-29,
-25,
-18,
-14,
-15,
-22,
-24,
-19,
-13,
-12,
-16,
-20,
-16,
-12,
-8,
-9,
-15,
-16,
-13,
-6,
-4,
-9,
-14,
-12,
-5,
-3,
-2,
-7,
-8,
-7,
-2,
3,
1,
-4,
-6,
-1,
4,
5,
2,
0,
1,
5,
7,
7,
4,
3,
4,
9,
10,
7,
6,
8,
11,
12,
12,
11,
11,
11,
12,
14,
16,
14,
14,
12,
14,
17,
18,
18,
15,
13,
15,
21,
22,
17,
13,
15,
20,
25,
22,
17,
13,
18,
25,
27,
20,
14,
14,
21,
26,
25,
16,
14,
17,
25,
25,
20,
15,
15,
19,
24,
23,
15,
12,
17,
22,
25,
18,
13,
11,
17,
21,
22,
15,
9,
10,
17,
21,
15,
9,
8,
12,
18,
17,
12,
5,
7,
12,
16,
12,
3,
3,
9,
11,
9,
2,
0,
3,
7,
6,
2,
0,
0,
2,
3,
-2,
-3,
-3,
-2,
-1,
-4,
-8,
-5,
-5,
-6,
-7,
-9,
-9,
-8,
-7,
-8,
-13,
-14,
-11,
-8,
-9,
-17,
-18,
-16,
-11,
-12,
-16,
-23,
-19,
-18,
-17,
-16,
-19,
-24,
-24,
-21,
-16,
-20,
-26,
-27,
-25,
-19,
-19,
-27,
-31,
-28,
-23,
-20,
-24,
-31,
-34,
-28,
-20,
-22,
-31,
-36,
-33,
-25,
-22,
-28,
-34,
-35,
-29,
-25,
-24,
-33,
-38,
-33,
-28,
-23,
-28,
-36,
-35,
-31,
-27,
-27,
-32,
-35,
-34,
-28,
-25,
-28,
-32,
-34,
-31,
-26,
-24,
-28,
-32,
-30,
-25,
-24,
-23,
-27,
-30,
-29,
-23,
-21,
-23,
-28,
-27,
-24,
-20,
-19,
-23,
-23,
-23,
-20,
-17,
-18,
-20,
-19,
-19,
-16,
-16,
-15,
-13,
-16,
-16,
-15,
-12,
-10,
-11,
-13,
-13,
-10,
-7,
-5,
-8,
-12,
-10,
-4,
0,
-4,
-8,
-8,
-2,
2,
2,
-4,
-5,
-3,
3,
7,
4,
-2,
-3,
3,
10,
9,
3,
0,
3,
10,
15,
12,
5,
4,
8,
18,
15,
10,
6,
9,
15,
18,
17,
12,
8,
13,
16,
19,
17,
11,
13,
19,
21,
19,
14,
12,
16,
24,
23,
19,
16,
13,
20,
24,
21,
17,
16,
19,
22,
22,
18,
17,
19,
20,
20,
20,
17,
19,
21,
22,
19,
17,
18,
21,
21,
17,
16,
17,
20,
20,
17,
14,
15,
17,
18,
17,
13,
11,
13,
19,
17,
13,
8,
11,
15,
15,
11,
6,
6,
9,
12,
14,
7,
2,
2,
7,
13,
8,
1,
-3,
0,
8,
8,
3,
-3,
-7,
0,
5,
4,
-7,
-13,
-8,
1,
3,
-4,
-13,
-12,
-6,
0,
-4,
-15,
-17,
-11,
-3,
-4,
-13,
-20,
-19,
-12,
-7,
-13,
-20,
-20,
-18,
-13,
-12,
-17,
-22,
-23,
-20,
-17,
-19,
-22,
-26,
-26,
-22,
-21,
-23,
-26,
-27,
-27,
-25,
-20,
-25,
-28,
-31,
-27,
-25,
-25,
-28,
-31,
-29,
-27,
-28,
-28,
-31,
-33,
-31,
-28,
-28,
-30,
-32,
-32,
-31,
-29,
-28,
-29,
-31,
-34,
-35,
-29,
-26,
-27,
-32,
-34,
-31,
-28,
-27,
-27,
-32,
-35,
-28,
-24,
-24,
-30,
-34,
-29,
-23,
-22,
-28,
-30,
-29,
-24,
-19,
-24,
-27,
-30,
-25,
-18,
-19,
-22,
-27,
-27,
-20,
-18,
-16,
-19,
-22,
-21,
-16,
-11,
-15,
-18,
-19,
-15,
-10,
-10,
-12,
-14,
-14,
-10,
-7,
-6,
-10,
-12,
-9,
-3,
-3,
-6,
-7,
-6,
-2,
-2,
-3,
-3,
-3,
0,
3,
2,
0,
0,
3,
4,
2,
2,
4,
5,
8,
6,
5,
7,
9,
11,
11,
8,
7,
11,
15,
15,
10,
7,
10,
16,
18,
14,
11,
9,
15,
20,
21,
15,
11,
14,
21,
24,
18,
14,
14,
20,
25,
23,
17,
13,
17,
23,
27,
21,
13,
13,
19,
27,
25,
18,
13,
16,
23,
27,
24,
15,
12,
18,
26,
25,
17,
9,
13,
21,
26,
20,
13,
9,
15,
23,
22,
16,
9,
10,
18,
21,
15,
8,
9,
14,
17,
16,
11,
8,
8,
11,
14,
9,
5,
3,
5,
8,
9,
6,
3,
2,
3,
4,
5,
3,
-1,
-2,
-1,
1,
1,
-1,
-4,
-5,
-3,
-3,
-3,
-5,
-9,
-9,
-8,
-5,
-8,
-10,
-9,
-11,
-11,
-10,
-11,
-12,
-16,
-15,
-15,
-12,
-15,
-18,
-20,
-18,
-15,
-16,
-19,
-23,
-24,
-21,
-16,
-17,
-25,
-29,
-25,
-18,
-17,
-24,
-32,
-31,
-22,
-20,
-24,
-30,
-31,
-30,
-25,
-23,
-29,
-33,
-32,
-27,
-25,
-28,
-32,
-32,
-31,
-29,
-28,
-31,
-33,
-32,
-28,
-28,
-28,
-33,
-35,
-31,
-28,
-28,
-31,
-33,
-31,
-31,
-28,
-29,
-29,
-32,
-32,
-28,
-27,
-28,
-31,
-28,
-27,
-27,
-28,
-28,
-25,
-25,
-25,
-27,
-27,
-26,
-24,
-20,
-25,
-27,
-25,
-19,
-17,
-21,
-25,
-23,
-17,
-14,
-16,
-20,
-21,
-17,
-11,
-11,
-17,
-20,
-16,
-9,
-7,
-11,
-16,
-17,
-10,
-3,
-3,
-9,
-15,
-12,
-3,
2,
-3,
-10,
-9,
-4,
3,
3,
-1,
-5,
-5,
2,
7,
8,
-2,
-5,
3,
8,
10,
5,
0,
1,
10,
14,
12,
4,
1,
6,
17,
19,
12,
3,
5,
15,
20,
18,
11,
6,
12,
19,
21,
16,
10,
11,
20,
20,
20,
14,
12,
17,
21,
22,
20,
17,
16,
19,
22,
22,
19,
17,
18,
20,
21,
20,
20,
19,
20,
22,
20,
19,
18,
18,
18,
20,
21,
20,
18,
17,
18,
18,
20,
19,
17,
15,
15,
17,
19,
18,
15,
13,
13,
15,
17,
16,
11,
9,
11,
14,
14,
12,
9,
5,
9,
12,
10,
5,
2,
6,
10,
11,
5,
0,
0,
5,
7,
3,
-3,
-5,
-1,
4,
4,
-2,
-8,
-7,
-3,
1,
-3,
-8,
-10,
-8,
-4,
-6,
-9,
-14,
-11,
-11,
-8,
-11,
-13,
-15,
-14,
-12,
-15,
-15,
-16,
-16,
-15,
-16,
-17,
-17,
-19,
-20,
-19,
-19,
-22,
-23,
-24,
-20,
-22,
-24,
-25,
-25,
-24,
-24,
-27,
-27,
-24,
-25,
-27,
-29,
-31,
-29,
-27,
-24,
-30,
-35,
-32,
-27,
-23,
-28,
-34,
-35,
-30,
-24,
-25,
-32,
-37,
-34,
-26,
-23,
-29,
-37,
-38,
-28,
-23,
-25,
-34,
-39,
-31,
-25,
-25,
-28,
-37,
-36,
-28,
-21,
-23,
-30,
-36,
-30,
-21,
-20,
-26,
-33,
-34,
-26,
-19,
-17,
-26,
-32,
-29,
-19,
-15,
-19,
-28,
-29,
-21,
-14,
-14,
-18,
-24,
-23,
-14,
-11,
-15,
-20,
-21,
-13,
-8,
-9,
-13,
-18,
-13,
-7,
-5,
-8,
-12,
-12,
-6,
-3,
-3,
-8,
-8,
-6,
-1,
-2,
-2,
-2,
-2,
-1,
1,
3,
1,
2,
3,
4,
4,
3,
6,
6,
6,
5,
5,
9,
9,
9,
8,
9,
10,
10,
14,
10,
10,
10,
12,
16,
15,
13,
13,
15,
16,
18,
17,
15,
14,
17,
21,
20,
18,
14,
16,
20,
22,
20,
17,
15,
18,
23,
24,
19,
14,
14,
20,
25,
22,
17,
15,
19,
22,
23,
20,
16,
17,
22,
23,
22,
16,
15,
19,
21,
20,
17,
15,
16,
18,
18,
17,
15,
13,
14,
17,
16,
15,
13,
12,
12,
12,
12,
13,
12,
8,
7,
9,
9,
10,
7,
6,
4,
6,
8,
6,
4,
2,
2,
4,
4,
2,
0,
-2,
-2,
1,
1,
0,
-4,
-9,
-6,
-2,
-1,
-7,
-12,
-11,
-5,
-2,
-7,
-14,
-17,
-14,
-6,
-4,
-16,
-21,
-21,
-11,
-5,
-13,
-23,
-25,
-19,
-10,
-12,
-20,
-27,
-26,
-19,
-15,
-18,
-27,
-29,
-24,
-17,
-18,
-26,
-32,
-29,
-21,
-19,
-24,
-30,
-33,
-29,
-21,
-19,
-27,
-35,
-35,
-29,
-22,
-25,
-32,
-36,
-34,
-26,
-25,
-28,
-36,
-37,
-29,
-25,
-26,
-34,
-37,
-32,
-27,
-26,
-32,
-34,
-32,
-28,
-27,
-29,
-31,
-32,
-29,
-26,
-28,
-32,
-32,
-28,
-25,
-26,
-28,
-28,
-27,
-26,
-26,
-26,
-25,
-24,
-24,
-23,
-25,
-24,
-24,
-18,
-21,
-23,
-24,
-20,
-17,
-17,
-19,
-19,
-19,
-17,
-13,
-12,
-16,
-20,
-16,
-11,
-9,
-11,
-14,
-13,
-10,
-7,
-6,
-9,
-11,
-11,
-5,
-1,
-4,
-8,
-8,
-3,
2,
1,
-3,
-4,
-2,
2,
5,
4,
-2,
-2,
4,
9,
7,
3,
3,
4,
9,
11,
9,
8,
5,
8,
14,
11,
11,
8,
12,
14,
14,
15,
13,
13,
14,
14,
15,
16,
16,
16,
16,
17,
17,
18,
18,
19,
17,
19,
20,
20,
19,
17,
18,
20,
24,
22,
17,
18,
19,
22,
24,
20,
17,
16,
19,
23,
23,
18,
15,
17,
20,
25,
23,
16,
12,
15,
21,
24,
18,
11,
12,
18,
22,
19,
12,
8,
12,
19,
22,
16,
5,
5,
14,
20,
15,
5,
2,
8,
15,
16,
7,
1,
1,
8,
14,
11,
1,
-4,
3,
9,
9,
2,
-3,
-3,
1,
4,
3,
-3,
-7,
-7,
0,
0,
-3,
-9,
-9,
-6,
-3,
-4,
-11,
-15,
-12,
-8,
-4,
-11,
-15,
-17,
-15,
-9,
-12,
-16,
-20,
-19,
-13,
-14,
-19,
-21,
-22,
-18,
-19,
-19,
-24,
-24,
-21,
-23,
-22,
-26,
-26,
-20,
-23,
-25,
-28,
-28,
-23,
-24,
-27,
-31,
-29,
-27,
-26,
-26,
-30,
-32,
-31,
-28,
-27,
-30,
-32,
-32,
-28,
-26,
-29,
-32,
-34,
-32,
-28,
-27,
-31,
-34,
-35,
-29,
-27,
-27,
-32,
-36,
-30,
-27,
-26,
-27,
-32,
-35,
-29,
-24,
-24,
-28,
-33,
-32,
-24,
-23,
-26,
-30,
-29,
-24,
-22,
-20,
-26,
-29,
-26,
-21,
-18,
-22,
-26,
-25,
-19,
-16,
-16,
-18,
-21,
-19,
-15,
-15,
-15,
-17,
-18,
-15,
-14,
-13,
-12,
-12,
-11,
-14,
-10,
-7,
-7,
-8,
-10,
-8,
-7,
-4,
-2,
-5,
-6,
-6,
-2,
2,
0,
-2,
-3,
-1,
3,
4,
2,
0,
1,
3,
7,
8,
3,
2,
4,
11,
13,
10,
5,
4,
10,
16,
16,
9,
4,
6,
18,
20,
18,
8,
6,
13,
20,
22,
17,
9,
12,
20,
24,
23,
11,
9,
17,
25,
26,
17,
11,
15,
22,
27,
22,
15,
13,
18,
27,
25,
18,
12,
16,
23,
26,
22,
16,
15,
19,
24,
24,
18,
14,
15,
20,
21,
20,
16,
13,
16,
19,
18,
16,
13,
13,
16,
17,
17,
12,
11,
14,
15,
14,
10,
9,
11,
12,
11,
9,
6,
6,
8,
10,
7,
4,
4,
6,
5,
3,
1,
2,
5,
5,
0,
-4,
-3,
1,
3,
-2,
-7,
-9,
-4,
0,
-1,
-8,
-13,
-10,
-3,
-3,
-9,
-15,
-15,
-11,
-7,
