5-grundlagen-opAmps/data/ALL0011/A0011CH2.CSV

Memory Length,4000,
Trigger Level,0.00000e+00,
Source,CH2,
Probe,1.0X,
Vertical Units,V,
Vertical Scale,5.00000e-02,
Vertical Position,0.00000e+00,
Horizontal Units,S,
Horizontal Scale,2.50000e-07,
Horizontal Position,2.5000000e-07,
Horizontal Mode,Main,
Sampling Period,2.00000e-09,
Firmware,V1.14,
Time, ,
Mode,Fast,
Waveform Data,
53,
53,
57,
60,
57,
55,
51,
54,
55,
56,
52,
47,
46,
51,
51,
50,
46,
46,
47,
48,
47,
45,
43,
41,
41,
42,
40,
36,
33,
34,
35,
33,
31,
29,
27,
27,
29,
28,
24,
23,
20,
22,
20,
17,
14,
14,
13,
11,
7,
8,
6,
6,
5,
2,
1,
0,
-1,
-1,
-4,
-8,
-11,
-8,
-8,
-12,
-17,
-18,
-16,
-16,
-19,
-21,
-25,
-24,
-23,
-22,
-27,
-32,
-33,
-32,
-28,
-32,
-39,
-39,
-39,
-38,
-39,
-42,
-45,
-45,
-43,
-43,
-45,
-48,
-51,
-49,
-49,
-50,
-52,
-53,
-53,
-54,
-51,
-53,
-56,
-57,
-57,
-55,
-55,
-55,
-58,
-59,
-59,
-57,
-57,
-57,
-60,
-60,
-59,
-57,
-58,
-60,
-61,
-58,
-57,
-55,
-58,
-57,
-59,
-56,
-55,
-56,
-57,
-56,
-55,
-54,
-53,
-52,
-50,
-49,
-50,
-49,
-49,
-47,
-47,
-47,
-49,
-48,
-45,
-41,
-44,
-44,
-43,
-38,
-36,
-35,
-37,
-36,
-34,
-30,
-28,
-30,
-33,
-31,
-29,
-25,
-23,
-25,
-24,
-20,
-19,
-15,
-14,
-16,
-16,
-12,
-8,
-6,
-7,
-9,
-6,
-4,
1,
1,
0,
-1,
1,
7,
10,
10,
7,
9,
14,
18,
17,
15,
14,
18,
24,
27,
24,
20,
24,
29,
32,
32,
28,
28,
34,
38,
39,
37,
36,
37,
41,
43,
43,
42,
41,
45,
47,
48,
46,
47,
48,
50,
51,
51,
51,
50,
51,
55,
54,
53,
52,
53,
54,
54,
56,
56,
56,
56,
55,
55,
56,
54,
55,
57,
56,
54,
53,
56,
56,
56,
53,
53,
54,
54,
53,
52,
50,
50,
51,
52,
50,
45,
44,
47,
49,
46,
42,
42,
43,
45,
44,
42,
37,
37,
39,
39,
36,
31,
29,
32,
34,
31,
27,
25,
26,
27,
27,
25,
20,
18,
19,
19,
17,
13,
10,
10,
12,
10,
7,
6,
3,
4,
5,
3,
1,
-3,
-4,
-5,
-3,
-6,
-10,
-10,
-12,
-12,
-12,
-14,
-16,
-19,
-19,
-17,
-19,
-22,
-25,
-25,
-25,
-26,
-27,
-32,
-31,
-32,
-35,
-35,
-36,
-36,
-39,
-38,
-39,
-42,
-41,
-43,
-44,
-45,
-47,
-45,
-44,
-46,
-51,
-50,
-49,
-47,
-47,
-52,
-54,
-53,
-50,
-49,
-54,
-58,
-57,
-54,
-52,
-53,
-59,
-59,
-56,
-53,
-53,
-56,
-60,
-57,
-55,
-53,
-54,
-57,
-57,
-56,
-53,
-51,
-55,
-56,
-56,
-53,
-49,
-47,
-49,
-52,
-49,
-47,
-45,
-46,
-50,
-49,
-48,
-42,
-41,
-45,
-46,
-43,
-38,
-35,
-37,
-39,
-38,
-33,
-29,
-30,
-34,
-35,
-29,
-27,
-25,
-26,
-29,
-24,
-22,
-19,
-21,
-20,
-19,
-14,
-13,
-13,
-13,
-12,
-8,
-7,
-8,
-6,
-5,
-4,
-3,
-1,
0,
2,
5,
7,
7,
8,
9,
11,
14,
14,
14,
16,
17,
18,
20,
23,
23,
23,
25,
26,
31,
31,
30,
30,
33,
36,
37,
36,
34,
36,
41,
43,
43,
40,
40,
44,
49,
49,
45,
46,
47,
50,
53,
51,
50,
49,
52,
57,
56,
53,
51,
54,
57,
58,
57,
56,
55,
56,
59,
59,
58,
54,
56,
59,
60,
58,
57,
56,
56,
58,
59,
57,
55,
54,
55,
55,
55,
51,
47,
50,
52,
51,
49,
48,
48,
47,
47,
49,
45,
43,
41,
42,
42,
39,
36,
35,
36,
35,
33,
33,
30,
29,
29,
29,
27,
26,
25,
22,
22,
20,
17,
18,
15,
12,
9,
11,
11,
9,
5,
3,
4,
6,
4,
-1,
-5,
-4,
-4,
-3,
-6,
-12,
-13,
-12,
-8,
-12,
-18,
-18,
-19,
-18,
-17,
-22,
-26,
-27,
-25,
-24,
-25,
-30,
-35,
-33,
-31,
-30,
-35,
-37,
-38,
-39,
-37,
-38,
-41,
-45,
-45,
-44,
-42,
-44,
-49,
-51,
-48,
-48,
-47,
-48,
-54,
-53,
-52,
-49,
-52,
-55,
-57,
-55,
-53,
-54,
-58,
-60,
-58,
-55,
-55,
-57,
-60,
-58,
-57,
-57,
-57,
-60,
-59,
-57,
-57,
-57,
-60,
-59,
-56,
-54,
-57,
-57,
-56,
-53,
-51,
-52,
-53,
-54,
-51,
-49,
-49,
-50,
-51,
-50,
-47,
-46,
-45,
-45,
-45,
-41,
-39,
-36,
-37,
-38,
-38,
-35,
-30,
-30,
-33,
-33,
-32,
-26,
-25,
-24,
-27,
-24,
-20,
-15,
-13,
-16,
-19,
-14,
-8,
-6,
-8,
-10,
-9,
-4,
-1,
1,
-2,
-3,
3,
7,
9,
8,
7,
10,
14,
16,
17,
15,
16,
19,
20,
24,
23,
22,
25,
28,
29,
31,
30,
30,
33,
35,
36,
39,
38,
37,
39,
41,
43,
43,
41,
43,
45,
45,
45,
47,
46,
47,
48,
50,
51,
50,
50,
52,
52,
52,
53,
53,
54,
54,
54,
56,
56,
54,
52,
55,
57,
56,
56,
53,
55,
53,
56,
59,
56,
52,
52,
55,
57,
56,
50,
50,
52,
53,
51,
50,
47,
46,
48,
51,
49,
44,
42,
45,
47,
47,
43,
40,
39,
41,
41,
39,
35,
32,
34,
34,
34,
30,
27,
29,
29,
28,
27,
25,
22,
21,
19,
19,
17,
13,
12,
13,
12,
10,
7,
6,
5,
5,
5,
3,
-1,
-3,
-2,
-2,
-4,
-8,
-12,
-11,
-9,
-12,
-16,
-18,
-17,
-17,
-20,
-21,
-24,
-24,
-23,
-25,
-27,
-31,
-33,
-31,
-31,
-34,
-39,
-38,
-37,
-36,
-39,
-42,
-44,
-42,
-43,
-44,
-48,
-51,
-48,
-46,
-47,
-48,
-53,
-54,
-52,
-49,
-51,
-55,
-57,
-55,
-53,
-54,
-56,
-58,
-61,
-57,
-55,
-54,
-59,
-61,
-60,
-57,
-55,
-56,
-61,
-61,
-58,
-54,
-54,
-58,
-62,
-61,
-56,
-52,
-55,
-58,
-59,
-54,
-50,
-49,
-53,
-55,
-53,
-47,
-46,
-48,
-51,
-51,
-48,
-43,
-45,
-46,
-46,
-43,
-39,
-37,
-38,
-38,
-37,
-34,
-32,
-32,
-32,
-32,
-30,
-29,
-26,
-25,
-25,
-24,
-23,
-20,
-17,
-16,
-15,
-14,
-13,
-10,
-7,
-6,
-7,
-6,
-5,
-4,
-1,
-1,
1,
3,
4,
6,
7,
10,
10,
11,
12,
14,
17,
18,
17,
17,
19,
23,
25,
27,
24,
24,
29,
32,
34,
30,
31,
35,
39,
40,
37,
35,
39,
42,
45,
45,
43,
44,
47,
50,
49,
47,
45,
49,
54,
52,
52,
50,
51,
52,
55,
57,
55,
54,
54,
57,
59,
57,
56,
55,
57,
58,
57,
57,
56,
56,
58,
58,
58,
56,
56,
57,
59,
58,
53,
56,
55,
55,
56,
53,
52,
50,
50,
53,
50,
48,
48,
49,
50,
47,
45,
45,
48,
46,
42,
40,
37,
38,
37,
38,
35,
32,
32,
34,
34,
28,
27,
27,
29,
28,
25,
20,
18,
19,
20,
19,
14,
9,
9,
11,
12,
9,
3,
3,
4,
6,
2,
-2,
-5,
-6,
-4,
-5,
-6,
-13,
-17,
-13,
-11,
-13,
-18,
-21,
-22,
-20,
-19,
-23,
-27,
-30,
-31,
-27,
-25,
-30,
-38,
-39,
-36,
-33,
-36,
-41,
-45,
-43,
-41,
-40,
-45,
-49,
-49,
-48,
-45,
-48,
-53,
-55,
-53,
-49,
-52,
-54,
-57,
-56,
-55,
-55,
-56,
-58,
-59,
-58,
-59,
-58,
-59,
-59,
-59,
-60,
-59,
-59,
-58,
-59,
-61,
-61,
-60,
-58,
-59,
-59,
-61,
-60,
-57,
-57,
-58,
-59,
-59,
-56,
-55,
-54,
-54,
-53,
-53,
-53,
-52,
-51,
-50,
-49,
-51,
-49,
-48,
-45,
-46,
-46,
-45,
-41,
-39,
-38,
-38,
-39,
-37,
-32,
-30,
-32,
-35,
-33,
-29,
-25,
-26,
-27,
-27,
-21,
-18,
-16,
-18,
-19,
-17,
-11,
-8,
-10,
-11,
-9,
-6,
-5,
-3,
-3,
-1,
0,
3,
5,
5,
8,
9,
11,
13,
14,
17,
16,
16,
18,
19,
20,
21,
22,
25,
28,
31,
29,
31,
31,
36,
37,
36,
38,
37,
39,
40,
40,
42,
42,
45,
46,
45,
45,
45,
51,
52,
49,
48,
49,
54,
54,
53,
52,
51,
54,
57,
57,
56,
52,
55,
58,
61,
57,
52,
55,
58,
61,
57,
55,
55,
55,
60,
61,
58,
54,
52,
57,
59,
58,
53,
51,
54,
54,
55,
52,
48,
47,
49,
53,
51,
47,
43,
45,
49,
48,
45,
41,
40,
41,
41,
41,
36,
33,
33,
36,
36,
33,
28,
28,
29,
32,
29,
26,
21,
20,
21,
22,
17,
13,
13,
14,
15,
12,
7,
7,
8,
7,
6,
3,
1,
0,
-2,
-3,
-5,
-7,
-10,
-9,
-9,
-12,
-14,
-15,
-17,
-19,
-20,
-21,
-22,
-22,
-25,
-28,
-28,
-29,
-29,
-32,
-35,
-35,
-36,
-36,
-37,
-39,
-41,
-41,
-41,
-42,
-45,
-46,
-47,
-47,
-48,
-49,
-48,
-50,
-52,
-53,
-53,
-51,
-55,
-55,
-57,
-57,
-53,
-56,
-57,
-60,
-61,
-57,
-57,
-58,
-62,
-62,
-58,
-56,
-57,
-60,
-62,
-60,
-57,
-56,
-59,
-60,
-61,
-58,
-55,
-56,
-59,
-59,
-56,
-53,
-55,
-54,
-53,
-52,
-51,
-50,
-50,
-50,
-48,
-49,
-49,
-48,
-47,
-45,
-45,
-44,
-44,
-41,
-38,
-37,
-39,
-37,
-36,
-32,
-33,
-32,
-31,
-30,
-31,
-29,
-26,
-25,
-23,
-21,
-21,
-19,
-18,
-13,
-13,
-15,
-12,
-9,
-7,
-7,
-10,
-8,
-4,
0,
1,
-1,
-1,
3,
7,
10,
8,
6,
8,
15,
18,
17,
12,
13,
18,
23,
25,
23,
19,
24,
29,
31,
32,
28,
29,
33,
36,
38,
35,
34,
35,
40,
44,
43,
42,
41,
43,
48,
49,
48,
44,
46,
50,
52,
52,
49,
48,
50,
53,
57,
55,
51,
51,
56,
59,
57,
53,
52,
56,
59,
58,
57,
54,
54,
57,
59,
58,
54,
56,
57,
58,
57,
53,
55,
55,
54,
53,
52,
52,
50,
50,
51,
49,
49,
48,
49,
49,
46,
45,
47,
48,
44,
41,
40,
39,
40,
37,
37,
35,
33,
33,
34,
32,
28,
28,
28,
29,
26,
23,
21,
20,
20,
19,
18,
15,
12,
9,
13,
11,
7,
5,
4,
5,
6,
3,
-1,
-3,
-4,
-4,
-3,
-6,
-12,
-13,
-12,
-10,
-13,
-19,
-19,
-19,
-16,
-19,
-23,
-27,
-27,
-26,
-25,
-27,
-32,
-35,
-33,
-32,
-33,
-39,
-40,
-38,
-39,
-41,
-42,
-45,
-43,
-45,
-46,
-47,
-47,
-48,
-48,
-49,
-52,
-52,
-50,
-50,
-52,
-55,
-55,
-54,
-53,
-55,
-57,
-59,
-57,
-56,
-55,
-58,
-59,
-58,
-58,
-57,
-58,
-58,
-58,
-60,
-57,
-56,
-57,
-60,
-60,
-58,
-55,
-54,
-54,
-58,
-57,
-54,
-49,
-49,
-54,
-56,
-53,
-47,
-45,
-48,
-52,
-51,
-47,
-42,
-42,
-47,
-48,
-44,
-37,
-36,
-37,
-40,
-38,
-33,
-29,
-29,
-32,
-34,
-31,
-26,
-25,
-26,
-27,
-25,
-19,
-18,
-15,
-15,
-18,
-16,
-11,
-8,
-9,
-11,
-10,
-7,
-4,
-1,
-3,
-2,
0,
4,
8,
7,
8,
6,
10,
15,
17,
15,
14,
16,
19,
21,
20,
20,
22,
26,
29,
28,
28,
29,
31,
35,
35,
34,
37,
38,
38,
39,
39,
41,
43,
44,
44,
45,
45,
47,
50,
49,
49,
48,
49,
54,
52,
51,
51,
54,
54,
55,
56,
54,
56,
56,
58,
59,
56,
55,
57,
58,
58,
57,
56,
56,
56,
59,
60,
58,
56,
54,
57,
58,
58,
53,
53,
53,
54,
54,
51,
49,
48,
50,
52,
51,
47,
44,
46,
48,
47,
43,
42,
42,
43,
41,
39,
35,
34,
35,
36,
35,
33,
29,
30,
30,
28,
26,
25,
24,
23,
20,
19,
17,
16,
15,
13,
10,
9,
9,
10,
7,
2,
2,
1,
1,
1,
-6,
-6,
-5,
-5,
-7,
-10,
-13,
-16,
-15,
-14,
-16,
-19,
-23,
-22,
-21,
-22,
-27,
-30,
-29,
-28,
-31,
-31,
-35,
-39,
-38,
-37,
-36,
-39,
-43,
-45,
-44,
-41,
-43,
-47,
-50,
-50,
-47,
-45,
-48,
-55,
-57,
-53,
-49,
-50,
-56,
-59,
-59,
-53,
-52,
-57,
-61,
-61,
-57,
-55,
-57,
-61,
-65,
-61,
-57,
-57,
-59,
-62,
-63,
-59,
-57,
-56,
-61,
-61,
-61,
-58,
-57,
-56,
-59,
-58,
-57,
-53,
-53,
-53,
-54,
-54,
-52,
-49,
-50,
-51,
-51,
-50,
-47,
-46,
-47,
-48,
-46,
-42,
-41,
-41,
-41,
-39,
-37,
-34,
-35,
-35,
-33,
-30,
-29,
-29,
-31,
-31,
-25,
-22,
-23,
-22,
-21,
-17,
-14,
-13,
-15,
-14,
-10,
-6,
-6,
-7,
-8,
-5,
-1,
0,
1,
0,
2,
5,
7,
10,
10,
11,
13,
16,
19,
17,
17,
19,
20,
24,
26,
26,
25,
26,
29,
32,
34,
33,
33,
35,
39,
39,
40,
39,
38,
42,
46,
45,
44,
44,
45,
49,
50,
49,
47,
50,
53,
53,
54,
51,
54,
54,
55,
56,
55,
55,
55,
57,
58,
58,
57,
59,
58,
58,
58,
59,
59,
57,
56,
56,
59,
59,
59,
59,
56,
58,
57,
58,
58,
53,
52,
55,
55,
53,
50,
49,
50,
51,
52,
50,
47,
44,
46,
48,
48,
44,
39,
40,
42,
42,
39,
36,
33,
33,
33,
35,
32,
27,
27,
29,
32,
26,
21,
18,
19,
21,
20,
16,
11,
9,
11,
14,
11,
4,
1,
3,
7,
6,
0,
-4,
-5,
-3,
-3,
-6,
-10,
-14,
-13,
-9,
-12,
-17,
-21,
-21,
-19,
-18,
-22,
-25,
-28,
-26,
-27,
-29,
-31,
-35,
-35,
-35,
-34,
-37,
-39,
-39,
-40,
-41,
-43,
-44,
-45,
-45,
-47,
-46,
-47,
-50,
-51,
-52,
-50,
-52,
-52,
-54,
-55,
-53,
-55,
-55,
-58,
-57,
-56,
-56,
-59,
-59,
-61,
-58,
-57,
-58,
-61,
-62,
-59,
-58,
-59,
-61,
-63,
-59,
-57,
-57,
-62,
-62,
-59,
-55,
-53,
-58,
-60,
-58,
-54,
-51,
-52,
-54,
-54,
-53,
-49,
-48,
-52,
-53,
-51,
-47,
-46,
-45,
-47,
-46,
-44,
-41,
-39,
-37,
-39,
-38,
-35,
-31,
-30,
-31,
-33,
-32,
-28,
-26,
-25,
-26,
-25,
-22,
-19,
-16,
-16,
-18,
-17,
-12,
-9,
-9,
-10,
-8,
-6,
-4,
-3,
-4,
-2,
0,
3,
5,
6,
8,
8,
12,
11,
13,
16,
18,
18,
17,
17,
20,
24,
26,
25,
26,
27,
30,
33,
31,
32,
34,
37,
40,
39,
37,
37,
41,
44,
45,
43,
42,
44,
47,
49,
51,
49,
48,
50,
53,
56,
53,
52,
52,
53,
57,
57,
56,
56,
55,
57,
59,
60,
54,
53,
57,
60,
60,
57,
55,
56,
59,
63,
60,
56,
53,
57,
61,
59,
55,
53,
54,
57,
56,
53,
49,
49,
50,
52,
53,
48,
47,
47,
50,
51,
46,
43,
43,
44,
44,
41,
39,
37,
36,
37,
35,
34,
30,
31,
32,
28,
29,
26,
26,
24,
22,
21,
19,
18,
17,
16,
15,
12,
11,
7,
8,
7,
5,
3,
2,
2,
2,
-3,
-5,
-5,
-7,
-7,
-7,
-12,
-16,
-14,
-14,
-14,
-18,
-23,
-23,
-22,
-20,
-24,
-30,
-29,
-29,
-27,
-28,
-34,
-38,
-39,
-36,
-35,
-39,
-44,
-45,
-41,
-39,
-44,
-46,
-49,
-48,
-46,
-46,
-49,
-53,
-53,
-52,
-49,
-49,
-55,
-55,
-56,
-55,
-53,
-54,
-58,
-58,
-57,
-56,
-56,
-57,
-59,
-61,
-58,
-57,
-56,
-56,
-61,
-60,
-57,
-55,
-57,
-59,
-59,
-58,
-55,
-55,
-57,
-57,
-56,
-53,
-53,
-53,
-53,
-52,
-50,
-50,
-52,
-50,
-47,
-47,
-48,
-48,
-47,
-43,
-42,
-43,
-44,
-42,
-37,
-35,
-37,
-38,
-38,
-31,
-29,
-30,
-32,
-31,
-30,
-24,
-22,
-25,
-25,
-22,
-17,
-14,
-17,
-16,
-14,
-12,
-8,
-6,
-8,
-10,
-7,
-3,
-1,
1,
-1,
-1,
3,
6,
11,
9,
8,
9,
12,
16,
17,
17,
14,
17,
21,
24,
25,
23,
24,
26,
32,
32,
31,
28,
33,
39,
39,
36,
35,
37,
40,
44,
43,
41,
43,
45,
47,
48,
48,
46,
49,
51,
52,
50,
49,
51,
55,
54,
53,
54,
55,
56,
57,
57,
56,
56,
57,
58,
57,
56,
57,
56,
59,
58,
57,
57,
56,
56,
57,
58,
56,
54,
54,
57,
57,
54,
52,
52,
54,
52,
51,
49,
46,
48,
51,
51,
48,
44,
44,
47,
49,
44,
39,
38,
39,
41,
38,
34,
32,
31,
34,
34,
31,
25,
26,
29,
29,
26,
20,
18,
19,
20,
18,
16,
12,
10,
11,
13,
9,
5,
3,
3,
6,
4,
1,
-4,
-4,
-3,
-5,
-6,
-8,
-13,
-13,
-13,
-12,
-14,
-18,
-19,
-21,
-19,
-21,
-23,
-26,
-27,
-27,
-29,
-28,
-32,
-35,
-35,
-35,
-35,
-37,
-40,
-41,
-41,
-41,
-42,
-44,
-44,
-46,
-46,
-48,
-48,
-49,
-50,
-51,
-52,
-52,
-52,
-53,
-54,
-57,
-56,
-54,
-53,
-56,
-57,
-60,
-56,
-55,
-54,
-60,
-61,
-58,
-56,
-54,
-58,
-61,
-59,
-59,
-55,
-57,
-59,
-61,
-58,
-55,
-54,
-56,
-58,
-57,
-54,
-52,
-51,
-53,
-53,
-52,
-51,
-47,
-47,
-49,
-49,
-48,
-45,
-44,
-44,
-47,
-45,
-41,
-36,
-36,
-38,
-39,
-36,
-33,
-30,
-31,
-33,
-31,
-27,
-25,
-26,
-28,
-29,
-22,
-18,
-19,
-17,
-16,
-14,
-12,
-9,
-9,
-11,
-7,
-5,
-4,
-5,
-4,
-3,
2,
3,
1,
4,
6,
9,
11,
11,
12,
14,
17,
18,
18,
18,
19,
21,
24,
25,
26,
26,
28,
31,
33,
34,
34,
33,
34,
38,
40,
39,
37,
38,
43,
45,
45,
45,
43,
45,
50,
52,
51,
45,
47,
52,
57,
54,
49,
49,
54,
58,
57,
55,
51,
52,
57,
60,
59,
55,
52,
57,
60,
59,
56,
54,
56,
58,
59,
58,
55,
54,
56,
59,
58,
56,
52,
54,
56,
54,
51,
50,
49,
49,
50,
51,
49,
47,
46,
47,
49,
47,
43,
43,
43,
41,
40,
39,
36,
34,
33,
35,
34,
33,
30,
29,
28,
28,
28,
27,
24,
22,
18,
19,
18,
17,
15,
11,
11,
10,
8,
8,
6,
2,
3,
3,
3,
0,
-4,
-6,
-5,
-4,
-7,
-10,
-14,
-14,
-12,
-14,
-17,
-21,
-22,
-19,
-19,
-21,
-28,
-27,
-27,
-25,
-27,
-33,
-36,
-35,
-34,
-33,
-37,
-41,
-41,
-41,
-39,
-42,
-45,
-46,
-46,
-46,
-47,
-47,
-48,
-50,
-51,
-50,
-50,
-52,
-55,
-55,
-54,
-53,
-55,
-57,
-58,
-57,
-55,
-55,
-57,
-59,
-59,
-56,
-56,
-57,
-59,
-58,
-58,
-57,
-58,
-59,
-60,
-57,
-55,
-56,
-59,
-58,
-55,
-53,
-53,
-55,
-57,
-53,
-49,
-50,
-52,
-52,
-52,
-47,
-47,
-48,
-50,
-48,
-46,
-44,
-44,
-45,
-44,
-40,
-37,
-34,
-37,
-38,
-36,
-31,
-31,
-29,
-31,
-32,
-31,
-27,
-24,
-22,
-24,
-24,
-20,
-15,
-13,
-14,
-15,
-14,
-9,
-3,
-5,
-9,
-9,
-5,
-1,
2,
-1,
-3,
1,
7,
11,
10,
6,
7,
14,
17,
17,
15,
13,
17,
22,
25,
25,
22,
24,
27,
29,
32,
32,
29,
33,
37,
38,
38,
37,
38,
39,
42,
44,
43,
43,
43,
44,
47,
48,
48,
47,
50,
51,
51,
52,
51,
51,
52,
53,
56,
56,
54,
53,
57,
56,
56,
57,
57,
57,
56,
57,
58,
58,
56,
56,
57,
58,
59,
57,
57,
55,
56,
57,
59,
56,
52,
52,
54,
55,
52,
47,
49,
49,
51,
51,
48,
45,
44,
47,
48,
45,
42,
38,
41,
43,
38,
35,
33,
34,
34,
35,
32,
27,
27,
29,
29,
27,
23,
21,
21,
22,
19,
16,
15,
13,
13,
11,
11,
8,
7,
6,
5,
5,
4,
0,
-2,
-3,
-3,
-6,
-7,
-9,
-11,
-12,
-12,
-13,
-16,
-19,
-17,
-20,
-21,
-23,
-25,
-23,
-25,
-31,
-32,
-30,
-30,
-33,
-34,
-38,
-39,
-37,
-36,
-38,
-43,
-45,
-44,
-42,
-42,
-48,
-51,
-50,
-46,
-47,
-50,
-56,
-55,
-51,
-48,
-50,
-55,
-58,
-56,
-53,
-53,
-57,
-61,
-61,
-57,
-55,
-57,
-61,
-62,
-61,
-56,
-56,
-57,
-61,
-61,
-59,
-57,
-57,
-59,
-61,
-60,
-57,
-54,
-56,
-58,
-62,
-58,
-52,
-51,
-53,
-56,
-56,
-51,
-47,
-48,
-53,
-52,
-49,
-45,
-44,
-46,
-49,
-47,
-41,
-38,
-39,
-40,
-38,
-33,
-33,
-33,
-32,
-33,
-33,
-30,
-29,
-28,
-26,
-26,
-25,
-21,
-19,
-16,
-15,
-15,
-16,
-12,
-10,
-9,
-9,
-8,
-7,
-4,
-3,
-3,
-1,
1,
3,
5,
6,
7,
8,
12,
13,
13,
15,
16,
17,
18,
17,
19,
23,
25,
26,
27,
28,
29,
31,
31,
32,
34,
36,
39,
39,
38,
37,
39,
44,
45,
43,
42,
43,
47,
49,
49,
48,
47,
51,
51,
53,
51,
50,
54,
56,
56,
53,
54,
55,
56,
57,
57,
57,
55,
57,
59,
59,
57,
57,
56,
56,
57,
57,
58,
56,
56,
56,
57,
57,
56,
54,
55,
56,
53,
51,
51,
51,
50,
49,
49,
49,
49,
48,
48,
46,
45,
45,
46,
45,
42,
38,
39,
39,
38,
35,
32,
32,
33,
31,
31,
27,
25,
28,
29,
27,
22,
17,
17,
20,
20,
14,
11,
8,
11,
13,
11,
4,
0,
5,
6,
5,
-1,
-7,
-7,
-4,
-4,
-8,
-13,
-14,
-14,
-11,
-12,
-18,
-21,
-22,
-19,
-19,
-22,
-27,
-31,
-29,
-27,
-27,
-31,
-36,
-36,
-35,
-33,
-34,
-38,
-44,
-42,
-40,
-39,
-45,
-49,
-49,
-45,
-44,
-45,
-50,
-53,
-52,
-49,
-49,
-53,
-56,
-56,
-53,
-52,
-55,
-58,
-59,
-56,
-55,
-57,
-58,
-59,
-59,
-57,
-58,
-59,
-60,
-57,
-58,
-57,
-59,
-58,
-58,
-57,
-59,
-59,
-57,
-56,
-57,
-56,
-56,
-54,
-53,
-52,
-52,
-53,
-53,
-50,
-49,
-49,
-49,
-48,
-49,
-48,
-47,
-46,
-45,
-44,
-44,
-41,
-38,
-36,
-36,
-37,
-38,
-32,
-31,
-30,
-31,
-32,
-31,
-26,
-23,
-25,
-27,
-23,
-19,
-16,
-17,
-16,
-16,
-12,
-8,
-7,
-9,
-10,
-7,
-3,
-2,
-2,
-3,
-1,
3,
6,
6,
8,
8,
11,
13,
13,
15,
17,
17,
17,
18,
21,
21,
25,
24,
25,
28,
30,
32,
32,
31,
34,
36,
37,
37,
38,
39,
40,
41,
43,
44,
45,
44,
46,
47,
48,
49,
50,
50,
49,
52,
52,
54,
51,
51,
54,
56,
57,
53,
51,
54,
56,
59,
58,
56,
53,
56,
60,
59,
56,
53,
55,
59,
60,
56,
54,
54,
57,
58,
57,
53,
49,
51,
55,
56,
51,
46,
47,
49,
51,
50,
47,
44,
45,
47,
49,
47,
42,
38,
40,
43,
41,
35,
33,
33,
35,
36,
34,
28,
26,
28,
30,
29,
24,
19,
19,
23,
22,
17,
13,
11,
12,
14,
12,
7,
4,
5,
6,
7,
3,
-2,
-3,
-1,
-1,
-5,
-8,
-9,
-10,
-11,
-12,
-15,
-16,
-16,
-16,
-18,
-20,
-23,
-23,
-21,
-26,
-31,
-31,
-29,
-29,
-35,
-35,
-37,
-35,
-37,
-38,
-39,
-42,
-42,
-42,
-42,
-44,
-48,
-48,
-46,
-45,
-49,
-50,
-51,
-52,
-51,
-51,
-53,
-52,
-56,
-56,
-54,
-53,
-55,
-57,
-58,
-57,
-56,
-55,
-59,
-60,
-61,
-57,
-54,
-58,
-61,
-60,
-59,
-54,
-57,
-60,
-61,
-58,
-53,
-53,
-57,
-59,
-57,
-54,
-52,
-52,
-53,
-53,
-52,
-48,
-50,
-50,
-50,
-48,
-48,
-48,
-47,
-45,
-44,
-42,
-42,
-42,
-39,
-37,
-37,
-36,
-36,
-33,
-30,
-30,
-31,
-30,
-29,
-26,
-25,
-24,
-24,
-22,
-20,
-16,
-14,
-15,
-16,
-13,
-10,
-8,
-6,
-7,
-7,
-6,
-3,
0,
1,
2,
1,
3,
8,
11,
9,
8,
9,
15,
19,
18,
15,
14,
17,
24,
26,
24,
23,
24,
31,
33,
31,
30,
29,
34,
38,
40,
37,
34,
37,
42,
45,
44,
41,
41,
44,
48,
48,
48,
47,
47,
50,
51,
55,
50,
49,
52,
55,
55,
53,
52,
55,
55,
58,
59,
56,
54,
55,
59,
59,
57,
55,
54,
58,
58,
57,
56,
55,
57,
57,
59,
55,
54,
53,
55,
55,
52,
51,
51,
50,
51,
48,
48,
49,
48,
47,
46,
45,
45,
44,
45,
43,
39,
38,
39,
38,
35,
33,
32,
32,
33,
31,
30,
27,
26,
28,
27,
26,
20,
18,
19,
19,
17,
13,
11,
11,
11,
11,
9,
5,
3,
2,
3,
3,
1,
-4,
-5,
-4,
-4,
-7,
-10,
-13,
-14,
-12,
-13,
-16,
-21,
-22,
-20,
-18,
-22,
-26,
-29,
-28,
-27,
-26,
-32,
-35,
-36,
-35,
-35,
-37,
-41,
-42,
-39,
-40,
-42,
-45,
-46,
-45,
-46,
-48,
-49,
-50,
-51,
-51,
-51,
-52,
-53,
-53,
-54,
-54,
-55,
-56,
-55,
-55,
-57,
-60,
-58,
-57,
-57,
-59,
-61,
-60,
-58,
-57,
-57,
-61,
-60,
-61,
-57,
-57,
-58,
-59,
-61,
-58,
-56,
-56,
-55,
-57,
-57,
-56,
-53,
-50,
-53,
-55,
-54,
-49,
-46,
-47,
-51,
-53,
-47,
-45,
-44,
-46,
-48,
-47,
-40,
-36,
-36,
-41,
-40,
-35,
-28,
-28,
-33,
-36,
-32,
-27,
-23,
-26,
-28,
-26,
-21,
-16,
-17,
-19,
-17,
-15,
-12,
-9,
-10,
-9,
-10,
-7,
-2,
-2,
-3,
-4,
-2,
4,
6,
7,
7,
7,
10,
12,
14,
15,
15,
15,
17,
21,
20,
19,
24,
24,
27,
29,
29,
31,
31,
34,
36,
35,
35,
37,
40,
40,
40,
40,
42,
45,
45,
44,
45,
47,
48,
50,
51,
50,
50,
52,
54,
54,
50,
49,
54,
58,
56,
54,
54,
55,
57,
58,
57,
56,
54,
57,
59,
59,
56,
55,
57,
59,
60,
