2-diodenkennlinien/data/ALL0000/A0000CH1.CSV

Memory Length,4000,
Trigger Level,2.73000e+00,
Source,CH1,
Probe,1.0X,
Vertical Units,V,
Vertical Scale,1.00000e+00,
Vertical Position,0.00000e+00,
Horizontal Units,S,
Horizontal Scale,5.00000e-03,
Horizontal Position,0.0000000e+00,
Horizontal Mode,XY Mode,
Sampling Period,2.00000e-05,
Firmware,V1.14,
Time, ,
Mode,Fast,
Waveform Data,
17,
17,
17,
17,
17,
18,
18,
17,
17,
17,
17,
17,
17,
17,
17,
18,
18,
17,
17,
18,
18,
17,
17,
18,
18,
17,
17,
18,
18,
18,
18,
18,
18,
18,
18,
18,
18,
18,
18,
19,
19,
17,
17,
18,
18,
18,
18,
18,
18,
17,
17,
18,
18,
18,
18,
17,
17,
18,
18,
19,
19,
18,
18,
18,
18,
18,
18,
18,
18,
19,
19,
18,
18,
19,
19,
19,
-128,
-128,
-128,
-128,
-128,
-128,
-128,
-128,
-128,
-128,
-128,
-128,
-128,
-128,
-128,
-128,
-128,
-128,
-128,
-128,
-128,
-128,
-128,
-128,
-128,
-128,
-128,
-128,
-128,
-128,
-128,
-128,
-128,
-128,
-128,
-128,
-128,
-128,
-128,
-128,
-128,
-128,
-128,
-128,
-128,
-128,
-128,
-128,
-128,
-128,
-128,
-128,
-128,
-128,
-128,
-128,
-128,
-128,
-128,
-128,
-128,
-128,
-128,
-124,
-124,
-119,
-119,
-116,
-116,
-112,
-112,
-109,
-109,
-105,
-105,
-102,
-102,
-97,
-97,
-93,
-93,
-89,
-89,
-85,
-85,
-81,
-81,
-77,
-77,
-73,
-73,
-68,
-68,
-65,
-65,
-62,
-62,
-59,
-59,
-53,
-53,
-50,
-50,
-47,
-47,
-42,
-42,
-37,
-37,
-33,
-33,
-30,
-30,
-25,
-25,
-21,
-21,
-17,
-17,
-11,
-11,
-9,
-9,
-6,
-6,
-1,
-1,
2,
2,
8,
8,
10,
10,
13,
13,
13,
13,
15,
15,
15,
15,
15,
15,
15,
15,
16,
16,
16,
16,
16,
16,
17,
17,
16,
16,
16,
16,
17,
17,
17,
17,
17,
17,
17,
17,
17,
17,
17,
17,
17,
17,
17,
17,
17,
17,
17,
17,
17,
17,
18,
18,
17,
17,
18,
18,
17,
17,
19,
19,
17,
17,
18,
18,
17,
17,
17,
17,
17,
17,
17,
17,
18,
18,
18,
18,
17,
17,
18,
18,
18,
18,
18,
18,
17,
17,
19,
19,
18,
18,
18,
18,
18,
18,
18,
18,
18,
18,
18,
18,
19,
19,
18,
18,
18,
18,
18,
18,
18,
18,
19,
19,
18,
18,
19,
19,
19,
19,
19,
19,
18,
-128,
-128,
-128,
-128,
-128,
-128,
-128,
-128,
-128,
-128,
-128,
-128,
-128,
-128,
-128,
-128,
-128,
-128,
-128,
-128,
-128,
-128,
-128,
-128,
-128,
-128,
-128,
-128,
-128,
-128,
-128,
-128,
-128,
-128,
-128,
-128,
-128,
-128,
-128,
-128,
-128,
-128,
-128,
-128,
-128,
-128,
-128,
-128,
-128,
-128,
-128,
-128,
-128,
-128,
-128,
-128,
-128,
-128,
-128,
-128,
-128,
-128,
-128,
-125,
-125,
-122,
-122,
-117,
-117,
-113,
-113,
-107,
-107,
-105,
-105,
-102,
-102,
-98,
-98,
-93,
-93,
-89,
-89,
-86,
-86,
-81,
-81,
-77,
-77,
-73,
-73,
-70,
-70,
-65,
-65,
-60,
-60,
-56,
-56,
-52,
-52,
-50,
-50,
-46,
-46,
-43,
-43,
-38,
-38,
-34,
-34,
-30,
-30,
-26,
-26,
-22,
-22,
-17,
-17,
-13,
-13,
-9,
-9,
-5,
-5,
0,
0,
3,
3,
5,
5,
9,
9,
13,
13,
13,
13,
14,
14,
14,
14,
15,
15,
15,
15,
15,
15,
15,
15,
15,
15,
16,
16,
16,
16,
16,
16,
17,
17,
17,
17,
17,
17,
16,
16,
17,
17,
17,
17,
17,
17,
17,
17,
17,
17,
17,
17,
18,
18,
17,
17,
18,
18,
16,
16,
18,
18,
17,
17,
17,
17,
17,
17,
17,
17,
18,
18,
17,
17,
17,
17,
17,
17,
18,
18,
18,
18,
19,
19,
18,
18,
19,
19,
19,
19,
18,
18,
18,
18,
17,
17,
18,
18,
19,
19,
18,
18,
18,
18,
18,
18,
17,
17,
18,
18,
19,
19,
18,
18,
19,
19,
18,
18,
19,
19,
18,
18,
18,
18,
18,
-128,
-128,
-128,
-128,
-128,
-128,
-128,
-128,
-128,
-128,
-128,
-128,
-128,
-128,
-128,
-128,
-128,
-128,
-128,
-128,
-128,
-128,
-128,
-128,
-128,
-128,
-128,
-128,
-128,
-128,
-128,
-128,
-128,
-128,
-128,
-128,
-128,
-128,
-128,
-128,
-128,
-128,
-128,
-128,
-128,
-128,
-128,
-128,
-128,
-128,
-128,
-128,
-128,
-128,
-128,
-128,
-128,
-128,
-128,
-128,
-128,
-127,
-127,
-125,
-125,
-121,
-121,
-117,
-117,
-114,
-114,
-110,
-110,
-105,
-105,
-99,
-99,
-96,
-96,
-93,
-93,
-89,
-89,
-84,
-84,
-82,
-82,
-78,
-78,
-73,
-73,
-69,
-69,
-66,
-66,
-61,
-61,
-57,
-57,
-54,
-54,
-48,
-48,
-45,
-45,
-43,
-43,
-38,
-38,
-33,
-33,
-30,
-30,
-27,
-27,
-22,
-22,
-17,
-17,
-13,
-13,
-11,
-11,
-5,
-5,
-1,
-1,
3,
3,
9,
9,
11,
11,
13,
13,
13,
13,
14,
14,
15,
15,
15,
15,
15,
15,
15,
15,
15,
15,
15,
15,
17,
17,
16,
16,
15,
15,
17,
17,
16,
16,
16,
16,
17,
17,
17,
17,
17,
17,
16,
16,
17,
17,
17,
17,
17,
17,
17,
17,
17,
17,
17,
17,
18,
18,
17,
17,
17,
17,
17,
17,
17,
17,
17,
17,
18,
18,
17,
17,
18,
18,
17,
17,
17,
17,
18,
18,
18,
18,
18,
18,
17,
17,
17,
17,
17,
17,
18,
18,
19,
19,
18,
18,
18,
18,
17,
17,
18,
18,
19,
19,
18,
18,
19,
19,
19,
19,
18,
18,
18,
18,
18,
18,
17,
17,
18,
18,
18,
18,
18,
-128,
-128,
-128,
-128,
-128,
-128,
-128,
-128,
-128,
-128,
-128,
-128,
-128,
-128,
-128,
-128,
-128,
-128,
-128,
-128,
-128,
-128,
-128,
-128,
-128,
-128,
-128,
-128,
-128,
-128,
-128,
-128,
-128,
-128,
-128,
-128,
-128,
-128,
-128,
-128,
-128,
-128,
-128,
-128,
-128,
-128,
-128,
-128,
-128,
-128,
-128,
-128,
-128,
-128,
-128,
-128,
-128,
-128,
-128,
-128,
-128,
-128,
-128,
-124,
-124,
-121,
-121,
-116,
-116,
-113,
-113,
-110,
-110,
-105,
-105,
-101,
-101,
-96,
-96,
-93,
-93,
-88,
-88,
-85,
-85,
-81,
-81,
-78,
-78,
-73,
-73,
-68,
-68,
-66,
-66,
-61,
-61,
-58,
-58,
-53,
-53,
-50,
-50,
-45,
-45,
-40,
-40,
-36,
-36,
-34,
-34,
-30,
-30,
-25,
-25,
-22,
-22,
-18,
-18,
-14,
-14,
-10,
-10,
-6,
-6,
-2,
-2,
2,
2,
7,
7,
11,
11,
13,
13,
14,
14,
15,
15,
14,
14,
15,
15,
15,
15,
16,
16,
15,
15,
16,
16,
15,
15,
16,
16,
17,
17,
17,
17,
16,
16,
17,
17,
16,
16,
17,
17,
18,
18,
17,
17,
18,
18,
18,
18,
18,
18,
18,
18,
17,
17,
17,
17,
17,
17,
17,
17,
18,
18,
17,
17,
17,
17,
17,
17,
17,
17,
17,
17,
18,
18,
18,
18,
18,
18,
18,
18,
18,
18,
19,
19,
17,
17,
18,
18,
18,
18,
18,
18,
18,
18,
19,
19,
18,
18,
18,
18,
18,
18,
19,
19,
19,
19,
19,
19,
18,
18,
19,
19,
18,
18,
18,
18,
19,
19,
18,
18,
19,
19,
19,
-128,
-128,
-128,
-128,
-128,
-128,
-128,
-128,
-128,
-128,
-128,
-128,
-128,
-128,
-128,
-128,
-128,
-128,
-128,
-128,
-128,
-128,
-128,
-128,
-128,
-128,
-128,
-128,
-128,
-128,
-128,
-128,
-128,
-128,
-128,
-128,
-128,
-128,
-128,
-128,
-128,
-128,
-128,
-128,
-128,
-128,
-128,
-128,
-128,
-128,
-128,
-128,
-128,
-128,
-128,
-128,
-128,
-128,
-128,
-128,
-128,
-127,
-127,
-123,
-123,
-121,
-121,
-116,
-116,
-112,
-112,
-109,
-109,
-106,
-106,
-101,
-101,
-98,
-98,
-94,
-94,
-89,
-89,
-85,
-85,
-79,
-79,
-77,
-77,
-73,
-73,
-69,
-69,
-65,
-65,
-62,
-62,
-59,
-59,
-52,
-52,
-49,
-49,
-45,
-45,
-41,
-41,
-37,
-37,
-33,
-33,
-28,
-28,
-25,
-25,
-22,
-22,
-18,
-18,
-13,
-13,
-10,
-10,
-6,
-6,
-2,
-2,
3,
3,
7,
7,
9,
9,
13,
13,
14,
14,
15,
15,
15,
15,
15,
15,
15,
15,
16,
16,
17,
17,
16,
16,
16,
16,
16,
16,
17,
17,
16,
16,
16,
16,
16,
16,
17,
17,
17,
17,
16,
16,
17,
17,
17,
17,
17,
17,
17,
17,
17,
17,
17,
17,
17,
17,
17,
17,
17,
17,
18,
18,
17,
17,
18,
18,
17,
17,
17,
17,
17,
17,
18,
18,
17,
17,
18,
18,
18,
18,
17,
17,
19,
19,
18,
18,
18,
18,
17,
17,
18,
18,
18,
18,
18,
18,
18,
18,
19,
19,
18,
18,
17,
17,
18,
18,
19,
19,
18,
18,
19,
19,
18,
18,
19,
19,
19,
19,
19,
19,
19,
19,
19,
-128,
-128,
-128,
-128,
-128,
-128,
-128,
-128,
-128,
-128,
-128,
-128,
-128,
-128,
-128,
-128,
-128,
-128,
-128,
-128,
-128,
-128,
-128,
-128,
-128,
-128,
-128,
-128,
-128,
-128,
-128,
-128,
-128,
-128,
-128,
-128,
-128,
-128,
-128,
-128,
-128,
-128,
-128,
-128,
-128,
-128,
-128,
-128,
-128,
-128,
-128,
-128,
-128,
-128,
-128,
-128,
-128,
-128,
-128,
-128,
-128,
-128,
-128,
-125,
-125,
-120,
-120,
-116,
-116,
-112,
-112,
-110,
-110,
-104,
-104,
-102,
-102,
-97,
-97,
-94,
-94,
-90,
-90,
-86,
-86,
-83,
-83,
-76,
-76,
-73,
-73,
-69,
-69,
-65,
-65,
-61,
-61,
-58,
-58,
-54,
-54,
-49,
-49,
-46,
-46,
-43,
-43,
-38,
-38,
-32,
-32,
-30,
-30,
-25,
-25,
-20,
-20,
-16,
-16,
-13,
-13,
-10,
-10,
-6,
-6,
-1,
-1,
3,
3,
6,
6,
10,
10,
13,
13,
13,
13,
14,
14,
15,
15,
15,
15,
15,
15,
17,
17,
16,
16,
16,
16,
16,
16,
17,
17,
16,
16,
17,
17,
16,
16,
17,
17,
16,
16,
17,
17,
17,
17,
18,
18,
17,
17,
17,
17,
17,
17,
18,
18,
17,
17,
17,
17,
17,
17,
18,
18,
17,
17,
18,
18,
17,
17,
18,
18,
18,
18,
17,
17,
19,
19,
19,
19,
18,
18,
17,
17,
18,
18,
19,
19,
18,
18,
18,
18,
17,
17,
18,
18,
18,
18,
19,
19,
18,
18,
18,
18,
18,
18,
18,
18,
18,
18,
19,
19,
18,
18,
18,
18,
19,
19,
19,
19,
19,
19,
19,
19,
18,
18,
18,
-128,
-128,
-128,
-128,
-128,
-128,
-128,
-128,
-128,
-128,
-128,
-128,
-128,
-128,
-128,
-128,
-128,
-128,
-128,
-128,
-128,
-128,
-128,
-128,
-128,
-128,
-128,
-128,
-128,
-128,
-128,
-128,
-128,
-128,
-128,
-128,
-128,
-128,
-128,
-128,
-128,
-128,
-128,
-128,
-128,
-128,
-128,
-128,
-128,
-128,
-128,
-128,
-128,
-128,
-128,
-128,
-128,
-128,
-128,
-128,
-128,
-128,
-128,
-124,
-124,
-122,
-122,
-118,
-118,
-113,
-113,
-107,
-107,
-104,
-104,
-101,
-101,
-97,
-97,
-93,
-93,
-88,
-88,
-86,
-86,
-81,
-81,
-78,
-78,
-75,
-75,
-69,
-69,
-65,
-65,
-61,
-61,
-57,
-57,
-53,
-53,
-49,
-49,
-46,
-46,
-43,
-43,
-38,
-38,
-33,
-33,
-29,
-29,
-25,
-25,
-20,
-20,
-16,
-16,
-14,
-14,
-8,
-8,
-4,
-4,
-1,
-1,
3,
3,
7,
7,
9,
9,
12,
12,
13,
13,
15,
15,
14,
14,
15,
15,
15,
15,
15,
15,
16,
16,
16,
16,
15,
15,
16,
16,
17,
17,
17,
17,
16,
16,
16,
16,
17,
17,
16,
16,
18,
18,
17,
17,
17,
17,
17,
17,
17,
17,
17,
17,
18,
18,
18,
18,
17,
17,
18,
18,
17,
17,
17,
17,
18,
18,
19,
19,
18,
18,
17,
17,
17,
17,
19,
19,
18,
18,
17,
17,
18,
18,
17,
17,
18,
18,
18,
18,
18,
18,
18,
18,
17,
17,
18,
18,
18,
18,
18,
18,
19,
19,
19,
19,
18,
18,
18,
18,
19,
19,
19,
19,
18,
18,
18,
18,
19,
19,
18,
18,
18,
18,
19,
-128,
-128,
-128,
-128,
-128,
-128,
-128,
-128,
-128,
-128,
-128,
-128,
-128,
-128,
-128,
-128,
-128,
-128,
-128,
-128,
-128,
-128,
-128,
-128,
-128,
-128,
-128,
-128,
-128,
-128,
-128,
-128,
-128,
-128,
-128,
-128,
-128,
-128,
-128,
-128,
-128,
-128,
-128,
-128,
-128,
-128,
-128,
-128,
-128,
-128,
-128,
-128,
-128,
-128,
-128,
-128,
-128,
-128,
-128,
-128,
-128,
-128,
-128,
-125,
-125,
-121,
-121,
-117,
-117,
-113,
-113,
-109,
-109,
-106,
-106,
-101,
-101,
-96,
-96,
-94,
-94,
-89,
-89,
-84,
-84,
-81,
-81,
-77,
-77,
-73,
-73,
-70,
-70,
-65,
-65,
-62,
-62,
-56,
-56,
-53,
-53,
-48,
-48,
-45,
-45,
-42,
-42,
-39,
-39,
-35,
-35,
-29,
-29,
-25,
-25,
-22,
-22,
-19,
-19,
-13,
-13,
-9,
-9,
-6,
-6,
-1,
-1,
4,
4,
7,
7,
9,
9,
13,
13,
13,
13,
15,
15,
15,
15,
15,
15,
15,
15,
16,
16,
16,
16,
17,
17,
16,
16,
16,
16,
17,
17,
16,
16,
17,
17,
17,
17,
17,
17,
17,
17,
17,
17,
17,
17,
17,
17,
17,
17,
17,
17,
17,
17,
17,
17,
17,
17,
18,
18,
17,
17,
17,
17,
17,
17,
18,
18,
18,
18,
18,
18,
18,
18,
18,
18,
17,
17,
18,
18,
17,
17,
17,
17,
18,
18,
18,
18,
17,
17,
18,
18,
17,
17,
17,
17,
18,
18,
17,
17,
18,
18,
18,
18,
18,
18,
18,
18,
19,
19,
17,
17,
18,
18,
19,
19,
18,
18,
18,
18,
18,
18,
19,
19,
18,
-128,
-128,
-128,
-128,
-128,
-128,
-128,
-128,
-128,
-128,
-128,
-128,
-128,
-128,
-128,
-128,
-128,
-128,
-128,
-128,
-128,
-128,
-128,
-128,
-128,
-128,
-128,
-128,
-128,
-128,
-128,
-128,
-128,
-128,
-128,
-128,
-128,
-128,
-128,
-128,
-128,
-128,
-128,
-128,
-128,
-128,
-128,
-128,
-128,
-128,
-128,
-128,
-128,
-128,
-128,
-128,
-128,
-128,
-128,
-128,
-128,
-128,
-128,
-125,
-125,
-121,
-121,
-117,
-117,
-112,
-112,
-108,
-108,
-105,
-105,
-102,
-102,
-99,
-99,
-94,
-94,
-88,
-88,
-85,
-85,
-81,
-81,
-77,
-77,
-73,
-73,
-68,
-68,
-65,
-65,
-61,
-61,
-57,
-57,
-54,
-54,
-49,
-49,
-45,
-45,
-39,
-39,
-36,
-36,
-33,
-33,
-29,
-29,
-26,
-26,
-22,
-22,
-17,
-17,
-13,
-13,
-9,
-9,
-5,
-5,
-1,
-1,
3,
3,
7,
7,
12,
12,
12,
12,
14,
14,
14,
14,
15,
15,
15,
15,
15,
15,
15,
15,
15,
15,
17,
17,
16,
16,
16,
16,
16,
16,
17,
17,
16,
16,
17,
17,
17,
17,
17,
17,
17,
17,
17,
17,
17,
17,
17,
17,
17,
17,
17,
17,
17,
17,
18,
18,
18,
18,
17,
17,
17,
17,
17,
17,
18,
18,
17,
17,
17,
17,
17,
17,
18,
18,
17,
17,
18,
18,
18,
18,
17,
17,
18,
18,
18,
18,
17,
17,
18,
18,
18,
18,
18,
18,
18,
18,
18,
18,
18,
18,
18,
18,
18,
18,
19,
19,
19,
19,
19,
19,
18,
18,
19,
19,
18,
18,
19,
19,
19,
19,
19,
19,
18,
-128,
-128,
-128,
-128,
-128,
-128,
-128,
-128,
-128,
-128,
-128,
-128,
-128,
-128,
-128,
-128,
-128,
-128,
-128,
-128,
-128,
-128,
-128,
-128,
-128,
-128,
-128,
-128,
-128,
-128,
-128,
-128,
-128,
-128,
-128,
-128,
-128,
-128,
-128,
-128,
-128,
-128,
-128,
-128,
-128,
-128,
-128,
-128,
-128,
-128,
-128,
-128,
-128,
-128,
-128,
-128,
-128,
-128,
-128,
-128,
-128,
-128,
-128,
-124,
-124,
-120,
-120,
-116,
-116,
-113,
-113,
-110,
-110,
-105,
-105,
-100,
-100,
-98,
-98,
-93,
-93,
-89,
-89,
-86,
-86,
-80,
-80,
-76,
-76,
-73,
-73,
-70,
-70,
-65,
-65,
-61,
-61,
-56,
-56,
-53,
-53,
-50,
-50,
-45,
-45,
-42,
-42,
-36,
-36,
-34,
-34,
-27,
-27,
-25,
-25,
-21,
-21,
-18,
-18,
-14,
-14,
-9,
-9,
-5,
-5,
-1,
-1,
2,
2,
7,
7,
10,
10,
13,
13,
13,
13,
14,
14,
15,
15,
15,
15,
16,
16,
15,
15,
15,
15,
15,
15,
15,
15,
16,
16,
16,
16,
17,
17,
17,
17,
17,
17,
17,
17,
17,
17,
17,
17,
17,
17,
17,
17,
17,
17,
17,
17,
17,
17,
17,
17,
18,
18,
17,
17,
18,
18,
17,
17,
18,
18,
17,
17,
17,
17,
18,
18,
18,
18,
17,
17,
18,
18,
18,
18,
17,
17,
17,
17,
17,
17,
17,
17,
18,
18,
17,
17,
18,
18,
18,
18,
18,
18,
18,
18,
19,
19,
18,
18,
18,
18,
19,
19,
18,
18,
19,
19,
18,
18,
18,
18,
19,
19,
18,
18,
18,
18,
18,
18,
19,
-128,
-128,
-128,
-128,
-128,
-128,
-128,
-128,
-128,
-128,
-128,
-128,
-128,
-128,
-128,
-128,
-128,
-128,
-128,
-128,
-128,
-128,
-128,
-128,
-128,
-128,
-128,
-128,
-128,
-128,
-128,
-128,
-128,
-128,
-128,
-128,
-128,
-128,
-128,
-128,
-128,
-128,
-128,
-128,
-128,
-128,
-128,
-128,
-128,
-128,
-128,
-128,
-128,
-128,
-128,
-128,
-128,
-128,
-128,
-128,
-128,
-128,
-128,
-125,
-125,
-119,
-119,
-116,
-116,
-113,
-113,
-109,
-109,
-105,
-105,
-101,
-101,
-98,
-98,
-93,
-93,
-90,
-90,
-85,
-85,
-82,
-82,
-78,
-78,
-74,
-74,
-68,
-68,
-64,
-64,
-61,
-61,
-58,
-58,
-53,
-53,
-48,
-48,
-46,
-46,
-42,
-42,
-37,
-37,
-35,
-35,
-30,
-30,
-24,
-24,
-20,
-20,
-17,
-17,
-13,
-13,
-9,
-9,
-6,
-6,
-1,
-1,
2,
2,
5,
5,
12,
12,
13,
13,
13,
13,
14,
14,
15,
15,
15,
15,
15,
15,
15,
15,
15,
15,
16,
16,
15,
15,
16,
16,
16,
16,
16,
16,
17,
17,
16,
16,
17,
17,
17,
17,
17,
17,
17,
17,
17,
17,
17,
17,
17,
17,
17,
17,
17,
17,
17,
17,
17,
17,
19,
19,
17,
17,
18,
18,
17,
17,
17,
17,
18,
18,
17,
17,
17,
17,
18,
18,
18,
18,
17,
17,
17,
17,
18,
18,
18,
18,
18,
18,
17,
17,
17,
17,
18,
18,
19,
19,
17,
17,
17,
17,
18,
18,
18,
18,
18,
18,
18,
18,
18,
18,
19,
19,
18,
18,
18,
18,
18,
18,
19,
19,
18,
18,
19,
-128,
-128,
-128,
-128,
-128,
-128,
-128,
-128,
-128,
-128,
-128,
-128,
-128,
-128,
-128,
-128,
-128,
-128,
-128,
-128,
-128,
-128,
-128,
-128,
-128,
-128,
-128,
-128,
-128,
-128,
-128,
-128,
-128,
-128,
-128,
-128,
-128,
-128,
-128,
-128,
-128,
-128,
-128,
-128,
-128,
-128,
-128,
-128,
-128,
-128,
-128,
-128,
-128,
-128,
-128,
-128,
-128,
-128,
-128,
-128,
-128,
-128,
-128,
-124,
-124,
-121,
-121,
-117,
-117,
-113,
-113,
-109,
-109,
-104,
-104,
-100,
-100,
-98,
-98,
-92,
-92,
-91,
-91,
-85,
-85,
-80,
-80,
-77,
-77,
-73,
-73,
-69,
-69,
-66,
-66,
-61,
-61,
-56,
-56,
-52,
-52,
-50,
-50,
-44,
-44,
-42,
-42,
-36,
-36,
-33,
-33,
-31,
-31,
-25,
-25,
-22,
-22,
-16,
-16,
-13,
-13,
-8,
-8,
-4,
-4,
-1,
-1,
3,
3,
7,
7,
11,
11,
12,
12,
13,
13,
14,
14,
15,
15,
15,
15,
15,
15,
15,
15,
16,
16,
15,
15,
17,
17,
17,
17,
17,
17,
15,
15,
16,
16,
17,
17,
17,
17,
17,
17,
16,
16,
16,
16,
17,
17,
16,
16,
18,
18,
17,
17,
18,
18,
17,
17,
17,
17,
17,
17,
17,
17,
17,
17,
19,
19,
17,
17,
18,
18,
18,
18,
17,
17,
17,
17,
18,
18,
18,
18,
17,
17,
18,
18,
18,
18,
17,
17,
17,
17,
17,
17,
17,
17,
17,
17,
18,
18,
18,
18,
17,
17,
18,
18,
19,
19,
18,
18,
18,
18,
18,
18,
19,
19,
18,
18,
18,
18,
19,
19,
18,
18,
19,
-128,
-128,
-128,
-128,
-128,
-128,
-128,
-128,
-128,
-128,
-128,
-128,
-128,
-128,
-128,
-128,
-128,
-128,
-128,
-128,
-128,
-128,
-128,
-128,
-128,
-128,
-128,
-128,
-128,
-128,
-128,
-128,
-128,
-128,
-128,
-128,
-128,
-128,
-128,
-128,
-128,
-128,
-128,
-128,
-128,
-128,
-128,
-128,
-128,
-128,
-128,
-128,
-128,
-128,
-128,
-128,
-128,
-128,
-128,
-128,
-128,
-128,
-128,
-125,
-125,
-122,
-122,
-118,
-118,
-113,
-113,
-109,
-109,
-105,
-105,
-100,
-100,
-96,
-96,
-93,
-93,
-89,
-89,
-84,
-84,
-81,
-81,
-78,
-78,
-72,
-72,
-69,
-69,
-65,
-65,
-62,
-62,
-59,
-59,
-54,
-54,
-49,
-49,
-45,
-45,
-41,
-41,
-38,
-38,
-33,
-33,
-29,
-29,
-26,
-26,
-21,
-21,
-18,
-18,
-13,
-13,
-9,
-9,
-5,
-5,
0,
0,
4,
4,
7,
7,
10,
10,
13,
13,
13,
13,
14,
14,
15,
15,
15,
15,
15,
15,
15,
15,
15,
15,
16,
16,
16,
16,
15,
15,
16,
16,
16,
16,
16,
16,
17,
17,
17,
17,
16,
16,
18,
18,
17,
17,
18,
18,
18,
18,
17,
17,
17,
17,
17,
17,
16,
16,
17,
17,
17,
17,
17,
17,
18,
18,
17,
17,
18,
18,
17,
17,
17,
17,
17,
17,
18,
18,
17,
17,
17,
17,
18,
18,
17,
17,
18,
18,
18,
18,
18,
18,
18,
18,
19,
19,
19,
19,
18,
18,
19,
19,
17,
17,
18,
18,
18,
18,
18,
18,
18,
18,
18,
18,
18,
18,
18,
18,
19,
19,
19,
19,
18,
18,
19,
19,
19,
-128,
-128,
-128,
-128,
-128,
-128,
-128,
-128,
-128,
-128,
-128,
-128,
-128,
-128,
-128,
-128,
-128,
-128,
-128,
-128,
-128,
-128,
-128,
-128,
-128,
-128,
-128,
-128,
-128,
-128,
-128,
-128,
-128,
-128,
-128,
-128,
-128,
-128,
-128,
-128,
-128,
-128,
-128,
-128,
-128,
-128,
-128,
-128,
-128,
-128,
-128,
-128,
-128,
-128,
-128,
-128,
-128,
-128,
-128,
-128,
-128,
-125,
-125,
-120,
-120,
-117,
-117,
-114,
-114,
-110,
-110,
-105,
-105,
-100,
-100,
-97,
-97,
-93,
-93,
-88,
-88,
-84,
-84,
-81,
-81,
-78,
-78,
-73,
-73,
-71,
-71,
-65,
-65,
-61,
-61,
-58,
-58,
-52,
-52,
-49,
-49,
-46,
-46,
-41,
-41,
-36,
-36,
-33,
-33,
-30,
-30,
-24,
-24,
-21,
-21,
-17,
-17,
-12,
-12,
-10,
-10,
-5,
-5,
-1,
-1,
4,
4,
7,
7,
11,
11,
13,
13,
15,
15,
14,
14,
15,
15,
15,
15,
15,
15,
15,
15,
15,
15,
16,
16,
16,
16,
16,
16,
17,
17,
17,
17,
16,
16,
16,
16,
17,
17,
17,
17,
17,
17,
16,
16,
17,
17,
17,
17,
17,
17,
17,
17,
17,
17,
18,
18,
18,
18,
18,
18,
18,
18,
18,
18,
17,
17,
17,
17,
17,
17,
18,
18,
17,
17,
17,
17,
18,
18,
17,
17,
19,
19,
18,
18,
19,
19,
18,
18,
18,
18,
19,
19,
18,
18,
18,
18,
18,
18,
18,
18,
17,
17,
18,
18,
18,
18,
18,
18,
19,
19,
18,
18,
19,
19,
18,
18,
19,
19,
18,
18,
18,
18,
19,
-128,
-128,
-128,
-128,
-128,
-128,
-128,
-128,
-128,
-128,
-128,
-128,
-128,
-128,
-128,
-128,
-128,
-128,
-128,
-128,
-128,
-128,
-128,
-128,
-128,
-128,
-128,
-128,
-128,
-128,
-128,
-128,
-128,
-128,
-128,
-128,
-128,
-128,
-128,
-128,
-128,
-128,
-128,
-128,
-128,
-128,
-128,
-128,
-128,
-128,
-128,
-128,
-128,
-128,
-128,
-128,
-128,
-128,
-128,
-128,
-128,
-128,
-128,
-125,
-125,
-122,
-122,
-118,
-118,
-113,
-113,
-109,
-109,
-105,
-105,
-103,
-103,
-98,
-98,
-92,
-92,
-90,
-90,
-85,
-85,
-79,
-79,
-77,
-77,
-73,
-73,
-69,
-69,
-65,
-65,
-61,
-61,
-59,
-59,
-52,
-52,
-49,
-49,
-45,
-45,
-42,
-42,
-38,
-38,
-34,
-34,
-29,
-29,
-25,
-25,
-21,
-21,
-17,
-17,
-12,
-12,
-8,
-8,
-5,
-5,
-1,
-1,
1,
1,
5,
5,
10,
10,
13,
13,
13,
13,
15,
15,
15,
15,
15,
15,
16,
16,
15,
15,
17,
17,
17,
17,
16,
16,
16,
16,
16,
16,
17,
17,
17,
17,
17,
17,
17,
17,
17,
17,
17,
17,
17,
17,
18,
18,
17,
17,
17,
17,
17,
17,
17,
17,
18,
18,
18,
18,
17,
17,
17,
17,
18,
18,
17,
17,
18,
18,
18,
18,
18,
18,
18,
18,
17,
17,
19,
19,
18,
18,
17,
17,
17,
17,
18,
18,
18,
18,
18,
18,
18,
18,
18,
18,
18,
18,
18,
18,
18,
18,
18,
18,
19,
19,
18,
18,
19,
19,
18,
18,
18,
18,
18,
18,
19,
19,
19,
19,
18,
18,
19,
19,
18,
-128,
-128,
-128,
-128,
-128,
-128,
-128,
-128,
-128,
-128,
-128,
-128,
-128,
-128,
-128,
-128,
-128,
-128,
-128,
-128,
-128,
-128,
-128,
-128,
-128,
-128,
-128,
-128,
-128,
-128,
-128,
-128,
-128,
-128,
-128,
-128,
-128,
-128,
-128,
-128,
-128,
-128,
-128,
-128,
-128,
-128,
-128,
-128,
-128,
-128,
-128,
-128,
-128,
-128,
-128,
-128,
-128,
-128,
-128,
-128,
-128,
-128,
-128,
-124,
-124,
-121,
-121,
-118,
-118,
-115,
-115,
-110,
-110,
-105,
-105,
-101,
-101,
-98,
-98,
-95,
-95,
-90,
-90,
-84,
-84,
-81,
-81,
-77,
-77,
-73,
-73,
-67,
-67,
-64,
-64,
-61,
-61,
-57,
-57,
-53,
-53,
-50,
-50,
-46,
-46,
-40,
-40,
-37,
-37,
-33,
-33,
-28,
-28,
-26,
-26,
-21,
-21,
-17,
-17,
-13,
-13,
-10,
-10,
-5,
-5,
-2,
-2,
3,
3,
8,
8,
9,
9,
12,
12,
13,
13,
14,
14,
14,
14,
15,
15,
15,
15,
16,
16,
15,
15,
16,
16,
16,
16,
16,
16,
17,
17,
16,
16,
16,
16,
16,
16,
17,
17,
17,
17,
17,
17,
18,
18,
17,
17,
17,
