2-diodenkennlinien/data/ALL0000/A0000CH2.CSV

Memory Length,4000,
Trigger Level,2.73000e+00,
Source,CH2,
Probe,1.0X,
Vertical Units,V,
Vertical Scale,1.00000e+00,
Vertical Position,0.00000e+00,
Horizontal Units,S,
Horizontal Scale,5.00000e-03,
Horizontal Position,0.0000000e+00,
Horizontal Mode,XY Mode,
Sampling Period,2.00000e-05,
Firmware,V1.14,
Time, ,
Mode,Fast,
Waveform Data,
54,
54,
54,
58,
58,
59,
59,
62,
62,
64,
64,
67,
67,
70,
70,
74,
74,
76,
76,
78,
78,
81,
81,
83,
83,
87,
87,
89,
89,
92,
92,
94,
94,
97,
97,
100,
100,
102,
102,
103,
103,
106,
106,
109,
109,
112,
112,
114,
114,
117,
117,
119,
119,
122,
122,
125,
125,
125,
125,
125,
125,
125,
125,
125,
125,
125,
125,
125,
125,
125,
125,
125,
125,
125,
125,
125,
34,
34,
-4,
0,
0,
1,
1,
1,
1,
0,
0,
0,
0,
1,
1,
0,
0,
2,
2,
1,
1,
0,
0,
1,
1,
0,
0,
1,
1,
1,
1,
1,
1,
1,
1,
1,
1,
0,
0,
0,
0,
0,
0,
2,
2,
0,
0,
1,
1,
0,
0,
1,
1,
0,
0,
0,
0,
0,
0,
0,
0,
1,
1,
0,
0,
1,
1,
0,
0,
1,
1,
1,
1,
0,
0,
0,
0,
0,
0,
0,
0,
0,
0,
2,
2,
0,
0,
2,
2,
2,
2,
1,
1,
0,
0,
1,
1,
1,
1,
2,
2,
0,
0,
0,
0,
0,
0,
0,
0,
0,
0,
1,
1,
0,
0,
0,
0,
0,
0,
0,
0,
0,
0,
0,
0,
0,
0,
2,
2,
0,
0,
0,
0,
2,
2,
4,
4,
6,
6,
9,
9,
12,
12,
14,
14,
16,
16,
18,
18,
21,
21,
24,
24,
27,
27,
29,
29,
31,
31,
33,
33,
36,
36,
40,
40,
42,
42,
44,
44,
47,
47,
49,
49,
52,
52,
54,
54,
57,
57,
59,
59,
63,
63,
64,
64,
67,
67,
70,
70,
73,
73,
75,
75,
78,
78,
80,
80,
83,
83,
86,
86,
89,
89,
91,
91,
94,
94,
97,
97,
99,
99,
102,
102,
104,
104,
107,
107,
110,
110,
112,
112,
114,
114,
117,
117,
120,
120,
122,
122,
124,
124,
125,
125,
125,
125,
125,
125,
125,
125,
125,
125,
125,
125,
125,
125,
125,
125,
125,
125,
125,
107,
107,
-4,
0,
0,
0,
0,
0,
0,
1,
1,
1,
1,
2,
2,
1,
1,
1,
1,
2,
2,
1,
1,
1,
1,
0,
0,
0,
0,
1,
1,
1,
1,
0,
0,
1,
1,
0,
0,
0,
0,
1,
1,
0,
0,
1,
1,
1,
1,
1,
1,
2,
2,
1,
1,
1,
1,
1,
1,
1,
1,
1,
1,
1,
1,
0,
0,
0,
0,
0,
0,
1,
1,
1,
1,
0,
0,
1,
1,
0,
0,
1,
1,
1,
1,
0,
0,
1,
1,
1,
1,
1,
1,
0,
0,
1,
1,
1,
1,
1,
1,
0,
0,
1,
1,
0,
0,
0,
0,
0,
0,
0,
0,
1,
1,
1,
1,
0,
0,
0,
0,
0,
0,
0,
0,
0,
0,
0,
0,
1,
1,
0,
0,
2,
2,
4,
4,
5,
5,
8,
8,
12,
12,
14,
14,
17,
17,
18,
18,
22,
22,
24,
24,
26,
26,
28,
28,
31,
31,
34,
34,
38,
38,
40,
40,
42,
42,
45,
45,
47,
47,
49,
49,
52,
52,
54,
54,
56,
56,
60,
60,
62,
62,
65,
65,
67,
67,
70,
70,
73,
73,
76,
76,
78,
78,
80,
80,
83,
83,
86,
86,
89,
89,
91,
91,
94,
94,
96,
96,
99,
99,
102,
102,
105,
105,
107,
107,
109,
109,
113,
113,
115,
115,
116,
116,
119,
119,
122,
122,
125,
125,
125,
125,
125,
125,
125,
125,
125,
125,
125,
125,
125,
125,
125,
125,
125,
125,
125,
125,
125,
64,
64,
-4,
1,
1,
1,
1,
0,
0,
1,
1,
1,
1,
2,
2,
1,
1,
0,
0,
1,
1,
1,
1,
0,
0,
1,
1,
2,
2,
1,
1,
0,
0,
1,
1,
1,
1,
2,
2,
2,
2,
1,
1,
1,
1,
2,
2,
1,
1,
1,
1,
0,
0,
1,
1,
0,
0,
0,
0,
1,
1,
0,
0,
0,
0,
0,
0,
1,
1,
0,
0,
0,
0,
0,
0,
0,
0,
1,
1,
0,
0,
0,
0,
1,
1,
0,
0,
1,
1,
1,
1,
0,
0,
0,
0,
0,
0,
1,
1,
0,
0,
0,
0,
0,
0,
0,
0,
0,
0,
0,
0,
1,
1,
0,
0,
1,
1,
0,
0,
1,
1,
0,
0,
1,
1,
2,
2,
1,
1,
0,
0,
1,
1,
2,
2,
4,
4,
6,
6,
8,
8,
10,
10,
13,
13,
16,
16,
18,
18,
21,
21,
23,
23,
26,
26,
30,
30,
31,
31,
34,
34,
36,
36,
39,
39,
42,
42,
45,
45,
47,
47,
50,
50,
52,
52,
55,
55,
58,
58,
60,
60,
60,
60,
64,
64,
68,
68,
70,
70,
72,
72,
76,
76,
78,
78,
80,
80,
83,
83,
85,
85,
88,
88,
90,
90,
93,
93,
96,
96,
98,
98,
102,
102,
104,
104,
106,
106,
108,
108,
112,
112,
114,
114,
117,
117,
120,
120,
122,
122,
124,
124,
125,
125,
125,
125,
125,
125,
125,
125,
125,
125,
125,
125,
125,
125,
125,
125,
125,
125,
125,
30,
30,
-4,
0,
0,
1,
1,
2,
2,
1,
1,
0,
0,
0,
0,
1,
1,
0,
0,
0,
0,
1,
1,
0,
0,
1,
1,
3,
3,
1,
1,
1,
1,
2,
2,
1,
1,
2,
2,
1,
1,
0,
0,
1,
1,
1,
1,
1,
1,
0,
0,
1,
1,
1,
1,
1,
1,
1,
1,
1,
1,
1,
1,
0,
0,
1,
1,
1,
1,
1,
1,
1,
1,
0,
0,
1,
1,
0,
0,
0,
0,
0,
0,
0,
0,
0,
0,
1,
1,
1,
1,
1,
1,
1,
1,
1,
1,
0,
0,
0,
0,
0,
0,
1,
1,
1,
1,
0,
0,
0,
0,
2,
2,
0,
0,
0,
0,
1,
1,
1,
1,
2,
2,
0,
0,
0,
0,
0,
0,
1,
1,
0,
0,
2,
2,
5,
5,
6,
6,
9,
9,
10,
10,
15,
15,
15,
15,
18,
18,
21,
21,
24,
24,
26,
26,
29,
29,
31,
31,
34,
34,
36,
36,
39,
39,
41,
41,
44,
44,
47,
47,
50,
50,
52,
52,
54,
54,
58,
58,
60,
60,
62,
62,
65,
65,
68,
68,
70,
70,
73,
73,
74,
74,
78,
78,
80,
80,
83,
83,
85,
85,
88,
88,
91,
91,
93,
93,
95,
95,
99,
99,
101,
101,
104,
104,
107,
107,
108,
108,
112,
112,
115,
115,
117,
117,
120,
120,
122,
122,
125,
125,
125,
125,
125,
125,
125,
125,
125,
125,
125,
125,
125,
125,
125,
125,
125,
125,
125,
125,
125,
25,
25,
-4,
0,
0,
0,
0,
2,
2,
0,
0,
0,
0,
1,
1,
2,
2,
0,
0,
0,
0,
1,
1,
1,
1,
2,
2,
1,
1,
0,
0,
1,
1,
0,
0,
1,
1,
0,
0,
0,
0,
1,
1,
0,
0,
0,
0,
1,
1,
1,
1,
2,
2,
0,
0,
0,
0,
1,
1,
0,
0,
0,
0,
1,
1,
1,
1,
0,
0,
1,
1,
1,
1,
1,
1,
1,
1,
1,
1,
0,
0,
2,
2,
1,
1,
0,
0,
0,
0,
1,
1,
0,
0,
1,
1,
0,
0,
0,
0,
1,
1,
1,
1,
1,
1,
1,
1,
0,
0,
0,
0,
1,
1,
0,
0,
1,
1,
0,
0,
0,
0,
0,
0,
1,
1,
0,
0,
0,
0,
0,
0,
0,
0,
2,
2,
4,
4,
7,
7,
8,
8,
11,
11,
13,
13,
16,
16,
18,
18,
21,
21,
23,
23,
26,
26,
29,
29,
31,
31,
34,
34,
36,
36,
39,
39,
42,
42,
44,
44,
46,
46,
50,
50,
53,
53,
55,
55,
58,
58,
60,
60,
62,
62,
66,
66,
68,
68,
70,
70,
74,
74,
75,
75,
78,
78,
80,
80,
83,
83,
86,
86,
89,
89,
91,
91,
93,
93,
96,
96,
98,
98,
100,
100,
104,
104,
106,
106,
109,
109,
112,
112,
115,
115,
117,
117,
119,
119,
122,
122,
125,
125,
125,
125,
125,
125,
125,
125,
125,
125,
125,
125,
125,
125,
125,
125,
125,
125,
125,
125,
125,
125,
122,
-4,
0,
0,
1,
1,
1,
1,
0,
0,
0,
0,
1,
1,
2,
2,
1,
1,
0,
0,
1,
1,
1,
1,
1,
1,
0,
0,
0,
0,
1,
1,
1,
1,
1,
1,
0,
0,
1,
1,
1,
1,
0,
0,
1,
1,
0,
0,
1,
1,
2,
2,
1,
1,
0,
0,
1,
1,
1,
1,
1,
1,
0,
0,
1,
1,
1,
1,
0,
0,
0,
0,
1,
1,
0,
0,
0,
0,
0,
0,
0,
0,
1,
1,
1,
1,
1,
1,
0,
0,
0,
0,
1,
1,
1,
1,
0,
0,
1,
1,
2,
2,
0,
0,
0,
0,
1,
1,
0,
0,
1,
1,
0,
0,
0,
0,
0,
0,
1,
1,
1,
1,
0,
0,
0,
0,
0,
0,
0,
0,
2,
2,
2,
2,
3,
3,
5,
5,
9,
9,
11,
11,
13,
13,
16,
16,
19,
19,
20,
20,
23,
23,
27,
27,
28,
28,
31,
31,
33,
33,
37,
37,
38,
38,
42,
42,
45,
45,
47,
47,
49,
49,
52,
52,
55,
55,
57,
57,
60,
60,
64,
64,
66,
66,
68,
68,
70,
70,
73,
73,
75,
75,
78,
78,
80,
80,
83,
83,
86,
86,
88,
88,
91,
91,
94,
94,
96,
96,
98,
98,
102,
102,
104,
104,
106,
106,
108,
108,
112,
112,
115,
115,
117,
117,
119,
119,
122,
122,
125,
125,
125,
125,
125,
125,
125,
125,
125,
125,
125,
125,
125,
125,
125,
125,
125,
125,
125,
125,
125,
125,
115,
-4,
1,
1,
0,
0,
2,
2,
1,
1,
1,
1,
0,
0,
1,
1,
0,
0,
1,
1,
0,
0,
2,
2,
0,
0,
1,
1,
1,
1,
1,
1,
2,
2,
1,
1,
1,
1,
2,
2,
1,
1,
1,
1,
0,
0,
1,
1,
1,
1,
0,
0,
1,
1,
0,
0,
0,
0,
1,
1,
1,
1,
0,
0,
0,
0,
1,
1,
0,
0,
1,
1,
1,
1,
1,
1,
1,
1,
0,
0,
1,
1,
2,
2,
1,
1,
0,
0,
1,
1,
0,
0,
0,
0,
0,
0,
0,
0,
1,
1,
0,
0,
0,
0,
1,
1,
0,
0,
0,
0,
0,
0,
0,
0,
0,
0,
0,
0,
0,
0,
0,
0,
1,
1,
0,
0,
0,
0,
0,
0,
0,
0,
2,
2,
4,
4,
6,
6,
8,
8,
11,
11,
14,
14,
16,
16,
18,
18,
22,
22,
24,
24,
26,
26,
29,
29,
31,
31,
34,
34,
36,
36,
39,
39,
42,
42,
44,
44,
47,
47,
50,
50,
52,
52,
55,
55,
58,
58,
59,
59,
62,
62,
64,
64,
67,
67,
71,
71,
72,
72,
75,
75,
78,
78,
81,
81,
84,
84,
86,
86,
87,
87,
90,
90,
93,
93,
96,
96,
98,
98,
102,
102,
104,
104,
106,
106,
109,
109,
112,
112,
114,
114,
117,
117,
119,
119,
122,
122,
125,
125,
125,
125,
125,
125,
125,
125,
125,
125,
125,
125,
125,
125,
125,
125,
125,
125,
125,
125,
125,
43,
43,
-4,
1,
1,
1,
1,
0,
0,
1,
1,
0,
0,
0,
0,
1,
1,
0,
0,
1,
1,
1,
1,
0,
0,
1,
1,
1,
1,
0,
0,
1,
1,
1,
1,
1,
1,
1,
1,
1,
1,
1,
1,
1,
1,
2,
2,
1,
1,
1,
1,
1,
1,
1,
1,
1,
1,
0,
0,
1,
1,
1,
1,
0,
0,
0,
0,
1,
1,
0,
0,
1,
1,
1,
1,
1,
1,
1,
1,
1,
1,
0,
0,
0,
0,
0,
0,
0,
0,
0,
0,
1,
1,
2,
2,
0,
0,
0,
0,
0,
0,
1,
1,
0,
0,
1,
1,
1,
1,
1,
1,
0,
0,
1,
1,
0,
0,
1,
1,
1,
1,
0,
0,
0,
0,
1,
1,
1,
1,
0,
0,
1,
1,
2,
2,
4,
4,
6,
6,
8,
8,
10,
10,
14,
14,
15,
15,
18,
18,
22,
22,
24,
24,
27,
27,
29,
29,
32,
32,
34,
34,
36,
36,
40,
40,
42,
42,
44,
44,
47,
47,
50,
50,
52,
52,
55,
55,
56,
56,
60,
60,
64,
64,
64,
64,
67,
67,
71,
71,
73,
73,
76,
76,
78,
78,
82,
82,
83,
83,
86,
86,
88,
88,
92,
92,
95,
95,
96,
96,
99,
99,
101,
101,
104,
104,
106,
106,
110,
110,
111,
111,
114,
114,
117,
117,
119,
119,
121,
121,
125,
125,
125,
125,
125,
125,
125,
125,
125,
125,
125,
125,
125,
125,
125,
125,
125,
125,
125,
125,
125,
26,
26,
-4,
1,
1,
0,
0,
1,
1,
1,
1,
1,
1,
1,
1,
0,
0,
1,
1,
0,
0,
1,
1,
1,
1,
1,
1,
1,
1,
0,
0,
0,
0,
0,
0,
0,
0,
1,
1,
0,
0,
1,
1,
0,
0,
1,
1,
0,
0,
0,
0,
0,
0,
1,
1,
0,
0,
1,
1,
1,
1,
0,
0,
2,
2,
1,
1,
0,
0,
1,
1,
0,
0,
1,
1,
0,
0,
0,
0,
0,
0,
0,
0,
1,
1,
0,
0,
0,
0,
1,
1,
0,
0,
0,
0,
1,
1,
1,
1,
0,
0,
0,
0,
1,
1,
0,
0,
1,
1,
0,
0,
1,
1,
1,
1,
0,
0,
1,
1,
0,
0,
1,
1,
1,
1,
0,
0,
0,
0,
0,
0,
0,
0,
2,
2,
3,
3,
6,
6,
9,
9,
11,
11,
13,
13,
16,
16,
18,
18,
21,
21,
23,
23,
26,
26,
29,
29,
31,
31,
34,
34,
36,
36,
39,
39,
42,
42,
43,
43,
48,
48,
49,
49,
52,
52,
55,
55,
57,
57,
59,
59,
64,
64,
65,
65,
67,
67,
70,
70,
73,
73,
76,
76,
78,
78,
80,
80,
84,
84,
86,
86,
88,
88,
91,
91,
93,
93,
97,
97,
99,
99,
100,
100,
104,
104,
106,
106,
109,
109,
111,
111,
115,
115,
117,
117,
118,
118,
122,
122,
125,
125,
125,
125,
125,
125,
125,
125,
125,
125,
125,
125,
125,
125,
125,
125,
125,
125,
125,
125,
125,
125,
124,
-4,
1,
1,
1,
1,
0,
0,
0,
0,
1,
1,
0,
0,
2,
2,
1,
1,
0,
0,
1,
1,
1,
1,
1,
1,
1,
1,
1,
1,
0,
0,
1,
1,
1,
1,
1,
1,
0,
0,
1,
1,
2,
2,
1,
1,
0,
0,
1,
1,
2,
2,
0,
0,
0,
0,
2,
2,
0,
0,
0,
0,
1,
1,
1,
1,
0,
0,
0,
0,
1,
1,
0,
0,
0,
0,
2,
2,
0,
0,
0,
0,
0,
0,
0,
0,
0,
0,
1,
1,
1,
1,
2,
2,
0,
0,
0,
0,
1,
1,
1,
1,
0,
0,
0,
0,
0,
0,
0,
0,
0,
0,
0,
0,
1,
1,
0,
0,
1,
1,
0,
0,
0,
0,
1,
1,
0,
0,
0,
0,
0,
0,
2,
2,
5,
5,
8,
8,
9,
9,
11,
11,
14,
14,
16,
16,
18,
18,
20,
20,
24,
24,
27,
27,
28,
28,
31,
31,
34,
34,
36,
36,
39,
39,
42,
42,
45,
45,
46,
46,
49,
49,
53,
53,
54,
54,
57,
57,
60,
60,
62,
62,
65,
65,
68,
68,
70,
70,
73,
73,
76,
76,
78,
78,
80,
80,
83,
83,
86,
86,
89,
89,
91,
91,
94,
94,
96,
96,
98,
98,
102,
102,
104,
104,
107,
107,
109,
109,
111,
111,
114,
114,
117,
117,
120,
120,
122,
122,
124,
124,
125,
125,
125,
125,
125,
125,
125,
125,
125,
125,
125,
125,
125,
125,
125,
125,
125,
125,
125,
38,
38,
-4,
1,
1,
0,
0,
1,
1,
1,
1,
1,
1,
1,
1,
0,
0,
1,
1,
1,
1,
1,
1,
0,
0,
1,
1,
1,
1,
2,
2,
1,
1,
0,
0,
2,
2,
1,
1,
1,
1,
1,
1,
1,
1,
1,
1,
1,
1,
0,
0,
0,
0,
0,
0,
1,
1,
0,
0,
1,
1,
1,
1,
0,
0,
1,
1,
1,
1,
0,
0,
1,
1,
1,
1,
1,
1,
1,
1,
1,
1,
2,
2,
1,
1,
0,
0,
0,
0,
1,
1,
0,
0,
1,
1,
0,
0,
0,
0,
2,
2,
0,
0,
0,
0,
0,
0,
1,
1,
1,
1,
0,
0,
0,
0,
1,
1,
0,
0,
0,
0,
1,
1,
-1,
-1,
0,
0,
1,
1,
2,
2,
1,
1,
2,
2,
4,
4,
7,
7,
8,
8,
12,
12,
14,
14,
16,
16,
19,
19,
21,
21,
23,
23,
25,
25,
28,
28,
32,
32,
34,
34,
36,
36,
39,
39,
42,
42,
44,
44,
48,
48,
50,
50,
52,
52,
55,
55,
58,
58,
60,
60,
62,
62,
63,
63,
68,
68,
70,
70,
73,
73,
76,
76,
78,
78,
80,
80,
83,
83,
86,
86,
88,
88,
92,
92,
94,
94,
96,
96,
98,
98,
101,
101,
104,
104,
107,
107,
110,
110,
111,
111,
114,
114,
117,
117,
119,
119,
121,
121,
124,
124,
125,
125,
125,
125,
125,
125,
125,
125,
125,
125,
125,
125,
125,
125,
125,
125,
125,
125,
125,
64,
64,
-4,
1,
1,
0,
0,
1,
1,
1,
1,
2,
2,
1,
1,
0,
0,
0,
0,
0,
0,
1,
1,
1,
1,
1,
1,
1,
1,
0,
0,
1,
1,
1,
1,
0,
0,
0,
0,
0,
0,
0,
0,
1,
1,
2,
2,
1,
1,
0,
0,
1,
1,
2,
2,
1,
1,
1,
1,
0,
0,
1,
1,
0,
0,
0,
0,
1,
1,
1,
1,
1,
1,
0,
0,
0,
0,
0,
0,
1,
1,
0,
0,
0,
0,
0,
0,
0,
0,
1,
1,
0,
0,
0,
0,
0,
0,
1,
1,
1,
1,
1,
1,
0,
0,
0,
0,
0,
0,
0,
0,
0,
0,
0,
0,
2,
2,
0,
0,
0,
0,
0,
0,
0,
0,
0,
0,
0,
0,
0,
0,
2,
2,
1,
1,
3,
3,
7,
7,
9,
9,
10,
10,
13,
13,
17,
17,
19,
19,
21,
21,
24,
24,
26,
26,
29,
29,
31,
31,
32,
32,
36,
36,
39,
39,
41,
41,
44,
44,
46,
46,
50,
50,
52,
52,
55,
55,
58,
58,
59,
59,
62,
62,
66,
66,
68,
68,
70,
70,
73,
73,
76,
76,
77,
77,
81,
81,
83,
83,
86,
86,
88,
88,
91,
91,
94,
94,
96,
96,
99,
99,
102,
102,
104,
104,
107,
107,
110,
110,
111,
111,
114,
114,
117,
117,
120,
120,
121,
121,
124,
124,
125,
125,
125,
125,
125,
125,
125,
125,
125,
125,
125,
125,
125,
125,
125,
125,
125,
125,
125,
29,
29,
-4,
1,
1,
1,
1,
1,
1,
2,
2,
1,
1,
1,
1,
0,
0,
1,
1,
0,
0,
1,
1,
0,
0,
0,
0,
0,
0,
1,
1,
2,
2,
1,
1,
0,
0,
0,
0,
0,
0,
1,
1,
1,
1,
2,
2,
1,
1,
0,
0,
0,
0,
1,
1,
1,
1,
0,
0,
1,
1,
1,
1,
0,
0,
0,
0,
1,
1,
1,
1,
1,
1,
0,
0,
1,
1,
0,
0,
0,
0,
0,
0,
1,
1,
1,
1,
0,
0,
1,
1,
0,
0,
1,
1,
0,
0,
0,
0,
0,
0,
0,
0,
0,
0,
1,
1,
0,
0,
0,
0,
0,
0,
1,
1,
2,
2,
0,
0,
0,
0,
0,
0,
1,
1,
2,
2,
1,
1,
0,
0,
1,
1,
2,
2,
4,
4,
6,
6,
9,
9,
11,
11,
13,
13,
16,
16,
18,
18,
22,
22,
23,
23,
26,
26,
29,
29,
30,
30,
34,
34,
35,
35,
38,
38,
42,
42,
44,
44,
47,
47,
48,
48,
52,
52,
55,
55,
58,
58,
60,
60,
63,
63,
64,
64,
67,
67,
70,
70,
73,
73,
74,
74,
76,
76,
82,
82,
83,
83,
86,
86,
88,
88,
91,
91,
94,
94,
96,
96,
99,
99,
101,
101,
105,
105,
106,
106,
110,
110,
111,
111,
114,
114,
117,
117,
120,
120,
122,
122,
124,
124,
125,
125,
125,
125,
125,
125,
125,
125,
125,
125,
125,
125,
125,
125,
125,
125,
125,
125,
125,
125,
125,
-4,
1,
1,
0,
0,
0,
0,
2,
2,
1,
1,
1,
1,
1,
1,
2,
2,
1,
1,
1,
1,
0,
0,
1,
1,
1,
1,
1,
1,
1,
1,
2,
2,
0,
0,
1,
1,
1,
1,
0,
0,
1,
1,
0,
0,
1,
1,
1,
1,
0,
0,
1,
1,
1,
1,
0,
0,
1,
1,
0,
0,
0,
0,
1,
1,
0,
0,
0,
0,
2,
2,
1,
1,
1,
1,
0,
0,
0,
0,
1,
1,
2,
2,
0,
0,
0,
0,
2,
2,
1,
1,
0,
0,
0,
0,
0,
0,
0,
0,
1,
1,
1,
1,
0,
0,
1,
1,
1,
1,
0,
0,
0,
0,
0,
0,
1,
1,
0,
0,
0,
0,
0,
0,
0,
0,
0,
0,
1,
1,
0,
0,
2,
2,
3,
3,
6,
6,
9,
9,
11,
11,
13,
13,
16,
16,
18,
18,
22,
22,
22,
22,
25,
25,
29,
29,
32,
32,
33,
33,
36,
36,
39,
39,
40,
40,
44,
44,
46,
46,
49,
49,
52,
52,
54,
54,
56,
56,
59,
59,
62,
62,
65,
65,
68,
68,
70,
70,
72,
72,
75,
75,
79,
79,
80,
80,
82,
82,
86,
86,
88,
88,
91,
91,
94,
94,
95,
95,
100,
100,
102,
102,
104,
104,
106,
106,
109,
109,
112,
112,
115,
115,
118,
118,
120,
120,
123,
123,
124,
124,
125,
125,
125,
125,
125,
125,
125,
125,
125,
125,
125,
125,
125,
125,
125,
125,
125,
125,
125,
125,
125,
-4,
1,
1,
0,
0,
1,
1,
1,
1,
1,
1,
1,
1,
1,
1,
2,
2,
1,
1,
1,
1,
1,
1,
1,
1,
0,
0,
0,
0,
1,
1,
0,
0,
1,
1,
1,
1,
2,
2,
2,
2,
1,
1,
0,
0,
1,
1,
1,
1,
2,
2,
0,
0,
0,
0,
0,
0,
1,
1,
0,
0,
1,
1,
0,
0,
1,
1,
2,
2,
1,
1,
0,
0,
0,
0,
1,
1,
1,
1,
0,
0,
0,
0,
0,
0,
1,
1,
0,
0,
0,
0,
0,
0,
0,
0,
2,
2,
0,
0,
0,
0,
0,
0,
1,
1,
2,
2,
1,
1,
1,
1,
1,
1,
0,
0,
0,
0,
0,
0,
0,
0,
1,
1,
0,
0,
0,
0,
1,
1,
1,
1,
2,
2,
5,
5,
6,
6,
9,
9,
11,
11,
14,
14,
15,
15,
18,
18,
21,
21,
24,
24,
26,
26,
29,
29,
31,
31,
33,
33,
36,
36,
38,
38,
41,
41,
43,
43,
46,
46,
48,
48,
51,
51,
54,
54,
58,
58,
60,
60,
62,
62,
64,
64,
68,
68,
70,
70,
73,
73,
75,
75,
78,
78,
81,
81,
83,
83,
86,
86,
88,
88,
90,
90,
94,
94,
95,
95,
99,
99,
102,
102,
103,
103,
106,
106,
109,
109,
112,
112,
114,
114,
117,
117,
119,
119,
122,
122,
124,
124,
125,
125,
125,
125,
125,
125,
125,
125,
125,
125,
125,
125,
125,
125,
125,
125,
125,
125,
125,
43,
43,
-4,
1,
1,
1,
1,
0,
0,
1,
1,
1,
1,
1,
1,
0,
0,
1,
1,
0,
0,
0,
0,
0,
0,
0,
0,
1,
1,
0,
0,
1,
1,
1,
1,
1,
1,
0,
0,
1,
1,
0,
0,
1,
1,
0,
0,
1,
1,
1,
1,
1,
1,
1,
1,
0,
0,
1,
1,
2,
2,
1,
1,
0,
0,
1,
1,
0,
0,
1,
1,
0,
0,
0,
0,
1,
1,
1,
1,
1,
1,
1,
1,
1,
1,
1,
1,
0,
0,
0,
0,
0,
0,
1,
1,
2,
2,
0,
0,
0,
0,
1,
1,
0,
0,
1,
1,
0,
0,
0,
0,
0,
0,
1,
1,
0,
0,
0,
0,
1,
1,
0,
0,
1,
1,
0,
0,
0,
0,
0,
0,
0,
0,
2,
2,
3,
3,
6,
6,
8,
8,
12,
12,
14,
14,
16,
16,
19,
19,
21,
21,
24,
24,
26,
26,
28,
28,
31,
31,
34,
34,
36,
36,
38,
38,
42,
42,
44,
44,
47,
47,
49,
49,
52,
