1-signale-auf-leitern/tag_1_daten/daten_versuch1/ALL0008/A0008CH2.CSV

Memory Length,4000,
Trigger Level,3.80000e+01,
Source,CH2,
Probe,1.0X,
Vertical Units,V,
Vertical Scale,5.00000e-02,
Vertical Position,0.00000e+00,
Horizontal Units,S,
Horizontal Scale,5.00000e-08,
Horizontal Position,1.9200000e-07,
Horizontal Mode,Main,
Sampling Period,2.00000e-09,
Firmware,V1.14,
Time, ,
Mode,Fast,
Waveform Data,
-12,
-12,
-9,
-12,
-10,
-11,
-11,
-10,
-9,
-10,
-8,
-10,
-9,
-8,
-7,
-8,
-8,
-6,
-5,
-5,
-5,
-5,
-5,
-6,
-6,
-7,
-7,
-7,
-8,
-10,
-9,
-10,
-10,
-11,
-8,
-10,
-10,
-8,
-8,
-9,
-8,
-8,
-8,
-8,
-6,
-8,
-7,
-6,
-7,
-7,
-6,
-6,
-5,
-6,
-4,
-6,
-6,
-6,
-7,
-8,
-9,
-10,
-9,
-10,
-9,
-10,
-9,
-10,
-11,
-11,
-9,
-10,
-9,
-10,
-8,
-9,
-8,
-8,
-7,
-7,
-7,
-7,
-6,
-6,
-5,
-5,
-5,
-6,
-6,
-6,
-5,
-7,
-6,
-8,
-7,
-9,
-10,
-10,
-8,
-9,
-8,
-10,
-9,
-9,
-8,
-8,
-8,
-9,
-8,
-8,
-7,
-7,
-6,
-6,
-6,
-6,
-5,
-5,
-4,
-6,
-6,
-7,
-7,
-7,
-6,
-8,
-7,
-9,
-9,
-10,
-8,
-9,
-9,
-11,
-9,
-9,
-9,
-8,
-8,
-9,
-8,
-8,
-7,
-7,
-8,
-7,
-6,
-6,
-5,
-6,
-5,
-6,
-6,
-5,
-6,
-7,
-8,
-8,
-6,
-8,
-9,
-10,
-8,
-9,
-8,
-8,
-8,
-9,
-8,
-8,
-7,
-8,
-8,
-7,
-7,
-6,
-7,
-7,
-6,
-7,
-6,
-5,
-5,
-6,
-5,
-6,
-5,
-6,
-6,
-8,
-7,
-8,
-8,
-8,
-8,
-9,
-8,
-9,
-7,
-9,
-8,
-9,
-7,
-9,
-8,
-7,
-6,
-6,
-8,
-7,
-6,
-7,
-7,
-6,
-6,
-6,
-6,
-6,
-5,
-6,
-6,
-6,
-6,
-6,
-6,
-8,
-7,
-8,
-8,
-8,
-7,
-9,
-8,
-8,
-7,
-8,
-6,
-7,
-7,
-8,
-6,
-6,
-5,
-6,
-7,
-7,
-6,
-6,
-6,
-5,
-5,
-6,
-6,
-7,
-6,
-7,
-7,
-7,
-8,
-9,
-8,
-8,
-7,
-8,
-8,
-8,
-6,
-8,
-6,
-7,
-7,
-8,
-6,
-7,
-6,
-7,
-6,
-6,
-5,
-5,
-6,
-7,
-6,
-6,
-5,
-6,
-6,
-6,
-6,
-8,
-7,
-7,
-7,
-8,
-7,
-8,
-8,
-7,
-7,
-9,
-8,
-8,
-6,
-7,
-6,
-7,
-6,
-6,
-7,
-7,
-5,
-6,
-5,
-6,
-4,
-6,
-6,
-6,
-7,
-6,
-7,
-7,
-7,
-6,
-7,
-8,
-7,
-7,
-8,
-8,
-7,
-9,
-7,
-7,
-7,
-7,
-8,
-7,
-7,
-7,
-7,
-5,
-5,
-6,
-6,
-7,
-6,
-5,
-5,
-6,
-4,
-5,
-5,
-7,
-5,
-6,
-8,
-7,
-5,
-6,
-8,
-7,
-5,
-6,
-6,
-7,
-6,
-7,
-7,
-7,
-6,
-7,
-6,
-6,
-4,
-5,
-5,
-5,
-5,
-6,
-5,
-6,
-6,
-6,
-5,
-7,
-5,
-6,
-6,
-7,
-6,
-8,
-7,
-7,
-6,
-6,
-7,
-7,
-7,
-6,
-6,
-7,
-6,
-6,
-7,
-6,
-5,
-6,
-6,
-5,
-5,
-6,
-5,
-6,
-7,
-6,
-6,
-6,
-5,
-6,
-5,
-7,
-6,
-7,
-7,
-7,
-5,
-7,
-6,
-6,
-6,
-7,
-6,
-6,
-5,
-6,
-6,
-6,
-5,
-6,
-5,
-5,
-6,
-5,
-5,
-5,
-4,
-6,
-5,
-5,
-5,
-8,
-7,
-7,
-5,
-7,
-6,
-7,
-7,
-6,
-6,
-6,
-7,
-6,
-5,
-7,
-5,
-6,
-5,
-6,
-5,
-6,
-5,
-5,
-5,
-6,
-5,
-5,
-3,
-5,
-4,
-5,
-5,
-5,
-5,
-6,
-6,
-6,
-6,
-7,
-5,
-6,
-6,
-6,
-6,
-6,
-5,
-6,
-4,
-6,
-6,
-6,
-4,
-6,
-5,
-7,
-4,
-5,
-6,
-6,
-5,
-6,
-6,
-6,
-5,
-6,
-5,
-5,
-5,
-6,
-6,
-7,
-5,
-6,
-6,
-7,
-6,
-7,
-6,
-6,
-5,
-6,
-5,
-6,
-5,
-6,
-5,
-5,
-5,
-5,
-5,
-6,
-5,
-6,
-4,
-5,
-5,
-6,
-5,
-6,
-4,
-5,
-5,
-6,
-6,
-5,
-5,
-6,
-5,
-6,
-6,
-6,
-4,
-5,
-4,
-6,
-5,
-6,
-5,
-6,
-5,
-5,
-5,
-5,
-4,
-5,
-5,
-5,
-4,
-6,
-4,
-5,
-5,
-6,
-6,
-6,
-5,
-6,
-5,
-6,
-5,
-5,
-5,
-5,
-6,
-6,
-6,
-6,
-4,
-5,
-4,
-5,
-5,
-5,
-4,
-5,
-5,
-6,
-5,
-5,
-4,
-4,
-4,
-5,
-4,
-5,
-5,
-5,
-5,
-5,
-5,
-5,
-5,
-6,
-5,
-6,
-4,
-6,
-5,
-5,
-4,
-6,
-5,
-5,
-4,
-5,
-4,
-5,
-5,
-5,
-5,
-5,
-5,
-5,
-4,
-5,
-4,
-4,
-5,
-5,
-5,
-6,
-4,
-5,
-3,
-5,
-5,
-5,
-4,
-6,
-5,
-5,
-5,
-6,
-4,
-5,
-4,
-6,
-5,
-5,
-4,
-4,
-4,
-5,
-4,
-5,
-5,
-5,
-5,
-6,
-5,
-5,
-3,
-5,
-3,
-5,
-4,
-5,
-5,
-5,
-4,
-5,
-4,
-5,
-4,
-5,
-4,
-5,
-5,
-6,
-5,
-6,
-5,
-6,
-4,
-6,
-4,
-4,
-4,
-5,
-4,
-5,
-5,
-6,
-5,
-6,
-4,
-5,
-4,
-5,
-5,
-5,
-4,
-5,
-5,
-6,
-4,
-5,
-4,
-6,
-4,
-5,
-4,
-5,
-3,
-5,
-4,
-5,
-4,
-6,
-5,
-5,
-5,
-6,
-5,
-5,
-4,
-5,
-5,
-5,
-4,
-5,
-4,
-5,
-4,
-6,
-4,
-5,
-3,
-4,
-3,
-5,
-4,
-5,
-4,
-5,
-4,
-4,
-4,
-4,
-3,
-5,
-5,
-5,
-4,
-5,
-4,
-5,
-4,
-4,
-5,
-5,
-4,
-4,
-4,
-5,
-4,
-5,
-4,
-5,
-3,
-5,
-5,
-5,
-3,
-4,
-4,
-5,
-4,
-5,
-3,
-4,
-3,
-5,
-4,
-5,
-4,
-4,
-4,
-4,
-3,
-5,
-4,
-4,
-3,
-5,
-5,
-5,
-4,
-5,
-5,
-6,
-5,
-4,
-4,
-5,
-4,
-5,
-5,
-5,
-4,
-5,
-4,
-5,
-3,
-4,
-5,
-5,
-4,
-4,
-4,
-5,
-3,
-4,
-4,
-5,
-3,
-4,
-3,
-4,
-3,
-5,
-5,
-5,
-4,
-5,
-5,
-5,
-3,
-4,
-3,
-5,
-4,
-5,
-4,
-4,
-3,
-5,
-4,
-5,
-3,
-4,
-4,
-4,
-4,
-5,
-5,
-5,
-3,
-3,
-4,
-5,
-3,
-4,
-4,
-4,
-4,
-5,
-4,
-5,
-4,
-4,
-4,
-5,
-3,
-4,
-4,
-5,
-2,
-3,
-4,
-5,
-4,
-4,
-4,
-5,
-4,
-4,
-3,
-6,
-5,
-4,
-4,
-5,
-4,
-5,
-4,
-5,
-4,
-4,
-4,
-5,
-5,
-4,
-3,
-3,
-3,
-4,
-3,
-3,
-3,
-4,
-4,
-5,
-4,
-4,
-3,
-5,
-5,
-4,
-4,
-4,
-4,
-4,
-3,
-5,
-5,
-5,
-4,
-5,
-3,
-4,
-3,
-3,
-3,
-5,
-4,
-5,
-4,
-5,
-3,
-4,
-3,
-4,
-3,
-5,
-3,
-3,
-3,
-5,
-4,
-4,
-4,
-4,
-3,
-3,
-5,
-5,
-4,
-5,
-4,
-5,
-4,
-4,
-3,
-4,
-3,
-5,
-4,
-5,
-3,
-4,
-3,
-4,
-3,
-5,
-3,
-4,
-3,
-3,
-4,
-4,
-3,
-4,
-3,
-4,
-4,
-3,
-3,
-4,
-3,
-4,
-2,
-4,
-4,
-4,
-4,
-4,
-3,
-5,
-4,
-4,
-3,
-4,
-3,
-4,
-3,
-3,
-2,
-4,
-3,
-4,
-4,
-5,
-3,
-4,
-3,
-5,
-4,
-3,
-3,
-4,
-3,
-4,
-4,
-3,
-3,
-3,
-3,
-5,
-3,
-3,
-3,
-3,
-3,
-4,
-3,
-5,
-4,
-4,
-4,
-4,
-3,
-3,
-4,
-3,
-3,
-3,
-3,
-4,
-3,
-5,
-4,
-5,
-3,
-4,
-3,
-5,
-3,
-4,
-3,
-4,
-3,
-4,
-3,
-3,
-3,
-3,
-4,
-5,
-3,
-4,
-3,
-5,
-3,
-4,
-3,
-3,
-3,
-4,
-3,
-4,
-4,
-3,
-2,
-4,
-3,
-3,
-3,
-3,
-3,
-3,
-2,
-3,
-3,
-3,
-2,
-5,
-3,
-3,
-4,
-4,
-3,
-4,
-3,
-4,
-3,
-2,
-2,
-3,
-3,
-4,
-2,
-4,
-4,
-4,
-3,
-4,
-3,
-3,
-3,
-5,
-3,
-4,
-2,
-2,
-2,
-3,
-2,
-4,
-3,
-4,
-2,
-3,
-2,
-4,
-3,
-4,
-3,
-3,
-3,
-4,
-3,
-3,
-3,
-3,
-3,
-2,
-4,
-3,
-2,
-4,
-3,
-4,
-3,
-3,
-4,
-4,
-3,
-5,
-3,
-3,
-3,
-3,
-3,
-5,
-3,
-4,
-2,
-3,
-2,
-4,
-4,
-4,
-2,
-3,
-2,
-3,
-3,
-3,
-2,
-3,
-3,
-3,
-3,
-3,
-3,
-3,
-3,
-4,
-3,
-3,
-3,
-3,
-3,
-4,
-3,
-3,
-3,
-3,
-2,
-4,
-3,
-4,
-2,
-3,
-3,
-3,
-2,
-3,
-3,
-3,
-2,
-5,
-3,
-3,
-2,
-3,
-2,
-3,
-3,
-3,
-3,
-3,
-3,
-4,
-3,
-3,
-2,
-3,
-3,
-4,
-2,
-3,
-3,
-3,
-3,
-4,
-2,
-3,
-3,
-3,
-4,
-3,
-3,
-3,
-3,
-3,
-3,
-3,
-3,
-3,
-2,
-3,
-2,
-3,
-3,
-4,
-3,
-3,
-3,
-3,
-3,
-3,
-2,
-4,
-3,
-3,
-2,
-4,
-3,
-4,
-2,
-3,
-1,
-3,
-2,
-2,
-1,
-3,
-2,
-3,
-2,
-3,
-2,
-2,
-3,
-3,
-2,
-3,
-3,
-3,
-3,
-2,
-2,
-2,
-2,
-3,
-2,
-2,
-2,
-5,
-3,
-3,
-2,
-4,
-3,
-3,
-2,
-3,
-2,
-3,
-3,
-4,
-2,
-3,
-3,
-3,
-2,
-3,
-3,
-3,
-3,
-3,
-3,
-3,
-3,
-2,
-2,
-3,
-3,
-3,
-2,
-3,
-2,
-2,
-2,
-3,
-3,
-3,
-3,
-3,
-3,
-2,
-3,
-3,
-3,
-4,
-3,
-4,
-3,
-3,
-3,
-3,
-3,
-3,
-2,
-3,
-3,
-4,
-3,
-4,
-3,
-3,
-2,
-2,
-3,
-3,
-2,
-3,
-3,
-3,
-2,
-2,
-2,
-3,
-2,
-3,
-2,
-3,
-2,
-3,
-2,
-3,
-2,
-3,
-3,
-3,
-1,
-2,
-3,
-4,
-2,
-3,
-2,
-4,
-2,
-3,
-3,
-2,
-2,
-3,
-3,
-3,
-2,
-3,
-3,
-2,
-2,
-4,
-1,
-2,
-2,
-3,
-3,
-3,
-2,
-3,
-2,
-3,
-2,
-2,
-3,
-3,
-2,
-3,
-3,
-2,
-2,
-3,
-3,
-2,
-1,
-3,
-2,
-3,
-2,
-3,
-2,
-3,
-3,
-3,
-3,
-3,
-3,
-4,
-3,
-3,
-2,
-3,
-3,
-3,
-2,
-3,
-3,
-3,
-2,
-4,
-2,
-3,
-2,
-3,
-2,
-2,
-2,
-3,
-1,
-2,
-1,
-3,
-3,
-3,
-2,
-2,
-3,
-3,
-2,
-2,
-2,
-3,
-3,
-3,
-2,
-3,
-4,
-2,
-2,
-3,
-1,
-3,
-2,
-3,
-2,
-2,
-2,
-3,
-2,
-3,
-1,
-3,
-2,
-3,
-1,
-3,
-1,
-2,
-3,
-3,
-1,
-3,
-2,
-2,
-2,
-2,
-3,
-2,
-3,
-2,
-2,
-3,
-2,
-3,
-2,
-3,
-1,
-4,
-1,
-3,
-3,
-2,
-2,
-3,
-3,
-2,
-1,
-2,
-2,
-3,
-2,
-2,
-1,
-3,
-3,
-3,
-3,
-1,
-1,
-2,
-1,
-5,
-2,
-3,
-2,
-1,
-1,
-2,
-2,
-3,
-2,
-3,
-3,
-3,
-2,
-3,
-3,
-2,
-1,
-2,
0,
-3,
-1,
-3,
-2,
-2,
-3,
-3,
0,
-3,
-1,
-3,
-2,
-2,
-3,
-3,
-2,
-1,
-2,
-2,
-2,
-3,
-1,
-3,
-1,
-3,
-1,
-2,
-2,
-1,
1,
-3,
0,
-3,
-1,
-2,
-2,
-3,
-3,
-2,
-3,
-2,
-1,
-3,
-2,
-3,
-1,
-3,
-2,
-3,
-2,
-2,
-2,
-3,
-1,
-3,
0,
-2,
0,
-3,
-3,
-2,
-1,
-2,
-3,
-2,
-3,
-3,
-1,
-3,
-2,
-3,
-3,
-1,
-3,
-3,
-1,
-1,
-1,
-3,
-2,
-3,
-1,
-3,
0,
-3,
-1,
-2,
-1,
-2,
-1,
-2,
-2,
-2,
-2,
-3,
-2,
-1,
-1,
-2,
-2,
-2,
-1,
-3,
-2,
-2,
0,
-3,
-1,
-2,
-1,
-2,
-1,
-5,
-2,
-2,
-2,
-2,
-2,
-3,
-2,
-3,
-2,
-2,
-2,
-3,
-1,
-3,
-2,
-3,
-2,
-2,
-1,
-5,
-1,
-2,
-1,
-1,
-2,
-3,
-1,
-3,
-1,
-2,
-3,
-2,
-2,
-2,
0,
-4,
-1,
-2,
-2,
-1,
-2,
-2,
-1,
-5,
-1,
-2,
-2,
-2,
-3,
-3,
-1,
-3,
-1,
-2,
-2,
-1,
0,
-2,
-1,
-4,
-3,
-2,
-2,
0,
-1,
-3,
0,
-3,
-1,
-2,
-2,
-1,
-1,
-2,
-1,
-2,
-1,
-3,
-1,
-3,
-1,
-2,
-2,
-1,
-2,
-2,
-2,
-2,
1,
-3,
-2,
-1,
-1,
-1,
-2,
-3,
-1,
-2,
-2,
-3,
-1,
-2,
0,
-3,
-1,
-3,
-2,
-1,
-1,
-2,
-2,
-1,
-2,
-3,
-2,
-3,
-1,
-2,
-1,
-1,
-2,
-2,
-2,
-1,
1,
-3,
-1,
-1,
-1,
-2,
-1,
-3,
-2,
-2,
-2,
-1,
-1,
-2,
-1,
-2,
-1,
-2,
-2,
-2,
-2,
-3,
-2,
-2,
-2,
-2,
0,
-3,
-1,
-2,
-2,
-1,
-1,
-2,
-2,
-1,
0,
-2,
0,
-4,
-1,
-2,
-2,
-2,
-1,
-1,
-2,
0,
1,
-2,
-1,
-1,
-1,
-2,
-1,
-2,
-2,
-2,
-1,
0,
1,
-2,
-1,
-2,
-1,
-2,
-2,
-2,
-1,
-2,
-2,
-1,
-1,
-1,
0,
-4,
-1,
-2,
-2,
-1,
-2,
-3,
-1,
-2,
-2,
-2,
-2,
-2,
-1,
-1,
-1,
0,
0,
6,
19,
32,
44,
48,
52,
44,
40,
32,
26,
22,
18,
16,
13,
13,
10,
7,
6,
4,
3,
2,
2,
2,
3,
0,
0,
0,
1,
0,
1,
4,
10,
16,
26,
34,
38,
38,
39,
37,
33,
30,
24,
22,
18,
15,
13,
12,
10,
9,
8,
6,
7,
3,
4,
3,
3,
1,
1,
1,
0,
-1,
0,
-2,
-1,
3,
10,
19,
30,
36,
40,
40,
37,
31,
27,
23,
21,
18,
16,
16,
14,
11,
9,
8,
7,
6,
5,
3,
4,
2,
1,
3,
3,
3,
4,
5,
8,
10,
14,
20,
24,
26,
31,
33,
31,
29,
24,
23,
20,
17,
15,
14,
14,
10,
10,
9,
8,
5,
6,
5,
5,
3,
2,
3,
1,
1,
0,
-2,
1,
2,
7,
13,
21,
26,
30,
32,
30,
30,
28,
25,
23,
19,
17,
16,
15,
14,
12,
11,
10,
7,
8,
7,
7,
4,
5,
5,
5,
5,
4,
5,
7,
7,
9,
12,
16,
18,
23,
25,
26,
26,
24,
24,
21,
18,
18,
17,
15,
13,
12,
12,
11,
8,
8,
7,
7,
4,
4,
3,
3,
1,
0,
1,
2,
2,
6,
11,
15,
18,
22,
23,
25,
25,
24,
24,
22,
19,
18,
16,
16,
13,
13,
11,
13,
9,
9,
9,
8,
7,
7,
5,
6,
6,
6,
5,
5,
6,
6,
9,
11,
13,
17,
18,
21,
21,
22,
23,
21,
19,
19,
16,
16,
13,
13,
13,
11,
10,
10,
8,
8,
6,
6,
5,
5,
3,
4,
2,
4,
4,
6,
8,
11,
11,
16,
17,
20,
20,
22,
22,
20,
19,
18,
17,
16,
14,
14,
13,
13,
11,
11,
10,
9,
8,
8,
8,
7,
6,
7,
7,
5,
6,
5,
8,
9,
10,
14,
14,
18,
18,
19,
19,
20,
18,
17,
17,
17,
14,
14,
13,
13,
11,
11,
9,
10,
7,
7,
6,
7,
5,
5,
5,
5,
4,
6,
9,
10,
9,
12,
13,
16,
16,
18,
19,
18,
17,
17,
17,
16,
14,
15,
13,
15,
12,
12,
11,
11,
10,
10,
11,
9,
7,
8,
7,
8,
5,
5,
6,
8,
8,
11,
12,
15,
14,
16,
17,
17,
15,
17,
17,
16,
14,
14,
13,
14,
11,
10,
10,
10,
7,
8,
9,
9,
5,
6,
7,
6,
5,
7,
7,
8,
7,
11,
11,
14,
12,
14,
16,
16,
15,
15,
16,
16,
14,
14,
13,
14,
11,
12,
12,
11,
10,
11,
11,
10,
8,
8,
8,
5,
6,
6,
7,
8,
7,
9,
10,
11,
12,
12,
13,
16,
14,
14,
13,
15,
14,
14,
14,
15,
13,
12,
11,
11,
9,
9,
8,
8,
7,
7,
7,
7,
6,
7,
8,
7,
6,
8,
10,
11,
11,
12,
12,
15,
13,
14,
14,
15,
13,
14,
13,
13,
11,
12,
12,
11,
10,
11,
9,
10,
8,
9,
8,
8,
7,
7,
7,
7,
7,
9,
8,
10,
10,
10,
11,
14,
12,
14,
14,
15,
13,
13,
13,
13,
11,
10,
11,
10,
9,
10,
9,
9,
8,
9,
8,
8,
7,
6,
8,
8,
6,
9,
9,
11,
9,
10,
11,
13,
12,
12,
12,
14,
13,
12,
12,
13,
11,
12,
12,
13,
10,
11,
11,
10,
8,
10,
8,
8,
7,
9,
8,
6,
6,
7,
7,
8,
7,
10,
11,
13,
11,
13,
12,
13,
12,
12,
12,
11,
11,
12,
11,
11,
10,
10,
10,
10,
7,
8,
8,
9,
6,
8,
8,
8,
6,
8,
8,
8,
8,
9,
9,
11,
10,
12,
12,
11,
11,
12,
11,
12,
11,
12,
11,
11,
10,
11,
11,
10,
10,
9,
9,
9,
7,
8,
8,
7,
6,
9,
8,
8,
8,
9,
10,
10,
9,
11,
11,
11,
10,
11,
11,
11,
10,
10,
10,
11,
9,
11,
9,
9,
9,
9,
9,
9,
7,
8,
7,
7,
6,
8,
8,
8,
7,
8,
8,
9,
9,
10,
11,
13,
10,
11,
11,
11,
11,
11,
10,
10,
10,
10,
10,
9,
9,
9,
8,
9,
8,
9,
8,
8,
7,
7,
9,
8,
7,
8,
9,
9,
9,
9,
10,
11,
10,
10,
10,
10,
9,
10,
11,
11,
10,
10,
9,
10,
7,
9,
8,
9,
8,
8,
9,
8,
6,
8,
8,
8,
7,
8,
9,
9,
8,
10,
11,
10,
11,
10,
11,
10,
9,
10,
11,
11,
10,
10,
9,
9,
8,
9,
9,
9,
7,
8,
9,
8,
7,
8,
8,
8,
7,
8,
8,
8,
8,
8,
9,
9,
8,
10,
10,
9,
8,
9,
9,
9,
9,
10,
10,
9,
8,
9,
8,
9,
8,
8,
8,
8,
6,
8,
8,
8,
7,
8,
8,
9,
7,
9,
9,
10,
9,
9,
10,
10,
8,
10,
11,
9,
10,
10,
9,
9,
8,
9,
10,
9,
8,
8,
9,
8,
7,
8,
7,
8,
7,
7,
7,
8,
7,
9,
8,
10,
7,
8,
9,
9,
9,
10,
11,
10,
9,
10,
9,
11,
8,
9,
9,
9,
7,
8,
8,
8,
7,
7,
8,
9,
7,
7,
8,
8,
7,
8,
8,
9,
8,
10,
9,
9,
9,
9,
9,
11,
8,
9,
9,
9,
8,
8,
9,
9,
8,
9,
8,
9,
6,
7,
7,
8,
7,
7,
8,
8,
7,
7,
8,
8,
7,
8,
8,
9,
8,
8,
9,
9,
7,
9,
9,
9,
7,
8,
8,
9,
8,
9,
9,
9,
6,
7,
6,
8,
7,
7,
8,
8,
6,
7,
8,
9,
9,
8,
8,
8,
8,
9,
9,
10,
10,
9,
9,
7,
7,
9,
8,
8,
7,
8,
7,
8,
7,
8,
7,
8,
7,
8,
8,
7,
6,
6,
8,
9,
8,
8,
8,
8,
7,
8,
8,
8,
7,
8,
8,
8,
7,
8,
9,
9,
7,
9,
8,
9,
7,
6,
8,
7,
7,
8,
7,
8,
6,
7,
7,
8,
6,
8,
8,
8,
7,
8,
8,
9,
7,
8,
9,
8,
7,
9,
8,
9,
7,
8,
8,
8,
7,
8,
8,
8,
7,
7,
8,
7,
7,
8,
7,
8,
6,
6,
8,
8,
7,
8,
8,
9,
7,
8,
8,
9,
6,
7,
8,
8,
6,
8,
8,
8,
7,
7,
8,
7,
6,
6,
7,
8,
6,
7,
7,
8,
6,
8,
8,
8,
7,
9,
8,
8,
7,
7,
8,
8,
7,
8,
8,
9,
7,
8,
8,
8,
6,
8,
8,
7,
5,
6,
8,
7,
5,
7,
8,
8,
6,
7,
7,
7,
7,
7,
8,
7,
6,
7,
8,
8,
7,
8,
8,
8,
7,
8,
7,
7,
6,
6,
8,
7,
6,
6,
6,
7,
6,
6,
7,
8,
6,
7,
7,
7,
6,
8,
8,
8,
6,
7,
8,
8,
6,
7,
8,
8,
6,
6,
7,
8,
6,
7,
8,
7,
6,
8,
8,
8,
6,
6,
6,
7,
6,
7,
8,
8,
7,
7,
7,
8,
6,
6,
7,
8,
6,
7,
8,
8,
6,
7,
8,
7,
6,
8,
7,
6,
6,
6,
7,
8,
6,
6,
7,
8,
6,
7,
7,
7,
6,
6,
7,
8,
6,
7,
8,
8,
6,
7,
8,
7,
6,
8,
8,
8,
6,
7,
7,
7,
5,
6,
6,
7,
6,
6,
7,
7,
6,
6,
7,
7,
5,
7,
6,
8,
7,
6,
7,
7,
6,
6,
6,
6,
7,
7,
7,
7,
6,
6,
7,
7,
6,
6,
7,
7,
6,
7,
7,
7,
6,
7,
8,
7,
6,
6,
5,
6,
5,
7,
8,
7,
6,
6,
7,
7,
6,
7,
7,
7,
6,
7,
7,
7,
6,
6,
7,
7,
5,
6,
6,
6,
6,
5,
6,
7,
5,
6,
7,
6,
5,
6,
7,
7,
5,
6,
6,
6,
6,
7,
7,
6,
6,
6,
7,
7,
6,
7,
7,
7,
6,
6,
6,
7,
6,
7,
7,
6,
6,
6,
7,
6,
5,
6,
6,
7,
5,
7,
7,
7,
5,
6,
7,
7,
6,
6,
6,
7,
5,
6,
6,
7,
6,
6,
7,
7,
6,
6,
7,
6,
6,
6,
7,
7,
5,
6,
6,
6,
4,
6,
6,
6,
6,
7,
6,
5,
6,
7,
6,
7,
5,
5,
7,
6,
6,
6,
5,
6,
5,
6,
7,
6,
4,
6,
7,
6,
6,
6,
6,
6,
5,
6,
6,
7,
5,
6,
7,
7,
6,
6,
5,
5,
5,
5,
6,
5,
6,
6,
5,
6,
6,
5,
7,
5,
5,
6,
5,
7,
5,
5,
7,
6,
5,
6,
6,
8,
4,
6,
7,
7,
6,
6,
6,
7,
5,
6,
6,
7,
5,
6,
5,
5,
4,
6,
5,
6,
6,
7,
5,
7,
6,
6,
6,
5,
4,
5,
5,
6,
4,
6,
5,
5,
6,
6,
7,
5,
5,
5,
6,
7,
6,
6,
5,
6,
3,
6,
7,
7,
4,
6,
5,
5,
5,
5,
5,
6,
5,
5,
6,
7,
5,
6,
5,
5,
5,
5,
7,
5,
5,
6,
7,
5,
4,
6,
5,
6,
6,
6,
7,
6,
4,
6,
5,
7,
4,
5,
6,
7,
4,
6,
5,
5,
5,
6,
6,
6,
5,
6,
6,
7,
5,
5,
7,
7,
4,
5,
7,
7,
5,
6,
5,
5,
5,
6,
6,
5,
4,
5,
6,
5,
5,
6,
5,
5,
4,
6,
7,
6,
5,
6,
5,
5,
5,
6,
6,
8,
5,
6,
5,
5,
5,
6,
6,
6,
5,
6,
5,
5,
4,
5,
5,
6,
4,
5,
5,
5,
5,
6,
5,
5,
4,
6,
5,
6,
5,
5,
6,
6,
4,
6,
5,
5,
4,
5,
6,
5,
3,
5,
5,
6,
4,
6,
5,
5,
4,
5,
5,
5,
4,
6,
6,
6,
4,
5,
5,
5,
4,
5,
5,
5,
4,
6,
6,
5,
4,
6,
5,
6,
4,
6,
5,
6,
5,
6,
5,
5,
4,
5,
5,
5,
4,
6,
4,
5,
3,
5,
5,
5,
5,
5,
5,
5,
3,
4,
5,
6,
4,
4,
5,
6,
3,
5,
5,
6,
4,
5,
5,
6,
5,
5,
5,
5,
4,
5,
6,
5,
4,
5,
5,
5,
5,
5,
6,
6,
5,
6,
5,
5,
4,
5,
5,
5,
4,
5,
6,
5,
4,
5,
5,
5,
4,
5,
5,
6,
4,
5,
3,
5,
4,
6,
5,
5,
4,
5,
5,
5,
4,
5,
5,
5,
4,
5,
5,
5,
4,
4,
5,
6,
4,
4,
5,
5,
4,
6,
4,
4,
4,
6,
4,
4,
4,
5,
5,
5,
3,
5,
5,
5,
3,
4,
5,
5,
4,
5,
5,
5,
4,
4,
4,
5,
3,
4,
4,
4,
4,
5,
5,
5,
4,
5,
5,
5,
3,
6,
6,
5,
5,
4,
4,
5,
4,
5,
5,
5,
4,
4,
5,
5,
4,
4,
5,
5,
4,
5,
4,
5,
5,
5,
4,
5,
4,
5,
5,
6,
4,
5,
5,
5,
3,
4,
5,
5,
4,
4,
5,
5,
4,
5,
5,
5,
4,
5,
4,
4,
3,
5,
4,
5,
4,
4,
5,
5,
4,
5,
5,
5,
3,
4,
5,
5,
4,
5,
4,
5,
3,
4,
5,
6,
5,
4,
5,
5,
3,
4,
5,
5,
3,
5,
4,
5,
4,
5,
5,
5,
4,
5,
5,
5,
4,
4,
3,
4,
3,
4,
4,
5,
4,
4,
4,
5,
3,
4,
5,
4,
3,
5,
5,
4,
3,
4,
4,
5,
3,
4,
4,
4,
3,
5,
4,
4,
3,
4,
4,
5,
3,
5,
5,
5,
4,
5,
5,
5,
3,
4,
4,
5,
3,
5,
5,
5,
4,
5,
4,
5,
3,
4,
5,
4,
3,
5,
4,
4,
3,
5,
5,
5,
4,
5,
5,
5,
4,
5,
5,
5,
5,
4,
5,
5,
4,
5,
5,
5,
4,
4,
4,
5,
3,
4,
3,
4,
3,
4,
4,
4,
3,
4,
4,
5,
3,
5,
5,
4,
3,
4,
3,
4,
4,
4,
3,
4,
3,
5,
4,
4,
4,
5,
5,
4,
4,
4,
5,
4,
3,
5,
5,
4,
3,
4,
5,
4,
3,
4,
5,
4,
4,
4,
5,
5,
3,
5,
5,
4,
2,
4,
5,
5,
3,
4,
3,
4,
3,
4,
5,
4,
3,
5,
5,
4,
3,
4,
4,
5,
4,
5,
5,
4,
3,
4,
4,
5,
3,
4,
5,
5,
2,
4,
4,
5,
4,
4,
5,
5,
3,
4,
3,
5,
4,
4,
4,
5,
3,
4,
3,
4,
3,
4,
5,
4,
4,
4,
3,
4,
3,
4,
4,
5,
4,
5,
4,
4,
4,
4,
4,
4,
3,
5,
5,
-4,
-6,
