2-diodenkennlinien/data/ALL0003/A0003CH1.CSV

Memory Length,4000,
Trigger Level,2.73000e+00,
Source,CH1,
Probe,1.0X,
Vertical Units,V,
Vertical Scale,1.00000e+00,
Vertical Position,0.00000e+00,
Horizontal Units,S,
Horizontal Scale,5.00000e-03,
Horizontal Position,0.0000000e+00,
Horizontal Mode,XY Mode,
Sampling Period,2.00000e-05,
Firmware,V1.14,
Time, ,
Mode,Fast,
Waveform Data,
4,
4,
4,
5,
5,
4,
4,
4,
4,
4,
4,
4,
4,
4,
4,
5,
5,
5,
5,
4,
4,
5,
5,
5,
5,
5,
-128,
-128,
-128,
-128,
-128,
-128,
-128,
-128,
-128,
-128,
-128,
-128,
-128,
-128,
-128,
-128,
-128,
-128,
-128,
-128,
-128,
-128,
-128,
-128,
-128,
-128,
-128,
-128,
-128,
-128,
-128,
-128,
-128,
-128,
-128,
-128,
-128,
-128,
-128,
-126,
-126,
-124,
-124,
-121,
-121,
-118,
-118,
-115,
-115,
-112,
-112,
-108,
-108,
-105,
-105,
-103,
-103,
-99,
-99,
-98,
-98,
-94,
-94,
-91,
-91,
-89,
-89,
-85,
-85,
-83,
-83,
-79,
-79,
-76,
-76,
-75,
-75,
-70,
-70,
-67,
-67,
-65,
-65,
-63,
-63,
-59,
-59,
-57,
-57,
-53,
-53,
-49,
-49,
-47,
-47,
-43,
-43,
-41,
-41,
-38,
-38,
-35,
-35,
-32,
-32,
-29,
-29,
-27,
-27,
-23,
-23,
-19,
-19,
-17,
-17,
-14,
-14,
-12,
-12,
-8,
-8,
-5,
-5,
-3,
-3,
0,
0,
1,
1,
2,
2,
1,
1,
2,
2,
2,
2,
3,
3,
3,
3,
3,
3,
3,
3,
3,
3,
3,
3,
4,
4,
3,
3,
4,
4,
3,
3,
3,
3,
3,
3,
3,
3,
3,
3,
5,
5,
4,
4,
3,
3,
4,
4,
3,
3,
3,
3,
4,
4,
5,
5,
4,
4,
4,
4,
4,
4,
4,
4,
3,
3,
3,
3,
3,
3,
4,
4,
4,
4,
5,
5,
3,
3,
4,
4,
5,
5,
3,
3,
3,
3,
5,
5,
4,
4,
5,
5,
5,
5,
4,
4,
4,
4,
5,
5,
5,
5,
5,
5,
4,
4,
4,
4,
5,
5,
5,
5,
4,
4,
5,
5,
5,
5,
5,
5,
5,
5,
5,
5,
5,
-128,
-128,
-128,
-128,
-128,
-128,
-128,
-128,
-128,
-128,
-128,
-128,
-128,
-128,
-128,
-128,
-128,
-128,
-128,
-128,
-128,
-128,
-128,
-128,
-128,
-128,
-128,
-128,
-128,
-128,
-128,
-128,
-128,
-128,
-128,
-128,
-128,
-128,
-128,
-126,
-126,
-124,
-124,
-120,
-120,
-117,
-117,
-115,
-115,
-110,
-110,
-109,
-109,
-107,
-107,
-103,
-103,
-99,
-99,
-96,
-96,
-94,
-94,
-90,
-90,
-89,
-89,
-85,
-85,
-81,
-81,
-78,
-78,
-77,
-77,
-72,
-72,
-69,
-69,
-67,
-67,
-65,
-65,
-62,
-62,
-59,
-59,
-55,
-55,
-53,
-53,
-51,
-51,
-47,
-47,
-43,
-43,
-42,
-42,
-38,
-38,
-35,
-35,
-32,
-32,
-29,
-29,
-26,
-26,
-23,
-23,
-20,
-20,
-18,
-18,
-15,
-15,
-11,
-11,
-9,
-9,
-7,
-7,
-3,
-3,
1,
1,
2,
2,
3,
3,
2,
2,
2,
2,
2,
2,
3,
3,
4,
4,
3,
3,
3,
3,
3,
3,
4,
4,
3,
3,
3,
3,
3,
3,
4,
4,
3,
3,
3,
3,
5,
5,
4,
4,
4,
4,
3,
3,
3,
3,
3,
3,
4,
4,
5,
5,
5,
5,
3,
3,
5,
5,
4,
4,
5,
5,
4,
4,
4,
4,
4,
4,
3,
3,
4,
4,
5,
5,
4,
4,
4,
4,
4,
4,
5,
5,
5,
5,
5,
5,
5,
5,
5,
5,
4,
4,
5,
5,
5,
5,
5,
5,
5,
5,
5,
5,
5,
5,
5,
5,
5,
5,
4,
4,
5,
5,
5,
5,
5,
5,
5,
5,
5,
5,
4,
4,
5,
5,
5,
-128,
-128,
-128,
-128,
-128,
-128,
-128,
-128,
-128,
-128,
-128,
-128,
-128,
-128,
-128,
-128,
-128,
-128,
-128,
-128,
-128,
-128,
-128,
-128,
-128,
-128,
-128,
-128,
-128,
-128,
-128,
-128,
-128,
-128,
-128,
-128,
-128,
-128,
-128,
-126,
-126,
-123,
-123,
-121,
-121,
-117,
-117,
-115,
-115,
-110,
-110,
-110,
-110,
-107,
-107,
-103,
-103,
-101,
-101,
-97,
-97,
-94,
-94,
-91,
-91,
-88,
-88,
-84,
-84,
-82,
-82,
-79,
-79,
-76,
-76,
-72,
-72,
-70,
-70,
-67,
-67,
-63,
-63,
-61,
-61,
-59,
-59,
-56,
-56,
-53,
-53,
-50,
-50,
-47,
-47,
-44,
-44,
-42,
-42,
-38,
-38,
-35,
-35,
-32,
-32,
-29,
-29,
-26,
-26,
-23,
-23,
-21,
-21,
-17,
-17,
-14,
-14,
-12,
-12,
-9,
-9,
-5,
-5,
-2,
-2,
0,
0,
3,
3,
1,
1,
2,
2,
2,
2,
3,
3,
4,
4,
3,
3,
3,
3,
3,
3,
3,
3,
3,
3,
3,
3,
3,
3,
3,
3,
3,
3,
3,
3,
3,
3,
3,
3,
4,
4,
2,
2,
4,
4,
3,
3,
3,
3,
4,
4,
4,
4,
3,
3,
3,
3,
4,
4,
5,
5,
4,
4,
4,
4,
3,
3,
4,
4,
4,
4,
5,
5,
4,
4,
4,
4,
5,
5,
4,
4,
4,
4,
5,
5,
5,
5,
4,
4,
4,
4,
4,
4,
5,
5,
5,
5,
5,
5,
4,
4,
4,
4,
4,
4,
5,
5,
4,
4,
4,
4,
5,
5,
5,
5,
5,
5,
5,
5,
5,
5,
5,
5,
5,
5,
5,
-128,
-128,
-128,
-128,
-128,
-128,
-128,
-128,
-128,
-128,
-128,
-128,
-128,
-128,
-128,
-128,
-128,
-128,
-128,
-128,
-128,
-128,
-128,
-128,
-128,
-128,
-128,
-128,
-128,
-128,
-128,
-128,
-128,
-128,
-128,
-128,
-128,
-128,
-128,
-126,
-126,
-122,
-122,
-121,
-121,
-118,
-118,
-115,
-115,
-112,
-112,
-109,
-109,
-105,
-105,
-103,
-103,
-100,
-100,
-97,
-97,
-95,
-95,
-91,
-91,
-88,
-88,
-85,
-85,
-82,
-82,
-80,
-80,
-76,
-76,
-74,
-74,
-70,
-70,
-67,
-67,
-64,
-64,
-61,
-61,
-59,
-59,
-55,
-55,
-52,
-52,
-51,
-51,
-48,
-48,
-44,
-44,
-41,
-41,
-39,
-39,
-35,
-35,
-33,
-33,
-29,
-29,
-27,
-27,
-23,
-23,
-19,
-19,
-17,
-17,
-14,
-14,
-12,
-12,
-8,
-8,
-6,
-6,
-3,
-3,
0,
0,
1,
1,
2,
2,
2,
2,
2,
2,
3,
3,
3,
3,
3,
3,
3,
3,
3,
3,
3,
3,
4,
4,
4,
4,
3,
3,
3,
3,
3,
3,
2,
2,
3,
3,
4,
4,
3,
3,
4,
4,
3,
3,
5,
5,
3,
3,
3,
3,
3,
3,
3,
3,
4,
4,
3,
3,
4,
4,
4,
4,
3,
3,
4,
4,
4,
4,
5,
5,
5,
5,
5,
5,
5,
5,
4,
4,
5,
5,
5,
5,
3,
3,
4,
4,
5,
5,
4,
4,
5,
5,
5,
5,
4,
4,
4,
4,
4,
4,
5,
5,
5,
5,
4,
4,
5,
5,
5,
5,
4,
4,
5,
5,
5,
5,
5,
5,
5,
5,
5,
5,
5,
5,
5,
-128,
-128,
-128,
-128,
-128,
-128,
-128,
-128,
-128,
-128,
-128,
-128,
-128,
-128,
-128,
-128,
-128,
-128,
-128,
-128,
-128,
-128,
-128,
-128,
-128,
-128,
-128,
-128,
-128,
-128,
-128,
-128,
-128,
-128,
-128,
-128,
-128,
-128,
-128,
-126,
-126,
-123,
-123,
-120,
-120,
-117,
-117,
-115,
-115,
-113,
-113,
-108,
-108,
-107,
-107,
-103,
-103,
-100,
-100,
-97,
-97,
-95,
-95,
-91,
-91,
-88,
-88,
-87,
-87,
-83,
-83,
-79,
-79,
-76,
-76,
-75,
-75,
-69,
-69,
-67,
-67,
-65,
-65,
-61,
-61,
-57,
-57,
-55,
-55,
-53,
-53,
-49,
-49,
-47,
-47,
-45,
-45,
-41,
-41,
-38,
-38,
-36,
-36,
-33,
-33,
-29,
-29,
-27,
-27,
-23,
-23,
-20,
-20,
-17,
-17,
-14,
-14,
-10,
-10,
-9,
-9,
-5,
-5,
-3,
-3,
1,
1,
2,
2,
2,
2,
2,
2,
3,
3,
2,
2,
3,
3,
3,
3,
3,
3,
3,
3,
3,
3,
4,
4,
4,
4,
3,
3,
3,
3,
3,
3,
3,
3,
3,
3,
4,
4,
3,
3,
3,
3,
3,
3,
4,
4,
3,
3,
4,
4,
3,
3,
4,
4,
5,
5,
4,
4,
3,
3,
5,
5,
4,
4,
4,
4,
3,
3,
4,
4,
4,
4,
5,
5,
4,
4,
5,
5,
4,
4,
5,
5,
3,
3,
5,
5,
4,
4,
5,
5,
5,
5,
5,
5,
5,
5,
4,
4,
5,
5,
3,
3,
5,
5,
4,
4,
5,
5,
5,
5,
5,
5,
4,
4,
5,
5,
5,
5,
4,
4,
5,
5,
5,
5,
5,
-128,
-128,
-128,
-128,
-128,
-128,
-128,
-128,
-128,
-128,
-128,
-128,
-128,
-128,
-128,
-128,
-128,
-128,
-128,
-128,
-128,
-128,
-128,
-128,
-128,
-128,
-128,
-128,
-128,
-128,
-128,
-128,
-128,
-128,
-128,
-128,
-128,
-128,
-128,
-126,
-126,
-122,
-122,
-121,
-121,
-117,
-117,
-115,
-115,
-111,
-111,
-109,
-109,
-107,
-107,
-103,
-103,
-100,
-100,
-97,
-97,
-95,
-95,
-91,
-91,
-88,
-88,
-85,
-85,
-82,
-82,
-79,
-79,
-77,
-77,
-73,
-73,
-71,
-71,
-67,
-67,
-65,
-65,
-62,
-62,
-59,
-59,
-56,
-56,
-53,
-53,
-50,
-50,
-48,
-48,
-43,
-43,
-41,
-41,
-38,
-38,
-36,
-36,
-32,
-32,
-29,
-29,
-26,
-26,
-23,
-23,
-20,
-20,
-17,
-17,
-14,
-14,
-12,
-12,
-9,
-9,
-5,
-5,
-3,
-3,
-1,
-1,
1,
1,
1,
1,
3,
3,
2,
2,
3,
3,
3,
3,
3,
3,
3,
3,
3,
3,
4,
4,
4,
4,
3,
3,
3,
3,
3,
3,
4,
4,
3,
3,
4,
4,
4,
4,
5,
5,
4,
4,
5,
5,
4,
4,
5,
5,
4,
4,
4,
4,
4,
4,
4,
4,
4,
4,
4,
4,
5,
5,
4,
4,
3,
3,
3,
3,
4,
4,
4,
4,
4,
4,
4,
4,
4,
4,
5,
5,
4,
4,
3,
3,
5,
5,
4,
4,
5,
5,
5,
5,
4,
4,
5,
5,
4,
4,
5,
5,
5,
5,
5,
5,
5,
5,
5,
5,
4,
4,
5,
5,
4,
4,
4,
4,
5,
5,
5,
5,
5,
5,
4,
4,
5,
-128,
-128,
-128,
-128,
-128,
-128,
-128,
-128,
-128,
-128,
-128,
-128,
-128,
-128,
-128,
-128,
-128,
-128,
-128,
-128,
-128,
-128,
-128,
-128,
-128,
-128,
-128,
-128,
-128,
-128,
-128,
-128,
-128,
-128,
-128,
-128,
-128,
-128,
-128,
-127,
-127,
-123,
-123,
-120,
-120,
-118,
-118,
-115,
-115,
-111,
-111,
-109,
-109,
-107,
-107,
-103,
-103,
-99,
-99,
-98,
-98,
-95,
-95,
-92,
-92,
-87,
-87,
-85,
-85,
-83,
-83,
-80,
-80,
-76,
-76,
-73,
-73,
-71,
-71,
-68,
-68,
-64,
-64,
-60,
-60,
-59,
-59,
-55,
-55,
-54,
-54,
-50,
-50,
-47,
-47,
-43,
-43,
-41,
-41,
-38,
-38,
-34,
-34,
-32,
-32,
-30,
-30,
-27,
-27,
-23,
-23,
-21,
-21,
-18,
-18,
-14,
-14,
-12,
-12,
-8,
-8,
-5,
-5,
-3,
-3,
0,
0,
1,
1,
3,
3,
3,
3,
2,
2,
3,
3,
3,
3,
3,
3,
3,
3,
3,
3,
3,
3,
4,
4,
3,
3,
3,
3,
4,
4,
4,
4,
4,
4,
3,
3,
4,
4,
3,
3,
3,
3,
3,
3,
5,
5,
4,
4,
4,
4,
4,
4,
5,
5,
4,
4,
5,
5,
4,
4,
3,
3,
3,
3,
4,
4,
5,
5,
3,
3,
5,
5,
3,
3,
5,
5,
5,
5,
4,
4,
4,
4,
5,
5,
5,
5,
4,
4,
4,
4,
4,
4,
4,
4,
4,
4,
5,
5,
5,
5,
5,
5,
5,
5,
5,
5,
5,
5,
5,
5,
5,
5,
4,
4,
5,
5,
5,
5,
4,
4,
5,
5,
5,
5,
4,
-128,
-128,
-128,
-128,
-128,
-128,
-128,
-128,
-128,
-128,
-128,
-128,
-128,
-128,
-128,
-128,
-128,
-128,
-128,
-128,
-128,
-128,
-128,
-128,
-128,
-128,
-128,
-128,
-128,
-128,
-128,
-128,
-128,
-128,
-128,
-128,
-128,
-128,
-128,
-127,
-127,
-123,
-123,
-119,
-119,
-117,
-117,
-115,
-115,
-109,
-109,
-109,
-109,
-105,
-105,
-103,
-103,
-99,
-99,
-97,
-97,
-93,
-93,
-92,
-92,
-89,
-89,
-86,
-86,
-82,
-82,
-80,
-80,
-75,
-75,
-74,
-74,
-70,
-70,
-67,
-67,
-65,
-65,
-62,
-62,
-59,
-59,
-56,
-56,
-52,
-52,
-50,
-50,
-47,
-47,
-44,
-44,
-42,
-42,
-38,
-38,
-35,
-35,
-33,
-33,
-28,
-28,
-26,
-26,
-23,
-23,
-21,
-21,
-17,
-17,
-14,
-14,
-11,
-11,
-8,
-8,
-6,
-6,
-3,
-3,
1,
1,
1,
1,
1,
1,
2,
2,
2,
2,
4,
4,
2,
2,
4,
4,
3,
3,
3,
3,
3,
3,
4,
4,
4,
4,
4,
4,
4,
4,
3,
3,
3,
3,
3,
3,
4,
4,
3,
3,
3,
3,
3,
3,
2,
2,
4,
4,
3,
3,
3,
3,
3,
3,
4,
4,
4,
4,
3,
3,
4,
4,
4,
4,
3,
3,
5,
5,
4,
4,
5,
5,
5,
5,
4,
4,
5,
5,
4,
4,
5,
5,
4,
4,
5,
5,
5,
5,
4,
4,
5,
5,
5,
5,
4,
4,
4,
4,
5,
5,
4,
4,
5,
5,
5,
5,
4,
4,
4,
4,
5,
5,
5,
5,
5,
5,
4,
4,
5,
5,
5,
5,
5,
5,
4,
-128,
-128,
-128,
-128,
-128,
-128,
-128,
-128,
-128,
-128,
-128,
-128,
-128,
-128,
-128,
-128,
-128,
-128,
-128,
-128,
-128,
-128,
-128,
-128,
-128,
-128,
-128,
-128,
-128,
-128,
-128,
-128,
-128,
-128,
-128,
-128,
-128,
-128,
-128,
-127,
-127,
-123,
-123,
-120,
-120,
-117,
-117,
-115,
-115,
-113,
-113,
-107,
-107,
-106,
-106,
-103,
-103,
-99,
-99,
-97,
-97,
-95,
-95,
-91,
-91,
-88,
-88,
-85,
-85,
-83,
-83,
-80,
-80,
-77,
-77,
-73,
-73,
-71,
-71,
-67,
-67,
-65,
-65,
-62,
-62,
-59,
-59,
-56,
-56,
-53,
-53,
-49,
-49,
-47,
-47,
-45,
-45,
-41,
-41,
-39,
-39,
-35,
-35,
-33,
-33,
-28,
-28,
-27,
-27,
-23,
-23,
-19,
-19,
-18,
-18,
-15,
-15,
-12,
-12,
-9,
-9,
-7,
-7,
-3,
-3,
0,
0,
1,
1,
2,
2,
3,
3,
2,
2,
2,
2,
4,
4,
3,
3,
3,
3,
3,
3,
3,
3,
3,
3,
4,
4,
2,
2,
4,
4,
3,
3,
3,
3,
2,
2,
3,
3,
3,
3,
3,
3,
4,
4,
4,
4,
4,
4,
5,
5,
2,
2,
4,
4,
3,
3,
4,
4,
5,
5,
4,
4,
4,
4,
3,
3,
5,
5,
4,
4,
5,
5,
5,
5,
5,
5,
5,
5,
4,
4,
5,
5,
4,
4,
5,
5,
4,
4,
4,
4,
4,
4,
5,
5,
4,
4,
4,
4,
4,
4,
5,
5,
5,
5,
4,
4,
5,
5,
5,
5,
4,
4,
4,
4,
4,
4,
5,
5,
5,
5,
5,
5,
4,
4,
5,
-128,
-128,
-128,
-128,
-128,
-128,
-128,
-128,
-128,
-128,
-128,
-128,
-128,
-128,
-128,
-128,
-128,
-128,
-128,
-128,
-128,
-128,
-128,
-128,
-128,
-128,
-128,
-128,
-128,
-128,
-128,
-128,
-128,
-128,
-128,
-128,
-128,
-128,
-128,
-127,
-127,
-123,
-123,
-120,
-120,
-118,
-118,
-114,
-114,
-112,
-112,
-110,
-110,
-106,
-106,
-103,
-103,
-100,
-100,
-97,
-97,
-95,
-95,
-92,
-92,
-88,
-88,
-85,
-85,
-82,
-82,
-79,
-79,
-77,
-77,
-74,
-74,
-71,
-71,
-67,
-67,
-65,
-65,
-62,
-62,
-59,
-59,
-56,
-56,
-53,
-53,
-50,
-50,
-48,
-48,
-44,
-44,
-42,
-42,
-38,
-38,
-35,
-35,
-32,
-32,
-30,
-30,
-26,
-26,
-23,
-23,
-20,
-20,
-17,
-17,
-14,
-14,
-11,
-11,
-9,
-9,
-7,
-7,
-3,
-3,
0,
0,
1,
1,
2,
2,
2,
2,
2,
2,
3,
3,
2,
2,
3,
3,
2,
2,
3,
3,
3,
3,
3,
3,
3,
3,
3,
3,
4,
4,
3,
3,
3,
3,
4,
4,
3,
3,
3,
3,
3,
3,
3,
3,
4,
4,
3,
3,
5,
5,
4,
4,
4,
4,
5,
5,
4,
4,
4,
4,
4,
4,
5,
5,
4,
4,
5,
5,
4,
4,
5,
5,
4,
4,
4,
4,
5,
5,
5,
5,
4,
4,
5,
5,
4,
4,
4,
4,
4,
4,
4,
4,
5,
5,
4,
4,
5,
5,
5,
5,
4,
4,
4,
4,
5,
5,
5,
5,
5,
5,
5,
5,
4,
4,
5,
5,
4,
4,
5,
5,
5,
5,
5,
5,
5,
-128,
-128,
-128,
-128,
-128,
-128,
-128,
-128,
-128,
-128,
-128,
-128,
-128,
-128,
-128,
-128,
-128,
-128,
-128,
-128,
-128,
-128,
-128,
-128,
-128,
-128,
-128,
-128,
-128,
-128,
-128,
-128,
-128,
-128,
-128,
-128,
-128,
-128,
-128,
-126,
-126,
-124,
-124,
-120,
-120,
-118,
-118,
-115,
-115,
-113,
-113,
-108,
-108,
-106,
-106,
-103,
-103,
-100,
-100,
-98,
-98,
-95,
-95,
-91,
-91,
-89,
-89,
-85,
-85,
-82,
-82,
-80,
-80,
-77,
-77,
-75,
-75,
-71,
-71,
-68,
-68,
-65,
-65,
-63,
-63,
-59,
-59,
-56,
-56,
-52,
-52,
-51,
-51,
-47,
-47,
-45,
-45,
-41,
-41,
-39,
-39,
-35,
-35,
-31,
-31,
-31,
-31,
-26,
-26,
-24,
-24,
-20,
-20,
-17,
-17,
-14,
-14,
-11,
-11,
-8,
-8,
-5,
-5,
-2,
-2,
-1,
-1,
2,
2,
2,
2,
2,
2,
2,
2,
3,
3,
3,
3,
3,
3,
2,
2,
2,
2,
3,
3,
3,
3,
3,
3,
3,
3,
3,
3,
3,
3,
3,
3,
3,
3,
3,
3,
3,
3,
4,
4,
3,
3,
3,
3,
3,
3,
5,
5,
4,
4,
4,
4,
4,
4,
5,
5,
5,
5,
5,
5,
4,
4,
5,
5,
4,
4,
5,
5,
3,
3,
4,
4,
3,
3,
4,
4,
5,
5,
5,
5,
5,
5,
5,
5,
4,
4,
5,
5,
5,
5,
4,
4,
5,
5,
5,
5,
5,
5,
4,
4,
5,
5,
4,
4,
5,
5,
4,
4,
4,
4,
4,
4,
5,
5,
5,
5,
4,
4,
5,
5,
5,
5,
5,
-128,
-128,
-128,
-128,
-128,
-128,
-128,
-128,
-128,
-128,
-128,
-128,
-128,
-128,
-128,
-128,
-128,
-128,
-128,
-128,
-128,
-128,
-128,
-128,
-128,
-128,
-128,
-128,
-128,
-128,
-128,
-128,
-128,
-128,
-128,
-128,
-128,
-128,
-128,
-127,
-127,
-123,
-123,
-121,
-121,
-118,
-118,
-115,
-115,
-113,
-113,
-108,
-108,
-106,
-106,
-103,
-103,
-100,
-100,
-98,
-98,
-95,
-95,
-91,
-91,
-88,
-88,
-85,
-85,
-82,
-82,
-80,
-80,
-76,
-76,
-72,
-72,
-70,
-70,
-67,
-67,
-64,
-64,
-63,
-63,
-59,
-59,
-56,
-56,
-53,
-53,
-51,
-51,
-47,
-47,
-43,
-43,
-42,
-42,
-38,
-38,
-35,
-35,
-33,
-33,
-30,
-30,
-27,
-27,
-23,
-23,
-22,
-22,
-17,
-17,
-15,
-15,
-12,
-12,
-8,
-8,
-5,
-5,
-3,
-3,
1,
1,
1,
1,
2,
2,
2,
2,
3,
3,
4,
4,
3,
3,
3,
3,
3,
3,
2,
2,
4,
4,
3,
3,
3,
3,
3,
3,
4,
4,
4,
4,
4,
4,
3,
3,
3,
3,
3,
3,
4,
4,
3,
3,
3,
3,
5,
5,
4,
4,
3,
3,
5,
5,
3,
3,
5,
5,
5,
5,
5,
5,
4,
4,
4,
4,
4,
4,
5,
5,
4,
4,
4,
4,
5,
5,
5,
5,
4,
4,
5,
5,
5,
5,
4,
4,
5,
5,
3,
3,
4,
4,
5,
5,
5,
5,
4,
4,
5,
5,
5,
5,
4,
4,
6,
6,
5,
5,
5,
5,
4,
4,
5,
5,
4,
4,
4,
4,
5,
5,
5,
5,
5,
5,
5,
-128,
-128,
-128,
-128,
-128,
-128,
-128,
-128,
-128,
-128,
-128,
-128,
-128,
-128,
-128,
-128,
-128,
-128,
-128,
-128,
-128,
-128,
-128,
-128,
-128,
-128,
-128,
-128,
-128,
-128,
-128,
-128,
-128,
-128,
-128,
-128,
-128,
-128,
-128,
-126,
-126,
-123,
-123,
-121,
-121,
-118,
-118,
-115,
-115,
-111,
-111,
-109,
-109,
-105,
-105,
-105,
-105,
-100,
-100,
-98,
-98,
-93,
-93,
-91,
-91,
-88,
-88,
-85,
-85,
-83,
-83,
-79,
-79,
-75,
-75,
-73,
-73,
-69,
-69,
-67,
-67,
-65,
-65,
-62,
-62,
-59,
-59,
-56,
-56,
-54,
-54,
-50,
-50,
-48,
-48,
-44,
-44,
-41,
-41,
-39,
-39,
-36,
-36,
-33,
-33,
-30,
-30,
-27,
-27,
-25,
-25,
-20,
-20,
-17,
-17,
-15,
-15,
-11,
-11,
-9,
-9,
-5,
-5,
-3,
-3,
1,
1,
1,
1,
3,
3,
2,
2,
3,
3,
3,
3,
3,
3,
3,
3,
3,
3,
3,
3,
3,
3,
3,
3,
3,
3,
4,
4,
4,
4,
2,
2,
4,
4,
4,
4,
3,
3,
3,
3,
4,
4,
3,
3,
3,
3,
3,
3,
5,
5,
3,
3,
4,
4,
3,
3,
4,
4,
4,
4,
4,
4,
4,
4,
4,
4,
5,
5,
4,
4,
4,
4,
4,
4,
5,
5,
4,
4,
5,
5,
5,
5,
5,
5,
4,
4,
5,
5,
5,
5,
3,
3,
5,
5,
4,
4,
4,
4,
5,
5,
4,
4,
4,
4,
5,
5,
5,
5,
4,
4,
5,
5,
4,
4,
5,
5,
4,
4,
4,
4,
5,
5,
5,
5,
5,
-128,
-128,
-128,
-128,
-128,
-128,
-128,
-128,
-128,
-128,
-128,
-128,
-128,
-128,
-128,
-128,
-128,
-128,
-128,
-128,
-128,
-128,
-128,
-128,
-128,
-128,
-128,
-128,
-128,
-128,
-128,
-128,
-128,
-128,
-128,
-128,
-128,
-128,
-128,
-125,
-125,
-123,
-123,
-121,
-121,
-118,
-118,
-115,
-115,
-111,
-111,
-109,
-109,
-107,
-107,
-104,
-104,
-99,
-99,
-97,
-97,
-95,
-95,
-91,
-91,
-87,
-87,
-85,
-85,
-83,
-83,
-81,
-81,
-76,
-76,
-73,
-73,
-71,
-71,
-67,
-67,
-65,
-65,
-62,
-62,
-59,
-59,
-55,
-55,
-53,
-53,
-50,
-50,
-47,
-47,
-45,
-45,
-42,
-42,
-38,
-38,
-36,
-36,
-31,
-31,
-30,
-30,
-27,
-27,
-23,
-23,
-21,
-21,
-18,
-18,
-15,
-15,
-12,
-12,
-10,
-10,
-6,
-6,
-2,
-2,
0,
0,
1,
1,
1,
1,
3,
3,
2,
2,
4,
4,
3,
3,
3,
3,
3,
3,
3,
3,
4,
4,
3,
3,
4,
4,
3,
3,
4,
4,
3,
3,
3,
3,
3,
3,
3,
3,
3,
3,
4,
4,
4,
4,
4,
4,
4,
4,
3,
3,
3,
3,
4,
4,
4,
4,
3,
3,
4,
4,
4,
4,
4,
4,
5,
5,
3,
3,
3,
3,
3,
3,
4,
4,
4,
4,
5,
5,
3,
3,
4,
4,
5,
5,
4,
4,
4,
4,
3,
3,
5,
5,
3,
3,
5,
5,
5,
5,
4,
4,
5,
5,
4,
4,
4,
4,
4,
4,
5,
5,
5,
5,
5,
5,
5,
5,
4,
4,
5,
5,
4,
4,
4,
4,
5,
-128,
-128,
-128,
-128,
-128,
-128,
-128,
-128,
-128,
-128,
-128,
-128,
-128,
-128,
-128,
-128,
-128,
-128,
-128,
-128,
-128,
-128,
-128,
-128,
-128,
-128,
-128,
-128,
-128,
-128,
-128,
-128,
-128,
-128,
-128,
-128,
-128,
-128,
-128,
-127,
-127,
-123,
-123,
-119,
-119,
-118,
-118,
-114,
-114,
-112,
-112,
-109,
-109,
-107,
-107,
-103,
-103,
-100,
-100,
-98,
-98,
-95,
-95,
-91,
-91,
-89,
-89,
-85,
-85,
-83,
-83,
-79,
-79,
-76,
-76,
-74,
-74,
-70,
-70,
-67,
-67,
-64,
-64,
-61,
-61,
-59,
-59,
-55,
-55,
-53,
-53,
-50,
-50,
-47,
-47,
-44,
-44,
-41,
-41,
-39,
-39,
-35,
-35,
-32,
-32,
-30,
-30,
-27,
-27,
-23,
-23,
-21,
-21,
-18,
-18,
-15,
-15,
-12,
-12,
-9,
-9,
-5,
-5,
-2,
-2,
0,
0,
2,
2,
1,
1,
2,
2,
1,
1,
2,
2,
3,
3,
3,
3,
3,
3,
3,
3,
3,
3,
3,
3,
4,
4,
3,
3,
4,
4,
4,
4,
3,
3,
4,
4,
4,
4,
3,
3,
3,
3,
4,
4,
3,
3,
3,
3,
4,
4,
5,
5,
5,
5,
4,
4,
4,
4,
4,
4,
4,
4,
5,
5,
5,
5,
4,
4,
4,
4,
5,
5,
5,
5,
5,
5,
4,
4,
4,
4,
5,
5,
4,
4,
5,
5,
5,
5,
5,
5,
5,
5,
5,
5,
4,
4,
4,
4,
4,
4,
5,
5,
5,
5,
5,
5,
5,
5,
4,
4,
4,
4,
5,
5,
4,
4,
5,
5,
4,
4,
5,
5,
4,
4,
5,
-128,
-128,
-128,
-128,
-128,
-128,
-128,
-128,
-128,
-128,
-128,
-128,
-128,
-128,
-128,
-128,
-128,
-128,
-128,
-128,
-128,
-128,
-128,
-128,
-128,
-128,
-128,
-128,
-128,
-128,
-128,
-128,
-128,
-128,
-128,
-128,
-128,
-128,
-128,
-127,
-127,
-123,
-123,
-122,
-122,
-117,
-117,
-114,
-114,
-112,
-112,
-109,
-109,
-106,
-106,
-103,
-103,
-100,
-100,
-97,
-97,
-94,
-94,
-92,
-92,
-89,
-89,
-85,
-85,
-83,
-83,
-80,
-80,
-76,
-76,
-74,
-74,
-70,
-70,
-67,
-67,
-65,
-65,
-61,
-61,
-58,
-58,
-56,
-56,
-52,
-52,
-51,
-51,
-47,
-47,
-44,
-44,
-41,
-41,
-38,
-38,
-35,
-35,
-33,
-33,
-30,
-30,
-27,
-27,
-24,
-24,
-21,
-21,
-17,
-17,
-14,
-14,
-13,
-13,
-9,
-9,
-6,
-6,
-3,
-3,
-1,
-1,
2,
2,
3,
3,
1,
1,
3,
3,
3,
3,
3,
3,
3,
3,
3,
3,
3,
3,
3,
3,
2,
2,
3,
3,
3,
3,
4,
4,
3,
3,
3,
3,
3,
3,
3,
3,
5,
5,
3,
3,
4,
4,
4,
4,
4,
4,
3,
3,
4,
4,
4,
4,
3,
3,
5,
5,
4,
4,
5,
5,
4,
4,
4,
4,
5,
5,
4,
4,
4,
4,
4,
4,
4,
4,
5,
5,
5,
5,
5,
5,
4,
4,
5,
5,
4,
4,
5,
5,
4,
4,
5,
5,
5,
5,
5,
5,
5,
