2-diodenkennlinien/data/ALL0003/A0003CH2.CSV

Memory Length,4000,
Trigger Level,2.73000e+00,
Source,CH2,
Probe,1.0X,
Vertical Units,V,
Vertical Scale,1.00000e+00,
Vertical Position,0.00000e+00,
Horizontal Units,S,
Horizontal Scale,5.00000e-03,
Horizontal Position,0.0000000e+00,
Horizontal Mode,XY Mode,
Sampling Period,2.00000e-05,
Firmware,V1.14,
Time, ,
Mode,Fast,
Waveform Data,
95,
95,
95,
98,
98,
100,
100,
100,
100,
103,
103,
104,
104,
107,
107,
108,
108,
110,
110,
112,
112,
114,
114,
117,
117,
118,
-4,
1,
1,
1,
1,
0,
0,
1,
1,
0,
0,
1,
1,
1,
1,
0,
0,
1,
1,
1,
1,
0,
0,
0,
0,
1,
1,
1,
1,
1,
1,
2,
2,
1,
1,
1,
1,
1,
1,
1,
1,
0,
0,
0,
0,
0,
0,
1,
1,
1,
1,
0,
0,
0,
0,
0,
0,
1,
1,
1,
1,
0,
0,
1,
1,
0,
0,
1,
1,
1,
1,
2,
2,
1,
1,
0,
0,
1,
1,
0,
0,
0,
0,
1,
1,
0,
0,
0,
0,
1,
1,
0,
0,
1,
1,
1,
1,
1,
1,
2,
2,
1,
1,
1,
1,
1,
1,
0,
0,
2,
2,
0,
0,
0,
0,
1,
1,
1,
1,
0,
0,
1,
1,
0,
0,
1,
1,
2,
2,
4,
4,
5,
5,
7,
7,
10,
10,
11,
11,
12,
12,
15,
15,
16,
16,
19,
19,
20,
20,
22,
22,
24,
24,
27,
27,
29,
29,
30,
30,
32,
32,
34,
34,
36,
36,
38,
38,
39,
39,
41,
41,
43,
43,
46,
46,
48,
48,
50,
50,
51,
51,
53,
53,
54,
54,
57,
57,
58,
58,
60,
60,
63,
63,
64,
64,
66,
66,
68,
68,
70,
70,
73,
73,
74,
74,
76,
76,
78,
78,
80,
80,
82,
82,
83,
83,
86,
86,
87,
87,
89,
89,
92,
92,
93,
93,
96,
96,
98,
98,
99,
99,
100,
100,
104,
104,
105,
105,
107,
107,
108,
108,
111,
111,
112,
112,
114,
114,
116,
116,
117,
-4,
0,
0,
0,
0,
1,
1,
2,
2,
1,
1,
0,
0,
1,
1,
1,
1,
1,
1,
1,
1,
1,
1,
1,
1,
1,
1,
1,
1,
0,
0,
0,
0,
0,
0,
2,
2,
1,
1,
0,
0,
0,
0,
0,
0,
1,
1,
0,
0,
0,
0,
0,
0,
1,
1,
1,
1,
0,
0,
1,
1,
0,
0,
0,
0,
2,
2,
1,
1,
0,
0,
0,
0,
2,
2,
0,
0,
0,
0,
0,
0,
1,
1,
0,
0,
0,
0,
0,
0,
0,
0,
0,
0,
0,
0,
1,
1,
0,
0,
0,
0,
1,
1,
1,
1,
1,
1,
0,
0,
1,
1,
0,
0,
1,
1,
1,
1,
0,
0,
0,
0,
1,
1,
0,
0,
1,
1,
2,
2,
3,
3,
4,
4,
8,
8,
9,
9,
11,
11,
13,
13,
14,
14,
16,
16,
18,
18,
21,
21,
22,
22,
24,
24,
26,
26,
28,
28,
30,
30,
32,
32,
34,
34,
35,
35,
37,
37,
39,
39,
41,
41,
44,
44,
44,
44,
48,
48,
48,
48,
51,
51,
52,
52,
56,
56,
57,
57,
58,
58,
60,
60,
62,
62,
64,
64,
67,
67,
68,
68,
70,
70,
72,
72,
74,
74,
76,
76,
78,
78,
80,
80,
82,
82,
83,
83,
86,
86,
87,
87,
90,
90,
91,
91,
92,
92,
95,
95,
96,
96,
98,
98,
101,
101,
103,
103,
105,
105,
106,
106,
109,
109,
110,
110,
112,
112,
114,
114,
116,
116,
118,
-4,
1,
1,
1,
1,
1,
1,
1,
1,
2,
2,
0,
0,
1,
1,
0,
0,
1,
1,
1,
1,
0,
0,
0,
0,
1,
1,
0,
0,
0,
0,
1,
1,
1,
1,
0,
0,
1,
1,
0,
0,
1,
1,
1,
1,
1,
1,
2,
2,
0,
0,
0,
0,
0,
0,
0,
0,
1,
1,
0,
0,
0,
0,
1,
1,
0,
0,
0,
0,
1,
1,
1,
1,
2,
2,
1,
1,
1,
1,
0,
0,
0,
0,
1,
1,
0,
0,
1,
1,
1,
1,
2,
2,
0,
0,
0,
0,
0,
0,
0,
0,
2,
2,
0,
0,
0,
0,
0,
0,
1,
1,
0,
0,
0,
0,
0,
0,
1,
1,
0,
0,
0,
0,
1,
1,
2,
2,
2,
2,
3,
3,
6,
6,
7,
7,
9,
9,
11,
11,
13,
13,
15,
15,
16,
16,
18,
18,
21,
21,
22,
22,
25,
25,
26,
26,
28,
28,
30,
30,
31,
31,
34,
34,
36,
36,
38,
38,
40,
40,
41,
41,
43,
43,
45,
45,
47,
47,
49,
49,
51,
51,
52,
52,
54,
54,
56,
56,
59,
59,
62,
62,
63,
63,
64,
64,
66,
66,
68,
68,
69,
69,
72,
72,
74,
74,
76,
76,
78,
78,
80,
80,
81,
81,
84,
84,
86,
86,
86,
86,
89,
89,
91,
91,
93,
93,
95,
95,
97,
97,
99,
99,
101,
101,
102,
102,
105,
105,
108,
108,
108,
108,
110,
110,
112,
112,
115,
115,
116,
116,
118,
-4,
0,
0,
1,
1,
0,
0,
1,
1,
1,
1,
1,
1,
0,
0,
1,
1,
0,
0,
1,
1,
0,
0,
0,
0,
1,
1,
1,
1,
0,
0,
0,
0,
0,
0,
2,
2,
0,
0,
2,
2,
2,
2,
0,
0,
0,
0,
0,
0,
2,
2,
0,
0,
0,
0,
1,
1,
1,
1,
2,
2,
1,
1,
0,
0,
2,
2,
1,
1,
1,
1,
1,
1,
2,
2,
0,
0,
0,
0,
0,
0,
0,
0,
0,
0,
0,
0,
0,
0,
1,
1,
0,
0,
0,
0,
0,
0,
2,
2,
0,
0,
0,
0,
0,
0,
1,
1,
1,
1,
1,
1,
0,
0,
0,
0,
1,
1,
0,
0,
0,
0,
1,
1,
0,
0,
1,
1,
2,
2,
4,
4,
4,
4,
7,
7,
8,
8,
11,
11,
12,
12,
14,
14,
16,
16,
19,
19,
20,
20,
22,
22,
24,
24,
26,
26,
27,
27,
31,
31,
31,
31,
34,
34,
36,
36,
37,
37,
40,
40,
42,
42,
44,
44,
44,
44,
47,
47,
48,
48,
51,
51,
53,
53,
55,
55,
56,
56,
58,
58,
61,
61,
62,
62,
64,
64,
66,
66,
68,
68,
70,
70,
72,
72,
74,
74,
76,
76,
78,
78,
81,
81,
82,
82,
84,
84,
84,
84,
87,
87,
90,
90,
92,
92,
93,
93,
95,
95,
98,
98,
99,
99,
100,
100,
102,
102,
104,
104,
106,
106,
108,
108,
110,
110,
113,
113,
114,
114,
116,
116,
118,
-4,
2,
2,
1,
1,
1,
1,
0,
0,
2,
2,
1,
1,
1,
1,
0,
0,
1,
1,
1,
1,
0,
0,
0,
0,
0,
0,
1,
1,
0,
0,
1,
1,
1,
1,
0,
0,
0,
0,
1,
1,
0,
0,
0,
0,
0,
0,
0,
0,
2,
2,
1,
1,
2,
2,
0,
0,
0,
0,
1,
1,
1,
1,
0,
0,
0,
0,
1,
1,
1,
1,
1,
1,
0,
0,
2,
2,
0,
0,
0,
0,
2,
2,
2,
2,
1,
1,
0,
0,
1,
1,
0,
0,
1,
1,
0,
0,
1,
1,
1,
1,
0,
0,
1,
1,
0,
0,
0,
0,
0,
0,
0,
0,
0,
0,
0,
0,
1,
1,
0,
0,
1,
1,
1,
1,
1,
1,
2,
2,
3,
3,
6,
6,
7,
7,
8,
8,
10,
10,
12,
12,
14,
14,
16,
16,
18,
18,
20,
20,
22,
22,
24,
24,
26,
26,
28,
28,
30,
30,
31,
31,
34,
34,
36,
36,
38,
38,
39,
39,
41,
41,
43,
43,
44,
44,
47,
47,
49,
49,
50,
50,
54,
54,
55,
55,
56,
56,
58,
58,
60,
60,
63,
63,
65,
65,
66,
66,
68,
68,
70,
70,
72,
72,
74,
74,
76,
76,
79,
79,
79,
79,
82,
82,
84,
84,
85,
85,
88,
88,
90,
90,
91,
91,
94,
94,
96,
96,
96,
96,
99,
99,
100,
100,
103,
103,
104,
104,
106,
106,
108,
108,
111,
111,
112,
112,
114,
114,
116,
116,
118,
-4,
0,
0,
0,
0,
0,
0,
0,
0,
1,
1,
1,
1,
1,
1,
0,
0,
1,
1,
0,
0,
0,
0,
1,
1,
1,
1,
2,
2,
2,
2,
1,
1,
2,
2,
0,
0,
0,
0,
0,
0,
0,
0,
0,
0,
1,
1,
0,
0,
1,
1,
1,
1,
0,
0,
0,
0,
1,
1,
2,
2,
1,
1,
2,
2,
0,
0,
1,
1,
0,
0,
0,
0,
1,
1,
1,
1,
0,
0,
0,
0,
0,
0,
0,
0,
0,
0,
1,
1,
2,
2,
0,
0,
0,
0,
1,
1,
0,
0,
1,
1,
1,
1,
0,
0,
0,
0,
0,
0,
1,
1,
1,
1,
1,
1,
1,
1,
0,
0,
0,
0,
1,
1,
1,
1,
0,
0,
1,
1,
3,
3,
5,
5,
7,
7,
10,
10,
10,
10,
12,
12,
15,
15,
16,
16,
18,
18,
20,
20,
22,
22,
24,
24,
26,
26,
28,
28,
30,
30,
31,
31,
33,
33,
35,
35,
37,
37,
39,
39,
41,
41,
43,
43,
44,
44,
47,
47,
49,
49,
51,
51,
53,
53,
55,
55,
57,
57,
58,
58,
61,
61,
63,
63,
64,
64,
66,
66,
68,
68,
71,
71,
72,
72,
75,
75,
76,
76,
78,
78,
80,
80,
82,
82,
83,
83,
85,
85,
87,
87,
90,
90,
91,
91,
92,
92,
94,
94,
98,
98,
98,
98,
100,
100,
102,
102,
104,
104,
107,
107,
109,
109,
110,
110,
112,
112,
114,
114,
116,
116,
118,
-4,
1,
1,
1,
1,
0,
0,
0,
0,
1,
1,
0,
0,
0,
0,
0,
0,
1,
1,
1,
1,
0,
0,
0,
0,
0,
0,
1,
1,
0,
0,
0,
0,
2,
2,
2,
2,
0,
0,
1,
1,
1,
1,
2,
2,
1,
1,
0,
0,
0,
0,
1,
1,
0,
0,
0,
0,
0,
0,
1,
1,
1,
1,
2,
2,
0,
0,
0,
0,
0,
0,
1,
1,
2,
2,
0,
0,
1,
1,
0,
0,
0,
0,
1,
1,
1,
1,
0,
0,
1,
1,
0,
0,
0,
0,
1,
1,
1,
1,
1,
1,
2,
2,
0,
0,
0,
0,
0,
0,
1,
1,
0,
0,
1,
1,
1,
1,
1,
1,
0,
0,
1,
1,
0,
0,
0,
0,
2,
2,
3,
3,
6,
6,
7,
7,
8,
8,
10,
10,
12,
12,
14,
14,
16,
16,
17,
17,
20,
20,
23,
23,
24,
24,
26,
26,
28,
28,
30,
30,
32,
32,
34,
34,
35,
35,
38,
38,
39,
39,
41,
41,
43,
43,
45,
45,
48,
48,
50,
50,
50,
50,
53,
53,
55,
55,
57,
57,
58,
58,
60,
60,
63,
63,
64,
64,
66,
66,
68,
68,
70,
70,
71,
71,
74,
74,
76,
76,
78,
78,
80,
80,
82,
82,
83,
83,
86,
86,
87,
87,
88,
88,
92,
92,
94,
94,
95,
95,
97,
97,
99,
99,
100,
100,
103,
103,
105,
105,
106,
106,
108,
108,
110,
110,
112,
112,
114,
114,
116,
116,
118,
-4,
0,
0,
0,
0,
0,
0,
1,
1,
1,
1,
0,
0,
1,
1,
0,
0,
1,
1,
0,
0,
0,
0,
1,
1,
1,
1,
1,
1,
1,
1,
1,
1,
1,
1,
1,
1,
0,
0,
2,
2,
0,
0,
0,
0,
1,
1,
0,
0,
1,
1,
1,
1,
0,
0,
1,
1,
0,
0,
1,
1,
1,
1,
0,
0,
1,
1,
1,
1,
1,
1,
0,
0,
0,
0,
0,
0,
0,
0,
2,
2,
0,
0,
0,
0,
0,
0,
0,
0,
0,
0,
1,
1,
1,
1,
1,
1,
0,
0,
0,
0,
0,
0,
2,
2,
1,
1,
1,
1,
1,
1,
0,
0,
0,
0,
1,
1,
0,
0,
0,
0,
0,
0,
0,
0,
2,
2,
1,
1,
3,
3,
5,
5,
7,
7,
8,
8,
10,
10,
12,
12,
14,
14,
16,
16,
18,
18,
20,
20,
22,
22,
24,
24,
26,
26,
28,
28,
29,
29,
32,
32,
34,
34,
36,
36,
38,
38,
39,
39,
41,
41,
44,
44,
44,
44,
47,
47,
49,
49,
50,
50,
53,
53,
55,
55,
57,
57,
60,
60,
62,
62,
63,
63,
64,
64,
67,
67,
68,
68,
71,
71,
73,
73,
73,
73,
76,
76,
78,
78,
80,
80,
82,
82,
84,
84,
85,
85,
87,
87,
89,
89,
90,
90,
93,
93,
95,
95,
96,
96,
99,
99,
101,
101,
103,
103,
104,
104,
107,
107,
109,
109,
111,
111,
112,
112,
114,
114,
116,
116,
118,
-4,
0,
0,
0,
0,
0,
0,
0,
0,
1,
1,
1,
1,
1,
1,
0,
0,
1,
1,
1,
1,
1,
1,
1,
1,
0,
0,
2,
2,
1,
1,
1,
1,
0,
0,
1,
1,
1,
1,
0,
0,
0,
0,
1,
1,
1,
1,
0,
0,
1,
1,
2,
2,
1,
1,
0,
0,
0,
0,
0,
0,
0,
0,
1,
1,
1,
1,
1,
1,
1,
1,
1,
1,
0,
0,
1,
1,
1,
1,
0,
0,
1,
1,
1,
1,
1,
1,
0,
0,
0,
0,
0,
0,
0,
0,
0,
0,
0,
0,
1,
1,
1,
1,
1,
1,
0,
0,
1,
1,
0,
0,
0,
0,
2,
2,
0,
0,
0,
0,
0,
0,
0,
0,
1,
1,
0,
0,
1,
1,
3,
3,
5,
5,
7,
7,
9,
9,
11,
11,
13,
13,
15,
15,
16,
16,
18,
18,
19,
19,
22,
22,
24,
24,
26,
26,
28,
28,
29,
29,
32,
32,
33,
33,
35,
35,
38,
38,
39,
39,
42,
42,
44,
44,
45,
45,
48,
48,
50,
50,
51,
51,
53,
53,
55,
55,
58,
58,
58,
58,
60,
60,
62,
62,
64,
64,
66,
66,
68,
68,
70,
70,
72,
72,
74,
74,
76,
76,
78,
78,
79,
79,
81,
81,
84,
84,
85,
85,
88,
88,
90,
90,
92,
92,
93,
93,
95,
95,
97,
97,
98,
98,
100,
100,
103,
103,
105,
105,
107,
107,
109,
109,
111,
111,
112,
112,
114,
114,
115,
115,
118,
-4,
1,
1,
1,
1,
0,
0,
1,
1,
0,
0,
2,
2,
2,
2,
1,
1,
1,
1,
0,
0,
1,
1,
2,
2,
1,
1,
0,
0,
0,
0,
0,
0,
1,
1,
1,
1,
1,
1,
0,
0,
1,
1,
1,
1,
0,
0,
0,
0,
0,
0,
1,
1,
0,
0,
0,
0,
0,
0,
1,
1,
1,
1,
2,
2,
1,
1,
0,
0,
1,
1,
2,
2,
0,
0,
0,
0,
1,
1,
1,
1,
1,
1,
2,
2,
0,
0,
1,
1,
0,
0,
0,
0,
0,
0,
1,
1,
1,
1,
1,
1,
1,
1,
0,
0,
0,
0,
0,
0,
1,
1,
1,
1,
0,
0,
1,
1,
1,
1,
0,
0,
0,
0,
1,
1,
1,
1,
2,
2,
4,
4,
4,
4,
8,
8,
9,
9,
11,
11,
12,
12,
15,
15,
16,
16,
18,
18,
20,
20,
22,
22,
24,
24,
26,
26,
28,
28,
29,
29,
32,
32,
33,
33,
35,
35,
37,
37,
39,
39,
40,
40,
43,
43,
46,
46,
48,
48,
50,
50,
51,
51,
54,
54,
54,
54,
57,
57,
59,
59,
60,
60,
62,
62,
64,
64,
66,
66,
68,
68,
70,
70,
72,
72,
74,
74,
76,
76,
78,
78,
80,
80,
82,
82,
83,
83,
86,
86,
88,
88,
90,
90,
91,
91,
94,
94,
95,
95,
97,
97,
98,
98,
100,
100,
103,
103,
104,
104,
106,
106,
108,
108,
111,
111,
112,
112,
113,
113,
116,
116,
118,
-4,
0,
0,
0,
0,
1,
1,
1,
1,
0,
0,
1,
1,
0,
0,
1,
1,
0,
0,
1,
1,
0,
0,
0,
0,
0,
0,
0,
0,
0,
0,
0,
0,
0,
0,
2,
2,
0,
0,
1,
1,
0,
0,
0,
0,
0,
0,
1,
1,
1,
1,
0,
0,
0,
0,
1,
1,
1,
1,
0,
0,
2,
2,
1,
1,
1,
1,
0,
0,
1,
1,
1,
1,
0,
0,
1,
1,
1,
1,
1,
1,
0,
0,
0,
0,
1,
1,
1,
1,
1,
1,
1,
1,
0,
0,
1,
1,
0,
0,
0,
0,
0,
0,
0,
0,
0,
0,
1,
1,
0,
0,
0,
0,
0,
0,
0,
0,
1,
1,
1,
1,
0,
0,
1,
1,
0,
0,
2,
2,
3,
3,
4,
4,
7,
7,
9,
9,
10,
10,
12,
12,
15,
15,
16,
16,
18,
18,
20,
20,
22,
22,
24,
24,
26,
26,
27,
27,
30,
30,
31,
31,
34,
34,
35,
35,
37,
37,
39,
39,
41,
41,
42,
42,
44,
44,
47,
47,
50,
50,
52,
52,
53,
53,
55,
55,
57,
57,
59,
59,
60,
60,
63,
63,
64,
64,
67,
67,
67,
67,
70,
70,
72,
72,
74,
74,
76,
76,
78,
78,
79,
79,
82,
82,
84,
84,
86,
86,
88,
88,
89,
89,
91,
91,
93,
93,
96,
96,
97,
97,
100,
100,
101,
101,
103,
103,
105,
105,
106,
106,
108,
108,
111,
111,
112,
112,
114,
114,
116,
116,
118,
-4,
2,
2,
1,
1,
0,
0,
1,
1,
1,
1,
1,
1,
1,
1,
0,
0,
0,
0,
1,
1,
1,
1,
1,
1,
0,
0,
1,
1,
1,
1,
0,
0,
0,
0,
1,
1,
1,
1,
0,
0,
0,
0,
0,
0,
1,
1,
0,
0,
0,
0,
2,
2,
0,
0,
2,
2,
0,
0,
1,
1,
1,
1,
1,
1,
0,
0,
1,
1,
0,
0,
1,
1,
1,
1,
0,
0,
0,
0,
0,
0,
0,
0,
0,
0,
1,
1,
0,
0,
0,
0,
0,
0,
0,
0,
2,
2,
1,
1,
0,
0,
0,
0,
0,
0,
1,
1,
0,
0,
0,
0,
0,
0,
1,
1,
1,
1,
1,
1,
0,
0,
0,
0,
1,
1,
1,
1,
2,
2,
3,
3,
6,
6,
7,
7,
9,
9,
10,
10,
13,
13,
14,
14,
16,
16,
19,
19,
20,
20,
22,
22,
24,
24,
26,
26,
28,
28,
30,
30,
32,
32,
32,
32,
35,
35,
37,
37,
39,
39,
40,
40,
43,
43,
44,
44,
48,
48,
48,
48,
50,
50,
53,
53,
56,
56,
57,
57,
59,
59,
61,
61,
63,
63,
64,
64,
66,
66,
68,
68,
70,
70,
72,
72,
74,
74,
76,
76,
78,
78,
80,
80,
82,
82,
83,
83,
86,
86,
87,
87,
89,
89,
92,
92,
93,
93,
94,
94,
96,
96,
99,
99,
102,
102,
103,
103,
106,
106,
107,
107,
108,
108,
110,
110,
112,
112,
114,
114,
116,
116,
117,
-4,
0,
0,
0,
0,
2,
2,
0,
0,
2,
2,
0,
0,
1,
1,
1,
1,
0,
0,
0,
0,
-1,
-1,
0,
0,
0,
0,
0,
0,
0,
0,
1,
1,
0,
0,
0,
0,
0,
0,
0,
0,
0,
0,
0,
0,
1,
1,
0,
0,
1,
1,
1,
1,
1,
1,
0,
0,
1,
1,
0,
0,
0,
0,
0,
0,
1,
1,
0,
0,
0,
0,
0,
0,
1,
1,
1,
1,
1,
1,
0,
0,
0,
0,
1,
1,
0,
0,
0,
0,
0,
0,
0,
0,
0,
0,
0,
0,
0,
0,
0,
0,
0,
0,
1,
1,
1,
1,
0,
0,
0,
0,
1,
1,
0,
0,
0,
0,
1,
1,
1,
1,
1,
1,
1,
1,
0,
0,
2,
2,
3,
3,
6,
6,
7,
7,
8,
8,
10,
10,
13,
13,
14,
14,
16,
16,
18,
18,
20,
20,
22,
22,
24,
24,
26,
26,
28,
28,
30,
30,
32,
32,
34,
34,
36,
36,
37,
37,
39,
39,
42,
42,
44,
44,
45,
45,
46,
46,
48,
48,
51,
51,
54,
54,
54,
54,
57,
57,
59,
59,
61,
61,
62,
62,
64,
64,
67,
67,
68,
68,
69,
69,
73,
73,
75,
75,
76,
76,
78,
78,
79,
79,
81,
81,
84,
84,
86,
86,
88,
88,
89,
89,
92,
92,
94,
94,
95,
95,
96,
96,
98,
98,
100,
100,
102,
102,
105,
105,
107,
107,
109,
109,
111,
111,
112,
112,
114,
114,
116,
116,
118,
-4,
0,
0,
0,
0,
1,
1,
0,
0,
1,
1,
0,
0,
1,
1,
1,
1,
0,
0,
0,
0,
1,
1,
1,
1,
1,
1,
1,
1,
1,
1,
0,
0,
0,
0,
1,
1,
1,
1,
0,
0,
0,
0,
0,
0,
1,
1,
1,
1,
0,
0,
0,
0,
1,
1,
1,
1,
0,
0,
1,
1,
0,
0,
1,
1,
0,
0,
1,
1,
1,
1,
1,
1,
1,
1,
1,
1,
0,
0,
0,
0,
1,
1,
2,
2,
1,
1,
0,
0,
0,
0,
1,
1,
0,
0,
1,
1,
0,
0,
0,
0,
1,
1,
0,
0,
0,
0,
0,
0,
0,
0,
0,
0,
0,
0,
1,
1,
0,
0,
0,
0,
1,
1,
0,
0,
1,
1,
1,
1,
3,
3,
6,
6,
6,
6,
9,
9,
11,
11,
12,
12,
13,
13,
16,
16,
18,
18,
20,
20,
22,
22,
23,
23,
25,
25,
28,
28,
29,
29,
32,
32,
34,
34,
36,
36,
37,
37,
39,
39,
42,
42,
42,
42,
44,
44,
47,
47,
48,
48,
50,
50,
52,
52,
54,
54,
57,
57,
58,
58,
60,
60,
62,
62,
64,
64,
66,
66,
68,
68,
70,
70,
72,
72,
74,
74,
76,
76,
78,
78,
80,
80,
81,
81,
84,
84,
85,
85,
88,
88,
89,
89,
92,
92,
93,
93,
95,
95,
96,
96,
100,
100,
101,
101,
102,
102,
104,
104,
106,
106,
108,
108,
111,
111,
113,
113,
114,
114,
116,
116,
118,
-4,
0,
0,
1,
1,
1,
1,
0,
0,
1,
1,
1,
1,
1,
1,
1,
1,
0,
0,
1,
1,
0,
0,
1,
1,
0,
0,
0,
0,
1,
1,
0,
0,
0,
0,
1,
1,
1,
1,
2,
2,
0,
0,
0,
0,
0,
0,
0,
0,
1,
1,
1,
1,
1,
1,
2,
2,
0,
0,
0,
0,
1,
1,
0,
0,
0,
0,
1,
1,
1,
1,
1,
1,
1,
1,
1,
1,
2,
2,
1,
1,
1,
1,
1,
1,
1,
1,
1,
1,
0,
0,
1,
1,
1,
1,
0,
0,
0,
0,
1,
1,
0,
0,
0,
0,
2,
2,
0,
0,
1,
1,
1,
1,
0,
0,
1,
1,
1,
1,
0,
0,
1,
1,
1,
1,
0,
0,
2,
2,
2,
2,
5,
5,
7,
7,
8,
8,
11,
11,
13,
13,
15,
15,
17,
17,
17,
17,
20,
20,
22,
22,
23,
23,
26,
26,
28,
28,
29,
29,
31,
31,
34,
34,
35,
35,
38,
38,
40,
40,
42,
42,
42,
42,
45,
45,
47,
47,
48,
48,
50,
50,
53,
53,
55,
55,
56,
56,
58,
58,
60,
60,
62,
62,
64,
64,
66,
66,
68,
68,
71,
71,
72,
72,
74,
74,
76,
76,
78,
78,
79,
79,
82,
82,
83,
83,
86,
86,
87,
87,
89,
89,
92,
92,
93,
93,
96,
96,
96,
96,
98,
98,
101,
101,
103,
103,
105,
105,
107,
107,
108,
108,
110,
110,
112,
112,
114,
114,
116,
116,
118,
-4,
0,
0,
1,
1,
0,
0,
0,
0,
0,
0,
1,
1,
1,
1,
1,
1,
1,
1,
1,
1,
1,
1,
1,
1,
1,
1,
0,
0,
1,
1,
1,
1,
1,
1,
1,
1,
0,
0,
1,
1,
0,
0,
0,
0,
0,
0,
1,
1,
0,
0,
0,
0,
1,
1,
1,
1,
0,
0,
1,
1,
0,
0,
0,
0,
2,
2,
0,
0,
0,
0,
0,
0,
2,
2,
0,
0,
0,
0,
0,
0,
1,
1,
0,
0,
1,
1,
1,
1,
0,
0,
0,
0,
0,
0,
0,
0,
0,
0,
0,
0,
0,
0,
1,
1,
0,
0,
2,
2,
1,
1,
1,
1,
1,
1,
0,
0,
2,
2,
1,
1,
0,
0,
0,
0,
1,
1,
1,
1,
2,
2,
4,
4,
7,
7,
9,
9,
10,
10,
12,
12,
14,
14,
15,
15,
19,
19,
20,
20,
22,
22,
24,
24,
26,
26,
28,
28,
29,
29,
32,
32,
33,
33,
35,
35,
38,
38,
39,
39,
41,
41,
43,
43,
46,
46,
47,
47,
49,
49,
50,
50,
52,
52,
54,
54,
56,
56,
59,
59,
60,
60,
62,
62,
63,
63,
66,
66,
68,
68,
70,
70,
72,
72,
74,
74,
76,
76,
79,
79,
80,
80,
82,
82,
83,
83,
86,
86,
88,
88,
89,
89,
92,
92,
93,
