4-transistorverstaerker/data/ALL0016/A0016CH1.CSV

Memory Length,4000,
Trigger Level,8.10000e+02,
Source,CH1,
Probe,1.0X,
Vertical Units,V,
Vertical Scale,2.00000e-02,
Vertical Position,-8.00000e-04,
Horizontal Units,S,
Horizontal Scale,5.00000e-04,
Horizontal Position,-6.8000000e-04,
Horizontal Mode,Main,
Sampling Period,2.00000e-06,
Firmware,V1.14,
Time, ,
Mode,Fast,
Waveform Data,
76,
76,
76,
76,
76,
74,
74,
74,
74,
73,
73,
71,
71,
72,
72,
71,
71,
72,
72,
72,
72,
69,
69,
69,
69,
67,
67,
67,
67,
68,
68,
62,
62,
65,
65,
65,
65,
64,
64,
63,
63,
64,
64,
64,
64,
63,
63,
58,
58,
63,
63,
58,
58,
57,
57,
56,
56,
54,
54,
54,
54,
54,
54,
53,
53,
51,
51,
50,
50,
49,
49,
44,
44,
43,
43,
49,
49,
44,
44,
41,
41,
41,
41,
38,
49,
38,
38,
35,
47,
38,
26,
38,
25,
36,
36,
32,
32,
29,
29,
27,
27,
29,
29,
25,
25,
24,
24,
22,
22,
22,
22,
21,
9,
17,
17,
17,
17,
3,
26,
12,
12,
12,
12,
11,
11,
5,
5,
5,
16,
11,
-4,
6,
6,
2,
2,
0,
0,
-2,
-2,
-2,
-13,
-1,
-1,
-3,
-3,
-4,
-4,
-7,
-7,
-11,
3,
-10,
-10,
-11,
-11,
-10,
-10,
-15,
-15,
-16,
-16,
-20,
-31,
-20,
-20,
-24,
-24,
-24,
-24,
-24,
-24,
-24,
-24,
-27,
-27,
-33,
-33,
-28,
-39,
-29,
-40,
-34,
-34,
-35,
-35,
-34,
-47,
-43,
-31,
-37,
-37,
-44,
-44,
-45,
-45,
-42,
-42,
-44,
-44,
-45,
-45,
-47,
-47,
-49,
-49,
-48,
-48,
-50,
-50,
-55,
-44,
-53,
-53,
-52,
-52,
-55,
-55,
-55,
-67,
-54,
-65,
-54,
-67,
-60,
-60,
-61,
-61,
-59,
-59,
-62,
-62,
-62,
-62,
-64,
-64,
-62,
-62,
-65,
-65,
-66,
-66,
-70,
-59,
-70,
-70,
-67,
-67,
-70,
-70,
-68,
-79,
-72,
-72,
-73,
-73,
-72,
-72,
-72,
-72,
-71,
-83,
-75,
-75,
-78,
-78,
-76,
-76,
-73,
-73,
-76,
-76,
-75,
-75,
-73,
-73,
-83,
-68,
-77,
-77,
-78,
-78,
-79,
-79,
-79,
-79,
-78,
-78,
-79,
-79,
-75,
-75,
-78,
-78,
-76,
-76,
-82,
-82,
-80,
-80,
-77,
-77,
-75,
-75,
-77,
-77,
-79,
-79,
-79,
-79,
-80,
-80,
-75,
-75,
-76,
-76,
-78,
-78,
-76,
-76,
-76,
-76,
-79,
-79,
-75,
-75,
-74,
-74,
-76,
-76,
-72,
-72,
-72,
-72,
-71,
-71,
-72,
-72,
-71,
-71,
-71,
-71,
-72,
-72,
-67,
-67,
-65,
-65,
-69,
-57,
-66,
-66,
-65,
-65,
-66,
-66,
-65,
-65,
-63,
-63,
-65,
-65,
-62,
-62,
-59,
-59,
-59,
-59,
-62,
-62,
-59,
-59,
-57,
-57,
-55,
-55,
-53,
-53,
-51,
-51,
-51,
-51,
-49,
-49,
-49,
-49,
-48,
-48,
-48,
-48,
-46,
-35,
-46,
-46,
-42,
-42,
-40,
-40,
-41,
-41,
-41,
-41,
-38,
-38,
-38,
-27,
-35,
-35,
-31,
-31,
-32,
-32,
-28,
-28,
-27,
-27,
-27,
-27,
-29,
-29,
-27,
-27,
-22,
-22,
-26,
-14,
-21,
-21,
-23,
-23,
-19,
-19,
-16,
-16,
-15,
-15,
-17,
-17,
-11,
-11,
-9,
-9,
-10,
-10,
-5,
-5,
-8,
3,
-3,
-3,
-3,
-3,
-1,
-1,
-2,
-2,
3,
3,
7,
7,
7,
7,
4,
21,
2,
16,
10,
10,
8,
20,
15,
15,
15,
15,
17,
17,
18,
18,
27,
12,
22,
22,
22,
22,
25,
25,
28,
28,
28,
28,
29,
29,
31,
31,
29,
29,
34,
34,
34,
34,
37,
37,
38,
38,
37,
51,
37,
37,
40,
40,
42,
42,
43,
43,
43,
43,
45,
45,
47,
47,
48,
60,
48,
48,
50,
50,
54,
54,
53,
53,
55,
55,
52,
52,
55,
55,
56,
56,
58,
58,
59,
59,
58,
58,
60,
60,
62,
62,
62,
62,
61,
61,
62,
62,
66,
66,
67,
67,
67,
67,
66,
66,
67,
67,
69,
69,
69,
69,
69,
69,
71,
71,
70,
70,
72,
72,
73,
73,
74,
74,
72,
72,
72,
72,
72,
72,
71,
71,
69,
80,
74,
74,
74,
74,
75,
75,
77,
77,
79,
79,
75,
75,
76,
76,
74,
74,
77,
77,
80,
69,
75,
75,
76,
76,
75,
75,
76,
76,
73,
73,
75,
75,
76,
76,
74,
74,
76,
76,
75,
75,
73,
73,
75,
75,
78,
66,
75,
75,
74,
74,
71,
71,
74,
74,
71,
71,
72,
72,
68,
68,
72,
60,
64,
64,
64,
76,
63,
63,
66,
66,
65,
65,
65,
65,
66,
66,
60,
60,
64,
64,
63,
63,
58,
58,
59,
59,
58,
58,
60,
60,
57,
57,
58,
58,
55,
55,
55,
55,
57,
57,
50,
50,
49,
49,
47,
47,
48,
48,
48,
48,
45,
45,
45,
45,
43,
43,
42,
42,
43,
43,
39,
39,
41,
41,
34,
34,
34,
34,
35,
35,
32,
32,
30,
17,
30,
30,
27,
27,
27,
27,
24,
24,
22,
22,
22,
22,
25,
12,
16,
16,
19,
19,
15,
15,
15,
15,
13,
13,
13,
13,
10,
10,
10,
10,
6,
6,
1,
1,
5,
5,
2,
13,
-1,
-1,
2,
2,
-4,
-4,
-2,
-2,
-3,
-3,
-6,
-6,
-9,
-9,
-12,
1,
-10,
-10,
-13,
-13,
-15,
-15,
-14,
-25,
-18,
-18,
-22,
-22,
-19,
-19,
-22,
-22,
-24,
-24,
-24,
-24,
-25,
-25,
-28,
-28,
-29,
-29,
-27,
-27,
-35,
-35,
-35,
-35,
-34,
-34,
-38,
-38,
-42,
-42,
-37,
-37,
-41,
-41,
-42,
-42,
-46,
-46,
-46,
-46,
-45,
-45,
-46,
-46,
-49,
-49,
-48,
-48,
-54,
-54,
-51,
-51,
-52,
-52,
-56,
-56,
-54,
-54,
-58,
-58,
-57,
-57,
-60,
-71,
-66,
-49,
-65,
-50,
-59,
-59,
-62,
-62,
-66,
-66,
-64,
-64,
-66,
-66,
-65,
-65,
-64,
-75,
-67,
-67,
-64,
-64,
-70,
-70,
-67,
-67,
-69,
-69,
-72,
-72,
-74,
-74,
-74,
-74,
-70,
-70,
-76,
-65,
-73,
-73,
-73,
-73,
-74,
-74,
-77,
-77,
-74,
-74,
-74,
-74,
-76,
-76,
-75,
-75,
-77,
-77,
-75,
-75,
-80,
-80,
-77,
-77,
-79,
-68,
-81,
-68,
-77,
-77,
-79,
-79,
-80,
-80,
-78,
-78,
-77,
-77,
-78,
-78,
-78,
-78,
-77,
-77,
-75,
-75,
-80,
-80,
-77,
-77,
-77,
-77,
-79,
-79,
-77,
-77,
-76,
-76,
-76,
-76,
-74,
-74,
-75,
-75,
-73,
-73,
-78,
-78,
-74,
-74,
-71,
-71,
-75,
-75,
-68,
-68,
-73,
-73,
-68,
-68,
-69,
-69,
-69,
-69,
-65,
-65,
-67,
-67,
-67,
-67,
-67,
-67,
-65,
-65,
-65,
-65,
-64,
-64,
-61,
-61,
-62,
-62,
-62,
-62,
-61,
-61,
-55,
-67,
-52,
-64,
-55,
-55,
-55,
-55,
-50,
-50,
-54,
-54,
-49,
-49,
-49,
-49,
-50,
-50,
-47,
-47,
-45,
-45,
-46,
-35,
-44,
-44,
-42,
-42,
-42,
-42,
-39,
-39,
-40,
-40,
-34,
-34,
-34,
-34,
-35,
-35,
-33,
-33,
-30,
-30,
-31,
-31,
-30,
-30,
-30,
-12,
-15,
-35,
-25,
-25,
-22,
-22,
-24,
-24,
-22,
-22,
-20,
-20,
-16,
-16,
-15,
-15,
-10,
-21,
-12,
-12,
-13,
-13,
-9,
2,
-11,
-11,
-7,
-7,
-2,
-2,
-3,
-3,
0,
0,
3,
3,
5,
5,
5,
5,
3,
3,
8,
8,
-3,
19,
12,
12,
13,
13,
17,
17,
16,
16,
17,
17,
20,
9,
17,
17,
21,
21,
21,
33,
24,
24,
23,
23,
26,
26,
29,
29,
29,
29,
29,
29,
32,
32,
35,
35,
33,
45,
35,
35,
35,
35,
39,
39,
40,
40,
38,
38,
42,
42,
44,
44,
46,
46,
48,
48,
47,
58,
53,
53,
49,
49,
54,
54,
53,
53,
57,
57,
54,
54,
55,
55,
57,
57,
56,
56,
59,
59,
60,
60,
62,
62,
61,
61,
62,
62,
64,
52,
64,
64,
64,
64,
67,
67,
67,
67,
66,
66,
68,
68,
65,
76,
68,
68,
67,
67,
70,
70,
68,
68,
72,
72,
70,
70,
76,
76,
76,
76,
73,
73,
73,
73,
75,
64,
75,
75,
73,
73,
72,
72,
74,
74,
74,
74,
74,
74,
76,
76,
75,
75,
79,
79,
78,
78,
76,
76,
74,
74,
74,
85,
77,
77,
77,
77,
75,
75,
73,
73,
77,
77,
73,
73,
80,
80,
75,
64,
74,
74,
78,
66,
75,
75,
71,
71,
75,
75,
73,
73,
72,
72,
71,
71,
72,
72,
70,
70,
69,
69,
71,
71,
69,
69,
65,
65,
68,
68,
67,
67,
67,
67,
63,
63,
66,
66,
60,
60,
62,
62,
60,
60,
59,
59,
62,
50,
58,
58,
60,
47,
54,
54,
54,
54,
56,
56,
53,
53,
53,
53,
52,
52,
51,
51,
49,
49,
49,
49,
46,
46,
45,
45,
48,
48,
44,
44,
44,
44,
40,
40,
41,
41,
40,
28,
35,
35,
33,
33,
32,
32,
33,
33,
29,
29,
28,
28,
28,
28,
27,
27,
25,
25,
22,
22,
24,
24,
22,
22,
17,
29,
13,
13,
15,
15,
14,
14,
11,
11,
11,
11,
13,
13,
9,
9,
7,
7,
13,
-9,
2,
16,
-1,
-1,
2,
2,
-3,
-3,
-3,
-3,
-6,
-6,
-6,
-6,
-10,
-10,
-13,
3,
-11,
-22,
-14,
-14,
-13,
-13,
-15,
-15,
-16,
-16,
-19,
-19,
-20,
-20,
-21,
-32,
-23,
-23,
-22,
-22,
-25,
-25,
-30,
-30,
-32,
-32,
-33,
-21,
-27,
-40,
-36,
-25,
-33,
-45,
-39,
-39,
-40,
-40,
-41,
-41,
-41,
-41,
-41,
-41,
-42,
-42,
-40,
-40,
-43,
-43,
-47,
-47,
-48,
-48,
-49,
-49,
-49,
-49,
-53,
-53,
-55,
-55,
-55,
-55,
-56,
-56,
-53,
-65,
-58,
-58,
-60,
-60,
-60,
-60,
-62,
-62,
-60,
-60,
-64,
-64,
-67,
-67,
-62,
-62,
-65,
-65,
-66,
-66,
-66,
-78,
-69,
-57,
-65,
-65,
-70,
-70,
-69,
-69,
-76,
-65,
-71,
-71,
-70,
-70,
-72,
-72,
-73,
-73,
-70,
-70,
-76,
-62,
-71,
-71,
-75,
-75,
-75,
-75,
-78,
-78,
-78,
-78,
-78,
-78,
-77,
-77,
-80,
-80,
-77,
-77,
-71,
-85,
-76,
-76,
-77,
-77,
-78,
-78,
-76,
-76,
-76,
-76,
-79,
-79,
-78,
-78,
-77,
-77,
-79,
-79,
-78,
-78,
-76,
-76,
-78,
-67,
-79,
-79,
-77,
-77,
-78,
-78,
-76,
-76,
-68,
-86,
-73,
-73,
-75,
-75,
-74,
-74,
-75,
-75,
-75,
-75,
-75,
-75,
-72,
-72,
-71,
-71,
-74,
-74,
-70,
-70,
-71,
-58,
-68,
-68,
-71,
-71,
-70,
-70,
-66,
-77,
-63,
-63,
-63,
-63,
-66,
-66,
-68,
-68,
-66,
-66,
-61,
-61,
-61,
-61,
-62,
-62,
-43,
-75,
-63,
-50,
-58,
-58,
-59,
-48,
-55,
-55,
-55,
-55,
-55,
-55,
-51,
-51,
-52,
-52,
-52,
-52,
-50,
-50,
-49,
-49,
-46,
-46,
-48,
-35,
-45,
-45,
-42,
-42,
-43,
-43,
-36,
-36,
-37,
-37,
-39,
-39,
-36,
-36,
-35,
-35,
-33,
-33,
-31,
-43,
-35,
-35,
-31,
-31,
-28,
-28,
-31,
-31,
-23,
-23,
-21,
-21,
-22,
-22,
-21,
-21,
-19,
-19,
-18,
-18,
-14,
-14,
-14,
-14,
-14,
-14,
-13,
-13,
-8,
-8,
-12,
-12,
-4,
-4,
-9,
7,
-20,
16,
-37,
27,
-3,
8,
-4,
9,
2,
2,
3,
3,
6,
6,
19,
-4,
9,
9,
10,
10,
12,
12,
36,
-5,
-20,
46,
15,
27,
17,
17,
17,
17,
23,
23,
22,
22,
22,
22,
24,
24,
28,
28,
29,
29,
12,
51,
-2,
63,
37,
26,
32,
45,
38,
27,
35,
35,
38,
38,
42,
42,
43,
43,
37,
37,
41,
41,
43,
43,
48,
36,
46,
46,
50,
39,
45,
59,
52,
52,
58,
45,
54,
54,
54,
54,
55,
55,
57,
57,
60,
60,
57,
69,
56,
67,
59,
59,
60,
60,
61,
61,
62,
62,
65,
65,
66,
66,
62,
62,
67,
67,
64,
64,
65,
65,
66,
77,
68,
68,
70,
70,
76,
64,
71,
71,
71,
71,
70,
70,
71,
86,
74,
74,
77,
65,
73,
73,
72,
72,
76,
76,
76,
76,
74,
74,
75,
75,
72,
72,
75,
75,
75,
75,
75,
75,
76,
76,
74,
74,
74,
74,
79,
79,
77,
77,
77,
77,
74,
74,
76,
76,
73,
73,
74,
88,
73,
73,
76,
76,
73,
73,
75,
63,
73,
73,
74,
74,
72,
72,
75,
75,
70,
70,
71,
71,
70,
70,
79,
61,
65,
83,
66,
66,
70,
55,
65,
65,
71,
71,
66,
66,
68,
68,
65,
65,
60,
60,
63,
63,
62,
62,
73,
54,
62,
62,
48,
76,
58,
58,
59,
59,
55,
55,
57,
57,
57,
57,
53,
53,
55,
55,
51,
51,
51,
62,
54,
43,
50,
50,
49,
49,
47,
47,
45,
45,
45,
45,
43,
43,
41,
52,
40,
40,
39,
39,
39,
39,
35,
35,
32,
32,
32,
32,
33,
33,
34,
23,
31,
31,
28,
28,
26,
26,
24,
24,
24,
12,
27,
16,
20,
20,
16,
16,
-2,
36,
-15,
47,
17,
6,
10,
10,
10,
10,
13,
13,
9,
9,
7,
-4,
5,
5,
3,
3,
1,
1,
-13,
17,
-36,
33,
0,
0,
-3,
-3,
-5,
-5,
-7,
-7,
-8,
-8,
-12,
1,
-11,
-11,
-21,
-6,
-14,
-14,
-37,
2,
-53,
13,
-16,
-28,
-20,
-20,
-19,
-19,
-25,
-14,
-20,
-33,
-26,
-26,
-31,
-31,
-30,
-30,
-30,
-30,
-34,
-34,
-35,
-35,
-36,
-36,
-36,
-36,
-36,
-36,
-38,
-38,
-41,
-30,
-41,
-41,
-44,
-44,
-45,
-45,
-47,
-47,
-45,
-45,
-48,
-48,
-47,
-47,
-49,
-49,
-56,
-45,
-54,
-54,
-53,
-53,
-54,
-54,
-58,
-47,
-57,
-57,
-59,
-59,
-57,
-57,
-56,
-67,
-64,
-64,
-73,
-51,
-64,
-64,
-62,
-75,
-62,
-78,
-66,
-66,
-67,
-67,
-63,
-63,
-68,
-68,
-72,
-72,
-69,
-69,
-72,
-72,
-74,
-74,
-74,
-74,
-69,
-81,
-78,
-63,
-68,
-84,
-69,
-80,
-73,
-73,
-75,
-75,
-75,
-75,
-72,
-83,
-75,
-75,
-76,
-76,
-74,
-74,
-76,
-76,
-75,
-75,
-76,
-76,
-77,
-77,
-81,
-64,
-77,
-77,
-77,
-77,
-82,
-82,
-76,
-76,
-80,
-80,
-79,
-79,
-80,
-80,
-76,
-76,
-80,
-80,
-78,
-78,
-77,
-77,
-81,
-81,
-77,
-77,
-78,
-78,
-77,
-77,
-73,
-73,
-75,
-75,
-73,
-84,
-76,
-76,
-77,
-77,
-75,
-75,
-75,
-75,
-72,
-72,
-72,
-72,
-70,
-70,
-69,
-69,
-67,
-67,
-68,
-68,
-69,
-69,
-67,
-67,
-68,
-68,
-60,
-73,
-65,
-65,
-62,
-62,
-61,
-61,
-82,
-42,
-47,
-90,
-59,
-59,
-63,
-63,
-59,
-59,
-58,
-58,
-58,
-58,
-56,
-56,
-57,
-57,
-55,
-55,
-51,
-51,
-83,
-23,
-65,
-39,
-52,
-39,
-54,
-40,
-48,
-48,
-45,
-45,
-46,
-46,
-43,
-43,
-42,
-42,
-41,
-41,
-40,
-40,
-34,
-34,
-67,
-12,
-39,
-27,
-33,
-33,
-34,
-34,
-28,
-39,
-25,
-25,
-29,
-29,
-26,
-26,
-21,
-21,
-22,
-22,
-22,
-22,
-21,
-21,
-20,
-20,
-19,
-19,
-13,
-13,
-15,
-15,
-14,
-14,
-12,
-12,
-9,
-9,
-9,
-9,
-3,
-3,
-4,
-4,
-3,
-3,
-5,
7,
-2,
-2,
-1,
-1,
5,
5,
5,
5,
9,
9,
-1,
23,
9,
9,
11,
11,
15,
15,
11,
11,
18,
18,
18,
18,
20,
20,
21,
21,
22,
22,
26,
26,
23,
34,
22,
35,
26,
40,
23,
38,
27,
39,
35,
35,
34,
34,
33,
33,
38,
38,
39,
39,
41,
41,
38,
38,
42,
42,
40,
40,
43,
43,
63,
34,
46,
46,
50,
50,
50,
50,
48,
48,
52,
52,
52,
52,
53,
53,
55,
55,
56,
56,
55,
55,
60,
60,
60,
60,
47,
73,
58,
71,
62,
62,
64,
64,
63,
63,
67,
67,
65,
65,
63,
63,
64,
64,
62,
62,
68,
68,
66,
66,
70,
70,
68,
68,
72,
72,
70,
70,
70,
70,
70,
70,
70,
70,
73,
73,
74,
74,
73,
73,
77,
77,
73,
73,
75,
75,
76,
76,
77,
77,
77,
77,
78,
78,
75,
75,
74,
74,
82,
70,
77,
77,
79,
79,
76,
76,
77,
77,
75,
86,
95,
49,
72,
85,
77,
77,
75,
75,
71,
71,
78,
78,
75,
75,
74,
74,
76,
76,
74,
74,
72,
72,
44,
94,
65,
83,
65,
80,
70,
70,
72,
72,
71,
71,
68,
68,
70,
70,
66,
66,
69,
69,
69,
69,
79,
53,
40,
84,
65,
65,
66,
66,
65,
65,
64,
64,
64,
64,
64,
64,
58,
58,
61,
61,
58,
58,
58,
58,
56,
56,
54,
54,
52,
52,
52,
52,
53,
53,
50,
50,
49,
49,
49,
49,
49,
49,
45,
45,
45,
45,
45,
33,
42,
42,
41,
41,
39,
39,
39,
39,
35,
35,
35,
35,
34,
34,
35,
24,
30,
30,
30,
30,
29,
29,
24,
24,
23,
23,
23,
23,
21,
21,
23,
12,
20,
20,
22,
7,
16,
16,
14,
26,
8,
8,
14,
14,
11,
11,
8,
8,
6,
6,
8,
8,
4,
-7,
4,
4,
2,
2,
-2,
-2,
-5,
-5,
-5,
-17,
-14,
6,
-4,
-15,
-6,
-23,
-5,
-17,
-12,
-12,
-12,
-12,
-17,
-17,
-17,
-17,
-22,
-22,
-23,
-23,
-21,
-21,
-21,
-21,
-25,
-25,
-14,
-39,
-33,
-18,
-30,
-30,
-31,
-31,
-28,
-40,
-33,
-33,
-34,
-34,
-34,
-34,
-37,
-37,
-40,
-40,
-39,
-39,
-39,
-39,
-43,
-43,
-44,
-44,
-46,
-46,
-46,
-46,
-47,
-47,
-48,
-48,
-51,
-51,
-51,
-51,
-54,
-54,
-49,
-60,
-54,
-54,
-55,
-55,
-56,
-56,
-58,
-58,
-58,
-58,
-57,
-57,
-62,
-62,
-63,
-63,
-64,
-64,
-64,
-64,
-62,
-73,
-68,
-68,
-65,
-65,
-68,
-68,
-65,
-79,
-67,
-67,
-67,
-67,
-67,
-67,
-68,
-68,
-90,
-52,
-50,
-93,
-73,
-73,
-72,
-72,
-73,
-73,
-75,
-75,
-72,
-84,
-78,
-78,
-75,
-75,
-79,
-68,
-78,
-78,
-96,
-59,
-61,
-100,
-76,
-76,
-78,
-78,
-77,
-77,
-78,
-78,
-77,
-77,
-75,
-75,
-78,
-78,
-77,
-77,
-80,
-80,
-79,
-79,
-105,
-57,
-78,
-78,
-78,
-78,
-79,
-79,
-79,
-79,
-71,
-82,
-79,
-79,
-75,
-75,
-78,
-78,
-77,
-77,
-79,
-79,
-73,
-73,
-77,
-77,
-77,
-77,
-72,
-72,
-75,
-75,
-73,
-73,
-75,
-75,
-72,
-61,
-69,
-69,
-70,
-70,
-72,
-59,
-68,
-68,
-66,
-66,
-66,
-66,
-66,
-66,
-65,
-65,
-66,
-66,
-60,
-60,
-65,
-65,
-62,
-62,
-61,
-61,
-60,
-60,
-60,
-60,
-58,
-58,
-55,
-55,
-56,
-56,
-44,
-66,
-50,
-69,
-48,
-48,
-53,
-53,
-52,
-52,
-51,
-40,
-47,
-47,
-47,
-47,
-47,
-47,
-47,
-47,
-42,
-42,
-41,
-41,
-44,
-44,
-41,
-25,
-37,
-48,
-37,
-37,
-35,
-35,
-36,
-36,
-31,
-31,
-32,
-32,
-33,
-22,
-36,
-20,
-28,
-28,
-21,
-33,
-25,
-25,
-23,
-23,
-21,
-21,
-15,
-29,
-19,
-19,
-18,
-18,
-17,
-6,
-11,
-11,
-14,
-1,
-5,
-5,
-9,
-9,
-7,
-7,
-8,
-8,
-4,
-4,
-3,
-3,
0,
0,
2,
2,
3,
3,
5,
5,
5,
5,
-5,
19,
5,
19,
12,
12,
10,
10,
13,
13,
13,
24,
19,
19,
20,
20,
18,
18,
21,
21,
20,
20,
25,
25,
27,
27,
28,
28,
30,
30,
32,
32,
34,
34,
30,
41,
34,
34,
35,
35,
36,
25,
34,
45,
39,
39,
38,
38,
44,
44,
44,
44,
43,
43,
47,
47,
48,
48,
50,
50,
52,
52,
48,
48,
52,
52,
52,
65,
49,
60,
56,
56,
54,
54,
56,
56,
58,
58,
58,
58,
56,
56,
39,
80,
79,
40,
62,
62,
67,
56,
61,
61,
68,
68,
66,
66,
68,
68,
66,
66,
70,
70,
69,
69,
66,
81,
81,
49,
69,
69,
71,
71,
69,
69,
71,
71,
73,
73,
71,
71,
71,
71,
74,
74,
75,
75,
73,
85,
94,
48,
74,
85,
73,
84,
74,
74,
73,
73,
76,
76,
73,
85,
74,
74,
76,
76,
78,
78,
76,
76,
74,
74,
79,
79,
76,
76,
79,
79,
79,
79,
71,
82,
74,
74,
75,
75,
69,
80,
76,
62,
70,
86,
78,
66,
72,
72,
73,
73,
71,
71,
70,
70,
71,
71,
73,
73,
69,
69,
74,
63,
68,
68,
70,
58,
65,
78,
76,
46,
71,
58,
70,
58,
61,
61,
64,
64,
64,
64,
62,
62,
61,
61,
59,
59,
58,
58,
60,
60,
56,
56,
57,
57,
58,
45,
52,
52,
54,
54,
52,
52,
50,
50,
46,
59,
50,
50,
48,
48,
46,
46,
44,
44,
42,
42,
44,
44,
39,
39,
41,
41,
39,
39,
38,
38,
35,
35,
34,
34,
36,
23,
28,
28,
29,
29,
26,
26,
27,
27,
27,
27,
23,
23,
20,
20,
19,
19,
18,
18,
19,
19,
18,
18,
16,
16,
16,
16,
8,
8,
10,
10,
9,
9,
10,
10,
2,
2,
7,
-6,
3,
3,
0,
0,
-2,
-2,
0,
0,
-2,
-2,
-6,
-6,
-4,
-15,
-8,
-8,
4,
-22,
-11,
-11,
-14,
-14,
-18,
-18,
-13,
-26,
-20,
-20,
-16,
-31,
-40,
-4,
-5,
-40,
-27,
-16,
-27,
-27,
-28,
-28,
-28,
-28,
-33,
-33,
-35,
-22,
-33,
-33,
-33,
-33,
-34,
-34,
-64,
-20,
-43,
-29,
-43,
-43,
-46,
-46,
-42,
-42,
-44,
-44,
-45,
-45,
-45,
-45,
-49,
-49,
-44,
-44,
-50,
-50,
-53,
-41,
-40,
-77,
-49,
-61,
-52,
-52,
-53,
-53,
-53,
-64,
-59,
-59,
-59,
-48,
-58,
-58,
-57,
-57,
-62,
-62,
-64,
-64,
-64,
-64,
-64,
-64,
-64,
-64,
-66,
-66,
-69,
-69,
-65,
-65,
-66,
-66,
-66,
-66,
-67,
-67,
-67,
-67,
-69,
-69,
-72,
-72,
-72,
-72,
-73,
-86,
-85,
-60,
-69,
-81,
-77,
-77,
-74,
-74,
-76,
-76,
-77,
-77,
-78,
-78,
-77,
-77,
-75,
-75,
-77,
-77,
-77,
-77,
-76,
-76,
-64,
-92,
-76,
-92,
-78,
-78,
-78,
-78,
-79,
-68,
-79,
-79,
-80,
-80,
-75,
-75,
-76,
-76,
-77,
-77,
-78,
-78,
-78,
-78,
-77,
-77,
-75,
-88,
-70,
-88,
-77,
-77,
-77,
-66,
-73,
-73,
-75,
-75,
-75,
-75,
-73,
-73,
-77,
-66,
-72,
-72,
-72,
-72,
-72,
-72,
-74,
-74,
-72,
-72,
-69,
-69,
-70,
-70,
-69,
-69,
-68,
-68,
-67,
-67,
-66,
-66,
-61,
-74,
-65,
-65,
-63,
-63,
-62,
-62,
-62,
-62,
-61,
-61,
-63,
-63,
-64,
-50,
-57,
-57,
-58,
-58,
-61,
-49,
-55,
-55,
-55,
-55,
-55,
-55,
-51,
-51,
-49,
-49,
-46,
-46,
-47,
-47,
-46,
-46,
-46,
-46,
-41,
-55,
-43,
-43,
-44,
-44,
-40,
-40,
-40,
-40,
-38,
-38,
-39,
-39,
-33,
-33,
-37,
-37,
-35,
-35,
-34,
-34,
-30,
-30,
-37,
-19,
-30,
-30,
-27,
-27,
-25,
-25,
-23,
-23,
-37,
-4,
-27,
-10,
-17,
-17,
-17,
-17,
-17,
-17,
-17,
-17,
-13,
-13,
-11,
-11,
-11,
-11,
-9,
-9,
-5,
-5,
-15,
12,
-4,
-4,
-2,
-2,
2,
2,
4,
4,
6,
6,
2,
2,
7,
7,
8,
-3,
10,
10,
11,
11,
12,
24,
-1,
27,
18,
18,
16,
16,
17,
17,
18,
29,
23,
23,
24,
24,
24,
24,
25,
25,
25,
25,
30,
30,
30,
30,
28,
42,
32,
32,
36,
36,
35,
35,
37,
37,
37,
37,
42,
42,
41,
41,
40,
40,
43,
43,
42,
56,
45,
57,
55,
40,
47,
47,
51,
51,
51,
51,
50,
50,
55,
55,
55,
55,
59,
59,
55,
55,
60,
60,
59,
59,
54,
71,
68,
51,
63,
63,
63,
52,
63,
63,
67,
67,
64,
64,
66,
66,
67,
67,
65,
65,
69,
69,
69,
69,
69,
69,
71,
71,
70,
70,
67,
67,
71,
71,
74,
74,
71,
71,
73,
73,
75,
75,
73,
73,
71,
82,
73,
73,
73,
73,
77,
77,
74,
74,
75,
75,
75,
75,
70,
82,
77,
77,
78,
78,
75,
86,
73,
73,
75,
75,
74,
74,
74,
74,
77,
77,
71,
71,
74,
74,
73,
73,
72,
84,
76,
76,
74,
74,
77,
77,
74,
74,
72,
72,
73,
73,
69,
69,
73,
73,
70,
70,
73,
73,
70,
57,
68,
68,
67,
67,
68,
68,
68,
68,
68,
68,
66,
66,
65,
65,
66,
66,
62,
62,
62,
62,
61,
61,
62,
62,
64,
64,
57,
57,
61,
61,
61,
61,
57,
57,
57,
57,
55,
55,
55,
44,
58,
46,
49,
49,
52,
52,
52,
52,
47,
47,
46,
46,
45,
45,
44,
44,
45,
45,
44,
44,
42,
42,
42,
42,
42,
31,
39,
39,
36,
36,
33,
33,
17,
49,
22,
45,
29,
29,
30,
30,
29,
29,
28,
28,
24,
24,
26,
14,
27,
13,
17,
17,
19,
19,
-1,
33,
2,
29,
12,
12,
14,
14,
13,
13,
10,
10,
17,
-2,
6,
6,
0,
0,
5,
5,
2,
2,
0,
0,
6,
-18,
-3,
-3,
-3,
-15,
-10,
2,
-9,
-9,
-4,
-19,
-7,
-18,
-12,
-12,
-15,
-15,
-14,
-14,
-20,
-20,
-17,
-17,
-21,
-21,
-21,
-21,
-23,
-23,
-25,
-37,
-20,
-38,
-30,
-18,
-28,
-28,
-29,
-29,
-33,
-33,
-29,
-29,
-34,
-34,
-35,
-35,
-36,
-36,
-37,
-37,
-40,
-53,
-41,
-41,
-43,
-43,
-38,
-56,
-40,
-53,
-43,
-43,
-47,
-47,
-49,
-49,
-48,
-48,
-51,
-51,
-52,
-64,
-62,
-43,
-54,
-54,
-57,
-57,
-58,
-58,
-61,
-61,
-59,
-59,
-59,
-59,
-61,
-61,
-57,
-68,
-65,
-65,
-64,
-64,
-67,
-67,
-66,
-66,
-66,
-66,
-64,
-64,
-68,
-68,
-68,
-68,
-71,
-71,
-70,
