1-signale-auf-leitern/data/ALL0007/A0007CH1.CSV

Memory Length,4000,
Trigger Level,3.80000e+01,
Source,CH1,
Probe,1.0X,
Vertical Units,V,
Vertical Scale,5.00000e-02,
Vertical Position,0.00000e+00,
Horizontal Units,S,
Horizontal Scale,1.00000e-07,
Horizontal Position,3.8400000e-07,
Horizontal Mode,Main,
Sampling Period,2.00000e-09,
Firmware,V1.14,
Time, ,
Mode,Fast,
Waveform Data,
9,
9,
9,
9,
10,
10,
9,
9,
9,
9,
9,
7,
8,
9,
8,
9,
8,
8,
9,
8,
9,
9,
8,
8,
9,
9,
8,
8,
8,
8,
6,
5,
6,
5,
3,
4,
4,
4,
2,
2,
2,
1,
2,
1,
3,
2,
1,
1,
2,
2,
1,
2,
2,
4,
4,
4,
5,
5,
5,
7,
6,
8,
9,
8,
9,
10,
8,
8,
10,
10,
9,
8,
8,
9,
9,
8,
8,
8,
6,
7,
6,
8,
7,
7,
8,
9,
7,
7,
8,
8,
6,
7,
6,
7,
5,
5,
6,
5,
4,
4,
4,
4,
3,
3,
3,
3,
2,
3,
3,
3,
2,
2,
2,
2,
2,
1,
3,
4,
4,
4,
4,
4,
6,
6,
6,
7,
6,
6,
8,
8,
8,
8,
8,
9,
9,
7,
8,
8,
8,
8,
8,
8,
6,
7,
6,
7,
6,
7,
7,
7,
6,
6,
6,
5,
6,
6,
6,
7,
6,
4,
6,
4,
4,
4,
5,
4,
3,
2,
3,
3,
2,
3,
3,
2,
2,
2,
2,
2,
2,
2,
2,
3,
4,
3,
4,
4,
5,
5,
5,
5,
5,
5,
8,
8,
6,
5,
7,
8,
8,
8,
8,
8,
7,
7,
7,
7,
6,
7,
6,
5,
6,
5,
6,
6,
6,
6,
6,
5,
5,
5,
6,
5,
5,
5,
4,
4,
4,
3,
4,
4,
4,
3,
3,
4,
3,
3,
3,
3,
2,
2,
2,
4,
2,
2,
2,
3,
3,
4,
4,
5,
5,
5,
6,
5,
6,
7,
6,
7,
6,
7,
7,
9,
6,
8,
8,
7,
6,
7,
6,
6,
6,
5,
6,
6,
6,
5,
5,
6,
6,
5,
6,
5,
5,
5,
4,
5,
2,
5,
4,
4,
4,
4,
4,
4,
5,
3,
4,
4,
2,
3,
3,
3,
2,
3,
4,
4,
2,
2,
4,
4,
4,
4,
4,
4,
4,
4,
5,
6,
6,
7,
6,
8,
6,
5,
5,
7,
6,
7,
6,
8,
5,
5,
6,
6,
6,
5,
6,
5,
5,
5,
5,
5,
6,
5,
6,
5,
4,
5,
4,
4,
4,
4,
4,
4,
4,
5,
4,
4,
5,
4,
4,
4,
2,
4,
4,
3,
3,
3,
3,
4,
3,
3,
2,
4,
4,
4,
4,
5,
4,
4,
5,
5,
5,
5,
5,
6,
6,
5,
6,
7,
6,
5,
6,
7,
6,
6,
6,
5,
5,
5,
5,
5,
5,
5,
4,
5,
4,
5,
5,
5,
4,
3,
4,
5,
5,
4,
3,
4,
5,
3,
3,
4,
4,
4,
4,
4,
2,
2,
4,
4,
2,
3,
3,
4,
2,
3,
3,
4,
3,
3,
4,
5,
5,
4,
5,
5,
5,
5,
5,
5,
5,
5,
5,
5,
5,
5,
5,
5,
6,
5,
6,
6,
6,
5,
5,
4,
5,
5,
5,
5,
5,
4,
4,
4,
3,
4,
4,
4,
2,
3,
4,
5,
6,
3,
3,
4,
4,
4,
3,
4,
2,
3,
3,
4,
2,
3,
4,
4,
4,
4,
4,
4,
2,
3,
4,
5,
2,
2,
4,
4,
3,
5,
5,
5,
5,
5,
4,
5,
5,
5,
5,
5,
5,
5,
5,
5,
5,
5,
5,
5,
5,
3,
4,
4,
3,
3,
4,
5,
5,
3,
4,
5,
3,
2,
3,
4,
3,
3,
3,
4,
2,
3,
4,
4,
2,
3,
4,
4,
2,
3,
3,
3,
2,
1,
3,
3,
3,
3,
5,
5,
4,
3,
5,
5,
4,
4,
4,
5,
5,
5,
5,
5,
4,
3,
0,
-11,
-26,
-41,
-48,
-46,
-42,
-38,
-33,
-28,
-25,
-18,
-14,
-11,
-8,
-7,
-4,
-4,
-4,
-1,
0,
1,
0,
0,
2,
1,
1,
1,
2,
2,
4,
7,
10,
13,
13,
12,
6,
2,
-3,
-1,
-1,
-1,
-2,
-1,
-2,
0,
0,
1,
2,
2,
2,
3,
3,
4,
2,
4,
4,
3,
4,
5,
2,
1,
-6,
-16,
-34,
-48,
-60,
-68,
-70,
-68,
-63,
-58,
-51,
-43,
-39,
-33,
-27,
-24,
-22,
-15,
-15,
-12,
-11,
-8,
-7,
-4,
-4,
-3,
-2,
-3,
-2,
0,
2,
4,
8,
15,
19,
19,
16,
12,
5,
0,
-5,
-6,
-8,
-8,
-8,
-6,
-4,
-4,
-4,
-3,
-3,
-2,
0,
0,
0,
2,
1,
2,
2,
2,
2,
1,
-2,
-8,
-13,
-19,
-28,
-38,
-43,
-48,
-50,
-50,
-51,
-47,
-44,
-40,
-36,
-33,
-27,
-23,
-22,
-17,
-16,
-15,
-15,
-11,
-9,
-9,
-8,
-7,
-5,
-4,
-3,
0,
3,
8,
12,
16,
18,
20,
15,
9,
4,
-1,
-4,
-7,
-9,
-10,
-9,
-8,
-8,
-7,
-7,
-4,
-4,
-3,
-3,
-3,
-2,
-2,
-2,
1,
0,
0,
-1,
-4,
-6,
-12,
-16,
-19,
-24,
-29,
-32,
-35,
-36,
-38,
-39,
-37,
-36,
-34,
-33,
-31,
-26,
-23,
-22,
-20,
-18,
-19,
-16,
-13,
-12,
-12,
-9,
-8,
-6,
-4,
-4,
0,
4,
8,
10,
15,
15,
16,
12,
9,
4,
-1,
-3,
-6,
-9,
-11,
-11,
-10,
-9,
-9,
-8,
-7,
-6,
-6,
-6,
-5,
-5,
-3,
-3,
-2,
-2,
-3,
-4,
-7,
-10,
-15,
-18,
-18,
-20,
-23,
-26,
-24,
-27,
-28,
-30,
-29,
-30,
-29,
-30,
-27,
-25,
-23,
-22,
-19,
-19,
-18,
-18,
-14,
-13,
-12,
-11,
-9,
-7,
-6,
-3,
1,
3,
7,
10,
11,
11,
11,
10,
7,
4,
1,
-3,
-3,
-6,
-8,
-10,
-10,
-10,
-10,
-9,
-7,
-8,
-6,
-7,
-6,
-6,
-6,
-6,
-3,
-5,
-8,
-8,
-10,
-12,
-14,
-18,
-15,
-18,
-19,
-20,
-19,
-20,
-21,
-23,
-24,
-23,
-24,
-24,
-23,
-22,
-22,
-22,
-19,
-18,
-19,
-18,
-14,
-14,
-13,
-10,
-11,
-8,
-5,
-4,
0,
3,
5,
6,
8,
8,
7,
5,
5,
3,
1,
-1,
-3,
-5,
-8,
-7,
-8,
-9,
-9,
-8,
-7,
-8,
-8,
-7,
-7,
-7,
-9,
-7,
-6,
-8,
-11,
-10,
-11,
-12,
-13,
-18,
-15,
-16,
-17,
-16,
-15,
-16,
-17,
-19,
-19,
-20,
-19,
-22,
-19,
-20,
-20,
-19,
-18,
-17,
-18,
-17,
-15,
-14,
-12,
-11,
-9,
-6,
-5,
-3,
0,
2,
2,
2,
4,
4,
3,
2,
3,
2,
1,
0,
-2,
-4,
-4,
-7,
-6,
-8,
-9,
-9,
-7,
-9,
-9,
-8,
-8,
-8,
-9,
-9,
-7,
-9,
-14,
-11,
-12,
-13,
-13,
-16,
-13,
-14,
-15,
-14,
-13,
-14,
-15,
-16,
-15,
-15,
-17,
-18,
-17,
-17,
-18,
-19,
-16,
-16,
-17,
-16,
-13,
-12,
-11,
-11,
-8,
-8,
-6,
-4,
-2,
0,
1,
0,
1,
2,
2,
1,
1,
0,
-1,
-2,
-2,
-2,
-4,
-6,
-5,
-6,
-9,
-10,
-7,
-8,
-9,
-8,
-7,
-8,
-11,
-10,
-8,
-11,
-13,
-14,
-12,
-13,
-12,
-12,
-12,
-13,
-15,
-14,
-12,
-11,
-13,
-13,
-13,
-13,
-14,
-16,
-15,
-14,
-16,
-18,
-14,
-16,
-15,
-14,
-11,
-12,
-13,
-11,
-7,
-6,
-6,
-4,
-3,
-1,
-2,
-3,
-1,
0,
1,
0,
-1,
-1,
-2,
-2,
-2,
-3,
-3,
-5,
-5,
-5,
-7,
-7,
-7,
-6,
-7,
-8,
-8,
-10,
-10,
-10,
-10,
-12,
-14,
-11,
-14,
-12,
-13,
-15,
-12,
-11,
-13,
-12,
-11,
-11,
-11,
-11,
-11,
-11,
-14,
-13,
-13,
-13,
-14,
-15,
-13,
-14,
-13,
-14,
-12,
-10,
-11,
-9,
-7,
-6,
-6,
-5,
-4,
-3,
-2,
-3,
-3,
-2,
-1,
-2,
-2,
-2,
-1,
-3,
-3,
-3,
-5,
-5,
-5,
-5,
-6,
-8,
-7,
-7,
-9,
-10,
-8,
-9,
-10,
-11,
-11,
-11,
-14,
-10,
-13,
-11,
-11,
-14,
-11,
-10,
-12,
-12,
-10,
-10,
-10,
-11,
-10,
-10,
-11,
-11,
-12,
-11,
-12,
-13,
-11,
-12,
-12,
-11,
-11,
-9,
-9,
-8,
-7,
-7,
-7,
-7,
-5,
-4,
-3,
-3,
-3,
-2,
-3,
-3,
-3,
-2,
-3,
-2,
-3,
-4,
-4,
-5,
-5,
-5,
-5,
-7,
-6,
-8,
-8,
-8,
-7,
-10,
-10,
-12,
-12,
-11,
-13,
-10,
-12,
-10,
-11,
-14,
-11,
-10,
-10,
-11,
-11,
-9,
-11,
-10,
-10,
-10,
-10,
-10,
-10,
-9,
-11,
-11,
-11,
-11,
-11,
-10,
-9,
-9,
-9,
-8,
-7,
-5,
-6,
-7,
-5,
-4,
-4,
-5,
-5,
-3,
-3,
-4,
-4,
-3,
-3,
-3,
-2,
-3,
-4,
-3,
-3,
-4,
-4,
-6,
-6,
-6,
-9,
-7,
-7,
-8,
-9,
-11,
-10,
-10,
-11,
-11,
-11,
-10,
-11,
-11,
-11,
-10,
-10,
-12,
-7,
-9,
-11,
-11,
-9,
-9,
-9,
-11,
-8,
-10,
-11,
-11,
-11,
-9,
-10,
-10,
-8,
-8,
-8,
-7,
-6,
-5,
-6,
-7,
-5,
-5,
-6,
-6,
-4,
-4,
-6,
-5,
-4,
-4,
-3,
-4,
-4,
-4,
-4,
-4,
-5,
-4,
-4,
-6,
-6,
-6,
-6,
-8,
-8,
-8,
-9,
-10,
-8,
-9,
-10,
-10,
-10,
-10,
-11,
-10,
-10,
-9,
-10,
-11,
-9,
-9,
-9,
-8,
-7,
-8,
-9,
-9,
-8,
-8,
-9,
-8,
-8,
-9,
-9,
-9,
-7,
-8,
-7,
-6,
-6,
-7,
-6,
-6,
-6,
-5,
-6,
-7,
-6,
-5,
-4,
-5,
-6,
-4,
-4,
-4,
-3,
-3,
-3,
-4,
-3,
-4,
-5,
-6,
-6,
-6,
-7,
-8,
-7,
-8,
-8,
-8,
-10,
-9,
-10,
-9,
-10,
-9,
-9,
-10,
-10,
-8,
-7,
-10,
-7,
-8,
-9,
-8,
-8,
-9,
-9,
-9,
-8,
-9,
-9,
-8,
-7,
-8,
-8,
-8,
-7,
-6,
-6,
-7,
-6,
-5,
-5,
-6,
-5,
-6,
-6,
-7,
-6,
-5,
-6,
-6,
-4,
-4,
-4,
-6,
-4,
-3,
-3,
-4,
-5,
-5,
-6,
-7,
-5,
-6,
-8,
-7,
-7,
-8,
-8,
-8,
-9,
-9,
-9,
-9,
-8,
-8,
-9,
-11,
-10,
-9,
-8,
-9,
-8,
-9,
-9,
-8,
-8,
-8,
-9,
-8,
-7,
-7,
-7,
-8,
-7,
-8,
-7,
-7,
-5,
-6,
-8,
-7,
-5,
-5,
-7,
-7,
-6,
-6,
-6,
-6,
-6,
-5,
-5,
-6,
-5,
-4,
-6,
-6,
-5,
-4,
-4,
-4,
-5,
-5,
-6,
-6,
-4,
-5,
-7,
-7,
-7,
-6,
-8,
-7,
-7,
-6,
-8,
-8,
-7,
-8,
-9,
-8,
-9,
-8,
-9,
-8,
-7,
-8,
-9,
-8,
-7,
-8,
-9,
-7,
-6,
-6,
-7,
-6,
-6,
-6,
-6,
-7,
-7,
-5,
-6,
-6,
-5,
-5,
-6,
-6,
-5,
-5,
-4,
-6,
-5,
-5,
-4,
-6,
-5,
-5,
-6,
-5,
-5,
-4,
-4,
-6,
-5,
-5,
-4,
-5,
-5,
-5,
-5,
-7,
-7,
-7,
-8,
-7,
-7,
-8,
-8,
-8,
-8,
-8,
-8,
-8,
-8,
-8,
-8,
-8,
-7,
-8,
-9,
-7,
-7,
-8,
-7,
-7,
-6,
-6,
-8,
-7,
-7,
-6,
-5,
-7,
-6,
-5,
-6,
-6,
-5,
-5,
-6,
-7,
-6,
-5,
-5,
-6,
-5,
-5,
-5,
-5,
-4,
-4,
-4,
-5,
-6,
-5,
-6,
-5,
-6,
-5,
-5,
-6,
-6,
-6,
-6,
-7,
-6,
-5,
-6,
-7,
-7,
-7,
-9,
-7,
-7,
-6,
-7,
-8,
-7,
-7,
-7,
-8,
-7,
-7,
-8,
-8,
-7,
-6,
-7,
-7,
-7,
-5,
-6,
-6,
-5,
-6,
-6,
-6,
-6,
-5,
-6,
-6,
-6,
-5,
-6,
-5,
-5,
-5,
-5,
-6,
-5,
-4,
-6,
-6,
-5,
-5,
-4,
-4,
-6,
-5,
-4,
-5,
-5,
-5,
-5,
-4,
-4,
-5,
-5,
-6,
-5,
-5,
-8,
-6,
-5,
-6,
-7,
-7,
-7,
-6,
-6,
-7,
-6,
-6,
-6,
-7,
-7,
-5,
-1,
12,
28,
42,
48,
48,
45,
36,
28,
22,
19,
16,
13,
9,
7,
6,
3,
2,
0,
-1,
-1,
-2,
-1,
-3,
-4,
-3,
-3,
-4,
-3,
-5,
-5,
-8,
-13,
-16,
-14,
-13,
-8,
-4,
1,
2,
1,
2,
-2,
-1,
-2,
-3,
-2,
-3,
-2,
-6,
-4,
-5,
-6,
-6,
-5,
-6,
-6,
-6,
-6,
-5,
-4,
-2,
7,
20,
34,
52,
62,
72,
74,
66,
63,
55,
46,
41,
35,
30,
26,
21,
17,
15,
14,
10,
9,
6,
5,
3,
3,
2,
1,
1,
-1,
-2,
-3,
-9,
-13,
-18,
-21,
-22,
-18,
-12,
-4,
1,
5,
6,
6,
5,
5,
3,
3,
1,
3,
2,
0,
-2,
-2,
-1,
-3,
-2,
-3,
-4,
-4,
-4,
-4,
-3,
0,
5,
13,
21,
31,
38,
47,
48,
50,
50,
48,
45,
41,
40,
31,
30,
28,
22,
20,
18,
15,
12,
13,
10,
9,
5,
5,
4,
3,
1,
0,
-2,
-8,
-11,
-14,
-19,
-22,
-22,
-15,
-11,
-6,
1,
4,
7,
8,
6,
7,
6,
7,
5,
7,
4,
4,
3,
1,
2,
-1,
0,
-1,
-2,
-1,
-3,
1,
3,
5,
10,
15,
20,
23,
29,
31,
34,
36,
34,
40,
37,
35,
32,
29,
27,
24,
22,
19,
18,
17,
14,
14,
11,
10,
9,
8,
6,
5,
2,
0,
-3,
-9,
-11,
-15,
-18,
-18,
-20,
-13,
-9,
-5,
1,
3,
5,
8,
6,
9,
8,
8,
9,
6,
7,
5,
2,
3,
3,
3,
2,
1,
2,
1,
1,
5,
6,
9,
12,
15,
18,
20,
22,
22,
23,
25,
26,
27,
29,
30,
28,
28,
23,
23,
19,
20,
18,
16,
14,
14,
13,
11,
10,
8,
6,
5,
2,
0,
-4,
-8,
-11,
-11,
-15,
-15,
-14,
-10,
-8,
-5,
-1,
1,
4,
5,
6,
9,
8,
8,
9,
8,
7,
7,
5,
5,
4,
5,
4,
4,
5,
5,
5,
7,
9,
10,
13,
15,
16,
17,
16,
17,
18,
19,
21,
22,
22,
23,
22,
21,
22,
21,
18,
18,
18,
17,
14,
15,
13,
13,
10,
9,
6,
5,
2,
-1,
-3,
-6,
-8,
-8,
-10,
-10,
-10,
-7,
-5,
-4,
-2,
-1,
2,
5,
4,
5,
6,
8,
9,
7,
8,
8,
4,
5,
5,
5,
6,
5,
6,
8,
7,
11,
11,
12,
13,
13,
14,
14,
13,
13,
14,
16,
16,
17,
18,
18,
18,
19,
19,
20,
18,
17,
16,
16,
14,
15,
14,
11,
10,
9,
6,
5,
2,
1,
-2,
-3,
-5,
-5,
-7,
-8,
-6,
-4,
-4,
-3,
-2,
1,
2,
4,
4,
5,
5,
5,
6,
8,
8,
8,
8,
6,
8,
6,
6,
7,
8,
9,
9,
11,
11,
13,
12,
13,
14,
13,
11,
13,
11,
11,
12,
14,
15,
14,
14,
17,
15,
17,
14,
15,
15,
15,
13,
13,
12,
12,
10,
8,
8,
5,
2,
1,
0,
-2,
-3,
-3,
-4,
-4,
-4,
-3,
-3,
-2,
0,
-1,
2,
4,
2,
4,
4,
5,
6,
9,
8,
5,
7,
7,
6,
6,
6,
8,
8,
9,
8,
10,
11,
11,
12,
13,
11,
10,
10,
10,
11,
11,
10,
11,
12,
13,
12,
13,
13,
13,
13,
14,
14,
14,
12,
11,
11,
11,
8,
7,
5,
4,
2,
2,
0,
0,
0,
-2,
-1,
-1,
-2,
-1,
-2,
-1,
0,
0,
1,
1,
2,
3,
4,
5,
5,
7,
6,
5,
6,
7,
6,
8,
8,
9,
9,
10,
10,
10,
10,
11,
11,
11,
10,
10,
10,
9,
9,
10,
9,
10,
10,
11,
12,
10,
11,
11,
12,
13,
13,
13,
12,
11,
10,
9,
8,
7,
6,
6,
4,
3,
2,
1,
1,
0,
0,
0,
0,
-1,
-1,
1,
0,
1,
0,
1,
2,
2,
4,
5,
5,
7,
5,
6,
6,
7,
8,
6,
8,
9,
9,
10,
9,
9,
9,
11,
10,
11,
11,
10,
9,
8,
8,
9,
8,
8,
9,
10,
9,
9,
10,
10,
10,
10,
9,
10,
9,
10,
9,
9,
6,
7,
6,
5,
4,
4,
3,
2,
1,
1,
0,
1,
0,
0,
2,
1,
1,
2,
2,
2,
2,
2,
2,
4,
5,
4,
5,
5,
6,
8,
7,
8,
7,
8,
9,
9,
9,
10,
9,
10,
9,
9,
9,
10,
10,
8,
9,
8,
8,
9,
8,
8,
7,
8,
9,
9,
9,
10,
8,
9,
7,
7,
7,
9,
7,
5,
5,
5,
4,
3,
3,
3,
2,
2,
2,
2,
2,
1,
2,
1,
2,
1,
2,
2,
2,
1,
3,
4,
2,
5,
5,
5,
5,
5,
6,
8,
7,
10,
7,
9,
9,
9,
10,
9,
10,
9,
8,
9,
7,
7,
7,
8,
7,
8,
8,
8,
6,
7,
8,
7,
7,
7,
8,
9,
7,
7,
6,
5,
6,
6,
5,
5,
4,
4,
3,
3,
3,
4,
3,
2,
2,
1,
2,
2,
2,
1,
3,
3,
4,
3,
3,
3,
2,
3,
4,
5,
6,
6,
6,
5,
6,
7,
8,
9,
9,
8,
8,
9,
8,
8,
8,
8,
7,
8,
7,
7,
6,
7,
7,
8,
6,
6,
6,
8,
5,
7,
7,
5,
6,
5,
5,
6,
5,
5,
4,
4,
4,
4,
4,
4,
2,
3,
4,
4,
2,
3,
3,
2,
3,
2,
3,
4,
2,
3,
3,
4,
2,
3,
4,
5,
5,
5,
6,
5,
6,
5,
6,
8,
8,
7,
8,
8,
6,
7,
6,
8,
6,
7,
8,
8,
6,
6,
7,
7,
6,
7,
6,
6,
5,
5,
5,
5,
5,
5,
5,
5,
6,
5,
5,
5,
4,
4,
5,
5,
3,
3,
3,
3,
3,
3,
4,
3,
2,
2,
2,
3,
2,
3,
3,
5,
4,
5,
4,
4,
4,
5,
6,
8,
6,
5,
6,
7,
5,
6,
8,
8,
7,
7,
6,
7,
7,
7,
7,
7,
6,
5,
6,
7,
5,
5,
5,
6,
5,
5,
4,
5,
5,
6,
4,
5,
6,
5,
4,
4,
4,
4,
4,
5,
5,
3,
3,
4,
2,
3,
3,
4,
2,
3,
3,
3,
2,
3,
4,
4,
3,
3,
4,
4,
4,
5,
4,
5,
5,
5,
6,
7,
6,
7,
6,
7,
6,
7,
6,
7,
6,
7,
7,
6,
6,
6,
5,
5,
6,
5,
5,
5,
5,
4,
4,
5,
4,
4,
4,
4,
5,
5,
4,
4,
5,
5,
4,
4,
3,
3,
3,
4,
2,
3,
4,
3,
2,
2,
2,
3,
2,
3,
4,
4,
2,
3,
4,
4,
4,
4,
5,
5,
5,
5,
4,
5,
6,
5,
6,
6,
6,
5,
5,
5,
5,
5,
6,
6,
5,
7,
6,
5,
5,
5,
5,
5,
4,
5,
5,
5,
5,
4,
4,
4,
2,
3,
4,
5,
2,
3,
4,
4,
5,
3,
3,
4,
3,
3,
3,
4,
2,
4,
3,
3,
2,
2,
2,
5,
4,
3,
4,
5,
4,
4,
4,
5,
5,
5,
5,
5,
4,
6,
6,
5,
5,
5,
6,
5,
6,
5,
6,
7,
6,
5,
5,
4,
5,
5,
4,
5,
4,
5,
4,
3,
2,
3,
3,
4,
3,
3,
4,
4,
5,
3,
3,
3,
3,
3,
3,
4,
2,
3,
3,
4,
3,
3,
3,
2,
2,
3,
3,
4,
3,
3,
3,
3,
4,
5,
4,
4,
4,
3,
5,
5,
5,
5,
5,
5,
4,
5,
5,
5,
5,
6,
5,
5,
4,
5,
5,
5,
5,
5,
5,
4,
5,
3,
4,
4,
3,
3,
5,
5,
4,
3,
4,
3,
3,
2,
3,
4,
3,
3,
3,
4,
2,
3,
3,
3,
2,
3,
3,
4,
5,
3,
4,
4,
2,
3,
3,
4,
4,
3,
3,
4,
5,
5,
4,
5,
4,
4,
4,
4,
4,
3,
-3,
-16,
-32,
-45,
-48,
-45,
-42,
-36,
-30,
-27,
-22,
-16,
-12,
-9,
-8,
-6,
-5,
-3,
-1,
-1,
0,
1,
0,
1,
2,
3,
2,
1,
2,
2,
4,
6,
11,
14,
11,
9,
5,
1,
-3,
-2,
-1,
-2,
-2,
-1,
-1,
0,
0,
1,
2,
2,
2,
3,
4,
4,
2,
5,
3,
4,
2,
4,
2,
-2,
-10,
-22,
-38,
-52,
-63,
-68,
-70,
-66,
-62,
-57,
-50,
-43,
-38,
-32,
-27,
-22,
-20,
-15,
-15,
-14,
-10,
-9,
-8,
-6,
-5,
-2,
-3,
-3,
-3,
1,
2,
5,
12,
17,
19,
19,
15,
9,
3,
-2,
-7,
-6,
-8,
-7,
-7,
-6,
-4,
-3,
-5,
-2,
-2,
-2,
0,
-1,
0,
1,
0,
2,
3,
3,
2,
0,
-3,
-8,
-16,
-23,
-32,
-39,
-47,
-48,
-50,
-50,
-50,
-46,
-42,
-38,
-35,
-32,
-26,
-23,
-20,
-17,
-16,
-15,
-15,
-11,
-10,
-8,
-8,
-5,
-4,
-3,
-2,
1,
4,
9,
13,
17,
19,
18,
13,
9,
3,
-2,
-7,
-8,
-10,
-10,
-10,
-7,
-8,
-8,
-7,
-5,
-3,
-3,
-4,
-3,
-2,
-2,
-2,
0,
0,
0,
-3,
-5,
-8,
-13,
-18,
-20,
-26,
-30,
-34,
-35,
-36,
-38,
-41,
-38,
-36,
-33,
-32,
-29,
-26,
-23,
-22,
-19,
-18,
-17,
-17,
-14,
-12,
-12,
-8,
-8,
-6,
-3,
-3,
1,
5,
10,
12,
17,
16,
14,
11,
7,
3,
0,
-4,
-5,
-9,
-11,
-11,
-10,
-9,
-9,
-8,
-6,
-5,
-6,
-5,
-5,
-4,
-3,
-3,
-2,
-3,
-3,
-5,
-8,
-11,
-15,
-19,
-19,
-21,
-22,
-24,
-24,
-27,
-30,
-30,
-31,
-30,
-29,
-27,
-27,
-24,
-21,
-23,
-19,
-18,
-18,
-18,
-14,
-12,
-12,
-12,
-10,
-6,
-5,
-3,
1,
4,
8,
10,
13,
12,
10,
8,
5,
3,
1,
-3,
-5,
-7,
-9,
-9,
-8,
-9,
-9,
-10,
-7,
-6,
-6,
-6,
-5,
-5,
-6,
-6,
-3,
-6,
-8,
-10,
-11,
-13,
-15,
-18,
-17,
-18,
-19,
-19,
-19,
-20,
-22,
-23,
-24,
-24,
-23,
-24,
-22,
-21,
-21,
-22,
-19,
-17,
-16,
-17,
-15,
-13,
-13,
-10,
-8,
-7,
-3,
-3,
2,
3,
5,
6,
7,
8,
7,
5,
5,
3,
0,
-2,
-3,
-5,
-7,
-8,
-8,
-8,
-9,
-10,
-7,
-8,
-8,
-7,
-7,
-8,
-8,
-7,
-6,
-9,
-11,
-11,
-12,
-12,
-14,
-17,
-15,
-14,
-16,
-17,
-15,
-17,
-18,
-19,
-18,
-20,
-20,
-21,
-18,
-19,
-20,
-20,
-18,
-16,
-17,
-17,
-14,
-14,
-12,
-11,
-8,
-5,
-4,
-2,
-1,
2,
2,
3,
4,
4,
4,
4,
3,
2,
0,
-3,
-3,
-4,
-6,
-7,
-8,
-9,
-10,
-10,
-8,
-8,
-9,
-8,
-8,
-9,
-9,
-8,
-7,
-10,
-13,
-11,
-13,
-13,
-13,
-15,
-14,
-13,
-14,
-15,
-13,
-14,
-15,
-16,
-16,
-17,
-18,
-18,
-17,
-17,
-18,
-18,
-17,
-16,
-16,
-16,
-13,
-12,
-11,
-10,
-7,
-6,
-6,
-4,
-2,
0,
0,
1,
1,
2,
2,
1,
0,
0,
0,
-2,
-2,
-3,
-4,
-7,
-5,
-6,
-9,
-8,
-7,
-8,
-9,
-8,
-8,
-9,
-9,
-10,
-8,
-11,
-14,
-11,
-14,
-12,
-12,
-16,
-11,
-12,
-14,
-12,
-13,
-13,
-13,
-15,
-14,
-14,
-15,
-16,
-15,
-15,
-17,
-16,
-14,
-14,
-15,
-15,
-13,
-11,
-11,
-11,
-7,
-6,
-5,
-4,
-1,
-2,
-2,
0,
0,
0,
1,
0,
0,
-1,
-2,
-2,
-3,
-2,
-3,
-5,
-6,
-5,
-8,
-8,
-7,
-8,
-8,
-8,
-9,
-9,
-10,
-11,
-10,
-11,
-13,
-12,
-12,
-11,
-11,
-12,
-13,
-10,
-12,
-11,
-11,
-11,
-12,
-12,
-11,
-13,
-12,
-12,
-13,
-13,
-14,
-15,
-13,
-14,
-15,
-14,
-11,
-10,
-10,
-8,
-9,
-6,
-6,
-6,
-5,
-3,
-3,
-3,
-2,
-1,
-2,
-2,
-1,
-2,
-2,
-3,
-2,
-3,
-4,
-5,
-5,
-5,
-6,
-7,
-7,
-8,
-8,
-10,
-8,
-9,
-9,
-11,
-11,
-11,
-12,
-11,
-13,
-11,
-10,
-14,
-11,
-10,
-11,
-11,
-11,
-10,
-11,
-11,
-10,
-10,
-13,
-12,
-12,
-13,
-13,
-13,
-12,
-12,
-11,
-11,
-10,
-10,
-10,
-10,
-8,
-5,
-5,
-7,
-5,
-4,
-3,
-3,
-5,
-4,
-3,
-3,
-3,
-3,
-2,
-3,
-3,
-4,
-3,
-4,
-4,
-5,
-6,
-7,
-7,
-7,
-8,
-8,
-9,
-9,
-11,
-11,
-11,
-10,
-13,
-12,
-11,
-10,
-9,
-12,
-11,
-10,
-11,
-10,
-10,
-10,
-11,
-11,
-10,
-10,
-11,
-11,
-11,
-10,
-11,
-12,
-11,
-10,
-11,
-10,
-10,
-9,
-9,
-8,
-7,
-6,
-6,
-6,
-5,
-4,
-4,
-5,
-3,
-3,
-5,
-4,
-4,
-3,
-3,
-4,
-3,
-3,
-3,
-4,
-4,
-5,
-4,
-7,
-8,
-8,
-9,
-8,
-9,
-9,
-9,
-12,
-10,
-10,
-11,
-11,
-11,
-10,
-10,
-12,
-10,
-10,
-11,
-11,
-8,
-9,
-10,
-11,
-9,
-9,
-10,
-9,
-8,
-9,
-10,
-10,
-9,
-9,
-9,
-10,
-7,
-8,
-7,
-8,
-7,
-5,
-6,
-7,
-5,
-5,
-5,
-6,
-5,
-4,
-4,
-4,
-4,
-4,
-3,
-3,
-3,
-4,
-4,
-4,
-3,
-4,
-5,
-7,
-6,
-7,
-7,
-8,
-8,
-9,
-10,
-10,
-9,
-9,
-11,
-11,
-11,
-10,
-11,
-10,
-10,
-10,
-9,
-11,
-8,
-9,
-9,
-9,
-8,
-9,
-10,
-9,
-8,
-9,
-9,
-9,
-8,
-8,
-8,
-9,
-8,
-8,
-8,
-8,
-6,
-6,
-6,
-7,
-5,
-6,
-6,
-6,
-5,
-5,
-6,
-4,
-4,
-4,
-4,
-6,
-4,
-4,
-4,
-4,
-3,
-5,
-6,
-7,
-7,
-6,
-6,
-7,
-7,
-8,
-9,
-8,
-9,
-10,
-10,
-10,
-10,
-9,
-11,
-10,
-9,
-9,
-8,
-10,
-10,
-9,
-9,
-8,
-7,
-7,
-9,
-9,
-7,
-9,
-9,
-7,
-6,
-8,
-9,
-8,
5,
