5-grundlagen-opAmps/data/ALL0082/A0082CH1.CSV

Memory Length,4000,
Trigger Level,2.00000e+01,
Source,CH1,
Probe,1.0X,
Vertical Units,V,
Vertical Scale,2.00000e-01,
Vertical Position,0.00000e+00,
Horizontal Units,S,
Horizontal Scale,1.00000e-03,
Horizontal Position,0.0000000e+00,
Horizontal Mode,Main,
Sampling Period,4.00000e-06,
Firmware,V1.14,
Time, ,
Mode,Fast,
Waveform Data,
-70,
-70,
-70,
-70,
-70,
-69,
-69,
-70,
-70,
-69,
-69,
-70,
-70,
-70,
-70,
-71,
-71,
-70,
-70,
-69,
-69,
-70,
-70,
-71,
-71,
-69,
-69,
-70,
-70,
-70,
-70,
-70,
-70,
-70,
-70,
-69,
-69,
-71,
-71,
-70,
-70,
-69,
-69,
-70,
-70,
-69,
-69,
-69,
-69,
-70,
-70,
-70,
-70,
-70,
-70,
-71,
-71,
-70,
-70,
-70,
-70,
-69,
-69,
-70,
-70,
-70,
-70,
-70,
-70,
-70,
-70,
-69,
-69,
-69,
-69,
-70,
-70,
-69,
-69,
-70,
-70,
-69,
-69,
-70,
-70,
-70,
-70,
-70,
-70,
-69,
-69,
-69,
-69,
-70,
-70,
-70,
-70,
-69,
-69,
-69,
-69,
-70,
-70,
-69,
-69,
-70,
-70,
-69,
-69,
-69,
-69,
-70,
-70,
-69,
-69,
-69,
-69,
-70,
-70,
-70,
-70,
-70,
-70,
-70,
-70,
-70,
-70,
-70,
-70,
-69,
-69,
-69,
-69,
-70,
-70,
-70,
-70,
-70,
-70,
-70,
-70,
-69,
-69,
-70,
-70,
-69,
-69,
-69,
-69,
-69,
-69,
-70,
-70,
-69,
-69,
-69,
-69,
-70,
-70,
-69,
-69,
-69,
-69,
-70,
-70,
-69,
-69,
-70,
-70,
-71,
-71,
-69,
-69,
-70,
-70,
-69,
-69,
-69,
-69,
-70,
-70,
-70,
-70,
-69,
-69,
-70,
-70,
-70,
-70,
-70,
-70,
-70,
-70,
-69,
-69,
-70,
-70,
-70,
-70,
-70,
-70,
-69,
-69,
-69,
-69,
-70,
-70,
-70,
-70,
-70,
-70,
-69,
-69,
-69,
-69,
-70,
-70,
-70,
-70,
-69,
-69,
-70,
-70,
-70,
-70,
-69,
-69,
-69,
-69,
-69,
-69,
-71,
-71,
-69,
-69,
-69,
-69,
-69,
-69,
-70,
-70,
-69,
-69,
-70,
-70,
-69,
-69,
-70,
-70,
-69,
-69,
-69,
-69,
-69,
-69,
-69,
-69,
-69,
-69,
-69,
-69,
-70,
-70,
-69,
-69,
-69,
-69,
-69,
-69,
-70,
-70,
-70,
-70,
-69,
-69,
-69,
-69,
-69,
-69,
-69,
-69,
-69,
-69,
-69,
-69,
-70,
-70,
-69,
-69,
-69,
-69,
-69,
-69,
-70,
-70,
-70,
-70,
-69,
-69,
-69,
-69,
-70,
-70,
-69,
-69,
-69,
68,
65,
65,
66,
66,
67,
67,
67,
67,
67,
67,
67,
67,
67,
67,
67,
67,
66,
66,
67,
67,
67,
67,
66,
66,
67,
67,
67,
67,
67,
67,
67,
67,
66,
66,
67,
67,
66,
66,
67,
67,
67,
67,
66,
66,
67,
67,
66,
66,
66,
66,
67,
67,
67,
67,
67,
67,
66,
66,
67,
67,
67,
67,
67,
67,
67,
67,
67,
67,
66,
66,
67,
67,
67,
67,
66,
66,
67,
67,
67,
67,
67,
67,
67,
67,
66,
66,
67,
67,
67,
67,
66,
66,
66,
66,
67,
67,
67,
67,
67,
67,
67,
67,
67,
67,
67,
67,
66,
66,
67,
67,
66,
66,
66,
66,
66,
66,
67,
67,
66,
66,
66,
66,
67,
67,
66,
66,
67,
67,
66,
66,
66,
66,
65,
65,
68,
68,
66,
66,
67,
67,
67,
67,
67,
67,
66,
66,
66,
66,
67,
67,
66,
66,
67,
67,
66,
66,
66,
66,
67,
67,
66,
66,
66,
66,
67,
67,
67,
67,
66,
66,
67,
67,
67,
67,
66,
66,
66,
66,
65,
65,
67,
67,
65,
65,
67,
67,
67,
67,
66,
66,
67,
67,
67,
67,
65,
65,
66,
66,
65,
65,
65,
65,
66,
66,
66,
66,
66,
66,
66,
66,
66,
66,
65,
65,
66,
66,
66,
66,
65,
65,
66,
66,
65,
65,
66,
66,
66,
66,
66,
66,
67,
67,
66,
66,
66,
66,
66,
66,
67,
67,
66,
66,
66,
66,
66,
66,
67,
67,
66,
66,
66,
66,
66,
66,
66,
66,
66,
66,
66,
66,
66,
66,
65,
65,
66,
66,
66,
66,
66,
66,
66,
66,
66,
66,
66,
66,
66,
66,
67,
67,
66,
66,
66,
66,
66,
66,
66,
66,
66,
66,
66,
66,
66,
66,
66,
66,
67,
67,
66,
66,
65,
65,
66,
66,
66,
66,
65,
65,
66,
66,
66,
66,
65,
65,
65,
65,
67,
67,
65,
65,
66,
66,
66,
66,
66,
66,
66,
66,
66,
66,
65,
65,
66,
66,
66,
66,
65,
65,
66,
66,
66,
66,
67,
67,
66,
66,
65,
65,
65,
65,
66,
66,
66,
66,
66,
66,
65,
65,
66,
66,
65,
65,
67,
67,
66,
66,
66,
66,
66,
66,
65,
65,
66,
66,
66,
66,
66,
66,
65,
65,
66,
66,
67,
67,
65,
65,
66,
66,
65,
65,
66,
66,
66,
66,
67,
67,
66,
66,
66,
66,
66,
66,
65,
65,
67,
67,
65,
65,
65,
65,
65,
65,
65,
65,
67,
67,
66,
66,
66,
66,
66,
66,
66,
66,
65,
-71,
-69,
-69,
-69,
-69,
-70,
-70,
-70,
-70,
-70,
-70,
-69,
-69,
-70,
-70,
-69,
-69,
-70,
-70,
-70,
-70,
-71,
-71,
-70,
-70,
-69,
-69,
-71,
-71,
-71,
-71,
-70,
-70,
-70,
-70,
-69,
-69,
-70,
-70,
-70,
-70,
-70,
-70,
-71,
-71,
-70,
-70,
-70,
-70,
-70,
-70,
-70,
-70,
-70,
-70,
-70,
-70,
-70,
-70,
-71,
-71,
-71,
-71,
-70,
-70,
-71,
-71,
-69,
-69,
-71,
-71,
-69,
-69,
-70,
-70,
-70,
-70,
-69,
-69,
-70,
-70,
-70,
-70,
-70,
-70,
-71,
-71,
-70,
-70,
-69,
-69,
-70,
-70,
-70,
-70,
-70,
-70,
-70,
-70,
-70,
-70,
-70,
-70,
-69,
-69,
-70,
-70,
-70,
-70,
-69,
-69,
-69,
-69,
-71,
-71,
-69,
-69,
-70,
-70,
-70,
-70,
-70,
-70,
-70,
-70,
-71,
-71,
-70,
-70,
-69,
-69,
-69,
-69,
-70,
-70,
-70,
-70,
-70,
-70,
-69,
-69,
-71,
-71,
-69,
-69,
-70,
-70,
-69,
-69,
-69,
-69,
-70,
-70,
-70,
-70,
-69,
-69,
-70,
-70,
-70,
-70,
-69,
-69,
-70,
-70,
-70,
-70,
-69,
-69,
-69,
-69,
-69,
-69,
-70,
-70,
-70,
-70,
-70,
-70,
-71,
-71,
-69,
-69,
-70,
-70,
-70,
-70,
-69,
-69,
-69,
-69,
-70,
-70,
-69,
-69,
-70,
-70,
-70,
-70,
-70,
-70,
-69,
-69,
-70,
-70,
-70,
-70,
-69,
-69,
-69,
-69,
-69,
-69,
-70,
-70,
-70,
-70,
-70,
-70,
-70,
-70,
-70,
-70,
-69,
-69,
-70,
-70,
-69,
-69,
-70,
-70,
-70,
-70,
-69,
-69,
-70,
-70,
-70,
-70,
-70,
-70,
-69,
-69,
-70,
-70,
-70,
-70,
-69,
-69,
-69,
-69,
-70,
-70,
-70,
-70,
-70,
-70,
-70,
-70,
-69,
-69,
-69,
-69,
-70,
-70,
-70,
-70,
-69,
-69,
-70,
-70,
-69,
-69,
-69,
-69,
-69,
-69,
-70,
-70,
-70,
-70,
-70,
-70,
-69,
-69,
-70,
-70,
-70,
-70,
-70,
-70,
-70,
-70,
-70,
-70,
-70,
-70,
-69,
-69,
-70,
-70,
-69,
-69,
-70,
-70,
-70,
-70,
-70,
-70,
-69,
-69,
-69,
-69,
-69,
-69,
-69,
-69,
-70,
-70,
-69,
-69,
-70,
-70,
-69,
-69,
-70,
-70,
-70,
-70,
-69,
-69,
-70,
-70,
-69,
-69,
-69,
-69,
-69,
-69,
-69,
-69,
-70,
-70,
-70,
-70,
-69,
-69,
-70,
-70,
-69,
-69,
-69,
-69,
-69,
-69,
-69,
-69,
-70,
-70,
-69,
-69,
-69,
-69,
-70,
-70,
-69,
-69,
-69,
-69,
-70,
-70,
-69,
-69,
-69,
-69,
-70,
-70,
-69,
-69,
-69,
-69,
-69,
-69,
-70,
-70,
-69,
-69,
-69,
-69,
-69,
-69,
-69,
-69,
-69,
-69,
-69,
-69,
-69,
-69,
-69,
-69,
-69,
-69,
-69,
-69,
-69,
-69,
-70,
68,
66,
66,
66,
66,
67,
67,
67,
67,
66,
66,
66,
66,
67,
67,
67,
67,
67,
67,
67,
67,
67,
67,
67,
67,
67,
67,
66,
66,
66,
66,
66,
66,
67,
67,
67,
67,
67,
67,
67,
67,
67,
67,
66,
66,
67,
67,
67,
67,
67,
67,
67,
67,
68,
68,
66,
66,
67,
67,
66,
66,
67,
67,
66,
66,
67,
67,
67,
67,
67,
67,
66,
66,
66,
66,
66,
66,
66,
66,
67,
67,
67,
67,
67,
67,
67,
67,
67,
67,
66,
66,
67,
67,
66,
66,
66,
66,
66,
66,
67,
67,
66,
66,
66,
66,
67,
67,
67,
67,
66,
66,
67,
67,
67,
67,
66,
66,
66,
66,
66,
66,
67,
67,
67,
67,
66,
66,
67,
67,
66,
66,
66,
66,
66,
66,
67,
67,
67,
67,
67,
67,
66,
66,
67,
67,
66,
66,
66,
66,
65,
65,
66,
66,
67,
67,
66,
66,
66,
66,
66,
66,
66,
66,
66,
66,
67,
67,
66,
66,
66,
66,
66,
66,
66,
66,
67,
67,
66,
66,
66,
66,
65,
65,
66,
66,
66,
66,
67,
67,
66,
66,
67,
67,
65,
65,
66,
66,
67,
67,
66,
66,
66,
66,
66,
66,
66,
66,
67,
67,
66,
66,
66,
66,
66,
66,
66,
66,
67,
67,
65,
65,
67,
67,
66,
66,
66,
66,
66,
66,
65,
65,
66,
66,
66,
66,
66,
66,
66,
66,
66,
66,
66,
66,
66,
66,
66,
66,
66,
66,
66,
66,
66,
66,
66,
66,
66,
66,
67,
67,
66,
66,
65,
65,
67,
67,
66,
66,
66,
66,
65,
65,
66,
66,
65,
65,
66,
66,
66,
66,
65,
65,
66,
66,
65,
65,
66,
66,
66,
66,
67,
67,
66,
66,
66,
66,
65,
65,
66,
66,
66,
66,
65,
65,
66,
66,
66,
66,
66,
66,
66,
66,
66,
66,
65,
65,
67,
67,
66,
66,
67,
67,
66,
66,
66,
66,
65,
65,
67,
67,
67,
67,
67,
67,
65,
65,
66,
66,
67,
67,
67,
67,
67,
67,
66,
66,
66,
66,
66,
66,
65,
65,
65,
65,
67,
67,
66,
66,
66,
66,
65,
65,
66,
66,
66,
66,
66,
66,
67,
67,
65,
65,
66,
66,
65,
65,
66,
66,
65,
65,
66,
66,
66,
66,
65,
65,
65,
65,
65,
65,
66,
66,
66,
66,
65,
65,
65,
65,
65,
65,
65,
65,
66,
66,
65,
65,
65,
65,
66,
66,
66,
66,
65,
65,
67,
67,
65,
65,
65,
65,
66,
66,
66,
66,
67,
67,
65,
-71,
-70,
-70,
-70,
-70,
-70,
-70,
-70,
-70,
-70,
-70,
-69,
-69,
-70,
-70,
-70,
-70,
-70,
-70,
-70,
-70,
-70,
-70,
-70,
-70,
-70,
-70,
-70,
-70,
-71,
-71,
-70,
-70,
-71,
-71,
-70,
-70,
-71,
-71,
-70,
-70,
-70,
-70,
-71,
-71,
-71,
-71,
-70,
-70,
-70,
-70,
-71,
-71,
-71,
-71,
-71,
-71,
-70,
-70,
-69,
-69,
-70,
-70,
-71,
-71,
-70,
-70,
-70,
-70,
-70,
-70,
-71,
-71,
-70,
-70,
-70,
-70,
-71,
-71,
-71,
-71,
-70,
-70,
-71,
-71,
-71,
-71,
-70,
-70,
-69,
-69,
-70,
-70,
-71,
-71,
-70,
-70,
-70,
-70,
-70,
-70,
-71,
-71,
-70,
-70,
-69,
-69,
-71,
-71,
-69,
-69,
-70,
-70,
-70,
-70,
-70,
-70,
-70,
-70,
-70,
-70,
-70,
-70,
-70,
-70,
-69,
-69,
-70,
-70,
-69,
-69,
-70,
-70,
-70,
-70,
-71,
-71,
-69,
-69,
-70,
-70,
-70,
-70,
-70,
-70,
-70,
-70,
-71,
-71,
-70,
-70,
-71,
-71,
-71,
-71,
-70,
-70,
-70,
-70,
-70,
-70,
-71,
-71,
-70,
-70,
-70,
-70,
-70,
-70,
-69,
-69,
-69,
-69,
-71,
-71,
-70,
-70,
-69,
-69,
-69,
-69,
-70,
-70,
-70,
-70,
-71,
-71,
-70,
-70,
-70,
-70,
-70,
-70,
-70,
-70,
-70,
-70,
-70,
-70,
-70,
-70,
-69,
-69,
-69,
-69,
-71,
-71,
-71,
-71,
-70,
-70,
-69,
-69,
-70,
-70,
-70,
-70,
-69,
-69,
-70,
-70,
-69,
-69,
-69,
-69,
-70,
-70,
-69,
-69,
-70,
-70,
-69,
-69,
-69,
-69,
-69,
-69,
-70,
-70,
-70,
-70,
-70,
-70,
-70,
-70,
-70,
-70,
-70,
-70,
-70,
-70,
-70,
-70,
-69,
-69,
-69,
-69,
-70,
-70,
-70,
-70,
-70,
-70,
-69,
-69,
-69,
-69,
-70,
-70,
-69,
-69,
-69,
-69,
-69,
-69,
-70,
-70,
-70,
-70,
-69,
-69,
-69,
-69,
-70,
-70,
-69,
-69,
-70,
-70,
-69,
-69,
-70,
-70,
-70,
-70,
-69,
-69,
-69,
-69,
-69,
-69,
-69,
-69,
-70,
-70,
-69,
-69,
-69,
-69,
-69,
-69,
-70,
-70,
-70,
-70,
-69,
-69,
-69,
-69,
-70,
-70,
-69,
-69,
-69,
-69,
-69,
-69,
-69,
-69,
-69,
-69,
-69,
-69,
-70,
-70,
-69,
-69,
-70,
-70,
-70,
-70,
-69,
-69,
-69,
-69,
-70,
-70,
-70,
-70,
-69,
-69,
-70,
-70,
-69,
-69,
-70,
-70,
-70,
-70,
-69,
-69,
-70,
-70,
-69,
-69,
-70,
-70,
-70,
-70,
-70,
-70,
-69,
-69,
-69,
-69,
-69,
-69,
-69,
-69,
-69,
-69,
-69,
-69,
-69,
-69,
-70,
-70,
-69,
-69,
-69,
-69,
-69,
-69,
-69,
-69,
-69,
-69,
-69,
-69,
-70,
-70,
-70,
-70,
-69,
-69,
-69,
68,
65,
65,
66,
66,
66,
66,
66,
66,
67,
67,
67,
67,
66,
66,
67,
67,
67,
67,
67,
67,
67,
67,
67,
67,
66,
66,
66,
66,
67,
67,
67,
67,
67,
67,
67,
67,
66,
66,
67,
67,
67,
67,
66,
66,
67,
67,
67,
67,
67,
67,
67,
67,
67,
67,
67,
67,
67,
67,
67,
67,
67,
67,
67,
67,
67,
67,
66,
66,
67,
67,
67,
67,
66,
66,
66,
66,
66,
66,
67,
67,
67,
67,
67,
67,
67,
67,
66,
66,
67,
67,
67,
67,
66,
66,
66,
66,
66,
66,
67,
67,
67,
67,
66,
66,
67,
67,
66,
66,
66,
66,
66,
66,
66,
66,
66,
66,
66,
66,
66,
66,
66,
66,
66,
66,
67,
67,
66,
66,
66,
66,
66,
66,
66,
66,
66,
66,
66,
66,
67,
67,
66,
66,
66,
66,
66,
66,
67,
67,
66,
66,
66,
66,
66,
66,
66,
66,
66,
66,
67,
67,
66,
66,
66,
66,
67,
67,
66,
66,
66,
66,
66,
66,
66,
66,
67,
67,
66,
66,
66,
66,
66,
66,
66,
66,
67,
67,
67,
67,
66,
66,
66,
66,
66,
66,
66,
66,
66,
66,
66,
66,
66,
66,
66,
66,
67,
67,
66,
66,
67,
67,
65,
65,
65,
65,
66,
66,
65,
65,
66,
66,
66,
66,
65,
65,
65,
65,
66,
66,
66,
66,
66,
66,
66,
66,
66,
66,
65,
65,
66,
66,
66,
66,
66,
66,
65,
65,
65,
65,
66,
66,
66,
66,
66,
66,
67,
67,
66,
66,
65,
65,
67,
67,
67,
67,
65,
65,
65,
65,
66,
66,
66,
66,
66,
66,
66,
66,
66,
66,
65,
65,
66,
66,
66,
66,
65,
65,
66,
66,
65,
65,
65,
65,
65,
65,
66,
66,
66,
66,
65,
65,
66,
66,
65,
65,
65,
65,
65,
65,
65,
65,
65,
65,
65,
65,
66,
66,
66,
66,
66,
66,
65,
65,
66,
66,
67,
67,
66,
66,
66,
66,
66,
66,
65,
65,
65,
65,
66,
66,
65,
65,
66,
66,
65,
65,
65,
65,
66,
66,
66,
66,
66,
66,
65,
65,
66,
66,
67,
67,
65,
65,
65,
65,
66,
66,
66,
66,
66,
66,
66,
66,
66,
66,
66,
66,
66,
66,
66,
66,
66,
66,
65,
65,
66,
66,
66,
66,
65,
65,
67,
67,
65,
65,
65,
65,
66,
66,
65,
65,
65,
65,
66,
66,
67,
67,
65,
65,
65,
65,
65,
65,
67,
67,
66,
66,
65,
65,
65,
65,
67,
67,
65,
65,
65,
65,
66,
66,
65,
-72,
-69,
-69,
-70,
-70,
-70,
-70,
-69,
-69,
-70,
-70,
-70,
-70,
-71,
-71,
-70,
-70,
-70,
-70,
-70,
-70,
-71,
-71,
-71,
-71,
-70,
-70,
-70,
-70,
-71,
-71,
-70,
-70,
-70,
-70,
-70,
-70,
-70,
-70,
-70,
-70,
-70,
-70,
-70,
-70,
-70,
-70,
-71,
-71,
-71,
-71,
-70,
-70,
-71,
-71,
-71,
-71,
-71,
-71,
-71,
-71,
-71,
-71,
-70,
-70,
-70,
-70,
-70,
-70,
-70,
-70,
-70,
-70,
-69,
-69,
-71,
-71,
-70,
-70,
-71,
-71,
-70,
-70,
-70,
-70,
-70,
-70,
-70,
-70,
-69,
-69,
-70,
-70,
-70,
-70,
-70,
-70,
-69,
-69,
-71,
-71,
-71,
-71,
-70,
-70,
-69,
-69,
-70,
-70,
-69,
-69,
-70,
-70,
-70,
-70,
-70,
-70,
-70,
-70,
-71,
-71,
-70,
-70,
-70,
-70,
-70,
-70,
-69,
-69,
-70,
-70,
-70,
-70,
-70,
-70,
-70,
-70,
-69,
-69,
-71,
-71,
-71,
-71,
-70,
-70,
-69,
-69,
-71,
-71,
-70,
-70,
-70,
-70,
-70,
-70,
-70,
-70,
-69,
-69,
-70,
-70,
-70,
-70,
-70,
-70,
-70,
-70,
-70,
-70,
-69,
-69,
-69,
-69,
-70,
-70,
-69,
-69,
-69,
-69,
-70,
-70,
-69,
-69,
-70,
-70,
-70,
-70,
-70,
-70,
-70,
-70,
-69,
-69,
-70,
-70,
-70,
-70,
-69,
-69,
-69,
-69,
-70,
-70,
-69,
-69,
-70,
-70,
-69,
-69,
-69,
-69,
-70,
-70,
-70,
-70,
-70,
-70,
-70,
-70,
-70,
-70,
-70,
-70,
-69,
-69,
-70,
-70,
-70,
-70,
-70,
-70,
-69,
-69,
-69,
-69,
-70,
-70,
-71,
-71,
-70,
-70,
-69,
-69,
-69,
-69,
-70,
-70,
-70,
-70,
-69,
-69,
-70,
-70,
-69,
-69,
-70,
-70,
-69,
-69,
-70,
-70,
-70,
-70,
-70,
-70,
-69,
-69,
-69,
-69,
-69,
-69,
-70,
-70,
-70,
-70,
-69,
-69,
-70,
-70,
-70,
-70,
-70,
-70,
-69,
-69,
-70,
-70,
-69,
-69,
-70,
-70,
-69,
-69,
-70,
-70,
-70,
-70,
-69,
-69,
-70,
-70,
-69,
-69,
-69,
-69,
-69,
-69,
-69,
-69,
-70,
-70,
-70,
-70,
-70,
-70,
-69,
-69,
-69,
-69,
-69,
-69,
-69,
-69,
-69,
-69,
-69,
-69,
-69,
-69,
-69,
-69,
-70,
-70,
-69,
-69,
-70,
-70,
-70,
-70,
-70,
-70,
-70,
-70,
-69,
-69,
-69,
-69,
-69,
-69,
-69,
-69,
-70,
-70,
-69,
-69,
-69,
-69,
-69,
-69,
-70,
-70,
-69,
-69,
-69,
-69,
-69,
-69,
-70,
-70,
-69,
-69,
-69,
-69,
-69,
-69,
-70,
-70,
-70,
-70,
-69,
-69,
-69,
-69,
-69,
-69,
-69,
-69,
-69,
-69,
-70,
-70,
-69,
-69,
-69,
-69,
-69,
-69,
-69,
-69,
-69,
-69,
-69,
-69,
-69,
-69,
-69,
70,
65,
65,
65,
65,
66,
66,
67,
67,
67,
67,
66,
66,
67,
67,
67,
67,
66,
66,
67,
67,
67,
67,
66,
66,
66,
66,
67,
67,
67,
67,
67,
67,
67,
67,
67,
67,
67,
67,
67,
67,
67,
67,
66,
66,
67,
67,
67,
67,
66,
66,
67,
67,
66,
66,
67,
67,
67,
67,
67,
67,
67,
67,
67,
67,
67,
67,
67,
67,
66,
66,
66,
66,
66,
66,
67,
67,
67,
67,
67,
67,
67,
67,
67,
67,
67,
67,
66,
66,
67,
67,
67,
67,
67,
67,
66,
66,
67,
67,
67,
67,
67,
67,
67,
67,
66,
66,
66,
66,
67,
67,
66,
66,
67,
67,
67,
67,
66,
66,
67,
67,
66,
66,
67,
67,
66,
66,
66,
66,
67,
67,
66,
66,
67,
67,
66,
66,
66,
66,
66,
66,
67,
67,
66,
66,
66,
66,
66,
66,
66,
66,
66,
66,
67,
67,
66,
66,
65,
65,
66,
66,
66,
66,
66,
66,
66,
66,
67,
67,
66,
66,
66,
66,
66,
66,
66,
66,
67,
67,
66,
66,
67,
67,
67,
67,
66,
66,
66,
66,
66,
66,
66,
66,
67,
67,
66,
66,
66,
66,
66,
66,
66,
66,
66,
66,
66,
66,
67,
67,
67,
67,
67,
67,
67,
67,
66,
66,
65,
65,
66,
66,
67,
67,
66,
66,
66,
66,
66,
66,
66,
66,
66,
66,
65,
65,
66,
66,
65,
65,
66,
66,
66,
66,
65,
65,
65,
65,
65,
65,
66,
66,
67,
67,
66,
66,
66,
66,
66,
66,
66,
66,
66,
66,
67,
67,
66,
66,
66,
66,
66,
66,
65,
65,
66,
66,
65,
65,
66,
66,
66,
66,
67,
67,
65,
65,
67,
67,
65,
65,
66,
66,
65,
65,
65,
65,
66,
66,
65,
65,
65,
65,
66,
66,
66,
66,
66,
66,
67,
67,
66,
66,
66,
66,
66,
66,
66,
66,
66,
66,
67,
67,
66,
66,
66,
66,
66,
66,
65,
65,
66,
66,
66,
66,
66,
66,
66,
66,
66,
66,
66,
66,
67,
67,
66,
66,
66,
66,
66,
66,
66,
66,
65,
65,
65,
65,
66,
66,
65,
65,
67,
67,
65,
65,
65,
65,
66,
66,
65,
65,
66,
66,
66,
66,
67,
67,
65,
65,
66,
66,
66,
66,
66,
66,
65,
65,
65,
65,
66,
66,
65,
65,
65,
65,
65,
65,
66,
66,
66,
66,
66,
66,
65,
65,
66,
66,
65,
65,
66,
66,
66,
66,
65,
65,
66,
66,
66,
66,
65,
65,
65,
65,
65,
65,
66,
66,
66,
-71,
-69,
-69,
-69,
-69,
-69,
-69,
-69,
-69,
-70,
-70,
-69,
-69,
-70,
-70,
-70,
-70,
-71,
-71,
-69,
-69,
-70,
-70,
-71,
-71,
-70,
-70,
-70,
-70,
-71,
-71,
-71,
-71,
-70,
-70,
-70,
-70,
-70,
-70,
-70,
-70,
-69,
-69,
-70,
-70,
-71,
-71,
-70,
-70,
-70,
-70,
-70,
-70,
-70,
-70,
-70,
-70,
-70,
-70,
-71,
-71,
-69,
-69,
-70,
-70,
-71,
-71,
-70,
-70,
-69,
-69,
-70,
-70,
-71,
-71,
-70,
-70,
-70,
-70,
-70,
-70,
-71,
-71,
-70,
-70,
-70,
-70,
-70,
-70,
-70,
-70,
-70,
-70,
-71,
-71,
-69,
-69,
-70,
-70,
-70,
-70,
-69,
-69,
-70,
-70,
-69,
-69,
-70,
-70,
-70,
-70,
-70,
-70,
-71,
-71,
-71,
-71,
-70,
-70,
-70,
-70,
-69,
-69,
-71,
-71,
-69,
-69,
-69,
-69,
-70,
-70,
-71,
-71,
-70,
-70,
-70,
-70,
-70,
-70,
-70,
-70,
-70,
-70,
-71,
-71,
-70,
-70,
-70,
-70,
-71,
-71,
-69,
-69,
-71,
-71,
-70,
-70,
-69,
-69,
-70,
-70,
-71,
-71,
-70,
-70,
-70,
-70,
-70,
-70,
-70,
-70,
-71,
-71,
-69,
-69,
-70,
-70,
-70,
-70,
-69,
-69,
-70,
-70,
-71,
-71,
-70,
-70,
-70,
-70,
-69,
-69,
-70,
-70,
-70,
-70,
-69,
-69,
-69,
-69,
-70,
-70,
-70,
-70,
-69,
-69,
-70,
-70,
-69,
-69,
-70,
-70,
-70,
-70,
-70,
-70,
-70,
-70,
-69,
-69,
-69,
-69,
-70,
-70,
-70,
-70,
-70,
-70,
-70,
-70,
-69,
-69,
-69,
-69,
-70,
-70,
-70,
-70,
-68,
-68,
-69,
-69,
-70,
-70,
-70,
-70,
-70,
-70,
-71,
-71,
-70,
-70,
-69,
-69,
-70,
-70,
-70,
-70,
-69,
-69,
-70,
-70,
-70,
-70,
-69,
-69,
-69,
-69,
-70,
-70,
-70,
-70,
-69,
-69,
-69,
-69,
-69,
-69,
-69,
-69,
-70,
-70,
-70,
-70,
-69,
-69,
-69,
-69,
-70,
-70,
-69,
-69,
-70,
-70,
-69,
-69,
-70,
-70,
-69,
-69,
-70,
-70,
-69,
-69,
-69,
-69,
-69,
-69,
-70,
-70,
-70,
-70,
-70,
-70,
-69,
-69,
-70,
-70,
-70,
-70,
-70,
-70,
-70,
-70,
-70,
-70,
-69,
-69,
-69,
-69,
-69,
-69,
-70,
-70,
-70,
-70,
-71,
-71,
-69,
-69,
-70,
-70,
-69,
-69,
-70,
-70,
-70,
-70,
-70,
-70,
-69,
-69,
-69,
-69,
-69,
-69,
-69,
-69,
-69,
-69,
-69,
-69,
-69,
-69,
-70,
-70,
-70,
-70,
-69,
-69,
-70,
-70,
-69,
-69,
-70,
-70,
-69,
-69,
-70,
-70,
-69,
-69,
-69,
-69,
-69,
-69,
-69,
-69,
-69,
-69,
-69,
-69,
-69,
-69,
-69,
-69,
-69,
-69,
-69,
-69,
-69,
-69,
-70,
-70,
-70,
-70,
-70,
-70,
-69,
69,
66,
66,
66,
66,
66,
66,
66,
66,
67,
67,
66,
66,
67,
67,
66,
66,
67,
67,
67,
67,
67,
67,
66,
66,
67,
67,
67,
67,
67,
67,
66,
66,
67,
67,
67,
67,
67,
67,
68,
68,
67,
67,
67,
67,
67,
67,
67,
67,
67,
67,
66,
66,
66,
66,
67,
67,
67,
67,
66,
66,
67,
67,
67,
67,
67,
67,
67,
67,
67,
67,
66,
66,
67,
67,
66,
66,
66,
66,
67,
67,
66,
66,
67,
67,
67,
67,
67,
67,
66,
66,
67,
67,
66,
66,
66,
66,
66,
66,
66,
66,
67,
67,
66,
66,
66,
66,
67,
67,
66,
66,
66,
66,
67,
67,
67,
67,
66,
66,
67,
67,
67,
67,
66,
66,
66,
66,
67,
67,
66,
66,
66,
66,
66,
66,
66,
66,
66,
66,
66,
66,
66,
66,
67,
67,
66,
66,
67,
67,
67,
67,
66,
66,
66,
66,
66,
66,
67,
67,
67,
67,
67,
67,
66,
66,
66,
66,
66,
66,
66,
66,
67,
67,
67,
67,
66,
66,
67,
67,
67,
67,
65,
65,
67,
67,
66,
66,
66,
66,
66,
66,
65,
65,
67,
67,
66,
66,
67,
67,
66,
66,
67,
67,
66,
66,
66,
66,
66,
66,
66,
66,
65,
65,
66,
66,
66,
66,
66,
66,
66,
66,
65,
65,
66,
66,
67,
67,
66,
66,
66,
66,
65,
65,
65,
65,
66,
66,
66,
66,
66,
66,
65,
65,
65,
65,
67,
67,
66,
66,
65,
65,
66,
66,
66,
66,
65,
65,
65,
65,
66,
66,
65,
65,
66,
66,
67,
67,
66,
66,
66,
66,
66,
66,
65,
65,
66,
66,
65,
65,
66,
66,
66,
66,
67,
67,
66,
66,
66,
66,
66,
66,
65,
65,
66,
66,
65,
65,
67,
67,
66,
66,
66,
66,
65,
65,
67,
67,
66,
66,
65,
65,
65,
65,
65,
65,
66,
66,
65,
65,
66,
66,
66,
66,
67,
67,
65,
65,
65,
65,
66,
66,
66,
66,
66,
66,
65,
65,
65,
65,
65,
65,
66,
66,
65,
65,
66,
66,
66,
66,
65,
65,
66,
66,
66,
66,
67,
67,
66,
66,
65,
