5-grundlagen-opAmps/data/ALL0046/A0046CH2.CSV

Memory Length,4000,
Trigger Level,0.00000e+00,
Source,CH2,
Probe,1.0X,
Vertical Units,V,
Vertical Scale,5.00000e-02,
Vertical Position,0.00000e+00,
Horizontal Units,S,
Horizontal Scale,1.00000e-03,
Horizontal Position,1.0000000e-03,
Horizontal Mode,Main,
Sampling Period,4.00000e-06,
Firmware,V1.14,
Time, ,
Mode,Fast,
Waveform Data,
-45,
-45,
-45,
-41,
-41,
-37,
-48,
-42,
-42,
-41,
-41,
-44,
-33,
-35,
-35,
-36,
-36,
-34,
-34,
-37,
-37,
-34,
-34,
-32,
-32,
-32,
-32,
-32,
-32,
-30,
-30,
-29,
-29,
-29,
-29,
-25,
-25,
-25,
-25,
-23,
-23,
-23,
-23,
-21,
-21,
-21,
-21,
-22,
-22,
-18,
-18,
-15,
-15,
-12,
-12,
-14,
-14,
-11,
-11,
-8,
-8,
-10,
-10,
-8,
-8,
-3,
-3,
-3,
-3,
0,
0,
0,
0,
3,
3,
2,
2,
1,
1,
7,
7,
6,
6,
12,
12,
13,
13,
11,
11,
12,
12,
15,
15,
16,
16,
22,
11,
19,
19,
23,
23,
20,
20,
27,
27,
25,
25,
28,
28,
28,
28,
29,
29,
30,
30,
30,
30,
32,
32,
28,
39,
36,
36,
35,
35,
40,
40,
38,
38,
40,
40,
40,
40,
40,
40,
38,
38,
39,
39,
43,
43,
46,
46,
43,
43,
42,
42,
44,
44,
43,
43,
45,
45,
45,
45,
47,
47,
48,
48,
43,
54,
43,
54,
47,
47,
46,
46,
51,
51,
51,
51,
51,
51,
46,
46,
51,
51,
52,
52,
51,
51,
45,
45,
47,
47,
52,
52,
49,
49,
43,
43,
45,
45,
48,
48,
42,
42,
43,
43,
46,
46,
44,
44,
43,
43,
46,
46,
40,
40,
46,
35,
42,
42,
42,
42,
39,
39,
39,
39,
39,
39,
38,
38,
37,
37,
37,
37,
32,
32,
31,
31,
30,
30,
29,
29,
24,
35,
29,
29,
29,
29,
27,
27,
25,
25,
23,
23,
24,
24,
21,
21,
17,
17,
15,
15,
14,
14,
11,
11,
14,
14,
12,
12,
11,
11,
11,
11,
10,
-1,
0,
0,
5,
5,
4,
4,
3,
3,
-1,
-1,
-1,
-1,
-1,
-1,
-4,
-4,
-3,
-16,
-8,
-8,
-9,
-9,
-12,
-12,
-12,
-12,
-17,
-17,
-15,
-15,
-16,
-16,
-17,
-17,
-19,
-19,
-18,
-29,
-25,
-25,
-23,
-23,
-23,
-34,
-28,
-28,
-26,
-26,
-31,
-31,
-29,
-29,
-27,
-40,
-30,
-30,
-33,
-33,
-36,
-36,
-36,
-36,
-38,
-38,
-41,
-41,
-40,
-40,
-41,
-41,
-41,
-41,
-41,
-41,
-42,
-42,
-41,
-41,
-42,
-42,
-45,
-45,
-41,
-54,
-42,
-53,
-46,
-46,
-45,
-45,
-49,
-49,
-53,
-53,
-53,
-53,
-51,
-51,
-49,
-49,
-49,
-49,
-50,
-50,
-51,
-51,
-53,
-53,
-50,
-50,
-51,
-51,
-53,
-53,
-50,
-50,
-57,
-46,
-52,
-52,
-51,
-51,
-54,
-54,
-50,
-50,
-51,
-51,
-54,
-54,
-51,
-51,
-48,
-48,
-49,
-49,
-53,
-42,
-47,
-47,
-49,
-49,
-41,
-53,
-53,
-39,
-45,
-45,
-46,
-46,
-39,
-39,
-47,
-47,
-42,
-42,
-41,
-41,
-38,
-38,
-37,
-37,
-41,
-41,
-40,
-40,
-35,
-35,
-39,
-28,
-33,
-33,
-34,
-34,
-33,
-33,
-31,
-31,
-28,
-28,
-28,
-28,
-26,
-26,
-26,
-26,
-22,
-22,
-23,
-23,
-21,
-21,
-18,
-18,
-21,
-21,
-18,
-18,
-13,
-13,
-17,
-17,
-13,
-13,
-11,
-11,
-12,
-12,
-6,
-6,
-13,
-1,
-6,
-6,
-2,
-2,
-2,
-2,
0,
0,
5,
5,
2,
2,
-1,
10,
5,
5,
6,
6,
7,
7,
13,
13,
9,
9,
13,
13,
16,
16,
14,
14,
18,
18,
18,
18,
19,
19,
26,
15,
26,
26,
24,
24,
24,
24,
22,
33,
32,
21,
30,
30,
31,
31,
30,
30,
30,
30,
31,
31,
31,
43,
35,
35,
41,
41,
40,
40,
42,
42,
41,
41,
43,
43,
43,
43,
40,
40,
44,
44,
43,
43,
45,
45,
47,
47,
45,
45,
47,
47,
46,
46,
47,
47,
48,
48,
48,
48,
45,
45,
51,
51,
47,
47,
49,
49,
50,
50,
48,
48,
47,
47,
48,
48,
51,
51,
50,
50,
51,
51,
43,
54,
45,
45,
51,
51,
47,
47,
45,
45,
48,
48,
46,
46,
50,
39,
46,
46,
46,
46,
44,
44,
43,
43,
44,
44,
44,
44,
40,
40,
40,
40,
43,
32,
38,
38,
38,
38,
39,
39,
39,
39,
39,
27,
34,
34,
33,
33,
30,
30,
29,
29,
27,
27,
31,
31,
26,
26,
30,
19,
27,
27,
27,
15,
21,
21,
20,
20,
19,
19,
12,
12,
16,
16,
18,
7,
18,
5,
11,
11,
12,
12,
10,
10,
6,
6,
7,
7,
8,
-4,
6,
6,
1,
1,
-1,
-1,
-3,
-3,
-2,
-2,
-5,
-5,
-3,
-14,
-10,
-10,
-13,
-13,
-9,
-9,
-10,
-10,
-13,
-13,
-13,
-13,
-16,
-16,
-21,
-21,
-20,
-20,
-19,
-19,
-22,
-22,
-23,
-23,
-29,
-29,
-25,
-25,
-25,
-25,
-29,
-29,
-29,
-29,
-34,
-34,
-34,
-34,
-30,
-41,
-35,
-35,
-38,
-38,
-39,
-39,
-35,
-35,
-38,
-38,
-43,
-43,
-40,
-40,
-41,
-41,
-41,
-41,
-45,
-45,
-41,
-53,
-47,
-47,
-50,
-50,
-45,
-45,
-47,
-47,
-49,
-49,
-53,
-42,
-50,
-50,
-47,
-47,
-45,
-57,
-49,
-49,
-47,
-58,
-51,
-51,
-51,
-51,
-47,
-47,
-52,
-52,
-51,
-51,
-53,
-53,
-51,
-51,
-57,
-45,
-53,
-53,
-51,
-51,
-52,
-52,
-50,
-50,
-47,
-47,
-50,
-50,
-55,
-44,
-48,
-48,
-47,
-47,
-49,
-49,
-45,
-45,
-50,
-50,
-45,
-45,
-46,
-46,
-46,
-46,
-43,
-43,
-46,
-46,
-40,
-40,
-41,
-41,
-40,
-40,
-40,
-40,
-41,
-41,
-42,
-42,
-43,
-31,
-36,
-36,
-33,
-33,
-34,
-34,
-37,
-37,
-34,
-34,
-27,
-27,
-27,
-27,
-30,
-30,
-29,
-29,
-26,
-26,
-22,
-22,
-23,
-23,
-19,
-19,
-17,
-17,
-18,
-18,
-18,
-18,
-18,
-18,
-10,
-21,
-15,
-15,
-15,
-15,
-13,
-13,
-11,
-11,
-7,
-7,
-4,
-4,
-6,
-6,
-2,
-2,
-4,
-4,
2,
-9,
2,
2,
5,
5,
6,
6,
9,
9,
9,
9,
15,
3,
6,
17,
15,
15,
12,
12,
14,
14,
20,
20,
11,
27,
18,
18,
21,
21,
19,
19,
17,
30,
20,
31,
31,
19,
26,
26,
31,
31,
33,
33,
32,
32,
31,
31,
32,
32,
34,
34,
35,
35,
38,
38,
38,
38,
39,
39,
37,
37,
36,
36,
40,
40,
42,
42,
44,
44,
44,
44,
42,
42,
43,
43,
47,
47,
47,
47,
47,
47,
51,
51,
45,
45,
49,
49,
46,
46,
43,
55,
47,
47,
46,
46,
51,
51,
50,
50,
51,
51,
50,
50,
51,
51,
50,
50,
48,
48,
51,
51,
48,
48,
50,
50,
45,
45,
48,
48,
48,
48,
48,
48,
48,
48,
43,
43,
45,
45,
43,
43,
46,
46,
46,
35,
40,
40,
43,
43,
42,
42,
41,
41,
35,
35,
39,
39,
41,
30,
34,
34,
34,
34,
31,
31,
34,
34,
35,
23,
32,
32,
30,
30,
26,
26,
29,
29,
27,
27,
26,
26,
22,
22,
17,
17,
19,
19,
21,
21,
18,
18,
16,
16,
17,
17,
16,
16,
12,
12,
9,
9,
10,
10,
9,
9,
3,
3,
9,
-3,
4,
4,
0,
0,
3,
3,
2,
2,
-4,
-4,
-2,
-2,
-7,
-7,
-8,
-8,
-5,
-17,
-10,
-10,
-10,
-10,
-14,
-14,
-16,
-16,
-18,
-18,
-15,
-15,
-15,
-27,
-18,
-18,
-21,
-21,
-27,
-27,
-24,
-24,
-22,
-34,
-28,
-28,
-27,
-27,
-29,
-29,
-31,
-31,
-35,
-35,
-33,
-33,
-29,
-42,
-29,
-44,
-36,
-36,
-36,
-36,
-44,
-33,
-40,
-40,
-41,
-41,
-41,
-41,
-43,
-43,
-41,
-41,
-42,
-42,
-39,
-54,
-46,
-46,
-43,
-43,
-45,
-45,
-48,
-48,
-53,
-53,
-51,
-51,
-46,
-60,
-50,
-50,
-50,
-50,
-48,
-48,
-50,
-50,
-48,
-48,
-51,
-51,
-55,
-55,
-56,
-45,
-49,
-49,
-51,
-51,
-46,
-57,
-51,
-51,
-51,
-51,
-53,
-53,
-51,
-51,
-55,
-42,
-48,
-48,
-45,
-45,
-50,
-50,
-46,
-46,
-49,
-49,
-50,
-50,
-49,
-49,
-42,
-54,
-49,
-49,
-46,
-46,
-44,
-44,
-47,
-47,
-47,
-36,
-44,
-44,
-42,
-42,
-43,
-43,
-37,
-37,
-35,
-46,
-38,
-38,
-38,
-38,
-38,
-38,
-33,
-33,
-35,
-35,
-31,
-31,
-32,
-32,
-31,
-31,
-27,
-27,
-30,
-30,
-23,
-23,
-24,
-24,
-23,
-23,
-21,
-21,
-22,
-22,
-21,
-21,
-19,
-19,
-18,
-18,
-14,
-14,
-13,
-13,
-19,
-3,
-11,
-11,
-8,
-8,
-9,
-9,
-7,
-7,
-1,
-1,
-7,
4,
-2,
-2,
0,
0,
-2,
-2,
-1,
10,
1,
1,
6,
6,
7,
7,
8,
8,
13,
13,
7,
18,
12,
12,
16,
16,
18,
18,
18,
18,
23,
23,
24,
24,
23,
23,
25,
25,
19,
30,
25,
25,
29,
29,
30,
30,
29,
29,
30,
30,
31,
31,
29,
29,
35,
35,
37,
37,
34,
34,
36,
36,
40,
40,
45,
34,
41,
41,
41,
41,
39,
39,
44,
44,
44,
44,
41,
41,
42,
42,
48,
48,
45,
45,
49,
49,
43,
54,
48,
48,
48,
48,
50,
50,
51,
51,
48,
48,
48,
48,
54,
43,
50,
50,
50,
50,
50,
50,
47,
47,
51,
51,
49,
49,
52,
52,
47,
47,
51,
51,
47,
47,
49,
49,
46,
46,
44,
44,
48,
48,
47,
47,
46,
46,
46,
46,
44,
44,
44,
44,
43,
43,
43,
43,
45,
45,
39,
39,
35,
35,
41,
30,
38,
38,
33,
33,
37,
37,
35,
35,
36,
36,
31,
31,
31,
31,
29,
29,
27,
27,
32,
32,
29,
29,
27,
27,
21,
21,
25,
25,
18,
18,
20,
20,
14,
14,
17,
17,
18,
18,
9,
9,
14,
14,
11,
11,
9,
9,
9,
9,
8,
8,
7,
7,
5,
5,
6,
-5,
3,
3,
1,
1,
2,
-10,
-1,
-1,
0,
-13,
-8,
-8,
-7,
-7,
-9,
-9,
-14,
-14,
-12,
-12,
-14,
-14,
-17,
-17,
-12,
-24,
-19,
-19,
-21,
-21,
-24,
-24,
-24,
-24,
-23,
-23,
-27,
-27,
-30,
-30,
-31,
-31,
-29,
-29,
-33,
-33,
-35,
-35,
-33,
-33,
-36,
-36,
-31,
-42,
-36,
-36,
-33,
-44,
-38,
-38,
-40,
-40,
-42,
-42,
-39,
-39,
-42,
-42,
-43,
-43,
-49,
-49,
-43,
-43,
-45,
-45,
-50,
-50,
-49,
-49,
-48,
-48,
-49,
-49,
-48,
-48,
-50,
-50,
-50,
-50,
-49,
-49,
-49,
-49,
-55,
-55,
-48,
-48,
-49,
-49,
-54,
-54,
-51,
-51,
-55,
-55,
-51,
-51,
-55,
-55,
-53,
-53,
-50,
-50,
-55,
-55,
-54,
-54,
-50,
-50,
-47,
-47,
-48,
-48,
-47,
-58,
-50,
-50,
-50,
-50,
-49,
-49,
-47,
-47,
-46,
-46,
-46,
-46,
-46,
-46,
-50,
-38,
-47,
-47,
-39,
-50,
-38,
-49,
-43,
-43,
-42,
-42,
-44,
-44,
-38,
-38,
-37,
-37,
-35,
-35,
-37,
-37,
-35,
-35,
-35,
-35,
-33,
-33,
-30,
-30,
-29,
-29,
-27,
-27,
-28,
-28,
-24,
-24,
-23,
-23,
-21,
-21,
-25,
-25,
-25,
-25,
-16,
-16,
-21,
-10,
-13,
-13,
-17,
-17,
-17,
-17,
-14,
-14,
-11,
-11,
-12,
-12,
-12,
-1,
-5,
-5,
-7,
-7,
-3,
-3,
-3,
-3,
2,
2,
-1,
-1,
2,
2,
7,
7,
7,
7,
8,
8,
8,
8,
7,
7,
14,
14,
15,
15,
15,
15,
19,
19,
19,
19,
21,
21,
18,
18,
22,
22,
22,
22,
22,
22,
28,
28,
24,
24,
27,
27,
28,
28,
27,
27,
28,
28,
34,
34,
37,
37,
27,
41,
34,
34,
35,
35,
37,
37,
39,
39,
39,
39,
40,
40,
41,
41,
37,
48,
45,
45,
45,
45,
46,
46,
41,
41,
45,
45,
43,
43,
48,
48,
51,
40,
47,
47,
49,
49,
48,
48,
50,
50,
44,
44,
54,
42,
49,
49,
48,
48,
48,
48,
52,
52,
49,
49,
46,
46,
47,
47,
49,
49,
47,
47,
47,
47,
53,
53,
46,
46,
49,
49,
47,
47,
46,
46,
41,
52,
42,
42,
41,
41,
46,
46,
46,
46,
46,
46,
44,
44,
40,
40,
42,
42,
41,
41,
37,
37,
34,
34,
33,
33,
35,
35,
32,
32,
33,
33,
31,
31,
33,
33,
28,
28,
27,
27,
31,
20,
29,
29,
27,
27,
26,
26,
24,
24,
19,
19,
16,
16,
21,
21,
19,
8,
16,
16,
18,
6,
13,
13,
12,
12,
8,
8,
5,
5,
8,
8,
4,
4,
3,
3,
0,
0,
3,
-8,
-2,
-2,
-5,
-5,
-2,
-2,
-6,
-6,
-6,
-6,
-11,
-11,
-11,
-11,
-15,
-15,
-12,
-12,
-18,
-18,
-19,
-19,
-15,
-26,
-18,
-18,
-22,
-22,
-22,
-22,
-23,
-23,
-23,
-23,
-27,
-27,
-27,
-27,
-33,
-33,
-28,
-28,
-31,
-31,
-28,
-41,
-31,
-31,
-36,
-36,
-39,
-39,
-37,
-37,
-42,
-42,
-45,
-33,
-41,
-41,
-47,
-35,
-39,
-39,
-45,
-45,
-42,
-42,
-44,
-44,
-44,
-44,
-44,
-44,
-50,
-50,
-48,
-48,
-42,
-54,
-49,
-49,
-48,
-48,
-46,
-57,
-49,
-49,
-52,
-52,
-55,
-55,
-53,
-53,
-49,
-49,
-49,
-49,
-49,
-49,
-52,
-52,
-47,
-58,
-52,
-52,
-50,
-50,
-50,
-50,
-51,
-51,
-50,
-50,
-49,
-49,
-50,
-50,
-49,
-49,
-48,
-48,
-50,
-50,
-52,
-52,
-46,
-46,
-48,
-48,
-45,
-45,
-46,
-46,
-47,
-47,
-46,
-46,
-42,
-42,
-45,
-45,
-46,
-46,
-42,
-42,
-43,
-43,
-42,
-42,
-39,
-39,
-39,
-39,
-37,
-37,
-33,
-33,
-37,
-37,
-33,
-33,
-31,
-31,
-33,
-33,
-27,
-27,
-30,
-30,
-25,
-25,
-32,
-21,
-28,
-28,
-24,
-24,
-21,
-21,
-22,
-22,
-21,
-21,
-19,
-19,
-17,
-17,
-15,
-15,
-13,
-13,
-12,
-12,
-11,
-11,
-11,
-11,
-9,
-9,
-9,
-9,
-5,
-5,
-6,
-6,
-3,
-3,
-4,
-4,
-2,
-2,
1,
1,
3,
3,
11,
0,
3,
14,
12,
12,
10,
10,
11,
11,
14,
14,
13,
13,
11,
11,
19,
19,
19,
19,
22,
22,
19,
19,
22,
22,
22,
22,
24,
24,
25,
25,
26,
26,
28,
28,
29,
29,
32,
32,
34,
34,
34,
34,
34,
34,
36,
36,
33,
33,
37,
37,
36,
36,
42,
42,
41,
41,
40,
40,
40,
40,
42,
42,
45,
45,
45,
45,
42,
42,
46,
46,
43,
43,
44,
44,
47,
47,
49,
49,
45,
45,
50,
50,
48,
48,
47,
47,
48,
48,
49,
49,
46,
46,
52,
52,
50,
50,
49,
49,
50,
50,
50,
50,
51,
51,
46,
46,
48,
48,
47,
47,
47,
47,
48,
48,
48,
48,
47,
47,
43,
43,
46,
46,
43,
43,
47,
47,
43,
43,
43,
43,
46,
46,
43,
43,
39,
39,
37,
37,
38,
38,
39,
39,
37,
37,
35,
35,
32,
32,
34,
34,
31,
31,
31,
31,
28,
28,
25,
25,
30,
30,
30,
18,
26,
26,
23,
23,
22,
22,
26,
13,
19,
19,
19,
19,
14,
14,
19,
8,
10,
10,
11,
11,
14,
14,
7,
7,
11,
11,
8,
8,
5,
5,
6,
6,
2,
2,
-2,
-2,
1,
1,
-1,
-1,
-2,
-2,
-7,
-7,
-7,
-7,
-3,
-15,
-7,
-18,
-12,
-12,
-9,
-21,
-11,
-22,
-16,
-16,
-18,
-18,
-14,
-26,
-18,
-18,
-24,
-24,
-20,
-32,
-25,
-25,
-22,
-35,
-27,
-27,
-29,
-29,
-26,
-26,
-30,
-30,
-30,
-30,
-29,
-40,
-29,
-40,
-34,
-34,
-31,
-43,
-39,
-39,
-44,
-33,
-40,
-40,
-38,
-38,
-38,
-38,
-41,
-41,
-45,
-45,
-47,
-47,
-42,
-42,
-47,
-47,
-50,
-39,
-46,
-46,
-47,
-47,
-44,
-55,
-49,
-49,
-44,
-56,
-50,
-50,
-54,
-54,
-48,
-48,
-49,
-49,
-49,
-49,
-50,
-50,
-51,
-51,
-55,
-55,
-53,
-53,
-53,
-53,
-47,
-58,
-49,
-49,
-49,
-49,
-51,
-51,
-49,
-49,
-52,
-52,
-54,
-54,
-55,
-55,
-54,
-54,
-53,
-42,
-46,
-46,
-49,
-49,
-48,
-48,
-47,
-47,
-46,
-46,
-47,
-47,
-45,
-45,
-43,
-43,
-39,
-39,
-41,
-41,
-42,
-42,
-42,
-42,
-38,
-38,
-41,
-29,
-39,
-39,
-40,
-40,
-36,
-36,
-35,
-35,
-34,
-34,
-33,
-33,
-32,
-32,
-26,
-37,
-27,
-27,
-26,
-26,
-24,
-24,
-23,
-23,
-25,
-25,
-27,
-15,
-23,
-23,
-17,
-17,
-20,
-20,
-20,
-20,
-18,
-18,
-12,
-12,
-13,
-13,
-8,
-8,
-5,
-5,
-8,
-8,
-6,
-6,
-6,
-6,
-5,
-5,
-1,
-1,
3,
3,
3,
3,
3,
3,
3,
3,
9,
9,
9,
9,
6,
6,
10,
10,
12,
12,
13,
13,
11,
11,
18,
18,
20,
20,
16,
16,
23,
23,
23,
23,
19,
19,
28,
28,
23,
23,
27,
27,
31,
31,
26,
26,
31,
31,
33,
33,
34,
34,
33,
33,
35,
35,
38,
38,
39,
39,
41,
41,
40,
40,
43,
43,
41,
41,
45,
33,
41,
41,
42,
42,
43,
43,
43,
43,
46,
46,
45,
45,
47,
47,
42,
42,
49,
49,
42,
54,
46,
46,
45,
56,
45,
45,
50,
50,
47,
47,
51,
51,
50,
50,
51,
51,
47,
47,
47,
47,
47,
47,
47,
47,
50,
50,
45,
45,
46,
46,
52,
52,
48,
48,
49,
49,
46,
46,
47,
47,
45,
45,
47,
47,
42,
42,
47,
47,
41,
41,
44,
44,
42,
42,
39,
39,
42,
42,
37,
37,
40,
40,
35,
35,
34,
34,
35,
35,
32,
32,
33,
33,
34,
34,
32,
32,
29,
29,
28,
28,
27,
27,
26,
26,
27,
27,
26,
26,
24,
24,
19,
19,
18,
18,
17,
17,
14,
14,
16,
16,
9,
9,
6,
17,
11,
11,
6,
6,
9,
9,
6,
6,
1,
1,
2,
2,
0,
0,
1,
1,
-2,
-2,
0,
-12,
-1,
-13,
-5,
-5,
-7,
-7,
-7,
-7,
-13,
-13,
-16,
-16,
-14,
-14,
-13,
-13,
-16,
-16,
-20,
-20,
-16,
-27,
-24,
-24,
-25,
-25,
-23,
-23,
-26,
-26,
-29,
-29,
-30,
-30,
-27,
-27,
-31,
-31,
-29,
-29,
-32,
-32,
-31,
-31,
-37,
-37,
-40,
-40,
-35,
-35,
-40,
-40,
-40,
-40,
-37,
-37,
-37,
-48,
-43,
-43,
-45,
-45,
-45,
-45,
-49,
-49,
-47,
-47,
-45,
-45,
-43,
-43,
-46,
-46,
-46,
-46,
-49,
-49,
-50,
-50,
-53,
-53,
-48,
-48,
-46,
-46,
-48,
-48,
-53,
-53,
-51,
-51,
-53,
-53,
-48,
-48,
-51,
-51,
-53,
-53,
-53,
-53,
-49,
-49,
-55,
-55,
-53,
-53,
-50,
-50,
-48,
-48,
-54,
-54,
-49,
-49,
-51,
-51,
-50,
-50,
-49,
-49,
-51,
-40,
-48,
-48,
-50,
-50,
-46,
-46,
-47,
-47,
-47,
-47,
-41,
-53,
-43,
-43,
-42,
-42,
-43,
-43,
-38,
-38,
-38,
-38,
-41,
-41,
-39,
-39,
-34,
-34,
-38,
-38,
-33,
-33,
-31,
-31,
-34,
-34,
-35,
-35,
-34,
-34,
-27,
-27,
-29,
-29,
-25,
-25,
-23,
-35,
-22,
-22,
-27,
-16,
-19,
-19,
-19,
-19,
-17,
-17,
-14,
-14,
-16,
-16,
-10,
-10,
-12,
-12,
-12,
-12,
-9,
-9,
-5,
-5,
-6,
-6,
-6,
-6,
-5,
-5,
-5,
-5,
1,
1,
-3,
9,
1,
1,
5,
5,
7,
7,
7,
7,
8,
8,
11,
11,
14,
14,
12,
12,
16,
16,
18,
18,
17,
17,
19,
19,
21,
21,
21,
21,
26,
26,
24,
24,
24,
24,
25,
25,
27,
27,
27,
27,
29,
29,
30,
30,
32,
32,
35,
35,
33,
44,
35,
35,
39,
39,
40,
40,
41,
41,
40,
40,
39,
39,
43,
43,
45,
45,
42,
42,
42,
42,
43,
43,
48,
48,
51,
40,
44,
44,
49,
49,
48,
48,
51,
51,
48,
48,
50,
50,
47,
47,
44,
55,
47,
47,
51,
51,
49,
49,
50,
50,
48,
48,
51,
51,
48,
48,
43,
54,
52,
41,
45,
45,
47,
47,
46,
46,
47,
47,
48,
48,
43,
43,
46,
46,
45,
45,
44,
44,
43,
43,
45,
45,
42,
42,
43,
43,
39,
39,
40,
40,
42,
42,
42,
42,
41,
41,
40,
40,
37,
37,
39,
28,
38,
26,
34,
34,
32,
32,
31,
31,
28,
28,
28,
28,
26,
26,
30,
19,
23,
23,
24,
24,
22,
22,
17,
17,
20,
20,
15,
15,
18,
18,
19,
6,
13,
13,
11,
11,
7,
7,
12,
12,
9,
9,
7,
7,
3,
3,
3,
3,
-3,
8,
5,
-7,
-7,
5,
-5,
-5,
3,
-11,
0,
-13,
-8,
-8,
-7,
-7,
-9,
-9,
-9,
-9,
-10,
-21,
-14,
-14,
-14,
-14,
-20,
-20,
-19,
-19,
-22,
-22,
-22,
-22,
-22,
-22,
-25,
-25,
-26,
-26,
-23,
-35,
-31,
-31,
-32,
-32,
-34,
-34,
-32,
-32,
-35,
-35,
-34,
-34,
-33,
-33,
-39,
-39,
-38,
-38,
-40,
-40,
-41,
-41,
-39,
-39,
-41,
-41,
-45,
-45,
-50,
-37,
-45,
-45,
-47,
-47,
-44,
-44,
-50,
-50,
-47,
-47,
-46,
-46,
-46,
-46,
-47,
-47,
-45,
-45,
-48,
-48,
-53,
-53,
-48,
-48,
-50,
-50,
-47,
-47,
-49,
-49,
-50,
-50,
-49,
-49,
-50,
-50,
-53,
-53,
-49,
-49,
-53,
-53,
-49,
-49,
-48,
-48,
-54,
-54,
-51,
-51,
-54,
-54,
-48,
-48,
-50,
-50,
-49,
-49,
-48,
-48,
-48,
-48,
-47,
-47,
-47,
-47,
-43,
-43,
-44,
-44,
-40,
-51,
-41,
-41,
-43,
-43,
-43,
-43,
-40,
-40,
-43,
-43,
-38,
-38,
-39,
-39,
-37,
-37,
-38,
-38,
-31,
-31,
-36,
-36,
-30,
-30,
-30,
-30,
-33,
-33,
-34,
-23,
-24,
-35,
-24,
-24,
-25,
-25,
-24,
-24,
-22,
-22,
-25,
-25,
-22,
-22,
-16,
-16,
-18,
-18,
-14,
-14,
-16,
-16,
-11,
-11,
-9,
-9,
-7,
-7,
-11,
-11,
-7,
-7,
-12,
1,
-5,
-5,
-3,
-3,
-5,
6,
2,
2,
1,
1,
2,
2,
3,
3,
2,
14,
5,
5,
12,
12,
11,
11,
12,
12,
12,
12,
16,
16,
14,
14,
19,
19,
22,
22,
25,
25,
18,
29,
25,
25,
22,
33,
25,
25,
27,
27,
30,
30,
33,
33,
29,
29,
32,
32,
33,
33,
31,
31,
32,
32,
35,
35,
38,
38,
35,
35,
41,
41,
41,
41,
44,
44,
42,
42,
41,
41,
46,
46,
42,
42,
43,
43,
47,
47,
47,
47,
45,
45,
46,
46,
44,
44,
47,
47,
45,
45,
46,
46,
49,
49,
48,
48,
48,
48,
48,
48,
48,
48,
49,
49,
46,
46,
50,
50,
49,
49,
43,
54,
51,
51,
47,
47,
49,
49,
49,
49,
51,
51,
47,
47,
48,
48,
46,
46,
46,
46,
42,
42,
43,
43,
48,
37,
40,
40,
42,
42,
41,
41,
35,
46,
39,
39,
40,
40,
37,
37,
38,
38,
35,
35,
35,
35,
37,
37,
30,
30,
31,
31,
30,
30,
30,
30,
31,
20,
26,
26,
26,
26,
22,
22,
24,
24,
18,
18,
20,
20,
15,
27,
17,
17,
17,
17,
11,
11,
9,
9,
6,
18,
8,
8,
7,
7,
8,
8,
6,
6,
1,
1,
0,
0,
4,
-7,
-2,
-2,
-3,
-3,
-3,
-3,
-7,
-7,
-4,
-4,
-13,
-13,
-13,
-13,
-8,
-19,
-19,
-8,
-13,
-13,
-17,
-17,
-17,
-17,
-17,
-17,
-20,
-20,
-19,
-19,
-26,
-26,
-25,
-25,
-26,
-26,
-29,
-29,
-29,
-29,
-28,
-28,
-32,
-32,
-34,
-34,
-32,
-32,
-32,
-32,
-35,
-35,
-34,
-34,
-39,
-39,
-36,
-36,
-41,
-41,
-38,
-38,
-40,
-40,
-41,
-41,
-44,
-44,
-47,
-47,
-46,
-46,
-53,
-40,
-43,
-43,
-45,
-45,
-49,
-49,
-51,
-51,
-49,
-49,
-51,
-51,
-51,
-51,
-51,
-51,
-52,
-52,
-48,
-48,
-49,
-60,
-47,
-59,
-54,
-54,
-53,
-53,
-47,
-58,
-53,
-53,
-49,
-49,
-53,
-53,
-45,
-58,
-55,
-55,
-47,
-47,
-54,
-54,
-50,
-39,
-49,
-49,
-49,
-49,
-50,
-50,
-52,
-52,
-47,
-47,
-45,
-45,
-45,
-45,
-49,
-49,
-49,
-49,
-46,
-46,
-44,
-44,
-45,
-45,
-39,
-39,
-45,
-45,
-42,
-42,
-40,
-40,
-38,
-38,
-39,
-39,
-38,
-38,
-38,
-38,
-37,
-37,
-38,
-27,
-34,
-34,
-30,
-30,
-31,
-31,
-28,
-28,
-27,
-27,
-25,
-25,
-25,
-25,
-20,
-20,
-26,
-15,
-21,
-21,
-15,
-15,
-17,
-17,
-15,
-15,
-15,
-15,
-12,
-12,
-11,
-11,
-12,
-12,
-9,
-9,
-9,
-9,
-4,
-4,
-9,
2,
-1,
-1,
-7,
4,
0,
0,
3,
3,
5,
5,
8,
8,
3,
3,
10,
10,
10,
10,
13,
13,
14,
14,
8,
20,
13,
13,
18,
18,
19,
19,
17,
17,
21,
21,
21,
21,
23,
23,
26,
26,
25,
25,
25,
25,
25,
25,
34,
23,
28,
28,
33,
33,
35,
35,
33,
33,
33,
33,
32,
32,
39,
39,
40,
40,
39,
39,
41,
41,
43,
43,
41,
41,
41,
41,
41,
41,
40,
40,
41,
41,
47,
47,
46,
46,
50,
50,
49,
49,
45,
45,
47,
47,
49,
49,
51,
51,
42,
54,
53,
53,
51,
51,
48,
48,
53,
53,
47,
47,
47,
47,
49,
49,
47,
47,
51,
51,
49,
49,
43,
54,
48,
48,
48,
48,
50,
50,
48,
48,
47,
47,
43,
43,
41,
41,
46,
46,
43,
43,
43,
43,
44,
44,
42,
42,
41,
41,
41,
41,
43,
32,
38,
38,
35,
35,
37,
37,
37,
37,
36,
36,
31,
31,
34,
34,
30,
30,
31,
31,
28,
28,
28,
28,
25,
25,
26,
26,
19,
19,
24,
24,
20,
20,
19,
