5-grundlagen-opAmps/data/ALL0046/A0046CH1.CSV

Memory Length,4000,
Trigger Level,0.00000e+00,
Source,CH1,
Probe,1.0X,
Vertical Units,V,
Vertical Scale,5.00000e-02,
Vertical Position,0.00000e+00,
Horizontal Units,S,
Horizontal Scale,1.00000e-03,
Horizontal Position,1.0000000e-03,
Horizontal Mode,Main,
Sampling Period,4.00000e-06,
Firmware,V1.14,
Time, ,
Mode,Fast,
Waveform Data,
-24,
-24,
-24,
-28,
-15,
-16,
-32,
-21,
-21,
-24,
-12,
-31,
-13,
-15,
-32,
-20,
-31,
-17,
-30,
-23,
-11,
-23,
-10,
-21,
-8,
-19,
-19,
-15,
-29,
-12,
-28,
-19,
-7,
-22,
-7,
-15,
-15,
-12,
-24,
-15,
-15,
-14,
-14,
-12,
-12,
-16,
-3,
-19,
-3,
-12,
-12,
-16,
1,
-4,
-18,
-15,
0,
-8,
-19,
-5,
-5,
-11,
4,
-12,
3,
0,
-15,
-5,
-5,
4,
-13,
-6,
6,
1,
-11,
-5,
9,
-7,
9,
3,
-8,
5,
-9,
6,
-7,
7,
-9,
-4,
14,
7,
-7,
6,
6,
1,
16,
13,
-2,
7,
7,
12,
-2,
6,
17,
11,
0,
5,
20,
15,
1,
8,
19,
12,
12,
13,
13,
18,
3,
14,
14,
12,
23,
16,
5,
16,
5,
20,
7,
19,
19,
23,
8,
15,
28,
20,
9,
13,
27,
21,
9,
16,
29,
20,
8,
12,
28,
16,
28,
18,
18,
20,
20,
19,
31,
21,
21,
22,
22,
19,
31,
17,
29,
14,
29,
17,
31,
25,
12,
22,
22,
26,
12,
26,
12,
21,
21,
26,
13,
24,
13,
22,
11,
17,
32,
17,
30,
26,
12,
19,
32,
13,
30,
13,
30,
21,
21,
14,
29,
17,
29,
21,
21,
16,
29,
22,
9,
22,
8,
17,
17,
22,
8,
20,
8,
15,
27,
16,
16,
17,
17,
20,
5,
17,
6,
15,
4,
14,
3,
13,
13,
9,
21,
9,
23,
6,
21,
9,
21,
14,
3,
11,
11,
13,
0,
6,
17,
13,
-2,
12,
-2,
8,
-4,
-2,
14,
3,
14,
3,
14,
-3,
13,
7,
-5,
7,
-7,
5,
-7,
1,
1,
0,
0,
-3,
10,
5,
-11,
3,
-10,
-3,
8,
0,
-13,
-2,
-2,
0,
-13,
-3,
-15,
3,
-15,
-9,
3,
-3,
-18,
-11,
0,
-11,
0,
-17,
-1,
-15,
-3,
-11,
-22,
-7,
-23,
-13,
-13,
-11,
-25,
-20,
-4,
-9,
-25,
-12,
-25,
-14,
-26,
-16,
-16,
-19,
-8,
-11,
-28,
-16,
-28,
-16,
-28,
-15,
-29,
-25,
-11,
-16,
-30,
-23,
-12,
-20,
-31,
-26,
-13,
-23,
-12,
-22,
-33,
-26,
-14,
-27,
-15,
-22,
-33,
-20,
-35,
-27,
-27,
-21,
-36,
-25,
-37,
-28,
-28,
-23,
-37,
-29,
-17,
-28,
-16,
-33,
-18,
-30,
-18,
-26,
-37,
-27,
-39,
-29,
-29,
-25,
-36,
-31,
-19,
-28,
-39,
-27,
-38,
-22,
-36,
-24,
-38,
-31,
-31,
-32,
-18,
-28,
-17,
-35,
-16,
-33,
-19,
-35,
-17,
-30,
-19,
-25,
-36,
-18,
-36,
-30,
-16,
-27,
-16,
-25,
-37,
-35,
-16,
-20,
-34,
-25,
-25,
-24,
-24,
-25,
-25,
-23,
-23,
-25,
-12,
-23,
-12,
-29,
-12,
-18,
-31,
-19,
-31,
-27,
-12,
-24,
-11,
-18,
-29,
-28,
-10,
-16,
-28,
-17,
-17,
-19,
-7,
-16,
-28,
-12,
-27,
-18,
-7,
-15,
-15,
-17,
-5,
-13,
-13,
-17,
-3,
-13,
-13,
-12,
-12,
-13,
-13,
-12,
-12,
-9,
-9,
-17,
-2,
-13,
-1,
-8,
-8,
-8,
-8,
-4,
-17,
-11,
2,
-4,
-15,
0,
-12,
-5,
6,
3,
-11,
6,
-10,
4,
-9,
-7,
9,
3,
-10,
2,
2,
0,
12,
5,
5,
2,
14,
2,
14,
4,
4,
3,
3,
4,
16,
4,
16,
7,
7,
14,
-1,
8,
19,
9,
20,
12,
0,
4,
20,
13,
2,
11,
22,
15,
4,
15,
15,
11,
24,
9,
26,
14,
14,
14,
14,
21,
6,
21,
6,
15,
15,
17,
17,
23,
8,
22,
9,
16,
29,
23,
11,
19,
19,
17,
30,
25,
8,
18,
18,
20,
31,
17,
29,
21,
21,
19,
19,
21,
21,
15,
29,
25,
13,
15,
32,
20,
32,
19,
33,
20,
31,
18,
32,
16,
30,
21,
21,
28,
12,
25,
11,
14,
29,
20,
20,
22,
22,
25,
12,
18,
30,
19,
19,
20,
20,
26,
9,
17,
29,
20,
9,
21,
10,
17,
28,
15,
28,
20,
8,
16,
27,
12,
27,
23,
7,
16,
16,
12,
26,
15,
27,
16,
16,
19,
5,
16,
5,
9,
23,
14,
1,
3,
20,
4,
20,
13,
2,
10,
10,
15,
0,
8,
8,
13,
-1,
4,
17,
7,
18,
6,
6,
2,
14,
3,
15,
11,
-7,
10,
-8,
-2,
10,
9,
-8,
4,
-10,
-1,
-1,
3,
-10,
1,
-10,
0,
0,
0,
-12,
-7,
5,
-1,
-14,
-6,
-6,
-8,
5,
-2,
-15,
-12,
2,
-9,
-9,
-5,
-16,
-4,
-17,
-3,
-20,
-12,
-1,
-16,
-1,
-19,
-1,
-11,
-11,
-9,
-23,
-17,
-4,
-10,
-25,
-17,
-4,
-16,
-5,
-15,
-27,
-15,
-27,
-22,
-11,
-20,
-9,
-25,
-9,
-13,
-28,
-18,
-31,
-24,
-12,
-19,
-31,
-22,
-22,
-20,
-32,
-28,
-14,
-21,
-21,
-27,
-14,
-26,
-14,
-27,
-15,
-22,
-36,
-32,
-16,
-34,
-18,
-23,
-36,
-33,
-16,
-26,
-26,
-31,
-16,
-30,
-17,
-23,
-37,
-21,
-37,
-21,
-37,
-20,
-37,
-24,
-37,
-27,
-40,
-24,
-38,
-32,
-19,
-31,
-19,
-27,
-39,
-24,
-37,
-36,
-18,
-32,
-19,
-25,
-36,
-33,
-18,
-32,
-17,
-27,
-27,
-27,
-27,
-31,
-17,
-24,
-35,
-27,
-16,
-32,
-16,
-22,
-36,
-29,
-29,
-21,
-36,
-28,
-16,
-20,
-36,
-18,
-34,
-24,
-24,
-23,
-23,
-21,
-33,
-27,
-12,
-28,
-12,
-23,
-12,
-27,
-12,
-24,
-12,
-21,
-21,
-22,
-22,
-17,
-31,
-17,
-28,
-16,
-29,
-15,
-26,
-17,
-17,
-20,
-5,
-14,
-25,
-15,
-15,
-11,
-23,
-12,
-12,
-13,
-2,
-8,
-20,
-10,
-10,
-8,
-21,
-13,
0,
-5,
-18,
-9,
3,
-15,
2,
-10,
3,
-7,
-7,
-3,
-15,
-4,
-4,
-8,
6,
-2,
-14,
-8,
5,
1,
-12,
1,
-10,
2,
-9,
8,
-9,
5,
-8,
2,
2,
3,
3,
-5,
13,
8,
-5,
3,
14,
3,
15,
10,
-4,
1,
17,
10,
-3,
7,
7,
8,
8,
7,
18,
5,
19,
13,
1,
8,
20,
11,
11,
18,
4,
11,
23,
15,
4,
15,
3,
14,
25,
17,
6,
17,
5,
22,
6,
17,
17,
13,
27,
11,
28,
16,
28,
16,
27,
21,
9,
28,
11,
20,
9,
17,
28,
24,
9,
21,
10,
24,
10,
26,
11,
16,
31,
19,
32,
20,
20,
14,
31,
19,
30,
19,
31,
23,
12,
25,
12,
26,
14,
21,
34,
24,
13,
26,
14,
20,
32,
21,
33,
25,
11,
24,
11,
16,
32,
18,
31,
24,
12,
25,
10,
23,
11,
20,
8,
25,
10,
19,
8,
21,
10,
26,
10,
11,
28,
12,
27,
18,
18,
18,
7,
16,
16,
16,
27,
23,
6,
12,
24,
17,
5,
11,
25,
14,
3,
17,
4,
17,
5,
17,
2,
11,
11,
9,
9,
7,
19,
12,
1,
1,
20,
1,
18,
5,
16,
4,
16,
2,
16,
8,
-3,
7,
-4,
9,
-6,
5,
-6,
4,
-7,
1,
1,
4,
-8,
-3,
11,
2,
-11,
1,
-11,
2,
-11,
3,
-12,
2,
-14,
-7,
4,
-4,
-4,
-3,
-16,
-8,
-8,
-1,
-16,
-5,
-17,
-11,
1,
-8,
-19,
-11,
0,
-10,
-10,
-11,
-11,
-11,
-22,
-12,
-23,
-16,
-4,
-16,
-4,
-14,
-14,
-14,
-26,
-19,
-8,
-21,
-9,
-17,
-17,
-16,
-28,
-20,
-20,
-17,
-30,
-17,
-29,
-15,
-31,
-23,
-12,
-15,
-32,
-24,
-24,
-20,
-33,
-21,
-33,
-24,
-13,
-23,
-34,
-24,
-35,
-23,
-36,
-21,
-33,
-24,
-24,
-21,
-36,
-25,
-37,
-25,
-36,
-27,
-27,
-35,
-19,
-26,
-37,
-22,
-36,
-24,
-38,
-20,
-36,
-31,
-18,
-25,
-37,
-27,
-39,
-30,
-18,
-35,
-17,
-26,
-37,
-33,
-17,
-23,
-38,
-28,
-28,
-30,
-19,
-33,
-19,
-25,
-39,
-31,
-17,
-26,
-26,
-20,
-35,
-34,
-16,
-21,
-35,
-27,
-16,
-28,
-16,
-30,
-16,
-22,
-35,
-31,
-16,
-28,
-17,
-21,
-35,
-21,
-35,
-26,
-13,
-29,
-13,
-23,
-23,
-26,
-13,
-15,
-31,
-15,
-31,
-24,
-12,
-18,
-32,
-25,
-12,
-16,
-29,
-27,
-9,
-19,
-8,
-19,
-8,
-17,
-17,
-13,
-26,
-16,
-16,
-12,
-26,
-16,
-5,
-12,
-23,
-9,
-23,
-12,
-23,
-15,
-3,
-14,
-3,
-13,
-2,
-8,
-19,
-10,
-10,
-16,
3,
-6,
-6,
-9,
2,
-3,
-16,
-4,
-15,
3,
-15,
-5,
-5,
-8,
7,
-3,
-3,
-5,
9,
-9,
10,
-3,
10,
-1,
11,
0,
0,
0,
12,
3,
3,
-2,
12,
4,
4,
5,
17,
12,
-3,
9,
-3,
10,
-2,
11,
-2,
8,
8,
9,
-2,
5,
18,
14,
-1,
13,
0,
11,
11,
13,
1,
9,
21,
8,
23,
16,
5,
16,
5,
17,
6,
9,
26,
14,
25,
19,
7,
19,
19,
19,
19,
23,
7,
15,
28,
18,
18,
21,
9,
15,
29,
16,
30,
20,
20,
18,
29,
22,
10,
15,
30,
21,
21,
23,
11,
20,
31,
31,
13,
27,
13,
23,
11,
26,
12,
18,
30,
28,
13,
20,
31,
17,
32,
27,
12,
17,
32,
29,
12,
17,
29,
26,
11,
19,
31,
21,
21,
14,
29,
17,
29,
22,
22,
19,
19,
20,
20,
22,
9,
17,
28,
17,
17,
14,
28,
20,
9,
19,
19,
16,
27,
13,
27,
17,
17,
21,
6,
12,
24,
20,
5,
15,
15,
17,
5,
5,
22,
17,
3,
8,
20,
5,
21,
13,
13,
9,
9,
11,
11,
3,
19,
5,
18,
3,
16,
6,
17,
1,
17,
10,
-3,
11,
-5,
2,
13,
6,
-5,
1,
12,
-2,
12,
6,
-8,
5,
-9,
-1,
-1,
5,
-11,
4,
-12,
2,
-12,
-5,
-5,
0,
-14,
0,
-14,
-5,
-5,
-7,
-7,
-4,
-17,
-4,
-17,
-8,
-8,
-7,
-19,
-7,
-20,
-15,
-1,
-4,
-19,
-6,
-22,
-11,
-23,
-18,
-4,
-21,
-6,
-14,
-14,
-18,
-6,
-20,
-7,
-24,
-7,
-15,
-27,
-15,
-29,
-22,
-11,
-17,
-31,
-21,
-21,
-16,
-31,
-19,
-30,
-19,
-31,
-21,
-32,
-23,
-23,
-25,
-14,
-17,
-33,
-26,
-15,
-29,
-15,
-28,
-15,
-23,
-23,
-19,
-35,
-27,
-27,
-24,
-35,
-25,
-36,
-27,
-27,
-24,
-36,
-24,
-36,
-30,
-17,
-31,
-18,
-29,
-18,
-36,
-19,
-26,
-37,
-25,
-36,
-32,
-19,
-31,
-19,
-31,
-20,
-30,
-19,
-35,
-18,
-28,
-28,
-28,
-28,
-35,
-20,
-33,
-19,
-34,
-19,
-27,
-27,
-24,
-37,
-24,
-36,
-28,
-28,
-23,
-36,
-28,
-17,
-25,
-36,
-22,
-35,
-30,
-17,
-24,
-24,
-28,
-15,
-24,
-24,
-16,
-33,
-19,
-34,
-24,
-24,
-26,
-12,
-28,
-13,
-18,
-30,
-21,
-32,
-20,
-31,
-18,
-30,
-27,
-10,
-27,
-8,
-16,
-27,
-17,
-17,
-12,
-28,
-19,
-19,
-16,
-27,
-17,
-17,
-11,
-26,
-15,
-4,
-16,
-3,
-16,
-4,
-10,
-23,
-15,
0,
-7,
-20,
-13,
-1,
-11,
-11,
-8,
-8,
-11,
2,
-11,
1,
-13,
4,
-3,
-3,
-10,
6,
-1,
-14,
-5,
6,
-1,
-1,
-4,
7,
0,
-11,
3,
-11,
2,
2,
6,
-9,
-5,
13,
3,
3,
3,
-8,
8,
-5,
4,
4,
12,
-5,
10,
-4,
9,
-4,
6,
17,
9,
9,
9,
9,
5,
18,
11,
11,
9,
21,
8,
21,
9,
22,
15,
3,
11,
11,
16,
5,
14,
14,
8,
24,
12,
25,
11,
25,
8,
28,
18,
18,
19,
7,
19,
8,
15,
29,
11,
27,
19,
19,
22,
11,
21,
10,
11,
28,
19,
19,
21,
21,
16,
30,
30,
11,
22,
11,
23,
11,
20,
20,
21,
21,
22,
22,
30,
13,
23,
12,
20,
20,
20,
31,
21,
21,
18,
32,
21,
21,
23,
12,
24,
13,
19,
19,
19,
19,
25,
13,
16,
29,
23,
11,
20,
31,
17,
31,
17,
29,
21,
9,
18,
29,
23,
9,
20,
20,
24,
8,
22,
9,
14,
27,
23,
7,
19,
6,
16,
5,
11,
25,
13,
25,
12,
24,
15,
4,
13,
13,
13,
1,
15,
2,
14,
2,
6,
19,
14,
0,
10,
10,
13,
1,
13,
-1,
12,
-2,
6,
17,
4,
17,
2,
16,
9,
-6,
9,
-6,
13,
-6,
6,
-8,
3,
-8,
2,
2,
1,
12,
3,
-10,
-4,
7,
0,
-11,
-3,
8,
1,
-13,
3,
-13,
-11,
4,
0,
-14,
-13,
5,
-2,
-17,
-9,
-9,
-11,
1,
-12,
-1,
-10,
-10,
-15,
-1,
-13,
-13,
-12,
-23,
-9,
-23,
-11,
-23,
-13,
-24,
-15,
-15,
-15,
-15,
-20,
-6,
-18,
-7,
-20,
-8,
-11,
-27,
-21,
-9,
-15,
-28,
-18,
-18,
-16,
-30,
-23,
-11,
-19,
-30,
-19,
-32,
-27,
-14,
-15,
-32,
-29,
-13,
-16,
-34,
-28,
-15,
-24,
-24,
-24,
-24,
-26,
-14,
-31,
-14,
-30,
-16,
-30,
-18,
-22,
-36,
-28,
-28,
-31,
-18,
-23,
-37,
-27,
-27,
-25,
-37,
-33,
-19,
-30,
-18,
-27,
-27,
-30,
-17,
-28,
-17,
-27,
-27,
-24,
-37,
-29,
-17,
-28,
-28,
-23,
-36,
-31,
-18,
-20,
-37,
-29,
-18,
-26,
-38,
-27,
-27,
-22,
-35,
-31,
-17,
-26,
-26,
-26,
-37,
-31,
-17,
-26,
-26,
-25,
-25,
-31,
-15,
-29,
-13,
-21,
-33,
-31,
-14,
-26,
-14,
-25,
-13,
-20,
-32,
-24,
-12,
-22,
-22,
-20,
-32,
-24,
-13,
-19,
-31,
-17,
-28,
-20,
-20,
-16,
-30,
-16,
-30,
-19,
-8,
-21,
-7,
-17,
-17,
-20,
-7,
-14,
-25,
-12,
-24,
-8,
-22,
-15,
-4,
-18,
-3,
-11,
-11,
-4,
-20,
-15,
-3,
-6,
-20,
-8,
-8,
-6,
-17,
-15,
2,
-7,
4,
-7,
-7,
-6,
-6,
-8,
4,
-1,
-1,
-7,
5,
-4,
-4,
0,
-11,
-4,
10,
4,
-9,
-2,
9,
9,
-8,
5,
-7,
6,
-8,
8,
-7,
4,
4,
2,
13,
12,
-4,
3,
16,
9,
-3,
6,
17,
5,
19,
6,
20,
10,
10,
5,
22,
12,
12,
12,
12,
9,
22,
13,
13,
19,
4,
12,
23,
9,
24,
17,
17,
8,
25,
16,
27,
19,
7,
19,
7,
19,
19,
19,
19,
16,
28,
15,
28,
15,
29,
23,
11,
20,
20,
21,
21,
17,
30,
13,
29,
17,
29,
23,
12,
18,
30,
23,
23,
17,
31,
16,
30,
20,
20,
17,
29,
26,
12,
26,
13,
25,
13,
23,
10,
24,
12,
21,
32,
18,
30,
20,
20,
24,
12,
24,
12,
27,
10,
20,
20,
23,
10,
21,
9,
12,
27,
15,
30,
21,
9,
26,
9,
20,
8,
22,
10,
22,
10,
19,
19,
14,
25,
21,
7,
19,
7,
19,
7,
16,
16,
11,
24,
10,
23,
16,
4,
7,
22,
12,
12,
11,
11,
9,
9,
16,
0,
19,
0,
6,
19,
5,
18,
8,
8,
12,
-1,
9,
-2,
3,
15,
4,
4,
4,
4,
-3,
12,
8,
-8,
9,
-7,
1,
12,
1,
1,
-4,
9,
-3,
8,
2,
-9,
-1,
-1,
-6,
6,
-3,
-3,
-3,
-15,
-2,
-15,
-8,
-8,
-9,
3,
2,
-18,
-7,
-7,
-12,
0,
-7,
-19,
-8,
-20,
-11,
-11,
-15,
-1,
-5,
-22,
-9,
-24,
-17,
-4,
-13,
-13,
-17,
-17,
-10,
-27,
-16,
-16,
-19,
-19,
-18,
-18,
-19,
-8,
-17,
-29,
-13,
-28,
-13,
-28,
-23,
-11,
-13,
-31,
-19,
-31,
-22,
-22,
-26,
-12,
-21,
-33,
-20,
-33,
-24,
-24,
-24,
-24,
-31,
-17,
-26,
-26,
-27,
-27,
-30,
-17,
-32,
-17,
-25,
-37,
-25,
-37,
-30,
-18,
-22,
-37,
-31,
-17,
-28,
-28,
-27,
-27,
-24,
-37,
-28,
-17,
-27,
-27,
-32,
-19,
-28,
-39,
-27,
-39,
-32,
-19,
-26,
-37,
-27,
-39,
-27,
-27,
-29,
-18,
-31,
-18,
-33,
-19,
-28,
-28,
-35,
-18,
-28,
-17,
-30,
-16,
-23,
-35,
-27,
-27,
-27,
-27,
-24,
-35,
-27,
-15,
-27,
-16,
-27,
-15,
-24,
-24,
-19,
-32,
-16,
-32,
-28,
-13,
-23,
-23,
-23,
-23,
-22,
-22,
-27,
-13,
-18,
-31,
-25,
-12,
-23,
-12,
-19,
-19,
-22,
-9,
-17,
-28,
-12,
-27,
-15,
-26,
-17,
-17,
-16,
-16,
-9,
-24,
-14,
-14,
-14,
-14,
-18,
-5,
-12,
-23,
-15,
-3,
-17,
-2,
-17,
0,
-11,
1,
-12,
1,
-5,
-17,
-3,
-16,
-9,
2,
-2,
-16,
-2,
-16,
-9,
5,
-7,
5,
-1,
-1,
0,
-11,
0,
0,
1,
-11,
-3,
9,
6,
-11,
-3,
12,
-3,
11,
7,
-6,
4,
15,
-3,
15,
8,
-4,
4,
16,
2,
16,
7,
7,
11,
-1,
6,
19,
15,
0,
3,
21,
11,
11,
18,
3,
16,
4,
17,
3,
11,
23,
16,
4,
13,
13,
12,
25,
20,
6,
19,
6,
16,
16,
21,
6,
17,
17,
20,
8,
25,
8,
13,
27,
13,
29,
20,
9,
14,
29,
15,
29,
22,
9,
18,
29,
14,
30,
27,
11,
15,
31,
22,
22,
19,
30,
16,
30,
27,
12,
25,
13,
21,
21,
20,
20,
20,
20,
13,
31,
21,
21,
24,
11,
19,
19,
23,
11,
18,
30,
21,
21,
24,
11,
21,
21,
24,
12,
15,
30,
18,
29,
17,
29,
24,
11,
12,
29,
25,
9,
13,
28,
18,
18,
22,
8,
27,
5,
18,
5,
15,
15,
17,
4,
16,
5,
13,
24,
11,
24,
10,
24,
15,
15,
10,
24,
16,
1,
15,
0,
17,
1,
10,
-1,
6,
19,
17,
-1,
11,
0,
8,
19,
6,
6,
5,
5,
1,
15,
0,
13,
4,
4,
-4,
12,
-3,
11,
9,
-9,
-3,
11,
3,
-8,
0,
-11,
-4,
8,
-4,
-4,
-3,
-3,
-3,
-3,
-5,
-5,
-3,
-15,
-1,
-16,
0,
-16,
-8,
-8,
-9,
-9,
-14,
0,
-12,
1,
-13,
0,
-3,
-19,
-15,
-3,
-17,
-3,
-11,
-23,
-14,
-14,
-20,
-4,
-12,
-23,
-21,
-5,
-17,
-17,
-18,
-18,
-13,
-28,
-19,
-19,
-15,
-28,
-17,
-29,
-16,
-28,
-19,
-30,
-27,
-11,
-20,
-31,
-24,
-24,
-24,
-12,
-20,
-32,
-23,
-23,
-22,
-34,
-28,
-13,
-28,
-15,
-32,
-15,
-35,
-17,
-21,
-34,
-21,
-35,
-24,
-37,
-26,
-26,
-28,
-16,
-29,
-17,
-28,
-28,
-23,
-36,
-26,
-38,
-26,
-37,
-30,
-19,
-27,
-27,
-31,
-19,
-24,
-39,
-26,
-38,
-25,
-39,
-25,
-39,
-27,
-39,
-27,
-39,
-29,
-17,
-25,
-37,
-31,
-19,
-27,
-39,
-30,
-17,
-25,
-37,
-28,
-16,
-28,
-17,
-28,
-17,
-25,
-25,
-32,
-16,
-28,
-16,
-29,
-15,
-27,
-15,
-22,
-35,
-23,
-23,
-23,
-23,
-27,
-14,
-22,
-33,
-15,
-32,
-19,
-32,
-23,
-12,
-20,
-20,
-27,
-11,
-19,
-19,
-18,
-29,
-19,
-19,
-17,
-17,
-25,
-9,
-18,
-7,
-19,
-8,
-13,
-27,
-9,
-27,
-15,
-15,
-20,
-5,
-9,
-23,
-17,
-2,
-12,
-23,
-5,
-20,
-14,
-2,
-4,
-19,
-4,
-18,
-9,
2,
-6,
-18,
-4,
-15,
-5,
-5,
-10,
6,
-6,
-6,
-1,
-14,
-6,
8,
-5,
9,
0,
-12,
4,
-11,
-1,
10,
1,
12,
-4,
12,
7,
-9,
5,
-7,
0,
14,
5,
5,
8,
-4,
1,
15,
8,
8,
5,
19,
8,
8,
13,
-2,
6,
19,
12,
12,
5,
21,
15,
1,
5,
21,
9,
21,
7,
23,
16,
5,
11,
24,
9,
25,
15,
15,
19,
5,
17,
6,
17,
17,
18,
18,
15,
27,
21,
8,
19,
8,
15,
29,
15,
29,
19,
19,
16,
29,
29,
9,
19,
31,
22,
11,
19,
31,
25,
10,
24,
11,
23,
11,
21,
10,
16,
32,
12,
31,
22,
11,
20,
32,
23,
12,
20,
31,
22,
22,
17,
31,
13,
30,
27,
11,
22,
9,
22,
10,
15,
29,
14,
29,
24,
9,
16,
29,
21,
21,
18,
29,
16,
29,
18,
29,
21,
10,
13,
28,
17,
29,
16,
27,
18,
18,
17,
6,
18,
18,
17,
17,
18,
6,
13,
25,
21,
4,
16,
3,
15,
2,
15,
1,
8,
21,
8,
21,
12,
1,
9,
20,
12,
1,
8,
19,
15,
0,
8,
19,
3,
17,
4,
17,
-3,
16,
8,
-4,
9,
-5,
1,
12,
1,
1,
-6,
12,
8,
-8,
0,
11,
-2,
9,
1,
-12,
-3,
-3,
-9,
7,
5,
-12,
-8,
8,
-5,
-5,
2,
-14,
-1,
-15,
-8,
4,
-8,
3,
-3,
-18,
-8,
-19,
-5,
-21,
-4,
-21,
-12,
-1,
-10,
-22,
-8,
-20,
-16,
-4,
-11,
-24,
-11,
-25,
-16,
-16,
-15,
-26,
-11,
-25,
-20,
-8,
-16,
-28,
-20,
-20,
-19,
-19,
-19,
-19,
-25,
-9,
-18,
-30,
-20,
-31,
-24,
-12,
-27,
-12,
-24,
-13,
-20,
-33,
-23,
-23,
-25,
-14,
-28,
-15,
-24,
-24,
-27,
-16,
-20,
-37,
-33,
-17,
-29,
-17,
-25,
-36,
-26,
-26,
-24,
-35,
-25,
-37,
-23,
-38,
-28,
-39,
-21,
-38,
-27,
-27,
-24,
-38,
-28,
-28,
-31,
-19,
-26,
-37,
-27,
-38,
-32,
-20,
-24,
-38,
-31,
-19,
-25,
-39,
-26,
-37,
-29,
-18,
-27,
-38,
-34,
-20,
-22,
-37,
-27,
-27,
-28,
-15,
-23,
-35,
-21,
-36,
-24,
-35,
-22,
-36,
-23,
-35,
-28,
-14,
-19,
-34,
-15,
-34,
-26,
-14,
-27,
-12,
-20,
-32,
-28,
-14,
-21,
-32,
-24,
-24,
-18,
-31,
-27,
-10,
-17,
-28,
-24,
-10,
-15,
-29,
-13,
-29,
-20,
-9,
-23,
-8,
-15,
-27,
-12,
-27,
-16,
-3,
-12,
-23,
-17,
-3,
-19,
-5,
-10,
-22,
-6,
-20,
-15,
-1,
-8,
-20,
-10,
-21,
-7,
-19,
-8,
-8,
-6,
-18,
-9,
-9,
-8,
3,
-7,
4,
-5,
6,
-3,
-3,
-4,
7,
-4,
7,
-5,
7,
-3,
8,
-4,
9,
-6,
11,
1,
-10,
0,
12,
-2,
12,
1,
12,
0,
13,
8,
-4,
4,
16,
6,
6,
10,
-3,
9,
9,
4,
19,
8,
20,
7,
19,
9,
20,
3,
20,
15,
0,
14,
14,
16,
4,
14,
14,
14,
14,
11,
24,
18,
5,
17,
5,
16,
16,
15,
26,
23,
7,
23,
7,
18,
18,
18,
18,
20,
8,
26,
10,
16,
28,
24,
9,
20,
9,
22,
22,
16,
30,
25,
10,
24,
9,
17,
30,
19,
30,
25,
13,
23,
12,
21,
21,
16,
30,
18,
31,
23,
12,
26,
12,
13,
31,
21,
32,
19,
31,
16,
30,
23,
12,
20,
31,
25,
13,
22,
22,
27,
12,
21,
21,
27,
12,
24,
11,
25,
12,
14,
29,
20,
20,
25,
8,
14,
27,
18,
18,
21,
8,
11,
26,
19,
6,
18,
7,
18,
6,
13,
24,
13,
24,
21,
5,
19,
4,
12,
23,
14,
14,
15,
1,
12,
1,
15,
0,
8,
8,
8,
8,
7,
18,
11,
-2,
-1,
17,
8,
8,
5,
16,
4,
17,
10,
-4,
0,
13,
-3,
13,
-2,
14,
0,
12,
-4,
12,
3,
-9,
1,
1,
-2,
9,
-3,
8,
5,
-13,
-1,
-15,
1,
-14,
-3,
-15,
-11,
4,
-3,
-15,
-5,
-16,
-15,
2,
0,
-19,
-19,
0,
-8,
-20,
-18,
-1,
-11,
-23,
-15,
-3,
-9,
-23,
-15,
-3,
-19,
-3,
-16,
-16,
-20,
-8,
-16,
-27,
-15,
-27,
-19,
-19,
-26,
-11,
-17,
-29,
-14,
-29,
-25,
-12,
-25,
-12,
-18,
-31,
-16,
-30,
-20,
-31,
-23,
-23,
-20,
-33,
-22,
-33,
-23,
-23,
-25,
-25,
-24,
-36,
-27,
-27,
-32,
-16,
-21,
-34,
-19,
-35,
-22,
-37,
-31,
-16,
-27,
-16,
-33,
-17,
-29,
-29,
-26,
-39,
-33,
-19,
-24,
-37,
-24,
-36,
-23,
-36,
-33,
-18,
-32,
-17,
-23,
-36,
-30,
-17,
-24,
-37,
-32,
-17,
-20,
-36,
-36,
-18,
-20,
-37,
-33,
-17,
-31,
-17,
-25,
-37,
-23,
-37,
-31,
-19,
-29,
-18,
-28,
-28,
-21,
-37,
-20,
-35,
-29,
-17,
-34,
-16,
-28,
-16,
-24,
-36,
-26,
-15,
-23,
-34,
-27,
-13,
-19,
-32,
-22,
-22,
-22,
-22,
-16,
-31,
-17,
-31,
-23,
-11,
-23,
-9,
-22,
-9,
-19,
-8,
-16,
-27,
-23,
-8,
-18,
-18,
-15,
-26,
-7,
-24,
-11,
-23,
-10,
-21,
-14,
-1,
-13,
-13,
-4,
-21,
-15,
-2,
-11,
-22,
-10,
-10,
-11,
1,
-7,
-7,
-9,
-9,
-4,
-16,
-8,
5,
-6,
-6,
-11,
6,
-1,
-14,
-11,
6,
1,
-13,
-1,
-1,
1,
-11,
3,
-11,
-4,
10,
7,
-9,
0,
12,
3,
3,
7,
-4,
-2,
15,
9,
-3,
4,
16,
9,
-2,
0,
18,
12,
-1,
11,
0,
7,
18,
9,
9,
8,
19,
16,
1,
4,
21,
13,
2,
12,
12,
8,
22,
12,
12,
13,
13,
17,
3,
12,
25,
22,
7,
14,
26,
13,
27,
23,
9,
19,
19,
20,
8,
12,
29,
17,
29,
15,
30,
10,
29,
21,
21,
20,
20,
24,
10,
23,
9,
17,
31,
16,
29,
20,
20,
24,
11,
14,
28,
25,
11,
24,
11,
19,
19,
25,
12,
17,
30,
19,
31,
20,
32,
24,
13,
27,
12,
21,
21,
15,
32,
17,
30,
22,
11,
25,
12,
25,
10,
19,
32,
15,
30,
14,
29,
17,
29,
17,
28,
24,
8,
21,
8,
18,
18,
9,
26,
15,
27,
17,
17,
16,
27,
13,
25,
14,
25,
18,
5,
12,
23,
8,
23,
20,
3,
7,
21,
16,
2,
6,
21,
9,
20,
5,
20,
9,
9,
4,
17,
9,
-2,
8,
8,
4,
