1-signale-auf-leitern/data/ALL0008/A0008CH1.CSV

Memory Length,4000,
Trigger Level,3.80000e+01,
Source,CH1,
Probe,1.0X,
Vertical Units,V,
Vertical Scale,5.00000e-02,
Vertical Position,0.00000e+00,
Horizontal Units,S,
Horizontal Scale,5.00000e-08,
Horizontal Position,1.9200000e-07,
Horizontal Mode,Main,
Sampling Period,2.00000e-09,
Firmware,V1.14,
Time, ,
Mode,Fast,
Waveform Data,
-2,
-2,
-1,
-2,
-2,
-2,
-2,
-3,
-2,
-4,
-3,
-5,
-6,
-7,
-7,
-8,
-10,
-11,
-9,
-9,
-10,
-12,
-11,
-11,
-13,
-11,
-15,
-12,
-14,
-16,
-13,
-15,
-14,
-15,
-13,
-13,
-14,
-15,
-13,
-13,
-14,
-14,
-13,
-13,
-14,
-16,
-14,
-15,
-15,
-16,
-15,
-14,
-13,
-14,
-12,
-11,
-11,
-11,
-8,
-6,
-6,
-6,
-5,
-4,
-3,
-3,
-2,
-2,
-3,
-3,
-2,
-3,
-2,
-4,
-5,
-4,
-6,
-6,
-6,
-7,
-9,
-8,
-8,
-9,
-9,
-13,
-11,
-11,
-11,
-10,
-15,
-13,
-13,
-15,
-14,
-13,
-14,
-14,
-12,
-12,
-13,
-15,
-12,
-11,
-12,
-12,
-13,
-12,
-13,
-14,
-12,
-14,
-14,
-15,
-13,
-12,
-11,
-11,
-11,
-10,
-9,
-8,
-7,
-7,
-8,
-6,
-5,
-5,
-4,
-5,
-4,
-3,
-4,
-4,
-3,
-3,
-3,
-4,
-4,
-4,
-5,
-6,
-6,
-7,
-8,
-9,
-9,
-9,
-9,
-11,
-11,
-11,
-14,
-11,
-13,
-13,
-11,
-15,
-11,
-12,
-13,
-14,
-11,
-11,
-11,
-11,
-10,
-11,
-13,
-11,
-11,
-10,
-11,
-13,
-11,
-12,
-12,
-13,
-11,
-11,
-11,
-12,
-10,
-10,
-9,
-9,
-7,
-8,
-8,
-7,
-6,
-5,
-4,
-5,
-5,
-4,
-3,
-4,
-3,
-4,
-4,
-5,
-4,
-4,
-5,
-6,
-6,
-5,
-6,
-7,
-7,
-9,
-9,
-10,
-11,
-11,
-11,
-11,
-11,
-10,
-10,
-15,
-11,
-10,
-12,
-12,
-12,
-11,
-11,
-12,
-11,
-11,
-11,
-10,
-10,
-10,
-11,
-11,
-11,
-10,
-11,
-11,
-10,
-9,
-8,
-10,
-10,
-9,
-10,
-8,
-7,
-8,
-6,
-7,
-6,
-5,
-7,
-6,
-6,
-5,
-4,
-5,
-5,
-5,
-6,
-5,
-5,
-5,
-5,
-6,
-5,
-6,
-6,
-6,
-7,
-8,
-8,
-8,
-9,
-10,
-11,
-12,
-11,
-11,
-13,
-11,
-11,
-10,
-11,
-11,
-10,
-9,
-11,
-11,
-10,
-9,
-10,
-10,
-8,
-9,
-11,
-10,
-11,
-8,
-10,
-11,
-11,
-9,
-9,
-10,
-8,
-8,
-9,
-8,
-6,
-6,
-7,
-7,
-6,
-6,
-7,
-6,
-7,
-5,
-4,
-4,
-5,
-5,
-4,
-6,
-6,
-5,
-5,
-6,
-5,
-5,
-6,
-7,
-7,
-8,
-9,
-10,
-10,
-10,
-10,
-11,
-11,
-10,
-11,
-11,
-10,
-10,
-11,
-13,
-11,
-10,
-11,
-10,
-9,
-9,
-10,
-11,
-10,
-9,
-9,
-8,
-10,
-9,
-9,
-8,
-7,
-8,
-9,
-8,
-7,
-8,
-8,
-7,
-7,
-7,
-7,
-8,
-6,
-5,
-7,
-7,
-7,
-5,
-4,
-7,
-6,
-5,
-6,
-6,
-5,
-5,
-6,
-6,
-5,
-5,
-6,
-8,
-8,
-7,
-8,
-9,
-8,
-9,
-9,
-11,
-10,
-9,
-11,
-11,
-11,
-10,
-10,
-11,
-10,
-10,
-11,
-10,
-10,
-9,
-9,
-10,
-7,
-9,
-10,
-10,
-8,
-8,
-9,
-10,
-7,
-8,
-8,
-8,
-6,
-8,
-8,
-8,
-7,
-6,
-7,
-8,
-6,
-5,
-6,
-7,
-5,
-5,
-6,
-6,
-6,
-6,
-5,
-7,
-6,
-5,
-6,
-6,
-7,
-7,
-6,
-7,
-6,
-6,
-8,
-9,
-9,
-8,
-10,
-8,
-9,
-9,
-9,
-9,
-9,
-9,
-11,
-9,
-10,
-9,
-9,
-10,
-8,
-8,
-9,
-8,
-7,
-8,
-8,
-8,
-7,
-8,
-9,
-8,
-7,
-8,
-8,
-8,
-6,
-6,
-8,
-7,
-6,
-6,
-7,
-7,
-6,
-6,
-6,
-7,
-6,
-6,
-7,
-7,
-6,
-5,
-6,
-7,
-6,
-4,
-6,
-6,
-6,
-5,
-6,
-7,
-6,
-6,
-8,
-7,
-6,
-8,
-8,
-8,
-8,
-9,
-8,
-10,
-8,
-9,
-9,
-9,
-10,
-9,
-9,
-8,
-8,
-8,
-9,
-8,
-8,
-6,
-8,
-8,
-7,
-8,
-8,
-7,
-6,
-6,
-8,
-8,
-7,
-6,
-7,
-7,
-7,
-6,
-6,
-7,
-5,
-6,
-6,
-6,
-7,
-6,
-5,
-6,
-6,
-5,
-7,
-6,
-5,
-5,
-6,
-6,
-5,
-6,
-6,
-7,
-6,
-6,
-7,
-7,
-7,
-8,
-8,
-9,
-9,
-9,
-8,
-8,
-6,
-8,
-8,
-8,
-8,
-9,
-9,
-8,
-7,
-8,
-8,
-8,
-7,
-8,
-9,
-8,
-8,
-7,
-7,
-7,
-8,
-6,
-8,
-7,
-6,
-6,
-7,
-7,
-5,
-6,
-6,
-7,
-6,
-8,
-7,
-6,
-5,
-4,
-6,
-6,
-6,
-6,
-6,
-7,
-5,
-5,
-6,
-7,
-5,
-5,
-6,
-7,
-5,
-6,
-6,
-7,
-6,
-6,
-8,
-8,
-8,
-6,
-8,
-8,
-7,
-8,
-9,
-7,
-7,
-9,
-8,
-8,
-8,
-7,
-8,
-8,
-7,
-6,
-7,
-7,
-6,
-8,
-6,
-8,
-7,
-6,
-6,
-6,
-6,
-5,
-6,
-8,
-7,
-5,
-6,
-6,
-5,
-5,
-6,
-6,
-4,
-5,
-6,
-7,
-6,
-6,
-6,
-6,
-6,
-5,
-7,
-7,
-6,
-5,
-6,
-7,
-6,
-8,
-6,
-7,
-6,
-6,
-8,
-8,
-6,
-7,
-8,
-7,
-6,
-8,
-9,
-8,
-6,
-7,
-7,
-7,
-7,
-7,
-6,
-8,
-7,
-5,
-8,
-6,
-6,
-6,
-6,
-6,
-6,
-5,
-6,
-7,
-6,
-4,
-4,
-6,
-5,
-4,
-6,
-6,
-5,
-5,
-4,
-6,
-5,
-5,
-5,
-6,
-5,
-5,
-5,
-7,
-6,
-5,
-5,
-6,
-5,
-5,
-6,
-6,
-7,
-6,
-6,
-7,
-6,
-6,
-6,
-7,
-7,
-6,
-7,
-7,
-6,
-7,
-7,
-8,
-7,
-6,
-8,
-8,
-7,
-6,
-6,
-7,
-7,
-6,
-6,
-6,
-5,
-5,
-6,
-6,
-6,
-6,
-6,
-6,
-6,
-6,
-6,
-6,
-5,
-5,
-6,
-6,
-6,
-5,
-5,
-6,
-5,
-5,
-4,
-7,
-6,
-4,
-5,
-6,
-5,
-5,
-4,
-6,
-6,
-5,
-6,
-7,
-6,
-6,
-6,
-6,
-5,
-5,
-6,
-6,
-6,
-5,
-7,
-7,
-7,
-6,
-6,
-7,
-6,
-6,
-8,
-7,
-7,
-6,
-7,
-6,
-7,
-7,
-6,
-7,
-6,
-6,
-6,
-7,
-5,
-5,
-4,
-6,
-6,
-6,
-6,
-6,
-6,
-5,
-6,
-5,
-5,
-4,
-4,
-5,
-5,
-5,
-5,
-5,
-5,
-5,
-6,
-6,
-5,
-5,
-6,
-6,
-6,
-5,
-6,
-6,
-6,
-6,
-6,
-7,
-5,
-6,
-6,
-7,
-6,
-5,
-6,
-6,
-6,
-5,
-6,
-7,
-6,
-5,
-5,
-6,
-6,
-5,
-6,
-7,
-6,
-8,
-4,
-5,
-6,
-5,
-6,
-6,
-6,
-4,
-4,
-6,
-6,
-5,
-4,
-4,
-5,
-5,
-6,
-5,
-5,
-5,
-6,
-6,
-6,
-4,
-4,
-4,
-5,
-6,
-6,
-7,
-6,
-6,
-6,
-6,
-5,
-4,
-5,
-6,
-5,
-5,
-6,
-7,
-6,
-5,
-5,
-6,
-4,
-5,
-6,
-7,
-5,
-5,
-6,
-6,
-6,
-5,
-6,
-6,
-5,
-5,
-6,
-6,
-5,
-5,
-6,
-6,
-5,
-5,
-7,
-6,
-5,
-5,
-5,
-6,
-4,
-4,
-6,
-6,
-5,
-5,
-4,
-5,
-5,
-4,
-3,
-4,
-4,
-5,
-3,
-4,
-4,
-4,
-4,
-4,
-5,
-5,
-6,
-6,
-5,
-4,
-6,
-5,
-5,
-4,
-4,
-5,
-6,
-5,
-4,
-5,
-6,
-5,
-6,
-6,
-5,
-5,
-5,
-6,
-5,
-5,
-6,
-7,
-6,
-8,
-6,
-7,
-6,
-5,
-6,
-6,
-5,
-5,
-5,
-6,
-4,
-4,
-4,
-4,
-5,
-5,
-4,
-6,
-5,
-4,
-6,
-6,
-5,
-5,
-6,
-5,
-5,
-5,
-4,
-6,
-6,
-5,
-6,
-5,
-5,
-4,
-5,
-6,
-5,
-5,
-6,
-4,
-5,
-4,
-4,
-6,
-5,
-6,
-6,
-6,
-5,
-5,
-6,
-5,
-6,
-4,
-6,
-6,
-6,
-5,
-5,
-4,
-5,
-5,
-4,
-7,
-5,
-4,
-3,
-5,
-5,
-3,
-4,
-6,
-6,
-4,
-4,
-6,
-5,
-5,
-4,
-5,
-3,
-4,
-4,
-4,
-5,
-4,
-4,
-3,
-3,
-4,
-6,
-5,
-5,
-4,
-4,
-6,
-5,
-4,
-5,
-5,
-4,
-4,
-3,
-7,
-5,
-5,
-5,
-4,
-5,
-3,
-2,
-7,
-5,
-5,
-4,
-6,
-4,
-4,
-5,
-6,
-5,
-5,
-6,
-6,
-6,
-4,
-5,
-5,
-5,
-4,
-4,
-5,
-4,
-4,
-4,
-6,
-6,
-5,
-6,
-4,
-5,
-4,
-4,
-5,
-4,
-5,
-4,
-4,
-5,
-4,
-4,
-6,
-4,
-4,
-4,
-6,
-5,
-4,
-4,
-4,
-5,
-4,
-3,
-5,
-5,
-5,
-5,
-4,
-5,
-5,
-4,
-5,
-5,
-4,
-4,
-5,
-5,
-5,
-4,
-5,
-5,
-5,
-4,
-6,
-5,
-5,
-4,
-4,
-4,
-4,
-4,
-5,
-5,
-5,
-4,
-5,
-5,
-4,
-4,
-6,
-5,
-5,
-6,
-6,
-6,
-4,
-3,
-6,
-5,
-4,
-5,
-5,
-5,
-3,
-4,
-4,
-5,
-4,
-4,
-4,
-4,
-4,
-5,
-5,
-5,
-5,
-4,
-5,
-4,
-4,
-5,
-4,
-4,
-4,
-5,
-6,
-5,
-5,
-4,
-5,
-4,
-4,
-4,
-6,
-4,
-4,
-3,
-4,
-6,
-5,
-4,
-6,
-5,
-4,
-6,
-6,
-4,
-4,
-4,
-4,
-6,
-4,
-5,
-4,
-3,
-4,
-4,
-4,
-4,
-4,
-4,
-4,
-4,
-4,
-3,
-4,
-5,
-4,
-5,
-3,
-3,
-4,
-4,
-4,
-4,
-4,
-3,
-6,
-3,
-3,
-3,
-4,
-3,
-5,
-5,
-6,
-5,
-4,
-4,
-4,
-5,
-4,
-3,
-7,
-4,
-4,
-4,
-4,
-6,
-4,
-4,
-6,
-5,
-5,
-3,
-6,
-5,
-4,
-4,
-4,
-5,
-4,
-3,
-4,
-5,
-4,
-5,
-4,
-4,
-4,
-4,
-4,
-5,
-4,
-4,
-4,
-4,
-4,
-4,
-6,
-4,
-3,
-4,
-5,
-5,
-4,
-4,
-5,
-3,
-4,
-4,
-5,
-5,
-4,
-4,
-6,
-4,
-4,
-4,
-4,
-5,
-4,
-6,
-6,
-5,
-4,
-6,
-5,
-4,
-4,
-3,
-6,
-5,
-4,
-3,
-4,
-5,
-5,
-4,
-4,
-4,
-4,
-3,
-4,
-4,
-4,
-3,
-4,
-3,
-5,
-4,
-5,
-4,
-3,
-3,
-4,
-4,
-4,
-4,
-5,
-4,
-3,
-4,
-4,
-4,
-3,
-4,
-4,
-4,
-2,
-1,
-6,
-5,
-3,
-3,
-4,
-3,
-3,
-3,
-4,
-4,
-4,
-4,
-4,
-3,
-3,
-3,
-4,
-3,
-4,
-6,
-2,
-6,
-3,
-4,
-3,
-4,
-4,
-2,
-5,
-3,
-4,
-4,
-4,
-4,
-4,
-3,
-4,
-3,
-3,
-3,
-5,
-4,
-4,
-3,
-4,
-4,
-4,
-3,
-4,
-4,
-4,
-2,
-6,
-4,
-4,
-4,
-3,
-4,
-3,
-2,
-6,
-4,
-4,
-3,
-4,
-4,
-3,
-4,
-4,
-3,
-3,
-3,
-4,
-4,
-4,
-3,
-3,
-5,
-3,
-4,
-6,
-3,
-4,
-4,
-4,
-5,
-3,
-4,
-4,
-4,
-4,
-2,
-6,
-3,
-4,
-4,
-4,
-4,
-3,
-4,
-4,
-3,
-4,
-2,
-4,
-4,
-4,
-3,
-4,
-3,
-4,
-4,
-3,
-4,
-4,
-2,
-6,
-4,
-4,
-3,
-4,
-3,
-4,
-2,
-5,
-3,
-5,
-4,
-4,
-3,
-3,
-2,
-6,
-3,
-3,
-3,
-4,
-2,
-3,
-3,
-3,
-3,
-3,
-3,
-4,
-4,
-4,
-3,
-3,
-4,
-3,
-3,
-4,
-4,
-4,
-4,
-4,
-3,
-2,
-3,
-4,
-3,
-3,
-2,
-6,
-4,
-4,
-3,
-3,
-3,
-2,
-3,
-4,
-3,
-3,
-4,
-4,
-3,
-4,
-3,
-2,
-5,
-3,
-2,
-4,
-2,
-3,
-3,
-4,
-3,
-4,
-3,
-2,
-6,
-4,
-4,
-4,
-3,
-3,
-3,
-5,
-3,
-3,
-3,
-4,
-3,
-4,
-3,
-4,
-4,
-4,
-3,
-5,
-2,
-3,
-3,
-3,
-4,
-4,
-3,
-4,
-5,
-3,
-4,
-4,
-4,
-2,
-2,
-5,
-3,
-3,
-4,
-4,
-3,
-3,
-2,
-4,
-3,
-3,
-3,
-4,
-4,
-3,
-3,
-4,
-3,
-3,
-3,
-1,
-4,
-2,
-3,
-4,
-4,
-4,
-3,
-4,
-3,
-4,
-2,
-6,
-3,
-4,
-3,
-3,
-4,
-4,
-2,
-6,
-3,
-3,
-3,
-2,
-5,
-3,
-3,
-3,
-3,
-3,
-3,
-4,
-3,
-3,
-2,
-4,
-3,
-3,
-3,
-2,
-3,
-3,
-2,
-5,
-4,
-4,
-3,
-4,
-3,
-3,
-3,
-4,
-3,
-3,
-3,
-4,
-3,
-4,
-3,
-3,
-2,
-3,
-2,
-6,
-3,
-3,
-3,
-3,
-3,
-3,
-3,
-4,
-3,
-3,
-3,
-3,
-3,
-3,
-3,
-4,
-3,
-3,
-3,
-4,
-3,
-2,
-2,
-4,
-4,
-2,
-4,
-4,
-4,
-3,
-3,
-4,
-3,
-3,
-3,
-4,
-4,
-4,
-3,
-6,
-3,
-3,
-2,
-4,
-3,
-4,
-3,
0,
-5,
-3,
-3,
-3,
-3,
-4,
-2,
-5,
-3,
-3,
-3,
-3,
-4,
-3,
-3,
-3,
-3,
-4,
-2,
-4,
-3,
-3,
-3,
-3,
-3,
-3,
-3,
-4,
-3,
-2,
-2,
-6,
-3,
-3,
-3,
-3,
-3,
-3,
-3,
-3,
-3,
-2,
-3,
-4,
-3,
-3,
-4,
-4,
-3,
-3,
-3,
-2,
-3,
-2,
-3,
-3,
-4,
-3,
-3,
-4,
-3,
-2,
-3,
-2,
-4,
3,
14,
29,
45,
52,
50,
46,
40,
30,
26,
22,
17,
16,
12,
9,
8,
6,
5,
2,
2,
1,
0,
0,
-1,
-1,
-1,
-3,
-1,
-2,
-2,
-4,
-7,
-10,
-12,
-15,
-11,
-6,
-2,
2,
6,
4,
1,
1,
1,
-1,
0,
-1,
0,
-1,
0,
0,
-2,
-1,
-3,
-3,
-3,
-2,
-2,
-3,
-3,
-2,
1,
9,
21,
38,
52,
64,
74,
75,
71,
64,
58,
50,
44,
38,
33,
28,
25,
21,
17,
14,
13,
10,
10,
7,
5,
5,
5,
3,
2,
2,
1,
-3,
-6,
-10,
-15,
-19,
-20,
-19,
-10,
-3,
2,
7,
8,
9,
8,
6,
5,
4,
4,
5,
4,
3,
2,
0,
1,
1,
1,
-1,
-1,
0,
-2,
-2,
1,
3,
9,
14,
22,
33,
42,
46,
50,
54,
52,
50,
50,
44,
40,
34,
31,
28,
25,
22,
20,
16,
15,
13,
13,
11,
9,
6,
7,
5,
4,
2,
-1,
-4,
-10,
-15,
-16,
-20,
-19,
-19,
-9,
-4,
1,
6,
9,
9,
10,
9,
8,
8,
7,
8,
7,
5,
5,
2,
5,
3,
2,
2,
1,
1,
2,
2,
5,
8,
13,
17,
22,
26,
31,
34,
35,
37,
39,
38,
39,
37,
36,
32,
29,
27,
25,
22,
21,
18,
16,
14,
14,
11,
10,
9,
9,
6,
4,
2,
-2,
-4,
-9,
-13,
-15,
-17,
-15,
-15,
-7,
-3,
1,
6,
8,
10,
10,
9,
10,
9,
8,
8,
9,
7,
8,
6,
6,
4,
4,
4,
3,
5,
5,
6,
9,
12,
15,
18,
19,
21,
23,
24,
26,
28,
29,
30,
30,
30,
30,
29,
27,
24,
23,
22,
20,
18,
17,
14,
14,
13,
13,
10,
9,
6,
5,
1,
-1,
-5,
-8,
-11,
-12,
-13,
-13,
-11,
-6,
-3,
0,
4,
5,
7,
9,
8,
9,
9,
9,
10,
10,
9,
9,
6,
8,
6,
5,
5,
7,
8,
8,
9,
13,
14,
16,
16,
18,
19,
18,
18,
19,
20,
21,
22,
24,
24,
25,
24,
24,
22,
21,
21,
19,
19,
18,
16,
14,
14,
12,
10,
9,
6,
5,
2,
-2,
-3,
-6,
-8,
-7,
-8,
-9,
-6,
-4,
-2,
-1,
1,
4,
6,
8,
8,
8,
9,
10,
12,
9,
9,
9,
6,
8,
6,
9,
6,
8,
9,
10,
11,
14,
15,
16,
15,
15,
16,
16,
16,
17,
17,
18,
18,
19,
20,
21,
22,
21,
21,
20,
18,
17,
18,
17,
16,
14,
14,
13,
10,
9,
5,
4,
2,
1,
-2,
-3,
-5,
-5,
-4,
-4,
-5,
-2,
-2,
0,
1,
3,
4,
5,
7,
8,
8,
8,
8,
10,
10,
9,
9,
7,
9,
9,
7,
10,
11,
13,
13,
14,
14,
14,
14,
15,
15,
14,
13,
14,
15,
14,
15,
15,
16,
18,
16,
17,
18,
18,
16,
17,
16,
16,
14,
13,
11,
11,
9,
8,
6,
5,
3,
1,
0,
0,
-2,
-2,
-2,
-2,
-2,
-1,
-1,
1,
2,
3,
4,
6,
5,
8,
8,
8,
9,
10,
8,
9,
8,
9,
9,
9,
10,
11,
12,
13,
12,
13,
13,
13,
13,
13,
13,
13,
12,
13,
12,
13,
12,
13,
14,
14,
15,
15,
16,
16,
14,
14,
14,
14,
13,
12,
11,
10,
9,
8,
7,
5,
2,
2,
2,
1,
1,
-1,
-1,
0,
-1,
0,
0,
2,
2,
1,
4,
5,
5,
6,
6,
7,
7,
8,
8,
7,
8,
9,
11,
10,
10,
10,
12,
13,
13,
13,
14,
14,
12,
13,
13,
13,
11,
10,
11,
11,
12,
13,
13,
13,
12,
13,
14,
14,
13,
13,
14,
12,
13,
12,
11,
11,
6,
8,
6,
5,
5,
3,
3,
2,
2,
1,
2,
1,
1,
1,
0,
3,
2,
2,
3,
3,
4,
5,
6,
6,
6,
7,
8,
9,
8,
10,
9,
10,
10,
12,
13,
13,
11,
13,
13,
13,
13,
12,
11,
11,
10,
11,
10,
11,
10,
10,
9,
10,
11,
12,
11,
11,
12,
10,
13,
13,
10,
10,
11,
9,
8,
7,
6,
5,
5,
5,
4,
4,
3,
2,
2,
1,
2,
1,
3,
3,
1,
2,
3,
4,
4,
4,
5,
5,
6,
7,
6,
9,
7,
10,
8,
9,
10,
10,
11,
11,
10,
12,
12,
13,
11,
12,
11,
10,
10,
10,
9,
10,
10,
10,
10,
10,
10,
10,
10,
11,
10,
10,
10,
10,
10,
9,
9,
9,
7,
5,
6,
6,
6,
5,
4,
4,
4,
3,
3,
4,
2,
3,
3,
2,
3,
4,
4,
4,
3,
3,
4,
6,
6,
6,
6,
8,
7,
7,
8,
9,
9,
9,
10,
11,
10,
10,
9,
10,
10,
10,
10,
10,
10,
10,
9,
9,
9,
8,
8,
9,
8,
10,
9,
10,
10,
8,
9,
9,
9,
7,
7,
8,
6,
7,
6,
8,
5,
5,
6,
5,
5,
5,
4,
4,
4,
4,
3,
4,
2,
3,
4,
4,
4,
4,
4,
5,
6,
6,
6,
7,
6,
8,
9,
9,
8,
9,
10,
10,
10,
9,
9,
10,
10,
9,
9,
9,
9,
9,
9,
9,
9,
8,
9,
8,
8,
9,
9,
9,
8,
7,
8,
8,
8,
8,
8,
8,
6,
5,
6,
5,
5,
5,
5,
5,
5,
5,
4,
5,
3,
3,
4,
5,
5,
5,
4,
4,
4,
5,
4,
6,
6,
5,
6,
7,
6,
7,
9,
8,
8,
8,
9,
9,
9,
9,
8,
9,
9,
7,
9,
8,
8,
9,
8,
9,
9,
7,
8,
9,
6,
8,
8,
8,
8,
7,
7,
8,
6,
7,
6,
5,
6,
7,
6,
5,
5,
4,
5,
5,
5,
5,
5,
4,
4,
4,
4,
4,
4,
5,
5,
4,
3,
3,
4,
5,
5,
5,
6,
7,
6,
7,
6,
9,
6,
7,
8,
8,
8,
8,
9,
10,
7,
8,
8,
9,
8,
8,
8,
9,
8,
6,
6,
7,
6,
7,
7,
8,
6,
7,
6,
7,
6,
7,
6,
5,
6,
7,
6,
5,
5,
5,
5,
5,
5,
5,
5,
5,
5,
5,
4,
4,
4,
5,
4,
5,
5,
4,
4,
5,
6,
5,
6,
5,
6,
5,
6,
7,
6,
7,
7,
8,
7,
8,
8,
10,
8,
7,
8,
8,
7,
8,
6,
7,
6,
7,
7,
8,
6,
7,
6,
7,
6,
7,
5,
5,
5,
5,
6,
6,
5,
7,
4,
5,
6,
5,
4,
5,
5,
5,
5,
4,
5,
5,
5,
5,
5,
4,
5,
5,
5,
5,
4,
5,
5,
4,
4,
5,
6,
5,
6,
7,
6,
7,
6,
8,
6,
7,
7,
8,
6,
7,
8,
8,
6,
7,
7,
5,
7,
7,
6,
7,
6,
7,
6,
5,
6,
5,
5,
6,
6,
5,
5,
5,
5,
5,
5,
4,
5,
5,
4,
5,
5,
4,
4,
5,
5,
4,
4,
5,
5,
5,
3,
5,
5,
4,
4,
5,
4,
5,
5,
6,
5,
5,
5,
6,
6,
5,
6,
5,
6,
7,
6,
8,
6,
6,
6,
7,
7,
5,
8,
5,
6,
7,
6,
6,
6,
7,
6,
7,
5,
5,
5,
5,
5,
5,
4,
5,
5,
5,
4,
5,
4,
5,
4,
5,
4,
4,
4,
4,
6,
3,
4,
5,
4,
4,
4,
5,
5,
5,
5,
5,
5,
4,
5,
6,
6,
5,
6,
5,
5,
5,
5,
6,
6,
6,
6,
5,
6,
7,
5,
7,
6,
7,
6,
5,
6,
5,
5,
5,
6,
5,
6,
5,
5,
5,
4,
5,
5,
5,
4,
5,
5,
5,
4,
4,
5,
4,
5,
5,
4,
4,
4,
4,
5,
5,
5,
5,
4,
4,
5,
4,
4,
4,
4,
5,
5,
5,
4,
4,
5,
4,
4,
5,
5,
5,
6,
7,
6,
5,
5,
6,
6,
5,
4,
4,
6,
7,
5,
5,
6,
5,
5,
4,
6,
5,
4,
5,
6,
5,
5,
5,
5,
5,
4,
5,
4,
3,
4,
4,
5,
4,
4,
5,
4,
5,
3,
4,
3,
3,
3,
4,
4,
4,
4,
5,
4,
5,
5,
5,
3,
4,
4,
5,
4,
4,
4,
5,
5,
5,
5,
5,
5,
5,
5,
5,
5,
5,
5,
7,
5,
5,
6,
6,
5,
4,
4,
5,
6,
5,
4,
5,
5,
4,
4,
4,
4,
5,
4,
4,
4,
4,
4,
5,
5,
5,
4,
4,
4,
3,
4,
5,
4,
4,
4,
4,
4,
4,
3,
5,
4,
4,
4,
4,
4,
5,
4,
5,
5,
5,
4,
5,
4,
5,
5,
5,
5,
5,
4,
5,
5,
5,
5,
5,
5,
6,
5,
5,
5,
4,
5,
5,
5,
4,
5,
5,
5,
5,
5,
4,
4,
3,
4,
5,
3,
4,
3,
4,
4,
3,
4,
5,
4,
4,
4,
4,
4,
3,
4,
5,
3,
3,
4,
4,
4,
4,
4,
4,
5,
4,
4,
4,
4,
3,
4,
5,
5,
4,
4,
5,
5,
4,
5,
5,
5,
5,
5,
5,
5,
4,
4,
4,
5,
5,
4,
5,
5,
5,
4,
5,
5,
3,
3,
4,
3,
4,
3,
4,
3,
4,
4,
4,
4,
3,
4,
4,
3,
3,
3,
5,
4,
4,
4,
4,
4,
2,
4,
4,
4,
3,
3,
4,
4,
4,
4,
4,
4,
3,
4,
5,
4,
4,
4,
5,
5,
3,
4,
4,
5,
3,
4,
6,
5,
4,
4,
4,
3,
5,
4,
5,
4,
4,
4,
5,
5,
3,
3,
4,
4,
3,
3,
4,
4,
4,
4,
3,
3,
3,
3,
5,
4,
3,
3,
3,
4,
3,
3,
4,
2,
3,
3,
4,
4,
4,
4,
3,
2,
3,
4,
4,
3,
3,
4,
4,
3,
4,
3,
4,
2,
3,
4,
5,
5,
5,
4,
4,
4,
5,
5,
5,
4,
3,
4,
4,
3,
3,
4,
4,
5,
3,
3,
4,
4,
3,
3,
4,
2,
4,
3,
4,
2,
3,
3,
4,
2,
3,
4,
4,
4,
3,
3,
4,
3,
3,
4,
4,
4,
3,
3,
4,
4,
3,
4,
4,
3,
3,
3,
4,
4,
2,
4,
4,
3,
2,
4,
4,
4,
3,
4,
4,
3,
3,
4,
5,
5,
3,
4,
4,
2,
4,
3,
4,
4,
3,
4,
4,
4,
3,
2,
4,
3,
3,
4,
3,
2,
3,
3,
3,
2,
3,
4,
4,
3,
2,
3,
4,
3,
3,
3,
4,
4,
4,
3,
4,
3,
3,
3,
4,
4,
3,
4,
3,
2,
3,
4,
4,
4,
3,
5,
5,
4,
3,
3,
4,
2,
3,
3,
4,
4,
4,
4,
4,
3,
3,
3,
4,
5,
4,
3,
4,
2,
4,
4,
4,
3,
3,
4,
4,
2,
2,
3,
3,
3,
3,
4,
4,
2,
3,
3,
4,
3,
3,
3,
3,
3,
2,
3,
3,
2,
3,
3,
4,
4,
3,
3,
4,
3,
3,
3,
4,
4,
3,
4,
4,
3,
1,
4,
3,
2,
3,
4,
4,
2,
2,
4,
4,
2,
3,
5,
4,
3,
3,
3,
3,
2,
4,
3,
4,
2,
2,
2,
3,
2,
3,
4,
4,
4,
2,
3,
3,
2,
3,
3,
4,
2,
3,
2,
3,
2,
3,
2,
3,
4,
3,
3,
3,
2,
3,
3,
4,
3,
3,
4,
4,
2,
3,
3,
3,
2,
2,
3,
4,
2,
3,
3,
4,
3,
3,
4,
4,
4,
2,
3,
2,
2,
3,
3,
3,
2,
3,
3,
2,
2,
3,
3,
3,
2,
3,
4,
3,
2,
2,
3,
3,
2,
3,
3,
3,
2,
3,
4,
4,
2,
3,
4,
4,
3,
3,
3,
4,
2,
2,
4,
4,
2,
3,
3,
3,
2,
2,
3,
3,
3,
3,
3,
4,
2,
2,
3,
3,
2,
3,
3,
4,
2,
3,
3,
4,
2,
3,
3,
2,
2,
2,
3,
3,
2,
2,
4,
4,
4,
3,
4,
3,
2,
2,
3,
3,
3,
2,
3,
4,
2,
2,
3,
4,
2,
2,
3,
3,
2,
3,
2,
4,
2,
3,
3,
2,
2,
3,
3,
4,
2,
1,
3,
4,
2,
2,
2,
4,
2,
2,
3,
4,
2,
1,
4,
4,
2,
3,
3,
3,
2,
2,
3,
3,
2,
2,
3,
4,
2,
3,
4,
4,
4,
2,
2,
4,
3,
3,
3,
3,
2,
2,
2,
2,
2,
2,
3,
3,
2,
2,
2,
3,
2,
2,
2,
3,
2,
1,
3,
4,
2,
2,
3,
4,
2,
2,
3,
4,
2,
3,
3,
3,
2,
2,
4,
3,
2,
2,
3,
4,
2,
1,
3,
3,
2,
2,
2,
2,
2,
3,
2,
3,
2,
1,
3,
3,
2,
1,
2,
2,
2,
1,
2,
3,
2,
3,
2,
2,
2,
2,
3,
3,
4,
1,
3,
3,
2,
-14,
-11,
