5-grundlagen-opAmps/data/ALL0071/A0071CH1.CSV

Memory Length,4000,
Trigger Level,-1.00000e+01,
Source,CH1,
Probe,1.0X,
Vertical Units,V,
Vertical Scale,5.00000e-02,
Vertical Position,0.00000e+00,
Horizontal Units,S,
Horizontal Scale,2.50000e-02,
Horizontal Position,0.0000000e+00,
Horizontal Mode,Main,
Sampling Period,1.00000e-04,
Firmware,V1.14,
Time, ,
Mode,Fast,
Waveform Data,
5,
5,
5,
10,
10,
11,
11,
11,
11,
12,
12,
12,
23,
19,
8,
21,
8,
19,
19,
17,
28,
21,
21,
22,
22,
21,
21,
23,
23,
29,
16,
28,
17,
21,
34,
28,
28,
22,
37,
27,
27,
29,
40,
36,
23,
32,
32,
32,
32,
31,
43,
37,
37,
34,
45,
37,
37,
38,
38,
40,
29,
42,
31,
37,
49,
36,
48,
36,
49,
32,
50,
38,
51,
44,
33,
41,
52,
39,
52,
43,
43,
43,
43,
48,
37,
37,
52,
43,
54,
44,
44,
44,
55,
47,
47,
51,
38,
47,
47,
44,
55,
50,
37,
47,
47,
43,
55,
50,
39,
47,
47,
47,
47,
50,
39,
56,
39,
46,
46,
43,
55,
44,
56,
44,
56,
40,
55,
45,
45,
45,
45,
47,
47,
47,
36,
48,
36,
41,
53,
40,
53,
41,
41,
39,
51,
47,
33,
38,
51,
44,
33,
40,
40,
36,
49,
44,
31,
43,
29,
32,
46,
33,
45,
29,
44,
37,
25,
40,
26,
31,
43,
26,
41,
33,
22,
30,
30,
36,
22,
31,
31,
25,
37,
31,
17,
22,
34,
25,
25,
20,
33,
21,
32,
17,
31,
16,
29,
19,
19,
18,
18,
19,
19,
16,
16,
16,
16,
16,
5,
8,
23,
9,
9,
8,
19,
16,
0,
4,
16,
13,
-3,
2,
13,
0,
13,
-3,
12,
-5,
11,
-5,
9,
1,
-11,
-4,
-4,
-2,
-2,
-5,
-5,
-5,
-5,
0,
-17,
-3,
-17,
-8,
-8,
-12,
-1,
-11,
-11,
-14,
-14,
-12,
-24,
-12,
-24,
-14,
-26,
-22,
-11,
-24,
-12,
-23,
-12,
-24,
-24,
-24,
-24,
-23,
-23,
-25,
-25,
-20,
-35,
-26,
-37,
-25,
-38,
-29,
-29,
-27,
-39,
-33,
-33,
-37,
-24,
-33,
-33,
-37,
-37,
-33,
-45,
-36,
-36,
-37,
-37,
-37,
-37,
-44,
-31,
-32,
-50,
-40,
-40,
-40,
-51,
-42,
-42,
-40,
-53,
-47,
-35,
-41,
-54,
-43,
-43,
-50,
-37,
-43,
-56,
-42,
-56,
-45,
-57,
-52,
-41,
-46,
-57,
-51,
-51,
-45,
-60,
-56,
-42,
-48,
-61,
-57,
-43,
-50,
-50,
-47,
-60,
-55,
-44,
-53,
-53,
-51,
-51,
-50,
-61,
-53,
-53,
-55,
-44,
-52,
-63,
-51,
-51,
-56,
-44,
-58,
-43,
-59,
-44,
-48,
-61,
-49,
-61,
-49,
-61,
-52,
-63,
-51,
-51,
-53,
-53,
-51,
-51,
-54,
-43,
-59,
-43,
-51,
-51,
-46,
-60,
-49,
-49,
-47,
-58,
-49,
-49,
-52,
-39,
-52,
-39,
-51,
-39,
-52,
-37,
-42,
-55,
-50,
-36,
-38,
-52,
-44,
-44,
-40,
-52,
-48,
-34,
-43,
-43,
-41,
-41,
-38,
-49,
-40,
-40,
-33,
-48,
-38,
-38,
-37,
-37,
-40,
-27,
-32,
-43,
-32,
-32,
-33,
-33,
-35,
-22,
-31,
-31,
-24,
-38,
-27,
-27,
-35,
-19,
-29,
-17,
-30,
-14,
-23,
-23,
-19,
-30,
-17,
-31,
-20,
-20,
-23,
-11,
-20,
-9,
-27,
-9,
-15,
-15,
-16,
-16,
-12,
-12,
-11,
-11,
-13,
-1,
-8,
-20,
-6,
-18,
-8,
-8,
-2,
-13,
-11,
4,
-11,
6,
0,
0,
-6,
9,
5,
-11,
-1,
10,
4,
4,
6,
-5,
4,
15,
3,
16,
4,
17,
9,
9,
6,
19,
11,
11,
15,
4,
16,
4,
11,
24,
15,
15,
16,
27,
16,
27,
20,
20,
22,
22,
20,
31,
23,
23,
27,
16,
20,
34,
24,
36,
28,
28,
25,
36,
29,
29,
27,
40,
36,
23,
25,
41,
28,
43,
28,
42,
36,
25,
30,
43,
37,
37,
42,
28,
35,
47,
37,
37,
39,
39,
44,
31,
41,
41,
38,
50,
43,
43,
41,
41,
44,
33,
44,
44,
46,
35,
50,
37,
50,
36,
53,
37,
45,
45,
47,
47,
41,
55,
48,
48,
46,
46,
47,
47,
47,
47,
48,
48,
51,
39,
48,
48,
44,
55,
45,
57,
49,
49,
52,
37,
47,
47,
51,
39,
44,
56,
47,
47,
45,
45,
42,
54,
41,
54,
44,
55,
47,
47,
49,
37,
48,
37,
41,
53,
42,
53,
46,
35,
40,
51,
41,
52,
48,
33,
40,
40,
44,
33,
38,
49,
38,
38,
35,
48,
34,
47,
38,
38,
40,
26,
40,
27,
37,
26,
34,
34,
35,
24,
33,
33,
28,
40,
29,
29,
28,
28,
30,
18,
28,
28,
24,
35,
30,
17,
27,
16,
18,
31,
21,
21,
18,
31,
17,
28,
21,
9,
18,
18,
16,
16,
16,
5,
15,
4,
19,
4,
19,
3,
14,
1,
12,
1,
9,
9,
8,
8,
9,
-4,
0,
13,
1,
12,
1,
1,
-4,
8,
-5,
8,
-5,
6,
-4,
-4,
-11,
3,
-2,
-15,
-7,
-7,
-11,
1,
-17,
-1,
-15,
-1,
-13,
-13,
-5,
-25,
-10,
-24,
-16,
-16,
-19,
-6,
-20,
-9,
-20,
-20,
-21,
-21,
-16,
-31,
-29,
-15,
-29,
-16,
-28,
-16,
-28,
-28,
-28,
-28,
-36,
-20,
-30,
-30,
-37,
-23,
-35,
-22,
-35,
-24,
-29,
-43,
-31,
-45,
-32,
-44,
-40,
-27,
-39,
-39,
-40,
-40,
-38,
-38,
-45,
-31,
-37,
-50,
-48,
-33,
-45,
-33,
-37,
-52,
-44,
-44,
-47,
-36,
-42,
-53,
-44,
-55,
-42,
-55,
-39,
-57,
-48,
-48,
-51,
-39,
-52,
-41,
-45,
-58,
-51,
-51,
-48,
-60,
-52,
-52,
-59,
-43,
-51,
-51,
-49,
-61,
-53,
-42,
-52,
-52,
-48,
-61,
-48,
-62,
-52,
-52,
-55,
-55,
-49,
-61,
-48,
-63,
-56,
-44,
-56,
-44,
-56,
-44,
-55,
-44,
-53,
-53,
-52,
-52,
-55,
-44,
-44,
-61,
-47,
-62,
-48,
-60,
-50,
-50,
-49,
-61,
-52,
-52,
-52,
-40,
-55,
-41,
-53,
-41,
-42,
-58,
-42,
-58,
-45,
-56,
-45,
-56,
-50,
-37,
-42,
-54,
-47,
-35,
-51,
-36,
-48,
-36,
-42,
-42,
-43,
-43,
-44,
-32,
-42,
-42,
-41,
-41,
-44,
-32,
-39,
-39,
-39,
-28,
-32,
-45,
-30,
-44,
-36,
-36,
-43,
-26,
-33,
-33,
-35,
-23,
-31,
-31,
-27,
-27,
-26,
-37,
-32,
-19,
-35,
-17,
-29,
-17,
-23,
-34,
-27,
-13,
-21,
-21,
-20,
-20,
-14,
-27,
-19,
-19,
-23,
-7,
-20,
-7,
-15,
-15,
-16,
-4,
-19,
-3,
-6,
-19,
-7,
-19,
-5,
-17,
0,
-15,
-1,
-13,
0,
-12,
0,
-11,
3,
-9,
5,
-9,
5,
-8,
-3,
11,
7,
-5,
3,
3,
5,
5,
8,
-3,
9,
9,
3,
19,
14,
1,
17,
3,
12,
12,
8,
22,
17,
6,
16,
27,
15,
26,
20,
9,
13,
28,
16,
29,
21,
21,
23,
23,
20,
33,
30,
17,
30,
18,
27,
27,
24,
37,
27,
39,
35,
21,
33,
33,
29,
41,
33,
33,
35,
35,
30,
44,
41,
28,
31,
46,
39,
28,
43,
30,
35,
48,
35,
49,
37,
49,
48,
32,
40,
40,
36,
51,
39,
51,
41,
41,
42,
42,
41,
53,
47,
47,
43,
43,
46,
46,
47,
47,
52,
36,
49,
37,
46,
46,
51,
36,
45,
56,
42,
56,
45,
56,
42,
55,
48,
48,
45,
45,
47,
47,
41,
56,
46,
46,
47,
47,
48,
48,
50,
39,
45,
45,
55,
37,
46,
46,
51,
37,
47,
47,
37,
54,
44,
44,
48,
37,
45,
34,
44,
44,
45,
34,
49,
34,
38,
51,
46,
33,
40,
40,
32,
49,
46,
31,
38,
49,
35,
48,
44,
30,
44,
28,
42,
28,
44,
27,
33,
33,
35,
24,
36,
23,
33,
33,
30,
30,
34,
22,
29,
29,
27,
27,
34,
19,
20,
35,
32,
16,
30,
16,
20,
20,
20,
20,
23,
12,
20,
20,
19,
19,
15,
28,
20,
7,
20,
6,
19,
6,
13,
13,
12,
12,
9,
9,
3,
16,
9,
9,
1,
16,
2,
14,
0,
12,
2,
2,
3,
3,
3,
-8,
4,
-11,
-5,
6,
-1,
-12,
-4,
-4,
-9,
-9,
-4,
-15,
-11,
1,
-7,
-18,
-14,
-2,
-11,
-11,
-11,
-24,
-16,
-5,
-21,
-7,
-11,
-27,
-17,
-17,
-16,
-28,
-28,
-13,
-21,
-21,
-23,
-23,
-31,
-16,
-28,
-17,
-28,
-17,
-31,
-20,
-27,
-27,
-23,
-38,
-29,
-29,
-30,
-30,
-35,
-24,
-30,
-44,
-40,
-27,
-40,
-28,
-35,
-46,
-37,
-37,
-31,
-48,
-40,
-40,
-41,
-41,
-39,
-50,
-44,
-33,
-47,
-35,
-46,
-35,
-44,
-44,
-44,
-44,
-42,
-55,
-44,
-55,
-47,
-47,
-47,
-47,
-45,
-57,
-50,
-50,
-45,
-58,
-52,
-41,
-45,
-59,
-56,
-43,
-53,
-42,
-50,
-50,
-55,
-43,
-45,
-60,
-56,
-43,
-57,
-44,
-57,
-44,
-55,
-44,
-44,
-61,
-55,
-44,
-51,
-62,
-56,
-45,
-56,
-45,
-47,
-63,
-49,
-61,
-52,
-52,
-49,
-62,
-56,
-44,
-54,
-43,
-54,
-54,
-48,
-59,
-48,
-60,
-55,
-43,
-50,
-61,
-50,
-50,
-48,
-48,
-53,
-53,
-52,
-40,
-50,
-50,
-51,
-40,
-44,
-56,
-51,
-38,
-56,
-37,
-49,
-38,
-45,
-45,
-44,
-44,
-48,
-35,
-43,
-43,
-41,
-52,
-43,
-43,
-38,
-49,
-47,
-32,
-41,
-41,
-46,
-31,
-35,
-46,
-36,
-36,
-35,
-35,
-40,
-26,
-30,
-44,
-26,
-41,
-29,
-40,
-28,
-39,
-24,
-37,
-30,
-30,
-32,
-19,
-31,
-18,
-21,
-34,
-19,
-33,
-22,
-22,
-28,
-13,
-19,
-31,
-17,
-28,
-15,
-26,
-16,
-16,
-13,
-24,
-14,
-14,
-15,
-4,
-12,
-12,
-9,
-9,
-9,
-9,
-4,
-17,
-6,
-6,
-6,
-6,
-8,
3,
-2,
-2,
-4,
7,
-1,
-1,
5,
-9,
4,
-8,
3,
14,
-1,
12,
4,
4,
11,
-3,
3,
16,
12,
1,
5,
19,
10,
10,
15,
3,
16,
16,
15,
15,
16,
16,
20,
9,
13,
28,
20,
20,
17,
28,
24,
13,
18,
32,
21,
33,
22,
33,
29,
18,
21,
36,
21,
37,
32,
20,
27,
38,
25,
40,
34,
22,
37,
25,
32,
32,
28,
43,
40,
28,
32,
44,
41,
29,
39,
39,
40,
40,
43,
30,
38,
38,
36,
50,
37,
52,
37,
51,
47,
33,
41,
52,
45,
45,
49,
35,
48,
36,
40,
53,
52,
36,
49,
37,
44,
44,
44,
55,
47,
47,
48,
48,
45,
56,
48,
48,
51,
38,
45,
56,
49,
49,
46,
46,
50,
50,
47,
47,
44,
56,
48,
48,
50,
38,
43,
56,
44,
55,
51,
37,
45,
45,
48,
48,
43,
55,
49,
37,
45,
45,
47,
36,
44,
44,
41,
52,
37,
53,
46,
33,
48,
34,
41,
41,
48,
32,
36,
49,
41,
41,
41,
41,
37,
48,
36,
36,
41,
27,
34,
34,
34,
34,
30,
44,
31,
31,
32,
43,
35,
24,
32,
32,
37,
21,
27,
38,
27,
27,
28,
28,
21,
34,
20,
35,
20,
33,
21,
21,
24,
13,
21,
21,
27,
12,
12,
27,
18,
18,
13,
24,
18,
5,
11,
23,
12,
12,
13,
2,
17,
1,
9,
9,
8,
8,
9,
9,
10,
-3,
0,
12,
8,
-7,
3,
3,
-4,
9,
-1,
-12,
-1,
-1,
-3,
-3,
-4,
-4,
-3,
-15,
-13,
1,
-8,
-8,
-1,
-19,
-15,
-2,
-11,
-11,
-12,
-12,
-10,
-23,
-22,
-7,
-15,
-26,
-15,
-27,
-27,
-11,
-23,
-12,
-21,
-21,
-24,
-24,
-20,
-33,
-24,
-35,
-23,
-35,
-33,
-17,
-30,
-19,
-30,
-30,
-27,
-40,
-30,
-30,
-30,
-30,
-38,
-25,
-30,
-44,
-34,
-34,
-44,
-28,
-39,
-39,
-41,
-41,
-41,
-41,
-39,
-50,
-34,
-50,
-38,
-51,
-41,
-52,
-41,
-53,
-41,
-53,
-42,
-53,
-52,
-37,
-49,
-37,
-49,
-38,
-53,
-40,
-44,
-56,
-52,
-40,
-51,
-40,
-49,
-49,
-53,
-53,
-47,
-60,
-52,
-52,
-48,
-61,
-48,
-61,
-52,
-52,
-55,
-44,
-52,
-52,
-54,
-54,
-54,
-54,
-47,
-61,
-59,
-44,
-52,
-52,
-49,
-61,
-53,
-53,
-47,
-63,
-55,
-55,
-56,
-44,
-52,
-52,
-49,
-62,
-57,
-45,
-54,
-54,
-56,
-43,
-47,
-59,
-51,
-51,
-50,
-50,
-47,
-59,
-56,
-42,
-59,
-41,
-47,
-58,
-52,
-41,
-45,
-57,
-51,
-38,
-51,
-40,
-52,
-38,
-53,
-36,
-44,
-56,
-40,
-55,
-48,
-35,
-45,
-45,
-47,
-34,
-38,
-51,
-41,
-41,
-41,
-41,
-37,
-48,
-43,
-30,
-34,
-46,
-31,
-44,
-39,
-28,
-41,
-27,
-38,
-24,
-39,
-22,
-29,
-40,
-27,
-39,
-31,
-31,
-31,
-20,
-21,
-37,
-23,
-23,
-27,
-16,
-24,
-24,
-27,
-13,
-21,
-21,
-17,
-28,
-19,
-19,
-15,
-27,
-18,
-18,
-15,
-15,
-11,
-23,
-14,
-14,
-17,
-2,
-12,
-12,
-16,
0,
-10,
1,
-2,
-17,
-11,
3,
-10,
5,
-4,
-4,
-2,
-2,
-3,
8,
7,
-9,
2,
2,
5,
5,
-2,
12,
7,
7,
5,
16,
1,
17,
9,
9,
10,
10,
15,
2,
13,
13,
13,
13,
12,
23,
17,
17,
12,
27,
10,
28,
20,
20,
25,
12,
24,
13,
17,
31,
28,
15,
25,
25,
23,
35,
28,
28,
24,
37,
30,
30,
27,
39,
37,
23,
25,
41,
35,
35,
30,
41,
28,
45,
31,
45,
36,
36,
33,
46,
41,
29,
33,
47,
41,
41,
40,
40,
39,
39,
37,
50,
37,
51,
35,
51,
44,
33,
47,
36,
43,
43,
49,
36,
46,
35,
48,
37,
46,
46,
46,
46,
40,
56,
49,
49,
41,
56,
40,
55,
49,
49,
45,
56,
45,
56,
49,
38,
44,
57,
51,
38,
52,
40,
48,
48,
48,
48,
41,
55,
48,
48,
45,
56,
51,
37,
48,
37,
43,
55,
49,
37,
45,
45,
43,
43,
51,
34,
42,
53,
43,
43,
46,
34,
44,
33,
41,
41,
40,
40,
41,
41,
43,
32,
43,
43,
37,
48,
29,
47,
36,
47,
34,
46,
41,
28,
38,
27,
38,
26,
37,
26,
30,
41,
33,
21,
29,
29,
27,
27,
28,
28,
28,
28,
32,
18,
29,
18,
21,
34,
19,
33,
28,
14,
22,
22,
28,
12,
23,
12,
18,
18,
21,
9,
12,
25,
12,
24,
9,
22,
9,
21,
13,
13,
16,
1,
5,
17,
5,
17,
4,
15,
8,
-4,
0,
12,
8,
-5,
0,
0,
1,
-10,
-1,
-1,
4,
-11,
0,
-13,
-8,
3,
-2,
-15,
0,
-17,
-5,
-16,
-3,
-18,
-10,
-10,
-11,
-11,
-13,
-13,
-13,
-13,
-13,
-25,
-19,
-19,
-17,
-17,
-27,
-11,
-20,
-31,
-22,
-22,
-24,
-24,
-25,
-25,
-25,
-25,
-27,
-27,
-25,
-36,
-28,
-40,
-28,
-39,
-37,
-23,
-29,
-40,
-30,
-41,
-35,
-35,
-37,
-26,
-28,
-44,
-35,
-46,
-32,
-47,
-40,
-40,
-37,
-48,
-41,
-41,
-38,
-49,
-41,
-41,
-48,
-35,
-42,
-42,
-46,
-46,
-45,
-45,
-48,
-36,
-44,
-55,
-52,
-37,
-49,
-38,
-52,
-39,
-47,
-47,
-51,
-51,
-54,
-42,
-53,
-42,
-54,
-43,
-49,
-49,
-46,
-59,
-50,
-50,
-54,
-43,
-56,
-43,
-55,
-55,
-53,
-53,
-53,
-53,
-47,
-61,
-43,
-62,
-60,
-45,
-48,
-62,
-49,
-63,
-47,
-61,
-49,
-61,
-49,
-60,
-46,
-61,
-48,
-61,
-53,
-53,
-48,
-61,
-51,
-51,
-51,
-51,
-46,
-60,
-53,
-53,
-44,
-59,
-50,
-50,
-48,
-48,
-47,
-59,
-53,
-40,
-50,
-50,
-47,
-47,
-52,
-39,
-47,
-47,
-43,
-55,
-46,
-46,
-46,
-46,
-43,
-43,
-40,
-52,
-38,
-51,
-44,
-33,
-37,
-49,
-45,
-31,
-40,
-40,
-39,
-39,
-39,
-39,
-39,
-39,
-36,
-36,
-37,
-24,
-33,
-33,
-30,
-43,
-31,
-31,
-26,
-40,
-28,
-28,
-26,
-40,
-23,
-36,
-31,
-16,
-23,
-34,
-25,
-25,
-29,
-13,
-19,
-31,
-17,
-29,
-24,
-10,
-20,
-20,
-16,
-16,
-19,
-5,
-15,
-15,
-13,
-13,
-17,
-3,
-8,
-19,
-10,
-10,
-9,
-9,
-7,
-7,
-7,
-7,
-3,
-3,
-11,
4,
-1,
-1,
0,
0,
-4,
9,
0,
11,
-3,
12,
-1,
13,
8,
-3,
8,
-3,
13,
0,
8,
8,
13,
1,
5,
21,
16,
5,
16,
16,
16,
16,
13,
25,
17,
17,
17,
17,
24,
11,
23,
12,
21,
21,
24,
24,
21,
33,
21,
35,
32,
18,
25,
37,
30,
19,
26,
38,
33,
22,
36,
22,
28,
41,
33,
33,
37,
24,
36,
36,
36,
36,
36,
36,
34,
46,
43,
29,
40,
40,
37,
48,
46,
31,
39,
39,
43,
32,
45,
33,
39,
51,
44,
44,
42,
42,
47,
36,
45,
45,
44,
44,
44,
44,
46,
46,
44,
55,
42,
55,
45,
56,
47,
47,
42,
55,
41,
56,
44,
55,
44,
56,
49,
38,
51,
40,
49,
49,
45,
57,
47,
47,
41,
56,
47,
47,
47,
47,
45,
56,
50,
37,
44,
55,
44,
55,
44,
56,
46,
46,
40,
54,
43,
43,
40,
54,
44,
44,
46,
34,
42,
42,
38,
51,
41,
41,
44,
32,
40,
40,
41,
41,
32,
47,
32,
48,
39,
28,
44,
28,
43,
28,
35,
35,
32,
44,
29,
43,
31,
42,
34,
34,
30,
30,
31,
31,
32,
21,
24,
36,
33,
17,
33,
17,
26,
26,
21,
33,
27,
15,
19,
33,
22,
22,
17,
28,
19,
19,
21,
9,
20,
9,
18,
6,
18,
5,
17,
4,
21,
4,
11,
11,
11,
-1,
3,
17,
1,
16,
4,
4,
7,
-5,
3,
3,
0,
0,
-2,
9,
-2,
-2,
-4,
7,
-7,
5,
-8,
4,
-2,
-15,
-11,
0,
-7,
-19,
-5,
-19,
-16,
-3,
-15,
-3,
-16,
-5,
-12,
-23,
-17,
-17,
-17,
-17,
-19,
-19,
-12,
-28,
-17,
-29,
-22,
-22,
-23,
-23,
-23,
-23,
-24,
-24,
-33,
-17,
-29,
-29,
-29,
-29,
-29,
-29,
-26,
-40,
-29,
-40,
-36,
-25,
-29,
-44,
-37,
-37,
-33,
-44,
-40,
-29,
-40,
-28,
-33,
-48,
-33,
-49,
-40,
-40,
-43,
-32,
-33,
-49,
-39,
-52,
-46,
-35,
-51,
-35,
-44,
-55,
-40,
-54,
-49,
-37,
-44,
-55,
-49,
-37,
-44,
-56,
-56,
-39,
-47,
-59,
-50,
-50,
-51,
-40,
-53,
-41,
-52,
-52,
-55,
-44,
-57,
-42,
-47,
-61,
-56,
-42,
-55,
-55,
-55,
-44,
-55,
-44,
-51,
-51,
-56,
-45,
-51,
-62,
-50,
-62,
-55,
-44,
-49,
-61,
-49,
-62,
-49,
-61,
-57,
-45,
-47,
-60,
-58,
-44,
-53,
-53,
-49,
-60,
-47,
-61,
-57,
-43,
-47,
-59,
-56,
-42,
-56,
-43,
-47,
-59,
-44,
-59,
-43,
-59,
-50,
-39,
-47,
-58,
-40,
-56,
-48,
-37,
-44,
-56,
-46,
-46,
-43,
-55,
-48,
-35,
-44,
-44,
-44,
-44,
-37,
-50,
-47,
-32,
-37,
-48,
-44,
-31,
-31,
-47,
-41,
-28,
-40,
-28,
-32,
-43,
-37,
-37,
-31,
-43,
-32,
-32,
-27,
-41,
-33,
-22,
-26,
-39,
-26,
-37,
-23,
-36,
-23,
-36,
-28,
-16,
-23,
-23,
-19,
-32,
-22,
-11,
-17,
-29,
-19,
-19,
-18,
-18,
-23,
-8,
-17,
-5,
-15,
-15,
-14,
-14,
-13,
-13,
-9,
-21,
-10,
-10,
-7,
-7,
-8,
-8,
-9,
3,
-2,
-13,
-4,
-4,
-7,
7,
-6,
9,
1,
1,
3,
-8,
3,
3,
-2,
14,
5,
5,
9,
9,
11,
-1,
1,
17,
15,
1,
11,
11,
11,
11,
13,
13,
14,
14,
14,
25,
12,
26,
19,
19,
24,
12,
17,
29,
24,
13,
24,
24,
28,
16,
23,
35,
27,
27,
34,
19,
35,
19,
30,
30,
28,
40,
33,
22,
37,
23,
28,
43,
36,
25,
36,
36,
36,
36,
37,
37,
36,
47,
41,
29,
38,
38,
40,
40,
32,
49,
47,
32,
47,
32,
42,
42,
41,
52,
45,
34,
43,
43,
39,
51,
48,
35,
45,
45,
46,
46,
44,
55,
43,
54,
44,
56,
41,
56,
43,
55,
50,
50,
52,
38,
43,
55,
41,
56,
49,
38,
48,
48,
43,
57,
45,
56,
48,
37,
43,
56,
44,
55,
46,
46,
53,
37,
49,
49,
43,
54,
50,
37,
49,
37,
50,
37,
49,
36,
46,
46,
41,
53,
48,
35,
47,
35,
41,
52,
38,
51,
43,
43,
49,
31,
41,
41,
45,
31,
35,
48,
45,
31,
31,
47,
41,
28,
41,
26,
36,
36,
40,
25,
28,
43,
31,
42,
25,
40,
35,
22,
29,
29,
29,
29,
33,
20,
27,
27,
29,
17,
24,
24,
24,
24,
26,
13,
27,
12,
17,
28,
24,
11,
17,
17,
14,
26,
16,
16,
14,
25,
19,
5,
15,
3,
11,
11,
9,
9,
8,
8,
12,
-1,
11,
-3,
6,
6,
5,
5,
5,
-7,
7,
-8,
1,
1,
1,
1,
-9,
6,
-3,
-3,
3,
-14,
-11,
3,
-8,
-8,
-9,
-9,
-7,
-18,
-16,
-2,
-8,
-21,
-8,
-23,
-8,
-24,
-15,
-15,
-15,
-26,
-18,
-18,
-20,
-20,
-23,
-12,
-24,
-13,
-24,
-24,
-25,
-25,
-25,
-25,
-20,
-35,
-29,
-29,
-32,
-20,
-28,
-39,
-28,
-40,
-33,
-33,
-31,
-42,
-32,
-32,
-33,
-44,
-37,
-37,
-32,
-46,
-37,
-37,
-41,
-29,
-33,
-48,
-39,
-39,
-35,
-49,
-35,
-51,
-36,
-52,
-39,
-53,
-39,
-54,
-42,
-42,
-41,
-56,
-47,
-47,
-47,
-47,
-44,
-56,
-47,
-47,
-45,
-58,
-46,
-46,
-52,
-40,
-47,
-59,
-47,
-60,
-50,
-50,
-45,
-60,
-53,
-53,
-54,
-54,
-48,
-60,
-55,
-44,
-57,
-43,
-52,
-52,
-51,
-51,
-50,
-61,
-48,
-62,
-56,
-44,
-51,
-63,
-56,
-44,
-52,
-52,
-54,
-54,
-53,
-53,
-49,
-60,
-51,
-51,
-57,
-44,
-53,
-53,
-52,
-52,
-49,
-49,
-52,
-52,
-52,
-41,
-50,
-50,
-51,
-51,
-51,
-40,
-53,
-40,
-47,
-47,
-50,
-50,
-51,
-39,
-47,
-47,
-50,
-37,
-49,
-36,
-43,
-43,
-51,
-36,
-45,
-34,
-44,
-44,
-47,
-33,
-41,
-41,
-45,
-31,
-38,
-38,
-34,
-46,
-40,
-29,
-34,
-46,
-35,
-35,
-30,
-43,
-32,
-43,
-37,
-23,
-35,
-22,
-32,
-21,
-31,
-20,
-32,
-21,
-32,
-18,
-30,
-17,
-19,
-36,
-27,
-15,
-23,
-23,
-23,
-12,
-16,
-28,
-23,
-11,
-20,
-9,
-19,
-7,
-14,
-14,
-15,
-15,
-13,
-13,
-15,
-3,
-14,
-2,
-12,
-1,
-8,
-8,
-5,
-16,
-5,
-5,
2,
-14,
-9,
7,
0,
0,
-8,
9,
1,
-11,
2,
2,
2,
2,
6,
-5,
6,
6,
1,
16,
13,
-1,
11,
0,
16,
1,
8,
21,
9,
23,
20,
5,
21,
5,
11,
25,
12,
27,
23,
10,
19,
19,
21,
21,
23,
23,
21,
32,
23,
35,
23,
35,
28,
17,
27,
27,
27,
27,
24,
39,
36,
22,
36,
21,
28,
40,
36,
24,
30,
43,
33,
44,
34,
45,
33,
45,
39,
39,
37,
37,
35,
47,
40,
40,
41,
41,
38,
49,
43,
43,
45,
33,
43,
43,
45,
45,
42,
53,
43,
43,
42,
53,
45,
45,
45,
45,
52,
37,
46,
46,
43,
43,
42,
55,
47,
47,
49,
38,
47,
47,
49,
38,
49,
38,
51,
39,
47,
47,
52,
39,
47,
47,
41,
56,
48,
48,
53,
39,
53,
37,
41,
54,
45,
45,
52,
38,
47,
47,
45,
45,
49,
36,
42,
53,
45,
45,
47,
36,
45,
33,
43,
43,
47,
35,
47,
33,
44,
32,
43,
32,
41,
41,
35,
49,
41,
30,
45,
29,
36,
47,
37,
37,
37,
37,
38,
26,
40,
25,
34,
34,
33,
33,
24,
41,
36,
23,
36,
21,
24,
39,
27,
27,
31,
17,
23,
34,
20,
36,
21,
33,
19,
33,
22,
22,
20,
20,
21,
21,
17,
28,
16,
16,
19,
8,
18,
7,
9,
22,
13,
13,
9,
21,
17,
2,
12,
0,
7,
7,
11,
-2,
4,
15,
5,
5,
0,
12,
6,
-7,
-3,
9,
-1,
-1,
-3,
8,
-9,
4,
-3,
-3,
-13,
1,
-12,
1,
-8,
-8,
-6,
-21,
-11,
-11,
-12,
-12,
-13,
-24,
-11,
-24,
-17,
-17,
-20,
-7,
-23,
-9,
-21,
-21,
-24,
-11,
-19,
-31,
-24,
-24,
-24,
-24,
-23,
-34,
-26,
-26,
-31,
-19,
-28,
-28,
-28,
-28,
-35,
-20,
-29,
-43,
-32,
-43,
-37,
-24,
-42,
-28,
-37,
-37,
-34,
-46,
-32,
-47,
-38,
-38,
-35,
-49,
-40,
-51,
-38,
-49,
-46,
-33,
-45,
-45,
-41,
-53,
-37,
-53,
-45,
-45,
-43,
-55,
-42,
-55,
-48,
-48,
-52,
-40,
-47,
-47,
-49,
-49,
-46,
-58,
-43,
-59,
-53,
-41,
-54,
-43,
-59,
-43,
-52,
-52,
-52,
-52,
-53,
-53,
-58,
-44,
-56,
-44,
-57,
-44,
-56,
-44,
-46,
-61,
-51,
-51,
-52,
-52,
-47,
-61,
-55,
-44,
-51,
-51,
-53,
-53,
-51,
-63,
-56,
-44,
-50,
-61,
-48,
-61,
-48,
-61,
-46,
-61,
-54,
-43,
-50,
-50,
-51,
-51,
-45,
-60,
-51,
-51,
-48,
-59,
-54,
-40,
-51,
-40,
-45,
-58,
-53,
-40,
-44,
-56,
-52,
-38,
-48,
-37,
-53,
-36,
-46,
-35,
-44,
-44,
-48,
-36,
-43,
-43,
-44,
-44,
-43,
-32,
-38,
-38,
-36,
-49,
-35,
-47,
-41,
-30,
-44,
-27,
-32,
-44,
-33,
-44,
-35,
-24,
-29,
-41,
-30,
-30,
-29,
-29,
-27,
-39,
-33,
-20,
-24,
-35,
-28,
-17,
-26,
-26,
-26,
-15,
-23,
-23,
-19,
-31,
-17,
-29,
-23,
-11,
-22,
-10,
-18,
-18,
-13,
-24,
-9,
-23,
-15,
-4,
-11,
-22,
-9,
-21,
-11,
0,
-7,
-7,
-7,
-7,
-4,
-15,
-3,
-3,
-5,
-5,
2,
-11,
-3,
9,
-3,
10,
-2,
9,
0,
12,
0,
13,
7,
7,
3,
