5-grundlagen-opAmps/data/ALL0033/A0033CH2.CSV

Memory Length,4000,
Trigger Level,0.00000e+00,
Source,CH2,
Probe,1.0X,
Vertical Units,V,
Vertical Scale,5.00000e-02,
Vertical Position,0.00000e+00,
Horizontal Units,S,
Horizontal Scale,2.50000e-07,
Horizontal Position,2.5000000e-07,
Horizontal Mode,Main,
Sampling Period,2.00000e-09,
Firmware,V1.14,
Time, ,
Mode,Fast,
Waveform Data,
-42,
-42,
-40,
-42,
-44,
-41,
-37,
-35,
-37,
-39,
-37,
-30,
-27,
-29,
-33,
-32,
-29,
-24,
-25,
-25,
-27,
-23,
-20,
-16,
-16,
-14,
-12,
-9,
-6,
-6,
-5,
-4,
-4,
-4,
-2,
3,
5,
3,
0,
5,
11,
16,
14,
11,
12,
21,
27,
25,
19,
18,
25,
31,
32,
23,
20,
26,
36,
37,
32,
29,
32,
38,
41,
39,
35,
34,
39,
42,
40,
36,
34,
38,
39,
41,
39,
38,
38,
38,
39,
38,
37,
36,
34,
33,
34,
35,
33,
31,
28,
29,
31,
31,
26,
22,
21,
26,
24,
17,
13,
14,
17,
16,
9,
8,
8,
10,
11,
5,
0,
1,
3,
2,
-3,
-11,
-12,
-6,
-8,
-14,
-20,
-19,
-14,
-13,
-20,
-25,
-25,
-21,
-20,
-22,
-31,
-33,
-31,
-31,
-30,
-38,
-42,
-39,
-36,
-35,
-40,
-41,
-42,
-40,
-39,
-40,
-42,
-44,
-46,
-44,
-42,
-43,
-45,
-46,
-46,
-43,
-39,
-39,
-42,
-45,
-44,
-39,
-36,
-39,
-44,
-44,
-38,
-32,
-35,
-37,
-39,
-34,
-27,
-24,
-27,
-29,
-25,
-20,
-17,
-20,
-24,
-21,
-19,
-14,
-15,
-15,
-14,
-12,
-7,
-4,
-3,
-3,
1,
3,
4,
6,
7,
8,
9,
9,
9,
11,
15,
16,
16,
18,
22,
26,
28,
28,
26,
26,
31,
33,
32,
30,
28,
33,
36,
36,
33,
33,
35,
39,
40,
39,
39,
39,
39,
41,
41,
38,
37,
37,
38,
38,
38,
36,
36,
35,
37,
39,
37,
34,
30,
30,
34,
34,
28,
23,
19,
22,
26,
26,
19,
15,
16,
21,
21,
13,
8,
8,
12,
12,
5,
-1,
-3,
0,
1,
-1,
-7,
-11,
-8,
-5,
-6,
-12,
-15,
-14,
-13,
-15,
-20,
-23,
-25,
-25,
-26,
-29,
-30,
-29,
-31,
-32,
-32,
-32,
-34,
-35,
-37,
-38,
-38,
-38,
-40,
-43,
-43,
-41,
-40,
-42,
-46,
-44,
-41,
-40,
-43,
-45,
-44,
-41,
-39,
-43,
-47,
-45,
-41,
-38,
-41,
-46,
-44,
-37,
-31,
-32,
-38,
-38,
-30,
-25,
-27,
-32,
-36,
-30,
-23,
-21,
-27,
-28,
-23,
-17,
-13,
-15,
-19,
-13,
-8,
-5,
-5,
-7,
-6,
-4,
0,
3,
1,
1,
1,
5,
7,
12,
13,
14,
14,
16,
20,
25,
23,
19,
18,
25,
31,
28,
25,
25,
28,
34,
38,
33,
29,
33,
40,
42,
38,
34,
33,
38,
41,
39,
33,
34,
38,
41,
38,
35,
36,
38,
39,
39,
36,
35,
35,
35,
35,
30,
31,
33,
32,
28,
27,
28,
28,
27,
25,
20,
21,
22,
20,
15,
12,
10,
12,
13,
11,
6,
4,
6,
7,
5,
0,
-2,
-3,
-4,
-6,
-9,
-12,
-14,
-16,
-15,
-14,
-17,
-20,
-21,
-22,
-20,
-21,
-22,
-28,
-31,
-33,
-31,
-30,
-33,
-40,
-40,
-36,
-33,
-38,
-41,
-42,
-40,
-36,
-37,
-43,
-47,
-45,
-40,
-40,
-44,
-49,
-49,
-44,
-40,
-43,
-46,
-46,
-42,
-38,
-38,
-41,
-42,
-43,
-38,
-37,
-38,
-39,
-37,
-33,
-31,
-32,
-31,
-28,
-24,
-23,
-22,
-22,
-20,
-19,
-18,
-19,
-18,
-17,
-13,
-12,
-10,
-9,
-5,
-3,
-1,
1,
3,
5,
5,
5,
8,
8,
11,
11,
9,
12,
16,
19,
19,
18,
20,
27,
31,
31,
24,
25,
31,
36,
35,
28,
28,
32,
38,
40,
35,
31,
34,
42,
44,
41,
35,
35,
41,
44,
41,
34,
34,
37,
41,
39,
37,
34,
35,
39,
39,
38,
34,
31,
31,
32,
30,
30,
27,
24,
20,
21,
26,
24,
18,
15,
17,
20,
19,
13,
7,
7,
11,
11,
6,
-2,
-5,
-1,
2,
-1,
-8,
-12,
-7,
-5,
-7,
-15,
-18,
-15,
-13,
-17,
-22,
-25,
-25,
-25,
-27,
-30,
-32,
-31,
-30,
-31,
-35,
-38,
-33,
-32,
-38,
-43,
-42,
-39,
-38,
-42,
-47,
-47,
-42,
-42,
-42,
-46,
-47,
-44,
-40,
-40,
-43,
-47,
-46,
-42,
-42,
-45,
-44,
-43,
-41,
-40,
-39,
-39,
-36,
-37,
-34,
-31,
-29,
-31,
-31,
-32,
-30,
-26,
-24,
-25,
-27,
-27,
-21,
-15,
-15,
-17,
-16,
-9,
-3,
-3,
-7,
-8,
-5,
1,
3,
1,
-2,
1,
7,
10,
10,
7,
11,
16,
20,
21,
19,
19,
21,
26,
26,
24,
24,
27,
30,
31,
31,
31,
32,
36,
38,
35,
37,
39,
39,
39,
39,
37,
37,
39,
39,
39,
38,
37,
39,
40,
39,
39,
37,
37,
38,
38,
38,
35,
31,
31,
33,
35,
33,
29,
26,
28,
29,
28,
25,
19,
18,
23,
23,
17,
11,
7,
13,
16,
14,
5,
1,
3,
9,
9,
0,
-7,
-8,
-4,
-4,
-8,
-18,
-20,
-14,
-10,
-14,
-22,
-24,
-21,
-18,
-20,
-23,
-29,
-30,
-28,
-30,
-30,
-34,
-38,
-37,
-37,
-38,
-37,
-39,
-40,
-41,
-39,
-37,
-39,
-42,
-46,
-45,
-42,
-40,
-45,
-48,
-48,
-43,
-39,
-40,
-45,
-47,
-43,
-37,
-37,
-41,
-44,
-41,
-37,
-35,
-39,
-39,
-38,
-31,
-31,
-31,
-31,
-28,
-23,
-21,
-24,
-25,
-21,
-18,
-18,
-20,
-21,
-15,
-11,
-11,
-14,
-12,
-6,
0,
1,
-2,
-1,
3,
7,
10,
7,
5,
8,
12,
15,
13,
12,
15,
20,
23,
24,
25,
26,
27,
29,
29,
32,
32,
31,
32,
32,
33,
34,
35,
34,
34,
37,
40,
42,
38,
35,
38,
43,
43,
37,
34,
35,
39,
41,
38,
34,
34,
39,
40,
37,
31,
31,
34,
36,
32,
26,
25,
25,
25,
24,
20,
19,
21,
21,
20,
16,
14,
15,
16,
13,
7,
5,
7,
6,
2,
-3,
-3,
-3,
-1,
-5,
-8,
-9,
-10,
-11,
-12,
-13,
-16,
-18,
-19,
-20,
-22,
-24,
-26,
-28,
-30,
-29,
-29,
-29,
-33,
-36,
-35,
-30,
-31,
-39,
-42,
-41,
-38,
-38,
-42,
-47,
-46,
-41,
-37,
-40,
-46,
-50,
-43,
-37,
-36,
-45,
-47,
-46,
-39,
-38,
-43,
-48,
-47,
-43,
-35,
-36,
-40,
-42,
-36,
-28,
-28,
-32,
-33,
-33,
-28,
-26,
-25,
-28,
-28,
-25,
-20,
-16,
-17,
-17,
-16,
-12,
-6,
-4,
-5,
-6,
-7,
-2,
1,
2,
1,
-1,
3,
7,
11,
12,
11,
12,
16,
21,
21,
20,
18,
20,
26,
26,
24,
24,
27,
31,
32,
31,
29,
34,
35,
38,
37,
35,
37,
39,
38,
38,
36,
37,
41,
39,
37,
35,
37,
42,
43,
38,
34,
37,
38,
39,
37,
33,
30,
33,
35,
34,
28,
26,
30,
32,
29,
25,
22,
23,
22,
19,
17,
16,
14,
13,
13,
10,
10,
8,
7,
4,
3,
4,
6,
0,
-5,
-7,
-6,
-4,
-10,
-16,
-16,
-14,
-14,
-17,
-22,
-24,
-20,
-19,
-20,
-28,
-30,
-31,
-25,
-28,
-35,
-38,
-37,
-34,
-38,
-41,
-41,
-39,
-36,
-39,
-42,
-42,
-41,
-39,
-42,
-47,
-46,
-44,
-39,
-42,
-47,
-47,
-44,
-39,
-40,
-44,
-45,
-41,
-36,
-38,
-39,
-42,
-41,
-36,
-34,
-37,
-36,
-35,
-31,
-28,
-27,
-27,
-25,
-24,
-22,
-21,
-18,
-16,
-19,
-22,
-16,
-12,
-10,
-12,
-14,
-8,
-2,
4,
5,
1,
-2,
4,
13,
13,
8,
3,
8,
17,
19,
15,
10,
14,
23,
30,
29,
23,
21,
28,
34,
34,
31,
27,
29,
34,
36,
33,
32,
33,
34,
39,
40,
39,
36,
38,
39,
42,
41,
37,
38,
36,
37,
39,
38,
37,
34,
35,
39,
40,
37,
33,
32,
34,
34,
30,
28,
25,
24,
26,
25,
20,
19,
20,
20,
22,
18,
13,
13,
15,
13,
9,
5,
4,
3,
0,
-3,
-6,
-6,
-4,
-4,
-8,
-12,
-12,
-8,
-9,
-15,
-21,
-21,
-19,
-18,
-24,
-30,
-30,
-28,
-26,
-29,
-35,
-35,
-35,
-31,
-32,
-36,
-40,
-40,
-39,
-39,
-43,
-45,
-45,
-43,
-43,
-42,
-42,
-44,
-43,
-43,
-42,
-41,
-43,
-44,
-44,
-43,
-43,
-42,
-42,
-44,
-44,
-39,
-37,
-36,
-39,
-38,
-33,
-29,
-28,
-31,
-32,
-30,
-27,
-25,
-29,
-29,
-25,
-21,
-19,
-20,
-20,
-15,
-9,
-8,
-9,
-8,
-5,
-3,
-3,
-5,
-4,
1,
5,
6,
3,
2,
7,
14,
16,
14,
13,
17,
24,
25,
20,
19,
20,
25,
30,
28,
24,
23,
31,
35,
36,
34,
31,
35,
39,
39,
37,
38,
36,
36,
39,
39,
39,
38,
35,
37,
39,
42,
41,
35,
34,
37,
41,
41,
34,
26,
31,
38,
39,
32,
25,
25,
32,
36,
29,
20,
18,
23,
27,
25,
13,
9,
12,
16,
15,
8,
2,
5,
9,
9,
2,
-1,
-2,
0,
-2,
-6,
-9,
-12,
-13,
-12,
-15,
-16,
-18,
-17,
-21,
-21,
-22,
-19,
-24,
-26,
-31,
-31,
-27,
-30,
-36,
-37,
-36,
-34,
-36,
-37,
-41,
-39,
-36,
-37,
-41,
-43,
-43,
-41,
-41,
-45,
-47,
-45,
-40,
-42,
-47,
-47,
-43,
-39,
-39,
-42,
-45,
-41,
-37,
-36,
-40,
-43,
-39,
-35,
-32,
-35,
-39,
-37,
-30,
-26,
-25,
-26,
-27,
-23,
-21,
-18,
-20,
-20,
-19,
-16,
-14,
-14,
-14,
-12,
-8,
-3,
-1,
0,
1,
2,
3,
7,
8,
10,
7,
8,
11,
15,
14,
15,
15,
17,
23,
28,
27,
24,
27,
28,
34,
33,
31,
31,
32,
34,
34,
34,
33,
34,
38,
41,
39,
39,
39,
40,
40,
39,
39,
40,
39,
38,
37,
34,
36,
39,
38,
37,
35,
36,
38,
38,
34,
28,
29,
32,
33,
26,
21,
20,
24,
26,
21,
17,
15,
18,
21,
19,
12,
8,
8,
11,
10,
4,
-2,
-3,
-2,
0,
-3,
-5,
-8,
-9,
-7,
-7,
-10,
-14,
-19,
-17,
-17,
-17,
-22,
-26,
-30,
-28,
-23,
-23,
-30,
-36,
-37,
-31,
-27,
-32,
-42,
-44,
-37,
-32,
-38,
-46,
-49,
-44,
-39,
-38,
-45,
-49,
-46,
-39,
-37,
-42,
-47,
-47,
-40,
-39,
-44,
-46,
-45,
-42,
-39,
-40,
-41,
-39,
-38,
-35,
-33,
-33,
-32,
-30,
-29,
-30,
-31,
-29,
-26,
-25,
-26,
-25,
-21,
-18,
-18,
-16,
-14,
-11,
-7,
-7,
-7,
-5,
-3,
-1,
-3,
-4,
-1,
5,
7,
4,
2,
8,
15,
18,
14,
13,
17,
24,
26,
22,
18,
21,
28,
31,
28,
22,
25,
30,
37,
37,
31,
31,
36,
39,
39,
38,
33,
36,
39,
41,
37,
34,
35,
38,
41,
39,
38,
39,
38,
36,
36,
38,
36,
33,
31,
32,
34,
34,
31,
27,
26,
28,
29,
28,
22,
19,
21,
22,
19,
13,
9,
13,
15,
12,
7,
5,
6,
8,
7,
4,
1,
-2,
-3,
-5,
-7,
-11,
-13,
-12,
-14,
-17,
-19,
-18,
-16,
-20,
-23,
-24,
-24,
-21,
-26,
-31,
-35,
-32,
-31,
-33,
-38,
-42,
-40,
-36,
-35,
-40,
-45,
-45,
-39,
-35,
-41,
-44,
-47,
-45,
-40,
-41,
-46,
-48,
-47,
-42,
-40,
-40,
-45,
-44,
-41,
-39,
-38,
-39,
-41,
-41,
-39,
-36,
-33,
-34,
-38,
-36,
-30,
-27,
-25,
-25,
-27,
-23,
-19,
-15,
-19,
-22,
-23,
-16,
-11,
-11,
-16,
-16,
-12,
-4,
-1,
-1,
-3,
-1,
7,
11,
7,
4,
5,
10,
15,
14,
9,
11,
17,
22,
23,
23,
23,
25,
30,
31,
28,
28,
31,
32,
34,
32,
30,
35,
36,
36,
35,
37,
38,
39,
39,
39,
39,
39,
39,
39,
38,
37,
37,
38,
37,
36,
39,
37,
36,
34,
34,
37,
37,
32,
28,
28,
32,
31,
25,
19,
18,
24,
26,
23,
15,
13,
19,
22,
19,
10,
5,
8,
13,
10,
-1,
-6,
-4,
1,
1,
-5,
-12,
-11,
-7,
-5,
-9,
-15,
-19,
-16,
-14,
-19,
-23,
-24,
-27,
-26,
-30,
-30,
-30,
-31,
-34,
-35,
-32,
-31,
-35,
-37,
-40,
-39,
-37,
-38,
-43,
-45,
-44,
-41,
-39,
-42,
-47,
-44,
-40,
-39,
-41,
-44,
-45,
-41,
-41,
-43,
-45,
-43,
-40,
-41,
-41,
-41,
-39,
-35,
-33,
-35,
-36,
-30,
-27,
-27,
-33,
-34,
-29,
-24,
-23,
-25,
-27,
-22,
-15,
-12,
-14,
-17,
-13,
-5,
-1,
-4,
-9,
-7,
-3,
2,
1,
-1,
0,
3,
8,
11,
11,
11,
13,
17,
20,
21,
20,
19,
21,
23,
26,
27,
27,
25,
26,
32,
35,
36,
33,
33,
35,
39,
40,
37,
35,
35,
40,
42,
39,
35,
33,
39,
42,
41,
36,
35,
38,
40,
40,
37,
33,
33,
35,
37,
33,
28,
29,
31,
32,
28,
25,
26,
26,
25,
23,
19,
16,
17,
17,
15,
11,
9,
9,
11,
10,
5,
2,
4,
4,
3,
-3,
-6,
-7,
-8,
-8,
-11,
-15,
-16,
-16,
-16,
-17,
-19,
-23,
-21,
-22,
-23,
-25,
-30,
-30,
-33,
-33,
-32,
-34,
-37,
-40,
-40,
-37,
-34,
-39,
-44,
-44,
-39,
-38,
-39,
-47,
-49,
-44,
-40,
-40,
-46,
-51,
-47,
-39,
-38,
-43,
-47,
-45,
-39,
-35,
-37,
-43,
-44,
-40,
-36,
-36,
-37,
-39,
-36,
-30,
-28,
-28,
-27,
-25,
-22,
-23,
-20,
-19,
-18,
-22,
-21,
-16,
-13,
-12,
-13,
-13,
-10,
-5,
0,
1,
-1,
2,
7,
10,
10,
6,
6,
9,
13,
15,
14,
12,
17,
20,
24,
23,
23,
27,
30,
31,
27,
30,
32,
34,
32,
28,
32,
36,
37,
33,
34,
36,
42,
44,
39,
35,
36,
41,
45,
41,
34,
32,
38,
43,
41,
33,
32,
37,
41,
39,
34,
31,
30,
33,
33,
30,
24,
24,
25,
24,
23,
19,
19,
19,
18,
17,
19,
17,
13,
11,
9,
11,
9,
1,
-2,
-3,
-1,
1,
-3,
-8,
-10,
-7,
-5,
-7,
-14,
-19,
-15,
-13,
-16,
-23,
-29,
-27,
-23,
-25,
-31,
-35,
-32,
-31,
-30,
-34,
-35,
-37,
-34,
-33,
-39,
-44,
-44,
-41,
-40,
-44,
-47,
-46,
-43,
-39,
-42,
-45,
-44,
-43,
-39,
-40,
-43,
-47,
-44,
-40,
-39,
-43,
-44,
-42,
-40,
-37,
-35,
-36,
-35,
-34,
-31,
-28,
-28,
-33,
-31,
-29,
-25,
-23,
-22,
-25,
-26,
-20,
-15,
-13,
-14,
-17,
-10,
-5,
-1,
-3,
-8,
-7,
-1,
4,
5,
1,
-2,
4,
11,
15,
12,
10,
13,
19,
23,
21,
20,
19,
22,
27,
29,
26,
23,
27,
32,
35,
34,
33,
33,
36,
38,
38,
39,
39,
37,
38,
39,
39,
39,
35,
38,
37,
39,
40,
39,
37,
36,
38,
40,
38,
35,
32,
34,
35,
34,
30,
28,
29,
30,
29,
29,
26,
23,
25,
24,
19,
17,
16,
17,
15,
10,
9,
11,
12,
8,
3,
1,
5,
6,
-1,
-5,
-9,
-6,
-4,
-8,
-16,
-19,
-16,
-12,
-13,
-21,
-25,
-22,
-17,
-19,
-27,
-33,
-32,
-28,
-31,
-33,
-38,
-40,
-36,
-35,
-38,
-41,
-41,
-39,
-38,
-40,
-42,
-41,
-42,
-43,
-44,
-44,
-42,
-44,
-47,
-46,
-44,
-41,
-43,
-45,
-45,
-40,
-38,
-36,
-41,
-43,
-41,
-37,
-33,
-37,
-40,
-37,
-31,
-28,
-31,
-32,
-28,
-22,
-20,
-21,
-25,
-21,
-17,
-14,
-17,
-21,
-19,
-12,
-7,
-9,
-12,
-7,
1,
5,
2,
0,
0,
6,
12,
12,
7,
7,
11,
16,
18,
15,
13,
17,
23,
26,
28,
26,
26,
28,
31,
32,
33,
32,
30,
31,
35,
36,
35,
34,
34,
38,
42,
43,
39,
35,
37,
44,
45,
39,
33,
34,
39,
42,
39,
32,
32,
37,
41,
41,
34,
27,
31,
35,
35,
28,
20,
19,
24,
26,
25,
18,
16,
20,
20,
20,
15,
12,
12,
13,
11,
8,
5,
2,
0,
0,
-2,
-4,
-4,
-7,
-9,
-7,
-7,
-8,
-13,
-15,
-16,
-16,
-19,
-21,
-25,
-28,
-28,
-26,
-27,
-30,
-33,
-34,
-31,
-31,
-35,
-36,
-38,
-37,
-39,
-39,
-41,
-41,
-41,
-43,
-44,
-43,
-43,
-42,
-42,
-44,
-45,
-40,
-40,
-42,
-46,
-46,
-45,
-41,
-40,
-45,
-45,
-42,
-36,
-34,
-38,
-38,
-35,
-30,
-26,
-30,
-37,
-34,
-27,
-23,
-26,
-29,
-28,
-22,
-19,
-16,
-19,
-17,
-12,
-7,
-5,
-6,
-7,
-5,
-3,
-1,
-2,
0,
2,
3,
5,
6,
10,
12,
13,
15,
16,
20,
23,
22,
20,
22,
25,
28,
26,
24,
27,
29,
33,
33,
32,
33,
36,
38,
37,
35,
35,
38,
39,
38,
35,
35,
39,
43,
38,
34,
34,
42,
45,
41,
35,
31,
37,
41,
38,
32,
27,
32,
36,
36,
29,
23,
26,
31,
33,
25,
18,
19,
22,
20,
17,
15,
11,
12,
13,
11,
10,
8,
5,
5,
6,
4,
1,
-2,
-7,
-7,
-5,
-6,
-10,
-19,
-19,
-15,
-12,
-15,
-25,
-26,
-21,
-16,
-20,
-28,
-36,
-32,
-25,
-26,
-32,
-42,
-41,
-36,
-31,
-37,
-44,
-44,
-40,
-35,
-39,
-44,
-46,
-42,
-40,
-41,
-46,
-47,
-44,
-44,
-44,
-43,
-44,
-42,
-41,
-42,
-43,
-39,
-37,
-39,
-42,
-41,
-38,
-34,
-36,
-36,
-37,
-32,
-28,
-27,
-27,
-26,
-23,
-21,
-21,
-20,
-22,
-18,
-16,
-17,
-17,
-14,
-10,
-8,
-9,
-7,
-4,
2,
2,
2,
2,
6,
9,
11,
9,
7,
9,
13,
18,
16,
14,
14,
20,
26,
28,
26,
25,
27,
32,
35,
31,
28,
29,
33,
35,
34,
31,
32,
37,
39,
40,
38,
37,
39,
40,
42,
39,
36,
37,
39,
39,
36,
35,
35,
38,
37,
36,
37,
36,
34,
33,
32,
29,
30,
28,
26,
23,
22,
23,
22,
19,
19,
17,
18,
18,
15,
13,
12,
11,
9,
5,
2,
1,
1,
-3,
-4,
-5,
-5,
-5,
-8,
-11,
-13,
-10,
-7,
-13,
-20,
-22,
-20,
-19,
-21,
-32,
-35,
-29,
-23,
-25,
-35,
-40,
-38,
-31,
-29,
-36,
-44,
-43,
-37,
-36,
-40,
-47,
-48,
-44,
-39,
-41,
-45,
-47,
-46,
-40,
-41,
-41,
-43,
-45,
-44,
-41,
-40,
-43,
-42,
-44,
-42,
-38,
-35,
-36,
-39,
-39,
-34,
-27,
-26,
-33,
-35,
-31,
-24,
-23,
-24,
-29,
-29,
-21,
-14,
-15,
-20,
-19,
-12,
-5,
-4,
-8,
-9,
-5,
1,
1,
0,
-1,
2,
7,
8,
7,
8,
12,
16,
18,
18,
18,
22,
24,
22,
23,
25,
27,
28,
27,
26,
28,
32,
33,
34,
32,
34,
37,
39,
38,
35,
36,
38,
39,
38,
35,
38,
39,
39,
37,
38,
39,
40,
39,
36,
35,
38,
38,
37,
32,
29,
33,
35,
34,
26,
25,
28,
32,
28,
21,
18,
19,
23,
20,
16,
10,
9,
12,
14,
10,
5,
3,
6,
7,
4,
-2,
-4,
-3,
-4,
-5,
-10,
-13,
-14,
-14,
-14,
-17,
-19,
-19,
-19,
-21,
-22,
-23,
-24,
-25,
-28,
-32,
-32,
-32,
-34,
-37,
-38,
-37,
-37,
-39,
-40,
-40,
-41,
-39,
-39,
-41,
-43,
-44,
-44,
-44,
-45,
-46,
-44,
-45,
-44,
-44,
-43,
-40,
-41,
-43,
-42,
-40,
-36,
-37,
-40,
-41,
-40,
-36,
-32,
-33,
-37,
-36,
-31,
-24,
-22,
-27,
-28,
-23,
-16,
-17,
-20,
-23,
-21,
-13,
-9,
-10,
-15,
-16,
-8,
-1,
2,
-1,
-3,
2,
8,
10,
9,
6,
6,
9,
15,
16,
13,
12,
15,
20,
26,
28,
27,
25,
26,
31,
34,
33,
29,
28,
31,
35,
37,
33,
31,
33,
38,
42,
39,
35,
35,
40,
44,
43,
36,
33,
37,
42,
40,
35,
32,
36,
39,
39,
36,
33,
34,
37,
37,
32,
28,
27,
29,
28,
23,
19,
21,
24,
22,
17,
16,
17,
18,
17,
13,
9,
9,
8,
7,
3,
-2,
-1,
-1,
-2,
-6,
-9,
-7,
-8,
-8,
-12,
-13,
-14,
-15,
-19,
-20,
-22,
-22,
-26,
-30,
-31,
-29,
-26,
-30,
-33,
-36,
-36,
-31,
-31,
-37,
-44,
-41,
-36,
-36,
-43,
-48,
-47,
-42,
-39,
-42,
-47,
-46,
-41,
-39,
-40,
-45,
-47,
-44,
-41,
-41,
-46,
-45,
-42,
-40,
-39,
-41,
-40,
-36,
-35,
-33,
-32,
-31,
-30,
-27,
-30,
-30,
-28,
-24,
-23,
-25,
-26,
-21,
-17,
-14,
-14,
-14,
-10,
-7,
-5,
-5,
-5,
-4,
-3,
0,
1,
2,
2,
4,
7,
8,
13,
16,
17,
17,
16,
20,
24,
24,
23,
19,
22,
27,
31,
29,
24,
26,
33,
39,
37,
33,
31,
38,
43,
42,
35,
32,
36,
40,
42,
39,
33,
33,
39,
42,
42,
36,
33,
37,
39,
39,
35,
32,
32,
34,
34,
33,
31,
26,
28,
32,
32,
27,
24,
19,
23,
22,
21,
17,
12,
12,
13,
15,
13,
8,
5,
5,
8,
8,
1,
-2,
-5,
-2,
-1,
-6,
-12,
-16,
-13,
-11,
-14,
-20,
-23,
-21,
-17,
-18,
-24,
-26,
-28,
-26,
-26,
-33,
-37,
-35,
-35,
-35,
-37,
-41,
-40,
-37,
-37,
-39,
-44,
-43,
-40,
-39,
-43,
-45,
-47,
-44,
-43,
-43,
-47,
-47,
-44,
-40,
-41,
-42,
-45,
-40,
-39,
-39,
-41,
-40,
-40,
-39,
-37,
-37,
-36,
-33,
-34,
-32,
-28,
-25,
-23,
-26,
-25,
-22,
-20,
-16,
-19,
-22,
-20,
-13,
-9,
-12,
-16,
-13,
-5,
2,
1,
-1,
-1,
3,
10,
11,
7,
4,
8,
14,
15,
12,
12,
14,
20,
23,
23,
24,
27,
28,
30,
30,
29,
32,
32,
32,
32,
32,
35,
38,
36,
34,
34,
39,
43,
40,
37,
35,
40,
42,
39,
37,
36,
36,
39,
40,
36,
34,
36,
37,
38,
35,
33,
34,
32,
29,
29,
29,
27,
23,
20,
20,
23,
24,
19,
16,
15,
18,
19,
17,
9,
5,
9,
13,
8,
-1,
-7,
-5,
2,
2,
-8,
-14,
-12,
-7,
-5,
-10,
-19,
-20,
-17,
-13,
-18,
-27,
-32,
-27,
-25,
-25,
-31,
-35,
-35,
-31,
-32,
-32,
-37,
-37,
-39,
-39,
-38,
-38,
-43,
-44,
-45,
-41,
-41,
-42,
-44,
-47,
-45,
-40,
-40,
-41,
-46,
-44,
-40,
-39,
-44,
-45,
-45,
-40,
-37,
-37,
-41,
-41,
-36,
-31,
-30,
-32,
-35,
-31,
-27,
-27,
-31,
-31,
-27,
-22,
-21,
-22,
-22,
-19,
-13,
-12,
-12,
-12,
-11,
-4,
-3,
-4,
-5,
-3,
0,
4,
2,
2,
3,
7,
12,
15,
14,
15,
17,
19,
23,
23,
23,
22,
24,
25,
28,
28,
28,
27,
31,
34,
38,
36,
34,
35,
39,
42,
39,
37,
35,
37,
40,
42,
37,
35,
35,
39,
43,
41,
35,
33,
37,
41,
39,
34,
30,
31,
34,
37,
32,
26,
28,
30,
32,
28,
24,
24,
25,
23,
18,
16,
15,
16,
14,
11,
10,
9,
9,
8,
5,
3,
4,
6,
0,
-5,
-7,
-7,
-5,
-8,
-15,
-17,
-15,
-14,
-17,
-19,
-22,
-23,
-20,
-20,
-24,
-28,
-31,
-29,
-29,
-32,
-35,
-37,
-38,
-38,
-38,
-38,
-38,
-40,
-43,
-41,
-39,
-38,
-41,
-46,
-48,
-43,
-39,
-40,
-47,
-50,
-47,
-40,
-37,
-42,
-49,
-45,
-37,
-33,
-39,
-45,
-45,
-38,
-33,
-33,
-40,
-41,
-35,
-29,
-27,
-30,
-32,
-26,
-21,
-19,
-22,
-22,
-21,
-19,
-17,
-16,
-15,
-14,
-12,
-10,
-6,
-5,
-1,
0,
1,
2,
5,
9,
8,
6,
7,
11,
15,
13,
12,
12,
18,
22,
24,
22,
23,
27,
31,
30,
27,
28,
31,
35,
34,
29,
29,
33,
39,
38,
34,
32,
37,
42,
42,
38,
35,
38,
41,
43,
38,
34,
33,
39,
42,
36,
33,
32,
37,
39,
35,
31,
29,
30,
32,
31,
26,
22,
20,
24,
23,
21,
17,
18,
17,
18,
17,
16,
13,
9,
9,
8,
7,
4,
-3,
-5,
-3,
0,
-2,
-6,
-12,
-12,
-7,
-7,
-10,
-18,
-19,
-17,
-16,
-20,
-27,
-31,
-28,
-25,
-26,
-32,
-36,
-34,
-33,
-31,
-32,
-36,
-38,
-37,
-37,
-40,
-44,
-43,
-42,
-41,
-43,
-44,
-44,
-42,
-43,
-44,
-44,
-42,
-41,
-41,
-44,
-44,
-43,
-41,
-40,
-43,
-45,
-42,
-37,
-33,
-37,
-37,
-36,
-30,
-28,
-29,
-31,
-31,
-29,
-25,
-25,
-25,
-26,
-23,
-21,
-17,
-16,
-15,
-13,
-11,
-7,
-6,
-3,
-5,
-6,
-4,
-1,
3,
4,
1,
1,
5,
11,
15,
14,
10,
13,
21,
26,
23,
17,
18,
24,
31,
29,
25,
23,
26,
33,
38,
34,
29,
33,
39,
42,
38,
33,
35,
39,
41,
39,
37,
36,
38,
41,
39,
38,
38,
38,
41,
38,
37,
37,
35,
35,
33,
33,
34,
34,
31,
29,
29,
31,
28,
25,
24,
24,
23,
20,
18,
14,
16,
15,
15,
10,
6,
8,
11,
10,
3,
0,
1,
4,
2,
-7,
-12,
-10,
-6,
-7,
-15,
-22,
-19,
-13,
-13,
-18,
-26,
-27,
-21,
-18,
-22,
-33,
-36,
-30,
-27,
-32,
-38,
-42,
-39,
-36,
-35,
-39,
-42,
-43,
-40,
-38,
-39,
-44,
-45,
-45,
-43,
-43,
-43,
-44,
-46,
-47,
-43,
-40,
-40,
-44,
-46,
-42,
-36,
-36,
-37,
-44,
-43,
-37,
-33,
-34,
-39,
-39,
-34,
-26,
-25,
-29,
-29,
-25,
-20,
-18,
-19,
-24,
-21,
-18,
-15,
-15,
-15,
-13,
-10,
-7,
-6,
-4,
-1,
3,
4,
4,
5,
6,
9,
9,
9,
9,
12,
16,
17,
15,
17,
22,
26,
27,
26,
25,
28,
31,
33,
31,
31,
31,
32,
33,
35,
34,
34,
35,
37,
39,
39,
37,
37,
39,
39,
41,
41,
38,
35,
36,
38,
39,
37,
34,
34,
37,
38,
37,
33,
29,
29,
32,
34,
28,
22,
19,
-44,
