5-grundlagen-opAmps/data/ALL0033/A0033CH1.CSV

Memory Length,4000,
Trigger Level,0.00000e+00,
Source,CH1,
Probe,1.0X,
Vertical Units,V,
Vertical Scale,5.00000e-02,
Vertical Position,0.00000e+00,
Horizontal Units,S,
Horizontal Scale,2.50000e-07,
Horizontal Position,2.5000000e-07,
Horizontal Mode,Main,
Sampling Period,2.00000e-09,
Firmware,V1.14,
Time, ,
Mode,Fast,
Waveform Data,
1,
1,
4,
1,
-3,
-2,
6,
11,
7,
3,
1,
8,
13,
13,
9,
6,
11,
17,
18,
16,
10,
12,
18,
21,
19,
15,
14,
17,
21,
20,
21,
20,
18,
18,
19,
24,
25,
20,
16,
15,
25,
29,
24,
15,
10,
19,
28,
28,
15,
6,
13,
24,
29,
17,
7,
8,
17,
24,
17,
5,
2,
9,
18,
16,
4,
-1,
4,
9,
10,
4,
-2,
-3,
1,
2,
3,
-3,
-8,
-10,
-7,
-3,
-4,
-8,
-13,
-13,
-11,
-9,
-10,
-17,
-22,
-18,
-13,
-15,
-18,
-25,
-26,
-17,
-17,
-23,
-29,
-27,
-20,
-20,
-26,
-31,
-29,
-26,
-24,
-27,
-33,
-33,
-28,
-24,
-27,
-35,
-34,
-28,
-24,
-28,
-34,
-33,
-27,
-23,
-26,
-31,
-34,
-29,
-24,
-23,
-27,
-32,
-30,
-23,
-19,
-21,
-25,
-29,
-22,
-18,
-14,
-17,
-22,
-22,
-17,
-10,
-9,
-15,
-18,
-15,
-7,
-5,
-7,
-12,
-14,
-7,
3,
3,
-6,
-10,
-4,
4,
10,
5,
-3,
-3,
6,
14,
14,
5,
1,
3,
13,
20,
15,
8,
6,
12,
20,
23,
16,
12,
11,
18,
24,
21,
15,
12,
21,
22,
25,
19,
16,
19,
23,
26,
23,
19,
18,
20,
23,
22,
20,
18,
18,
17,
19,
19,
21,
17,
13,
12,
16,
21,
18,
12,
7,
9,
15,
16,
12,
5,
3,
6,
12,
10,
3,
-2,
2,
4,
5,
0,
-4,
-4,
-3,
-2,
-3,
-6,
-10,
-12,
-9,
-10,
-8,
-13,
-18,
-17,
-15,
-11,
-12,
-19,
-27,
-24,
-13,
-13,
-21,
-32,
-33,
-20,
-15,
-21,
-32,
-36,
-27,
-20,
-20,
-29,
-38,
-32,
-25,
-19,
-28,
-36,
-35,
-28,
-23,
-27,
-33,
-33,
-28,
-25,
-27,
-29,
-31,
-32,
-28,
-25,
-25,
-26,
-28,
-27,
-26,
-23,
-20,
-20,
-23,
-24,
-21,
-15,
-15,
-18,
-19,
-16,
-11,
-12,
-15,
-16,
-9,
-6,
-8,
-9,
-10,
-6,
0,
-2,
-8,
-9,
0,
6,
4,
-3,
-4,
3,
12,
11,
4,
0,
7,
16,
17,
11,
3,
8,
19,
23,
15,
6,
7,
20,
25,
23,
15,
11,
17,
24,
25,
22,
15,
15,
21,
25,
26,
23,
17,
16,
20,
26,
27,
20,
13,
15,
23,
27,
20,
13,
10,
17,
26,
22,
12,
6,
11,
19,
23,
15,
3,
3,
12,
18,
12,
3,
-1,
4,
10,
9,
3,
-3,
-4,
1,
3,
1,
-4,
-8,
-7,
-5,
-6,
-7,
-9,
-11,
-14,
-13,
-12,
-12,
-17,
-18,
-16,
-16,
-16,
-19,
-23,
-24,
-21,
-20,
-21,
-23,
-27,
-28,
-28,
-24,
-23,
-28,
-32,
-32,
-27,
-25,
-27,
-31,
-35,
-32,
-28,
-24,
-28,
-34,
-36,
-31,
-25,
-26,
-30,
-32,
-31,
-27,
-24,
-24,
-27,
-30,
-27,
-23,
-21,
-23,
-29,
-27,
-20,
-16,
-15,
-20,
-24,
-22,
-14,
-9,
-12,
-19,
-23,
-13,
-4,
-4,
-9,
-14,
-11,
-3,
2,
-1,
-9,
-8,
0,
6,
5,
-2,
-2,
4,
9,
8,
5,
4,
7,
11,
13,
10,
7,
11,
15,
16,
13,
13,
15,
19,
18,
16,
18,
20,
19,
18,
18,
20,
20,
20,
21,
19,
19,
20,
22,
22,
20,
20,
20,
20,
20,
20,
24,
20,
16,
14,
19,
24,
22,
13,
8,
12,
21,
23,
14,
4,
5,
15,
19,
12,
-1,
-2,
10,
17,
11,
-3,
-8,
0,
9,
7,
-2,
-11,
-9,
0,
3,
-2,
-11,
-16,
-9,
-5,
-7,
-12,
-16,
-17,
-16,
-13,
-11,
-17,
-24,
-26,
-20,
-13,
-16,
-25,
-32,
-29,
-18,
-18,
-24,
-33,
-35,
-26,
-17,
-20,
-34,
-38,
-31,
-20,
-21,
-31,
-39,
-35,
-25,
-22,
-29,
-34,
-34,
-29,
-25,
-27,
-29,
-30,
-29,
-26,
-26,
-27,
-25,
-24,
-24,
-26,
-25,
-20,
-19,
-21,
-25,
-23,
-17,
-16,
-15,
-18,
-17,
-14,
-9,
-8,
-15,
-14,
-10,
-5,
-3,
-6,
-8,
-7,
-3,
1,
3,
1,
-2,
-2,
3,
6,
8,
5,
4,
4,
10,
14,
14,
10,
5,
8,
16,
20,
15,
8,
10,
16,
24,
22,
14,
12,
17,
24,
25,
20,
14,
16,
22,
27,
24,
18,
16,
20,
26,
26,
21,
15,
17,
20,
24,
22,
17,
15,
17,
21,
19,
17,
14,
12,
15,
16,
13,
12,
11,
11,
13,
9,
7,
7,
8,
9,
4,
2,
0,
5,
4,
0,
-3,
-4,
-1,
-1,
-4,
-8,
-9,
-6,
-5,
-8,
-12,
-16,
-14,
-12,
-10,
-14,
-21,
-20,
-19,
-16,
-14,
-22,
-26,
-28,
-24,
-16,
-19,
-28,
-34,
-29,
-22,
-17,
-25,
-36,
-35,
-27,
-19,
-23,
-35,
-40,
-32,
-19,
-19,
-32,
-39,
-37,
-23,
-18,
-27,
-35,
-38,
-28,
-18,
-20,
-30,
-37,
-29,
-19,
-17,
-22,
-29,
-28,
-22,
-18,
-15,
-17,
-22,
-24,
-19,
-12,
-10,
-14,
-20,
-17,
-9,
-5,
-4,
-13,
-15,
-10,
-1,
3,
-6,
-11,
-7,
5,
8,
2,
-5,
-4,
7,
14,
11,
3,
1,
7,
14,
14,
10,
8,
12,
17,
15,
14,
14,
18,
20,
17,
15,
18,
22,
23,
20,
14,
18,
24,
23,
21,
15,
17,
24,
26,
21,
17,
17,
23,
26,
23,
19,
16,
19,
20,
21,
19,
15,
15,
16,
17,
17,
16,
13,
9,
10,
13,
15,
12,
4,
2,
6,
12,
11,
2,
-3,
-3,
5,
7,
2,
-7,
-9,
-2,
0,
-2,
-11,
-14,
-8,
-5,
-7,
-15,
-16,
-13,
-12,
-12,
-16,
-19,
-19,
-17,
-16,
-19,
-22,
-23,
-24,
-23,
-23,
-26,
-25,
-25,
-26,
-28,
-29,
-27,
-27,
-27,
-32,
-31,
-28,
-28,
-29,
-28,
-30,
-33,
-32,
-29,
-27,
-29,
-32,
-32,
-29,
-26,
-25,
-27,
-30,
-30,
-26,
-19,
-23,
-29,
-29,
-23,
-16,
-17,
-24,
-28,
-21,
-14,
-10,
-13,
-22,
-22,
-14,
-4,
-7,
-15,
-19,
-14,
-2,
2,
-2,
-11,
-13,
-5,
7,
8,
-2,
-9,
-4,
8,
13,
8,
0,
-2,
8,
17,
17,
5,
2,
8,
18,
24,
15,
6,
9,
17,
25,
23,
15,
10,
15,
24,
26,
22,
15,
14,
20,
24,
26,
22,
18,
16,
20,
25,
25,
21,
15,
16,
22,
25,
21,
14,
13,
19,
21,
20,
15,
11,
15,
18,
18,
14,
7,
8,
14,
15,
10,
5,
7,
9,
7,
2,
0,
3,
4,
2,
-3,
-5,
-1,
1,
-3,
-10,
-14,
-8,
-3,
-4,
-13,
-18,
-15,
-9,
-9,
-17,
-24,
-20,
-16,
-14,
-16,
-24,
-23,
-22,
-20,
-20,
-24,
-26,
-25,
-26,
-25,
-26,
-27,
-28,
-30,
-29,
-26,
-25,
-28,
-34,
-33,
-27,
-23,
-26,
-35,
-36,
-28,
-23,
-24,
-29,
-35,
-32,
-25,
-19,
-27,
-34,
-29,
-23,
-20,
-23,
-28,
-27,
-20,
-19,
-24,
-23,
-20,
-19,
-14,
-17,
-19,
-15,
-12,
-11,
-15,
-14,
-10,
-4,
-6,
-11,
-11,
-5,
1,
0,
-5,
-6,
-2,
4,
8,
4,
1,
1,
6,
9,
10,
7,
4,
8,
10,
14,
17,
13,
9,
9,
15,
21,
21,
15,
12,
15,
22,
26,
20,
12,
14,
23,
28,
27,
15,
10,
19,
29,
31,
19,
11,
13,
26,
31,
25,
13,
9,
17,
27,
27,
15,
8,
11,
19,
25,
19,
11,
5,
10,
17,
17,
12,
1,
2,
11,
14,
9,
1,
-3,
0,
7,
7,
0,
-6,
-7,
-2,
3,
0,
-9,
-15,
-8,
-7,
-4,
-11,
-17,
-15,
-15,
-11,
-13,
-17,
-21,
-21,
-16,
-16,
-19,
-23,
-27,
-23,
-22,
-23,
-26,
-28,
-25,
-26,
-26,
-29,
-29,
-28,
-28,
-27,
-29,
-30,
-30,
-29,
-27,
-32,
-33,
-29,
-27,
-26,
-29,
-32,
-28,
-25,
-26,
-29,
-31,
-30,
-24,
-17,
-24,
-32,
-31,
-20,
-15,
-18,
-24,
-28,
-21,
-15,
-14,
-16,
-20,
-18,
-12,
-11,
-9,
-14,
-13,
-9,
-8,
-6,
-4,
-6,
-7,
-5,
-2,
3,
2,
-2,
-3,
2,
6,
8,
5,
1,
5,
10,
16,
12,
4,
6,
13,
19,
17,
11,
10,
15,
20,
19,
17,
15,
17,
20,
21,
17,
18,
22,
23,
20,
17,
18,
24,
25,
20,
17,
17,
24,
26,
19,
15,
15,
22,
27,
19,
13,
11,
18,
26,
20,
12,
7,
12,
20,
19,
13,
6,
6,
10,
12,
12,
7,
4,
1,
4,
7,
6,
2,
-5,
-5,
0,
3,
1,
-8,
-14,
-11,
-1,
1,
-12,
-21,
-20,
-7,
-2,
-12,
-25,
-30,
-15,
-7,
-8,
-24,
-34,
-26,
-15,
-10,
-24,
-34,
-32,
-24,
-17,
-22,
-32,
-34,
-29,
-25,
-23,
-27,
-31,
-34,
-29,
-27,
-27,
-30,
-34,
-31,
-29,
-26,
-27,
-31,
-32,
-30,
-26,
-23,
-27,
-32,
-29,
-27,
-20,
-22,
-28,
-28,
-22,
-19,
-18,
-20,
-23,
-22,
-15,
-15,
-16,
-18,
-15,
-11,
-11,
-14,
-13,
-11,
-7,
-7,
-10,
-8,
-6,
-1,
1,
-3,
-3,
-3,
4,
6,
4,
1,
3,
7,
10,
10,
7,
6,
9,
13,
16,
14,
8,
8,
16,
21,
20,
15,
11,
15,
22,
25,
20,
13,
14,
21,
27,
25,
18,
15,
18,
23,
26,
23,
18,
17,
20,
24,
24,
20,
15,
16,
20,
21,
21,
16,
13,
15,
18,
18,
16,
11,
10,
13,
15,
15,
7,
4,
6,
10,
11,
6,
3,
1,
2,
4,
2,
-1,
-4,
-4,
-3,
-4,
-6,
-6,
-7,
-10,
-13,
-13,
-9,
-9,
-12,
-18,
-20,
-15,
-11,
-15,
-24,
-27,
-22,
-14,
-16,
-26,
-30,
-29,
-19,
-17,
-26,
-34,
-34,
-25,
-19,
-24,
-34,
-36,
-30,
-25,
-24,
-29,
-35,
-34,
-31,
-25,
-26,
-30,
-34,
-34,
-28,
-24,
-23,
-29,
-36,
-32,
-24,
-15,
-22,
-32,
-33,
-26,
-12,
-14,
-26,
-32,
-23,
-12,
-8,
-16,
-28,
-25,
-9,
-2,
-9,
-21,
-21,
-9,
0,
-1,
-10,
-13,
-8,
0,
3,
0,
-4,
-3,
1,
5,
3,
2,
4,
6,
7,
7,
10,
10,
10,
9,
11,
14,
13,
14,
13,
16,
17,
19,
16,
12,
17,
19,
23,
20,
17,
18,
21,
24,
20,
18,
19,
23,
25,
19,
17,
19,
26,
26,
18,
14,
15,
23,
26,
19,
11,
9,
19,
25,
19,
10,
7,
13,
19,
18,
11,
5,
6,
12,
14,
9,
2,
1,
4,
8,
5,
0,
-3,
-4,
2,
1,
0,
-5,
-10,
-9,
-4,
-2,
-9,
-15,
-19,
-12,
-8,
-10,
-15,
-23,
-22,
-16,
-13,
-15,
-24,
-27,
-23,
-18,
-19,
-24,
-28,
-28,
-22,
-23,
-26,
-29,
-30,
-28,
-27,
-27,
-29,
-32,
-31,
-29,
-27,
-28,
-29,
-31,
-31,
-29,
-28,
-27,
-27,
-31,
-31,
-29,
-26,
-24,
-27,
-28,
-28,
-26,
-20,
-19,
-22,
-28,
-26,
-20,
-15,
-16,
-21,
-23,
-20,
-13,
-8,
-13,
-18,
-18,
-9,
-3,
-6,
-13,
-15,
-7,
0,
1,
-3,
-10,
-6,
2,
8,
6,
-1,
-3,
3,
11,
13,
8,
3,
3,
10,
15,
17,
13,
6,
8,
14,
20,
22,
14,
11,
13,
22,
26,
20,
13,
12,
23,
28,
25,
15,
11,
21,
28,
28,
18,
12,
17,
28,
29,
21,
15,
15,
23,
27,
21,
13,
13,
18,
20,
17,
12,
13,
14,
16,
14,
11,
12,
12,
11,
9,
4,
5,
7,
7,
4,
2,
1,
2,
0,
-1,
-2,
-3,
-4,
-6,
-7,
-6,
-5,
-10,
-14,
-13,
-11,
-9,
-14,
-19,
-18,
-14,
-13,
-14,
-26,
-27,
-18,
-13,
-16,
-29,
-35,
-27,
-16,
-17,
-27,
-37,
-32,
-21,
-17,
-27,
-36,
-36,
-29,
-21,
-24,
-34,
-36,
-32,
-25,
-25,
-30,
-32,
-33,
-27,
-26,
-26,
-28,
-31,
-30,
-27,
-20,
-21,
-26,
-28,
-28,
-21,
-17,
-20,
-24,
-27,
-22,
-13,
-11,
-18,
-25,
-20,
-12,
-6,
-11,
-19,
-15,
-11,
-4,
-3,
-6,
-8,
-6,
-1,
0,
-1,
-1,
0,
2,
2,
2,
5,
6,
5,
5,
7,
11,
12,
13,
10,
9,
14,
18,
18,
12,
9,
13,
20,
23,
18,
11,
13,
20,
26,
24,
19,
15,
17,
24,
27,
22,
17,
14,
20,
25,
26,
19,
16,
17,
22,
26,
23,
16,
12,
16,
24,
23,
17,
10,
10,
16,
20,
17,
8,
4,
9,
14,
16,
9,
1,
-1,
5,
11,
7,
1,
-4,
-4,
3,
3,
-1,
-6,
-10,
-7,
-1,
-4,
-11,
-15,
-13,
-9,
-8,
-14,
-20,
-18,
-15,
-13,
-16,
-24,
-22,
-20,
-14,
-19,
-26,
-27,
-25,
-20,
-23,
-29,
-29,
-27,
-23,
-27,
-32,
-31,
-26,
-25,
-28,
-31,
-34,
-30,
-25,
-25,
-30,
-33,
-32,
-27,
-23,
-27,
-32,
-32,
-28,
-26,
-25,
-24,
-27,
-29,
-26,
-22,
-19,
-23,
-27,
-25,
-19,
-14,
-16,
-24,
-25,
-18,
-9,
-6,
-15,
-23,
-19,
-6,
1,
-7,
-16,
-16,
-6,
5,
4,
-7,
-13,
-5,
7,
11,
2,
-5,
-1,
8,
13,
10,
4,
4,
9,
13,
15,
13,
11,
11,
15,
18,
18,
17,
13,
15,
17,
20,
24,
18,
15,
16,
22,
28,
22,
16,
13,
20,
28,
27,
19,
14,
17,
24,
27,
20,
15,
16,
19,
22,
18,
15,
16,
19,
15,
14,
15,
17,
17,
13,
10,
9,
13,
14,
8,
4,
3,
9,
12,
8,
-2,
-5,
5,
8,
2,
-7,
-11,
-5,
2,
1,
-8,
-15,
-14,
-7,
-4,
-7,
-17,
-19,
-14,
-11,
-11,
-17,
-23,
-24,
-19,
-18,
-19,
-21,
-27,
-28,
-24,
-20,
-22,
-28,
-32,
-29,
-21,
-22,
-29,
-34,
-34,
-27,
-21,
-27,
-34,
-37,
-32,
-23,
-25,
-31,
-36,
-31,
-26,
-23,
-28,
-32,
-30,
-26,
-24,
-24,
-28,
-28,
-25,
-21,
-22,
-24,
-25,
-20,
-19,
-19,
-21,
-21,
-19,
-15,
-14,
-15,
-16,
-16,
-10,
-7,
-9,
-12,
-11,
-4,
-3,
-3,
-5,
-6,
-2,
2,
4,
0,
-4,
-1,
7,
11,
7,
2,
2,
8,
15,
15,
9,
6,
9,
16,
22,
17,
10,
7,
15,
22,
25,
17,
12,
12,
21,
27,
24,
18,
14,
18,
26,
29,
20,
13,
14,
23,
31,
26,
17,
11,
17,
28,
28,
19,
9,
11,
21,
27,
20,
9,
7,
13,
20,
19,
13,
5,
7,
11,
14,
11,
5,
3,
5,
6,
5,
3,
0,
0,
-2,
-1,
0,
-2,
-6,
-10,
-7,
-4,
-4,
-9,
-16,
-15,
-10,
-9,
-12,
-18,
-22,
-18,
-12,
-14,
-21,
-24,
-25,
-19,
-19,
-24,
-25,
-24,
-25,
-26,
-29,
-27,
-24,
-24,
-32,
-32,
-27,
-24,
-25,
-32,
-35,
-32,
-24,
-23,
-31,
-38,
-34,
-24,
-21,
-29,
-37,
-35,
-25,
-18,
-25,
-32,
-33,
-26,
-16,
-17,
-26,
-30,
-27,
-19,
-16,
-19,
-24,
-20,
-18,
-16,
-14,
-13,
-15,
-16,
-13,
-11,
-6,
-7,
-10,
-11,
-7,
-2,
0,
-4,
-8,
-4,
3,
7,
1,
-3,
0,
6,
12,
8,
2,
3,
10,
16,
15,
8,
7,
12,
17,
17,
12,
14,
18,
21,
18,
15,
15,
20,
26,
19,
16,
17,
20,
27,
24,
19,
15,
19,
27,
25,
19,
15,
17,
23,
25,
22,
16,
14,
17,
22,
22,
19,
12,
11,
16,
19,
18,
11,
5,
8,
15,
16,
13,
3,
0,
6,
14,
14,
0,
-7,
-4,
6,
10,
2,
-9,
-11,
-6,
2,
3,
-9,
-17,
-14,
-4,
-3,
-10,
-19,
-21,
-13,
-8,
-10,
-24,
-29,
-22,
-16,
-11,
-20,
-28,
-32,
-25,
-16,
-19,
-26,
-34,
-30,
-21,
-21,
-26,
-32,
-34,
-30,
-27,
-23,
-29,
-34,
-33,
-28,
-27,
-28,
-29,
-32,
-30,
-28,
-28,
-27,
-28,
-31,
-28,
-27,
-22,
-24,
-28,
-27,
-24,
-21,
-20,
-23,
-24,
-24,
-18,
-15,
-17,
-19,
-19,
-15,
-13,
-12,
-11,
-12,
-11,
-13,
-8,
-5,
-4,
-4,
-7,
-7,
-3,
2,
5,
1,
-4,
-2,
5,
12,
6,
1,
0,
8,
15,
12,
7,
5,
11,
19,
21,
11,
6,
11,
21,
24,
17,
12,
12,
20,
25,
22,
18,
16,
19,
23,
22,
21,
20,
20,
20,
20,
21,
23,
22,
17,
17,
19,
23,
22,
18,
13,
16,
21,
19,
15,
12,
13,
17,
16,
12,
9,
10,
12,
13,
7,
3,
4,
8,
9,
2,
-2,
3,
4,
1,
-4,
-7,
-2,
3,
-1,
-11,
-14,
-9,
-3,
-3,
-12,
-20,
-17,
-9,
-4,
-15,
-24,
-21,
-18,
-11,
-16,
-27,
-28,
-23,
-19,
-16,
-24,
-29,
-30,
-27,
-23,
-22,
-27,
-33,
-32,
-26,
-22,
-25,
-31,
-36,
-34,
-24,
-19,
-27,
-38,
-41,
-29,
-18,
-20,
-34,
-39,
-31,
-20,
-15,
-25,
-36,
-35,
-24,
-13,
-20,
-30,
-31,
-23,
-13,
-15,
-21,
-27,
-22,
-14,
-9,
-12,
-18,
-19,
-13,
-7,
-8,
-10,
-12,
-12,
-6,
-3,
-2,
-3,
-7,
-6,
1,
4,
3,
0,
0,
4,
7,
9,
9,
5,
6,
8,
12,
14,
10,
11,
13,
14,
15,
15,
15,
17,
17,
18,
19,
17,
19,
18,
19,
20,
20,
20,
20,
20,
20,
21,
24,
22,
18,
16,
19,
21,
25,
21,
16,
16,
17,
23,
23,
19,
13,
10,
16,
21,
18,
12,
7,
9,
15,
16,
12,
4,
4,
8,
12,
9,
-1,
-2,
2,
7,
5,
-3,
-8,
-3,
0,
-2,
-6,
-10,
-10,
-7,
-8,
-10,
-14,
-14,
-12,
-15,
-16,
-15,
-16,
-17,
-20,
-22,
-18,
-18,
-19,
-25,
-28,
-26,
-23,
-22,
-26,
-27,
-28,
-27,
-27,
-27,
-28,
-28,
-29,
-30,
-30,
-29,
-27,
-28,
-30,
-34,
-29,
-25,
-27,
-32,
-36,
-30,
-22,
-23,
-30,
-35,
-30,
-21,
-18,
-24,
-34,
-33,
-21,
-10,
-15,
-28,
-32,
-20,
-10,
-9,
-20,
-24,
-21,
-10,
-5,
-9,
-17,
-18,
-8,
-2,
-1,
-6,
-9,
-9,
-2,
2,
3,
-1,
-6,
-4,
5,
11,
9,
0,
-3,
5,
17,
18,
10,
1,
4,
16,
25,
20,
7,
3,
14,
29,
26,
14,
7,
12,
26,
28,
20,
13,
15,
22,
25,
24,
17,
17,
23,
24,
22,
18,
19,
20,
21,
20,
20,
20,
19,
17,
17,
17,
19,
17,
15,
14,
12,
16,
16,
14,
9,
6,
12,
11,
10,
6,
5,
8,
5,
3,
3,
3,
1,
-1,
-3,
-4,
-2,
-2,
-4,
-10,
-11,
-7,
-5,
-8,
-15,
-17,
-12,
-9,
-12,
-19,
-21,
-19,
-14,
-14,
-24,
-27,
-24,
-20,
-16,
-19,
-28,
-32,
-26,
-20,
-21,
-28,
-35,
-32,
-26,
-24,
-28,
-32,
-34,
-31,
-27,
-26,
-28,
-32,
-33,
-28,
-26,
-28,
-32,
-32,
-28,
-26,
-25,
-27,
-29,
-28,
-25,
-21,
-25,
-26,
-27,
-23,
-20,
-20,
-19,
-19,
-20,
-20,
-19,
-13,
-14,
-15,
-15,
-15,
-11,
-9,
-7,
-8,
-9,
-8,
-5,
-1,
-1,
-2,
-3,
-3,
2,
4,
6,
5,
1,
2,
8,
12,
10,
5,
5,
8,
17,
17,
14,
8,
7,
18,
23,
21,
11,
6,
19,
25,
28,
18,
8,
15,
26,
32,
24,
11,
12,
20,
30,
28,
17,
11,
16,
25,
29,
23,
15,
13,
19,
23,
23,
18,
11,
13,
16,
20,
18,
12,
7,
8,
16,
18,
13,
4,
1,
7,
15,
14,
0,
-8,
-1,
9,
11,
1,
-9,
-9,
1,
5,
0,
-12,
-14,
-8,
-1,
-6,
-15,
-18,
-13,
-9,
-12,
-19,
-23,
-16,
-14,
-18,
-21,
-26,
-21,
-20,
-25,
-25,
-27,
-24,
-21,
-27,
-29,
-30,
-27,
-24,
-29,
-34,
-32,
-28,
-25,
-27,
-32,
-32,
-30,
-28,
-29,
-28,
-29,
-30,
-31,
-31,
-27,
-24,
-27,
-29,
-32,
-28,
-20,
-19,
-26,
-31,
-28,
-18,
-15,
-20,
-28,
-26,
-16,
-11,
-14,
-20,
-22,
-16,
-5,
-8,
-16,
-18,
-12,
-1,
-1,
-6,
-9,
-9,
-1,
1,
1,
0,
-3,
-1,
3,
5,
4,
3,
4,
5,
9,
10,
12,
11,
8,
10,
13,
17,
15,
14,
12,
16,
19,
20,
17,
15,
17,
19,
22,
20,
18,
19,
21,
22,
21,
21,
20,
20,
19,
19,
24,
24,
19,
16,
17,
20,
22,
21,
15,
12,
15,
20,
24,
18,
9,
8,
14,
20,
16,
7,
4,
8,
13,
14,
9,
1,
-1,
5,
12,
8,
-3,
-10,
-4,
3,
6,
-3,
-13,
-12,
-6,
2,
-3,
-13,
-20,
-17,
-5,
-5,
-13,
-23,
-26,
-16,
-10,
-14,
-25,
-28,
-23,
-19,
-15,
-24,
-29,
-30,
-27,
-19,
-22,
-28,
-32,
-31,
-26,
-23,
-26,
-32,
-36,
-32,
-26,
-23,
-29,
-37,
-35,
-28,
-22,
-26,
-33,
-33,
-28,
-22,
-24,
-28,
-31,
-28,
-20,
-20,
-26,
-29,
-26,
-18,
-20,
-23,
-25,
-20,
-15,
-16,
-20,
-20,
-16,
-11,
-8,
-15,
-18,
-13,
-7,
-3,
-7,
-12,
-8,
-1,
0,
-3,
-5,
-3,
1,
4,
3,
2,
2,
3,
7,
9,
7,
7,
7,
8,
12,
15,
16,
13,
7,
11,
19,
23,
17,
10,
9,
19,
26,
24,
16,
11,
17,
27,
28,
20,
11,
16,
26,
30,
22,
14,
14,
23,
29,
23,
15,
15,
18,
24,
24,
17,
13,
16,
17,
19,
14,
16,
14,
13,
10,
10,
14,
12,
9,
2,
3,
9,
11,
7,
1,
-3,
2,
3,
3,
-3,
-7,
-4,
-3,
-1,
-7,
-11,
-9,
-10,
-8,
-12,
-13,
-13,
-16,
-15,
-16,
-15,
-17,
-21,
-23,
-23,
-16,
-17,
-25,
-30,
-29,
-21,
-16,
-20,
-31,
-37,
-29,
-19,
-18,
-28,
-40,
-35,
-25,
-20,
-27,
-36,
-38,
-32,
-24,
-23,
-32,
-38,
-33,
-24,
-22,
-27,
-34,
-34,
-25,
-22,
-21,
-25,
-30,
-29,
-24,
-16,
-19,
-26,
-28,
-24,
-12,
-12,
-18,
-23,
-22,
-14,
-8,
-8,
-15,
-18,
-12,
-5,
-3,
-6,
-11,
-10,
-4,
1,
0,
-2,
-3,
0,
5,
6,
4,
2,
4,
8,
11,
8,
6,
7,
12,
15,
16,
13,
10,
14,
17,
17,
15,
15,
17,
19,
20,
17,
17,
20,
24,
24,
19,
16,
19,
25,
25,
21,
14,
15,
23,
27,
24,
17,
14,
18,
25,
24,
18,
14,
14,
19,
21,
17,
12,
9,
15,
17,
15,
9,
6,
8,
10,
12,
11,
5,
1,
1,
6,
10,
4,
-4,
-8,
-2,
4,
3,
-4,
-13,
-12,
-4,
0,
-5,
-16,
-18,
-9,
-7,
-10,
-19,
-25,
-19,
-11,
-13,
-20,
-27,
-25,
-18,
-17,
-23,
-27,
-27,
-25,
-24,
-25,
-28,
-28,
-28,
-29,
-30,
-28,
-26,
-26,
-33,
-35,
-30,
-25,
-24,
-32,
-35,
-34,
-28,
-24,
-27,
-32,
-34,
-31,
-23,
-23,
-28,
-29,
-26,
-22,
-22,
-24,
-24,
-24,
-24,
-20,
-18,
-18,
-20,
-20,
-19,
-15,
-11,
-11,
-17,
-20,
-14,
-4,
-1,
-10,
-18,
-12,
0,
6,
1,
-11,
-11,
1,
10,
11,
-2,
-7,
0,
12,
16,
4,
-2,
4,
14,
19,
13,
7,
8,
13,
19,
20,
14,
13,
15,
18,
23,
20,
17,
14,
17,
20,
25,
24,
19,
15,
18,
24,
26,
21,
17,
16,
21,
26,
24,
17,
16,
19,
23,
22,
17,
14,
16,
20,
18,
13,
11,
14,
17,
16,
10,
7,
9,
13,
13,
7,
3,
3,
6,
9,
3,
-2,
-2,
3,
4,
-1,
-8,
-8,
-5,
-1,
-3,
-11,
-14,
-12,
-7,
-8,
-12,
-18,
-21,
-14,
-12,
-13,
-20,
-26,
-24,
-18,
-15,
-20,
-27,
-30,
-26,
-20,
-17,
-26,
-33,
-32,
-24,
-20,
-24,
-32,
-35,
-29,
-24,
-24,
-29,
-36,
-33,
-28,
-23,
-26,
-34,
-36,
-31,
-23,
-21,
-27,
-34,
-35,
-26,
-20,
-19,
-27,
-32,
-27,
-19,
-17,
-20,
-28,
-26,
-19,
-15,
-14,
-19,
-20,
-16,
-12,
-11,
-15,
-15,
-12,
-8,
-6,
-7,
-7,
-5,
-6,
-6,
-4,
1,
2,
0,
-1,
-1,
5,
8,
9,
3,
1,
7,
14,
16,
9,
4,
9,
16,
19,
16,
11,
12,
15,
22,
22,
17,
17,
14,
22,
21,
22,
20,
17,
19,
21,
24,
25,
20,
16,
17,
24,
27,
21,
15,
12,
20,
29,
26,
14,
7,
14,
24,
28,
17,
4,
6,
17,
23,
17,
5,
3,
9,
17,
15,
5,
1,
4,
9,
8,
2,
-3,
-2,
3,
3,
0,
-3,
-4,
-4,
-6,
-8,
-7,
-9,
-11,
-13,
-12,
-9,
-12,
-15,
-18,
-19,
-15,
-15,
-17,
-23,
-22,
-19,
-20,
-20,
-26,
-26,
-23,
-23,
-27,
-32,
-28,
-21,
-23,
-30,
-35,
-32,
-24,
-23,
-30,
-36,
-32,
-26,
-21,
-28,
-36,
-37,
-28,
-19,
-23,
-34,
-36,
-30,
-20,
-22,
-29,
-32,
-30,
-22,
-16,
-21,
-28,
-28,
-23,
-14,
-15,
-19,
-25,
-23,
-15,
-10,
-10,
-15,
-20,
-17,
-9,
-1,
-6,
-14,
-14,
-7,
2,
2,
-3,
-9,
-4,
4,
10,
5,
-4,
-3,
5,
14,
12,
4,
1,
6,
16,
18,
12,
8,
7,
13,
22,
19,
15,
12,
14,
20,
21,
20,
16,
15,
20,
22,
24,
21,
19,
18,
19,
22,
25,
22,
20,
19,
20,
21,
23,
20,
19,
17,
19,
20,
20,
18,
15,
14,
15,
18,
18,
14,
9,
9,
13,
16,
10,
4,
4,
7,
10,
8,
4,
-2,
-1,
2,
6,
3,
-3,
-7,
-5,
-2,
-1,
-6,
-9,
-12,
-11,
-9,
-8,
-11,
-18,
-17,
-13,
-12,
-15,
-22,
-25,
-15,
