1-signale-auf-leitern/data/ALL0012/A0012CH1.CSV

Memory Length,4000,
Trigger Level,5.52000e+01,
Source,CH1,
Probe,1.0X,
Vertical Units,V,
Vertical Scale,2.00000e-02,
Vertical Position,0.00000e+00,
Horizontal Units,S,
Horizontal Scale,2.50000e-07,
Horizontal Position,3.2000000e-07,
Horizontal Mode,Main,
Sampling Period,1.00000e-09,
Firmware,V1.14,
Time, ,
Mode,Fast,
Waveform Data,
-23,
-20,
-23,
-20,
-20,
-20,
-17,
-15,
-15,
-14,
-12,
-11,
-7,
-7,
-9,
-8,
-7,
-7,
-6,
-6,
-6,
-6,
-4,
-3,
-3,
-2,
-3,
-3,
-2,
-2,
-2,
-1,
-2,
-2,
-2,
-2,
-2,
-1,
-1,
-1,
-5,
-5,
-6,
-6,
-9,
-9,
-10,
-10,
-6,
-6,
-2,
-1,
1,
2,
4,
4,
4,
4,
3,
3,
0,
0,
0,
0,
0,
1,
0,
1,
0,
0,
1,
1,
0,
1,
0,
1,
0,
0,
0,
0,
0,
0,
0,
0,
-1,
-1,
0,
0,
-1,
-1,
-1,
0,
0,
0,
-1,
0,
-1,
-1,
0,
2,
0,
-1,
-1,
0,
-3,
-3,
-2,
-1,
-1,
0,
0,
0,
1,
1,
1,
2,
1,
2,
-1,
-1,
0,
0,
-2,
-3,
0,
0,
-1,
0,
-2,
-2,
-1,
0,
-1,
-1,
-1,
-1,
0,
1,
-2,
-2,
-1,
-1,
-1,
0,
-1,
-1,
0,
1,
-1,
-1,
0,
0,
0,
0,
0,
1,
1,
1,
-1,
-1,
-1,
-1,
-2,
-1,
-1,
-1,
-1,
0,
0,
1,
-1,
-1,
0,
0,
-1,
0,
-1,
-1,
-2,
-1,
-1,
0,
-1,
-1,
0,
0,
-1,
0,
0,
0,
0,
0,
-1,
-1,
-1,
0,
0,
0,
0,
0,
-1,
0,
-2,
-2,
-1,
-1,
-1,
0,
-1,
-1,
0,
1,
0,
1,
0,
-1,
-1,
-1,
-1,
-1,
-1,
-1,
-1,
-1,
-1,
-1,
-1,
-1,
-1,
-1,
-1,
0,
0,
0,
-1,
0,
0,
0,
-1,
0,
0,
1,
-2,
-2,
-1,
0,
-1,
0,
-1,
-1,
0,
1,
-1,
-1,
-1,
0,
0,
1,
-1,
-1,
-1,
-1,
-1,
-1,
-1,
-1,
-2,
-1,
-2,
-2,
-1,
-1,
-1,
-1,
0,
1,
-1,
-1,
-1,
0,
0,
0,
-1,
0,
-1,
0,
0,
-1,
0,
1,
-2,
-2,
-1,
-1,
-1,
0,
-1,
-1,
-1,
0,
0,
0,
0,
0,
-1,
-1,
-1,
-1,
-1,
-1,
-1,
0,
0,
0,
-1,
-1,
-1,
-1,
-1,
0,
-1,
-1,
0,
1,
-1,
-1,
-1,
0,
0,
0,
-2,
-2,
-1,
1,
0,
-1,
-1,
-1,
0,
1,
-1,
-1,
-1,
0,
0,
0,
-1,
-1,
-1,
-1,
-1,
-1,
-1,
-1,
-1,
0,
-1,
0,
-1,
0,
0,
0,
-1,
0,
-1,
-2,
-1,
0,
-2,
-2,
0,
1,
0,
0,
-1,
0,
0,
1,
-2,
-2,
-1,
0,
0,
0,
0,
0,
-1,
-1,
-1,
0,
0,
0,
-1,
-1,
0,
1,
-1,
0,
-1,
0,
0,
1,
-1,
-1,
-1,
-1,
-1,
-1,
-1,
-1,
0,
1,
0,
0,
1,
1,
-1,
-1,
0,
0,
0,
1,
0,
-1,
0,
0,
-1,
0,
-1,
0,
-1,
0,
-1,
-1,
0,
1,
-1,
0,
-1,
0,
0,
1,
-2,
-2,
-1,
0,
-1,
-1,
-1,
-1,
0,
2,
-1,
-1,
0,
0,
0,
0,
-1,
-1,
0,
0,
1,
1,
0,
0,
0,
0,
-1,
0,
-1,
0,
-1,
-1,
-1,
0,
-1,
-1,
-1,
0,
-1,
-1,
-1,
-1,
0,
1,
-1,
-1,
0,
1,
-1,
-2,
-1,
-1,
0,
0,
-1,
-1,
0,
1,
-1,
-1,
0,
0,
0,
0,
-1,
-1,
0,
0,
0,
0,
0,
1,
-1,
-2,
-1,
0,
-1,
-1,
-1,
-2,
0,
1,
-2,
-2,
-1,
0,
1,
1,
-1,
-1,
1,
2,
0,
0,
-1,
-1,
0,
0,
-1,
-1,
-1,
0,
-1,
-1,
0,
1,
-1,
-1,
-1,
0,
-1,
-1,
0,
1,
0,
1,
0,
0,
0,
1,
-1,
-1,
-1,
-1,
0,
0,
-1,
-1,
-1,
0,
1,
1,
-2,
-2,
0,
1,
-1,
-1,
0,
0,
1,
1,
-1,
-1,
0,
0,
-1,
-1,
-1,
0,
-1,
-1,
0,
1,
-1,
-1,
-1,
0,
1,
1,
-1,
-1,
0,
1,
0,
0,
-1,
-1,
0,
1,
-1,
-1,
-1,
-1,
-1,
-1,
0,
1,
0,
0,
-1,
-1,
0,
1,
-2,
-2,
0,
0,
1,
1,
-1,
-1,
-1,
0,
-1,
-1,
-1,
0,
-1,
-1,
0,
1,
1,
1,
0,
0,
0,
1,
-1,
-1,
-1,
0,
0,
0,
-1,
-1,
0,
1,
-1,
-1,
-1,
0,
0,
0,
0,
1,
0,
1,
-1,
-1,
0,
1,
-1,
-2,
-1,
0,
-1,
0,
-1,
-1,
0,
1,
-1,
-2,
-1,
-1,
0,
0,
0,
0,
0,
1,
1,
0,
0,
1,
-1,
-2,
-1,
0,
-1,
-1,
-1,
-1,
-1,
0,
-1,
-1,
-1,
0,
0,
0,
0,
1,
0,
1,
0,
0,
0,
1,
-1,
-2,
-2,
-1,
-1,
0,
0,
-1,
-1,
0,
-1,
-1,
-1,
0,
-1,
-1,
-1,
0,
0,
0,
0,
0,
0,
0,
-1,
-1,
0,
0,
0,
0,
-1,
-1,
0,
2,
1,
0,
-1,
0,
0,
0,
-1,
-1,
0,
0,
0,
0,
0,
0,
0,
0,
1,
0,
-2,
-1,
-1,
-1,
0,
1,
-1,
-1,
-1,
-1,
0,
0,
0,
0,
0,
0,
1,
1,
-1,
-1,
0,
1,
-1,
0,
-1,
0,
-1,
-1,
-1,
0,
-2,
-2,
-1,
-1,
0,
0,
-1,
-1,
-1,
0,
-1,
-1,
-4,
-5,
-18,
-23,
-40,
-46,
-63,
-66,
-76,
-77,
-72,
-69,
-62,
-60,
-51,
-49,
-46,
-45,
-41,
-39,
-35,
-34,
-29,
-27,
-22,
-20,
-19,
-17,
-16,
-15,
-15,
-14,
-13,
-12,
-11,
-9,
-8,
-7,
-7,
-6,
-6,
-6,
-5,
-5,
-4,
-4,
-3,
-3,
-3,
-3,
-3,
-2,
-2,
-2,
-2,
-1,
-1,
-1,
-2,
-2,
-1,
0,
3,
4,
12,
15,
29,
35,
46,
50,
58,
60,
63,
63,
59,
58,
52,
50,
44,
43,
39,
38,
33,
34,
28,
27,
23,
22,
19,
18,
15,
15,
13,
13,
12,
12,
10,
9,
9,
10,
6,
6,
5,
6,
5,
5,
5,
5,
3,
2,
3,
3,
2,
1,
1,
2,
2,
2,
2,
2,
1,
1,
1,
2,
2,
2,
5,
6,
8,
8,
8,
9,
6,
5,
2,
1,
-2,
-3,
-3,
-3,
-4,
-3,
-3,
-2,
-3,
-2,
-2,
-1,
-3,
-2,
-2,
-1,
-1,
-2,
-1,
-1,
-1,
0,
-1,
-1,
-1,
-1,
0,
1,
0,
0,
0,
1,
0,
0,
0,
1,
1,
1,
0,
1,
0,
0,
-1,
-1,
0,
0,
0,
0,
0,
1,
0,
1,
0,
0,
1,
1,
0,
-1,
-1,
-1,
-2,
-2,
-2,
-2,
-1,
-1,
0,
1,
0,
0,
0,
0,
0,
0,
-1,
0,
0,
0,
1,
1,
-1,
-1,
0,
0,
0,
0,
-1,
-1,
0,
0,
0,
2,
0,
0,
0,
0,
0,
1,
-1,
-2,
0,
0,
-1,
-1,
-1,
-1,
0,
1,
-1,
-1,
1,
1,
0,
0,
0,
0,
0,
0,
-1,
-1,
-1,
-1,
-1,
-1,
0,
0,
1,
1,
0,
0,
0,
0,
-2,
-2,
-2,
-1,
0,
0,
0,
1,
0,
1,
1,
0,
0,
1,
-1,
-1,
0,
0,
0,
0,
-1,
-1,
-1,
0,
0,
0,
1,
1,
-1,
-1,
0,
0,
-1,
-1,
0,
0,
0,
1,
-1,
-1,
0,
0,
0,
1,
-1,
-1,
0,
0,
-1,
-1,
-1,
0,
0,
0,
0,
1,
0,
1,
0,
0,
-1,
-1,
-1,
0,
0,
0,
0,
0,
0,
1,
-1,
-2,
-1,
0,
-1,
0,
-1,
-1,
0,
1,
0,
1,
-1,
-1,
0,
1,
-1,
-2,
0,
0,
0,
0,
-1,
-1,
0,
1,
0,
0,
-1,
0,
-1,
-1,
0,
1,
-1,
-1,
-1,
0,
0,
0,
-1,
0,
0,
1,
0,
0,
-1,
0,
-1,
-1,
-2,
-2,
-1,
0,
0,
0,
0,
1,
0,
1,
0,
0,
-1,
-1,
-1,
-1,
-1,
0,
-1,
0,
0,
1,
-2,
-2,
0,
0,
1,
1,
-1,
-1,
0,
1,
0,
0,
-1,
0,
1,
1,
-1,
-1,
0,
0,
0,
0,
-1,
-1,
0,
1,
0,
0,
-1,
0,
-1,
-1,
-1,
0,
-2,
-2,
-1,
0,
-1,
-1,
-1,
0,
0,
1,
-1,
-1,
0,
0,
-1,
0,
-1,
-1,
0,
0,
-1,
-1,
0,
0,
0,
1,
-1,
-1,
-1,
-1,
-1,
0,
-1,
0,
-1,
0,
0,
0,
-1,
-1,
-1,
-1,
0,
0,
-1,
-1,
-1,
0,
-1,
-1,
0,
0,
0,
1,
-1,
-2,
-1,
0,
-1,
-1,
-1,
-1,
0,
1,
-1,
-1,
0,
0,
-1,
-1,
-1,
-1,
-1,
-1,
-1,
0,
0,
1,
-1,
-2,
-1,
0,
0,
0,
-1,
-1,
0,
1,
-2,
-2,
0,
0,
-1,
-1,
0,
1,
1,
1,
0,
0,
-1,
0,
-2,
-3,
-1,
-1,
-1,
0,
0,
0,
0,
1,
-1,
0,
0,
0,
-1,
-1,
0,
2,
0,
1,
0,
0,
-1,
0,
-1,
-1,
-1,
0,
-1,
0,
0,
0,
-1,
0,
-1,
-1,
0,
0,
0,
1,
-2,
-2,
-1,
-1,
0,
0,
-1,
-1,
0,
1,
0,
0,
0,
0,
-1,
-1,
0,
1,
0,
0,
0,
0,
0,
0,
-1,
0,
-1,
-1,
1,
1,
0,
1,
-1,
-1,
-1,
0,
-1,
0,
-1,
-1,
-1,
0,
-1,
0,
-1,
-1,
0,
0,
0,
1,
-1,
-1,
-1,
-1,
-1,
-1,
-1,
0,
0,
0,
1,
1,
0,
1,
-1,
-1,
-1,
0,
-1,
-1,
-1,
-1,
0,
1,
0,
1,
0,
0,
-1,
-1,
-1,
-1,
-1,
0,
-1,
0,
0,
1,
-2,
-2,
-1,
0,
-1,
0,
-1,
-1,
0,
1,
-1,
-1,
-1,
0,
0,
0,
-1,
0,
0,
1,
0,
0,
-1,
-1,
-1,
-1,
-2,
-2,
-1,
0,
0,
0,
-1,
0,
-1,
-1,
0,
1,
0,
0,
0,
1,
0,
1,
-1,
-1,
0,
1,
-2,
-2,
-1,
0,
0,
0,
-1,
-1,
0,
1,
0,
0,
0,
0,
0,
1,
-1,
-1,
0,
0,
0,
0,
-1,
-1,
0,
0,
-1,
0,
-1,
0,
-1,
-1,
-1,
0,
-1,
-1,
-1,
0,
-1,
-1,
-1,
0,
-1,
0,
-1,
-1,
-1,
-1,
-1,
0,
-2,
-2,
-1,
0,
0,
0,
0,
1,
0,
1,
-1,
-1,
0,
0,
-1,
-1,
-1,
-1,
0,
0,
0,
1,
-1,
-1,
-1,
-1,
-1,
-1,
-1,
-1,
0,
1,
0,
0,
-1,
0,
0,
0,
-1,
-1,
-1,
0,
0,
0,
-1,
-1,
0,
0,
-1,
-1,
0,
0,
0,
0,
-2,
-2,
-1,
-1,
-1,
-1,
0,
0,
-1,
0,
0,
1,
0,
0,
-1,
-1,
-1,
0,
-1,
-1,
-1,
-1,
0,
0,
-1,
0,
0,
1,
4,
6,
20,
25,
40,
47,
61,
66,
75,
76,
75,
75,
66,
64,
55,
52,
44,
42,
35,
33,
28,
28,
25,
24,
22,
22,
20,
20,
15,
14,
13,
12,
10,
9,
8,
7,
7,
7,
5,
4,
4,
5,
4,
4,
2,
2,
1,
1,
1,
1,
1,
1,
1,
1,
0,
0,
1,
1,
0,
0,
0,
0,
-4,
-6,
-16,
-19,
-32,
-36,
-47,
-51,
-61,
-64,
-66,
-65,
-64,
-64,
-57,
-53,
-48,
-45,
-38,
-35,
-32,
-31,
-27,
-25,
-25,
-25,
-22,
-21,
-19,
-18,
-16,
-14,
-12,
-10,
-12,
-12,
-8,
-7,
-7,
-8,
-6,
-6,
-4,
-3,
-5,
-5,
-4,
-2,
-3,
-3,
-3,
-2,
-2,
-2,
-2,
-3,
-3,
-2,
-2,
-1,
-2,
-3,
-4,
-4,
-6,
-6,
-9,
-10,
-10,
-10,
-8,
-6,
-3,
-2,
1,
2,
3,
4,
5,
5,
2,
2,
2,
2,
1,
1,
-1,
0,
0,
0,
0,
0,
0,
0,
0,
1,
0,
0,
0,
0,
1,
0,
-1,
-1,
0,
0,
0,
0,
0,
0,
-1,
0,
-1,
-1,
-1,
0,
-1,
-1,
0,
1,
0,
0,
0,
1,
-2,
-3,
-2,
0,
-2,
-1,
-1,
-1,
0,
1,
1,
2,
0,
0,
0,
0,
-1,
-1,
-1,
-1,
-1,
-2,
-1,
0,
-1,
0,
-1,
-2,
-1,
0,
-1,
0,
-1,
-1,
0,
1,
-1,
-1,
-1,
0,
0,
1,
-2,
-2,
-1,
-1,
-1,
-1,
-1,
-1,
-1,
0,
0,
1,
0,
0,
-1,
0,
-1,
-2,
-1,
-1,
-1,
-1,
-1,
-1,
-1,
0,
0,
0,
1,
1,
0,
1,
-1,
-2,
-2,
-1,
-2,
-1,
0,
0,
-1,
0,
0,
1,
-1,
-1,
-1,
-1,
-1,
0,
-1,
-1,
-1,
0,
1,
1,
-2,
-2,
0,
0,
1,
1,
-1,
-1,
0,
1,
-1,
-1,
-2,
-1,
0,
1,
-1,
-2,
0,
1,
0,
0,
-1,
-1,
-1,
0,
-1,
0,
-1,
0,
0,
1,
-1,
-1,
-1,
-1,
0,
0,
-1,
-1,
0,
1,
2,
2,
-1,
0,
0,
1,
-2,
-3,
-2,
-2,
-1,
0,
-1,
-1,
0,
1,
0,
1,
0,
0,
-1,
-1,
-1,
0,
-1,
-1,
-1,
0,
1,
1,
-1,
-1,
0,
1,
0,
-1,
-1,
-1,
0,
1,
-1,
-1,
-1,
0,
0,
1,
-1,
-1,
0,
0,
0,
0,
-1,
-1,
0,
1,
0,
0,
-1,
0,
0,
1,
-1,
-1,
-1,
-1,
-1,
0,
-1,
-2,
0,
1,
1,
1,
-2,
-2,
0,
0,
-1,
-1,
-1,
-1,
0,
0,
-1,
-1,
0,
1,
-1,
0,
-2,
-2,
0,
0,
0,
1,
-1,
-1,
-1,
0,
0,
1,
-1,
-1,
0,
1,
0,
0,
-2,
-2,
-1,
0,
-1,
-1,
0,
0,
0,
0,
-2,
-2,
-1,
0,
-1,
0,
-1,
-1,
-1,
0,
-1,
-1,
0,
0,
0,
1,
-1,
-1,
0,
0,
0,
0,
-1,
-1,
0,
1,
0,
1,
0,
0,
0,
0,
-1,
-1,
-1,
0,
0,
0,
-1,
-1,
0,
1,
-1,
0,
-1,
0,
0,
1,
-2,
-2,
-1,
0,
-1,
0,
-1,
-1,
0,
1,
0,
1,
1,
0,
-1,
-1,
-1,
0,
-1,
-1,
-1,
-1,
0,
0,
-1,
0,
-1,
0,
0,
0,
-1,
-1,
0,
1,
-1,
-1,
-1,
0,
-1,
-1,
0,
1,
-1,
0,
-1,
-1,
0,
0,
-1,
-1,
-1,
0,
-1,
0,
0,
1,
-1,
-2,
-2,
-1,
-1,
-1,
-1,
-1,
0,
1,
-1,
-1,
0,
0,
0,
1,
-2,
-2,
-1,
0,
0,
0,
-1,
-1,
0,
1,
-1,
0,
-1,
-1,
-1,
-1,
-1,
0,
-2,
-2,
-1,
0,
0,
1,
-1,
-1,
0,
1,
0,
0,
0,
0,
-1,
0,
-1,
-1,
-1,
0,
-1,
-1,
0,
1,
0,
1,
0,
0,
0,
0,
-1,
-1,
-1,
-1,
-1,
0,
0,
0,
-1,
-1,
-1,
-1,
-1,
0,
-1,
-1,
0,
1,
0,
1,
0,
-1,
-1,
0,
-1,
-1,
-1,
0,
-1,
0,
-1,
-1,
0,
1,
-1,
0,
-1,
0,
0,
1,
-1,
-2,
0,
0,
-1,
-1,
-1,
-1,
-1,
0,
0,
0,
0,
0,
-1,
-1,
0,
0,
-1,
-1,
0,
0,
-1,
-1,
-1,
0,
-1,
-1,
-1,
-1,
-1,
-1,
-1,
0,
-1,
-1,
-1,
0,
-1,
-1,
-1,
0,
0,
0,
0,
0,
-1,
-1,
-1,
-1,
-1,
-1,
-1,
-1,
0,
1,
-1,
-1,
-1,
-1,
0,
0,
0,
0,
-1,
0,
-1,
-1,
0,
0,
0,
0,
-1,
0,
-1,
-1,
0,
0,
-1,
-1,
0,
1,
-1,
0,
-1,
0,
0,
1,
-1,
-1,
-1,
-1,
-1,
-1,
-1,
-1,
0,
1,
0,
0,
0,
-1,
-1,
-1,
-1,
0,
-1,
-1,
0,
0,
-1,
-1,
-1,
0,
-1,
0,
-1,
0,
-1,
-1,
0,
1,
-2,
-2,
-1,
-1,
1,
1,
-2,
-2,
0,
1,
0,
-1,
-1,
-1,
0,
1,
0,
0,
0,
0,
1,
1,
-2,
-3,
-1,
-1,
-1,
-1,
-1,
-1,
0,
1,
-1,
0,
-1,
0,
0,
0,
-2,
-2,
-1,
-1,
0,
0,
-1,
-1,
0,
1,
1,
1,
-1,
-1,
-1,
-1,
-1,
0,
-2,
-2,
-1,
0,
0,
0,
-1,
-1,
1,
2,
0,
-1,
-1,
-1,
0,
1,
-1,
-1,
-1,
0,
0,
1,
-1,
-2,
-1,
0,
-1,
-1,
-1,
-1,
-1,
0,
-1,
-2,
0,
0,
-1,
0,
-2,
-2,
-1,
0,
0,
0,
0,
0,
-1,
0,
0,
0,
1,
1,
-1,
0,
-1,
-1,
-2,
-2,
-1,
0,
-1,
-2,
-1,
0,
0,
0,
0,
0,
-1,
0,
-3,
-5,
-12,
-16,
-32,
-37,
-56,
-63,
-73,
-75,
-75,
-74,
-66,
-63,
-55,
-53,
-47,
-45,
-43,
-41,
-37,
-36,
-30,
-27,
-26,
-24,
-18,
-16,
-16,
-16,
-16,
-15,
-13,
-11,
-11,
-10,
-9,
-8,
-7,
-7,
-6,
-6,
-5,
-5,
-4,
-3,
-3,
-3,
-3,
-3,
-4,
-3,
-2,
-2,
-2,
-2,
-3,
-2,
-2,
-2,
-2,
-1,
1,
1,
9,
13,
22,
26,
40,
44,
54,
58,
62,
64,
60,
59,
54,
52,
47,
45,
41,
39,
34,
33,
32,
31,
24,
24,
20,
20,
17,
16,
14,
13,
12,
11,
11,
11,
8,
8,
7,
8,
6,
5,
5,
5,
5,
5,
4,
4,
2,
2,
3,
3,
1,
1,
2,
2,
2,
1,
1,
2,
1,
1,
2,
3,
4,
5,
7,
8,
9,
9,
7,
7,
3,
2,
-1,
-2,
-3,
-3,
-3,
-3,
-3,
-3,
-3,
-3,
-3,
-2,
-3,
-3,
-3,
-2,
-2,
-1,
-1,
-1,
-1,
0,
-1,
-1,
-1,
0,
-1,
-1,
-1,
0,
-1,
-1,
0,
0,
0,
0,
-1,
0,
0,
0,
0,
1,
0,
0,
0,
0,
-1,
-1,
-1,
0,
0,
0,
1,
1,
1,
1,
1,
1,
-2,
-2,
-2,
-2,
-2,
-2,
-2,
-1,
-1,
-1,
0,
0,
0,
0,
0,
1,
0,
0,
1,
1,
0,
0,
0,
1,
0,
0,
0,
0,
-1,
-1,
0,
1,
-1,
-1,
-1,
0,
1,
1,
-1,
-1,
1,
1,
0,
0,
0,
0,
0,
1,
0,
0,
-1,
-1,
-1,
-1,
0,
1,
0,
0,
-1,
-1,
-1,
-1,
-1,
-1,
-1,
0,
-1,
0,
0,
1,
0,
0,
0,
0,
-1,
0,
-1,
-1,
0,
1,
0,
1,
-1,
-1,
0,
0,
0,
0,
-1,
-1,
1,
1,
-1,
-1,
0,
0,
-1,
-1,
-1,
-1,
0,
0,
-1,
0,
-2,
-2,
-1,
-1,
0,
0,
0,
1,
0,
1,
0,
0,
-1,
-1,
-1,
-1,
-1,
0,
-1,
-1,
0,
1,
-1,
-1,
0,
0,
0,
0,
-1,
-1,
-1,
-1,
-1,
-1,
0,
0,
-1,
-1,
-1,
0,
-1,
-1,
-1,
0,
-1,
-1,
0,
0,
0,
0,
-1,
0,
-1,
-1,
-1,
0,
-2,
-2,
0,
0,
0,
0,
-1,
-1,
0,
1,
0,
0,
0,
1,
-1,
-2,
-1,
-1,
-1,
0,
-1,
-1,
-1,
0,
-1,
-1,
-1,
-1,
-1,
-1,
0,
1,
-1,
-1,
0,
0,
0,
1,
-1,
-1,
-1,
0,
-1,
0,
-1,
-1,
0,
1,
0,
0,
-1,
0,
1,
1,
-1,
-1,
0,
1,
0,
0,
-1,
-1,
0,
0,
-1,
-1,
-1,
0,
-1,
-1,
0,
1,
-1,
-1,
0,
0,
-1,
-1,
0,
1,
0,
0,
-1,
-1,
-1,
-1,
0,
0,
0,
0,
0,
0,
-1,
-1,
0,
1,
1,
1,
-1,
-1,
1,
1,
-1,
-1,
0,
0,
-1,
0,
-1,
-1,
-1,
0,
0,
0,
0,
0,
-1,
-1,
0,
1,
-1,
-2,
-1,
-1,
0,
0,
0,
0,
-1,
-1,
-1,
0,
0,
0,
-1,
0,
-2,
-2,
-1,
0,
0,
0,
0,
0,
1,
1,
0,
0,
-1,
-1,
0,
0,
0,
0,
-1,
0,
0,
1,
-1,
-1,
-1,
-1,
0,
0,
0,
-1,
-1,
-1,
-1,
-1,
1,
0,
-1,
-1,
-1,
0,
-1,
0,
-1,
-1,
-1,
-1,
0,
1,
0,
0,
0,
0,
-1,
-1,
0,
1,
-1,
-1,
0,
0,
0,
0,
-1,
-2,
0,
1,
-1,
-1,
0,
0,
0,
0,
0,
-1,
-1,
-1,
-1,
-1,
0,
1,
-1,
-1,
-1,
0,
0,
0,
-1,
-1,
-1,
-1,
-1,
0,
0,
1,
-1,
-2,
-2,
-1,
-1,
0,
-1,
-1,
0,
1,
-1,
-1,
0,
0,
0,
1,
-1,
-1,
0,
1,
1,
1,
-1,
-1,
-1,
-1,
-2,
-1,
0,
0,
0,
0,
-1,
0,
-1,
-1,
-1,
0,
0,
0,
0,
1,
0,
1,
0,
0,
0,
0,
0,
0,
-1,
0,
-1,
0,
0,
-1,
1,
2,
1,
2,
0,
-1,
0,
1,
-1,
-2,
-1,
0,
-1,
-1,
-1,
-1,
-1,
0,
-1,
-1,
0,
0,
-1,
-1,
0,
1,
-1,
0,
0,
0,
-1,
-1,
-1,
0,
-1,
-1,
-1,
0,
0,
0,
0,
0,
0,
-1,
-2,
-1,
0,
-1,
0,
1,
0,
1,
0,
0,
-1,
0,
-1,
-2,
-1,
0,
0,
0,
0,
-1,
0,
1,
0,
0,
0,
0,
0,
1,
-2,
-2,
-1,
-1,
-1,
-1,
0,
0,
-1,
0,
0,
0,
1,
1,
-1,
-1,
0,
0,
0,
0,
-1,
0,
0,
0,
-1,
0,
-1,
0,
1,
1,
-1,
-1,
0,
0,
-1,
-1,
-1,
0,
1,
1,
-2,
-2,
0,
0,
0,
-1,
-1,
-1,
0,
1,
0,
0,
-1,
0,
0,
0,
-1,
-1,
0,
0,
0,
0,
-1,
-1,
-1,
0,
-1,
-1,
0,
0,
0,
1,
-1,
-2,
0,
0,
0,
1,
-2,
-2,
0,
1,
1,
1,
-1,
-1,
0,
0,
-1,
0,
-1,
-1,
0,
0,
-1,
-1,
0,
0,
0,
0,
-1,
0,
0,
1,
-1,
-1,
-1,
0,
-1,
0,
-1,
-1,
0,
1,
0,
1,
0,
0,
-1,
-1,
-1,
-1,
-1,
-1,
0,
0,
-1,
0,
-1,
-2,
-1,
-1,
-1,
-1,
-1,
-1,
0,
2,
-1,
-1,
-1,
0,
3,
4,
14,
19,
34,
40,
55,
59,
71,
75,
76,
77,
70,
69,
60,
57,
49,
48,
38,
35,
29,
28,
25,
24,
23,
23,
21,
21,
17,
16,
15,
14,
11,
11,
9,
10,
7,
6,
5,
6,
4,
4,
4,
3,
2,
2,
2,
3,
2,
2,
1,
2,
2,
2,
1,
1,
1,
1,
1,
1,
-1,
-1,
-3,
-4,
-12,
-15,
-27,
-30,
-43,
-47,
-58,
-60,
-66,
-67,
-66,
-64,
-61,
-59,
-50,
-48,
-41,
-39,
-33,
-31,
-29,
-27,
-25,
-24,
-23,
-23,
-19,
-16,
-16,
-16,
-14,
-13,
-11,
-10,
-10,
-11,
-7,
-6,
-6,
-6,
-5,
-5,
-4,
-3,
-3,
-3,
-2,
-2,
-3,
-2,
-3,
-2,
-2,
-2,
-2,
-1,
-1,
-1,
-2,
-2,
-3,
-3,
-4,
-4,
-8,
-9,
-9,
-9,
-8,
-7,
-5,
-4,
0,
1,
2,
3,
3,
4,
3,
3,
2,
2,
1,
2,
1,
1,
0,
0,
1,
1,
0,
1,
0,
0,
0,
0,
0,
0,
0,
0,
-1,
0,
1,
1,
0,
0,
-1,
0,
-1,
-1,
-1,
0,
-1,
-1,
-1,
0,
0,
0,
0,
1,
-1,
-2,
-1,
1,
-3,
-3,
-2,
-1,
-1,
-1,
0,
1,
3,
3,
0,
0,
0,
0,
0,
0,
-2,
-2,
0,
0,
-1,
-1,
-2,
-3,
0,
0,
-2,
-1,
-1,
-1,
0,
1,
-1,
0,
-1,
0,
0,
1,
-2,
-2,
0,
0,
-1,
-1,
-1,
-1,
-1,
0,
-1,
-1,
-1,
0,
-1,
0,
-1,
-1,
0,
0,
-1,
0,
-1,
-1,
-1,
0,
-1,
-1,
-1,
0,
0,
0,
0,
1,
-1,
-1,
-1,
0,
-1,
-1,
-1,
-1,
0,
1,
-1,
-1,
0,
1,
-1,
-2,
-1,
-1,
-1,
0,
-1,
-1,
-1,
0,
0,
0,
1,
1,
0,
1,
-1,
-2,
-1,
-1,
-1,
0,
0,
0,
0,
0,
0,
0,
-1,
0,
-1,
-1,
0,
0,
-1,
-1,
-1,
0,
0,
1,
-1,
-1,
0,
1,
1,
0,
-1,
-1,
0,
1,
-1,
-1,
-1,
0,
0,
1,
-2,
-2,
0,
1,
0,
-1,
-1,
-1,
0,
1,
0,
0,
-1,
-1,
0,
1,
-1,
-1,
0,
0,
0,
0,
-1,
-1,
0,
1,
0,
1,
-1,
-1,
0,
1,
-1,
-1,
-1,
0,
-1,
0,
-1,
-1,
-1,
0,
0,
1,
0,
0,
0,
0,
0,
1,
-1,
-1,
-1,
-1,
-1,
-1,
-1,
0,
0,
1,
-1,
-1,
0,
0,
0,
0,
-1,
-2,
0,
0,
-1,
-1,
0,
0,
0,
0,
-1,
-1,
-1,
-1,
-1,
-1,
-1,
0,
0,
0,
0,
0,
-1,
-1,
-1,
0,
-1,
0,
-1,
-1,
0,
0,
-1,
-1,
-1,
-1,
0,
0,
-1,
-1,
-1,
-1,
-1,
-1,
-2,
-2,
-1,
0,
-1,
-1,
0,
0,
-1,
-1,
-1,
-1,
0,
0,
0,
0,
-1,
-1,
-1,
0,
-1,
-1,
-1,
-1,
0,
1,
-2,
-2,
-1,
-1,
0,
0,
-1,
-1,
0,
0,
0,
0,
-1,
-1,
-1,
-1,
-1,
-1,
-1,
0,
-1,
0,
-1,
-1,
0,
1,
-1,
0,
-1,
-1,
0,
1,
-1,
-1,
-1,
-1,
-1,
0,
-1,
-1,
-1,
0,
-1,
0,
-1,
-1,
-1,
-1,
0,
1,
-1,
-1,
1,
1,
-1,
-1,
-1,
-1,
-1,
-1,
-1,
0,
-1,
-1,
-1,
-1,
-1,
-1,
-1,
0,
0,
1,
-2,
-2,
-1,
0,
-1,
-1,
-1,
-1,
0,
1,
-1,
0,
0,
0,
0,
1,
-2,
-2,
-1,
-1,
0,
0,
0,
0,
-1,
-1,
-2,
-2,
-1,
-1,
-1,
-1,
-1,
0,
-66,
-66,
-63,
-61,
