6-anwendungen-opAmps/daten/ALL0037/A0037CH2.CSV

Memory Length,4000,
Trigger Level,6.18000e+02,
Source,CH2,
Probe,1.0X,
Vertical Units,V,
Vertical Scale,1.00000e-01,
Vertical Position,0.00000e+00,
Horizontal Units,S,
Horizontal Scale,5.00000e-04,
Horizontal Position,-7.0000000e-04,
Horizontal Mode,XY Mode,
Sampling Period,2.00000e-06,
Firmware,V1.14,
Time, ,
Mode,Fast,
Waveform Data,
-70,
-70,
-70,
-72,
-72,
-71,
-71,
-69,
-69,
-68,
-68,
-69,
-69,
-68,
-68,
-69,
-69,
-70,
-70,
-70,
-70,
-72,
-72,
-72,
-72,
-71,
-71,
-69,
-69,
-69,
-69,
-71,
-71,
-71,
-71,
-69,
-69,
-69,
-69,
-68,
-68,
-68,
-68,
-70,
-70,
-68,
-68,
-70,
-70,
-68,
-68,
-71,
-71,
-70,
-70,
-69,
-69,
-68,
-68,
-68,
-68,
-72,
-72,
-68,
-68,
-73,
-73,
-72,
-72,
-67,
-67,
-72,
-72,
-67,
-67,
-68,
-68,
-69,
-69,
-73,
-73,
-68,
-68,
-72,
-72,
-69,
-69,
-70,
-70,
-71,
-71,
-70,
-70,
-69,
-69,
-68,
-68,
-70,
-70,
-72,
-72,
-67,
-67,
-70,
-70,
-69,
-69,
-70,
-70,
-72,
-72,
-71,
-71,
-69,
-69,
-69,
-69,
-72,
-72,
-71,
-71,
-69,
-69,
-72,
-72,
-70,
-70,
-70,
-70,
-71,
-71,
-70,
-70,
-73,
-73,
-73,
-73,
-69,
-69,
-70,
-70,
-69,
-69,
-70,
-70,
-69,
-69,
-66,
-66,
-70,
-70,
-68,
-68,
-68,
-68,
-72,
-72,
-68,
-68,
-69,
-69,
-71,
-71,
-71,
-71,
-70,
-70,
-70,
-70,
-71,
-71,
-71,
-71,
-72,
-72,
-72,
-72,
-68,
-68,
-68,
-68,
-69,
-69,
-69,
-69,
-70,
-70,
-70,
-70,
-70,
-70,
-70,
-70,
-71,
-71,
-71,
-71,
-71,
-71,
-72,
-72,
-71,
-71,
-68,
-68,
-70,
-70,
-70,
-70,
-68,
-68,
-71,
-71,
-71,
-71,
-72,
-72,
-72,
-72,
-70,
-70,
-71,
-71,
-72,
-72,
-71,
-71,
-69,
-69,
-70,
-70,
-70,
-70,
-68,
-68,
-70,
-70,
-68,
-68,
-71,
-71,
-70,
-70,
-71,
-71,
-72,
-72,
-72,
-72,
-69,
-69,
-66,
-77,
-70,
-70,
-68,
-68,
-68,
-68,
-67,
-67,
-70,
-70,
-67,
-67,
-68,
-68,
-68,
-68,
-69,
-69,
-70,
-70,
-71,
-71,
-71,
-71,
-73,
-73,
-69,
-69,
-69,
-69,
-67,
-67,
-69,
-69,
-69,
-69,
-70,
-70,
-71,
-71,
-68,
-68,
-68,
-68,
-73,
-73,
-68,
-68,
-71,
-71,
-71,
-71,
-72,
-72,
-72,
-72,
-69,
-69,
-70,
-70,
-70,
-70,
-67,
-67,
-70,
-70,
-67,
-67,
-69,
-69,
-72,
-72,
-67,
-67,
-69,
-69,
-73,
-73,
-68,
-68,
-68,
-68,
-68,
-68,
-70,
-70,
-68,
-68,
-68,
-68,
-69,
-69,
-68,
-68,
-68,
-68,
-68,
-68,
-70,
-70,
-68,
-68,
-70,
-70,
-68,
-68,
-70,
-70,
-68,
-68,
-71,
-71,
-71,
-71,
-68,
-68,
-68,
-68,
-69,
-69,
-68,
-68,
-70,
-70,
-68,
-68,
-70,
-70,
-67,
-67,
-72,
-72,
-71,
-71,
-68,
-68,
-72,
-72,
-72,
-72,
-70,
-70,
-69,
-69,
-70,
-70,
-70,
-70,
-69,
-69,
-71,
-71,
-69,
-69,
-68,
-68,
-69,
-69,
-68,
-68,
-67,
-67,
-68,
-68,
-69,
-69,
-72,
-72,
-72,
-72,
-72,
-72,
-69,
-69,
-69,
-69,
-69,
-69,
-67,
-67,
-71,
-71,
-71,
-71,
-69,
-69,
-72,
-72,
-70,
-70,
-68,
-68,
-71,
-71,
-71,
-71,
-69,
-69,
-68,
-68,
-70,
-70,
-68,
-68,
-70,
-70,
-70,
-70,
-70,
-70,
-68,
-68,
-70,
-70,
-69,
-69,
-70,
-70,
-68,
-68,
-71,
-71,
-72,
-72,
-68,
-68,
-71,
-71,
-71,
-71,
-70,
-70,
-70,
-70,
-69,
-69,
-72,
-72,
-68,
-68,
-71,
-71,
-69,
-69,
-68,
-68,
-67,
-67,
-69,
-69,
-73,
-73,
-68,
-68,
-69,
-69,
-72,
-72,
-68,
-68,
-72,
-72,
-69,
-69,
-72,
-72,
-70,
-70,
-70,
-70,
-68,
-68,
-72,
-72,
-69,
-69,
-71,
-71,
-72,
-72,
-73,
-73,
-70,
-70,
-71,
-71,
-69,
-69,
-69,
-69,
-73,
-73,
-72,
-72,
-73,
-73,
-71,
-71,
-69,
-69,
-71,
-71,
-71,
-71,
-69,
-69,
-70,
-70,
-69,
-69,
-67,
-67,
-68,
-68,
-69,
-69,
-68,
-68,
-71,
-71,
-67,
-67,
-73,
-73,
-72,
-72,
-67,
-67,
-69,
-69,
-69,
-69,
-69,
-69,
-69,
-69,
-72,
-72,
-68,
-68,
-72,
-72,
-69,
-69,
-68,
-68,
-74,
-74,
-73,
-73,
-71,
-71,
-71,
-71,
-72,
-72,
-69,
-69,
-72,
-72,
-71,
-71,
-71,
-71,
-70,
-70,
-70,
-70,
-72,
-72,
-72,
-72,
-70,
-70,
-72,
-72,
-70,
-70,
-71,
-71,
-69,
-69,
-73,
-73,
-69,
-69,
-71,
-71,
-66,
-66,
-72,
-72,
-71,
-71,
-71,
-71,
-72,
-72,
-69,
-69,
-70,
-70,
-68,
-68,
-70,
-70,
-71,
-71,
-72,
-72,
-72,
-72,
-68,
-68,
-72,
-72,
-68,
-68,
-70,
-70,
-68,
-68,
-68,
-68,
-69,
-69,
-72,
-72,
-69,
-69,
-70,
-70,
-69,
-69,
-73,
-73,
-71,
-71,
-74,
-74,
-71,
-71,
-68,
-68,
-67,
-67,
-72,
-72,
-71,
-71,
-71,
-71,
-68,
-68,
-68,
-68,
-70,
-70,
-69,
-69,
-70,
-70,
-68,
-68,
-69,
-69,
-70,
-70,
-68,
-68,
-70,
-70,
-68,
-68,
-68,
-68,
-67,
-67,
-67,
-67,
-67,
-67,
-68,
-68,
-69,
-69,
-73,
-73,
-67,
-67,
-71,
-71,
-69,
-69,
-71,
-71,
-71,
-71,
-70,
-70,
-68,
-68,
-68,
-68,
-69,
-69,
-72,
-72,
-71,
-71,
-70,
-70,
-70,
-70,
-71,
-71,
-70,
-70,
-67,
-67,
-71,
-71,
-72,
-72,
-72,
-72,
-70,
-70,
-70,
-70,
-69,
-69,
-69,
-69,
-68,
-68,
-69,
-69,
-69,
-69,
-69,
-69,
-72,
-72,
-72,
-72,
-69,
-69,
-68,
-68,
-71,
-71,
-72,
-72,
-68,
-68,
-71,
-71,
-68,
-68,
-69,
-69,
-70,
-70,
-69,
-69,
-68,
-68,
-72,
-72,
-68,
-68,
-68,
-68,
-67,
-67,
-71,
-71,
-69,
-69,
-71,
-71,
-69,
-69,
-72,
-72,
-69,
-69,
-68,
-68,
-72,
-72,
-68,
-68,
-67,
-67,
-68,
-68,
-70,
-70,
-69,
-69,
-71,
-71,
-72,
-72,
-71,
-71,
-69,
-69,
-71,
-71,
-69,
-69,
-70,
-70,
-68,
-68,
-71,
-71,
-71,
-71,
-70,
-70,
-67,
-67,
-68,
-68,
-72,
-72,
-69,
-69,
-72,
-72,
-70,
-70,
-73,
-73,
-70,
-70,
-70,
-70,
-68,
-68,
-71,
-71,
-68,
-68,
-73,
-73,
-73,
-73,
-70,
-70,
-70,
-70,
-69,
-69,
-72,
-72,
-72,
-72,
-71,
-71,
-70,
-70,
-71,
-71,
-69,
-69,
-69,
-69,
-68,
-68,
-72,
-72,
-69,
-69,
-68,
-68,
-67,
-67,
-69,
-69,
-69,
-69,
-71,
-71,
-69,
-69,
-70,
-70,
-70,
-70,
-70,
-70,
-70,
-70,
-72,
-72,
-67,
-67,
-72,
-72,
-69,
-69,
-73,
-73,
-72,
-72,
-68,
-68,
-71,
-71,
-73,
-73,
-69,
-69,
-69,
-69,
-72,
-72,
-72,
-72,
-69,
-69,
-68,
-68,
-70,
-70,
-68,
-68,
-68,
-68,
-70,
-70,
-69,
-69,
-69,
-69,
-70,
-70,
-69,
-69,
-71,
-71,
-69,
-69,
-70,
-70,
-70,
-70,
-70,
-70,
-71,
-71,
-72,
-72,
-71,
-71,
-69,
-69,
-71,
-71,
-71,
-71,
-68,
-68,
-73,
-73,
-70,
-70,
-73,
-73,
-68,
-68,
-71,
-71,
-74,
-74,
-72,
-72,
-69,
-69,
-69,
-69,
-72,
-72,
-71,
-71,
-69,
-69,
-71,
-71,
-69,
-69,
-72,
-72,
-70,
-70,
-69,
-69,
-69,
-69,
-69,
-69,
-69,
-69,
-72,
-72,
-69,
-69,
-68,
-68,
-73,
-73,
-72,
-72,
-73,
-73,
-72,
-72,
-69,
-69,
-71,
-71,
-69,
-69,
-68,
-68,
-70,
-70,
-69,
-69,
-69,
-69,
-69,
-69,
-67,
-67,
-73,
-73,
-71,
-71,
-68,
-68,
-70,
-70,
-69,
-69,
-69,
-69,
-69,
-69,
-71,
-71,
-69,
-69,
-70,
-70,
-71,
-71,
-72,
-72,
-72,
-72,
-69,
-69,
-71,
-71,
-72,
-72,
-70,
-70,
-67,
-67,
-71,
-71,
-71,
-71,
-71,
-71,
-68,
-68,
-70,
-70,
-69,
-69,
-73,
-73,
-70,
-70,
-71,
-71,
-67,
-67,
-70,
-70,
-70,
-70,
-72,
-72,
-70,
-70,
-70,
-70,
-72,
-72,
-70,
-70,
-71,
-71,
-69,
-69,
-70,
-70,
-72,
-72,
-71,
-71,
-70,
-70,
-68,
-68,
-70,
-70,
-70,
-70,
-72,
-72,
-68,
-68,
-67,
-67,
-69,
-69,
-72,
-72,
-69,
-69,
-71,
-71,
-69,
-69,
-71,
-71,
-71,
-71,
-69,
-69,
-68,
-68,
-73,
-73,
-70,
-70,
-71,
-71,
-73,
-73,
-71,
-71,
-72,
-72,
-71,
-71,
-68,
-68,
-70,
-70,
-71,
-71,
-72,
-72,
-71,
-71,
-70,
-70,
-72,
-72,
-72,
-72,
-73,
-73,
-71,
-71,
-70,
-70,
-69,
-69,
-70,
-70,
-70,
-70,
-71,
-71,
-70,
-70,
-72,
-72,
-69,
-69,
-70,
-70,
-68,
-68,
-70,
-70,
-71,
-71,
-72,
-72,
-72,
-72,
-70,
-70,
-68,
-68,
-70,
-70,
-72,
-72,
-68,
-68,
-68,
-68,
-69,
-69,
-71,
-71,
-66,
-66,
-67,
-67,
-67,
-67,
-70,
-70,
-69,
-69,
-70,
-70,
-72,
-72,
-70,
-70,
-69,
-69,
-72,
-72,
-70,
-70,
-69,
-69,
-68,
-68,
-73,
-73,
-73,
-73,
-69,
-69,
-68,
-68,
-73,
-73,
-67,
-67,
-72,
-72,
-71,
-71,
-72,
-72,
-71,
-71,
-72,
-72,
-70,
-70,
-69,
-69,
-69,
-69,
-69,
-69,
-68,
-68,
-69,
-69,
-70,
-70,
-69,
-69,
-69,
-69,
-72,
-72,
-70,
-70,
-68,
-68,
-68,
-68,
-70,
-70,
-70,
-70,
-69,
-69,
-71,
-71,
-68,
-68,
-69,
-69,
-69,
-69,
-72,
-72,
-69,
-69,
-71,
-71,
-67,
-67,
-71,
-71,
-69,
-69,
-72,
-72,
-72,
-72,
-69,
-69,
-67,
-67,
-70,
-70,
-69,
-69,
-69,
-69,
-69,
-69,
-68,
-68,
-69,
-69,
-71,
-71,
-72,
-72,
-67,
-67,
-71,
-71,
-71,
-71,
-70,
-70,
-68,
-68,
-70,
-70,
-70,
-70,
-69,
-69,
-69,
-69,
-69,
-69,
-68,
-68,
-70,
-70,
-70,
-70,
-69,
-69,
-68,
-68,
-71,
-71,
-71,
-71,
-70,
-70,
-70,
-70,
-69,
-69,
-68,
-68,
-69,
-69,
-69,
-69,
-71,
-71,
-72,
-72,
-68,
-68,
-71,
-71,
-70,
-70,
-68,
-68,
-72,
-72,
-72,
-72,
-69,
-69,
-70,
-70,
-69,
-69,
-68,
-68,
-70,
-70,
-70,
-70,
-69,
-69,
-69,
-69,
-68,
-68,
-69,
-69,
-69,
-69,
-68,
-68,
-70,
-70,
-70,
-70,
-70,
-70,
-69,
-69,
-72,
-72,
-70,
-70,
-69,
-69,
-68,
-68,
-72,
-72,
-69,
-69,
-70,
-70,
-68,
-68,
-67,
-67,
-72,
-72,
-68,
-68,
-70,
-70,
-69,
-69,
-70,
-70,
-72,
-72,
-68,
-68,
-71,
-71,
-69,
-69,
-72,
-72,
-70,
-70,
-70,
-70,
-68,
-68,
-71,
-71,
-68,
-68,
-69,
-69,
-70,
-70,
-72,
-72,
-71,
-71,
-71,
-71,
-68,
-68,
-70,
-70,
-71,
-71,
-71,
-71,
-70,
-70,
-69,
-69,
-67,
-67,
-69,
-69,
-71,
-71,
-69,
-69,
-68,
-68,
-70,
-70,
-68,
-68,
-69,
-69,
-69,
-69,
-69,
-69,
-72,
-72,
-68,
-68,
-71,
-71,
-72,
-72,
-69,
-69,
-72,
-72,
-68,
-68,
-68,
-68,
-70,
-70,
-73,
-73,
-67,
-67,
-71,
-71,
-70,
-70,
-69,
-69,
-73,
-73,
-72,
-72,
-68,
-68,
-70,
-70,
-72,
-72,
-74,
-74,
-68,
-68,
-71,
-71,
-73,
-73,
-69,
-69,
-70,
-70,
-72,
-72,
-71,
-71,
-69,
-69,
-70,
-70,
-72,
-72,
-69,
-69,
-71,
-71,
-70,
-70,
-69,
-69,
-71,
-71,
-70,
-70,
-70,
-70,
-71,
-71,
-70,
-70,
-71,
-71,
-68,
-68,
-72,
-72,
-69,
-69,
-70,
-70,
-71,
-71,
-69,
-69,
-69,
-69,
-69,
-69,
-72,
-72,
-67,
-67,
-73,
-73,
-69,
-69,
-68,
-68,
-69,
-69,
-70,
-70,
-72,
-72,
-70,
-70,
-70,
-70,
-70,
-70,
-72,
-72,
-73,
-73,
-69,
-69,
-70,
-70,
-68,
-68,
-71,
-71,
-72,
-72,
-71,
-71,
-70,
-70,
-71,
-71,
-69,
-69,
-67,
-67,
-72,
-72,
-71,
-71,
-70,
-70,
-72,
-72,
-67,
-67,
-70,
-70,
-70,
-70,
-70,
-70,
-69,
-69,
-68,
-68,
-70,
-70,
-69,
-69,
-71,
-71,
-72,
-72,
-71,
-71,
-73,
-73,
-70,
-70,
-73,
-73,
-71,
-71,
-71,
-71,
-68,
-68,
-67,
-67,
-68,
-68,
-71,
-71,
-72,
-72,
-70,
-70,
-71,
-71,
-71,
-71,
-72,
-72,
-70,
-70,
-72,
-72,
-73,
-73,
-71,
-71,
-70,
-70,
-71,
-71,
-70,
-70,
-69,
-69,
-69,
-69,
-72,
-72,
-68,
-68,
-69,
-69,
-71,
-71,
-71,
-71,
-68,
-68,
-69,
-69,
-73,
-73,
-71,
-71,
-67,
-67,
-71,
-71,
-66,
-66,
-68,
-68,
-69,
-69,
-70,
-70,
-69,
-69,
-72,
-72,
-68,
-68,
-69,
-69,
-69,
-69,
-69,
-69,
-69,
-69,
-71,
-71,
-70,
-70,
-72,
-72,
-69,
-69,
-70,
-70,
-73,
-73,
-70,
-70,
-68,
-68,
-69,
-69,
-71,
-71,
-68,
-68,
-68,
-68,
-72,
-72,
-70,
-70,
-68,
-68,
-70,
-70,
-68,
-68,
-72,
-72,
-67,
-67,
-70,
-70,
-70,
-70,
-69,
-69,
-69,
-69,
-68,
-68,
-71,
-71,
-68,
-68,
-70,
-70,
-71,
-71,
-72,
-72,
-71,
-71,
-68,
-68,
-69,
-69,
-72,
-72,
-68,
-68,
-72,
-72,
-72,
-72,
-69,
-69,
-69,
-69,
-70,
-70,
-68,
-68,
-72,
-72,
-72,
-72,
-71,
-71,
-71,
-71,
-68,
-68,
-69,
-69,
-70,
-70,
-73,
-73,
-70,
-70,
-68,
-68,
-69,
-69,
-68,
-68,
-67,
-67,
-71,
-71,
-69,
-69,
-70,
-70,
-69,
-69,
-70,
-70,
-71,
-71,
-72,
-72,
-68,
-68,
-70,
-70,
-71,
-71,
-70,
-70,
-70,
-70,
-67,
-67,
-71,
-71,
-70,
-70,
-72,
-72,
-69,
-69,
-70,
-70,
-72,
-72,
-68,
-68,
-68,
-68,
-72,
-72,
-67,
-67,
-69,
-69,
-72,
-72,
-68,
-68,
-71,
-71,
-69,
-69,
-70,
-70,
-71,
-71,
-69,
-69,
-70,
-70,
-72,
-72,
-71,
-71,
-70,
-70,
-72,
-72,
-70,
-70,
-70,
-70,
-72,
-72,
-72,
-72,
-69,
-69,
-71,
-71,
-68,
-68,
-71,
-71,
-68,
-68,
-72,
-72,
-71,
-71,
-71,
-71,
-71,
-71,
-69,
-69,
-69,
-69,
-69,
-69,
-70,
-70,
-69,
-69,
-70,
-70,
-71,
-71,
-71,
-71,
-67,
-67,
-69,
-69,
-69,
-69,
-71,
-71,
-71,
-71,
-68,
-68,
-70,
-70,
-70,
-70,
-69,
-69,
-71,
-71,
-71,
-71,
-70,
-70,
-70,
-70,
-70,
-70,
-68,
-68,
-72,
-72,
-69,
-69,
-71,
-71,
-72,
-72,
-70,
-70,
-73,
-73,
-72,
-72,
-69,
-69,
-69,
-69,
-71,
-71,
-68,
-68,
-69,
-69,
-70,
-70,
-69,
-69,
-69,
-69,
-69,
-69,
-69,
-69,
-68,
-68,
-69,
-69,
-70,
-70,
-69,
-69,
-71,
-71,
-69,
-69,
-67,
-67,
-70,
-70,
-72,
-72,
-71,
-71,
-70,
-70,
-68,
-68,
-70,
-70,
-69,
-69,
-70,
-70,
-70,
-70,
-68,
-68,
-68,
-68,
-69,
-69,
-68,
-68,
-72,
-72,
-70,
-70,
-72,
-72,
-71,
-71,
-70,
-70,
-72,
-72,
-69,
-69,
-70,
-70,
-72,
-72,
-68,
-68,
-70,
-70,
-70,
-70,
-67,
-67,
-68,
-68,
-70,
-70,
-69,
-69,
-68,
-68,
-68,
-68,
-69,
-69,
-69,
-69,
-69,
-69,
-71,
-71,
-70,
-70,
-71,
-71,
-68,
-68,
-68,
-68,
-72,
-72,
-71,
-71,
-69,
-69,
-68,
-68,
-69,
-69,
-70,
-70,
-70,
-70,
-71,
-71,
-69,
-69,
-69,
-69,
-71,
-71,
-68,
-68,
-70,
-70,
-70,
-70,
-70,
-70,
-68,
-68,
-69,
-69,
-69,
-69,
-68,
-68,
-69,
-69,
-70,
-70,
-69,
-69,
-71,
-71,
-70,
-70,
-72,
-72,
-69,
-69,
-72,
-72,
-68,
-68,
-69,
-69,
-68,
-68,
-72,
-72,
-73,
-73,
-68,
-68,
-70,
-70,
-72,
-72,
-70,
-70,
-71,
-71,
-71,
-71,
-72,
-72,
-71,
-71,
-72,
-72,
-70,
-70,
-69,
-69,
-71,
-71,
-69,
-69,
-71,
-71,
-69,
-69,
-71,
-71,
-71,
-71,
-70,
-70,
-69,
-69,
-70,
-70,
-69,
-69,
-70,
-70,
-68,
-68,
-69,
-69,
-69,
-69,
-71,
-71,
-69,
-69,
-68,
-68,
-70,
-70,
-69,
-69,
-71,
-71,
-71,
-71,
-72,
-72,
-71,
-71,
-72,
-72,
-68,
-68,
-72,
-72,
-68,
-68,
-70,
-70,
-72,
-72,
-70,
-70,
-71,
-71,
-71,
-71,
-73,
-73,
-68,
-68,
-70,
-70,
-71,
-71,
-68,
-68,
-68,
-68,
-70,
-70,
-70,
-70,
-71,
-71,
-70,
-70,
-71,
-71,
-72,
-72,
-68,
-68,
-69,
-69,
-70,
-70,
-71,
-71,
-67,
-67,
-70,
-70,
-70,
-70,
-68,
-68,
-69,
-69,
-69,
-69,
-70,
-70,
-70,
-70,
-70,
-70,
-70,
-70,
-69,
-69,
-67,
-67,
-69,
-69,
-69,
-69,
-71,
-71,
-70,
-70,
-69,
-69,
-68,
-68,
-69,
-69,
-68,
-68,
-73,
-73,
-70,
-70,
-71,
-71,
-68,
-68,
-72,
-72,
-71,
-71,
-72,
-72,
-70,
-70,
-70,
-70,
-67,
-67,
-69,
-69,
-68,
-68,
-72,
-72,
-70,
-70,
-68,
-68,
-68,
-68,
-71,
-71,
-69,
-69,
-69,
-69,
-69,
-69,
-69,
-69,
-72,
-72,
-68,
-68,
-70,
-70,
-69,
-69,
-72,
-72,
-70,
-70,
-69,
-69,
-72,
-72,
-71,
-71,
-70,
-70,
-71,
-71,
-72,
-72,
-69,
-69,
-70,
-70,
-69,
-69,
-70,
-70,
-69,
-69,
-68,
-68,
-69,
-69,
-71,
-71,
-68,
-68,
-69,
-69,
-69,
-69,
-69,
-69,
-69,
-69,
-69,
-69,
-69,
-69,
-69,
-69,
-72,
-72,
-68,
-68,
-73,
-73,
-71,
-71,
-71,
-71,
-69,
-69,
-70,
-70,
-70,
-70,
-70,
-70,
-70,
-70,
-72,
-72,
-71,
-71,
-72,
-72,
-69,
-69,
-70,
-70,
-68,
-68,
-72,
-72,
-69,
-69,
-69,
-69,
-69,
-69,
-69,
-69,
-67,
-67,
-72,
-72,
-71,
-71,
-69,
-69,
-68,
-68,
-69,
-69,
-68,
-68,
-69,
-69,
-70,
-70,
-69,
-69,
-72,
-72,
-69,
-69,
-71,
-71,
-68,
-68,
-69,
-69,
-70,
-70,
-70,
-70,
-68,
-68,
-68,
-68,
-72,
-72,
-67,
-67,
-71,
-71,
-69,
-69,
-71,
-71,
-72,
-72,
-72,
-72,
-71,
-71,
-71,
-71,
-72,
-72,
-71,
-71,
-70,
-70,
-70,
-70,
-72,
-72,
-69,
-69,
-71,
-71,
-70,
-70,
-71,
-71,
-67,
-67,
-69,
-69,
-70,
-70,
-71,
-71,
-70,
-70,
-71,
-71,
-67,
-67,
-70,
-70,
-68,
-68,
-71,
-71,
-70,
-70,
-71,
-71,
-72,
-72,
-72,
-72,
-69,
-69,
-69,
-69,
-72,
-72,
-71,
-71,
-72,
-72,
-72,
-72,
-67,
-67,
-73,
-73,
-68,
-68,
-70,
-70,
-68,
-68,
-70,
-70,
-68,
-68,
-68,
-68,
-69,
-69,
-69,
-69,
-69,
-69,
-72,
-72,
-71,
-71,
-71,
-71,
-70,
-70,
-69,
-69,
-69,
-69,
-70,
-70,
-68,
-68,
-70,
-70,
-69,
-69,
-69,
-69,
-70,
-70,
-70,
-70,
-72,
-72,
-72,
-72,
-70,
-70,
-72,
-72,
-69,
-69,
-69,
-69,
-67,
-67,
-67,
-67,
-68,
-68,
-68,
-68,
-67,
-67,
-69,
-69,
-68,
-68,
-73,
-73,
-69,
-69,
-72,
-72,
-71,
-71,
-71,
-71,
-71,
-71,
-69,
-69,
-69,
-69,
-70,
-70,
-67,
-67,
-71,
-71,
-72,
-72,
-69,
-69,
-72,
-72,
-71,
-71,
-73,
-73,
-68,
-68,
-72,
-72,
-72,
-72,
-72,
-72,
-69,
-69,
-71,
-71,
-70,
-70,
-69,
-69,
-70,
-70,
-71,
-71,
-68,
-68,
-71,
-71,
-73,
-73,
-72,
-72,
-68,
-68,
-69,
-69,
-71,
-71,
-72,
-72,
-69,
-69,
-70,
-70,
-70,
-70,
-67,
-67,
-69,
-69,
-68,
-68,
-68,
-68,
-72,
-72,
-67,
-67,
-71,
-71,
-68,
-68,
-68,
-68,
-68,
-68,
-70,
-70,
-71,
-71,
-71,
-71,
-69,
-69,
-68,
-68,
-71,
-71,
-70,
-70,
-68,
-68,
-68,
-68,
-71,
-71,
-67,
-67,
-69,
-69,
-71,
-71,
-69,
-69,
-70,
-70,
-70,
-70,
-68,
-68,
-69,
-69,
-69,
-69,
-69,
-69,
-73,
-73,
-69,
-69,
-69,
-69,
-68,
-68,
-71,
-71,
-69,
-69,
-72,
-72,
-70,
-70,
-71,
-71,
-67,
-67,
-71,
-71,
-67,
-67,
-71,
-71,
-69,
-69,
-70,
-70,
-72,
-72,
-68,
-68,
-68,
-68,
-70,
-70,
-69,
-69,
-71,
-71,
-70,
-70,
-69,
-69,
-71,
-71,
-69,
-69,
-69,
-69,
-67,
-67,
-71,
-71,
-70,
-70,
-69,
-69,
-69,
-69,
-68,
-68,
-68,
-68,
-72,
-72,
-67,
-67,
-71,
-71,
-70,
-70,
-69,
-69,
-71,
-71,
-69,
-69,
-67,
-67,
-71,
-71,
-70,
-70,
-68,
-68,
-69,
-69,
-69,
-69,
-70,
-70,
-70,
-70,
-70,
-70,
-68,
-68,
-67,
-67,
-71,
-71,
-67,
-67,
-69,
-69,
-68,
-68,
-70,
-70,
-69,
-69,
-68,
-68,
-69,
-69,
-70,
-70,
-67,
-67,
-69,
-69,
-69,
-69,
-71,
-71,
-67,
-67,
-71,
-71,
-68,
-68,
-67,
-67,
-68,
-68,
-68,
-68,
-71,
-71,
-67,
-67,
-69,
-69,
-70,
-70,
-67,
-67,
-68,
-68,
-67,
-67,
-71,
-71,
-70,
-70,
-67,
-67,
-67,
-67,
-71,
-71,
-66,
-66,
-66,
-66,
-67,
-67,
-71,
-71,
-66,
-66,
-70,
-70,
-68,
-68,
-67,
-67,
-70,
-70,
-69,
-69,
-69,
-69,
-70,
-70,
-66,
-66,
-67,
-67,
-70,
-70,
-65,
-65,
-67,
-67,
-66,
-66,
-65,
-65,
-67,
-67,
-67,
-67,
-68,
-68,
-67,
-67,
-68,
-68,
-67,
-67,
-70,
-70,
-67,
-67,
-68,
-68,
-66,
-66,
-66,
-66,
-69,
-69,
-69,
-69,
-66,
-66,
-69,
-69,
-68,
-68,
-66,
-66,
-66,
-66,
-64,
-64,
-66,
-66,
-65,
-65,
-66,
-66,
-66,
-66,
-65,
-65,
-67,
-67,
-65,
-65,
-69,
-69,
-67,
-67,
-65,
-65,
-64,
-64,
-67,
-67,
-65,
-65,
-66,
-66,
-64,
-64,
-67,
-67,
-63,
-63,
-67,
-67,
-66,
-66,
-67,
-67,
-66,
-66,
-66,
-66,
-64,
-64,
-66,
-66,
-64,
-64,
-62,
-62,
-68,
-68,
-66,
-66,
-64,
-64,
-64,
-64,
-63,
-63,
-66,
-66,
-63,
-63,
-66,
-66,
-65,
-65,
-67,
-67,
-65,
-65,
-67,
-67,
-62,
-62,
-65,
-65,
-63,
-63,
-65,
-65,
-62,
-62,
-61,
-61,
-62,
-62,
-66,
-66,
-64,
-64,
-64,
-64,
-61,
-61,
-62,
-62,
-62,
-62,
-61,
-61,
-59,
-59,
-65,
-65,
-64,
-64,
-61,
-61,
-61,
-61,
-60,
-60,
-60,
-60,
-61,
-61,
-61,
-61,
-61,
-61,
-59,
-59,
-61,
-61,
-61,
-61,
-60,
-60,
-59,
-59,
-60,
-60,
-61,
-61,
-57,
-57,
-58,
-58,
-59,
-59,
-60,
-60,
-60,
-60,
-58,
-58,
-57,
-57,
-56,
-56,
-57,
-57,
-60,
-60,
-60,
-60,
-54,
-54,
-57,
-57,
-55,
-55,
-56,
-56,
-53,
-53,
-56,
-56,
-55,
-55,
-55,
-55,
-53,
-53,
-52,
-52,
-50,
-50,
-50,
-50,
-49,
-49,
-50,
-50,
-48,
-48,
-50,
-50,
-46,
-46,
-44,
-44,
-37,
-37,
-34,
-34,
-31,
-2,
-8,
23,
21,
39,
34,
45,
43,
43,
45,
45,
49,
49,
51,
51,
52,
52,
47,
36,
40,
18,
20,
-21,
-18,
-39,
-37,
-37,
-44,
-44,
-44,
-44,
-47,
-47,
-46,
-46,
-40,
-40,
-40,
-27,
-33,
-5,
-10,
29,
25,
42,
39,
39,
42,
42,
48,
48,
47,
47,
51,
51,
48,
48,
45,
27,
27,
3,
2,
-36,
-34,
-46,
-43,
-43,
-49,
-49,
-45,
-45,
-43,
-43,
-44,
-32,
-36,
-16,
-16,
11,
8,
31,
28,
46,
42,
42,
46,
46,
49,
49,
52,
52,
49,
49,
45,
45,
38,
-8,
-4,
-34,
-28,
-46,
-44,
-44,
-46,
-46,
-48,
-48,
-45,
-45,
-41,
-41,
-32,
-16,
-19,
15,
16,
39,
33,
48,
44,
44,
45,
45,
53,
53,
50,
50,
46,
46,
36,
18,
18,
-28,
-27,
-43,
-39,
-39,
-46,
-46,
-47,
-47,
-48,
-48,
-41,
-41,
-34,
-11,
-12,
27,
22,
45,
44,
44,
46,
46,
52,
52,
53,
53,
46,
46,
46,
19,
21,
-17,
-16,
-39,
-37,
-37,
-43,
-43,
-43,
-43,
-48,
-48,
-42,
-42,
-37,
-4,
-7,
28,
26,
44,
45,
45,
45,
45,
49,
49,
50,
50,
44,
44,
40,
9,
11,
-34,
-30,
-43,
-40,
-40,
-43,
-43,
-47,
-47,
-43,
-43,
-39,
-22,
-27,
8,
8,
42,
40,
40,
45,
45,
51,
51,
49,
49,
50,
39,
39,
25,
30,
-21,
-17,
-45,
-40,
-40,
-47,
-47,
-46,
-46,
-42,
-42,
-40,
-13,
-18,
29,
28,
46,
42,
42,
49,
49,
51,
51,
47,
47,
42,
42,
38,
-3,
1,
-38,
-33,
-47,
-43,
-43,
-50,
-50,
-44,
-44,
-42,
-27,
-27,
19,
18,
44,
41,
41,
50,
50,
51,
51,
49,
49,
46,
35,
35,
-1,
-1,
-35,
-30,
-47,
-44,
-44,
-45,
-45,
-42,
-42,
-40,
-28,
-28,
22,
19,
46,
41,
41,
46,
46,
53,
53,
46,
46,
40,
15,
19,
-28,
-26,
-45,
-42,
-42,
-48,
-48,
-44,
-44,
-41,
-30,
-29,
14,
12,
41,
35,
49,
46,
46,
51,
51,
48,
48,
44,
29,
28,
-14,
-11,
-43,
-43,
-43,
-44,
-44,
-48,
-48,
-44,
-33,
-37,
-3,
-7,
43,
37,
51,
51,
51,
51,
51,
49,
49,
41,
21,
23,
-29,
-23,
-43,
-41,
-41,
-43,
-43,
-45,
-45,
-43,
-24,
-24,
33,
29,
48,
43,
43,
48,
48,
51,
51,
48,
48,
39,
6,
6,
-41,
-39,
-39,
-45,
-45,
-46,
-46,
-46,
-30,
-29,
14,
14,
44,
39,
52,
48,
48,
49,
49,
47,
34,
35,
-4,
-5,
-35,
-34,
-48,
-43,
-43,
-47,
-47,
-44,
-44,
-39,
6,
4,
47,
44,
44,
47,
47,
50,
50,
45,
45,
36,
-17,
-13,
-40,
-37,
-48,
-46,
-46,
-45,
-45,
-43,
-22,
-25,
40,
35,
49,
47,
47,
49,
49,
51,
51,
45,
17,
16,
-36,
-31,
-45,
-39,
-50,
-49,
-49,
-47,
-34,
-39,
7,
4,
48,
43,
43,
48,
48,
50,
50,
44,
30,
33,
-10,
-8,
-44,
-41,
-41,
-49,
-49,
-49,
-36,
-38,
10,
7,
45,
44,
44,
48,
48,
50,
50,
43,
43,
36,
-33,
-29,
-46,
-43,
-43,
-45,
-45,
-46,
-34,
-34,
21,
21,
48,
44,
44,
53,
53,
54,
42,
50,
15,
21,
-29,
-27,
-46,
-43,
-43,
-49,
-49,
-45,
-21,
-24,
35,
32,
51,
46,
46,
54,
54,
47,
35,
36,
-8,
-4,
-39,
-36,
-48,
-47,
-47,
-47,
-34,
-35,
9,
9,
46,
43,
54,
53,
53,
48,
48,
40,
11,
13,
-34,
-29,
-48,
-46,
-46,
-45,
-45,
-44,
0,
1,
44,
40,
53,
50,
50,
51,
51,
46,
17,
19,
-36,
-38,
-38,
-47,
-47,
-50,
-39,
-42,
-17,
-22,
46,
42,
54,
49,
49,
53,
53,
46,
31,
35,
-37,
-36,
-47,
-45,
-45,
-48,
-37,
-43,
-12,
-12,
46,
42,
54,
47,
47,
48,
48,
45,
20,
19,
-36,
-31,
-50,
-46,
-46,
-45,
-45,
-41,
38,
35,
51,
52,
52,
55,
55,
50,
39,
40,
0,
1,
