6-anwendungen-opAmps/daten/ALL0037/A0037CH1.CSV

Memory Length,4000,
Trigger Level,6.18000e+02,
Source,CH1,
Probe,1.0X,
Vertical Units,V,
Vertical Scale,5.00000e-02,
Vertical Position,-4.54000e-01,
Horizontal Units,S,
Horizontal Scale,5.00000e-04,
Horizontal Position,-7.0000000e-04,
Horizontal Mode,XY Mode,
Sampling Period,2.00000e-06,
Firmware,V1.14,
Time, ,
Mode,Fast,
Waveform Data,
178,
178,
178,
179,
179,
179,
179,
177,
177,
178,
178,
178,
178,
178,
178,
178,
178,
178,
178,
179,
179,
179,
179,
180,
180,
178,
178,
178,
178,
180,
180,
178,
178,
178,
178,
179,
179,
179,
179,
180,
180,
179,
179,
180,
180,
179,
179,
180,
180,
179,
179,
179,
179,
180,
180,
178,
178,
180,
180,
179,
179,
179,
179,
180,
180,
180,
180,
179,
179,
179,
179,
180,
180,
179,
179,
179,
179,
180,
180,
180,
180,
179,
179,
180,
180,
180,
180,
179,
179,
181,
181,
180,
180,
181,
181,
180,
180,
180,
180,
180,
180,
180,
180,
181,
181,
180,
180,
181,
181,
181,
181,
180,
180,
180,
180,
181,
181,
181,
181,
181,
181,
180,
180,
181,
181,
180,
180,
182,
182,
181,
181,
181,
181,
182,
182,
182,
182,
181,
181,
182,
182,
182,
182,
181,
181,
182,
182,
181,
181,
182,
182,
182,
182,
181,
181,
181,
181,
181,
181,
182,
182,
182,
182,
182,
182,
182,
182,
183,
183,
181,
181,
182,
182,
182,
182,
183,
183,
182,
182,
181,
181,
183,
183,
184,
184,
183,
183,
182,
182,
182,
182,
184,
184,
183,
183,
183,
183,
183,
183,
183,
183,
183,
183,
183,
183,
183,
183,
183,
183,
183,
183,
183,
183,
183,
183,
183,
183,
183,
183,
185,
185,
184,
184,
185,
185,
184,
184,
182,
182,
185,
185,
183,
183,
183,
183,
182,
182,
182,
182,
184,
184,
184,
184,
185,
185,
184,
184,
184,
184,
184,
184,
184,
184,
184,
184,
185,
185,
184,
184,
183,
183,
185,
185,
185,
185,
185,
185,
185,
185,
185,
185,
184,
184,
185,
185,
184,
184,
185,
185,
186,
186,
184,
184,
186,
186,
185,
185,
185,
185,
185,
185,
184,
184,
184,
184,
186,
186,
186,
186,
185,
185,
186,
186,
186,
186,
185,
185,
185,
185,
186,
186,
186,
186,
185,
185,
186,
186,
185,
185,
186,
186,
186,
186,
187,
187,
186,
186,
186,
186,
186,
186,
186,
186,
188,
188,
186,
186,
187,
187,
186,
186,
186,
186,
187,
187,
186,
186,
187,
187,
189,
189,
188,
188,
188,
188,
186,
186,
188,
188,
190,
190,
187,
187,
188,
188,
187,
187,
188,
188,
188,
188,
187,
187,
188,
188,
188,
188,
189,
189,
187,
187,
187,
187,
188,
188,
187,
187,
188,
188,
187,
187,
189,
189,
188,
188,
189,
189,
188,
188,
189,
189,
188,
188,
189,
189,
188,
188,
187,
187,
189,
189,
188,
188,
190,
190,
188,
188,
189,
189,
189,
189,
190,
190,
190,
190,
188,
188,
189,
189,
189,
189,
189,
189,
189,
189,
189,
189,
189,
189,
189,
189,
189,
189,
189,
189,
189,
189,
189,
189,
190,
190,
191,
191,
190,
190,
189,
189,
189,
189,
191,
191,
190,
190,
190,
190,
191,
191,
190,
190,
191,
191,
190,
190,
190,
190,
191,
191,
191,
191,
191,
191,
191,
191,
190,
190,
191,
191,
191,
191,
192,
192,
193,
193,
190,
190,
191,
191,
191,
191,
193,
193,
192,
192,
192,
192,
191,
191,
190,
190,
192,
192,
191,
191,
192,
192,
191,
191,
192,
192,
192,
192,
192,
192,
193,
193,
193,
193,
191,
191,
192,
192,
193,
193,
192,
192,
192,
192,
193,
193,
192,
192,
192,
192,
193,
193,
191,
191,
195,
195,
193,
193,
191,
191,
194,
194,
193,
193,
192,
192,
192,
192,
192,
192,
192,
192,
192,
192,
193,
193,
193,
193,
193,
193,
193,
193,
194,
194,
193,
193,
193,
193,
193,
193,
194,
194,
193,
193,
193,
193,
195,
195,
194,
194,
193,
193,
194,
194,
193,
193,
194,
194,
194,
194,
194,
194,
194,
194,
195,
195,
194,
194,
195,
195,
194,
194,
195,
195,
194,
194,
194,
194,
196,
196,
196,
196,
195,
195,
195,
195,
194,
194,
196,
196,
195,
195,
195,
195,
195,
195,
196,
196,
195,
195,
195,
195,
194,
194,
195,
195,
197,
197,
193,
193,
195,
195,
196,
196,
197,
197,
193,
193,
196,
196,
196,
196,
194,
194,
197,
197,
195,
195,
195,
195,
194,
194,
195,
195,
196,
196,
196,
196,
196,
196,
197,
197,
195,
195,
197,
197,
196,
196,
198,
198,
197,
197,
196,
196,
195,
195,
196,
196,
197,
197,
197,
197,
195,
195,
197,
197,
197,
197,
196,
196,
197,
197,
196,
196,
197,
197,
197,
197,
197,
197,
197,
197,
197,
197,
198,
198,
198,
198,
197,
197,
197,
197,
197,
197,
198,
198,
199,
199,
198,
198,
198,
198,
198,
198,
197,
197,
198,
198,
198,
198,
198,
198,
197,
197,
199,
199,
198,
198,
199,
199,
198,
198,
199,
199,
198,
198,
199,
199,
198,
198,
199,
199,
199,
199,
199,
199,
199,
199,
199,
199,
199,
199,
199,
199,
198,
198,
199,
199,
198,
198,
199,
199,
199,
199,
200,
200,
199,
199,
200,
200,
200,
200,
200,
200,
199,
199,
199,
199,
199,
199,
199,
199,
200,
200,
201,
201,
199,
199,
200,
200,
199,
199,
200,
200,
199,
199,
200,
200,
199,
199,
201,
201,
200,
200,
200,
200,
199,
199,
200,
200,
201,
201,
200,
200,
200,
200,
200,
200,
200,
200,
200,
200,
200,
200,
201,
201,
203,
203,
200,
200,
201,
201,
201,
201,
200,
200,
200,
200,
202,
202,
200,
200,
200,
200,
201,
201,
200,
200,
204,
204,
201,
201,
201,
201,
201,
201,
202,
202,
201,
201,
203,
203,
202,
202,
202,
202,
203,
203,
202,
202,
203,
203,
201,
201,
202,
202,
201,
201,
203,
203,
202,
202,
202,
202,
203,
203,
203,
203,
202,
202,
202,
202,
203,
203,
203,
203,
205,
205,
203,
203,
202,
202,
205,
205,
203,
203,
203,
203,
204,
204,
204,
204,
202,
202,
203,
203,
204,
204,
203,
203,
203,
203,
204,
204,
202,
202,
204,
204,
204,
204,
203,
203,
204,
204,
204,
204,
205,
205,
203,
203,
204,
204,
205,
205,
204,
204,
204,
204,
205,
205,
205,
205,
205,
205,
206,
206,
205,
205,
204,
204,
205,
205,
206,
206,
207,
207,
205,
205,
205,
205,
203,
203,
206,
206,
205,
205,
205,
205,
205,
205,
205,
205,
206,
206,
207,
207,
203,
203,
206,
206,
206,
206,
205,
205,
206,
206,
207,
207,
207,
207,
206,
206,
206,
206,
205,
205,
207,
207,
207,
207,
207,
207,
207,
207,
206,
206,
207,
207,
207,
207,
207,
207,
206,
206,
207,
207,
207,
207,
209,
209,
208,
208,
207,
207,
208,
208,
208,
208,
206,
206,
208,
208,
207,
207,
208,
208,
207,
207,
207,
207,
207,
207,
208,
208,
209,
209,
207,
207,
207,
207,
207,
207,
209,
209,
209,
209,
208,
208,
208,
208,
207,
207,
208,
208,
209,
209,
208,
208,
208,
208,
208,
208,
209,
209,
209,
209,
208,
208,
209,
209,
209,
209,
209,
209,
209,
209,
208,
208,
208,
208,
209,
209,
209,
209,
209,
209,
209,
209,
210,
210,
208,
208,
210,
210,
209,
209,
210,
210,
209,
209,
209,
209,
209,
209,
210,
210,
209,
209,
211,
211,
209,
209,
210,
210,
211,
211,
210,
210,
210,
210,
210,
210,
210,
210,
210,
210,
210,
210,
211,
211,
210,
210,
210,
210,
210,
210,
210,
210,
211,
211,
210,
210,
211,
211,
210,
210,
211,
211,
211,
211,
211,
211,
211,
211,
211,
211,
211,
211,
212,
212,
212,
212,
211,
211,
211,
211,
211,
211,
210,
210,
211,
211,
213,
213,
212,
212,
212,
212,
210,
210,
212,
212,
211,
211,
212,
212,
211,
211,
211,
211,
211,
211,
212,
212,
212,
212,
212,
212,
212,
212,
211,
211,
212,
212,
212,
212,
211,
211,
212,
212,
212,
212,
212,
212,
212,
212,
212,
212,
212,
212,
212,
212,
213,
213,
211,
211,
211,
211,
213,
213,
214,
214,
212,
212,
211,
211,
213,
213,
212,
212,
214,
214,
212,
212,
213,
213,
212,
212,
213,
213,
214,
214,
213,
213,
214,
214,
214,
214,
213,
213,
213,
213,
215,
215,
214,
214,
213,
213,
214,
214,
213,
213,
214,
214,
215,
215,
214,
214,
214,
214,
214,
214,
214,
214,
214,
214,
212,
212,
214,
214,
215,
215,
214,
214,
214,
214,
215,
215,
215,
215,
215,
215,
215,
215,
214,
214,
215,
215,
215,
215,
215,
215,
215,
215,
214,
214,
215,
215,
215,
215,
215,
215,
216,
216,
215,
215,
216,
216,
214,
214,
216,
216,
216,
216,
215,
215,
216,
216,
216,
216,
215,
215,
216,
216,
215,
215,
215,
215,
216,
216,
215,
215,
216,
216,
216,
216,
215,
215,
217,
217,
216,
216,
216,
216,
216,
216,
216,
216,
217,
217,
216,
216,
217,
217,
217,
217,
218,
218,
216,
216,
217,
217,
215,
215,
217,
217,
218,
218,
215,
215,
218,
218,
216,
216,
218,
218,
217,
217,
217,
217,
218,
218,
218,
218,
217,
217,
218,
218,
217,
217,
217,
217,
218,
218,
218,
218,
217,
217,
219,
219,
218,
218,
217,
217,
217,
217,
218,
218,
218,
218,
218,
218,
218,
218,
218,
218,
218,
218,
218,
218,
218,
218,
219,
219,
220,
220,
219,
219,
220,
220,
218,
218,
219,
219,
218,
218,
219,
219,
219,
219,
219,
219,
218,
218,
219,
219,
220,
220,
219,
219,
220,
220,
219,
219,
218,
218,
220,
220,
219,
219,
219,
219,
219,
219,
221,
221,
220,
220,
220,
220,
219,
219,
220,
220,
220,
220,
219,
219,
219,
219,
220,
220,
220,
220,
221,
221,
221,
221,
221,
221,
221,
221,
221,
221,
221,
221,
220,
220,
220,
220,
220,
220,
221,
221,
221,
221,
222,
222,
220,
220,
222,
222,
221,
221,
221,
221,
222,
222,
222,
222,
221,
221,
222,
222,
222,
222,
222,
222,
222,
222,
221,
221,
220,
220,
222,
222,
223,
223,
222,
222,
223,
223,
223,
223,
222,
222,
222,
222,
223,
223,
221,
221,
222,
222,
223,
223,
223,
223,
222,
222,
223,
223,
223,
223,
223,
223,
223,
223,
224,
224,
223,
223,
223,
223,
224,
224,
221,
221,
223,
223,
223,
223,
222,
222,
224,
224,
223,
223,
223,
223,
223,
223,
224,
224,
224,
224,
225,
225,
222,
222,
223,
223,
223,
223,
224,
224,
224,
224,
224,
224,
225,
225,
225,
225,
224,
224,
223,
223,
225,
225,
224,
224,
223,
223,
224,
224,
224,
224,
224,
224,
225,
225,
225,
225,
225,
225,
225,
225,
225,
225,
226,
226,
225,
225,
223,
223,
225,
225,
224,
224,
225,
225,
225,
225,
226,
226,
225,
225,
226,
226,
226,
226,
224,
224,
225,
225,
226,
226,
226,
226,
225,
225,
225,
225,
225,
225,
226,
226,
226,
226,
228,
228,
226,
226,
226,
226,
226,
226,
226,
226,
226,
226,
226,
226,
225,
225,
225,
225,
226,
226,
225,
225,
226,
226,
225,
225,
226,
226,
226,
226,
227,
227,
226,
226,
227,
227,
227,
227,
226,
226,
227,
227,
227,
227,
228,
228,
227,
227,
228,
228,
227,
227,
226,
226,
228,
228,
228,
228,
226,
226,
228,
228,
229,
229,
228,
228,
227,
227,
228,
228,
229,
229,
226,
226,
227,
227,
228,
228,
228,
228,
227,
227,
226,
226,
227,
227,
227,
227,
228,
228,
229,
229,
228,
228,
227,
227,
229,
229,
228,
228,
229,
229,
228,
228,
229,
229,
226,
226,
227,
227,
228,
228,
229,
229,
229,
229,
228,
228,
230,
230,
229,
229,
228,
228,
229,
229,
229,
229,
229,
229,
228,
228,
229,
229,
228,
228,
227,
227,
228,
228,
229,
229,
229,
229,
229,
229,
230,
230,
229,
229,
230,
230,
229,
229,
228,
228,
230,
230,
231,
231,
229,
229,
229,
229,
230,
230,
230,
230,
229,
229,
232,
232,
230,
230,
230,
230,
229,
229,
230,
230,
231,
231,
229,
229,
229,
229,
230,
230,
231,
231,
230,
230,
230,
230,
231,
231,
231,
231,
231,
231,
231,
231,
229,
229,
231,
231,
231,
231,
230,
230,
230,
230,
231,
231,
231,
231,
230,
230,
231,
231,
231,
231,
230,
230,
230,
230,
231,
231,
232,
232,
231,
231,
232,
232,
232,
232,
232,
232,
232,
232,
233,
233,
232,
232,
231,
231,
231,
231,
231,
231,
230,
230,
231,
231,
233,
233,
232,
232,
234,
234,
232,
232,
231,
231,
232,
232,
232,
232,
233,
233,
232,
232,
233,
233,
233,
233,
232,
232,
232,
232,
233,
233,
233,
233,
235,
235,
231,
231,
233,
233,
233,
233,
233,
233,
233,
233,
232,
232,
233,
233,
234,
234,
233,
233,
233,
233,
235,
235,
233,
233,
233,
233,
234,
234,
233,
233,
233,
233,
234,
234,
234,
234,
233,
233,
235,
235,
234,
234,
234,
234,
234,
234,
234,
234,
235,
235,
234,
234,
235,
235,
235,
235,
234,
234,
234,
234,
235,
235,
235,
235,
235,
235,
235,
235,
235,
235,
235,
235,
234,
234,
236,
236,
235,
235,
235,
235,
235,
235,
236,
236,
234,
234,
235,
235,
235,
235,
235,
235,
236,
236,
237,
237,
236,
236,
235,
235,
235,
235,
236,
236,
236,
236,
235,
235,
236,
236,
236,
236,
236,
236,
237,
237,
236,
236,
237,
237,
236,
236,
237,
237,
235,
235,
237,
237,
236,
236,
238,
238,
236,
236,
236,
236,
237,
237,
236,
236,
238,
238,
238,
238,
237,
237,
237,
237,
237,
237,
236,
236,
238,
238,
238,
238,
237,
237,
237,
237,
238,
238,
237,
237,
237,
237,
238,
238,
237,
237,
237,
237,
236,
236,
238,
238,
237,
237,
237,
237,
238,
238,
239,
239,
238,
238,
238,
238,
237,
237,
238,
238,
238,
238,
238,
238,
238,
238,
238,
238,
238,
238,
239,
239,
238,
238,
238,
238,
239,
239,
239,
239,
238,
238,
239,
239,
239,
239,
239,
239,
239,
239,
239,
239,
240,
240,
240,
240,
238,
238,
239,
239,
239,
239,
240,
240,
239,
239,
240,
240,
239,
239,
240,
240,
240,
240,
238,
238,
240,
240,
239,
239,
240,
240,
239,
239,
241,
241,
240,
240,
240,
240,
239,
239,
240,
240,
241,
241,
241,
241,
242,
242,
241,
241,
240,
240,
241,
241,
242,
242,
241,
241,
240,
240,
241,
241,
241,
241,
240,
240,
242,
242,
242,
242,
240,
240,
241,
241,
241,
241,
241,
241,
242,
242,
242,
242,
241,
241,
241,
241,
243,
243,
241,
241,
241,
241,
243,
243,
243,
243,
241,
241,
242,
242,
241,
241,
242,
242,
242,
242,
242,
242,
242,
242,
242,
242,
242,
242,
242,
242,
243,
243,
242,
242,
242,
242,
243,
243,
241,
241,
242,
242,
243,
243,
243,
243,
243,
243,
244,
244,
242,
242,
244,
244,
244,
244,
243,
243,
243,
243,
243,
243,
243,
243,
244,
244,
243,
243,
242,
242,
243,
243,
243,
243,
244,
244,
244,
244,
243,
243,
243,
243,
245,
245,
243,
243,
244,
244,
243,
243,
244,
244,
244,
244,
244,
244,
243,
243,
245,
245,
244,
244,
244,
244,
244,
244,
244,
244,
244,
244,
245,
245,
245,
245,
245,
245,
244,
244,
245,
245,
244,
244,
244,
244,
245,
245,
246,
246,
243,
243,
244,
244,
244,
244,
244,
244,
244,
244,
246,
246,
244,
244,
245,
245,
243,
243,
246,
246,
246,
246,
246,
246,
245,
245,
245,
245,
245,
245,
245,
245,
246,
246,
244,
244,
246,
246,
246,
246,
245,
245,
246,
246,
247,
247,
247,
247,
246,
246,
245,
245,
246,
246,
246,
246,
247,
247,
245,
245,
246,
246,
246,
246,
246,
246,
247,
247,
246,
246,
246,
246,
246,
246,
246,
246,
248,
248,
247,
247,
248,
248,
247,
247,
246,
246,
246,
246,
248,
248,
247,
247,
248,
248,
246,
246,
249,
249,
249,
249,
247,
247,
247,
247,
247,
247,
247,
247,
248,
248,
247,
247,
247,
247,
248,
248,
248,
248,
249,
249,
247,
247,
247,
247,
248,
248,
249,
249,
248,
248,
249,
249,
248,
248,
249,
249,
247,
247,
248,
248,
248,
248,
248,
248,
248,
248,
250,
250,
248,
248,
249,
249,
250,
250,
249,
249,
249,
249,
250,
250,
249,
249,
250,
250,
250,
250,
250,
250,
248,
248,
251,
251,
251,
251,
249,
249,
250,
250,
250,
250,
250,
250,
250,
250,
249,
249,
251,
251,
250,
250,
250,
250,
249,
249,
251,
251,
250,
250,
250,
250,
251,
251,
251,
251,
250,
250,
251,
251,
251,
251,
251,
251,
251,
251,
250,
250,
252,
252,
250,
250,
251,
251,
251,
251,
251,
251,
250,
250,
251,
251,
252,
252,
250,
250,
252,
252,
251,
251,
252,
252,
251,
251,
252,
252,
251,
251,
251,
251,
251,
251,
252,
252,
252,
252,
252,
252,
251,
251,
251,
251,
252,
252,
253,
253,
252,
252,
253,
253,
252,
252,
253,
253,
252,
252,
252,
252,
252,
252,
254,
254,
252,
252,
253,
253,
252,
252,
253,
253,
252,
252,
252,
252,
253,
253,
253,
253,
254,
254,
254,
254,
253,
253,
254,
254,
253,
253,
254,
254,
254,
254,
253,
253,
253,
253,
254,
254,
253,
253,
254,
254,
252,
252,
254,
254,
254,
254,
254,
254,
254,
254,
254,
254,
255,
255,
253,
253,
254,
254,
253,
253,
255,
255,
254,
254,
254,
254,
254,
254,
255,
255,
254,
254,
256,
256,
254,
254,
255,
255,
255,
255,
256,
256,
255,
255,
254,
254,
256,
256,
255,
255,
254,
254,
256,
256,
253,
253,
254,
254,
255,
255,
255,
255,
255,
255,
255,
255,
257,
257,
256,
256,
255,
255,
254,
254,
256,
256,
257,
257,
256,
256,
256,
256,
256,
256,
254,
254,
256,
256,
256,
256,
256,
256,
256,
256,
256,
256,
256,
256,
256,
256,
256,
256,
256,
256,
257,
257,
256,
256,
257,
257,
257,
257,
257,
257,
256,
256,
258,
258,
256,
256,
256,
256,
258,
258,
256,
256,
257,
257,
257,
257,
257,
257,
257,
257,
257,
257,
258,
258,
257,
257,
258,
258,
257,
257,
257,
257,
258,
258,
257,
257,
257,
257,
257,
257,
257,
257,
258,
258,
259,
259,
259,
259,
258,
258,
256,
256,
257,
257,
258,
258,
257,
257,
259,
259,
258,
258,
258,
258,
258,
258,
257,
257,
259,
259,
257,
257,
259,
259,
258,
258,
259,
259,
259,
259,
259,
259,
259,
259,
259,
259,
259,
259,
258,
258,
258,
258,
258,
258,
258,
258,
259,
259,
260,
260,
258,
258,
259,
259,
259,
259,
259,
259,
260,
260,
260,
260,
258,
258,
260,
260,
260,
260,
261,
261,
260,
260,
258,
258,
261,
261,
261,
261,
261,
261,
260,
260,
262,
262,
261,
261,
259,
259,
260,
260,
260,
260,
261,
261,
261,
261,
259,
259,
261,
261,
260,
260,
261,
261,
261,
261,
261,
261,
262,
262,
260,
260,
261,
261,
262,
262,
261,
261,
260,
260,
262,
262,
262,
262,
260,
260,
262,
262,
261,
261,
261,
261,
263,
263,
261,
261,
262,
262,
262,
262,
261,
261,
261,
261,
263,
263,
262,
262,
263,
263,
261,
261,
261,
261,
262,
262,
262,
262,
262,
262,
262,
262,
263,
263,
262,
262,
263,
263,
262,
262,
263,
263,
262,
262,
263,
263,
264,
264,
263,
263,
264,
264,
263,
263,
263,
263,
263,
263,
263,
263,
262,
262,
263,
263,
262,
262,
263,
263,
263,
263,
262,
262,
264,
264,
263,
263,
263,
263,
263,
263,
263,
263,
262,
262,
264,
264,
263,
263,
264,
264,
263,
263,
264,
264,
263,
263,
263,
263,
264,
264,
264,
264,
264,
264,
263,
263,
264,
264,
264,
264,
265,
265,
264,
264,
265,
265,
265,
265,
264,
264,
264,
264,
265,
265,
264,
264,
264,
264,
265,
265,
263,
263,
265,
265,
265,
265,
265,
265,
264,
264,
264,
264,
265,
265,
264,
264,
265,
265,
263,
263,
265,
265,
267,
267,
265,
265,
265,
265,
264,
264,
266,
266,
265,
265,
265,
265,
265,
265,
267,
267,
265,
265,
264,
264,
264,
264,
265,
265,
266,
266,
264,
264,
265,
265,
265,
265,
264,
264,
266,
266,
265,
265,
266,
266,
267,
267,
266,
266,
267,
267,
266,
266,
267,
267,
266,
266,
267,
267,
267,
267,
267,
267,
266,
266,
267,
267,
266,
266,
268,
268,
267,
267,
266,
266,
267,
267,
267,
267,
266,
266,
268,
268,
268,
268,
268,
268,
266,
266,
267,
267,
268,
268,
267,
267,
267,
267,
267,
267,
268,
268,
268,
268,
268,
268,
268,
268,
268,
268,
268,
268,
268,
268,
268,
268,
269,
269,
268,
268,
269,
269,
269,
269,
270,
270,
268,
268,
268,
268,
268,
268,
268,
268,
269,
269,
268,
268,
269,
269,
268,
268,
270,
270,
268,
268,
270,
270,
269,
269,
269,
269,
270,
270,
269,
269,
270,
270,
269,
269,
270,
270,
270,
270,
270,
270,
269,
269,
269,
269,
270,
270,
270,
270,
271,
271,
269,
269,
269,
269,
270,
270,
271,
271,
270,
270,
270,
270,
271,
271,
270,
270,
269,
269,
270,
270,
270,
270,
271,
271,
269,
269,
270,
270,
270,
270,
271,
271,
271,
271,
270,
270,
270,
270,
270,
270,
271,
271,
271,
271,
271,
271,
271,
271,
271,
271,
271,
271,
271,
271,
270,
270,
272,
272,
271,
271,
272,
272,
271,
271,
271,
271,
271,
271,
271,
271,
272,
272,
272,
272,
271,
271,
272,
272,
272,
272,
272,
272,
271,
271,
271,
271,
271,
271,
272,
272,
272,
272,
272,
272,
271,
271,
271,
271,
272,
272,
270,
270,
273,
273,
271,
271,
273,
273,
272,
272,
273,
273,
272,
272,
273,
273,
273,
273,
273,
273,
272,
272,
272,
272,
274,
274,
273,
273,
273,
273,
273,
273,
273,
273,
273,
273,
272,
272,
273,
273,
273,
273,
273,
273,
273,
273,
273,
273,
274,
274,
273,
273,
273,
273,
274,
274,
273,
273,
273,
273,
273,
273,
275,
275,
273,
273,
272,
272,
272,
272,
274,
274,
274,
274,
273,
273,
274,
274,
275,
275,
274,
274,
273,
273,
273,
273,
273,
273,
274,
274,
276,
276,
273,
273,
274,
274,
274,
274,
274,
274,
275,
275,
273,
273,
275,
275,
275,
275,
275,
275,
274,
274,
274,
274,
274,
274,
276,
276,
275,
275,
277,
277,
275,
275,
274,
274,
276,
276,
275,
275,
276,
276,
276,
276,
275,
275,
275,
275,
275,
275,
276,
276,
276,
276,
276,
276,
275,
275,
276,
276,
275,
275,
276,
276,
275,
275,
277,
277,
276,
276,
276,
276,
276,
276,
276,
276,
276,
276,
276,
276,
277,
277,
277,
277,
277,
277,
276,
276,
277,
277,
277,
277,
277,
277,
277,
277,
278,
278,
277,
277,
277,
277,
277,
277,
276,
276,
276,
276,
277,
277,
276,
276,
277,
277,
277,
277,
277,
277,
278,
278,
278,
278,
276,
276,
278,
278,
278,
278,
279,
279,
278,
278,
278,
278,
278,
278,
278,
278,
279,
279,
278,
278,
278,
278,
279,
279,
278,
278,
278,
278,
279,
279,
279,
279,
278,
278,
279,
279,
278,
278,
280,
280,
279,
279,
278,
278,
279,
279,
278,
278,
279,
279,
279,
279,
280,
280,
279,
279,
279,
279,
280,
280,
280,
280,
280,
280,
279,
279,
280,
280,
280,
280,
281,
281,
280,
280,
280,
280,
280,
280,
279,
279,
279,
279,
278,
278,
280,
280,
279,
279,
279,
279,
281,
281,
280,
280,
280,
280,
279,
279,
279,
279,
279,
279,
280,
280,
280,
280,
279,
279,
280,
280,
280,
280,
280,
280,
281,
281,
280,
280,
281,
281,
280,
280,
281,
281,
281,
281,
282,
282,
282,
282,
280,
280,
280,
280,
281,
281,
280,
280,
281,
281,
280,
280,
281,
281,
281,
281,
283,
283,
280,
280,
281,
281,
281,
281,
281,
281,
282,
282,
282,
282,
283,
283,
282,
282,
282,
282,
280,
280,
284,
284,
282,
282,
281,
281,
283,
283,
283,
283,
283,
283,
286,
286,
282,
282,
282,
282,
281,
281,
284,
284,
282,
282,
283,
283,
283,
283,
283,
283,
281,
281,
284,
284,
283,
283,
283,
