1-signale-auf-leitern/tag_1_daten/daten_versuch0/data_b/ALL0002/A0002CH1.CSV

Memory Length,4000,
Trigger Level,4.00000e+00,
Source,CH1,
Probe,1.0X,
Vertical Units,V,
Vertical Scale,5.00000e+00,
Vertical Position,0.00000e+00,
Horizontal Units,S,
Horizontal Scale,5.00000e-09,
Horizontal Position,2.2000000e-09,
Horizontal Mode,Main,
Sampling Period,2.00000e-10,
Firmware,V1.14,
Time, ,
Mode,Fast,
Waveform Data,
47,
47,
47,
47,
47,
47,
47,
47,
47,
47,
48,
47,
47,
47,
47,
47,
47,
47,
47,
47,
47,
47,
47,
47,
47,
47,
47,
47,
47,
47,
47,
48,
47,
47,
47,
47,
48,
47,
47,
48,
47,
47,
47,
47,
47,
47,
47,
47,
47,
47,
48,
47,
47,
48,
47,
47,
47,
47,
47,
47,
48,
47,
47,
47,
47,
47,
47,
47,
47,
47,
47,
47,
47,
47,
48,
47,
48,
47,
47,
47,
47,
47,
47,
47,
47,
47,
47,
47,
47,
47,
48,
47,
47,
48,
47,
47,
47,
47,
47,
47,
47,
47,
47,
48,
47,
48,
48,
47,
47,
47,
47,
47,
47,
47,
48,
48,
47,
47,
48,
47,
47,
47,
47,
47,
47,
47,
47,
48,
47,
47,
47,
47,
47,
47,
47,
47,
47,
47,
47,
47,
47,
47,
47,
47,
47,
47,
47,
47,
47,
47,
47,
48,
47,
47,
48,
48,
48,
48,
47,
48,
47,
47,
47,
47,
47,
47,
47,
48,
47,
47,
48,
47,
47,
48,
48,
47,
47,
47,
47,
47,
47,
47,
47,
47,
47,
47,
47,
47,
47,
47,
48,
47,
48,
47,
47,
47,
47,
48,
47,
47,
47,
47,
47,
47,
47,
48,
47,
47,
47,
47,
48,
47,
47,
47,
47,
47,
47,
47,
47,
47,
47,
47,
47,
47,
47,
47,
47,
47,
47,
47,
47,
48,
47,
47,
48,
48,
47,
48,
48,
47,
47,
48,
47,
47,
47,
48,
47,
47,
47,
47,
47,
47,
47,
47,
47,
47,
47,
47,
47,
47,
47,
47,
47,
47,
47,
47,
47,
46,
47,
47,
47,
48,
47,
47,
47,
48,
48,
47,
48,
47,
47,
47,
47,
47,
47,
47,
47,
47,
48,
47,
48,
47,
48,
48,
47,
47,
47,
47,
47,
47,
47,
47,
47,
48,
47,
47,
47,
47,
47,
47,
47,
48,
47,
47,
48,
47,
47,
47,
47,
48,
48,
47,
47,
47,
47,
47,
47,
47,
47,
47,
48,
48,
47,
48,
47,
47,
47,
47,
47,
47,
47,
47,
47,
47,
47,
47,
47,
47,
47,
47,
47,
48,
48,
47,
47,
47,
47,
47,
47,
48,
47,
47,
47,
47,
48,
48,
48,
47,
47,
48,
48,
47,
47,
48,
47,
47,
47,
47,
47,
47,
48,
47,
47,
47,
47,
47,
47,
47,
47,
47,
47,
47,
47,
47,
48,
48,
48,
47,
48,
48,
48,
47,
47,
47,
47,
48,
48,
49,
48,
47,
47,
47,
47,
47,
47,
47,
47,
47,
48,
47,
47,
47,
47,
47,
47,
47,
47,
47,
47,
47,
47,
48,
48,
48,
47,
47,
47,
47,
47,
48,
47,
48,
47,
47,
47,
47,
47,
47,
47,
47,
48,
47,
47,
47,
48,
47,
47,
47,
47,
47,
48,
47,
47,
47,
47,
47,
47,
47,
47,
47,
47,
48,
47,
47,
47,
47,
48,
47,
47,
47,
48,
47,
48,
47,
47,
48,
47,
47,
47,
47,
48,
47,
47,
47,
47,
47,
47,
47,
47,
47,
47,
47,
47,
47,
47,
47,
47,
47,
47,
47,
47,
48,
47,
47,
47,
48,
47,
47,
48,
47,
47,
48,
47,
48,
47,
47,
47,
47,
47,
47,
48,
47,
47,
48,
47,
47,
47,
47,
47,
47,
48,
47,
47,
47,
47,
47,
47,
47,
47,
47,
48,
47,
47,
47,
47,
48,
47,
47,
47,
48,
48,
47,
47,
47,
47,
47,
47,
48,
48,
48,
48,
47,
47,
48,
47,
47,
47,
47,
47,
47,
47,
47,
47,
47,
47,
47,
47,
47,
47,
47,
47,
47,
48,
47,
48,
47,
47,
47,
48,
48,
47,
47,
47,
47,
47,
47,
47,
47,
48,
47,
48,
47,
47,
47,
47,
47,
47,
47,
47,
47,
47,
47,
47,
47,
47,
47,
47,
47,
47,
47,
47,
47,
47,
47,
48,
48,
47,
48,
48,
48,
47,
48,
48,
47,
47,
47,
47,
47,
47,
47,
47,
47,
47,
47,
48,
47,
47,
47,
47,
47,
47,
47,
47,
48,
47,
47,
47,
47,
47,
47,
47,
47,
47,
48,
47,
47,
47,
48,
47,
47,
47,
47,
46,
47,
47,
47,
47,
48,
47,
47,
47,
47,
47,
47,
47,
47,
47,
47,
47,
47,
47,
47,
47,
47,
47,
46,
47,
47,
47,
47,
47,
47,
48,
47,
48,
47,
47,
47,
47,
46,
46,
45,
45,
45,
44,
43,
43,
42,
42,
42,
41,
38,
38,
37,
34,
34,
33,
32,
31,
30,
27,
22,
21,
19,
16,
15,
13,
13,
11,
10,
7,
1,
0,
-1,
-5,
-6,
-8,
-9,
-10,
-11,
-14,
-19,
-19,
-21,
-24,
-24,
-25,
-26,
-26,
-27,
-28,
-30,
-30,
-31,
-33,
-33,
-33,
-33,
-33,
-33,
-33,
-34,
-34,
-35,
-36,
-36,
-36,
-36,
-36,
-36,
-35,
-36,
-36,
-36,
-37,
-38,
-38,
-38,
-38,
-38,
-38,
-40,
-40,
-42,
-43,
-43,
-44,
-44,
-45,
-45,
-46,
-48,
-48,
-49,
-50,
-50,
-50,
-50,
-50,
-51,
-52,
-54,
-54,
-55,
-56,
-56,
-56,
-56,
-56,
-56,
-55,
-56,
-55,
-55,
-54,
-55,
-54,
-54,
-54,
-54,
-54,
-53,
-54,
-54,
-52,
-53,
-53,
-51,
-52,
-51,
-51,
-50,
-50,
-50,
-49,
-50,
-50,
-49,
-49,
-49,
-49,
-50,
-50,
-50,
-51,
-51,
-52,
-52,
-52,
-52,
-51,
-52,
-52,
-52,
-53,
-53,
-54,
-54,
-54,
-54,
-55,
-56,
-56,
-56,
-56,
-55,
-56,
-56,
-56,
-57,
-57,
-56,
-55,
-55,
-55,
-55,
-55,
-55,
-54,
-54,
-54,
-54,
-54,
-54,
-54,
-54,
-54,
-54,
-53,
-53,
-52,
-52,
-52,
-52,
-52,
-52,
-52,
-53,
-53,
-52,
-51,
-52,
-52,
-52,
-53,
-53,
-52,
-52,
-52,
-52,
-53,
-53,
-53,
-53,
-53,
-53,
-54,
-53,
-53,
-53,
-54,
-55,
-55,
-55,
-55,
-55,
-55,
-56,
-56,
-56,
-56,
-54,
-54,
-54,
-53,
-54,
-54,
-54,
-53,
-53,
-54,
-54,
-54,
-55,
-53,
-53,
-53,
-53,
-53,
-53,
-52,
-53,
-53,
-53,
-53,
-53,
-53,
-53,
-53,
-53,
-53,
-53,
-53,
-53,
-53,
-53,
-53,
-53,
-54,
-54,
-53,
-54,
-54,
-53,
-54,
-54,
-54,
-54,
-54,
-54,
-54,
-54,
-54,
-55,
-54,
-54,
-54,
-54,
-54,
-54,
-54,
-53,
-53,
-54,
-54,
-53,
-53,
-53,
-53,
-53,
-54,
-55,
-54,
-53,
-54,
-54,
-54,
-54,
-54,
-54,
-53,
-53,
-53,
-53,
-53,
-52,
-52,
-52,
-53,
-52,
-53,
-53,
-53,
-53,
-53,
-53,
-53,
-53,
-53,
-53,
-53,
-53,
-54,
-54,
-53,
-54,
-53,
-54,
-53,
-54,
-55,
-54,
-54,
-54,
-54,
-54,
-54,
-54,
-54,
-54,
-53,
-53,
-53,
-53,
-54,
-54,
-54,
-54,
-54,
-54,
-54,
-54,
-54,
-53,
-53,
-53,
-53,
-53,
-54,
-54,
-54,
-53,
-53,
-53,
-53,
-53,
-52,
-52,
-53,
-53,
-53,
-54,
-54,
-53,
-54,
-54,
-54,
-54,
-54,
-54,
-53,
-54,
-54,
-53,
-53,
-53,
-53,
-54,
-54,
-54,
-54,
-55,
-55,
-54,
-53,
-54,
-54,
-54,
-54,
-54,
-54,
-54,
-54,
-54,
-53,
-54,
-53,
-54,
-53,
-54,
-54,
-54,
-54,
-53,
-54,
-54,
-54,
-54,
-54,
-54,
-53,
-53,
-53,
-53,
-53,
-53,
-53,
-54,
-54,
-54,
-54,
-53,
-53,
-53,
-53,
-54,
-54,
-53,
-53,
-53,
-53,
-53,
-54,
-53,
-53,
-53,
-54,
-53,
-53,
-54,
-54,
-54,
-54,
-54,
-53,
-53,
-53,
-53,
-54,
-54,
-54,
-54,
-54,
-54,
-54,
-54,
-54,
-54,
-54,
-54,
-53,
-53,
-53,
-54,
-53,
-53,
-54,
-54,
-54,
-53,
-54,
-53,
-53,
-53,
-52,
-53,
-53,
-53,
-53,
-53,
-53,
-54,
-54,
-53,
-54,
-54,
-54,
-54,
-55,
-54,
-53,
-53,
-53,
-53,
-53,
-53,
-53,
-53,
-53,
-53,
-54,
-54,
-53,
-53,
-53,
-54,
-54,
-54,
-54,
-53,
-53,
-53,
-53,
-53,
-53,
-53,
-53,
-53,
-53,
-53,
-54,
-53,
-53,
-54,
-53,
-54,
-54,
-54,
-54,
-53,
-53,
-54,
-54,
-53,
-53,
-53,
-53,
-53,
-53,
-53,
-53,
-53,
-53,
-54,
-53,
-53,
-53,
-54,
-54,
-54,
-54,
-53,
-53,
-54,
-54,
-53,
-53,
-53,
-53,
-53,
-53,
-54,
-54,
-54,
-54,
-53,
-53,
-53,
-54,
-54,
-53,
-53,
-53,
-53,
-53,
-55,
-54,
-54,
-53,
-53,
-54,
-53,
-54,
-54,
-53,
-53,
-53,
-53,
-53,
-54,
-54,
-53,
-54,
-54,
-53,
-53,
-53,
-53,
-53,
-53,
-53,
-54,
-54,
-54,
-54,
-54,
-54,
-54,
-54,
-54,
-53,
-53,
-53,
-53,
-53,
-53,
-53,
-53,
-53,
-53,
-53,
-53,
-54,
-54,
-53,
-53,
-53,
-53,
-53,
-53,
-53,
-53,
-53,
-54,
-53,
-53,
-53,
-53,
-53,
-53,
-53,
-54,
-53,
-53,
-54,
-54,
-54,
-53,
-53,
-54,
-53,
-53,
-53,
-53,
-53,
-53,
-53,
-53,
-54,
-53,
-54,
-54,
-53,
-54,
-54,
-54,
-53,
-53,
-53,
-53,
-53,
-53,
-53,
-54,
-53,
-53,
-53,
-53,
-53,
-53,
-53,
-53,
-53,
-54,
-54,
-53,
-53,
-54,
-54,
-54,
-53,
-54,
-53,
-53,
-53,
-53,
-53,
-54,
-53,
-53,
-53,
-53,
-53,
-53,
-53,
-54,
-54,
-54,
-53,
-53,
-53,
-53,
-54,
-54,
-53,
-53,
-53,
-53,
-53,
-53,
-53,
-54,
-54,
-54,
-54,
-54,
-54,
-54,
-54,
-54,
-53,
-53,
-53,
-53,
-53,
-53,
-53,
-53,
-52,
-53,
-53,
-53,
-53,
-54,
-54,
-53,
-52,
-53,
-53,
-54,
-54,
-53,
-53,
-53,
-53,
-53,
-53,
-53,
-53,
-53,
-53,
-53,
-53,
-53,
-54,
-54,
-54,
-54,
-54,
-53,
-52,
-53,
-53,
-53,
-53,
-53,
-53,
-54,
-54,
-54,
-53,
-53,
-53,
-54,
-53,
-53,
-53,
-54,
-53,
-54,
-54,
-54,
-53,
-54,
-53,
-53,
-53,
-53,
-53,
-53,
-53,
-54,
-53,
-53,
-54,
-54,
-53,
-54,
-53,
-54,
-54,
-54,
-53,
-54,
-54,
-53,
-53,
-53,
-53,
-54,
-54,
-53,
-54,
-54,
-54,
-54,
-54,
-54,
-53,
-53,
-53,
-53,
-53,
-53,
-53,
-53,
-53,
-53,
-53,
-53,
-54,
-54,
-54,
-54,
-53,
-53,
-54,
-53,
-53,
-53,
-53,
-53,
-53,
-53,
-53,
-53,
-53,
-54,
-54,
-54,
-54,
-54,
-54,
-54,
-53,
-53,
-53,
-53,
-53,
-53,
-53,
-53,
-53,
-53,
-53,
-53,
-53,
-53,
-53,
-53,
-53,
-54,
-53,
-53,
-54,
-54,
-53,
-53,
-54,
-53,
-53,
-53,
-53,
-52,
-52,
-52,
-53,
-53,
-52,
-53,
-53,
-53,
-53,
-53,
-53,
-53,
-53,
-53,
-53,
-53,
-53,
-53,
-53,
-53,
-53,
-53,
-52,
-53,
-53,
-52,
-53,
-53,
-54,
-53,
-53,
-54,
-55,
-54,
-54,
-54,
-54,
-54,
-53,
-53,
-53,
-53,
-53,
-53,
-53,
-54,
-54,
-54,
-53,
-54,
-53,
-54,
-54,
-53,
-53,
-53,
-53,
-54,
-54,
-53,
-53,
-53,
-53,
-53,
-53,
-53,
-53,
-54,
-54,
-53,
-54,
-54,
-54,
-53,
-54,
-54,
-53,
-53,
-53,
-53,
-53,
-53,
-54,
-54,
-53,
-54,
-54,
-53,
-53,
-54,
-54,
-53,
-52,
-53,
-53,
-53,
-53,
-52,
-53,
-53,
-53,
-53,
-53,
-53,
-53,
-53,
-53,
-53,
-53,
-54,
-54,
-54,
-54,
-54,
-54,
-54,
-53,
-53,
-53,
-53,
-53,
-53,
-53,
-52,
-53,
-53,
-53,
-53,
-53,
-53,
-53,
-53,
-54,
-54,
-54,
-54,
-54,
-53,
-54,
-54,
-53,
-53,
-53,
-53,
-53,
-53,
-53,
-53,
-54,
-54,
-54,
-54,
-53,
-54,
-54,
-54,
-53,
-53,
-53,
-53,
-53,
-53,
-53,
-53,
-53,
-54,
-54,
-54,
-53,
-54,
-54,
-53,
-52,
-53,
-53,
-53,
-53,
-53,
-52,
-53,
-53,
-53,
-53,
-53,
-53,
-53,
-53,
-54,
-54,
-53,
-54,
-53,
-54,
-53,
-54,
-54,
-53,
-53,
-53,
-53,
-53,
-53,
-53,
-54,
-54,
-53,
-53,
-53,
-54,
-54,
-53,
-53,
-53,
-53,
-53,
-53,
-53,
-53,
-53,
-53,
-53,
-53,
-53,
-53,
-53,
-53,
-53,
-54,
-54,
-53,
-54,
-53,
-53,
-53,
-54,
-54,
-54,
-54,
-53,
-53,
-53,
-53,
-53,
-53,
-53,
-54,
-54,
-54,
-53,
-54,
-54,
-53,
-53,
-53,
-53,
-53,
-53,
-53,
-53,
-53,
-53,
-53,
-53,
-53,
-53,
-53,
-53,
-54,
-54,
-53,
-54,
-54,
-54,
-54,
-54,
-54,
-53,
-53,
-53,
-52,
-53,
-53,
-53,
-53,
-53,
-54,
-54,
-54,
-53,
-53,
-52,
-53,
-53,
-53,
-53,
-53,
-53,
-53,
-53,
-53,
-52,
-53,
-52,
-52,
-51,
-51,
-52,
-52,
-52,
-51,
-51,
-50,
-49,
-47,
-47,
-46,
-45,
-44,
-44,
-42,
-41,
-39,
-38,
-37,
-37,
-36,
-34,
-29,
-28,
-26,
-22,
-21,
-20,
-18,
-16,
-15,
-14,
-9,
-9,
-6,
-3,
-1,
1,
2,
4,
5,
7,
11,
11,
13,
16,
17,
18,
19,
20,
21,
22,
25,
25,
26,
27,
28,
29,
29,
29,
30,
31,
32,
32,
33,
34,
34,
34,
34,
35,
34,
33,
35,
35,
36,
37,
37,
37,
37,
37,
37,
38,
39,
39,
39,
39,
40,
40,
40,
40,
40,
41,
43,
42,
42,
43,
43,
43,
43,
44,
45,
45,
46,
45,
46,
46,
47,
47,
46,
47,
47,
48,
47,
47,
48,
47,
47,
47,
48,
48,
48,
48,
48,
48,
48,
49,
48,
48,
47,
47,
47,
47,
47,
48,
47,
47,
48,
48,
48,
48,
47,
47,
47,
47,
47,
48,
48,
49,
48,
48,
48,
48,
48,
48,
48,
48,
48,
48,
48,
48,
48,
49,
48,
48,
49,
48,
49,
49,
49,
49,
49,
49,
49,
49,
49,
49,
49,
49,
49,
48,
49,
49,
49,
49,
49,
49,
48,
49,
49,
49,
49,
49,
48,
48,
49,
48,
48,
48,
47,
47,
48,
47,
47,
48,
48,
47,
47,
47,
47,
48,
48,
48,
48,
48,
48,
49,
49,
49,
48,
49,
49,
48,
48,
49,
48,
48,
48,
49,
48,
48,
49,
48,
48,
49,
49,
48,
47,
48,
47,
47,
48,
49,
48,
48,
48,
48,
48,
48,
47,
47,
47,
47,
48,
48,
48,
48,
48,
49,
48,
48,
49,
48,
47,
47,
47,
48,
48,
49,
48,
48,
48,
48,
48,
48,
48,
47,
47,
47,
47,
47,
47,
47,
47,
47,
47,
47,
47,
47,
47,
47,
47,
47,
48,
48,
47,
48,
48,
48,
48,
48,
48,
48,
47,
47,
47,
48,
47,
48,
47,
47,
47,
47,
47,
47,
47,
47,
47,
47,
47,
47,
47,
47,
47,
47,
47,
47,
47,
47,
47,
47,
47,
47,
48,
47,
47,
48,
48,
48,
47,
47,
47,
47,
47,
47,
47,
47,
47,
47,
47,
48,
48,
47,
47,
47,
47,
47,
47,
47,
47,
47,
47,
47,
47,
47,
47,
47,
47,
47,
47,
47,
47,
47,
47,
47,
47,
47,
48,
48,
47,
47,
47,
47,
47,
47,
47,
47,
48,
47,
47,
47,
47,
47,
47,
47,
47,
47,
47,
47,
47,
47,
47,
47,
47,
47,
48,
47,
47,
47,
47,
47,
47,
47,
48,
47,
47,
47,
48,
49,
48,
48,
48,
47,
47,
48,
47,
47,
47,
47,
47,
47,
48,
47,
47,
47,
47,
47,
47,
47,
47,
47,
47,
47,
47,
47,
47,
47,
47,
47,
47,
47,
47,
48,
48,
48,
47,
47,
47,
48,
47,
48,
47,
47,
47,
47,
47,
47,
47,
47,
47,
47,
47,
48,
47,
47,
47,
47,
47,
47,
47,
47,
46,
47,
47,
47,
47,
47,
47,
47,
47,
47,
47,
47,
47,
48,
47,
48,
47,
47,
48,
48,
47,
47,
47,
47,
47,
48,
47,
47,
47,
47,
47,
48,
47,
47,
48,
47,
47,
47,
47,
47,
47,
47,
47,
47,
47,
47,
47,
47,
47,
47,
47,
47,
47,
48,
47,
48,
47,
48,
47,
47,
47,
47,
47,
47,
47,
48,
47,
47,
47,
47,
47,
47,
47,
47,
48,
47,
47,
47,
47,
47,
47,
47,
47,
47,
48,
47,
47,
47,
47,
47,
47,
47,
48,
48,
47,
47,
48,
47,
47,
48,
47,
47,
48,
47,
47,
47,
47,
47,
47,
48,
47,
47,
48,
47,
47,
47,
47,
47,
47,
47,
47,
47,
47,
47,
47,
47,
47,
47,
47,
47,
47,
47,
48,
48,
47,
48,
48,
48,
47,
48,
47,
47,
47,
47,
47,
47,
47,
48,
48,
49,
48,
48,
47,
47,
48,
47,
47,
47,
47,
47,
47,
48,
47,
47,
47,
47,
47,
47,
47,
47,
47,
47,
48,
47,
47,
47,
47,
47,
48,
48,
48,
47,
47,
47,
47,
47,
47,
47,
47,
48,
48,
48,
47,
48,
48,
47,
47,
47,
47,
47,
47,
47,
47,
47,
47,
47,
47,
47,
47,
47,
47,
47,
47,
47,
47,
48,
48,
48,
48,
48,
48,
47,
47,
47,
47,
47,
47,
47,
47,
48,
47,
47,
47,
47,
48,
47,
47,
47,
47,
47,
47,
47,
47,
47,
47,
47,
47,
47,
47,
47,
47,
47,
48,
48,
48,
48,
48,
47,
47,
47,
48,
48,
47,
47,
47,
48,
47,
47,
47,
48,
48,
48,
47,
47,
47,
47,
47,
47,
47,
47,
47,
48,
47,
47,
47,
47,
46,
47,
47,
47,
47,
47,
47,
47,
47,
48,
47,
48,
48,
47,
48,
47,
48,
47,
47,
47,
47,
47,
47,
47,
48,
48,
47,
47,
47,
47,
47,
47,
47,
47,
47,
47,
47,
47,
47,
47,
47,
47,
47,
47,
47,
47,
47,
48,
47,
48,
47,
47,
48,
48,
47,
47,
47,
47,
47,
47,
47,
47,
48,
47,
47,
47,
47,
47,
47,
47,
47,
48,
47,
47,
47,
47,
47,
47,
47,
47,
47,
47,
47,
47,
47,
47,
48,
47,
47,
48,
47,
47,
47,
47,
48,
48,
47,
47,
47,
47,
48,
47,
48,
47,
48,
48,
47,
47,
48,
47,
47,
47,
48,
47,
47,
47,
47,
47,
47,
47,
47,
47,
47,
47,
47,
47,
48,
48,
48,
48,
48,
47,
48,
47,
48,
47,
47,
47,
47,
47,
47,
47,
47,
47,
47,
47,
47,
47,
47,
47,
47,
47,
47,
47,
47,
47,
47,
47,
47,
47,
47,
47,
47,
47,
47,
47,
47,
48,
47,
47,
48,
47,
48,
48,
48,
48,
47,
47,
47,
47,
47,
48,
47,
47,
48,
48,
47,
47,
47,
47,
47,
47,
47,
47,
47,
48,
47,
47,
47,
47,
47,
47,
47,
47,
47,
48,
47,
47,
47,
47,
47,
47,
47,
47,
48,
47,
47,
47,
47,
47,
47,
47,
47,
47,
47,
48,
47,
47,
47,
47,
47,
47,
48,
47,
47,
48,
47,
47,
47,
47,
47,
47,
47,
47,
47,
47,
47,
48,
47,
48,
47,
47,
48,
48,
47,
47,
47,
47,
47,
48,
47,
47,
47,
47,
47,
47,
47,
47,
48,
47,
47,
47,
47,
47,
47,
47,
47,
47,
47,
47,
47,
47,
47,
47,
47,
47,
48,
48,
47,
48,
48,
48,
48,
48,
48,
47,
48,
47,
47,
48,
47,
48,
48,
48,
48,
48,
47,
47,
48,
47,
47,
47,
47,
47,
47,
47,
47,
47,
48,
47,
47,
48,
47,
47,
47,
47,
47,
47,
47,
48,
47,
48,
48,
49,
48,
47,
47,
47,
47,
47,
47,
47,
47,
48,
47,
47,
47,
47,
48,
47,
47,
47,
47,
47,
47,
47,
47,
47,
47,
47,
47,
47,
47,
47,
47,
47,
48,
47,
47,
47,
47,
48,
47,
47,
48,
47,
47,
47,
47,
47,
47,
47,
47,
47,
47,
47,
47,
47,
48,
47,
47,
47,
47,
47,
47,
48,
47,
47,
47,
47,
47,
47,
47,
47,
47,
47,
47,
47,
47,
47,
47,
47,
47,
48,
48,
47,
47,
47,
47,
47,
47,
47,
47,
47,
47,
47,
47,
47,
47,
47,
47,
47,
47,
47,
47,
47,
47,
47,
47,
47,
47,
47,
47,
47,
47,
47,
48,
48,
47,
47,
47,
48,
48,
48,
48,
47,
47,
47,
47,
47,
47,
48,
48,
47,
47,
47,
47,
47,
47,
47,
47,
47,
47,
47,
47,
47,
47,
47,
47,
47,
47,
47,
47,
48,
47,
47,
47,
47,
47,
47,
48,
48,
48,
48,
48,
47,
47,
47,
47,
47,
47,
48,
47,
47,
47,
48,
47,
47,
47,
47,
47,
46,
47,
46,
46,
46,
44,
45,
44,
44,
44,
43,
43,
42,
41,
41,
38,
38,
36,
34,
34,
32,
31,
30,
29,
27,
22,
21,
20,
15,
15,
13,
12,
11,
9,
6,
1,
0,
-2,
-5,
-6,
-8,
-10,
-11,
-12,
-15,
-20,
-20,
-21,
-24,
-24,
-25,
-26,
-27,
-28,
-28,
-31,
-31,
-32,
-33,
-33,
-33,
-34,
-34,
-34,
-34,
-35,
-35,
-35,
-35,
-34,
-36,
-36,
-36,
-36,
-35,
-36,
-37,
-37,
-37,
-37,
-38,
-38,
-38,
-38,
-38,
-40,
-41,
-42,
-43,
-43,
-44,
-45,
-45,
-45,
-46,
-47,
-48,
-48,
-49,
-50,
-50,
-50,
-51,
-52,
-53,
-55,
-54,
-55,
-55,
-54,
-55,
-55,
-56,
-56,
-56,
-56,
-55,
-55,
-55,
-55,
-55,
-55,
-54,
-54,
-54,
-54,
-54,
-53,
-53,
-53,
-52,
-52,
-52,
-52,
-51,
-50,
-50,
-49,
-49,
-49,
-49,
-49,
-49,
-49,
-49,
-50,
-50,
-50,
-50,
-50,
-51,
-50,
-51,
-51,
-51,
-52,
-53,
-53,
-53,
-53,
-53,
-54,
-54,
-54,
-54,
-55,
-56,
-56,
-56,
-56,
-56,
-56,
-57,
-57,
-56,
-55,
-55,
-55,
-54,
-54,
-54,
-55,
-54,
-54,
-54,
-54,
-53,
-54,
-53,
-53,
-53,
-53,
-52,
-52,
-52,
-51,
-52,
-52,
-51,
-52,
-51,
-52,
-52,
-52,
-51,
-53,
-53,
-53,
-53,
-53,
-53,
-53,
-53,
-53,
-53,
-53,
-53,
-53,
-53,
-53,
-52,
-53,
-53,
-54,
-55,
-54,
-55,
-55,
-55,
-56,
-55,
-55,
-55,
-55,
-54,
-54,
-54,
-54,
-54,
-54,
-54,
-54,
-54,
-55,
-54,
-54,
-54,
-54,
-54,
-54,
-54,
-54,
-54,
-54,
-53,
-52,
-52,
-52,
-53,
-53,
-52,
-52,
-52,
-52,
-52,
-53,
-53,
-53,
-52,
-53,
-53,
-53,
-53,
-53,
-53,
-53,
-53,
-54,
-54,
-54,
-53,
-53,
-53,
-54,
-54,
-56,
-55,
-55,
-54,
-55,
-54,
-54,
-55,
-55,
-54,
-54,
-54,
-53,
-54,
-54,
-54,
-54,
-54,
-54,
-54,
-53,
-53,
-54,
-53,
-53,
-53,
-53,
-53,
-53,
-53,
-53,
-53,
-53,
-53,
-52,
-53,
-53,
-53,
-53,
-53,
-54,
-54,
-54,
-54,
-54,
-54,
-54,
-54,
-54,
-53,
-54,
-54,
-54,
-54,
-53,
-54,
-54,
-54,
-54,
-54,
-53,
-54,
-54,
-54,
-54,
-54,
-54,
-54,
-54,
-53,
-53,
-53,
-54,
-53,
-54,
-54,
-53,
-53,
-53,
-52,
-53,
-54,
-53,
-54,
-54,
-54,
-54,
-54,
-54,
-53,
-53,
-53,
-53,
-53,
-53,
-53,
-53,
-53,
-53,
-53,
-54,
-54,
-54,
-53,
-53,
-53,
-53,
-53,
-53,
-54,
-53,
-54,
-54,
-53,
-53,
-53,
-53,
-53,
-53,
-54,
-54,
-54,
-54,
-54,
-54,
-53,
-53,
-54,
-53,
-53,
-54,
-54,
-54,
-53,
-54,
-54,
-54,
-54,
-54,
-53,
-54,
-54,
-54,
-54,
-53,
-53,
-53,
-53,
-53,
-53,
-53,
-53,
-53,
-53,
-53,
-53,
-53,
-53,
-53,
-53,
-54,
-54,
-54,
-54,
-54,
-54,
-54,
-54,
-54,
-53,
-53,
-54,
-54,
-54,
-54,
-54,
-53,
-53,
-54,
-54,
-53,
-54,
-54,
-53,
-54,
-54,
-53,
-53,
-54,
-54,
-53,
-54,
-54,
-54,
-53,
-53,
-53,
-53,
-54,
-54,
-54,
-54,
-53,
-54,
-54,
-54,
-54,
-54,
-54,
-53,
-53,
-53,
-53,
-53,
-53,
-53,
-53,
-53,
-54,
-54,
-53,
-53,
-54,
-54,
-53,
-53,
-53,
-53,
-54,
-54,
-54,
-53,
-53,
-53,
-54,
-53,
-53,
-53,
-53,
-53,
-53,
-53,
-53,
-54,
-54,
-53,
-53,
-53,
-53,
-53,
-53,
-54,
-53,
-53,
-53,
-53,
-54,
-54,
-54,
-54,
-54,
-53,
-54,
-53,
-53,
-53,
-53,
-53,
-53,
-54,
-53,
-54,
-53,
-53,
-53,
-53,
-53,
-53,
-53,
-53,
-53,
-54,
-54,
-54,
-54,
-54,
-54,
-55,
-54,
-53,
-54,
-54,
-54,
-54,
-53,
-53,
-54,
-54,
-54,
-53,
-53,
-54,
-53,
-53,
-53,
-53,
-53,
-53,
-53,
-53,
-53,
-53,
-53,
-53,
-53,
-53,
-53,
-53,
-53,
-52,
-54,
-54,
-53,
-53,
-54,
-54,
-54,
-54,
-54,
-53,
-54,
-54,
-54,
-54,
-54,
-53,
-54,
-54,
-54,
-54,
-54,
-53,
-54,
-53,
-54,
-53,
-54,
-53,
-53,
-53,
-53,
-53,
-53,
-53,
-53,
-53,
-53,
-53,
-53,
-53,
-54,
-54,
-53,
-54,
-54,
-53,
-54,
-54,
-54,
-53,
-53,
-53,
-53,
-53,
-53,
-53,
-53,
-53,
-53,
-53,
-53,
-54,
-54,
-53,
-53,
-53,
-53,
-54,
-53,
-54,
-53,
-53,
-53,
-53,
-53,
-53,
-53,
-53,
-53,
-53,
-54,
-54,
-53,
-53,
-54,
-54,
-54,
-54,
-54,
-53,
-53,
-53,
-53,
-53,
-53,
-53,
-54,
-54,
-54,
-54,
-54,
-53,
-54,
-53,
-53,
-53,
-53,
-53,
-53,
-54,
-52,
-52,
-53,
-53,
-53,
-53,
-53,
-53,
-53,
-53,
-53,
-54,
-54,
-54,
-54,
-53,
-54,
-54,
-54,
-53,
-53,
-53,
-54,
-54,
-54,
-54,
-53,
-53,
-53,
-53,
-53,
-53,
-53,
-53,
-53,
-54,
-53,
-53,
-54,
-53,
-53,
-54,
-54,
-53,
-53,
-52,
-53,
-53,
-53,
-53,
-54,
-53,
-53,
-53,
-54,
-54,
-53,
-54,
-54,
-54,
-54,
-54,
-53,
-53,
-53,
-53,
-53,
-53,
-53,
