1-signale-auf-leitern/data/ALL0009/A0009CH1.CSV

Memory Length,4000,
Trigger Level,3.76000e+01,
Source,CH1,
Probe,1.0X,
Vertical Units,V,
Vertical Scale,2.00000e-02,
Vertical Position,0.00000e+00,
Horizontal Units,S,
Horizontal Scale,2.50000e-08,
Horizontal Position,6.9000000e-08,
Horizontal Mode,Main,
Sampling Period,1.00000e-09,
Firmware,V1.14,
Time, ,
Mode,Fast,
Waveform Data,
1,
0,
1,
0,
-1,
0,
1,
-1,
-1,
0,
0,
0,
0,
-1,
-1,
-1,
0,
-1,
0,
0,
0,
-1,
-1,
0,
1,
-1,
-1,
-1,
-1,
0,
1,
-1,
-1,
0,
1,
0,
0,
-1,
-1,
0,
1,
-1,
-1,
0,
0,
0,
0,
-1,
-1,
0,
1,
0,
0,
-1,
-1,
-1,
0,
-1,
-1,
-1,
0,
0,
1,
-1,
-2,
-1,
0,
0,
0,
-1,
-1,
0,
1,
0,
0,
-1,
-1,
0,
1,
-1,
-2,
-1,
0,
0,
0,
-1,
-1,
0,
1,
0,
0,
0,
0,
0,
1,
0,
0,
0,
0,
-1,
0,
-1,
-1,
0,
1,
0,
1,
0,
0,
-1,
-1,
-1,
0,
-1,
-1,
-1,
0,
1,
1,
0,
1,
0,
1,
0,
0,
-1,
-1,
0,
0,
-1,
-1,
-1,
-1,
0,
0,
0,
1,
0,
1,
0,
0,
-1,
-1,
0,
0,
-1,
0,
-1,
0,
1,
1,
-1,
-1,
-1,
-1,
-1,
0,
-1,
-1,
0,
2,
1,
1,
-1,
-1,
0,
1,
-1,
-2,
0,
0,
0,
0,
-1,
-1,
-1,
0,
0,
0,
0,
0,
0,
0,
-1,
0,
-1,
-2,
-1,
0,
0,
0,
-1,
-2,
1,
1,
0,
-1,
-2,
-2,
0,
1,
-1,
-2,
0,
0,
-1,
-1,
-1,
-1,
0,
0,
0,
0,
-1,
0,
0,
0,
-1,
0,
0,
0,
0,
1,
-1,
-1,
-1,
-1,
0,
0,
-1,
-1,
-1,
0,
-1,
-1,
0,
1,
0,
1,
-1,
-2,
-1,
0,
-1,
0,
0,
0,
1,
2,
-1,
-1,
-1,
-1,
0,
0,
0,
1,
-1,
-1,
0,
0,
-1,
0,
-1,
-1,
0,
2,
-1,
-1,
-1,
-1,
-1,
0,
-1,
-2,
-1,
0,
-1,
-1,
-1,
0,
0,
1,
-1,
-1,
0,
1,
-2,
-2,
-1,
-1,
0,
0,
-1,
-1,
-1,
-1,
-2,
-2,
-1,
0,
0,
0,
-1,
0,
0,
0,
0,
0,
-1,
0,
-1,
-1,
-1,
0,
-1,
-1,
-1,
-1,
-1,
0,
-1,
-1,
-1,
0,
0,
1,
-1,
-1,
0,
0,
0,
-1,
-1,
-1,
-1,
0,
-1,
-1,
-1,
0,
-1,
-1,
0,
1,
0,
-1,
-2,
-1,
0,
0,
-1,
0,
-1,
-1,
0,
0,
-1,
0,
-1,
-2,
-2,
-2,
-1,
0,
-1,
-1,
0,
1,
0,
0,
0,
0,
0,
1,
-1,
-1,
-1,
0,
-1,
-1,
-1,
-1,
-1,
0,
-1,
-1,
-1,
0,
-1,
-1,
-1,
-1,
-2,
-2,
-1,
0,
0,
0,
-1,
0,
0,
0,
1,
1,
-1,
-1,
0,
1,
-1,
-1,
-1,
0,
0,
0,
-1,
0,
0,
1,
0,
0,
-1,
0,
-2,
-3,
-1,
-1,
-1,
-1,
-1,
-1,
-1,
0,
0,
0,
0,
0,
-1,
-1,
0,
1,
0,
0,
-1,
0,
0,
1,
-1,
-2,
0,
0,
1,
1,
-1,
-1,
0,
1,
0,
0,
-1,
0,
1,
1,
-1,
-1,
0,
0,
0,
0,
-1,
-1,
-1,
0,
0,
0,
0,
0,
-1,
-1,
-1,
0,
-1,
-1,
0,
0,
-1,
-1,
0,
1,
0,
1,
-1,
-1,
-1,
-1,
-1,
-1,
-2,
-2,
-1,
0,
0,
0,
0,
1,
1,
1,
0,
-1,
-1,
-1,
0,
0,
0,
0,
-1,
-1,
0,
1,
-2,
-2,
-1,
0,
0,
0,
-1,
-1,
-1,
0,
-2,
-2,
-1,
0,
0,
0,
-1,
-1,
-1,
0,
-1,
-1,
-1,
-1,
-1,
0,
-1,
0,
-1,
0,
-1,
-1,
-1,
0,
0,
0,
0,
0,
-1,
-1,
0,
0,
-1,
0,
-1,
-1,
0,
1,
-1,
-1,
-1,
0,
0,
0,
-1,
-1,
-1,
0,
-1,
0,
0,
0,
-1,
-1,
-1,
-1,
-1,
-1,
-1,
-1,
0,
0,
-1,
-1,
-1,
-1,
-1,
-1,
0,
0,
-1,
0,
-1,
-1,
0,
0,
-1,
-1,
-1,
-1,
-1,
0,
-1,
-1,
-1,
-1,
-1,
0,
-2,
-1,
-1,
0,
0,
1,
-2,
-2,
-1,
-1,
-1,
-1,
0,
0,
-1,
0,
0,
0,
0,
0,
-1,
-1,
-1,
-1,
0,
0,
-1,
0,
-1,
-1,
0,
1,
0,
0,
-1,
0,
0,
0,
-2,
-2,
-1,
-1,
-1,
0,
0,
0,
0,
1,
-1,
0,
-1,
-1,
-1,
-1,
-1,
0,
-1,
-1,
-1,
0,
0,
0,
-1,
0,
0,
0,
1,
1,
-1,
-1,
-1,
0,
-1,
0,
0,
0,
0,
1,
-2,
-2,
-1,
0,
-1,
0,
-1,
-1,
0,
1,
-1,
0,
0,
0,
0,
1,
-2,
-2,
-1,
0,
-1,
-1,
-1,
-1,
1,
2,
0,
0,
0,
0,
-1,
-1,
-1,
-1,
-1,
-1,
-1,
0,
-1,
-1,
-1,
0,
0,
1,
0,
-1,
0,
0,
-1,
0,
-1,
-1,
0,
1,
-1,
-1,
0,
0,
0,
0,
-1,
-1,
0,
0,
-1,
-1,
-1,
-1,
1,
1,
0,
1,
-1,
-2,
-1,
0,
0,
0,
-1,
-1,
0,
1,
-1,
-1,
-1,
-1,
0,
1,
-1,
-1,
0,
0,
0,
0,
-1,
-1,
-1,
0,
-1,
-1,
1,
1,
0,
1,
-1,
-2,
-1,
0,
-1,
0,
-1,
-1,
0,
1,
0,
1,
0,
0,
0,
1,
-2,
-2,
-1,
-1,
-1,
0,
-1,
-1,
0,
1,
0,
1,
0,
0,
0,
1,
-1,
-1,
-1,
0,
-1,
0,
0,
-1,
-1,
0,
0,
0,
0,
0,
-1,
0,
0,
0,
-2,
-1,
-1,
0,
0,
1,
-1,
-1,
0,
1,
0,
-1,
-1,
-1,
0,
1,
-1,
-1,
-1,
-1,
0,
0,
-1,
0,
0,
0,
0,
0,
-1,
-1,
0,
0,
0,
0,
-1,
-1,
0,
1,
-1,
-1,
0,
0,
1,
1,
-1,
-1,
0,
1,
0,
1,
-1,
-1,
0,
0,
-1,
-1,
-1,
0,
0,
0,
-1,
-1,
0,
1,
-1,
-1,
-1,
0,
0,
0,
-1,
0,
-1,
-1,
-1,
0,
-1,
-1,
-1,
0,
0,
1,
0,
0,
-1,
0,
-1,
-1,
-1,
-1,
-1,
0,
-1,
-1,
-1,
0,
-1,
-1,
-1,
0,
0,
1,
-1,
-1,
-1,
0,
0,
0,
0,
0,
0,
0,
1,
0,
-1,
0,
0,
-1,
0,
1,
-1,
-1,
-1,
0,
0,
1,
-1,
-2,
0,
0,
0,
0,
-1,
-1,
-1,
0,
-2,
-1,
-1,
0,
-1,
-1,
0,
1,
0,
0,
0,
-1,
0,
0,
-1,
0,
0,
0,
1,
1,
0,
1,
-1,
-2,
0,
0,
-1,
-1,
-1,
-1,
0,
1,
0,
1,
0,
0,
0,
1,
-1,
-2,
-1,
-1,
-1,
0,
-1,
-1,
0,
1,
-1,
0,
0,
0,
-1,
-1,
-1,
0,
-1,
-1,
-1,
-1,
-1,
-1,
-1,
0,
0,
0,
0,
0,
-1,
-1,
-1,
-1,
-2,
-2,
-1,
0,
1,
1,
-1,
-1,
0,
1,
0,
0,
-1,
-1,
0,
1,
0,
0,
0,
0,
0,
1,
-2,
-2,
-2,
-1,
-1,
-1,
-1,
-1,
-1,
0,
-1,
-1,
0,
0,
0,
1,
-1,
-1,
-1,
-1,
0,
0,
-1,
-1,
0,
1,
1,
1,
-1,
-1,
-1,
-1,
-1,
0,
-1,
-1,
0,
0,
0,
1,
-1,
-2,
0,
1,
-1,
-1,
0,
0,
-1,
0,
-2,
-2,
-1,
0,
-1,
-1,
-1,
0,
0,
1,
-1,
-1,
-1,
-1,
-1,
0,
-1,
-1,
-1,
0,
0,
1,
-1,
-2,
-1,
-1,
-1,
0,
-1,
-1,
-1,
0,
0,
1,
1,
0,
0,
1,
-1,
-2,
-1,
0,
0,
0,
-1,
-1,
-1,
0,
-1,
-1,
-1,
-1,
0,
1,
-1,
-1,
-2,
-1,
-1,
0,
0,
0,
0,
1,
0,
1,
0,
0,
-1,
-1,
0,
1,
-1,
-1,
0,
0,
-1,
-1,
-1,
1,
0,
1,
0,
0,
0,
1,
-1,
-2,
-2,
-1,
-1,
0,
0,
0,
-1,
0,
0,
0,
1,
0,
-1,
-1,
0,
1,
0,
0,
-1,
0,
0,
1,
-2,
-2,
-1,
-1,
0,
0,
-1,
-1,
0,
1,
-1,
-1,
-1,
-1,
0,
1,
-1,
-1,
0,
1,
0,
0,
-1,
-1,
0,
1,
-1,
-1,
0,
0,
-1,
-1,
-1,
0,
-2,
-2,
1,
1,
0,
1,
-1,
-2,
0,
1,
-1,
-1,
0,
0,
0,
1,
-1,
-2,
-1,
0,
-1,
-1,
0,
1,
0,
1,
0,
-1,
0,
1,
-1,
-1,
0,
0,
1,
1,
-1,
-1,
0,
1,
-2,
-2,
-1,
-1,
0,
0,
0,
1,
0,
1,
1,
0,
-1,
0,
-1,
-2,
-1,
0,
-1,
0,
-1,
-1,
0,
1,
-1,
-1,
-1,
0,
0,
0,
0,
1,
0,
1,
0,
-1,
0,
1,
-1,
-2,
0,
0,
0,
0,
-1,
-1,
0,
0,
-1,
-1,
-1,
0,
0,
0,
-1,
0,
0,
0,
1,
1,
0,
1,
-1,
-2,
-1,
0,
-1,
-1,
-1,
-1,
0,
1,
-1,
-1,
-1,
0,
0,
0,
-1,
0,
0,
0,
-1,
-1,
0,
1,
-1,
-1,
0,
0,
0,
0,
-1,
-1,
1,
2,
-1,
-1,
-1,
0,
0,
0,
-1,
0,
0,
1,
0,
0,
0,
1,
-1,
-2,
-1,
0,
0,
0,
-1,
-1,
0,
1,
-1,
-1,
0,
0,
0,
0,
0,
0,
0,
1,
-1,
-1,
0,
1,
-1,
-1,
0,
0,
1,
1,
-1,
-1,
0,
1,
-1,
-1,
-1,
0,
0,
0,
-1,
0,
0,
1,
0,
0,
0,
1,
-1,
-2,
-1,
0,
-1,
-1,
-1,
-1,
0,
1,
-1,
-1,
1,
1,
-1,
-1,
0,
1,
0,
1,
-1,
-1,
0,
1,
-2,
-3,
-1,
0,
1,
1,
-1,
-1,
1,
2,
0,
0,
-1,
0,
-1,
-1,
-1,
0,
0,
0,
0,
0,
0,
1,
-2,
-3,
-1,
0,
0,
0,
-1,
-1,
0,
1,
-1,
-1,
0,
0,
0,
0,
0,
1,
0,
1,
0,
-1,
0,
0,
-1,
-1,
0,
0,
1,
1,
-1,
0,
0,
0,
-2,
-2,
-1,
0,
0,
0,
0,
1,
0,
1,
-1,
-1,
0,
1,
-1,
-2,
-1,
-1,
0,
0,
-1,
-1,
-1,
0,
-1,
-1,
0,
0,
-1,
-1,
-1,
0,
-1,
-1,
-1,
-1,
0,
1,
-2,
-3,
-1,
-1,
0,
1,
-1,
-1,
0,
0,
1,
0,
-2,
-1,
1,
1,
-1,
-1,
0,
1,
0,
0,
-1,
-1,
0,
0,
-1,
-1,
-1,
0,
0,
0,
-1,
-1,
-2,
-2,
-1,
0,
0,
0,
0,
1,
0,
1,
-1,
-1,
-1,
-1,
0,
1,
-1,
-1,
0,
1,
0,
0,
0,
-1,
0,
1,
-1,
-1,
1,
1,
-1,
-1,
0,
0,
1,
1,
-1,
-1,
-1,
0,
-1,
-1,
-1,
0,
0,
0,
-1,
0,
-1,
-1,
0,
0,
-1,
0,
-2,
-2,
-1,
0,
0,
0,
0,
0,
-1,
0,
-1,
-1,
0,
0,
-1,
-1,
0,
0,
1,
1,
-1,
-1,
0,
1,
-2,
-3,
-1,
0,
0,
0,
-1,
-1,
0,
1,
-1,
-1,
-1,
0,
-1,
-1,
0,
0,
-1,
0,
-1,
0,
0,
1,
-1,
-2,
-1,
0,
-1,
-1,
-1,
-1,
0,
1,
-1,
-1,
-1,
0,
-1,
-1,
-1,
-1,
-1,
0,
0,
0,
0,
1,
-1,
-1,
-1,
0,
-1,
0,
-1,
-1,
0,
1,
-1,
-1,
1,
1,
0,
0,
0,
0,
0,
1,
0,
0,
0,
1,
-1,
-2,
-2,
-1,
-1,
0,
-1,
-1,
0,
1,
-1,
-1,
-1,
-1,
0,
0,
0,
0,
0,
0,
0,
0,
0,
1,
-1,
-2,
-1,
0,
-1,
0,
-1,
-1,
0,
1,
0,
-1,
-2,
-1,
0,
0,
-1,
-1,
0,
1,
0,
-1,
-1,
-1,
-1,
0,
-1,
-1,
-1,
-1,
-1,
-1,
0,
1,
-1,
-1,
0,
0,
0,
0,
-1,
0,
0,
1,
0,
0,
0,
1,
-1,
-2,
-1,
0,
-1,
0,
-1,
-1,
0,
1,
0,
0,
0,
0,
0,
1,
-1,
-1,
0,
0,
0,
0,
0,
0,
-1,
-1,
-1,
-1,
-1,
0,
-1,
-1,
0,
1,
0,
0,
-1,
-1,
0,
0,
0,
1,
0,
1,
0,
0,
-1,
0,
-1,
0,
-2,
-2,
-1,
0,
0,
0,
0,
1,
0,
1,
0,
0,
0,
1,
-1,
-2,
-1,
0,
0,
0,
-1,
-1,
0,
1,
-1,
-1,
1,
1,
8,
11,
26,
32,
48,
53,
67,
70,
77,
78,
73,
71,
63,
61,
51,
48,
40,
38,
32,
32,
26,
25,
24,
24,
22,
21,
19,
19,
16,
16,
12,
11,
10,
11,
8,
7,
6,
5,
5,
5,
4,
3,
3,
3,
2,
2,
2,
2,
1,
1,
1,
2,
0,
0,
1,
1,
1,
0,
1,
2,
3,
4,
11,
13,
24,
29,
42,
47,
57,
61,
65,
66,
65,
65,
60,
58,
50,
48,
40,
38,
33,
32,
28,
27,
24,
24,
21,
21,
18,
17,
17,
18,
13,
12,
10,
9,
9,
9,
8,
7,
7,
6,
6,
6,
5,
5,
4,
4,
2,
2,
3,
3,
1,
1,
2,
3,
1,
1,
1,
1,
0,
0,
-2,
-2,
-5,
-5,
-7,
-7,
-8,
-8,
-6,
-5,
-3,
-2,
2,
3,
4,
5,
4,
5,
4,
4,
2,
2,
1,
1,
1,
2,
0,
0,
1,
1,
1,
1,
2,
3,
1,
2,
1,
1,
0,
0,
0,
-1,
0,
0,
0,
0,
0,
0,
0,
1,
0,
0,
0,
0,
-1,
-1,
0,
1,
0,
0,
0,
1,
0,
0,
1,
3,
-1,
-1,
-1,
0,
-1,
-1,
-2,
-3,
-1,
0,
-2,
-1,
-1,
-1,
0,
1,
0,
0,
0,
0,
-1,
-1,
0,
0,
0,
0,
-1,
-1,
0,
0,
-1,
0,
-1,
-1,
-1,
0,
0,
1,
-1,
-2,
0,
0,
0,
1,
-1,
-1,
0,
1,
-1,
-2,
-1,
-1,
0,
0,
-1,
-1,
-1,
-1,
-1,
0,
-1,
-1,
-1,
0,
0,
0,
1,
1,
0,
1,
-2,
-3,
-2,
-2,
-1,
-1,
-1,
-1,
0,
1,
0,
1,
0,
0,
-1,
0,
-2,
-3,
-1,
0,
-1,
0,
0,
0,
-1,
-1,
-1,
0,
0,
0,
-1,
-1,
0,
2,
0,
0,
-1,
0,
0,
1,
-2,
-2,
0,
1,
-1,
-1,
-1,
-1,
-1,
0,
-1,
-1,
-1,
-1,
0,
0,
-1,
0,
-1,
-1,
1,
1,
0,
0,
0,
0,
-1,
0,
0,
0,
0,
0,
0,
1,
-2,
-2,
-1,
0,
0,
0,
0,
0,
0,
1,
0,
0,
0,
1,
-1,
-1,
-1,
0,
0,
0,
0,
0,
-1,
0,
-1,
-1,
0,
0,
-1,
-1,
-1,
0,
-1,
-1,
1,
1,
0,
1,
-1,
-1,
0,
0,
-1,
0,
0,
0,
-1,
0,
-1,
0,
-1,
0,
0,
0,
0,
1,
0,
0,
0,
-1,
-1,
0,
-1,
-2,
-1,
0,
0,
0,
-1,
-1,
-1,
0,
-2,
-2,
-1,
0,
-1,
-1,
0,
1,
0,
1,
0,
0,
-1,
-1,
-1,
0,
-1,
-1,
0,
0,
-1,
-1,
-1,
-1,
-1,
-1,
-1,
0,
0,
0,
0,
0,
0,
0,
1,
1,
0,
1,
-1,
-1,
-1,
0,
-1,
0,
-1,
-1,
0,
1,
0,
0,
0,
0,
0,
1,
-1,
-1,
-1,
0,
-1,
0,
0,
0,
-1,
0,
-1,
-1,
-1,
-1,
-1,
-1,
0,
1,
0,
0,
-1,
0,
0,
0,
0,
0,
0,
1,
-1,
-1,
-1,
-1,
-1,
0,
-1,
-1,
-1,
0,
0,
0,
-1,
0,
0,
1,
1,
0,
0,
1,
-1,
-2,
-1,
0,
-1,
0,
-1,
-2,
0,
1,
-1,
-1,
0,
0,
0,
0,
-1,
-1,
-1,
-1,
0,
0,
-1,
0,
-2,
-2,
-1,
0,
-1,
0,
-1,
-1,
0,
1,
0,
0,
-1,
0,
0,
0,
-1,
0,
0,
0,
0,
0,
0,
1,
-1,
-2,
-1,
0,
0,
0,
0,
0,
-1,
0,
-1,
-1,
0,
0,
-1,
-1,
-1,
0,
-1,
0,
-1,
-1,
0,
0,
-1,
0,
0,
0,
1,
1,
-1,
-1,
-1,
0,
-1,
-1,
-1,
0,
0,
0,
-1,
0,
1,
2,
1,
0,
0,
1,
-1,
-2,
-1,
0,
-1,
0,
-1,
-1,
0,
1,
-1,
-1,
-1,
-1,
-1,
-1,
-1,
0,
0,
0,
-1,
0,
0,
1,
-2,
-3,
-1,
0,
-1,
-1,
-1,
-1,
0,
1,
0,
0,
0,
0,
0,
0,
0,
1,
0,
1,
0,
0,
0,
1,
-1,
-2,
-1,
0,
-1,
0,
-1,
-1,
0,
1,
-1,
-1,
-1,
0,
0,
0,
-1,
-1,
-1,
0,
-1,
-1,
-1,
-1,
-1,
-1,
-1,
-1,
0,
0,
0,
0,
0,
1,
0,
0,
-1,
0,
0,
0,
0,
1,
0,
0,
0,
0,
0,
1,
-1,
-1,
-1,
0,
-1,
0,
-1,
-1,
-1,
0,
-1,
0,
0,
0,
0,
1,
-1,
-2,
-1,
-1,
0,
0,
-1,
-1,
0,
1,
-1,
-1,
1,
1,
0,
0,
0,
0,
-1,
-1,
-1,
-1,
0,
0,
0,
1,
0,
1,
1,
0,
-1,
-1,
-1,
0,
-1,
-1,
-1,
0,
1,
1,
-1,
-1,
0,
1,
0,
0,
-1,
-1,
0,
1,
-1,
-1,
-1,
-1,
0,
0,
-1,
0,
-1,
-1,
1,
1,
-1,
-1,
0,
0,
0,
0,
-1,
0,
0,
1,
-2,
-2,
-2,
-1,
0,
0,
-1,
-1,
1,
2,
1,
1,
-1,
-1,
0,
1,
-1,
-1,
0,
0,
0,
0,
-1,
0,
0,
0,
-1,
-1,
0,
0,
-1,
-1,
0,
1,
-1,
-1,
0,
1,
0,
1,
-1,
-1,
-1,
0,
-1,
-1,
-1,
-1,
0,
1,
-1,
-2,
-1,
0,
-1,
-1,
-1,
0,
0,
0,
0,
-1,
0,
0,
-1,
-2,
0,
0,
1,
1,
-1,
-1,
-1,
0,
-1,
-1,
-1,
0,
0,
-1,
-1,
0,
0,
0,
0,
0,
0,
1,
-1,
-2,
-1,
0,
-1,
0,
-1,
-1,
0,
1,
-1,
-1,
0,
0,
0,
0,
-1,
0,
0,
0,
1,
1,
0,
1,
-1,
-2,
-1,
0,
0,
0,
-1,
-1,
0,
2,
0,
0,
-1,
0,
0,
0,
0,
1,
0,
1,
0,
-1,
0,
1,
-1,
-1,
0,
0,
1,
1,
-1,
-1,
1,
2,
-1,
-1,
-1,
0,
0,
0,
-1,
0,
0,
1,
0,
0,
-1,
-1,
-1,
-1,
-2,
-1,
0,
0,
0,
0,
0,
0,
0,
-1,
-2,
-1,
-1,
-1,
0,
1,
0,
1,
-1,
-1,
0,
1,
-2,
-2,
0,
0,
1,
1,
-1,
-1,
-1,
0,
-1,
0,
-1,
0,
0,
1,
-1,
-2,
-1,
0,
-1,
-1,
-1,
-1,
-1,
-1,
-1,
-1,
1,
1,
-1,
-1,
0,
1,
-1,
-1,
-1,
0,
0,
0,
-1,
0,
0,
1,
0,
-1,
-1,
-1,
-1,
-1,
-1,
-1,
-1,
0,
-1,
-1,
-1,
0,
0,
0,
0,
0,
0,
1,
-1,
-2,
0,
0,
0,
0,
0,
0,
-1,
0,
-1,
-1,
0,
0,
-1,
-1,
0,
1,
-1,
0,
-1,
0,
0,
1,
-1,
-2,
-1,
0,
0,
0,
-1,
-1,
0,
1,
-1,
-1,
-1,
0,
0,
0,
-1,
0,
0,
0,
0,
0,
0,
1,
-1,
-2,
1,
1,
-1,
0,
-1,
-1,
0,
1,
-1,
-1,
-1,
0,
-1,
-1,
-1,
0,
0,
0,
0,
0,
0,
1,
-1,
-2,
-1,
0,
0,
0,
-1,
-1,
0,
1,
0,
0,
-1,
0,
0,
0,
-1,
0,
0,
0,
0,
0,
-1,
0,
-1,
-2,
-2,
-1,
-1,
0,
-1,
-1,
0,
1,
0,
0,
-1,
0,
0,
0,
0,
1,
0,
0,
0,
0,
-1,
-1,
-1,
0,
-1,
0,
-1,
0,
-1,
-1,
-1,
0,
-1,
0,
0,
0,
0,
1,
-2,
-2,
0,
0,
1,
1,
-1,
-1,
0,
1,
0,
0,
0,
0,
-1,
-1,
-1,
0,
0,
0,
-1,
0,
0,
0,
-1,
-1,
-2,
-2,
-1,
0,
0,
0,
0,
0,
-1,
-1,
-1,
0,
0,
0,
0,
1,
-1,
0,
-1,
-1,
-1,
-1,
-1,
-1,
-1,
-1,
0,
0,
-1,
-1,
-1,
-1,
-1,
-1,
0,
0,
0,
1,
-1,
-1,
1,
0,
-1,
-1,
0,
0,
-1,
0,
-1,
-1,
1,
1,
-1,
-1,
0,
0,
-1,
-1,
0,
0,
0,
1,
-2,
-2,
0,
0,
0,
0,
-1,
-1,
-1,
0,
-1,
-1,
-1,
0,
-1,
-1,
0,
1,
0,
0,
0,
0,
0,
1,
-1,
-2,
-1,
0,
0,
0,
0,
0,
-1,
0,
-1,
0,
1,
1,
-1,
-1,
0,
1,
0,
1,
-1,
-1,
0,
1,
-1,
-2,
-1,
0,
-1,
0,
-1,
-1,
0,
1,
0,
0,
-1,
0,
0,
0,
-1,
0,
0,
0,
0,
0,
-1,
-1,
0,
1,
0,
0,
-1,
0,
0,
0,
0,
0,
0,
0,
0,
1,
0,
0,
-1,
0,
0,
0,
0,
0,
0,
0,
0,
0,
-1,
-1,
0,
0,
0,
0,
-1,
0,
-1,
-1,
0,
0,
0,
0,
-1,
0,
0,
0,
0,
0,
-1,
-1,
-1,
-1,
-1,
-1,
1,
1,
-1,
-1,
0,
0,
-1,
-1,
-1,
0,
1,
1,
-1,
-2,
-1,
0,
0,
0,
-1,
-1,
-1,
0,
-1,
-1,
0,
0,
-1,
-1,
0,
1,
-1,
-1,
0,
0,
0,
1,
-1,
-1,
0,
0,
-1,
-1,
-1,
-1,
-1,
0,
-2,
-2,
0,
1,
-1,
-1,
0,
1,
1,
1,
0,
0,
0,
1,
-1,
-2,
-1,
0,
-1,
0,
0,
0,
-1,
0,
-1,
-1,
-1,
0,
-1,
-1,
0,
1,
0,
1,
0,
0,
0,
1,
-1,
-2,
-1,
0,
-1,
0,
0,
0,
0,
1,
-1,
-1,
-1,
0,
0,
0,
0,
1,
0,
0,
0,
0,
0,
1,
-1,
-2,
-1,
0,
0,
0,
-1,
-1,
0,
1,
-1,
-1,
-1,
0,
-1,
-1,
-1,
0,
0,
1,
0,
-1,
0,
1,
-1,
-2,
-1,
0,
1,
1,
-1,
-1,
0,
1,
-1,
-1,
-1,
-1,
0,
0,
-1,
0,
0,
1,
0,
0,
0,
1,
-1,
-2,
-1,
0,
0,
0,
-1,
-1,
0,
1,
-2,
-2,
-1,
0,
0,
0,
0,
1,
0,
1,
0,
0,
0,
1,
-1,
-2,
-1,
0,
0,
0,
-1,
-2,
-1,
0,
-1,
-1,
-1,
0,
1,
1,
0,
1,
0,
1,
0,
0,
0,
1,
-1,
-1,
-1,
0,
-1,
0,
-1,
-1,
0,
1,
1,
0,
-1,
-1,
0,
0,
-1,
0,
0,
0,
0,
0,
0,
1,
-1,
-1,
-1,
0,
-1,
0,
-1,
-2,
0,
1,
0,
0,
-1,
0,
-1,
-1,
0,
1,
0,
0,
-1,
-1,
-1,
-1,
-1,
0,
-2,
-2,
1,
1,
-1,
-1,
0,
0,
-1,
-1,
-1,
-1,
0,
0,
-1,
0,
0,
1,
0,
0,
-1,
-1,
-1,
0,
-1,
0,
0,
0,
0,
0,
-1,
-1,
-1,
-1,
0,
0,
0,
1,
0,
0,
0,
0,
-1,
-1,
0,
0,
-1,
0,
-1,
-1,
1,
1,
-1,
-1,
0,
1,
0,
0,
0,
0,
-1,
-1,
-1,
0,
-1,
0,
0,
0,
0,
1,
-1,
-1,
-1,
0,
-1,
-1,
-1,
-1,
0,
1,
0,
1,
0,
0,
-1,
0,
-1,
-2,
-1,
0,
0,
0,
-1,
-1,
-1,
0,
-1,
-1,
0,
0,
0,
0,
0,
1,
-1,
-1,
-1,
0,
-1,
-1,
0,
1,
0,
0,
-1,
-1,
0,
0,
-1,
-1,
-1,
-1,
0,
0,
0,
0,
-1,
0,
-1,
-1,
0,
1,
0,
1,
-1,
-1,
-1,
0,
0,
0,
-1,
-1,
-1,
0,
-1,
0,
0,
0,
-1,
-1,
-1,
0,
-1,
-1,
-1,
0,
0,
1,
-1,
-2,
-1,
-1,
0,
0,
0,
0,
0,
1,
0,
0,
-1,
0,
0,
-1,
-1,
0,
0,
1,
0,
-1,
-1,
-1,
-1,
0,
-1,
0,
0,
0,
0,
1,
-1,
-1,
-2,
-1,
-1,
0,
0,
0,
0,
1,
0,
1,
0,
-1,
-1,
-1,
0,
1,
-1,
-1,
1,
1,
-1,
-1,
-1,
-1,
-1,
-1,
-1,
0,
0,
0,
-1,
0,
-1,
0,
-1,
0,
0,
1,
-1,
-1,
-1,
0,
0,
-1,
-1,
-1,
-1,
0,
-1,
-1,
-1,
-1,
0,
0,
-2,
-2,
-1,
-1,
0,
0,
0,
0,
0,
0,
0,
0,
0,
0,
-1,
-1,
0,
1,
0,
-1,
-2,
-1,
-1,
-1,
-1,
0,
0,
0,
0,
0,
0,
1,
-1,
-1,
-1,
0,
0,
0,
0,
0,
-1,
0,
-2,
-2,
0,
0,
-1,
-1,
0,
1,
0,
0,
1,
1,
1,
1,
-2,
-2,
0,
0,
1,
1,
-1,
-1,
0,
1,
-1,
-1,
-1,
0,
0,
0,
0,
0,
0,
1,
0,
-1,
0,
1,
-1,
-1,
0,
0,
-1,
0,
0,
-1,
0,
1,
-1,
-1,
0,
0,
-1,
-1,
0,
0,
0,
0,
-1,
-1,
0,
1,
-1,
-1,
-1,
0,
-1,
0,
-1,
-1,
0,
1,
0,
-1,
-1,
0,
-1,
-1,
-1,
0,
0,
0,
0,
0,
-1,
0,
-1,
-1,
0,
0,
-1,
-1,
-1,
-1,
0,
1,
-1,
-1,
-1,
0,
0,
0,
-1,
-1,
-1,
0,
0,
-1,
0,
1,
-1,
-2,
-1,
0,
1,
1,
-1,
-1,
0,
1,
-2,
-2,
-1,
-1,
0,
0,
-1,
0,
-1,
-1,
1,
1,
0,
1,
-1,
-2,
-2,
-1,
-1,
0,
-1,
-1,
0,
1,
-2,
-2,
-1,
0,
0,
0,
0,
