3-eigenschaften-von-transistoren/daten/ALL0006/A0006CH2.CSV

Memory Length,4000,
Trigger Level,3.00000e+00,
Source,CH2,
Probe,1.0X,
Vertical Units,V,
Vertical Scale,1.00000e+00,
Vertical Position,-3.60000e+00,
Horizontal Units,S,
Horizontal Scale,5.00000e-04,
Horizontal Position,0.0000000e+00,
Horizontal Mode,XY Mode,
Sampling Period,2.00000e-06,
Firmware,V1.14,
Time, ,
Mode,Fast,
Waveform Data,
109,
109,
109,
110,
110,
112,
112,
112,
112,
113,
113,
112,
112,
113,
113,
114,
114,
113,
113,
115,
115,
114,
114,
115,
115,
116,
116,
117,
117,
117,
117,
118,
118,
118,
118,
119,
119,
118,
118,
120,
120,
121,
121,
122,
122,
122,
122,
123,
123,
123,
123,
123,
123,
124,
124,
124,
124,
125,
125,
125,
125,
126,
126,
127,
127,
127,
127,
127,
127,
128,
128,
128,
128,
129,
129,
130,
130,
131,
131,
131,
131,
131,
131,
132,
132,
132,
132,
133,
119,
119,
94,
94,
71,
71,
39,
39,
22,
22,
1,
2,
2,
0,
0,
0,
0,
0,
0,
0,
0,
0,
0,
0,
0,
1,
1,
0,
0,
0,
0,
1,
1,
0,
0,
0,
0,
0,
0,
1,
1,
0,
0,
0,
0,
0,
0,
0,
0,
0,
0,
1,
1,
2,
2,
0,
0,
1,
1,
1,
1,
1,
1,
1,
1,
1,
1,
1,
1,
1,
1,
1,
1,
0,
0,
1,
1,
1,
1,
1,
1,
1,
1,
1,
1,
1,
1,
1,
1,
1,
1,
2,
2,
2,
2,
2,
2,
2,
2,
2,
2,
3,
3,
3,
3,
4,
4,
3,
3,
3,
3,
3,
3,
3,
3,
4,
4,
5,
5,
5,
5,
5,
5,
6,
6,
6,
6,
7,
7,
7,
7,
7,
7,
7,
7,
8,
8,
8,
8,
9,
9,
9,
9,
10,
10,
10,
10,
10,
10,
11,
11,
11,
11,
12,
12,
12,
12,
13,
13,
13,
13,
13,
13,
14,
14,
14,
14,
14,
14,
15,
15,
16,
16,
16,
16,
17,
17,
18,
18,
18,
18,
18,
18,
18,
18,
19,
19,
20,
20,
20,
20,
20,
20,
22,
22,
22,
22,
22,
22,
23,
23,
23,
23,
24,
24,
24,
24,
25,
25,
24,
24,
25,
25,
26,
26,
26,
26,
26,
26,
27,
27,
28,
28,
28,
28,
28,
28,
30,
30,
29,
29,
30,
30,
30,
30,
31,
31,
32,
32,
33,
33,
33,
33,
33,
33,
33,
33,
34,
34,
35,
35,
35,
35,
36,
36,
36,
36,
37,
37,
37,
37,
37,
37,
38,
38,
39,
39,
39,
39,
39,
39,
41,
41,
41,
41,
41,
41,
42,
42,
42,
42,
43,
43,
43,
43,
44,
44,
44,
44,
44,
44,
45,
45,
46,
46,
45,
45,
47,
47,
48,
48,
48,
48,
48,
48,
48,
48,
49,
49,
49,
49,
50,
50,
51,
51,
52,
52,
52,
52,
52,
52,
53,
53,
53,
53,
55,
55,
54,
54,
55,
55,
55,
55,
56,
56,
57,
57,
58,
58,
59,
59,
58,
58,
59,
59,
59,
59,
59,
59,
59,
59,
60,
60,
61,
61,
62,
62,
62,
62,
63,
63,
64,
64,
64,
64,
65,
65,
65,
65,
66,
66,
67,
67,
67,
67,
68,
68,
68,
68,
68,
68,
70,
70,
70,
70,
70,
70,
71,
71,
70,
70,
71,
71,
72,
72,
73,
73,
73,
73,
74,
74,
75,
75,
75,
75,
75,
75,
76,
76,
76,
76,
78,
78,
77,
77,
78,
78,
79,
79,
79,
79,
79,
79,
81,
81,
81,
81,
81,
81,
82,
82,
83,
83,
84,
84,
84,
84,
84,
84,
84,
84,
86,
86,
85,
85,
86,
86,
86,
86,
87,
87,
87,
87,
89,
89,
89,
89,
89,
89,
90,
90,
91,
91,
91,
91,
92,
92,
92,
92,
92,
92,
93,
93,
93,
93,
95,
95,
94,
94,
94,
94,
96,
96,
96,
96,
97,
97,
97,
97,
98,
98,
98,
98,
99,
99,
99,
99,
100,
100,
101,
101,
101,
101,
102,
102,
102,
102,
103,
103,
103,
103,
104,
104,
103,
103,
105,
105,
106,
106,
106,
106,
106,
106,
107,
107,
108,
108,
107,
107,
108,
108,
109,
109,
110,
110,
110,
110,
111,
111,
111,
111,
112,
112,
113,
113,
113,
113,
114,
114,
115,
115,
115,
115,
116,
116,
116,
116,
116,
116,
117,
117,
118,
118,
118,
118,
119,
119,
119,
119,
119,
119,
120,
120,
120,
120,
122,
122,
122,
122,
123,
123,
123,
123,
124,
124,
124,
124,
125,
125,
126,
126,
126,
126,
127,
127,
127,
127,
128,
128,
128,
128,
129,
129,
128,
128,
129,
129,
130,
130,
131,
131,
131,
131,
131,
131,
133,
133,
133,
133,
135,
135,
134,
134,
135,
135,
136,
103,
104,
77,
78,
60,
61,
30,
31,
15,
15,
-6,
-2,
-2,
0,
0,
0,
0,
0,
0,
0,
0,
0,
0,
0,
0,
0,
0,
1,
1,
1,
1,
0,
0,
0,
0,
0,
0,
0,
0,
0,
0,
0,
0,
1,
1,
0,
0,
0,
0,
0,
0,
0,
0,
0,
0,
0,
0,
1,
1,
0,
0,
1,
1,
1,
1,
1,
1,
0,
0,
0,
0,
1,
1,
0,
0,
1,
1,
1,
1,
1,
1,
1,
1,
1,
1,
1,
1,
2,
2,
2,
2,
2,
2,
2,
2,
2,
2,
3,
3,
3,
3,
3,
3,
3,
3,
4,
4,
3,
3,
4,
4,
4,
4,
5,
5,
5,
5,
6,
6,
5,
5,
6,
6,
7,
7,
6,
6,
8,
8,
7,
7,
8,
8,
8,
8,
9,
9,
10,
10,
10,
10,
10,
10,
10,
10,
11,
11,
11,
11,
12,
12,
12,
12,
12,
12,
13,
13,
13,
13,
13,
13,
14,
14,
14,
14,
15,
15,
16,
16,
16,
16,
17,
17,
17,
17,
18,
18,
18,
18,
19,
19,
19,
19,
19,
19,
20,
20,
20,
20,
21,
21,
22,
22,
22,
22,
22,
22,
23,
23,
23,
23,
24,
24,
25,
25,
25,
25,
25,
25,
26,
26,
27,
27,
27,
27,
27,
27,
28,
28,
28,
28,
29,
29,
29,
29,
31,
31,
31,
31,
31,
31,
32,
32,
32,
32,
32,
32,
32,
32,
33,
33,
34,
34,
35,
35,
35,
35,
35,
35,
36,
36,
36,
36,
36,
36,
37,
37,
38,
38,
39,
39,
39,
39,
40,
40,
40,
40,
41,
41,
41,
41,
43,
43,
43,
43,
43,
43,
43,
43,
44,
44,
44,
44,
45,
45,
45,
45,
46,
46,
46,
46,
46,
46,
47,
47,
48,
48,
48,
48,
49,
49,
49,
49,
49,
49,
51,
51,
51,
51,
52,
52,
51,
51,
53,
53,
54,
54,
53,
53,
54,
54,
55,
55,
55,
55,
56,
56,
56,
56,
58,
58,
57,
57,
58,
58,
59,
59,
59,
59,
59,
59,
59,
59,
62,
62,
61,
61,
62,
62,
63,
63,
63,
63,
64,
64,
64,
64,
65,
65,
65,
65,
66,
66,
67,
67,
67,
67,
67,
67,
68,
68,
68,
68,
69,
69,
70,
70,
70,
70,
71,
71,
71,
71,
72,
72,
72,
72,
73,
73,
74,
74,
73,
73,
74,
74,
75,
75,
74,
74,
75,
75,
76,
76,
77,
77,
77,
77,
78,
78,
78,
78,
79,
79,
80,
80,
80,
80,
80,
80,
82,
82,
82,
82,
82,
82,
83,
83,
83,
83,
84,
84,
85,
85,
85,
85,
85,
85,
86,
86,
87,
87,
86,
86,
87,
87,
89,
89,
89,
89,
89,
89,
90,
90,
90,
90,
91,
91,
91,
91,
92,
92,
93,
93,
93,
93,
93,
93,
94,
94,
94,
94,
95,
95,
96,
96,
96,
96,
98,
98,
97,
97,
98,
98,
99,
99,
99,
99,
99,
99,
100,
100,
101,
101,
101,
101,
102,
102,
102,
102,
102,
102,
103,
103,
104,
104,
105,
105,
105,
105,
106,
106,
107,
107,
107,
107,
108,
108,
108,
108,
108,
108,
109,
109,
109,
109,
110,
110,
110,
110,
111,
111,
113,
113,
113,
113,
114,
114,
114,
114,
114,
114,
115,
115,
115,
115,
116,
116,
116,
116,
117,
117,
118,
118,
118,
118,
118,
118,
118,
118,
120,
120,
120,
120,
120,
120,
122,
122,
122,
122,
122,
122,
123,
123,
124,
124,
123,
123,
125,
125,
124,
124,
126,
126,
126,
126,
127,
127,
127,
127,
128,
128,
128,
128,
130,
130,
129,
129,
130,
130,
131,
131,
131,
131,
131,
131,
133,
133,
133,
133,
133,
133,
134,
134,
134,
134,
135,
135,
136,
136,
135,
135,
136,
136,
138,
122,
123,
95,
96,
75,
75,
52,
53,
25,
26,
0,
0,
0,
1,
1,
0,
0,
0,
0,
1,
1,
0,
0,
1,
1,
0,
0,
0,
0,
0,
0,
0,
0,
0,
0,
0,
0,
1,
1,
1,
1,
0,
0,
0,
0,
1,
1,
1,
1,
0,
0,
0,
0,
0,
0,
0,
0,
0,
0,
1,
1,
0,
0,
0,
0,
0,
0,
1,
1,
1,
1,
1,
1,
1,
1,
1,
1,
1,
1,
1,
1,
1,
1,
1,
1,
1,
1,
2,
2,
1,
1,
2,
2,
2,
2,
3,
3,
3,
3,
3,
3,
4,
4,
4,
4,
3,
3,
4,
4,
5,
5,
4,
4,
6,
6,
6,
6,
6,
6,
5,
5,
7,
7,
7,
7,
7,
7,
7,
7,
8,
8,
8,
8,
9,
9,
9,
9,
10,
10,
10,
10,
11,
11,
11,
11,
11,
11,
12,
12,
12,
12,
13,
13,
13,
13,
13,
13,
14,
14,
14,
14,
16,
16,
15,
15,
15,
15,
16,
16,
17,
17,
17,
17,
18,
18,
19,
19,
19,
19,
19,
19,
20,
20,
21,
21,
21,
21,
22,
22,
21,
21,
22,
22,
23,
23,
23,
23,
23,
23,
25,
25,
25,
25,
26,
26,
26,
26,
26,
26,
27,
27,
27,
27,
28,
28,
29,
29,
29,
29,
30,
30,
31,
31,
30,
30,
31,
31,
31,
31,
32,
32,
32,
32,
33,
33,
33,
33,
34,
34,
35,
35,
35,
35,
36,
36,
36,
36,
36,
36,
37,
37,
37,
37,
38,
38,
39,
39,
39,
39,
40,
40,
41,
41,
42,
42,
42,
42,
42,
42,
43,
43,
43,
43,
43,
43,
44,
44,
44,
44,
45,
45,
45,
45,
46,
46,
46,
46,
46,
46,
47,
47,
47,
47,
48,
48,
50,
50,
50,
50,
50,
50,
51,
51,
51,
51,
52,
52,
52,
52,
53,
53,
54,
54,
54,
54,
54,
54,
55,
55,
56,
56,
56,
56,
57,
57,
57,
57,
58,
58,
58,
58,
59,
59,
59,
59,
59,
59,
60,
60,
61,
61,
61,
61,
63,
63,
63,
63,
64,
64,
64,
64,
64,
64,
64,
64,
66,
66,
66,
66,
66,
66,
67,
67,
68,
68,
68,
68,
69,
69,
69,
69,
70,
70,
70,
70,
71,
71,
71,
71,
72,
72,
73,
73,
74,
74,
74,
74,
74,
74,
75,
75,
76,
76,
75,
75,
76,
76,
76,
76,
77,
77,
77,
77,
78,
78,
80,
80,
79,
79,
80,
80,
82,
82,
81,
81,
82,
82,
82,
82,
83,
83,
83,
83,
84,
84,
85,
85,
85,
85,
85,
85,
85,
85,
87,
87,
86,
86,
87,
87,
88,
88,
89,
89,
89,
89,
90,
90,
90,
90,
91,
91,
91,
91,
92,
92,
92,
92,
93,
93,
94,
94,
94,
94,
95,
95,
95,
95,
95,
95,
96,
96,
97,
97,
97,
97,
98,
98,
99,
99,
99,
99,
99,
99,
100,
100,
101,
101,
102,
102,
101,
101,
102,
102,
103,
103,
103,
103,
103,
103,
105,
105,
105,
105,
106,
106,
107,
107,
107,
107,
107,
107,
108,
108,
108,
108,
109,
109,
109,
109,
110,
110,
111,
111,
111,
111,
112,
112,
112,
112,
113,
113,
114,
114,
114,
114,
115,
115,
115,
115,
116,
116,
117,
117,
116,
116,
117,
117,
118,
118,
119,
119,
118,
118,
119,
119,
121,
121,
121,
121,
120,
120,
122,
122,
123,
123,
122,
122,
123,
123,
124,
124,
124,
124,
125,
125,
126,
126,
126,
126,
127,
127,
127,
127,
128,
128,
129,
129,
128,
128,
129,
129,
130,
130,
131,
131,
130,
130,
132,
132,
132,
132,
133,
133,
134,
134,
134,
134,
134,
134,
135,
135,
136,
136,
136,
136,
137,
137,
137,
137,
137,
137,
138,
138,
139,
139,
133,
108,
107,
92,
92,
65,
65,
43,
43,
18,
18,
-3,
-2,
-2,
-1,
-1,
0,
0,
0,
0,
1,
1,
0,
0,
0,
0,
0,
0,
0,
0,
0,
0,
0,
0,
0,
0,
0,
0,
0,
0,
0,
0,
0,
0,
1,
1,
0,
0,
0,
0,
0,
0,
0,
0,
0,
0,
1,
1,
1,
1,
1,
1,
0,
0,
1,
1,
1,
1,
0,
0,
1,
1,
1,
1,
0,
0,
1,
1,
1,
1,
1,
1,
1,
1,
1,
1,
1,
1,
2,
2,
2,
2,
3,
3,
3,
3,
3,
3,
3,
3,
3,
3,
4,
4,
4,
4,
4,
4,
5,
5,
5,
5,
6,
6,
6,
6,
6,
6,
7,
7,
7,
7,
7,
7,
7,
7,
8,
8,
8,
8,
9,
9,
10,
10,
9,
9,
10,
10,
10,
10,
11,
11,
12,
12,
11,
11,
12,
12,
13,
13,
13,
13,
14,
14,
14,
14,
15,
15,
16,
16,
16,
16,
16,
16,
18,
18,
18,
18,
18,
18,
18,
18,
19,
19,
19,
19,
20,
20,
20,
20,
20,
20,
21,
21,
22,
22,
22,
22,
22,
22,
23,
23,
23,
23,
24,
24,
24,
24,
25,
25,
26,
26,
26,
26,
26,
26,
27,
27,
27,
27,
28,
28,
28,
28,
30,
30,
29,
29,
30,
30,
31,
31,
32,
32,
32,
32,
32,
32,
32,
32,
33,
33,
33,
33,
34,
34,
35,
35,
35,
35,
36,
36,
36,
36,
37,
37,
38,
38,
38,
38,
39,
39,
39,
39,
40,
40,
40,
40,
40,
40,
42,
42,
42,
42,
43,
43,
43,
43,
43,
43,
44,
44,
44,
44,
45,
45,
45,
45,
46,
46,
47,
47,
47,
47,
47,
47,
48,
48,
49,
49,
49,
49,
49,
49,
50,
50,
52,
52,
51,
51,
52,
52,
53,
53,
53,
53,
53,
53,
55,
55,
55,
55,
55,
55,
56,
56,
56,
56,
57,
57,
58,
58,
58,
58,
59,
59,
59,
59,
59,
59,
60,
60,
60,
60,
61,
61,
62,
62,
62,
62,
63,
63,
64,
64,
65,
65,
65,
65,
65,
65,
66,
66,
66,
66,
67,
67,
68,
68,
68,
68,
69,
69,
69,
69,
70,
70,
71,
71,
71,
71,
71,
71,
72,
72,
73,
73,
73,
73,
74,
74,
74,
74,
74,
74,
75,
75,
75,
75,
76,
76,
76,
76,
77,
77,
77,
77,
78,
78,
78,
78,
79,
79,
79,
79,
81,
81,
82,
82,
81,
81,
82,
82,
83,
83,
83,
83,
84,
84,
84,
84,
84,
84,
85,
85,
86,
86,
86,
86,
87,
87,
87,
87,
88,
88,
90,
90,
90,
90,
89,
89,
90,
90,
91,
91,
91,
91,
92,
92,
92,
92,
94,
94,
94,
94,
94,
94,
94,
94,
95,
95,
95,
95,
96,
96,
98,
98,
97,
97,
98,
98,
98,
98,
99,
99,
99,
99,
100,
100,
101,
101,
101,
101,
102,
102,
102,
102,
103,
103,
103,
103,
104,
104,
104,
104,
105,
105,
106,
106,
107,
107,
107,
107,
107,
107,
107,
107,
109,
109,
109,
109,
109,
109,
110,
110,
111,
111,
112,
112,
112,
112,
112,
112,
113,
113,
114,
114,
114,
114,
115,
115,
116,
116,
116,
116,
116,
116,
116,
116,
117,
117,
118,
118,
118,
118,
119,
119,
119,
119,
120,
120,
120,
120,
122,
122,
122,
122,
123,
123,
123,
123,
124,
124,
124,
124,
125,
125,
126,
126,
126,
126,
126,
126,
127,
127,
127,
127,
129,
129,
129,
129,
130,
130,
130,
130,
130,
130,
131,
131,
131,
131,
132,
132,
132,
132,
133,
133,
134,
134,
134,
134,
134,
134,
134,
134,
135,
135,
136,
136,
137,
137,
138,
138,
138,
138,
139,
139,
138,
138,
140,
140,
140,
140,
141,
141,
141,
127,
127,
96,
97,
77,
78,
50,
50,
28,
29,
10,
10,
-6,
3,
3,
0,
0,
0,
0,
0,
0,
0,
0,
0,
0,
0,
0,
0,
0,
0,
0,
0,
0,
0,
0,
0,
0,
0,
0,
0,
0,
0,
0,
0,
0,
0,
0,
1,
1,
0,
0,
0,
0,
0,
0,
0,
0,
1,
1,
1,
1,
1,
1,
1,
1,
1,
1,
2,
2,
0,
0,
2,
2,
0,
0,
1,
1,
1,
1,
2,
2,
2,
2,
2,
2,
3,
3,
3,
3,
2,
2,
3,
3,
3,
3,
4,
4,
4,
4,
3,
3,
4,
4,
4,
4,
4,
4,
5,
5,
5,
5,
6,
6,
7,
7,
6,
6,
7,
7,
7,
7,
8,
8,
8,
8,
9,
9,
9,
9,
10,
10,
10,
10,
10,
10,
11,
11,
11,
11,
11,
11,
12,
12,
13,
13,
13,
13,
13,
13,
14,
14,
15,
15,
15,
15,
16,
16,
16,
16,
17,
17,
17,
17,
18,
18,
18,
18,
18,
18,
19,
19,
19,
19,
20,
20,
20,
20,
21,
21,
21,
21,
22,
22,
22,
22,
22,
22,
23,
23,
23,
23,
25,
25,
26,
26,
25,
25,
25,
25,
27,
27,
27,
27,
28,
28,
28,
28,
29,
29,
29,
29,
30,
30,
29,
29,
30,
30,
31,
31,
32,
32,
32,
32,
32,
32,
33,
33,
34,
34,
34,
34,
35,
35,
34,
34,
36,
36,
36,
36,
36,
36,
37,
37,
38,
38,
38,
38,
40,
40,
39,
39,
40,
40,
41,
41,
41,
41,
42,
42,
42,
42,
43,
43,
43,
43,
44,
44,
44,
44,
46,
46,
45,
45,
46,
46,
47,
47,
47,
47,
48,
48,
48,
48,
48,
48,
49,
49,
49,
49,
50,
50,
51,
51,
51,
51,
52,
52,
53,
53,
53,
53,
53,
53,
54,
54,
55,
55,
55,
55,
56,
56,
56,
56,
56,
56,
57,
57,
58,
58,
58,
58,
59,
59,
60,
60,
60,
60,
61,
61,
62,
62,
62,
62,
63,
63,
63,
63,
64,
64,
64,
64,
64,
64,
65,
65,
66,
66,
67,
67,
67,
67,
67,
67,
68,
68,
68,
68,
69,
69,
69,
69,
70,
70,
71,
71,
72,
72,
71,
71,
72,
72,
74,
74,
74,
74,
74,
74,
74,
74,
75,
75,
76,
76,
76,
76,
77,
77,
77,
77,
78,
78,
78,
78,
79,
79,
79,
79,
80,
80,
80,
80,
81,
81,
82,
82,
82,
82,
83,
83,
83,
83,
84,
84,
85,
85,
84,
84,
86,
86,
86,
86,
86,
86,
87,
87,
88,
88,
89,
89,
91,
91,
89,
89,
90,
90,
90,
90,
91,
91,
91,
91,
92,
92,
93,
93,
93,
93,
94,
94,
95,
95,
95,
95,
95,
95,
96,
96,
96,
96,
98,
98,
97,
97,
98,
98,
99,
99,
100,
100,
100,
100,
100,
100,
101,
101,
101,
101,
102,
102,
103,
103,
103,
103,
104,
104,
105,
105,
106,
106,
106,
106,
107,
107,
107,
107,
107,
107,
108,
108,
109,
109,
109,
109,
109,
109,
110,
110,
110,
110,
111,
111,
112,
112,
112,
112,
113,
113,
114,
114,
114,
114,
115,
115,
115,
115,
116,
116,
116,
116,
117,
117,
117,
117,
118,
118,
118,
118,
119,
119,
120,
120,
120,
120,
121,
121,
122,
122,
122,
122,
123,
123,
123,
123,
124,
124,
124,
124,
125,
125,
125,
125,
126,
126,
126,
126,
127,
127,
128,
128,
128,
128,
129,
129,
129,
129,
130,
130,
131,
131,
131,
131,
131,
131,
131,
131,
132,
132,
134,
134,
134,
134,
134,
134,
135,
135,
135,
135,
136,
136,
137,
137,
137,
137,
137,
137,
138,
138,
139,
139,
138,
138,
139,
139,
140,
140,
141,
141,
141,
141,
142,
142,
142,
142,
143,
143,
143,
110,
111,
89,
89,
66,
66,
44,
44,
20,
21,
-4,
-4,
-4,
-1,
-1,
0,
0,
0,
0,
0,
0,
0,
0,
0,
0,
0,
0,
0,
0,
1,
1,
0,
0,
0,
0,
0,
0,
0,
0,
0,
0,
0,
0,
0,
0,
0,
0,
1,
1,
1,
1,
1,
1,
1,
1,
1,
1,
1,
1,
1,
1,
1,
1,
0,
0,
1,
1,
1,
1,
1,
1,
1,
1,
1,
1,
2,
2,
1,
1,
1,
1,
2,
2,
2,
2,
3,
3,
3,
3,
3,
3,
3,
3,
3,
3,
4,
4,
4,
4,
4,
4,
4,
4,
5,
5,
5,
5,
5,
5,
6,
6,
6,
6,
7,
7,
7,
7,
7,
7,
8,
8,
9,
9,
10,
10,
9,
9,
10,
10,
10,
10,
10,
10,
12,
12,
12,
12,
12,
12,
12,
12,
13,
13,
13,
13,
14,
14,
14,
14,
15,
15,
15,
15,
16,
16,
16,
16,
17,
17,
17,
17,
18,
18,
18,
18,
19,
19,
19,
19,
20,
20,
20,
20,
21,
21,
21,
21,
22,
22,
22,
22,
23,
23,
23,
23,
24,
24,
26,
26,
25,
25,
26,
26,
26,
26,
27,
27,
27,
27,
28,
28,
28,
28,
28,
28,
28,
28,
29,
29,
30,
30,
30,
30,
31,
31,
32,
32,
32,
32,
33,
33,
33,
33,
34,
34,
35,
35,
35,
35,
36,
36,
36,
36,
36,
36,
37,
37,
38,
38,
38,
38,
39,
39,
39,
39,
40,
40,
41,
41,
41,
41,
41,
41,
42,
42,
43,
43,
43,
43,
44,
44,
44,
44,
45,
45,
44,
44,
45,
45,
46,
46,
47,
47,
47,
47,
48,
48,
48,
48,
49,
49,
50,
50,
50,
50,
50,
50,
51,
51,
51,
51,
52,
52,
53,
53,
54,
54,
54,
54,
54,
54,
55,
55,
55,
55,
56,
56,
57,
57,
57,
57,
58,
58,
58,
58,
59,
59,
60,
60,
59,
59,
60,
60,
62,
62,
62,
62,
63,
63,
63,
63,
63,
63,
64,
64,
65,
65,
65,
65,
65,
65,
66,
66,
66,
66,
68,
68,
68,
68,
69,
69,
69,
69,
70,
70,
70,
70,
71,
71,
71,
71,
72,
72,
72,
72,
73,
73,
74,
74,
74,
74,
74,
74,
75,
75,
75,
75,
76,
76,
76,
76,
77,
77,
78,
78,
78,
78,
79,
79,
79,
79,
81,
81,
80,
80,
81,
81,
82,
82,
82,
82,
83,
83,
83,
83,
84,
84,
85,
85,
85,
85,
86,
86,
86,
86,
88,
88,
87,
87,
88,
88,
90,
90,
89,
89,
90,
90,
90,
90,
91,
91,
91,
91,
92,
92,
92,
92,
93,
93,
94,
94,
94,
94,
95,
95,
95,
95,
96,
96,
96,
96,
98,
98,
98,
98,
99,
99,
99,
99,
100,
100,
100,
100,
100,
100,
100,
100,
101,
101,
101,
101,
102,
102,
102,
102,
105,
105,
105,
105,
105,
105,
106,
106,
106,
106,
106,
106,
107,
107,
107,
107,
108,
108,
108,
108,
109,
109,
109,
109,
110,
110,
112,
112,
112,
112,
112,
112,
113,
113,
114,
114,
114,
114,
115,
115,
115,
115,
116,
116,
116,
116,
117,
117,
117,
117,
118,
118,
119,
119,
119,
119,
120,
120,
120,
120,
121,
121,
121,
121,
122,
122,
122,
122,
123,
123,
123,
123,
124,
124,
125,
125,
126,
126,
126,
126,
126,
126,
126,
126,
128,
128,
128,
128,
129,
129,
129,
129,
129,
129,
131,
131,
131,
131,
131,
131,
132,
132,
133,
133,
133,
133,
134,
134,
134,
134,
135,
135,
135,
135,
136,
136,
137,
137,
137,
137,
138,
138,
138,
138,
139,
139,
140,
140,
139,
139,
140,
140,
141,
141,
141,
141,
141,
141,
142,
142,
143,
143,
143,
143,
144,
144,
145,
145,
145,
130,
131,
110,
111,
81,
82,
52,
53,
37,
37,
8,
8,
-7,
1,
1,
0,
0,
0,
0,
1,
1,
0,
0,
0,
0,
0,
0,
1,
1,
0,
0,
0,
0,
0,
0,
0,
0,
0,
0,
0,
0,
1,
1,
1,
1,
1,
1,
1,
1,
0,
0,
0,
0,
0,
0,
0,
0,
0,
0,
1,
1,
1,
1,
1,
1,
1,
1,
1,
1,
1,
1,
1,
1,
1,
1,
1,
1,
1,
1,
3,
3,
3,
3,
2,
2,
3,
3,
3,
3,
3,
3,
4,
4,
4,
4,
4,
4,
5,
5,
5,
5,
5,
5,
6,
6,
6,
6,
7,
7,
6,
6,
7,
7,
7,
7,
8,
8,
8,
8,
9,
9,
9,
9,
10,
10,
10,
10,
11,
11,
11,
11,
11,
11,
11,
11,
12,
12,
13,
13,
13,
13,
14,
14,
14,
14,
14,
14,
16,
16,
15,
15,
16,
16,
16,
16,
18,
18,
18,
18,
18,
18,
19,
