6-anwendungen-opAmps/daten/ALL0041/A0041CH2.CSV

Memory Length,4000,
Trigger Level,6.18000e+02,
Source,CH2,
Probe,1.0X,
Vertical Units,V,
Vertical Scale,2.00000e-01,
Vertical Position,0.00000e+00,
Horizontal Units,S,
Horizontal Scale,5.00000e-04,
Horizontal Position,-7.0000000e-04,
Horizontal Mode,XY Mode,
Sampling Period,2.00000e-06,
Firmware,V1.14,
Time, ,
Mode,Fast,
Waveform Data,
-2,
-2,
-2,
0,
0,
-1,
-1,
1,
1,
-1,
-1,
-1,
-1,
-1,
-1,
-2,
-2,
1,
1,
0,
0,
-1,
-1,
-2,
-2,
-1,
-1,
1,
1,
-2,
-2,
-1,
-1,
-1,
-1,
-1,
-1,
1,
1,
0,
0,
1,
1,
-1,
-1,
2,
2,
1,
1,
-1,
-1,
-2,
-2,
1,
1,
-2,
-2,
-1,
-1,
-1,
-1,
0,
0,
-1,
-1,
0,
0,
-1,
-1,
0,
0,
-2,
-2,
1,
1,
0,
0,
0,
0,
-1,
-1,
1,
1,
-1,
-1,
0,
0,
-1,
-1,
-2,
-2,
2,
2,
-1,
-1,
-3,
-3,
-1,
-1,
-1,
-1,
0,
0,
1,
1,
1,
1,
0,
0,
0,
0,
-1,
-1,
2,
2,
1,
1,
0,
0,
2,
2,
-3,
-3,
1,
1,
-1,
-1,
-1,
-1,
0,
0,
-1,
-1,
-1,
-1,
1,
1,
-2,
-2,
-3,
-3,
-2,
-2,
0,
0,
-1,
-1,
-3,
-3,
0,
0,
-3,
-3,
1,
1,
1,
1,
0,
0,
0,
0,
1,
1,
2,
2,
1,
1,
-1,
-1,
0,
0,
-1,
-1,
0,
0,
2,
2,
-1,
-1,
1,
1,
-2,
-2,
-1,
-1,
-2,
-2,
0,
0,
1,
1,
0,
0,
1,
1,
-2,
-2,
-1,
-1,
0,
0,
1,
1,
1,
1,
1,
1,
0,
0,
-2,
-2,
-2,
-2,
-1,
-1,
-1,
-1,
-2,
-2,
0,
0,
1,
1,
1,
1,
1,
1,
-1,
-1,
1,
1,
0,
0,
2,
2,
-1,
-1,
-2,
-2,
-2,
-2,
0,
0,
-2,
-2,
0,
0,
1,
1,
-1,
-1,
1,
1,
-2,
-2,
-1,
-1,
-2,
-2,
-2,
-2,
-3,
-3,
1,
1,
-1,
-1,
-1,
-1,
-2,
-2,
-1,
-1,
-1,
-1,
0,
0,
-2,
-2,
-2,
-2,
0,
0,
-2,
-2,
-1,
-1,
-2,
-2,
1,
1,
-2,
-2,
0,
0,
-1,
-1,
1,
1,
0,
0,
-1,
-1,
-1,
-1,
1,
1,
1,
1,
0,
0,
-2,
-2,
2,
2,
1,
1,
0,
0,
-1,
-1,
0,
0,
1,
1,
0,
0,
-2,
-2,
-1,
-1,
0,
0,
-1,
-1,
0,
0,
-1,
-1,
-1,
-1,
1,
1,
-1,
-1,
0,
0,
0,
0,
0,
0,
1,
1,
0,
0,
-2,
-2,
0,
0,
-2,
-2,
0,
0,
0,
0,
1,
1,
0,
0,
0,
0,
-1,
-1,
1,
1,
0,
0,
1,
1,
-1,
-1,
-1,
-1,
1,
1,
0,
0,
-1,
-1,
0,
0,
-1,
-1,
-3,
-3,
-1,
-1,
-1,
-1,
-1,
-1,
0,
0,
0,
0,
0,
0,
-1,
-1,
-1,
-1,
-2,
-2,
0,
0,
-3,
-3,
-1,
-1,
0,
0,
-2,
-2,
-3,
-3,
-3,
-3,
-2,
-2,
-1,
-1,
0,
0,
2,
2,
1,
1,
0,
0,
1,
1,
-1,
-1,
-1,
-1,
0,
0,
-1,
-1,
-2,
-2,
0,
0,
0,
0,
0,
0,
1,
1,
1,
1,
0,
0,
0,
0,
1,
1,
1,
1,
-1,
-1,
-2,
-2,
0,
0,
-2,
-2,
0,
0,
0,
0,
0,
0,
-2,
-2,
-1,
-1,
1,
1,
0,
0,
-1,
-1,
-1,
-1,
0,
0,
-1,
-1,
-1,
-1,
0,
0,
-1,
-1,
0,
0,
-1,
-1,
-1,
-1,
-1,
-1,
1,
1,
-2,
-2,
0,
0,
-2,
-2,
1,
1,
-1,
-1,
0,
0,
-2,
-2,
0,
0,
0,
0,
-3,
-3,
-1,
-1,
1,
1,
-1,
-1,
-1,
-1,
0,
0,
-1,
-1,
1,
1,
0,
0,
1,
1,
-1,
-1,
0,
0,
0,
0,
1,
1,
0,
0,
0,
0,
0,
0,
-1,
-1,
1,
1,
0,
0,
0,
0,
2,
2,
0,
0,
0,
0,
0,
0,
-1,
-1,
-2,
-2,
1,
1,
-2,
-2,
-1,
-1,
-1,
-1,
-1,
-1,
-1,
-1,
-3,
-3,
1,
1,
0,
0,
-1,
-1,
-3,
-3,
-2,
-2,
-2,
-2,
1,
1,
1,
1,
2,
2,
-2,
-2,
2,
2,
2,
2,
1,
1,
0,
0,
0,
0,
-1,
-1,
-1,
-1,
0,
0,
0,
0,
0,
0,
-1,
-1,
-1,
-1,
0,
0,
-1,
-1,
0,
0,
-1,
-1,
-1,
-1,
0,
0,
-2,
-2,
-3,
-3,
-2,
-2,
1,
1,
1,
1,
0,
0,
1,
1,
0,
0,
0,
0,
1,
1,
1,
1,
0,
0,
-1,
-1,
1,
1,
2,
2,
0,
0,
0,
0,
-2,
-2,
0,
0,
-2,
-2,
-2,
-2,
-2,
-2,
0,
0,
-3,
-3,
-2,
-2,
-1,
-1,
0,
0,
2,
2,
-2,
-2,
0,
0,
0,
0,
1,
1,
-1,
-1,
-1,
-1,
1,
1,
0,
0,
0,
0,
1,
1,
-1,
-1,
0,
0,
2,
2,
-1,
-1,
-2,
-2,
1,
1,
-2,
-2,
0,
0,
-2,
-2,
-2,
-2,
0,
0,
-1,
-1,
0,
0,
-1,
-1,
-1,
-1,
-1,
-1,
-2,
-2,
-2,
-2,
0,
0,
-2,
-2,
-1,
-1,
-3,
-3,
-2,
-2,
-2,
-2,
-1,
-1,
-1,
-1,
2,
2,
0,
0,
-1,
-1,
-1,
-1,
1,
1,
-3,
-3,
-1,
-1,
-1,
-1,
-1,
-1,
0,
0,
0,
0,
0,
0,
-2,
-2,
-2,
-2,
2,
2,
0,
0,
-1,
-1,
1,
1,
-2,
-2,
-1,
-1,
-2,
-2,
-1,
-1,
-2,
-2,
0,
0,
-2,
-2,
1,
1,
-2,
-2,
0,
0,
0,
0,
0,
0,
0,
0,
0,
0,
0,
0,
-2,
-2,
-2,
-2,
-1,
-1,
-1,
-1,
-2,
-2,
0,
0,
0,
0,
-2,
-2,
1,
1,
0,
0,
-2,
-2,
0,
0,
-1,
-1,
1,
1,
-1,
-1,
0,
0,
0,
0,
1,
1,
-2,
-2,
0,
0,
1,
1,
0,
0,
-3,
-3,
-2,
-2,
-1,
-1,
1,
1,
-1,
-1,
1,
1,
1,
1,
1,
1,
-3,
-3,
-1,
-1,
1,
1,
0,
0,
-1,
-1,
-1,
-1,
-1,
-1,
0,
0,
-1,
-1,
-1,
-1,
0,
0,
-2,
-2,
-1,
-1,
0,
0,
-2,
-2,
-2,
-2,
0,
0,
1,
1,
-2,
-2,
2,
2,
-2,
-2,
-1,
-1,
0,
0,
-2,
-2,
-2,
-2,
-1,
-1,
-1,
-1,
0,
0,
1,
1,
1,
1,
0,
0,
-1,
-1,
1,
1,
1,
1,
0,
0,
-2,
-2,
0,
0,
-3,
-3,
-2,
-2,
-1,
-1,
2,
2,
-3,
-3,
-1,
-1,
0,
0,
-1,
-1,
0,
0,
-2,
-2,
-1,
-1,
2,
2,
0,
0,
0,
0,
-3,
-3,
0,
0,
0,
0,
0,
0,
-2,
-2,
1,
1,
-1,
-1,
-2,
-2,
1,
1,
-3,
-3,
-2,
-2,
0,
0,
1,
1,
0,
0,
-2,
-2,
-1,
-1,
0,
0,
1,
1,
-3,
-3,
0,
0,
-1,
-1,
-1,
-1,
-1,
-1,
2,
2,
1,
1,
0,
0,
0,
0,
-1,
-1,
1,
1,
-2,
-2,
0,
0,
-1,
-1,
-1,
-1,
-2,
-2,
0,
0,
-1,
-1,
0,
0,
-1,
-1,
1,
1,
0,
0,
1,
1,
-1,
-1,
-2,
-2,
0,
0,
-1,
-1,
-1,
-1,
1,
1,
0,
0,
-1,
-1,
0,
0,
1,
1,
-2,
-2,
-1,
-1,
-1,
-1,
-1,
-1,
2,
2,
1,
1,
2,
2,
1,
1,
-2,
-2,
1,
1,
0,
0,
0,
0,
0,
0,
-2,
-2,
-1,
-1,
-3,
-3,
-2,
-2,
0,
0,
0,
0,
-3,
-3,
2,
2,
-3,
-3,
-2,
-2,
-2,
-2,
-2,
-2,
0,
0,
0,
0,
1,
1,
-1,
-1,
2,
2,
-1,
-1,
0,
0,
1,
1,
2,
2,
0,
0,
2,
2,
1,
1,
-1,
-1,
-1,
-1,
1,
1,
0,
0,
1,
1,
0,
0,
-1,
-1,
-3,
-3,
0,
0,
0,
0,
0,
0,
-2,
-2,
-1,
-1,
1,
1,
0,
0,
-1,
-1,
-1,
-1,
0,
0,
0,
0,
-1,
-1,
0,
0,
-2,
-2,
-2,
-2,
-1,
-1,
1,
1,
0,
0,
-1,
-1,
-2,
-2,
-2,
-2,
1,
1,
0,
0,
-2,
-2,
1,
1,
-1,
-1,
0,
0,
0,
0,
1,
1,
1,
1,
-2,
-2,
-2,
-2,
1,
1,
-1,
-1,
1,
1,
2,
2,
0,
0,
-2,
-2,
0,
0,
-3,
-3,
0,
0,
-2,
-2,
-2,
-2,
1,
1,
0,
0,
0,
0,
0,
0,
0,
0,
-1,
-1,
0,
0,
-2,
-2,
0,
0,
-1,
-1,
0,
0,
1,
1,
-2,
-2,
-1,
-1,
1,
1,
1,
1,
0,
0,
-1,
-1,
0,
0,
1,
1,
-1,
-1,
0,
0,
0,
0,
2,
2,
1,
1,
0,
0,
0,
0,
0,
0,
-1,
-1,
0,
0,
-1,
-1,
1,
1,
-2,
-2,
-1,
-1,
-1,
-1,
-3,
-3,
1,
1,
0,
0,
0,
0,
0,
0,
-2,
-2,
0,
0,
0,
0,
0,
0,
1,
1,
-1,
-1,
-1,
-1,
-3,
-3,
1,
1,
-3,
-3,
-2,
-2,
-1,
-1,
1,
1,
-1,
-1,
1,
1,
1,
1,
1,
1,
-1,
-1,
-2,
-2,
0,
0,
2,
2,
0,
0,
1,
1,
0,
0,
-1,
-1,
-1,
-1,
-2,
-2,
1,
1,
1,
1,
2,
2,
0,
0,
1,
1,
-1,
-1,
1,
1,
1,
1,
-1,
-1,
0,
0,
1,
1,
-1,
-1,
1,
1,
1,
1,
-2,
-2,
-1,
-1,
-1,
-1,
-1,
-1,
0,
0,
0,
0,
-2,
-2,
-3,
-3,
-1,
-1,
-1,
-1,
0,
0,
-1,
-1,
1,
1,
0,
0,
0,
0,
2,
2,
2,
2,
1,
1,
-1,
-1,
-1,
-1,
0,
0,
-1,
-1,
-2,
-2,
0,
0,
1,
1,
-2,
-2,
-1,
-1,
1,
1,
1,
1,
-1,
-1,
-1,
-1,
-1,
-1,
1,
1,
0,
0,
0,
0,
-1,
-1,
-1,
-1,
0,
0,
1,
1,
-2,
-2,
0,
0,
0,
0,
-1,
-1,
-1,
-1,
-2,
-2,
0,
0,
0,
0,
0,
0,
-1,
-1,
1,
1,
-2,
-2,
-3,
-3,
-1,
-1,
-1,
-1,
0,
0,
-2,
-2,
0,
0,
0,
0,
-2,
-2,
0,
0,
-1,
-1,
1,
1,
1,
1,
-2,
-2,
-1,
-1,
1,
1,
-1,
-1,
-1,
-1,
-1,
-1,
0,
0,
-2,
-2,
-1,
-1,
0,
0,
0,
0,
0,
0,
0,
0,
-1,
-1,
-1,
-1,
-1,
-1,
-1,
-1,
-1,
-1,
0,
0,
-1,
-1,
-2,
-2,
0,
0,
-1,
-1,
0,
0,
-1,
-1,
-1,
-1,
0,
0,
0,
0,
0,
0,
1,
1,
0,
0,
0,
0,
-1,
-1,
0,
0,
-3,
-3,
0,
0,
-1,
-1,
-2,
-2,
0,
0,
0,
0,
0,
0,
1,
1,
-1,
-1,
-2,
-2,
-1,
-1,
-1,
-1,
-1,
-1,
0,
0,
-1,
-1,
-1,
-1,
1,
1,
-2,
-2,
0,
0,
-2,
-2,
-1,
-1,
-3,
-3,
-1,
-1,
-2,
-2,
-1,
-1,
0,
0,
1,
1,
-1,
-1,
1,
1,
-1,
-1,
2,
2,
-1,
-1,
-2,
-2,
0,
0,
-2,
-2,
-2,
-2,
-2,
-2,
-1,
-1,
0,
0,
0,
0,
-1,
-1,
-1,
-1,
1,
1,
-2,
-2,
-1,
-1,
0,
0,
1,
1,
0,
0,
1,
1,
1,
1,
0,
0,
0,
0,
0,
0,
0,
0,
-2,
-2,
0,
0,
-2,
-2,
1,
1,
-3,
-3,
-1,
-1,
0,
0,
1,
1,
-1,
-1,
2,
2,
-1,
-1,
-2,
-2,
1,
1,
-1,
-1,
0,
0,
0,
0,
1,
1,
-1,
-1,
1,
1,
1,
1,
1,
1,
-1,
-1,
0,
0,
-2,
-2,
-2,
-2,
1,
1,
0,
0,
1,
1,
0,
0,
0,
0,
-1,
-1,
0,
0,
1,
1,
-2,
-2,
-1,
-1,
-1,
-1,
0,
0,
-1,
-1,
-1,
-1,
-1,
-1,
-2,
-2,
-1,
-1,
0,
0,
-1,
-1,
0,
0,
-1,
-1,
1,
1,
-2,
-2,
0,
0,
-1,
-1,
0,
0,
-2,
-2,
0,
0,
-1,
-1,
1,
1,
-2,
-2,
-1,
-1,
-1,
-1,
-1,
-1,
-2,
-2,
-2,
-2,
1,
1,
-1,
-1,
0,
0,
-1,
-1,
-1,
-1,
1,
1,
-1,
-1,
1,
1,
1,
1,
1,
1,
1,
1,
-1,
-1,
1,
1,
0,
0,
1,
1,
-1,
-1,
0,
0,
-1,
-1,
-1,
-1,
-2,
-2,
0,
0,
1,
1,
0,
0,
0,
0,
-1,
-1,
0,
0,
-1,
-1,
-2,
-2,
1,
1,
-3,
-3,
-1,
-1,
-1,
-1,
0,
0,
-1,
-1,
-1,
-1,
-1,
-1,
-1,
-1,
0,
0,
0,
0,
0,
0,
0,
0,
-1,
-1,
0,
0,
-2,
-2,
-2,
-2,
0,
0,
1,
1,
0,
0,
1,
1,
-1,
-1,
-1,
-1,
-1,
-1,
1,
1,
1,
1,
-1,
-1,
1,
1,
-1,
-1,
-1,
-1,
-1,
-1,
-1,
-1,
-1,
-1,
-1,
-1,
1,
1,
0,
0,
1,
1,
1,
1,
-2,
-2,
-1,
-1,
0,
0,
0,
0,
-3,
-3,
-3,
-3,
-1,
-1,
0,
0,
-1,
-1,
-2,
-2,
0,
0,
-2,
-2,
0,
0,
-1,
-1,
0,
0,
0,
0,
0,
0,
-3,
-3,
0,
0,
-3,
-3,
-1,
-1,
-1,
-1,
0,
0,
-2,
-2,
-1,
-1,
-2,
-2,
-2,
-2,
-2,
-2,
-3,
-3,
-2,
-2,
-3,
-3,
-1,
-1,
-3,
-3,
-1,
-1,
-2,
-2,
-2,
-2,
-3,
-3,
1,
1,
-3,
-3,
-3,
-3,
-1,
-1,
-1,
-1,
-3,
-3,
-1,
-1,
0,
0,
-1,
-1,
-2,
-2,
-2,
-2,
-2,
-2,
0,
0,
-3,
-3,
0,
0,
-2,
-2,
-3,
-3,
-2,
-2,
-3,
-3,
-2,
-2,
0,
0,
-1,
-1,
-3,
-3,
-2,
-2,
-2,
-2,
-3,
-3,
-1,
-1,
-1,
-1,
-1,
-1,
-1,
-1,
-1,
-1,
-1,
-1,
-1,
-1,
-1,
-1,
-3,
-3,
-2,
-2,
-3,
-3,
-4,
-4,
-1,
-1,
-3,
-3,
-2,
-2,
-3,
-3,
-3,
-3,
0,
0,
-4,
-4,
-3,
-3,
-3,
-3,
-5,
-5,
-2,
-2,
-2,
-2,
-2,
-2,
-2,
-2,
-3,
-3,
-3,
-3,
-2,
-2,
-2,
-2,
-3,
-3,
-3,
-3,
-2,
-2,
-3,
-3,
-3,
-3,
-4,
-4,
-3,
-3,
-4,
-4,
-2,
-2,
-5,
-5,
-2,
-2,
-5,
-5,
-3,
-3,
-3,
-3,
-3,
-3,
-4,
-4,
-2,
-2,
-3,
-3,
-4,
-4,
-2,
-2,
-3,
-3,
-3,
-3,
-2,
-2,
-5,
-5,
-2,
-2,
-3,
-3,
-2,
-2,
-4,
-4,
-5,
-5,
-5,
-5,
-4,
-4,
-4,
-4,
-2,
-2,
-3,
-3,
-4,
-4,
-5,
-5,
-3,
-3,
-4,
-4,
-4,
-4,
-2,
-2,
-6,
-6,
-3,
-3,
-5,
-5,
-6,
-6,
-4,
-4,
-5,
-5,
-5,
-5,
-6,
-6,
-5,
-5,
-4,
-4,
-6,
-6,
-6,
-6,
-5,
-5,
-5,
-5,
-5,
-5,
-7,
-7,
-5,
-5,
-5,
-5,
-8,
-8,
-7,
-7,
-6,
-6,
-5,
-5,
-8,
-8,
-5,
-5,
-8,
-8,
-7,
-7,
-7,
-7,
-6,
-6,
-6,
-6,
-7,
-7,
-6,
-6,
-8,
-8,
-7,
-7,
-7,
-7,
-8,
-8,
-8,
-8,
-8,
-8,
-10,
-10,
-7,
-7,
-9,
-9,
-9,
-9,
-9,
-9,
-7,
-7,
-11,
-11,
-11,
-11,
-12,
-12,
-9,
-9,
-12,
-12,
-9,
-9,
-13,
-13,
-9,
-9,
-11,
-11,
-13,
-13,
-12,
-12,
-14,
-14,
-15,
-15,
-16,
-16,
-16,
-16,
-14,
-14,
-17,
-17,
-18,
-18,
-20,
-20,
-21,
-21,
-26,
-26,
-27,
-27,
-32,
-32,
-36,
-36,
-41,
-41,
-44,
-44,
-47,
-47,
-55,
-55,
-59,
-59,
-62,
-62,
-70,
-70,
-76,
-76,
-76,
-76,
-76,
-76,
-75,
-75,
-71,
-71,
-67,
-67,
-63,
-63,
-62,
-62,
-58,
-58,
-55,
-55,
-57,
-57,
-58,
-58,
-61,
-61,
-64,
-64,
-65,
-65,
-70,
-70,
-72,
-72,
-79,
-79,
-85,
-85,
-90,
-90,
-89,
-89,
-86,
-86,
-82,
-82,
-79,
-79,
-75,
-75,
-69,
-69,
-64,
-64,
-61,
-61,
-55,
-55,
-55,
-55,
-56,
-56,
-58,
-58,
-59,
-59,
-63,
-63,
-64,
-64,
-68,
-68,
-75,
-75,
-81,
-81,
-78,
-78,
-75,
-75,
-72,
-72,
-67,
-67,
-63,
-63,
-57,
-57,
-50,
-50,
-44,
-44,
-41,
-41,
-40,
-40,
-38,
-38,
-42,
-42,
-45,
-45,
-47,
-47,
-48,
-48,
-55,
-55,
-61,
-61,
-58,
-58,
-54,
-54,
-50,
-50,
-44,
-44,
-41,
-41,
-38,
-38,
-32,
-19,
-22,
-22,
-16,
-16,
-18,
-18,
-18,
-18,
-20,
-20,
-24,
-24,
-27,
-27,
-29,
-40,
-38,
-38,
-36,
-36,
-35,
-35,
-27,
-27,
-23,
-23,
-21,
-21,
-17,
-17,
-14,
3,
2,
2,
2,
2,
2,
2,
2,
2,
-3,
-3,
-5,
-5,
-7,
-7,
-12,
-24,
-22,
-22,
-19,
-19,
-15,
-15,
-10,
-10,
-9,
-9,
-3,
-3,
3,
3,
10,
10,
16,
16,
16,
16,
15,
15,
13,
13,
9,
9,
6,
6,
0,
-12,
-9,
-9,
-8,
-8,
-5,
-5,
-1,
-1,
1,
1,
6,
6,
13,
24,
20,
20,
27,
27,
22,
22,
22,
22,
17,
17,
16,
16,
11,
11,
8,
-6,
-3,
-3,
0,
0,
1,
1,
5,
5,
11,
11,
15,
15,
21,
32,
31,
31,
25,
25,
27,
27,
23,
23,
18,
18,
16,
16,
9,
-3,
0,
0,
2,
2,
4,
4,
8,
8,
13,
13,
17,
17,
25,
25,
30,
30,
26,
26,
25,
25,
22,
22,
18,
18,
14,
3,
4,
4,
-1,
-1,
2,
2,
5,
5,
9,
9,
13,
13,
19,
32,
28,
28,
26,
26,
24,
24,
22,
22,
14,
14,
12,
12,
5,
5,
-3,
-3,
0,
0,
4,
4,
4,
4,
8,
8,
15,
28,
25,
25,
21,
21,
21,
21,
19,
19,
15,
15,
8,
8,
-1,
-1,
-7,
-7,
-3,
-3,
-1,
-1,
5,
5,
10,
10,
16,
16,
16,
16,
19,
19,
14,
14,
10,
10,
9,
-3,
-3,
-3,
-9,
-9,
-9,
-9,
-7,
-7,
-1,
-1,
2,
2,
9,
22,
15,
15,
13,
13,
12,
12,
8,
8,
5,
5,
-4,
-4,
-15,
-15,
-9,
-9,
-8,
-8,
-4,
-4,
0,
0,
4,
18,
14,
14,
9,
9,
8,
8,
6,
6,
3,
3,
-5,
-18,
-14,
-14,
-12,
-12,
-11,
-11,
-4,
-4,
1,
14,
12,
12,
7,
7,
7,
7,
4,
4,
2,
2,
-3,
-17,
-13,
-13,
-14,
-14,
-14,
-14,
-9,
-9,
-6,
7,
6,
6,
4,
4,
9,
9,
4,
4,
2,
2,
-4,
-4,
-10,
-10,
-17,
-17,
-14,
-14,
-13,
-13,
-9,
2,
0,
11,
5,
5,
5,
5,
4,
4,
2,
2,
-2,
-2,
-10,
-21,
-21,
-21,
-15,
-15,
-12,
-12,
-11,
1,
2,
2,
4,
4,
6,
6,
2,
2,
2,
2,
-3,
-3,
-11,
-11,
-17,
-17,
-15,
-15,
-14,
-14,
-11,
5,
3,
3,
3,
3,
5,
5,
0,
0,
-3,
-3,
-6,
-21,
-19,
-19,
-16,
-16,
-14,
-14,
-8,
-8,
-4,
11,
6,
6,
3,
3,
4,
4,
-1,
-1,
-3,
-14,
-13,
-13,
-17,
-17,
-15,
-15,
-9,
-9,
-5,
7,
7,
7,
5,
5,
4,
4,
2,
2,
-3,
-3,
-11,
-11,
-16,
-16,
-14,
-14,
-9,
-9,
-4,
11,
10,
10,
2,
2,
7,
7,
4,
4,
0,
0,
-9,
-9,
-15,
-15,
-13,
-13,
-10,
-10,
-4,
13,
9,
9,
2,
2,
8,
8,
5,
5,
0,
-14,
-11,
-11,
-12,
-12,
-12,
-12,
-8,
-8,
1,
14,
5,
5,
5,
5,
2,
2,
2,
2,
-3,
-18,
-15,
-15,
-12,
-12,
-6,
-6,
-5,
10,
10,
10,
5,
5,
9,
9,
6,
6,
1,
-13,
-12,
-12,
-12,
-12,
-11,
-11,
-4,
-4,
1,
16,
6,
6,
9,
9,
6,
6,
0,
-12,
-10,
-10,
-15,
-15,
-9,
-9,
-6,
5,
2,
16,
10,
10,
9,
9,
6,
6,
3,
-10,
-7,
-7,
-12,
-12,
-9,
-9,
-6,
-6,
-4,
16,
14,
2,
9,
9,
5,
5,
1,
1,
-7,
-7,
-13,
-13,
-10,
-10,
-4,
-4,
4,
16,
16,
2,
8,
8,
7,
7,
2,
-12,
-11,
-11,
-12,
-12,
-10,
-10,
-6,
10,
8,
8,
5,
5,
6,
6,
4,
4,
1,
-12,
-11,
-11,
-10,
-10,
-8,
-8,
-4,
11,
9,
9,
5,
5,
6,
6,
4,
4,
-1,
-16,
-12,
-12,
-9,
-9,
-6,
-6,
-1,
16,
10,
10,
9,
9,
3,
3,
5,
-11,
-10,
-10,
-11,
-11,
-9,
-9,
-2,
15,
12,
1,
9,
9,
6,
6,
4,
-8,
-4,
-16,
-14,
-14,
-9,
-9,
-4,
8,
8,
8,
3,
3,
9,
9,
5,
5,
-1,
-16,
-14,
-14,
-8,
-8,
-5,
6,
3,
16,
4,
4,
9,
9,
2,
2,
-1,
-17,
-14,
-14,
-8,
-8,
-7,
6,
6,
6,
4,
4,
8,
8,
4,
4,
0,
-16,
-13,
-13,
-12,
-12,
-7,
5,
3,
15,
3,
3,
7,
7,
2,
2,
-1,
-17,
-14,
-14,
-9,
-9,
-6,
10,
11,
0,
5,
5,
8,
8,
1,
1,
-3,
-17,
-13,
-13,
-8,
-8,
-5,
15,
13,
0,
4,
4,
2,
2,
1,
1,
-7,
-7,
-12,
-12,
-7,
-7,
-4,
16,
11,
-1,
8,
8,
2,
2,
-1,
-17,
-13,
-13,
-7,
-7,
-3,
13,
14,
-1,
3,
3,
6,
6,
1,
-12,
-10,
-10,
-12,
-12,
-8,
3,
1,
16,
4,
4,
7,
7,
4,
4,
-3,
-17,
-12,
-12,
-11,
-11,
-5,
15,
11,
-1,
5,
5,
1,
1,
0,
-17,
-14,
-14,
-8,
-8,
-10,
12,
10,
-1,
1,
1,
5,
5,
3,
-8,
-5,
-17,
-11,
-11,
-6,
6,
3,
16,
3,
3,
6,
6,
2,
-12,
-13,
-13,
-12,
-12,
-9,
-9,
-1,
15,
11,
-1,
7,
7,
0,
-12,
-11,
-11,
-10,
-10,
-9,
-9,
0,
16,
4,
4,
5,
5,
1,
-10,
-7,
-7,
-11,
-11,
-10,
-10,
0,
16,
4,
4,
7,
7,
1,
1,
-5,
-17,
-13,
-13,
-8,
-8,
0,
16,
8,
8,
6,
6,
1,
-14,
-12,
-12,
-11,
-11,
-7,
9,
7,
7,
3,
3,
7,
7,
1,
-17,
-15,
-15,
-10,
-10,
-7,
13,
9,
9,
6,
6,
5,
5,
0,
-18,
-11,
-11,
-11,
-11,
-4,
16,
10,
-2,
6,
6,
2,
2,
-4,
-17,
-11,
-11,
-9,
10,
10,
-2,
3,
3,
4,
4,
1,
-16,
-16,
-16,
-10,
-10,
-3,
16,
13,
-2,
5,
5,
3,
3,
-3,
-17,
-12,
-12,
-8,
-8,
-3,
16,
2,
2,
4,
4,
2,
-17,
-14,
-14,
-9,
-9,
-5,
16,
13,
-2,
6,
6,
3,
-8,
-8,
-8,
-10,
-10,
-9,
9,
9,
-2,
1,
1,
3,
3,
1,
-17,
-11,
-11,
-9,
3,
-1,
16,
4,
4,
5,
5,
-2,
-17,
-14,
-14,
-11,
-11,
-5,
16,
12,
-2,
6,
6,
1,
-16,
-15,
-15,
-7,
-7,
-4,
16,
11,
-3,
5,
5,
3,
3,
-7,
-7,
-10,
-10,
-6,
16,
12,
-2,
4,
4,
2,
2,
-4,
-17,
-9,
-9,
-8,
13,
11,
-2,
3,
3,
3,
-14,
-14,
-14,
-10,
-10,
-8,
16,
15,
-2,
3,
3,
3,
-14,
-12,
-12,
-8,
-8,
-9,
15,
14,
-2,
2,
2,
0,
-16,
-14,
-14,
-10,
-10,
-8,
16,
11,
-2,
3,
3,
3,
-16,
-16,
-16,
-10,
-10,
-5,
16,
13,
-2,
5,
5,
0,
-18,
-14,
-14,
-8,
-8,
-5,
16,
10,
-2,
5,
5,
0,
-18,
-14,
-14,
-9,
-9,
-1,
16,
3,
3,
5,
5,
-2,
-18,
-10,
-10,
-7,
15,
14,
-2,
2,
2,
3,
3,
-5,
-18,
-8,
-8,
-6,
16,
14,
-2,
5,
5,
1,
-17,
-15,
-15,
-9,
11,
9,
-2,
0,
0,
3,
-8,
-6,
-18,
-10,
-10,
-8,
16,
9,
-3,
5,
5,
3,
-17,
-16,
-16,
-10,
-10,
-6,
16,
0,
0,
3,
-10,
-9,
-9,
-9,
-9,
-7,
14,
11,
-2,
5,
5,
2,
-17,
-13,
-13,
-8,
4,
4,
16,
-1,
-1,
5,
-6,
-5,
-18,
-11,
-11,
-7,
15,
13,
-3,
6,
6,
0,
-17,
-13,
-13,
-9,
10,
11,
-3,
1,
1,
4,
-15,
-14,
-14,
-9,
-9,
-5,
16,
0,
0,
6,
6,
-2,
-17,
-10,
-10,
-9,
16,
8,
8,
4,
4,
-3,
-17,
-11,
-11,
-9,
16,
14,
-2,
3,
3,
4,
-16,
-14,
-14,
-9,
3,
0,
17,
1,
1,
2,
-9,
-9,
-9,
-10,
4,
1,
16,
3,
3,
5,
-16,
-12,
-12,
-9,
-9,
-3,
16,
3,
3,
4,
4,
2,
-17,
-9,
-9,
-3,
16,
7,
7,
5,
5,
-1,
-18,
-9,
-9,
-6,
16,
14,
-2,
4,
-9,
-7,
-18,
-9,
-9,
-5,
16,
8,
8,
4,
4,
-2,
-17,
-13,
-13,
-5,
16,
9,
-2,
2,
2,
1,
-18,
-15,
-15,
-6,
16,
2,
2,
4,
4,
-4,
-18,
-10,
-10,
-6,
17,
3,
3,
4,
4,
-3,
-18,
-13,
-13,
-6,
16,
8,
-3,
4,
-15,
-13,
-13,
-10,
-10,
-1,
16,
0,
0,
4,
-8,
-7,
-18,
-10,
5,
4,
16,
-1,
-1,
3,
-18,
-16,
-16,
-7,
10,
8,
-3,
1,
1,
2,
-16,
-12,
-12,
-8,
16,
15,
-3,
1,
1,
4,
-18,
-13,
-13,
-5,
16,
6,
6,
4,
-10,
-9,
-9,
-8,
3,
2,
16,
1,
1,
2,
-11,
-9,
-9,
-10,
9,
8,
8,
2,
2,
2,
-18,
-16,
-4,
-5,
15,
13,
-3,
5,
-6,
-5,
-18,
-10,
4,
0,
17,
2,
2,
3,
-18,
-18,
-5,
-8,
