6-anwendungen-opAmps/daten/ALL0041/A0041CH1.CSV

Memory Length,4000,
Trigger Level,6.18000e+02,
Source,CH1,
Probe,1.0X,
Vertical Units,V,
Vertical Scale,5.00000e-02,
Vertical Position,-4.54000e-01,
Horizontal Units,S,
Horizontal Scale,5.00000e-04,
Horizontal Position,-7.0000000e-04,
Horizontal Mode,XY Mode,
Sampling Period,2.00000e-06,
Firmware,V1.14,
Time, ,
Mode,Fast,
Waveform Data,
204,
204,
204,
203,
203,
204,
204,
204,
204,
205,
205,
205,
205,
205,
205,
203,
203,
205,
205,
204,
204,
204,
204,
205,
205,
206,
206,
204,
204,
205,
205,
205,
205,
203,
203,
203,
203,
205,
205,
204,
204,
205,
205,
205,
205,
206,
206,
206,
206,
206,
206,
206,
206,
206,
206,
205,
205,
203,
203,
207,
207,
207,
207,
206,
206,
206,
206,
205,
205,
204,
204,
204,
204,
205,
205,
205,
205,
207,
207,
205,
205,
206,
206,
206,
206,
205,
205,
207,
207,
205,
205,
206,
206,
206,
206,
207,
207,
206,
206,
207,
207,
207,
207,
208,
208,
206,
206,
207,
207,
207,
207,
207,
207,
208,
208,
209,
209,
208,
208,
206,
206,
208,
208,
207,
207,
208,
208,
208,
208,
207,
207,
207,
207,
209,
209,
209,
209,
208,
208,
208,
208,
207,
207,
207,
207,
208,
208,
207,
207,
207,
207,
208,
208,
208,
208,
208,
208,
208,
208,
209,
209,
209,
209,
210,
210,
210,
210,
210,
210,
208,
208,
210,
210,
208,
208,
209,
209,
207,
207,
208,
208,
208,
208,
209,
209,
209,
209,
210,
210,
211,
211,
209,
209,
209,
209,
210,
210,
209,
209,
211,
211,
210,
210,
209,
209,
210,
210,
210,
210,
210,
210,
208,
208,
209,
209,
209,
209,
209,
209,
210,
210,
210,
210,
211,
211,
210,
210,
210,
210,
210,
210,
209,
209,
211,
211,
210,
210,
211,
211,
211,
211,
210,
210,
210,
210,
210,
210,
212,
212,
209,
209,
208,
208,
210,
210,
210,
210,
211,
211,
210,
210,
211,
211,
212,
212,
210,
210,
212,
212,
212,
212,
210,
210,
212,
212,
211,
211,
210,
210,
211,
211,
213,
213,
211,
211,
212,
212,
211,
211,
212,
212,
213,
213,
212,
212,
212,
212,
211,
211,
213,
213,
212,
212,
212,
212,
212,
212,
212,
212,
211,
211,
213,
213,
214,
214,
212,
212,
213,
213,
213,
213,
214,
214,
213,
213,
213,
213,
212,
212,
212,
212,
212,
212,
214,
214,
213,
213,
214,
214,
213,
213,
214,
214,
213,
213,
215,
215,
212,
212,
213,
213,
212,
212,
213,
213,
213,
213,
214,
214,
213,
213,
214,
214,
214,
214,
214,
214,
214,
214,
214,
214,
214,
214,
214,
214,
215,
215,
213,
213,
213,
213,
213,
213,
215,
215,
215,
215,
214,
214,
214,
214,
213,
213,
213,
213,
214,
214,
213,
213,
213,
213,
215,
215,
213,
213,
216,
216,
215,
215,
215,
215,
215,
215,
215,
215,
215,
215,
215,
215,
214,
214,
214,
214,
215,
215,
215,
215,
214,
214,
215,
215,
216,
216,
216,
216,
215,
215,
215,
215,
216,
216,
216,
216,
216,
216,
214,
214,
215,
215,
216,
216,
217,
217,
216,
216,
215,
215,
217,
217,
218,
218,
217,
217,
218,
218,
216,
216,
218,
218,
218,
218,
216,
216,
215,
215,
215,
215,
215,
215,
215,
215,
218,
218,
216,
216,
218,
218,
218,
218,
218,
218,
215,
215,
215,
215,
218,
218,
217,
217,
218,
218,
217,
217,
216,
216,
218,
218,
217,
217,
216,
216,
216,
216,
218,
218,
218,
218,
218,
218,
217,
217,
218,
218,
217,
217,
217,
217,
219,
219,
220,
220,
218,
218,
219,
219,
219,
219,
219,
219,
219,
219,
219,
219,
218,
218,
217,
217,
219,
219,
219,
219,
218,
218,
217,
217,
220,
220,
219,
219,
219,
219,
220,
220,
219,
219,
220,
220,
220,
220,
221,
221,
220,
220,
219,
219,
220,
220,
218,
218,
219,
219,
220,
220,
219,
219,
221,
221,
219,
219,
218,
218,
220,
220,
221,
221,
219,
219,
219,
219,
220,
220,
220,
220,
220,
220,
221,
221,
220,
220,
220,
220,
220,
220,
220,
220,
221,
221,
221,
221,
221,
221,
222,
222,
222,
222,
221,
221,
222,
222,
222,
222,
220,
220,
221,
221,
221,
221,
221,
221,
222,
222,
220,
220,
220,
220,
221,
221,
222,
222,
222,
222,
222,
222,
221,
221,
222,
222,
222,
222,
222,
222,
221,
221,
223,
223,
221,
221,
221,
221,
223,
223,
223,
223,
222,
222,
223,
223,
223,
223,
223,
223,
223,
223,
222,
222,
223,
223,
222,
222,
222,
222,
223,
223,
222,
222,
223,
223,
222,
222,
223,
223,
223,
223,
222,
222,
223,
223,
223,
223,
223,
223,
224,
224,
223,
223,
223,
223,
223,
223,
225,
225,
223,
223,
222,
222,
224,
224,
224,
224,
224,
224,
225,
225,
225,
225,
225,
225,
224,
224,
223,
223,
223,
223,
223,
223,
225,
225,
225,
225,
225,
225,
223,
223,
225,
225,
224,
224,
224,
224,
224,
224,
224,
224,
225,
225,
225,
225,
225,
225,
225,
225,
224,
224,
225,
225,
224,
224,
226,
226,
224,
224,
224,
224,
224,
224,
225,
225,
225,
225,
224,
224,
225,
225,
224,
224,
224,
224,
224,
224,
226,
226,
225,
225,
226,
226,
225,
225,
226,
226,
226,
226,
225,
225,
227,
227,
227,
227,
225,
225,
226,
226,
226,
226,
226,
226,
227,
227,
225,
225,
224,
224,
226,
226,
226,
226,
227,
227,
225,
225,
226,
226,
226,
226,
228,
228,
225,
225,
227,
227,
226,
226,
228,
228,
225,
225,
226,
226,
228,
228,
227,
227,
228,
228,
225,
225,
226,
226,
226,
226,
226,
226,
227,
227,
227,
227,
229,
229,
228,
228,
228,
228,
228,
228,
228,
228,
229,
229,
228,
228,
228,
228,
228,
228,
227,
227,
227,
227,
227,
227,
228,
228,
230,
230,
228,
228,
229,
229,
229,
229,
228,
228,
227,
227,
227,
227,
228,
228,
231,
231,
230,
230,
229,
229,
228,
228,
228,
228,
229,
229,
230,
230,
228,
228,
229,
229,
230,
230,
228,
228,
228,
228,
230,
230,
229,
229,
231,
231,
229,
229,
231,
231,
230,
230,
229,
229,
229,
229,
229,
229,
228,
228,
230,
230,
231,
231,
230,
230,
230,
230,
230,
230,
229,
229,
230,
230,
230,
230,
230,
230,
231,
231,
230,
230,
230,
230,
229,
229,
230,
230,
229,
229,
231,
231,
230,
230,
232,
232,
232,
232,
232,
232,
230,
230,
229,
229,
232,
232,
232,
232,
230,
230,
231,
231,
230,
230,
229,
229,
229,
229,
230,
230,
231,
231,
232,
232,
229,
229,
231,
231,
230,
230,
231,
231,
231,
231,
233,
233,
232,
232,
231,
231,
230,
230,
232,
232,
232,
232,
231,
231,
232,
232,
231,
231,
232,
232,
232,
232,
232,
232,
233,
233,
233,
233,
233,
233,
233,
233,
232,
232,
233,
233,
231,
231,
231,
231,
232,
232,
231,
231,
230,
230,
232,
232,
232,
232,
232,
232,
233,
233,
233,
233,
233,
233,
233,
233,
231,
231,
233,
233,
234,
234,
233,
233,
232,
232,
234,
234,
232,
232,
234,
234,
233,
233,
234,
234,
232,
232,
234,
234,
233,
233,
233,
233,
235,
235,
234,
234,
234,
234,
234,
234,
232,
232,
235,
235,
234,
234,
234,
234,
235,
235,
234,
234,
235,
235,
233,
233,
235,
235,
233,
233,
234,
234,
234,
234,
236,
236,
235,
235,
235,
235,
235,
235,
234,
234,
235,
235,
234,
234,
235,
235,
235,
235,
235,
235,
234,
234,
235,
235,
236,
236,
236,
236,
236,
236,
238,
238,
236,
236,
235,
235,
235,
235,
236,
236,
235,
235,
236,
236,
235,
235,
237,
237,
235,
235,
237,
237,
236,
236,
235,
235,
235,
235,
236,
236,
237,
237,
236,
236,
235,
235,
236,
236,
236,
236,
236,
236,
237,
237,
237,
237,
239,
239,
235,
235,
235,
235,
238,
238,
237,
237,
237,
237,
236,
236,
237,
237,
238,
238,
237,
237,
238,
238,
237,
237,
237,
237,
237,
237,
238,
238,
238,
238,
237,
237,
238,
238,
237,
237,
239,
239,
238,
238,
239,
239,
238,
238,
237,
237,
239,
239,
237,
237,
239,
239,
237,
237,
238,
238,
237,
237,
237,
237,
238,
238,
239,
239,
238,
238,
238,
238,
239,
239,
239,
239,
239,
239,
239,
239,
239,
239,
240,
240,
240,
240,
239,
239,
238,
238,
241,
241,
242,
242,
238,
238,
240,
240,
239,
239,
240,
240,
240,
240,
239,
239,
239,
239,
241,
241,
240,
240,
240,
240,
239,
239,
240,
240,
240,
240,
242,
242,
239,
239,
239,
239,
240,
240,
240,
240,
241,
241,
239,
239,
241,
241,
240,
240,
241,
241,
241,
241,
240,
240,
241,
241,
241,
241,
239,
239,
242,
242,
240,
240,
242,
242,
241,
241,
241,
241,
240,
240,
242,
242,
242,
242,
242,
242,
241,
241,
242,
242,
242,
242,
242,
242,
241,
241,
242,
242,
241,
241,
243,
243,
243,
243,
243,
243,
242,
242,
244,
244,
242,
242,
241,
241,
241,
241,
243,
243,
243,
243,
243,
243,
242,
242,
244,
244,
243,
243,
243,
243,
242,
242,
242,
242,
243,
243,
242,
242,
244,
244,
242,
242,
244,
244,
243,
243,
244,
244,
243,
243,
242,
242,
244,
244,
242,
242,
242,
242,
242,
242,
243,
243,
243,
243,
244,
244,
244,
244,
244,
244,
245,
245,
245,
245,
244,
244,
244,
244,
244,
244,
244,
244,
244,
244,
243,
243,
245,
245,
243,
243,
244,
244,
245,
245,
246,
246,
244,
244,
245,
245,
244,
244,
244,
244,
244,
244,
245,
245,
244,
244,
245,
245,
245,
245,
245,
245,
243,
243,
246,
246,
245,
245,
246,
246,
244,
244,
245,
245,
245,
245,
245,
245,
244,
244,
246,
246,
245,
245,
246,
246,
246,
246,
245,
245,
246,
246,
244,
244,
245,
245,
245,
245,
246,
246,
245,
245,
244,
244,
245,
245,
246,
246,
246,
246,
246,
246,
247,
247,
246,
246,
248,
248,
247,
247,
245,
245,
246,
246,
247,
247,
248,
248,
246,
246,
247,
247,
246,
246,
248,
248,
247,
247,
247,
247,
246,
246,
246,
246,
248,
248,
246,
246,
246,
246,
247,
247,
247,
247,
247,
247,
247,
247,
248,
248,
249,
249,
249,
249,
248,
248,
249,
249,
247,
247,
247,
247,
246,
246,
248,
248,
246,
246,
246,
246,
247,
247,
247,
247,
247,
247,
248,
248,
247,
247,
248,
248,
250,
250,
247,
247,
248,
248,
248,
248,
247,
247,
249,
249,
248,
248,
248,
248,
249,
249,
248,
248,
249,
249,
249,
249,
250,
250,
249,
249,
249,
249,
250,
250,
249,
249,
249,
249,
247,
247,
249,
249,
248,
248,
250,
250,
249,
249,
251,
251,
250,
250,
251,
251,
249,
249,
249,
249,
249,
249,
248,
248,
248,
248,
250,
250,
250,
250,
249,
249,
250,
250,
249,
249,
249,
249,
251,
251,
249,
249,
251,
251,
250,
250,
250,
250,
250,
250,
250,
250,
250,
250,
250,
250,
251,
251,
252,
252,
252,
252,
252,
252,
252,
252,
250,
250,
252,
252,
252,
252,
251,
251,
250,
250,
251,
251,
252,
252,
251,
251,
252,
252,
251,
251,
253,
253,
252,
252,
253,
253,
252,
252,
253,
253,
252,
252,
252,
252,
252,
252,
253,
253,
252,
252,
252,
252,
253,
253,
252,
252,
253,
253,
254,
254,
253,
253,
252,
252,
254,
254,
253,
253,
254,
254,
253,
253,
253,
253,
252,
252,
253,
253,
255,
255,
254,
254,
253,
253,
254,
254,
253,
253,
253,
253,
253,
253,
252,
252,
253,
253,
253,
253,
254,
254,
252,
252,
254,
254,
255,
255,
253,
253,
254,
254,
253,
253,
253,
253,
255,
255,
252,
252,
254,
254,
254,
254,
255,
255,
254,
254,
255,
255,
256,
256,
256,
256,
254,
254,
254,
254,
255,
255,
254,
254,
254,
254,
257,
257,
254,
254,
256,
256,
255,
255,
257,
257,
254,
254,
255,
255,
255,
255,
255,
255,
255,
255,
255,
255,
255,
255,
256,
256,
255,
255,
256,
256,
256,
256,
256,
256,
255,
255,
256,
256,
254,
254,
256,
256,
256,
256,
255,
255,
255,
255,
256,
256,
255,
255,
256,
256,
256,
256,
256,
256,
256,
256,
255,
255,
256,
256,
255,
255,
256,
256,
255,
255,
257,
257,
257,
257,
257,
257,
256,
256,
257,
257,
258,
258,
256,
256,
256,
256,
256,
256,
258,
258,
257,
257,
258,
258,
258,
258,
258,
258,
258,
258,
257,
257,
259,
259,
257,
257,
257,
257,
258,
258,
258,
258,
259,
259,
258,
258,
258,
258,
259,
259,
257,
257,
258,
258,
257,
257,
257,
257,
257,
257,
260,
260,
260,
260,
258,
258,
257,
257,
259,
259,
258,
258,
258,
258,
258,
258,
259,
259,
260,
260,
258,
258,
258,
258,
259,
259,
259,
259,
259,
259,
257,
257,
258,
258,
260,
260,
258,
258,
259,
259,
260,
260,
258,
258,
259,
259,
259,
259,
259,
259,
260,
260,
261,
261,
259,
259,
260,
260,
259,
259,
260,
260,
261,
261,
260,
260,
258,
258,
261,
261,
260,
260,
260,
260,
261,
261,
260,
260,
260,
260,
260,
260,
261,
261,
259,
259,
260,
260,
261,
261,
261,
261,
261,
261,
261,
261,
259,
259,
262,
262,
260,
260,
261,
261,
260,
260,
260,
260,
263,
263,
261,
261,
262,
262,
261,
261,
265,
265,
264,
264,
262,
262,
262,
262,
261,
261,
262,
262,
262,
262,
262,
262,
261,
261,
261,
261,
262,
262,
262,
262,
261,
261,
263,
263,
261,
261,
261,
261,
262,
262,
263,
263,
262,
262,
264,
264,
262,
262,
261,
261,
262,
262,
261,
261,
262,
262,
262,
262,
262,
262,
263,
263,
264,
264,
263,
263,
260,
260,
263,
263,
263,
263,
263,
263,
264,
264,
263,
263,
263,
263,
262,
262,
262,
262,
264,
264,
263,
263,
263,
263,
263,
263,
264,
264,
262,
262,
262,
262,
263,
263,
263,
263,
264,
264,
263,
263,
262,
262,
265,
265,
264,
264,
264,
264,
264,
264,
265,
265,
264,
264,
263,
263,
265,
265,
264,
264,
264,
264,
266,
266,
265,
265,
264,
264,
264,
264,
265,
265,
266,
266,
264,
264,
265,
265,
265,
265,
265,
265,
265,
265,
265,
265,
266,
266,
266,
266,
265,
265,
266,
266,
266,
266,
266,
266,
264,
264,
265,
265,
265,
265,
265,
265,
266,
266,
265,
265,
266,
266,
266,
266,
265,
265,
266,
266,
265,
265,
266,
266,
266,
266,
267,
267,
265,
265,
268,
268,
266,
266,
266,
266,
267,
267,
267,
267,
267,
267,
267,
267,
267,
267,
267,
267,
267,
267,
268,
268,
267,
267,
267,
267,
268,
268,
267,
267,
266,
266,
267,
267,
268,
268,
268,
268,
267,
267,
268,
268,
266,
266,
267,
267,
268,
268,
268,
268,
268,
268,
267,
267,
268,
268,
269,
269,
266,
266,
269,
269,
268,
268,
267,
267,
270,
270,
268,
268,
269,
269,
268,
268,
269,
269,
268,
268,
270,
270,
269,
269,
267,
267,
268,
268,
270,
270,
268,
268,
268,
268,
268,
268,
268,
268,
270,
270,
269,
269,
269,
269,
270,
270,
269,
269,
270,
270,
270,
270,
269,
269,
270,
270,
270,
270,
268,
268,
270,
270,
270,
270,
269,
269,
270,
270,
270,
270,
269,
269,
270,
270,
270,
270,
270,
270,
269,
269,
269,
269,
269,
269,
268,
268,
270,
270,
271,
271,
270,
270,
271,
271,
270,
270,
272,
272,
271,
271,
270,
270,
269,
269,
268,
268,
270,
270,
272,
272,
271,
271,
271,
271,
270,
270,
270,
270,
271,
271,
271,
271,
272,
272,
270,
270,
272,
272,
272,
272,
271,
271,
269,
269,
270,
270,
272,
272,
271,
271,
270,
270,
271,
271,
271,
271,
272,
272,
271,
271,
270,
270,
272,
272,
273,
273,
272,
272,
272,
272,
272,
272,
271,
271,
272,
272,
272,
272,
272,
272,
272,
272,
271,
271,
271,
271,
272,
272,
272,
272,
271,
271,
273,
273,
272,
272,
273,
273,
273,
273,
272,
272,
273,
273,
272,
272,
272,
272,
273,
273,
274,
274,
273,
273,
273,
273,
274,
274,
273,
273,
273,
273,
272,
272,
273,
273,
274,
274,
273,
273,
273,
273,
274,
274,
275,
275,
275,
275,
272,
272,
272,
272,
272,
272,
273,
273,
273,
273,
273,
273,
274,
274,
274,
274,
275,
275,
272,
272,
276,
276,
273,
273,
274,
274,
274,
274,
273,
273,
276,
276,
273,
273,
274,
274,
274,
274,
275,
275,
275,
275,
275,
275,
275,
275,
275,
275,
274,
274,
275,
275,
275,
275,
276,
276,
276,
276,
276,
276,
275,
275,
275,
275,
275,
275,
276,
276,
276,
276,
275,
275,
275,
275,
277,
277,
275,
275,
275,
275,
276,
276,
277,
277,
277,
277,
276,
276,
276,
276,
275,
275,
278,
278,
277,
277,
277,
277,
276,
276,
276,
276,
277,
277,
277,
277,
277,
277,
276,
276,
277,
277,
276,
276,
277,
277,
275,
275,
278,
278,
276,
276,
277,
277,
276,
276,
278,
278,
279,
279,
277,
277,
278,
278,
276,
276,
277,
277,
278,
278,
276,
276,
279,
279,
279,
279,
278,
278,
277,
277,
276,
276,
277,
277,
279,
279,
276,
276,
280,
280,
278,
278,
278,
278,
279,
279,
279,
279,
279,
279,
277,
277,
278,
278,
278,
278,
277,
277,
279,
279,
278,
278,
279,
279,
279,
279,
279,
279,
278,
278,
278,
278,
277,
277,
277,
277,
278,
278,
278,
278,
278,
278,
278,
278,
278,
278,
280,
280,
278,
278,
278,
278,
280,
280,
278,
278,
279,
279,
280,
280,
279,
279,
279,
279,
279,
279,
279,
279,
278,
278,
280,
280,
280,
280,
279,
279,
279,
279,
280,
280,
280,
280,
280,
280,
280,
280,
279,
279,
280,
280,
281,
281,
281,
281,
280,
280,
281,
281,
281,
281,
281,
281,
280,
280,
280,
280,
280,
280,
281,
281,
279,
279,
281,
281,
280,
280,
281,
281,
280,
280,
280,
280,
281,
281,
281,
281,
282,
282,
279,
279,
280,
280,
280,
280,
280,
280,
282,
282,
281,
281,
282,
282,
281,
281,
282,
282,
283,
283,
281,
281,
282,
282,
280,
280,
281,
281,
281,
281,
282,
282,
282,
282,
281,
281,
283,
283,
281,
281,
282,
282,
281,
281,
282,
282,
281,
281,
282,
282,
283,
283,
284,
284,
284,
284,
281,
281,
282,
282,
281,
281,
282,
282,
282,
282,
282,
282,
281,
281,
284,
284,
284,
284,
283,
283,
283,
283,
285,
285,
282,
282,
283,
283,
283,
283,
281,
281,
283,
283,
283,
283,
283,
283,
284,
284,
285,
285,
284,
284,
285,
285,
283,
283,
283,
283,
284,
284,
283,
283,
283,
283,
284,
284,
285,
285,
283,
283,
284,
284,
285,
285,
285,
285,
285,
285,
285,
285,
285,
285,
283,
283,
286,
286,
286,
286,
284,
284,
285,
285,
285,
285,
285,
285,
286,
286,
286,
286,
284,
284,
286,
286,
284,
284,
286,
286,
285,
285,
284,
284,
286,
286,
285,
285,
286,
286,
285,
285,
285,
285,
286,
286,
286,
286,
286,
286,
287,
287,
285,
285,
286,
286,
286,
286,
286,
286,
288,
288,
288,
288,
286,
286,
287,
287,
287,
287,
286,
286,
288,
288,
287,
287,
287,
287,
287,
287,
287,
287,
287,
287,
287,
287,
287,
287,
288,
288,
287,
287,
287,
287,
288,
288,
287,
287,
289,
289,
289,
289,
288,
288,
288,
288,
289,
289,
288,
288,
286,
286,
288,
288,
288,
288,
287,
287,
288,
288,
287,
287,
289,
289,
288,
288,
287,
287,
288,
288,
289,
289,
289,
289,
288,
288,
290,
290,
289,
289,
288,
288,
289,
289,
289,
289,
288,
288,
288,
288,
288,
288,
287,
287,
288,
288,
289,
289,
287,
287,
288,
288,
289,
289,
290,
290,
288,
288,
289,
289,
287,
287,
289,
289,
288,
288,
291,
291,
290,
290,
290,
290,
290,
290,
290,
290,
290,
290,
287,
287,
290,
290,
290,
290,
291,
291,
289,
289,
291,
291,
290,
290,
290,
290,
290,
290,
291,
291,
290,
290,
289,
289,
290,
290,
291,
291,
289,
289,
291,
291,
289,
289,
291,
291,
291,
291,
289,
289,
292,
292,
290,
290,
291,
291,
291,
291,
291,
291,
292,
292,
291,
291,
292,
292,
290,
290,
291,
291,
293,
293,
292,
292,
292,
292,
291,
291,
293,
293,
291,
291,
290,
290,
292,
292,
290,
290,
292,
292,
291,
291,
292,
292,
291,
291,
292,
292,
291,
291,
293,
293,
291,
291,
291,
291,
293,
293,
291,
291,
292,
292,
294,
294,
293,
293,
292,
292,
293,
293,
292,
292,
293,
293,
293,
293,
293,
293,
293,
293,
294,
294,
293,
293,
292,
292,
294,
294,
293,
293,
293,
293,
293,
293,
294,
294,
293,
293,
294,
294,
292,
292,
294,
294,
293,
293,
292,
292,
294,
294,
293,
293,
293,
293,
293,
293,
294,
294,
294,
294,
293,
293,
293,
293,
295,
295,
292,
292,
294,
294,
293,
293,
293,
293,
293,
293,
294,
294,
294,
294,
296,
296,
294,
294,
295,
295,
294,
294,
293,
293,
295,
295,
295,
295,
295,
295,
293,
293,
293,
293,
294,
294,
293,
293,
296,
296,
294,
294,
295,
295,
294,
294,
296,
296,
294,
294,
298,
298,
296,
296,
295,
295,
295,
295,
297,
297,
294,
294,
295,
295,
294,
294,
294,
294,
296,
296,
295,
295,
295,
295,
297,
297,
296,
296,
296,
296,
296,
296,
296,
296,
294,
294,
296,
296,
296,
296,
296,
296,
297,
297,
294,
294,
298,
298,
296,
296,
295,
295,
296,
296,
295,
295,
296,
296,
297,
297,
297,
297,
296,
296,
297,
297,
297,
297,
296,
296,
297,
297,
297,
297,
296,
296,
296,
296,
296,
296,
296,
296,
298,
298,
297,
297,
297,
297,
298,
298,
299,
299,
298,
298,
298,
298,
300,
300,
299,
299,
298,
298,
298,
298,
299,
299,
297,
297,
298,
298,
298,
298,
298,
298,
298,
298,
299,
299,
299,
299,
298,
298,
298,
298,
299,
299,
298,
298,
299,
299,
299,
299,
297,
297,
298,
298,
300,
300,
298,
298,
299,
299,
299,
299,
297,
297,
300,
300,
299,
299,
300,
300,
300,
300,
300,
300,
299,
299,
299,
299,
296,
296,
301,
301,
300,
300,
298,
298,
301,
301,
300,
300,
300,
300,
300,
300,
299,
299,
300,
300,
299,
299,
299,
299,
299,
299,
300,
300,
300,
300,
298,
298,
301,
301,
300,
300,
300,
300,
299,
299,
301,
301,
301,
301,
300,
300,
302,
302,
301,
301,
299,
299,
301,
301,
301,
301,
300,
300,
301,
301,
300,
300,
301,
301,
300,
300,
299,
299,
302,
302,
302,
302,
301,
301,
303,
303,
301,
301,
301,
301,
302,
302,
302,
302,
303,
303,
302,
302,
302,
302,
300,
300,
301,
301,
302,
302,
302,
302,
301,
301,
302,
302,
302,
302,
302,
302,
303,
303,
303,
303,
301,
301,
300,
300,
301,
301,
302,
302,
302,
302,
302,
302,
302,
302,
302,
302,
303,
303,
303,
303,
304,
304,
304,
304,
303,
303,
302,
302,
304,
304,
303,
303,
303,
303,
302,
302,
302,
302,
303,
303,
304,
304,
303,
303,
305,
305,
304,
304,
304,
304,
304,
304,
304,
304,
303,
303,
306,
306,
304,
304,
303,
303,
305,
305,
304,
304,
305,
305,
305,
305,
304,
304,
302,
302,
305,
305,
302,
302,
304,
304,
304,
304,
306,
306,
305,
305,
306,
306,
306,
306,
303,
303,
304,
304,
304,
304,
304,
304,
303,
303,
304,
304,
306,
306,
305,
305,
304,
304,
303,
303,
306,
306,
305,
305,
306,
306,
304,
304,
306,
306,
305,
305,
303,
303,
305,
305,
306,
306,
307,
307,
307,
307,
307,
307,
305,
305,
308,
308,
305,
305,
305,
305,
307,
307,
306,
306,
307,
307,
307,
307,
306,
306,
305,
305,
307,
307,
305,
305,
307,
307,
307,
307,
305,
305,
307,
307,
307,
307,
308,
308,
307,
307,
304,
304,
306,
306,
307,
307,
307,
307,
306,
306,
307,
307,
307,
307,
307,
307,
306,
306,
308,
308,
306,
306,
307,
307,
308,
308,
308,
308,
306,
306,
308,
308,
308,
308,
308,
308,
308,
308,
306,
306,
308,
308,
308,
308,
309,
309,
308,
308,
308,
308,
309,
309,
309,
309,
308,
308,
310,
310,
308,
308,
307,
