5-grundlagen-opAmps/data/ALL0023/A0023CH1.CSV

Memory Length,4000,
Trigger Level,0.00000e+00,
Source,CH1,
Probe,1.0X,
Vertical Units,V,
Vertical Scale,5.00000e-02,
Vertical Position,0.00000e+00,
Horizontal Units,S,
Horizontal Scale,1.00000e-02,
Horizontal Position,1.0000000e-02,
Horizontal Mode,Main,
Sampling Period,4.00000e-05,
Firmware,V1.14,
Time, ,
Mode,Fast,
Waveform Data,
4,
4,
-20,
-3,
-21,
-3,
-20,
-22,
1,
-2,
-24,
-17,
-1,
-7,
-24,
-18,
-2,
-16,
-2,
-12,
-27,
-1,
-27,
-19,
-3,
-19,
-4,
-19,
-5,
-24,
-6,
-15,
-29,
-16,
-29,
-6,
-30,
-19,
-8,
-22,
-6,
-16,
-32,
-18,
-32,
-24,
-9,
-15,
-33,
-18,
-34,
-20,
-34,
-20,
-33,
-27,
-12,
-20,
-36,
-12,
-36,
-11,
-37,
-11,
-36,
-20,
-37,
-27,
-13,
-16,
-37,
-24,
-36,
-33,
-14,
-13,
-39,
-31,
-16,
-37,
-15,
-34,
-16,
-36,
-15,
-39,
-16,
-22,
-39,
-22,
-37,
-35,
-16,
-35,
-17,
-27,
-39,
-20,
-41,
-34,
-17,
-26,
-40,
-37,
-18,
-17,
-40,
-35,
-19,
-19,
-40,
-29,
-41,
-35,
-16,
-33,
-17,
-37,
-18,
-32,
-15,
-31,
-16,
-29,
-16,
-26,
-41,
-37,
-16,
-32,
-18,
-31,
-16,
-21,
-39,
-40,
-16,
-23,
-38,
-28,
-17,
-23,
-39,
-24,
-39,
-31,
-14,
-26,
-37,
-29,
-14,
-13,
-37,
-27,
-14,
-32,
-15,
-27,
-13,
-27,
-13,
-20,
-35,
-18,
-36,
-35,
-11,
-18,
-34,
-19,
-34,
-9,
-34,
-28,
-9,
-33,
-8,
-30,
-8,
-24,
-9,
-19,
-31,
-31,
-8,
-22,
-7,
-15,
-29,
-28,
-5,
-16,
-29,
-28,
-4,
-18,
-4,
-3,
-27,
-21,
-3,
-13,
-25,
-1,
-26,
-11,
-26,
-6,
-25,
-17,
0,
-23,
2,
-2,
-22,
-23,
2,
3,
-20,
-4,
-23,
5,
-20,
-1,
-19,
-10,
4,
5,
-19,
-8,
5,
-15,
5,
1,
-16,
2,
-16,
-15,
9,
-6,
8,
4,
-13,
1,
-13,
-3,
10,
1,
-11,
-11,
12,
5,
-10,
-9,
14,
14,
-9,
1,
13,
8,
-8,
8,
-7,
8,
-8,
-8,
18,
1,
18,
5,
17,
11,
-6,
20,
-4,
3,
19,
2,
21,
12,
-2,
0,
21,
11,
-2,
11,
-1,
7,
24,
1,
25,
5,
24,
5,
25,
11,
24,
4,
27,
4,
25,
9,
27,
16,
3,
18,
3,
8,
29,
12,
30,
15,
27,
13,
28,
13,
29,
5,
29,
6,
29,
5,
30,
12,
31,
25,
8,
17,
32,
31,
8,
30,
6,
12,
32,
26,
8,
28,
9,
16,
32,
32,
8,
19,
32,
9,
33,
21,
33,
29,
9,
17,
32,
27,
10,
15,
32,
9,
32,
9,
32,
24,
9,
28,
10,
8,
33,
16,
32,
17,
33,
25,
10,
23,
9,
18,
32,
23,
7,
13,
32,
27,
8,
15,
33,
23,
8,
13,
33,
19,
30,
16,
31,
19,
32,
18,
30,
13,
32,
19,
7,
22,
5,
20,
7,
5,
29,
21,
4,
15,
28,
21,
5,
20,
4,
4,
27,
12,
27,
24,
3,
25,
1,
15,
2,
18,
1,
17,
1,
6,
24,
7,
23,
25,
0,
15,
-1,
9,
22,
13,
-3,
5,
21,
-1,
20,
-3,
21,
19,
-5,
-2,
18,
18,
-5,
9,
-6,
9,
-6,
13,
-9,
12,
-7,
8,
-7,
-3,
15,
6,
-8,
-2,
15,
-12,
14,
0,
12,
1,
-13,
3,
-13,
4,
-13,
-10,
10,
-4,
10,
3,
-16,
1,
-15,
-17,
7,
-17,
7,
0,
-17,
-1,
-17,
4,
-19,
-2,
-20,
-13,
4,
-21,
3,
-13,
3,
-1,
-23,
-9,
-22,
-9,
-22,
-22,
0,
-7,
-24,
-20,
-1,
-15,
-1,
-16,
-3,
-10,
-27,
-19,
-3,
-13,
-29,
-19,
-3,
-20,
-3,
-12,
-29,
-10,
-29,
-30,
-7,
-12,
-31,
-12,
-31,
-17,
-31,
-31,
-8,
-20,
-33,
-23,
-9,
-10,
-35,
-26,
-11,
-18,
-34,
-16,
-36,
-25,
-12,
-22,
-37,
-13,
-35,
-19,
-34,
-29,
-13,
-26,
-14,
-38,
-13,
-28,
-15,
-33,
-14,
-28,
-15,
-23,
-38,
-16,
-39,
-35,
-17,
-15,
-39,
-25,
-40,
-15,
-40,
-25,
-40,
-40,
-16,
-29,
-16,
-40,
-16,
-31,
-17,
-41,
-16,
-32,
-16,
-33,
-17,
-24,
-40,
-27,
-40,
-35,
-16,
-28,
-40,
-31,
-17,
-41,
-16,
-27,
-41,
-25,
-41,
-26,
-40,
-20,
-39,
-24,
-40,
-24,
-40,
-31,
-17,
-39,
-17,
-33,
-16,
-31,
-17,
-24,
-38,
-32,
-17,
-31,
-15,
-31,
-15,
-24,
-38,
-15,
-37,
-25,
-38,
-31,
-15,
-20,
-39,
-26,
-14,
-31,
-13,
-29,
-14,
-27,
-12,
-25,
-12,
-31,
-11,
-12,
-34,
-28,
-10,
-21,
-35,
-35,
-11,
-13,
-32,
-15,
-34,
-31,
-7,
-14,
-32,
-31,
-5,
-23,
-7,
-19,
-6,
-30,
-6,
-18,
-5,
-18,
-4,
-28,
-5,
-28,
-3,
-16,
-3,
-24,
-3,
-19,
-2,
-14,
-1,
-20,
0,
-9,
-25,
-4,
-23,
-2,
-21,
-5,
-21,
-21,
2,
-22,
4,
1,
-20,
-20,
4,
-3,
-19,
-4,
-17,
0,
-16,
-17,
7,
-7,
6,
0,
-16,
3,
-15,
1,
-15,
-10,
9,
5,
-12,
-3,
11,
-12,
13,
-2,
12,
12,
-11,
0,
15,
2,
14,
3,
14,
0,
15,
0,
16,
-7,
16,
-7,
17,
-6,
17,
4,
19,
3,
17,
19,
-5,
3,
19,
15,
-3,
4,
21,
16,
0,
6,
21,
1,
20,
19,
0,
14,
0,
17,
1,
22,
1,
10,
25,
6,
25,
7,
25,
9,
26,
22,
3,
10,
28,
12,
27,
4,
29,
9,
26,
15,
28,
6,
29,
23,
5,
21,
6,
19,
5,
15,
29,
21,
6,
22,
7,
21,
7,
25,
9,
18,
32,
17,
31,
27,
9,
22,
9,
9,
32,
24,
10,
21,
8,
31,
9,
28,
7,
8,
32,
26,
8,
14,
35,
23,
9,
17,
33,
25,
8,
32,
9,
18,
34,
22,
9,
27,
10,
26,
8,
9,
33,
17,
32,
10,
32,
19,
32,
13,
33,
23,
9,
25,
8,
8,
32,
28,
9,
16,
32,
8,
32,
22,
7,
7,
30,
24,
8,
21,
8,
28,
5,
21,
5,
24,
7,
5,
30,
20,
4,
4,
28,
23,
2,
24,
3,
19,
3,
16,
1,
19,
2,
20,
1,
24,
1,
23,
0,
15,
1,
9,
23,
13,
-1,
18,
-1,
9,
21,
11,
-2,
11,
-3,
11,
-3,
22,
-4,
-3,
20,
19,
-4,
2,
17,
2,
17,
1,
15,
-2,
17,
6,
-9,
0,
15,
-3,
15,
13,
-11,
2,
-12,
-2,
12,
11,
-12,
1,
-12,
-4,
11,
4,
-13,
-8,
9,
8,
-16,
7,
-16,
7,
-17,
-12,
6,
-12,
5,
-3,
-17,
-5,
-19,
-11,
2,
-2,
-19,
-9,
4,
-19,
4,
-1,
-21,
-7,
-22,
-16,
1,
-14,
0,
-9,
-24,
-10,
-23,
-17,
-1,
-16,
-1,
-17,
-3,
-17,
-3,
-23,
-4,
-13,
-28,
-23,
-5,
-7,
-30,
-26,
-6,
-6,
-30,
-17,
-29,
-8,
-31,
-29,
-8,
-16,
-31,
-21,
-8,
-10,
-33,
-19,
-34,
-16,
-32,
-19,
-33,
-22,
-34,
-12,
-37,
-15,
-35,
-27,
-12,
-12,
-36,
-33,
-12,
-13,
-36,
-13,
-37,
-36,
-12,
-33,
-13,
-19,
-38,
-27,
-15,
-20,
-38,
-23,
-39,
-23,
-39,
-16,
-39,
-19,
-40,
-21,
-39,
-35,
-16,
-18,
-40,
-25,
-39,
-36,
-17,
-34,
-15,
-26,
-41,
-40,
-17,
-24,
-41,
-19,
-41,
-31,
-17,
-35,
-17,
-33,
-17,
-28,
-40,
-20,
-41,
-34,
-17,
-31,
-15,
-26,
-40,
-35,
-17,
-32,
-17,
-26,
-40,
-25,
-39,
-24,
-40,
-25,
-39,
-40,
-16,
-29,
-16,
-39,
-16,
-30,
-16,
-32,
-15,
-15,
-38,
-18,
-39,
-24,
-37,
-28,
-12,
-21,
-35,
-21,
-35,
-20,
-37,
-33,
-11,
-16,
-35,
-25,
-11,
-25,
-11,
-11,
-35,
-19,
-35,
-21,
-32,
-26,
-7,
-17,
-32,
-8,
-33,
-23,
-8,
-22,
-8,
-17,
-31,
-27,
-6,
-28,
-6,
-28,
-5,
-22,
-4,
-3,
-28,
-12,
-26,
-12,
-28,
-23,
-3,
-13,
-25,
-25,
0,
-24,
0,
-8,
-23,
-13,
-2,
-12,
1,
-9,
-9,
-7,
-20,
-15,
2,
-9,
4,
-5,
-20,
-12,
5,
-2,
-20,
-5,
-17,
-4,
-16,
-3,
-16,
-1,
-15,
-9,
9,
-3,
8,
-15,
11,
-3,
12,
4,
-12,
12,
-14,
-5,
11,
7,
-10,
6,
-10,
-3,
14,
-3,
14,
-3,
16,
-5,
17,
3,
17,
16,
-6,
17,
-7,
7,
-5,
16,
-3,
10,
-4,
11,
-6,
3,
20,
13,
-2,
15,
0,
17,
-1,
6,
23,
3,
21,
-1,
24,
16,
1,
16,
2,
26,
1,
27,
3,
12,
24,
12,
26,
8,
27,
19,
3,
21,
3,
5,
27,
25,
5,
13,
28,
17,
29,
21,
5,
13,
29,
22,
6,
19,
5,
15,
29,
21,
8,
31,
7,
17,
30,
9,
32,
17,
32,
12,
31,
26,
8,
23,
8,
16,
32,
21,
9,
9,
32,
33,
8,
33,
9,
23,
9,
24,
8,
17,
33,
9,
33,
23,
8,
21,
33,
21,
10,
24,
9,
19,
33,
32,
8,
24,
8,
33,
8,
23,
9,
22,
9,
25,
8,
25,
9,
14,
31,
16,
33,
9,
31,
15,
31,
15,
29,
21,
7,
25,
7,
31,
7,
5,
31,
12,
29,
20,
5,
14,
29,
16,
28,
27,
5,
5,
28,
4,
28,
18,
3,
19,
4,
20,
2,
20,
1,
15,
1,
9,
24,
23,
0,
6,
23,
9,
24,
16,
-2,
9,
23,
15,
-3,
7,
21,
20,
-3,
20,
-4,
5,
17,
5,
16,
3,
19,
11,
-7,
7,
-7,
11,
-7,
3,
16,
8,
-8,
-3,
15,
11,
-10,
-4,
12,
-2,
11,
3,
-11,
-11,
13,
5,
-11,
1,
-11,
10,
-13,
-4,
8,
-11,
9,
-5,
8,
-17,
7,
4,
-17,
-4,
-18,
-10,
6,
-5,
-19,
5,
-21,
-8,
3,
3,
-19,
-10,
5,
-19,
2,
-4,
-24,
-23,
1,
-5,
-26,
-2,
-24,
-17,
-1,
-2,
-26,
-20,
-3,
-6,
-27,
-4,
-27,
-3,
-28,
-13,
-28,
-13,
-28,
-7,
-31,
-23,
-6,
-15,
-31,
-31,
-8,
-12,
-31,
-32,
-8,
-17,
-34,
-27,
-8,
-18,
-34,
-11,
-34,
-19,
-33,
-27,
-11,
-19,
-35,
-35,
-12,
-27,
-12,
-30,
-14,
-28,
-13,
-18,
-35,
-31,
-12,
-32,
-13,
-12,
-37,
-29,
-15,
-20,
-37,
-28,
-15,
-23,
-39,
-24,
-38,
-32,
-17,
-27,
-40,
-20,
-38,
-40,
-16,
-18,
-39,
-26,
-39,
-23,
-39,
-26,
-38,
-27,
-40,
-24,
-40,
-38,
-17,
-24,
-40,
-42,
-17,
-23,
-40,
-32,
-16,
-33,
-17,
-31,
-17,
-42,
-17,
-21,
-40,
-19,
-40,
-16,
-42,
-16,
-43,
-34,
-16,
-24,
-39,
-29,
-15,
-31,
-17,
-20,
-41,
-31,
-15,
-15,
-38,
-15,
-40,
-13,
-39,
-28,
-15,
-19,
-37,
-30,
-14,
-23,
-37,
-21,
-38,
-33,
-14,
-35,
-11,
-28,
-12,
-21,
-35,
-36,
-13,
-35,
-10,
-26,
-9,
-28,
-11,
-21,
-33,
-24,
-10,
-18,
-33,
-28,
-9,
-31,
-7,
-8,
-31,
-14,
-31,
-13,
-30,
-22,
-6,
-7,
-29,
-30,
-5,
-13,
-27,
-17,
-6,
-13,
-27,
-14,
-26,
-11,
-24,
-4,
-27,
-6,
-26,
-4,
-24,
-7,
-23,
-17,
0,
-11,
1,
-20,
2,
-2,
-20,
-5,
-21,
-9,
5,
-9,
3,
-9,
5,
-7,
7,
1,
-17,
0,
-16,
-7,
6,
-8,
8,
9,
-14,
10,
-14,
3,
-14,
-4,
12,
4,
-12,
-5,
13,
-11,
13,
-6,
13,
9,
-9,
1,
12,
-10,
13,
11,
-9,
9,
-6,
11,
-6,
2,
17,
8,
-4,
8,
-5,
4,
19,
5,
20,
-3,
20,
-4,
21,
-4,
22,
11,
-2,
22,
-3,
23,
-1,
13,
-2,
8,
23,
16,
1,
9,
23,
9,
25,
9,
27,
3,
27,
27,
2,
12,
26,
26,
3,
21,
3,
23,
4,
13,
30,
23,
4,
14,
29,
20,
6,
11,
30,
23,
6,
27,
6,
23,
8,
16,
32,
17,
30,
8,
32,
9,
30,
24,
9,
9,
32,
30,
8,
11,
32,
11,
33,
9,
32,
24,
10,
14,
32,
32,
8,
32,
9,
28,
9,
22,
10,
9,
33,
15,
34,
12,
32,
27,
8,
27,
10,
18,
33,
15,
33,
26,
8,
25,
9,
8,
34,
18,
31,
17,
32,
11,
31,
16,
32,
18,
31,
17,
32,
28,
6,
17,
32,
8,
31,
17,
30,
30,
6,
30,
5,
15,
29,
25,
5,
29,
4,
15,
29,
19,
6,
8,
29,
22,
5,
8,
26,
12,
27,
16,
4,
20,
2,
9,
23,
25,
1,
7,
23,
11,
23,
8,
23,
8,
23,
4,
23,
13,
-2,
2,
20,
4,
21,
10,
-4,
19,
-3,
13,
-4,
0,
18,
0,
17,
10,
-7,
12,
-5,
1,
16,
8,
-8,
0,
15,
-1,
14,
5,
-9,
14,
-11,
12,
-11,
6,
-11,
-1,
12,
3,
-14,
-5,
11,
-8,
10,
1,
-13,
0,
-14,
-11,
8,
-10,
6,
-6,
5,
-11,
5,
3,
-19,
-15,
6,
-5,
-19,
-6,
-21,
-2,
-21,
1,
-23,
3,
-23,
-15,
0,
0,
-24,
-14,
-1,
-1,
-24,
-9,
-24,
-8,
-27,
-8,
-25,
-24,
-4,
-7,
-27,
-4,
-27,
-20,
-7,
-5,
-29,
-20,
-7,
-23,
-8,
-23,
-7,
-26,
-7,
-22,
-9,
-15,
-32,
-18,
-33,
-9,
-34,
-25,
-11,
-25,
-12,
-23,
-10,
-28,
-11,
-28,
-12,
-20,
-36,
-32,
-12,
-18,
-36,
-24,
-36,
-29,
-14,
-23,
-36,
-24,
-36,
-23,
-38,
-32,
-15,
-24,
-38,
-26,
-39,
-35,
-15,
-24,
-39,
-18,
-41,
-40,
-17,
-34,
-16,
-26,
-41,
-39,
-16,
-32,
-16,
-22,
-40,
-30,
-16,
-32,
-17,
-24,
-40,
-36,
-17,
-24,
-41,
-20,
-42,
-40,
-17,
-36,
-18,
-39,
-17,
-27,
-41,
-30,
-17,
-38,
-17,
-27,
-40,
-31,
-18,
-28,
-17,
-17,
-40,
-24,
-39,
-29,
-17,
-26,
-38,
-23,
-38,
-16,
-40,
-32,
-15,
-34,
-16,
-32,
-17,
-33,
-14,
-27,
-15,
-29,
-15,
-24,
-36,
-27,
-11,
-26,
-13,
-26,
-11,
-29,
-13,
-31,
-11,
-19,
-35,
-19,
-35,
-11,
-35,
-27,
-11,
-19,
-33,
-26,
-10,
-16,
-32,
-13,
-32,
-25,
-7,
-24,
-6,
-16,
-29,
-20,
-5,
-21,
-7,
-28,
-6,
-15,
-28,
-20,
-5,
-17,
-4,
-17,
-4,
-8,
-26,
-5,
-24,
-18,
-2,
-15,
0,
-24,
1,
-11,
0,
0,
-23,
-15,
1,
-21,
1,
-21,
3,
-22,
4,
-7,
-7,
-3,
-18,
-4,
-18,
5,
-19,
-8,
6,
1,
-15,
-5,
7,
-6,
8,
-7,
9,
-3,
10,
4,
-13,
6,
-13,
4,
-12,
4,
-12,
5,
-12,
2,
13,
-11,
14,
7,
-9,
8,
-7,
1,
17,
17,
-7,
10,
-5,
7,
-8,
19,
-5,
3,
18,
5,
19,
4,
19,
11,
-2,
13,
-2,
-3,
22,
8,
22,
4,
22,
0,
23,
16,
0,
0,
25,
9,
25,
16,
3,
5,
24,
26,
1,
10,
27,
13,
26,
9,
27,
5,
29,
9,
27,
19,
4,
11,
28,
21,
5,
21,
4,
12,
28,
10,
30,
14,
30,
17,
31,
24,
7,
22,
9,
23,
8,
16,
31,
25,
8,
31,
6,
18,
32,
17,
31,
17,
32,
25,
8,
33,
8,
17,
32,
23,
9,
17,
33,
33,
8,
10,
31,
27,
9,
32,
9,
26,
9,
16,
33,
10,
33,
8,
32,
26,
12,
27,
9,
33,
9,
20,
32,
32,
8,
16,
32,
15,
31,
24,
9,
7,
31,
26,
8,
11,
31,
15,
31,
21,
7,
32,
7,
19,
8,
8,
31,
13,
29,
23,
7,
13,
27,
29,
4,
13,
28,
28,
4,
10,
26,
13,
27,
11,
27,
17,
3,
8,
25,
10,
27,
20,
0,
22,
1,
25,
-1,
7,
23,
13,
1,
14,
-2,
16,
-2,
8,
21,
4,
21,
7,
20,
3,
18,
4,
20,
11,
-6,
12,
-5,
4,
18,
0,
17,
14,
-8,
7,
-7,
13,
-8,
9,
-10,
-10,
15,
5,
-10,
13,
-12,
12,
-12,
9,
-12,
11,
-13,
11,
-13,
-13,
11,
9,
-14,
-8,
9,
0,
-16,
7,
-18,
0,
-16,
-12,
5,
-5,
-20,
-1,
-19,
-9,
4,
4,
-21,
-11,
2,
1,
-23,
-22,
3,
-16,
1,
-15,
1,
-1,
-24,
-19,
-1,
-8,
-24,
-4,
-26,
-13,
-26,
-13,
-27,
-4,
-26,
-20,
-4,
-20,
-5,
-15,
-29,
-21,
-7,
-11,
-29,
-18,
-31,
-16,
-31,
-21,
-9,
-23,
-10,
-17,
-35,
-20,
-35,
-24,
-10,
-34,
-10,
-31,
-12,
-24,
-11,
-20,
-36,
-23,
-35,
-31,
-15,
-23,
-35,
-24,
-36,
-22,
-37,
-22,
-37,
-27,
-13,
-15,
-38,
-19,
-38,
-19,
-40,
-24,
-39,
-33,
-15,
-36,
-17,
-29,
-15,
-35,
-15,
-30,
-17,
-31,
-15,
-32,
-16,
-27,
-41,
-23,
-40,
-24,
-40,
-25,
-40,
-35,
-16,
-22,
-41,
-27,
-40,
-25,
-41,
-34,
-17,
-15,
-41,
-24,
-41,
-29,
-40,
-36,
-17,
-35,
-18,
-40,
-17,
-19,
-41,
-39,
-16,
-32,
-17,
-16,
-40,
-16,
-40,
-33,
-16,
-16,
-40,
-27,
-27,
-30,
-15,
-37,
-16,
-23,
-36,
-31,
-15,
-27,
-12,
-15,
-37,
-23,
-38,
-22,
-35,
-20,
-36,
-23,
-37,
-20,
-36,
-28,
-11,
-25,
-10,
-21,
-34,
-27,
-12,
-26,
-11,
-24,
-9,
-23,
-8,
-30,
-6,
-25,
-8,
-24,
-8,
-8,
-31,
-20,
-6,
-13,
-30,
-15,
-30,
-14,
-28,
-5,
-28,
-24,
-3,
-12,
-28,
-10,
-27,
-17,
-1,
-6,
-25,
-9,
-25,
-20,
-1,
-19,
-2,
-4,
-24,
-23,
1,
-3,
-22,
-11,
4,
-4,
-21,
-7,
-19,
-13,
4,
-19,
4,
-5,
-18,
-7,
5,
-8,
6,
-11,
6,
1,
-16,
9,
-15,
2,
-13,
-8,
10,
-3,
10,
-3,
12,
-4,
12,
12,
-11,
-5,
12,
9,
-9,
5,
-10,
5,
-8,
-1,
16,
-8,
16,
11,
-7,
15,
-6,
1,
19,
11,
-4,
0,
20,
5,
20,
13,
-2,
-2,
21,
11,
-3,
1,
21,
5,
22,
16,
-1,
8,
24,
14,
0,
1,
25,
19,
0,
2,
25,
16,
1,
9,
25,
12,
25,
9,
25,
21,
4,
13,
27,
5,
28,
28,
7,
21,
6,
12,
29,
15,
29,
29,
7,
31,
5,
24,
8,
6,
30,
31,
6,
22,
8,
19,
31,
25,
8,
14,
32,
13,
31,
17,
32,
24,
9,
22,
8,
20,
32,
14,
33,
20,
34,
25,
9,
9,
33,
24,
9,
9,
33,
9,
32,
34,
8,
24,
11,
24,
9,
19,
32,
32,
10,
22,
8,
27,
10,
17,
34,
24,
9,
23,
9,
32,
9,
32,
7,
26,
8,
31,
8,
25,
9,
26,
7,
32,
6,
21,
6,
23,
7,
27,
8,
13,
29,
27,
7,
5,
29,
24,
6,
17,
6,
19,
4,
5,
28,
23,
2,
9,
27,
7,
27,
21,
2,
21,
2,
9,
25,
10,
24,
9,
22,
18,
1,
5,
23,
7,
21,
21,
-1,
16,
-3,
23,
-3,
4,
20,
13,
-4,
12,
-3,
16,
-4,
13,
-5,
3,
16,
5,
17,
10,
-5,
12,
-7,
-7,
17,
15,
-8,
10,
-9,
-10,
13,
4,
-8,
-12,
12,
13,
-11,
10,
-13,
-4,
11,
-4,
11,
3,
-14,
0,
-15,
8,
-15,
-1,
-16,
-17,
8,
-7,
7,
-3,
-17,
-12,
4,
-13,
5,
-10,
3,
-3,
-22,
-5,
-20,
-3,
-21,
-12,
2,
-13,
1,
-7,
-23,
-17,
-1,
-15,
-1,
-10,
-26,
-6,
-26,
-10,
-26,
-3,
-27,
-21,
-5,
-11,
-27,
-4,
-30,
-16,
-29,
-13,
-30,
-24,
-7,
-14,
-29,
-31,
-8,
-7,
-32,
-28,
-8,
-27,
-9,
-32,
-9,
-23,
-8,
-11,
-34,
-14,
-36,
-20,
-36,
-15,
-33,
-20,
-37,
-24,
-24,
-31,
-13,
-20,
-36,
-27,
-13,
-31,
-14,
-32,
-15,
-32,
-15,
-15,
-37,
-29,
-15,
-40,
-14,
-31,
-16,
-25,
-40,
-26,
-40,
-27,
-15,
-32,
-17,
-20,
-39,
-36,
-16,
-27,
-40,
-31,
-18,
-28,
-40,
-34,
-17,
-33,
-16,
-17,
-41,
-17,
-41,
-39,
-17,
-33,
-18,
-23,
-41,
-27,
-41,
-40,
-18,
-25,
-39,
-36,
-17,
-39,
-16,
-23,
-40,
-25,
-40,
-41,
-17,
-32,
-16,
-18,
-39,
-31,
-16,
-22,
-41,
-24,
-38,
-16,
-39,
-38,
-15,
-32,
-16,
-30,
-14,
-31,
-15,
-20,
-39,
-33,
-15,
-19,
-36,
-27,
-11,
-27,
-13,
-26,
-11,
-34,
-12,
-28,
-12,
-25,
-11,
-25,
-11,
-35,
-10,
-28,
-11,
-9,
-33,
-32,
-9,
-9,
-32,
-26,
-7,
-15,
-30,
-20,
-7,
-19,
-6,
-21,
-6,
-28,
-5,
-11,
-28,
-7,
-27,
-7,
-27,
-10,
-27,
-21,
-3,
-9,
-26,
-13,
-1,
-10,
-24,
-6,
-23,
-5,
-23,
-9,
-23,
1,
-22,
-16,
2,
-6,
-21,
-4,
-20,
-11,
4,
-3,
-18,
-9,
6,
-16,
6,
-1,
-15,
-11,
7,
0,
-15,
-15,
9,
4,
-12,
3,
-13,
-4,
11,
-5,
10,
-1,
12,
-4,
12,
6,
-11,
-1,
14,
8,
-9,
6,
-8,
9,
-8,
10,
-8,
12,
-6,
0,
17,
5,
18,
17,
-6,
-7,
20,
12,
-4,
-4,
20,
2,
20,
11,
-3,
14,
-2,
5,
22,
10,
22,
9,
22,
19,
1,
13,
-1,
1,
24,
16,
1,
17,
1,
16,
2,
7,
25,
12,
28,
27,
3,
27,
4,
19,
4,
13,
29,
20,
5,
11,
29,
17,
29,
20,
5,
24,
6,
29,
7,
13,
31,
15,
30,
6,
32,
19,
8,
28,
9,
16,
33,
17,
32,
33,
8,
16,
34,
9,
33,
17,
33,
29,
9,
15,
33,
11,
33,
24,
10,
12,
32,
33,
9,
19,
33,
9,
33,
16,
32,
33,
10,
23,
9,
31,
9,
18,
32,
24,
11,
33,
9,
27,
9,
29,
8,
8,
33,
9,
33,
21,
7,
17,
31,
31,
8,
13,
32,
22,
8,
23,
6,
12,
29,
20,
8,
20,
7,
16,
31,
24,
5,
10,
29,
28,
5,
17,
4,
24,
4,
13,
26,
21,
4,
20,
3,
17,
3,
10,
25,
5,
25,
24,
0,
24,
1,
10,
23,
15,
0,
16,
-1,
9,
22,
13,
-1,
1,
20,
12,
-3,
-3,
20,
5,
20,
11,
-3,
-4,
19,
-3,
19,
-5,
19,
1,
16,
-1,
17,
-9,
14,
1,
14,
-10,
15,
-2,
14,
3,
-11,
12,
-11,
-3,
13,
-12,
12,
2,
-13,
1,
-15,
-1,
-13,
3,
-15,
-18,
7,
-10,
6,
-4,
-16,
-12,
7,
-16,
6,
-2,
-19,
-9,
4,
-20,
5,
-14,
4,
-13,
3,
-13,
3,
-20,
1,
-11,
0,
-9,
-21,
-8,
-23,
0,
-24,
-25,
-2,
-22,
-3,
-10,
-27,
-8,
-27,
-18,
-5,
-24,
-5,
-26,
-5,
-5,
-30,
-14,
-30,
-21,
-7,
-31,
-6,
-8,
-31,
-24,
-8,
-8,
-31,
-19,
-32,
-34,
-8,
-14,
-33,
-15,
-33,
-28,
-9,
-30,
-11,
-19,
-34,
-21,
-36,
-19,
-35,
-23,
-36,
-20,
-35,
-27,
-13,
-27,
-13,
-31,
-14,
-30,
-15,
-32,
-16,
-34,
-15,
-20,
-39,
-21,
-37,
-16,
-41,
-32,
-15,
-32,
-15,
-25,
-41,
-33,
-16,
-30,
-16,
-22,
-42,
-23,
-40,
-23,
-40,
-35,
-18,
-18,
-40,
-26,
-40,
-29,
-16,
-16,
-40,
-43,
-16,
-30,
-16,
-24,
-41,
-28,
-40,
-26,
-40,
-33,
-17,
-32,
-15,
-27,
-39,
-34,
-18,
-29,
-40,
-30,
-17,
-26,
-39,
-29,
-15,
-39,
-16,
-33,
-16,
-23,
-38,
-15,
-39,
-23,
-39,
-33,
-13,
-32,
-14,
-19,
-37,
-24,
-40,
-21,
-37,
-32,
-13,
-36,
-13,
-17,
-36,
-16,
-35,
-11,
-35,
-17,
-35,
-13,
-34,
-13,
-33,
-11,
-32,
-32,
-9,
-13,
-32,
-11,
-32,
-30,
-8,
-8,
-31,
-5,
-30,
-22,
-6,
-29,
-4,
-16,
-28,
-24,
-5,
-29,
-4,
-6,
-27,
-11,
-27,
-27,
-3,
-13,
-25,
-1,
-25,
-14,
0,
-18,
-1,
-4,
-24,
-14,
0,
-4,
-19,
-12,
2,
-3,
-19,
-11,
4,
4,
-20,
-5,
-17,
-11,
6,
-18,
6,
-15,
7,
0,
-16,
1,
-16,
4,
-16,
6,
-13,
-8,
11,
-7,
10,
-8,
11,
-12,
11,
-3,
13,
14,
-11,
-1,
12,
5,
-9,
-4,
13,
11,
-9,
1,
15,
-8,
17,
-1,
16,
16,
-7,
12,
-5,
-3,
17,
3,
18,
15,
-4,
13,
-3,
8,
22,
12,
-2,
13,
-3,
0,
23,
2,
23,
16,
0,
10,
25,
11,
26,
2,
25,
4,
25,
11,
24,
26,
1,
27,
3,
12,
27,
22,
4,
8,
29,
27,
4,
25,
6,
15,
29,
15,
29,
17,
31,
29,
6,
30,
8,
20,
7,
25,
7,
27,
9,
31,
8,
24,
7,
32,
8,
8,
32,
23,
9,
21,
9,
15,
33,
25,
9,
24,
9,
26,
9,
13,
31,
29,
7,
17,
33,
32,
8,
9,
33,
29,
9,
17,
34,
17,
32,
25,
8,
27,
9,
33,
8,
18,
31,
15,
32,
22,
9,
27,
10,
26,
8,
21,
10,
32,
8,
11,
30,
20,
8,
13,
31,
15,
30,
14,
30,
11,
31,
21,
5,
28,
5,
20,
5,
28,
5,
22,
6,
20,
6,
7,
28,
17,
3,
17,
4,
9,
26,
3,
26,
24,
3,
12,
24,
16,
0,
1,
24,
12,
0,
23,
0,
16,
0,
6,
21,
13,
0,
8,
21,
12,
-2,
4,
21,
20,
-3,
10,
-4,
9,
-5,
8,
-5,
13,
-6,
10,
-7,
5,
-7,
-8,
15,
13,
-8,
11,
-8,
10,
-10,
1,
13,
-9,
14,
-3,
12,
-8,
10,
-4,
10,
10,
-13,
4,
-13,
-7,
9,
-2,
-15,
-12,
7,
-8,
9,
-2,
-18,
-16,
7,
6,
-19,
-4,
-17,
-7,
-19,
-3,
