5-grundlagen-opAmps/data/ALL0014/A0014CH1.CSV

Memory Length,4000,
Trigger Level,0.00000e+00,
Source,CH1,
Probe,1.0X,
Vertical Units,V,
Vertical Scale,5.00000e-02,
Vertical Position,0.00000e+00,
Horizontal Units,S,
Horizontal Scale,1.00000e-06,
Horizontal Position,1.0000000e-06,
Horizontal Mode,Main,
Sampling Period,4.00000e-09,
Firmware,V1.14,
Time, ,
Mode,Fast,
Waveform Data,
18,
18,
17,
22,
16,
20,
22,
16,
22,
19,
17,
22,
18,
18,
20,
20,
19,
19,
21,
18,
19,
21,
18,
22,
19,
18,
22,
17,
20,
22,
15,
21,
21,
14,
22,
20,
16,
23,
18,
17,
23,
15,
19,
21,
14,
22,
20,
15,
23,
17,
16,
21,
15,
18,
19,
15,
20,
15,
17,
19,
15,
19,
17,
15,
17,
15,
18,
15,
13,
19,
13,
15,
18,
11,
16,
17,
11,
16,
15,
11,
19,
12,
12,
19,
7,
15,
17,
5,
19,
13,
6,
19,
8,
11,
16,
7,
14,
12,
7,
14,
11,
8,
14,
9,
7,
13,
8,
8,
11,
7,
9,
9,
6,
9,
6,
8,
7,
6,
6,
6,
8,
3,
6,
9,
2,
8,
7,
1,
8,
3,
2,
6,
2,
4,
5,
0,
5,
3,
0,
5,
1,
-2,
5,
0,
0,
3,
-2,
1,
0,
-3,
3,
-3,
-2,
2,
-5,
0,
-2,
-5,
0,
-4,
-3,
-2,
-6,
0,
-7,
-5,
-2,
-8,
-3,
-5,
-9,
-3,
-8,
-7,
-4,
-11,
-7,
-5,
-13,
-4,
-6,
-13,
-4,
-9,
-14,
-3,
-14,
-10,
-6,
-15,
-8,
-10,
-17,
-4,
-15,
-15,
-7,
-16,
-13,
-10,
-18,
-11,
-13,
-15,
-13,
-14,
-16,
-13,
-16,
-16,
-14,
-17,
-17,
-14,
-17,
-17,
-18,
-16,
-19,
-18,
-17,
-20,
-16,
-18,
-23,
-15,
-22,
-19,
-17,
-24,
-16,
-19,
-24,
-15,
-24,
-23,
-18,
-24,
-22,
-20,
-24,
-20,
-22,
-24,
-21,
-22,
-26,
-20,
-26,
-25,
-21,
-26,
-24,
-23,
-26,
-25,
-26,
-23,
-27,
-25,
-24,
-29,
-25,
-25,
-30,
-23,
-29,
-25,
-25,
-31,
-24,
-27,
-32,
-22,
-29,
-31,
-22,
-31,
-29,
-23,
-34,
-26,
-25,
-33,
-23,
-30,
-34,
-23,
-33,
-30,
-23,
-34,
-28,
-26,
-36,
-26,
-29,
-32,
-27,
-33,
-31,
-27,
-34,
-28,
-28,
-33,
-31,
-29,
-30,
-30,
-30,
-30,
-31,
-30,
-31,
-31,
-31,
-30,
-32,
-30,
-31,
-31,
-31,
-32,
-29,
-30,
-34,
-25,
-33,
-33,
-26,
-35,
-30,
-29,
-35,
-27,
-32,
-31,
-28,
-32,
-30,
-28,
-33,
-30,
-28,
-32,
-31,
-28,
-32,
-29,
-30,
-30,
-29,
-30,
-28,
-29,
-31,
-27,
-31,
-28,
-31,
-29,
-27,
-32,
-26,
-28,
-34,
-23,
-31,
-30,
-24,
-33,
-25,
-26,
-33,
-23,
-29,
-31,
-22,
-29,
-30,
-21,
-32,
-26,
-21,
-33,
-24,
-23,
-31,
-21,
-28,
-27,
-20,
-29,
-23,
-21,
-29,
-21,
-24,
-27,
-21,
-23,
-25,
-22,
-24,
-21,
-24,
-23,
-22,
-23,
-22,
-21,
-22,
-21,
-23,
-20,
-21,
-22,
-18,
-20,
-23,
-16,
-22,
-20,
-15,
-21,
-18,
-16,
-23,
-16,
-19,
-19,
-14,
-20,
-18,
-14,
-22,
-13,
-14,
-18,
-13,
-15,
-17,
-13,
-14,
-14,
-14,
-14,
-14,
-12,
-15,
-12,
-11,
-14,
-12,
-11,
-13,
-12,
-10,
-11,
-13,
-8,
-11,
-11,
-7,
-12,
-9,
-7,
-14,
-3,
-10,
-11,
-2,
-13,
-7,
-2,
-14,
-3,
-4,
-10,
-2,
-6,
-8,
-1,
-7,
-4,
1,
-8,
-3,
0,
-10,
2,
-2,
-7,
3,
-4,
-3,
1,
-4,
1,
-2,
-2,
3,
-3,
1,
1,
0,
1,
0,
2,
3,
0,
3,
2,
2,
5,
1,
3,
6,
0,
5,
6,
2,
7,
4,
3,
10,
2,
7,
10,
0,
10,
9,
2,
11,
7,
6,
10,
5,
9,
10,
5,
10,
9,
7,
11,
10,
9,
12,
11,
9,
11,
12,
9,
12,
12,
11,
13,
13,
12,
14,
12,
11,
15,
12,
12,
18,
10,
14,
18,
8,
19,
16,
10,
20,
11,
14,
19,
9,
19,
18,
10,
20,
15,
13,
20,
16,
14,
19,
14,
16,
19,
14,
19,
19,
14,
22,
15,
17,
20,
14,
20,
19,
17,
20,
16,
21,
17,
17,
21,
16,
20,
21,
17,
21,
19,
17,
21,
17,
19,
22,
15,
20,
23,
14,
22,
22,
14,
24,
19,
17,
26,
15,
22,
22,
15,
25,
19,
17,
24,
19,
19,
21,
20,
18,
21,
19,
19,
22,
19,
18,
21,
18,
20,
20,
18,
20,
21,
16,
20,
22,
15,
21,
21,
15,
22,
18,
16,
23,
16,
19,
22,
12,
21,
20,
11,
24,
16,
14,
23,
14,
17,
21,
13,
20,
17,
13,
20,
15,
16,
19,
14,
16,
18,
15,
17,
16,
14,
17,
15,
16,
15,
13,
16,
13,
13,
16,
11,
14,
13,
11,
17,
9,
14,
15,
8,
15,
13,
7,
15,
12,
9,
15,
9,
10,
14,
7,
12,
13,
4,
14,
10,
4,
15,
6,
7,
13,
4,
11,
8,
5,
11,
6,
6,
8,
5,
5,
7,
6,
3,
7,
5,
2,
6,
4,
2,
6,
3,
3,
5,
3,
3,
5,
0,
2,
4,
-3,
5,
2,
-4,
5,
-2,
-1,
5,
-6,
0,
1,
-7,
3,
-3,
-6,
2,
-6,
-3,
1,
-8,
-3,
-1,
-7,
-3,
-4,
-5,
-2,
-8,
-6,
-5,
-7,
-3,
-7,
-8,
-5,
-9,
-6,
-7,
-9,
-6,
-11,
-8,
-7,
-13,
-6,
-8,
-15,
-4,
-12,
-12,
-7,
-15,
-10,
-9,
-17,
-8,
-13,
-15,
-8,
-15,
-16,
-9,
-17,
-15,
-10,
-18,
-13,
-13,
-20,
-11,
-18,
-18,
-11,
-21,
-17,
-14,
-20,
-15,
-18,
-18,
-19,
-18,
-18,
-20,
-17,
-19,
-21,
-17,
-23,
-18,
-20,
-24,
-18,
-21,
-23,
-18,
-22,
-23,
-18,
-23,
-25,
-18,
-25,
-22,
-21,
-27,
-20,
-23,
-27,
-18,
-29,
-24,
-21,
-29,
-23,
-23,
-28,
-23,
-26,
-25,
-24,
-27,
-26,
-25,
-28,
-26,
-27,
-27,
-26,
-26,
-28,
-27,
-28,
-27,
-30,
-27,
-26,
-31,
-26,
-27,
-33,
-24,
-32,
-29,
-26,
-33,
-25,
-28,
-35,
-23,
-31,
-32,
-23,
-35,
-30,
-24,
-35,
-28,
-28,
-34,
-27,
-30,
-33,
-25,
-34,
-30,
-26,
-35,
-30,
-27,
-36,
-27,
-30,
-33,
-28,
-31,
-31,
-28,
-32,
-30,
-31,
-31,
-30,
-31,
-32,
-31,
-29,
-30,
-33,
-28,
-34,
-31,
-28,
-34,
-29,
-29,
-34,
-27,
-32,
-32,
-28,
-31,
-32,
-25,
-34,
-30,
-26,
-36,
-29,
-27,
-34,
-26,
-32,
-30,
-26,
-34,
-27,
-28,
-33,
-26,
-31,
-29,
-29,
-29,
-28,
-29,
-27,
-28,
-30,
-26,
-30,
-29,
-27,
-28,
-29,
-25,
-29,
-28,
-26,
-30,
-24,
-25,
-31,
-20,
-30,
-27,
-19,
-31,
-25,
-22,
-33,
-21,
-25,
-27,
-20,
-28,
-25,
-21,
-30,
-22,
-21,
-29,
-22,
-22,
-27,
-18,
-25,
-25,
-19,
-25,
-22,
-19,
-25,
-18,
-22,
-23,
-19,
-20,
-22,
-19,
-20,
-19,
-20,
-17,
-20,
-19,
-16,
-19,
-18,
-17,
-19,
-15,
-18,
-18,
-13,
-19,
-16,
-13,
-20,
-14,
-14,
-18,
-12,
-14,
-16,
-11,
-15,
-15,
-11,
-15,
-12,
-9,
-17,
-10,
-11,
-14,
-9,
-13,
-12,
-10,
-13,
-8,
-12,
-9,
-9,
-10,
-7,
-10,
-9,
-6,
-11,
-6,
-7,
-9,
-4,
-9,
-9,
-2,
-9,
-5,
-2,
-9,
-3,
-3,
-10,
1,
-4,
-7,
3,
-9,
-2,
3,
-10,
4,
-2,
-7,
5,
-4,
-3,
3,
-4,
0,
2,
-3,
3,
3,
-2,
4,
1,
-1,
6,
1,
3,
5,
0,
4,
4,
3,
6,
1,
7,
4,
3,
7,
3,
6,
5,
4,
9,
3,
7,
10,
3,
9,
9,
4,
10,
9,
8,
11,
6,
10,
12,
6,
11,
11,
5,
13,
11,
7,
14,
11,
10,
14,
11,
12,
12,
11,
13,
11,
12,
14,
12,
13,
12,
15,
14,
12,
16,
12,
14,
18,
10,
16,
16,
11,
19,
15,
13,
19,
13,
16,
19,
11,
18,
20,
10,
21,
17,
11,
24,
14,
15,
23,
12,
21,
20,
11,
24,
16,
15,
23,
15,
18,
21,
16,
19,
21,
17,
19,
20,
17,
21,
17,
19,
21,
16,
20,
19,
19,
21,
18,
21,
18,
19,
23,
16,
21,
21,
16,
23,
18,
19,
22,
16,
22,
22,
16,
23,
20,
16,
23,
19,
17,
24,
18,
19,
23,
17,
20,
21,
18,
22,
19,
18,
21,
18,
19,
20,
19,
18,
20,
21,
16,
19,
21,
16,
20,
18,
17,
22,
16,
18,
21,
14,
20,
21,
13,
22,
18,
13,
22,
15,
14,
23,
13,
17,
20,
12,
20,
17,
11,
22,
12,
12,
22,
11,
16,
19,
10,
17,
14,
12,
18,
12,
15,
15,
12,
15,
14,
12,
13,
14,
13,
13,
13,
12,
11,
13,
13,
11,
12,
13,
9,
12,
11,
8,
14,
7,
10,
12,
3,
13,
9,
4,
14,
5,
7,
11,
4,
8,
8,
5,
9,
6,
4,
8,
6,
3,
9,
4,
3,
7,
2,
4,
5,
1,
4,
2,
4,
3,
3,
3,
0,
3,
1,
2,
3,
-5,
4,
1,
-4,
5,
-3,
-2,
3,
-6,
-1,
1,
-6,
1,
-1,
-8,
2,
-5,
-7,
3,
-8,
-6,
1,
-10,
-2,
-4,
-10,
-1,
-8,
-9,
-1,
-10,
-6,
-4,
-11,
-6,
-7,
-12,
-6,
-9,
-9,
-9,
-10,
-9,
-12,
-10,
-8,
-13,
-10,
-11,
-12,
-10,
-13,
-13,
-11,
-16,
-11,
-12,
-16,
-11,
-14,
-20,
-9,
-17,
-16,
-10,
-20,
-13,
-13,
-22,
-11,
-18,
-19,
-13,
-19,
-18,
-15,
-21,
-17,
-16,
-20,
-19,
-18,
-23,
-18,
-19,
-21,
-17,
-21,
-21,
-18,
-24,
-20,
-21,
-23,
-24,
-21,
-22,
-24,
-20,
-23,
-24,
-18,
-28,
-22,
-22,
-28,
-20,
-25,
-28,
-18,
-28,
-25,
-21,
-28,
-26,
-21,
-30,
-23,
-24,
-30,
-23,
-27,
-29,
-21,
-30,
-26,
-23,
-32,
-24,
-26,
-31,
-24,
-30,
-28,
-27,
-29,
-26,
-28,
-29,
-26,
-31,
-27,
-29,
-30,
-29,
-30,
-29,
-28,
-32,
-26,
-30,
-32,
-26,
-31,
-33,
-26,
-34,
-29,
-27,
-35,
-28,
-28,
-35,
-25,
-33,
-33,
-26,
-36,
-30,
-27,
-36,
-28,
-30,
-34,
-28,
-31,
-31,
-28,
-34,
-30,
-29,
-33,
-31,
-29,
-33,
-30,
-29,
-33,
-30,
-29,
-32,
-30,
-30,
-31,
-30,
-30,
-31,
-30,
-30,
-32,
-28,
-31,
-32,
-26,
-34,
-30,
-25,
-36,
-27,
-27,
-35,
-24,
-32,
-30,
-26,
-33,
-28,
-26,
-32,
-27,
-27,
-32,
-27,
-27,
-34,
-25,
-29,
-29,
-25,
-30,
-27,
-28,
-30,
-25,
-29,
-26,
-26,
-28,
-25,
-28,
-25,
-25,
-29,
-22,
-28,
-27,
-21,
-28,
-25,
-22,
-28,
-23,
-23,
-27,
-22,
-24,
-27,
-18,
-26,
-24,
-18,
-29,
-21,
-18,
-29,
-18,
-22,
-25,
-16,
-24,
-22,
-17,
-26,
-18,
-18,
-25,
-18,
-19,
-22,
-17,
-20,
-19,
-17,
-18,
-18,
-16,
-19,
-17,
-16,
-17,
-16,
-15,
-16,
-16,
-14,
-17,
-16,
-13,
-18,
-14,
-13,
-18,
-13,
-13,
-19,
-10,
-14,
-14,
-8,
-16,
-10,
-8,
-17,
-7,
-11,
-14,
-6,
-12,
-11,
-7,
-11,
-9,
-8,
-10,
-8,
-8,
-11,
-6,
-8,
-10,
-5,
-8,
-7,
-5,
-8,
-4,
-8,
-4,
-4,
-9,
-1,
-6,
-6,
0,
-8,
0,
-4,
-5,
2,
-6,
-1,
2,
-8,
1,
0,
-4,
3,
-1,
-5,
3,
0,
-2,
5,
-3,
2,
7,
-5,
6,
2,
-3,
10,
0,
1,
9,
0,
4,
6,
1,
7,
5,
4,
7,
4,
4,
8,
6,
5,
9,
8,
5,
9,
9,
5,
8,
10,
7,
9,
9,
6,
12,
7,
8,
14,
7,
11,
13,
6,
14,
12,
7,
15,
10,
10,
14,
9,
14,
14,
10,
15,
13,
11,
16,
13,
13,
16,
13,
13,
16,
14,
15,
16,
15,
15,
15,
16,
15,
15,
17,
13,
17,
17,
14,
20,
13,
16,
21,
11,
20,
20,
11,
23,
16,
15,
24,
13,
20,
23,
12,
21,
19,
13,
24,
18,
14,
25,
16,
16,
25,
14,
21,
22,
14,
24,
17,
16,
23,
16,
18,
22,
17,
20,
19,
19,
19,
20,
20,
18,
21,
19,
18,
19,
19,
20,
19,
19,
20,
20,
18,
21,
21,
16,
23,
20,
17,
23,
17,
18,
24,
16,
22,
21,
16,
24,
17,
17,
24,
16,
18,
22,
17,
19,
19,
17,
19,
18,
18,
18,
18,
18,
18,
17,
18,
18,
18,
17,
18,
18,
15,
18,
19,
13,
19,
17,
13,
19,
14,
14,
21,
13,
17,
19,
10,
21,
16,
10,
21,
12,
13,
20,
10,
15,
17,
10,
17,
13,
10,
19,
12,
10,
18,
8,
13,
16,
8,
15,
13,
9,
14,
10,
12,
12,
9,
12,
10,
10,
10,
10,
10,
7,
11,
9,
6,
11,
8,
5,
10,
7,
7,
9,
6,
6,
8,
5,
7,
8,
2,
10,
5,
1,
10,
0,
3,
8,
0,
5,
2,
3,
5,
0,
3,
2,
0,
3,
1,
1,
0,
1,
1,
-2,
1,
0,
-3,
2,
0,
-3,
0,
-2,
-4,
0,
-5,
-1,
-1,
-8,
0,
-3,
-10,
2,
-7,
-8,
1,
-11,
-5,
-2,
-11,
-3,
-6,
-12,
-2,
-8,
-9,
-3,
-13,
-9,
-4,
-14,
-7,
-7,
-14,
-8,
-10,
-12,
-7,
-14,
-10,
-9,
-15,
-11,
-11,
-15,
-11,
-13,
-13,
-14,
-14,
-14,
-16,
-14,
-13,
-18,
-12,
-17,
-16,
-13,
-19,
-14,
-15,
-20,
-14,
-19,
-18,
-14,
-19,
-19,
-14,
-22,
-19,
-15,
-22,
-18,
-18,
-25,
-16,
-22,
-22,
-18,
-26,
-20,
-19,
-26,
-19,
-23,
-23,
-21,
-21,
-23,
-24,
-21,
-23,
-25,
-21,
-26,
-23,
-24,
-27,
-22,
-25,
-27,
-21,
-26,
-27,
-21,
-27,
-28,
-20,
-31,
-25,
-23,
-32,
-22,
-26,
-32,
-20,
-32,
-27,
-22,
-34,
-24,
-24,
-33,
-23,
-29,
-31,
-25,
-29,
-30,
-27,
-33,
-27,
-26,
-32,
-27,
-29,
-33,
-26,
-30,
-30,
-28,
-31,
-28,
-30,
-30,
-28,
-34,
-28,
-31,
-31,
-29,
-32,
-29,
-29,
-34,
-27,
-31,
-32,
-27,
-34,
-31,
-26,
-35,
-29,
-27,
-34,
-29,
-30,
-33,
-27,
-34,
-31,
-27,
-34,
-30,
-28,
-36,
-28,
-29,
-32,
-28,
-30,
-31,
-29,
-32,
-29,
-31,
-31,
-29,
-31,
-31,
-32,
-30,
-30,
-32,
-27,
-33,
-29,
-26,
-33,
-28,
-28,
-33,
-27,
-30,
-31,
-26,
-30,
-31,
-24,
-34,
-28,
-24,
-35,
-25,
-25,
-36,
-22,
-30,
-30,
-23,
-33,
-27,
-24,
-33,
-23,
-27,
-29,
-24,
-27,
-28,
-23,
-27,
-26,
-24,
-27,
-25,
-25,
-26,
-22,
-27,
-24,
-23,
-26,
-22,
-26,
-25,
-21,
-27,
-19,
-25,
-24,
-18,
-27,
-22,
-19,
-27,
-18,
-22,
-24,
-18,
-22,
-22,
-16,
-24,
-20,
-17,
-24,
-18,
-16,
-24,
-15,
-19,
-22,
-15,
-19,
-18,
-14,
-20,
-15,
-16,
-19,
-14,
-16,
-17,
-12,
-15,
-17,
-15,
-13,
-16,
-13,
-11,
-16,
-12,
-11,
-15,
-10,
-14,
-13,
-8,
-16,
-10,
-8,
-16,
-7,
-9,
-14,
-7,
-9,
-13,
-5,
-10,
-9,
-5,
-13,
-7,
-4,
-13,
-2,
-7,
-11,
0,
-9,
-8,
-2,
-9,
-2,
-6,
-5,
-3,
-6,
-3,
-3,
-5,
-2,
-2,
-3,
-3,
-2,
-2,
-2,
-3,
0,
-2,
-2,
2,
-3,
0,
3,
-4,
3,
2,
-3,
8,
-2,
1,
8,
-3,
7,
3,
-2,
10,
2,
0,
8,
2,
3,
7,
3,
7,
7,
1,
9,
6,
2,
11,
5,
4,
11,
5,
8,
10,
6,
10,
8,
8,
9,
9,
10,
8,
11,
9,
10,
13,
7,
12,
14,
7,
14,
11,
8,
16,
11,
11,
15,
9,
14,
17,
10,
16,
15,
10,
18,
13,
11,
19,
11,
14,
18,
11,
17,
15,
13,
19,
14,
15,
19,
13,
17,
17,
15,
18,
17,
17,
17,
16,
20,
16,
17,
20,
15,
19,
19,
15,
20,
17,
17,
21,
15,
19,
23,
14,
23,
21,
12,
25,
18,
16,
26,
15,
20,
23,
13,
25,
19,
16,
25,
17,
17,
24,
17,
18,
23,
17,
19,
24,
16,
21,
20,
17,
24,
18,
19,
22,
17,
20,
20,
19,
19,
20,
21,
16,
22,
20,
17,
24,
18,
19,
21,
15,
23,
20,
17,
22,
18,
16,
23,
16,
17,
24,
15,
18,
22,
15,
20,
18,
16,
22,
15,
18,
21,
14,
20,
20,
16,
20,
18,
17,
18,
16,
19,
16,
17,
18,
14,
17,
17,
14,
17,
14,
16,
17,
12,
18,
16,
10,
18,
14,
11,
18,
12,
12,
19,
9,
15,
16,
8,
19,
12,
8,
19,
7,
11,
17,
5,
13,
13,
6,
13,
10,
9,
13,
8,
9,
12,
7,
10,
12,
6,
8,
11,
5,
9,
8,
6,
8,
7,
7,
7,
7,
6,
5,
8,
3,
7,
6,
2,
8,
2,
2,
8,
0,
4,
5,
0,
4,
3,
1,
4,
1,
1,
3,
-1,
1,
4,
-2,
1,
2,
-4,
2,
0,
-2,
1,
-4,
-1,
-2,
-5,
1,
-5,
-3,
-3,
-3,
-2,
-6,
-4,
-4,
-7,
-3,
-7,
-8,
-2,
-8,
-7,
-4,
-10,
-7,
-5,
-12,
-4,
-7,
-12,
-4,
-11,
-12,
-3,
-14,
-10,
-6,
-16,
-8,
-9,
-16,
-6,
-15,
-15,
-8,
-16,
-12,
-10,
-18,
-10,
-14,
-16,
-12,
-15,
-15,
-12,
-16,
-15,
-15,
-16,
-16,
-15,
-18,
-15,
-18,
-17,
-17,
-17,
-19,
-18,
-16,
-18,
-21,
-15,
-22,
-21,
-15,
-24,
-18,
-18,
-25,
-15,
-24,
-21,
-17,
-26,
-19,
-19,
-26,
-19,
-22,
-24,
-22,
-21,
-25,
-22,
-24,
-24,
-21,
-25,
-24,
-23,
-27,
-23,
-26,
-24,
-25,
-25,
-25,
-27,
-23,
-27,
-30,
-20,
-29,
-26,
-24,
-30,
-23,
-26,
-30,
-22,
-30,
-29,
-23,
-31,
-28,
-23,
-33,
-26,
-25,
-34,
-24,
-28,
-33,
-23,
-33,
-29,
-25,
-37,
-25,
-27,
-36,
-24,
-31,
-32,
-26,
-32,
-30,
-27,
-33,
-29,
-31,
-32,
-28,
-30,
-33,
-28,
-31,
-31,
-29,
-29,
-31,
-30,
-30,
-31,
-32,
-29,
-32,
-31,
-29,
-31,
-29,
-30,
-33,
-27,
-33,
-31,
-27,
-36,
-29,
-27,
-37,
-26,
-30,
-33,
-27,
-32,
-30,
-27,
-34,
-28,
-30,
-32,
-29,
-29,
-32,
-28,
-30,
-31,
-29,
-29,
-31,
-29,
-31,
-29,
-31,
-28,
-30,
-29,
-28,
-29,
-27,
-29,
-32,
-24,
-32,
-29,
-23,
-34,
-27,
-24,
-34,
-22,
-28,
-31,
-22,
-29,
-27,
-22,
-31,
-25,
-25,
-31,
-22,
-23,
-32,
-20,
-27,
-29,
-19,
-29,
-23,
-21,
-29,
-19,
-25,
-26,
-20,
-26,
-23,
-21,
-25,
-22,
-23,
-21,
-23,
-22,
-22,
-23,
-21,
-20,
-22,
-20,
-20,
-22,
-19,
-20,
-20,
-17,
-22,
-20,
-16,
-22,
-18,
-15,
-24,
-15,
-18,
-20,
-13,
-19,
-18,
-13,
-21,
-14,
-14,
-19,
-12,
-15,
-17,
-11,
-15,
-16,
-12,
-15,
-14,
-12,
-14,
-11,
-13,
-12,
-12,
-11,
-13,
-11,
-11,
-11,
-10,
-9,
-13,
-10,
-7,
-13,
-8,
-7,
-13,
-4,
-9,
-10,
-2,
-11,
-7,
-3,
-12,
-1,
-6,
-11,
1,
-8,
-9,
0,
-8,
-4,
-2,
-7,
-2,
-1,
-8,
1,
-2,
-6,
4,
-5,
-3,
4,
-5,
2,
-1,
-3,
4,
-3,
2,
1,
-2,
5,
0,
1,
3,
0,
3,
2,
3,
5,
0,
5,
5,
1,
7,
6,
1,
7,
4,
3,
10,
3,
6,
10,
1,
11,
8,
2,
12,
6,
7,
12,
5,
10,
12,
7,
10,
10,
8,
11,
11,
9,
12,
10,
9,
13,
10,
10,
12,
11,
10,
12,
12,
11,
15,
13,
11,
15,
11,
13,
17,
10,
16,
16,
9,
19,
14,
11,
21,
11,
13,
20,
10,
17,
18,
12,
21,
15,
13,
21,
14,
16,
22,
13,
18,
20,
14,
18,
19,
15,
19,
17,
17,
20,
15,
19,
18,
16,
21,
18,
18,
19,
17,
22,
16,
19,
22,
15,
21,
19,
17,
24,
17,
18,
22,
17,
21,
20,
15,
23,
21,
16,
25,
17,
16,
26,
15,
20,
24,
14,
24,
20,
17,
25,
17,
19,
23,
17,
21,
21,
18,
20,
21,
19,
18,
22,
18,
19,
21,
19,
20,
19,
18,
21,
19,
17,
20,
19,
16,
23,
18,
16,
24,
15,
18,
22,
13,
22,
19,
13,
23,
15,
15,
22,
13,
18,
21,
12,
18,
18,
14,
20,
17,
16,
19,
14,
17,
17,
13,
17,
16,
13,
18,
15,
15,
16,
14,
14,
13,
15,
18,
10,
16,
15,
10,
16,
11,
13,
16,
8,
15,
13,
8,
17,
9,
10,
16,
7,
10,
15,
6,
12,
12,
6,
13,
9,
5,
14,
5,
7,
14,
3,
10,
10,
3,
11,
6,
5,
9,
4,
7,
6,
4,
6,
5,
4,
4,
7,
3,
2,
7,
2,
3,
5,
1,
3,
4,
2,
3,
4,
0,
2,
0,
-1,
5,
-3,
-1,
5,
-7,
2,
3,
-7,
3,
-2,
-5,
4,
-5,
-1,
-1,
-7,
-1,
-3,
-7,
-2,
-4,
-7,
-2,
-6,
-7,
-5,
-7,
-4,
-7,
-7,
-5,
-9,
-6,
-6,
-11,
-5,
-10,
-9,
-8,
-12,
-6,
-10,
-14,
-4,
-13,
-11,
-6,
-16,
-12,
-9,
-17,
-8,
-13,
-15,
-8,
-16,
-14,
-9,
-19,
-13,
-11,
-19,
-11,
-13,
-21,
-11,
-17,
-18,
-12,
-20,
-16,
-14,
-21,
-14,
-18,
-20,
-15,
-18,
-20,
-17,
-19,
-19,
-21,
-17,
-22,
-18,
-19,
-22,
-20,
-20,
-22,
-18,
-25,
-21,
-20,
-25,
-22,
-20,
-26,
-21,
-20,
-27,
-21,
-22,
-28,
-19,
-26,
-25,
-20,
-29,
-22,
-23,
-30,
-21,
-26,
-26,
-24,
-27,
-26,
-25,
-27,
-26,
-28,
-26,
-27,
-27,
-28,
-27,
-28,
-28,
-27,
-27,
-28,
-28,
-27,
-28,
-31,
-24,
-31,
-29,
-23,
-34,
-28,
-27,
-34,
-24,
-31,
-32,
-24,
-35,
-29,
-25,
-37,
-25,
-28,
-36,
-25,
-31,
-33,
-25,
-34,
-29,
-26,
-36,
-28,
-29,
-36,
-26,
-31,
-32,
-27,
-32,
-31,
-27,
-33,
-30,
-30,
-31,
-30,
-31,
-30,
-30,
-32,
-30,
-32,
-29,
-32,
-30,
-28,
-33,
-30,
-28,
-34,
-28,
-31,
-33,
-28,
-33,
-32,
-27,
-34,
-29,
-28,
-34,
-27,
-28,
-35,
-24,
-30,
-32,
-25,
-32,
-30,
-27,
-33,
-26,
-30,
-29,
-27,
-31,
-28,
-29,
-29,
-28,
-29,
-26,
-31,
-27,
-25,
-30,
-28,
-25,
-29,
-26,
-26,
-28,
-26,
-26,
-30,
-23,
-28,
-27,
-21,
-32,
-23,
-21,
-33,
-19,
-27,
-29,
-18,
-28,
-24,
-19,
-30,
-21,
-22,
-29,
-20,
-23,
-27,
-17,
-25,
-25,
-16,
-25,
-22,
-18,
-25,
-17,
-22,
-23,
-17,
-21,
-19,
-18,
-22,
-18,
-20,
-19,
-19,
-18,
-18,
-21,
-17,
-15,
-20,
-14,
-17,
-18,
-14,
-17,
-17,
-14,
-19,
-14,
-15,
-17,
-11,
-15,
-18,
-10,
-15,
-15,
-11,
-14,
-13,
-10,
-16,
-10,
-12,
-15,
-8,
-12,
-11,
-8,
-13,
-9,
-9,
-10,
-9,
-10,
-7,
-10,
-10,
-6,
-11,
-6,
-6,
-9,
-4,
-8,
-7,
-3,
-9,
-4,
-3,
-9,
-2,
-4,
-10,
1,
-5,
-7,
2,
-6,
-4,
2,
-9,
2,
-2,
-8,
6,
-5,
-3,
6,
-6,
1,
3,
-3,
2,
2,
-1,
4,
0,
0,
5,
-1,
2,
6,
-1,
4,
5,
1,
5,
3,
6,
4,
3,
7,
3,
6,
7,
4,
10,
4,
6,
10,
3,
11,
8,
4,
10,
8,
6,
12,
7,
9,
12,
7,
9,
13,
7,
12,
11,
8,
13,
9,
10,
15,
8,
13,
15,
9,
14,
13,
11,
14,
13,
13,
14,
13,
14,
14,
15,
14,
15,
15,
12,
17,
15,
11,
19,
14,
13,
20,
12,
15,
19,
12,
18,
17,
12,
21,
16,
13,
23,
14,
15,
23,
12,
19,
22,
12,
22,
17,
13,
24,
14,
19,
22,
14,
21,
21,
15,
21,
19,
18,
20,
18,
18,
20,
18,
20,
21,
17,
21,
19,
20,
20,
17,
21,
17,
20,
21,
16,
23,
18,
17,
26,
16,
19,
22,
16,
22,
19,
16,
23,
17,
19,
23,
18,
19,
22,
16,
19,
23,
15,
21,
20,
17,
23,
17,
19,
21,
16,
20,
19,
18,
19,
20,
19,
17,
21,
18,
16,
20,
16,
18,
20,
15,
20,
19,
13,
20,
17,
15,
21,
14,
15,
22,
13,
17,
21,
11,
19,
17,
11,
20,
14,
13,
21,
10,
16,
19,
9,
19,
16,
10,
19,
13,
13,
16,
12,
15,
14,
11,
16,
12,
12,
14,
12,
12,
12,
11,
11,
11,
11,
12,
10,
12,
10,
7,
14,
7,
8,
13,
6,
11,
9,
5,
13,
5,
6,
13,
2,
9,
10,
2,
9,
6,
4,
9,
7,
5,
7,
2,
4,
7,
1,
4,
7,
-1,
6,
4,
1,
5,
2,
4,
2,
1,
3,
0,
2,
-1,
1,
3,
-3,
4,
-2,
-3,
4,
-7,
0,
2,
-8,
2,
-2,
-7,
1,
-5,
-5,
0,
-6,
-4,
-1,
-10,
-2,
-3,
-11,
0,
-5,
-11,
-1,
-10,
-7,
-4,
-11,
-5,
-8,
-11,
-4,
-12,
-10,
-6,
-10,
-10,
-10,
-11,
-9,
-11,
-9,
-11,
-12,
-11,
-12,
-14,
-10,
-15,
-11,
-12,
-16,
-11,
-14,
-16,
-10,
-18,
-15,
-10,
-20,
-14,
-13,
-23,
-12,
-17,
-18,
-12,
-21,
-17,
-14,
-24,
-15,
-17,
-22,
-15,
-18,
-22,
-16,
-19,
-22,
-17,
-20,
-22,
-18,
-23,
-19,
-20,
-24,
-20,
-22,
-23,
-20,
-22,
-23,
-24,
-20,
-26,
-24,
-20,
-27,
