1-signale-auf-leitern/data/ALL0018/A0018CH1.CSV

Memory Length,4000,
Trigger Level,6.40000e+00,
Source,CH1,
Probe,1.0X,
Vertical Units,V,
Vertical Scale,5.00000e+00,
Vertical Position,0.00000e+00,
Horizontal Units,S,
Horizontal Scale,1.00000e-05,
Horizontal Position,2.5200000e-05,
Horizontal Mode,Main,
Sampling Period,4.00000e-08,
Firmware,V1.14,
Time, ,
Mode,Fast,
Waveform Data,
5,
5,
5,
1,
1,
-1,
-1,
-4,
-4,
-5,
-5,
-5,
-5,
-5,
-5,
-3,
-3,
-1,
-1,
0,
0,
0,
0,
1,
1,
1,
1,
1,
1,
3,
3,
2,
2,
2,
2,
1,
1,
2,
2,
1,
1,
2,
2,
1,
1,
2,
2,
2,
2,
1,
1,
2,
2,
3,
3,
3,
3,
3,
3,
1,
1,
1,
1,
3,
3,
3,
3,
3,
3,
2,
2,
1,
1,
0,
0,
-3,
-3,
-2,
-2,
-1,
-1,
1,
1,
1,
1,
2,
2,
1,
1,
1,
1,
2,
2,
3,
3,
3,
3,
1,
1,
1,
1,
1,
1,
1,
1,
1,
1,
1,
1,
1,
1,
1,
1,
1,
1,
0,
0,
0,
0,
1,
1,
1,
1,
-13,
-28,
-32,
-45,
-44,
-44,
-47,
-47,
-49,
-49,
-51,
-51,
-53,
-53,
-57,
-57,
-56,
-56,
-56,
-56,
-56,
-56,
-57,
-57,
-55,
-55,
-54,
-54,
-54,
-54,
-54,
-54,
-55,
-55,
-54,
-54,
-54,
-54,
-54,
-54,
-55,
-55,
-56,
-56,
-56,
-56,
-55,
-55,
-56,
-56,
-56,
-56,
-56,
-56,
-55,
-55,
-55,
-55,
-55,
-55,
-52,
-52,
-54,
-54,
-58,
-58,
-60,
-60,
-59,
-59,
-53,
-41,
-41,
-23,
-22,
-22,
-18,
-18,
-15,
-15,
-13,
-13,
-13,
-13,
-13,
-13,
-9,
-9,
-8,
-8,
-8,
-8,
-8,
-8,
-9,
-9,
-9,
-9,
-9,
-9,
-8,
-8,
-9,
-9,
-10,
-10,
-10,
-10,
-10,
-10,
-9,
-9,
-9,
-9,
-9,
-9,
-11,
-11,
-9,
-9,
-9,
-9,
-12,
-12,
-10,
-10,
-9,
-9,
-8,
-8,
-9,
-9,
-12,
-12,
-10,
-10,
-7,
-7,
-5,
-5,
-1,
-1,
0,
0,
1,
1,
-1,
-1,
-3,
-3,
-3,
-3,
-4,
-4,
-4,
-4,
-5,
-5,
-5,
-5,
-6,
-6,
-5,
-5,
-6,
-6,
-7,
-7,
-6,
-6,
-7,
-7,
-7,
-7,
-7,
-7,
-5,
-5,
-6,
-6,
-6,
-6,
-7,
-7,
-6,
-6,
-6,
-6,
-6,
-6,
-6,
-6,
-5,
-5,
-6,
-6,
-7,
-7,
-8,
-8,
-8,
-8,
-7,
-7,
-5,
-5,
-2,
-2,
-2,
-2,
-2,
-2,
-3,
-3,
-5,
-5,
-5,
-5,
-8,
-8,
-5,
-5,
-6,
-6,
-6,
-6,
-6,
-6,
-6,
-6,
-5,
-5,
-6,
-6,
-6,
-6,
-5,
-5,
-6,
-6,
-6,
-6,
-6,
-6,
1,
16,
19,
19,
31,
31,
42,
42,
47,
47,
48,
48,
50,
50,
51,
51,
50,
50,
51,
51,
50,
50,
49,
49,
51,
51,
51,
51,
52,
52,
52,
52,
52,
52,
51,
51,
51,
51,
50,
50,
50,
50,
50,
50,
51,
51,
51,
51,
51,
51,
51,
51,
51,
51,
50,
50,
51,
51,
51,
51,
49,
49,
50,
50,
51,
51,
55,
55,
54,
37,
35,
35,
26,
26,
23,
23,
15,
15,
14,
14,
11,
11,
8,
8,
5,
5,
5,
5,
4,
4,
3,
3,
4,
4,
5,
5,
6,
6,
5,
5,
5,
5,
5,
5,
5,
5,
5,
5,
5,
5,
5,
5,
5,
5,
5,
5,
5,
5,
6,
6,
5,
5,
7,
7,
6,
6,
4,
4,
4,
4,
8,
8,
9,
9,
7,
7,
4,
4,
2,
2,
-1,
-1,
-5,
-5,
-3,
-3,
-3,
-3,
-1,
-1,
-2,
-2,
-1,
-1,
-1,
-1,
1,
1,
2,
2,
3,
3,
2,
2,
2,
2,
1,
1,
2,
2,
1,
1,
1,
1,
2,
2,
1,
1,
2,
2,
2,
2,
1,
1,
1,
1,
1,
1,
2,
2,
0,
0,
1,
1,
1,
1,
3,
3,
3,
3,
3,
3,
1,
1,
0,
0,
-2,
-2,
-2,
-2,
-1,
-1,
-1,
-1,
0,
0,
1,
1,
2,
2,
1,
1,
3,
3,
2,
2,
3,
3,
2,
2,
3,
3,
2,
2,
1,
1,
0,
0,
1,
1,
1,
1,
1,
1,
1,
1,
2,
2,
1,
1,
1,
1,
1,
1,
1,
1,
-1,
-14,
-16,
-34,
-34,
-49,
-49,
-49,
-52,
-52,
-51,
-51,
-54,
-54,
-54,
-54,
-55,
-55,
-56,
-56,
-56,
-56,
-55,
-55,
-54,
-54,
-55,
-55,
-53,
-53,
-54,
-54,
-54,
-54,
-55,
-55,
-54,
-54,
-54,
-54,
-55,
-55,
-55,
-55,
-54,
-54,
-56,
-56,
-54,
-54,
-56,
-56,
-54,
-54,
-56,
-56,
-55,
-55,
-56,
-56,
-54,
-54,
-53,
-53,
-53,
-53,
-61,
-61,
-50,
-50,
-44,
-44,
-36,
-36,
-26,
-26,
-22,
-22,
-17,
-17,
-15,
-15,
-12,
-12,
-12,
-12,
-9,
-9,
-9,
-9,
-9,
-9,
-9,
-9,
-9,
-9,
-8,
-8,
-9,
-9,
-10,
-10,
-10,
-10,
-10,
-10,
-10,
-10,
-10,
-10,
-9,
-9,
-10,
-10,
-9,
-9,
-10,
-10,
-9,
-9,
-9,
-9,
-11,
-11,
-11,
-11,
-9,
-9,
-9,
-9,
-13,
-13,
-13,
-13,
-13,
-13,
-11,
-11,
-8,
-8,
-3,
-3,
2,
2,
0,
0,
-1,
-1,
0,
0,
-2,
-2,
-3,
-3,
-5,
-5,
-5,
-5,
-6,
-6,
-6,
-6,
-6,
-6,
-5,
-5,
-6,
-6,
-6,
-6,
-6,
-6,
-5,
-5,
-6,
-6,
-5,
-5,
-6,
-6,
-7,
-7,
-7,
-7,
-7,
-7,
-5,
-5,
-7,
-7,
-5,
-5,
-4,
-4,
-5,
-5,
-5,
-5,
-6,
-6,
-9,
-9,
-8,
-8,
-4,
-4,
-2,
-2,
-3,
-3,
-3,
-3,
-3,
-3,
-4,
-4,
-6,
-6,
-6,
-6,
-7,
-7,
-6,
-6,
-7,
-7,
-6,
-6,
-6,
-6,
-6,
-6,
-6,
-6,
-6,
-6,
-6,
-6,
-7,
-7,
-5,
-5,
-5,
-5,
-6,
25,
27,
45,
45,
45,
47,
47,
48,
48,
49,
49,
48,
48,
49,
49,
51,
51,
50,
50,
49,
49,
50,
50,
50,
50,
51,
51,
52,
52,
51,
51,
52,
52,
50,
50,
50,
50,
51,
51,
51,
51,
50,
50,
51,
51,
49,
49,
51,
51,
50,
50,
51,
51,
51,
51,
51,
51,
51,
51,
52,
52,
50,
50,
55,
55,
55,
55,
51,
51,
42,
42,
36,
36,
30,
19,
19,
19,
13,
13,
7,
7,
6,
6,
7,
7,
4,
4,
4,
4,
4,
4,
5,
5,
6,
6,
7,
7,
5,
5,
5,
5,
5,
5,
5,
5,
5,
5,
5,
5,
5,
5,
5,
5,
6,
6,
6,
6,
5,
5,
6,
6,
7,
7,
4,
4,
3,
3,
5,
5,
8,
8,
8,
8,
9,
9,
7,
7,
1,
1,
-4,
-4,
-5,
-5,
-4,
-4,
-3,
-3,
-4,
-4,
-3,
-3,
0,
0,
0,
0,
1,
1,
2,
2,
1,
1,
2,
2,
3,
3,
2,
2,
2,
2,
2,
2,
2,
2,
1,
1,
1,
1,
1,
1,
2,
2,
2,
2,
3,
3,
2,
2,
1,
1,
2,
2,
1,
1,
-1,
-1,
3,
3,
3,
3,
3,
3,
1,
1,
-1,
-1,
-2,
-2,
-2,
-2,
-2,
-2,
0,
0,
1,
1,
2,
2,
1,
1,
1,
1,
1,
1,
2,
2,
2,
2,
3,
3,
2,
2,
1,
1,
1,
1,
0,
0,
1,
1,
1,
1,
1,
1,
2,
2,
2,
2,
1,
1,
1,
1,
1,
1,
2,
2,
1,
-22,
-22,
-46,
-47,
-47,
-50,
-50,
-50,
-50,
-51,
-51,
-52,
-52,
-53,
-53,
-57,
-57,
-55,
-55,
-55,
-55,
-55,
-55,
-54,
-54,
-54,
-54,
-53,
-53,
-54,
-54,
-55,
-55,
-54,
-54,
-54,
-54,
-55,
-55,
-55,
-55,
-54,
-54,
-54,
-54,
-55,
-55,
-56,
-56,
-56,
-56,
-55,
-55,
-55,
-55,
-55,
-55,
-54,
-54,
-55,
-55,
-52,
-52,
-59,
-59,
-59,
-59,
-57,
-57,
-48,
-48,
-43,
-43,
-35,
-21,
-20,
-20,
-14,
-14,
-12,
-12,
-13,
-13,
-9,
-9,
-10,
-10,
-10,
-10,
-9,
-9,
-9,
-9,
-9,
-9,
-9,
-9,
-9,
-9,
-10,
-10,
-9,
-9,
-9,
-9,
-9,
-9,
-9,
-9,
-9,
-9,
-10,
-10,
-10,
-10,
-10,
-10,
-12,
-12,
-9,
-9,
-11,
-11,
-9,
-9,
-8,
-8,
-8,
-8,
-12,
-12,
-13,
-13,
-14,
-14,
-10,
-10,
-2,
-2,
0,
0,
2,
2,
0,
0,
1,
1,
-1,
-1,
-2,
-2,
-3,
-3,
-5,
-5,
-5,
-5,
-5,
-5,
-5,
-5,
-5,
-5,
-6,
-6,
-6,
-6,
-6,
-6,
-6,
-6,
-7,
-7,
-6,
-6,
-6,
-6,
-6,
-6,
-6,
-6,
-7,
-7,
-5,
-5,
-7,
-7,
-8,
-8,
-6,
-6,
-5,
-5,
-5,
-5,
-7,
-7,
-8,
-8,
-7,
-7,
-6,
-6,
-5,
-5,
-2,
-2,
-2,
-2,
-2,
-2,
-3,
-3,
-7,
-7,
-5,
-5,
-6,
-6,
-6,
-6,
-6,
-6,
-6,
-6,
-6,
-6,
-6,
-6,
-6,
-6,
-5,
-5,
-6,
-6,
-6,
-6,
-7,
-7,
-6,
-6,
-5,
15,
17,
33,
34,
34,
39,
39,
47,
47,
47,
47,
48,
48,
49,
49,
52,
52,
51,
51,
50,
50,
49,
49,
49,
49,
49,
49,
51,
51,
52,
52,
53,
53,
52,
52,
51,
51,
51,
51,
50,
50,
51,
51,
50,
50,
50,
50,
51,
51,
51,
51,
51,
51,
51,
51,
51,
51,
51,
51,
51,
51,
49,
49,
52,
52,
53,
53,
55,
55,
55,
55,
50,
31,
31,
17,
17,
17,
13,
13,
10,
10,
8,
8,
7,
7,
8,
8,
5,
5,
4,
4,
5,
5,
6,
6,
5,
5,
6,
6,
5,
5,
6,
6,
5,
5,
5,
5,
5,
5,
5,
5,
5,
5,
5,
5,
5,
5,
7,
7,
7,
7,
7,
7,
7,
7,
6,
6,
3,
3,
4,
4,
5,
5,
10,
10,
6,
6,
2,
2,
-1,
-1,
-4,
-4,
-4,
-4,
-4,
-4,
-5,
-5,
-3,
-3,
-1,
-1,
-1,
-1,
0,
0,
3,
3,
0,
0,
1,
1,
2,
2,
2,
2,
3,
3,
1,
1,
1,
1,
1,
1,
2,
2,
3,
3,
1,
1,
2,
2,
1,
1,
1,
1,
2,
2,
2,
2,
4,
4,
1,
1,
2,
2,
3,
3,
4,
4,
3,
3,
3,
3,
1,
1,
-1,
-1,
-2,
-2,
-1,
-1,
1,
1,
0,
0,
1,
1,
1,
1,
2,
2,
1,
1,
3,
3,
3,
3,
3,
3,
1,
1,
1,
1,
1,
1,
1,
1,
1,
1,
0,
0,
1,
1,
2,
2,
1,
1,
1,
1,
1,
1,
2,
2,
1,
1,
-12,
-28,
-30,
-42,
-42,
-42,
-47,
-47,
-49,
-49,
-50,
-50,
-53,
-53,
-55,
-55,
-57,
-57,
-57,
-57,
-56,
-56,
-55,
-55,
-55,
-55,
-54,
-54,
-54,
-54,
-54,
-54,
-54,
-54,
-55,
-55,
-55,
-55,
-55,
-55,
-55,
-55,
-56,
-56,
-56,
-56,
-55,
-55,
-55,
-55,
-55,
-55,
-56,
-56,
-56,
-56,
-54,
-54,
-55,
-55,
-54,
-54,
-54,
-54,
-57,
-57,
-59,
-59,
-60,
-60,
-53,
-41,
-41,
-23,
-22,
-22,
-17,
-17,
-15,
-15,
-13,
-13,
-13,
-13,
-11,
-11,
-9,
-9,
-9,
-9,
-9,
-9,
-8,
-8,
-8,
-8,
-9,
-9,
-9,
-9,
-9,
-9,
-10,
-10,
-9,
-9,
-9,
-9,
-9,
-9,
-10,
-10,
-11,
-11,
-10,
-10,
-9,
-9,
-9,
-9,
-10,
-10,
-11,
-11,
-11,
-11,
-9,
-9,
-7,
-7,
-10,
-10,
-13,
-13,
-12,
-12,
-7,
-7,
-5,
-5,
-1,
-1,
1,
1,
0,
0,
-1,
-1,
-3,
-3,
-3,
-3,
-4,
-4,
-5,
-5,
-5,
-5,
-5,
-5,
-5,
-5,
-6,
-6,
-6,
-6,
-6,
-6,
-5,
-5,
-7,
-7,
-7,
-7,
-7,
-7,
-5,
-5,
-7,
-7,
-6,
-6,
-6,
-6,
-7,
-7,
-5,
-5,
-7,
-7,
-7,
-7,
-5,
-5,
-5,
-5,
-8,
-8,
-9,
-9,
-9,
-9,
-7,
-7,
-6,
-6,
-3,
-3,
-2,
-2,
-2,
-2,
-5,
-5,
-4,
-4,
-6,
-6,
-5,
-5,
-6,
-6,
-6,
-6,
-7,
-7,
-6,
-6,
-6,
-6,
-6,
-6,
-5,
-5,
-7,
-7,
-5,
-5,
-5,
-5,
-5,
-5,
-7,
-7,
1,
15,
17,
17,
30,
42,
44,
44,
47,
47,
49,
49,
51,
51,
51,
51,
51,
51,
51,
51,
50,
50,
49,
49,
50,
50,
52,
52,
51,
51,
52,
52,
53,
53,
52,
52,
50,
50,
51,
51,
50,
50,
50,
50,
50,
50,
51,
51,
52,
52,
51,
51,
51,
51,
50,
50,
51,
51,
51,
51,
50,
50,
49,
49,
51,
51,
55,
55,
52,
38,
36,
36,
27,
27,
23,
23,
15,
15,
14,
14,
10,
10,
6,
6,
5,
5,
4,
4,
4,
4,
5,
5,
4,
4,
6,
6,
6,
6,
6,
6,
5,
5,
5,
5,
5,
5,
5,
5,
5,
5,
5,
5,
6,
6,
5,
5,
6,
6,
6,
6,
5,
5,
6,
6,
7,
7,
5,
5,
5,
5,
9,
9,
9,
9,
8,
8,
4,
4,
1,
1,
-1,
-1,
-5,
-5,
-4,
-4,
-3,
-3,
-3,
-3,
-2,
-2,
-1,
-1,
-1,
-1,
0,
0,
1,
1,
2,
2,
1,
1,
2,
2,
1,
1,
1,
1,
3,
3,
1,
1,
2,
2,
2,
2,
2,
2,
2,
2,
2,
2,
2,
2,
3,
3,
3,
3,
0,
0,
1,
1,
2,
2,
3,
3,
3,
3,
4,
4,
2,
2,
-2,
-2,
-1,
-1,
-2,
-2,
-2,
-2,
-1,
-1,
-1,
-1,
2,
2,
2,
2,
1,
1,
2,
2,
2,
2,
2,
2,
2,
2,
2,
2,
1,
1,
0,
0,
1,
1,
1,
1,
1,
1,
0,
0,
1,
1,
2,
2,
1,
1,
1,
1,
2,
2,
1,
1,
1,
-11,
-15,
-32,
-32,
-49,
-48,
-48,
-51,
-51,
-51,
-51,
-54,
-54,
-55,
-55,
-55,
-55,
-56,
-56,
-56,
-56,
-55,
-55,
-54,
-54,
-55,
-55,
-54,
-54,
-54,
-54,
-54,
-54,
-55,
-55,
-54,
-54,
-56,
-56,
-54,
-54,
-56,
-56,
-55,
-55,
-54,
-54,
-54,
-54,
-55,
-55,
-57,
-57,
-55,
-55,
-55,
-55,
-54,
-54,
-54,
-54,
-53,
-53,
-54,
-54,
-59,
-59,
-51,
-51,
-44,
-44,
-37,
-37,
-27,
-27,
-23,
-23,
-19,
-19,
-15,
-15,
-12,
-12,
-9,
-9,
-8,
-8,
-9,
-9,
-9,
-9,
-8,
-8,
-9,
-9,
-9,
-9,
-9,
-9,
-9,
-9,
-9,
-9,
-9,
-9,
-9,
-9,
-11,
-11,
-9,
-9,
-10,
-10,
-10,
-10,
-10,
-10,
-9,
-9,
-9,
-9,
-9,
-9,
-10,
-10,
-8,
-8,
-11,
-11,
-13,
-13,
-14,
-14,
-13,
-13,
-11,
-11,
-8,
-8,
-3,
-3,
1,
1,
-1,
-1,
-1,
-1,
-2,
-2,
-3,
-3,
-4,
-4,
-4,
-4,
-5,
-5,
-6,
-6,
-6,
-6,
-8,
-8,
-7,
-7,
-6,
-6,
-5,
-5,
-7,
-7,
-6,
-6,
-7,
-7,
-5,
-5,
-6,
-6,
-5,
-5,
-5,
-5,
-6,
-6,
-5,
-5,
-6,
-6,
-5,
-5,
-4,
-4,
-5,
-5,
-6,
-6,
-7,
-7,
-8,
-8,
-7,
-7,
-3,
-3,
-2,
-2,
-3,
-3,
-3,
-3,
-3,
-3,
-4,
-4,
-6,
-6,
-6,
-6,
-7,
-7,
-6,
-6,
-7,
-7,
-6,
-6,
-6,
-6,
-7,
-7,
-7,
-7,
-5,
-5,
-7,
-7,
-5,
-5,
-6,
-6,
-6,
-6,
-6,
24,
26,
44,
44,
44,
47,
47,
48,
48,
48,
48,
48,
48,
50,
50,
51,
51,
50,
50,
49,
49,
50,
50,
49,
49,
51,
51,
51,
51,
54,
54,
52,
52,
51,
51,
50,
50,
51,
51,
49,
49,
50,
50,
51,
51,
50,
50,
51,
51,
51,
51,
51,
51,
51,
51,
51,
51,
51,
51,
52,
52,
50,
50,
55,
55,
54,
54,
51,
51,
43,
43,
37,
37,
29,
29,
19,
19,
12,
12,
7,
7,
7,
7,
6,
6,
5,
5,
4,
4,
3,
3,
6,
6,
6,
6,
6,
6,
5,
5,
5,
5,
5,
5,
6,
6,
5,
5,
4,
4,
5,
5,
5,
5,
5,
5,
7,
7,
6,
6,
6,
6,
7,
7,
5,
5,
3,
3,
5,
5,
7,
7,
8,
8,
9,
9,
7,
7,
1,
1,
-5,
-5,
-4,
-4,
-5,
-5,
-3,
-3,
-3,
-3,
-3,
-3,
-1,
-1,
-1,
-1,
0,
0,
1,
1,
1,
1,
2,
2,
3,
3,
3,
3,
2,
2,
1,
1,
1,
1,
1,
1,
2,
2,
1,
1,
1,
1,
2,
2,
2,
2,
3,
3,
3,
3,
1,
1,
0,
0,
0,
0,
0,
0,
4,
4,
3,
3,
1,
1,
-1,
-1,
-3,
-3,
-2,
-2,
-2,
-2,
-1,
-1,
1,
1,
0,
0,
2,
2,
3,
3,
1,
1,
1,
1,
2,
2,
3,
3,
1,
1,
1,
1,
1,
1,
1,
1,
1,
1,
1,
1,
1,
1,
1,
1,
1,
1,
1,
1,
1,
1,
1,
1,
2,
2,
2,
-21,
-21,
-46,
-47,
-47,
-49,
-49,
-50,
-50,
-51,
-51,
-52,
-52,
-54,
-54,
-56,
-56,
-56,
-56,
-56,
-56,
-55,
-55,
-54,
-54,
-54,
-54,
-54,
-54,
-54,
-54,
-54,
-54,
-54,
-54,
-54,
-54,
-55,
-55,
-55,
-55,
-54,
-54,
-55,
-55,
-54,
-54,
-56,
-56,
-56,
-56,
-55,
-55,
-56,
-56,
-55,
-55,
-55,
-55,
-57,
-57,
-53,
-53,
-59,
-59,
-60,
-60,
-58,
-58,
-48,
-48,
-44,
-44,
-36,
-21,
-21,
-21,
-14,
-14,
-13,
-13,
-12,
-12,
-12,
-12,
-9,
-9,
-9,
-9,
-9,
-9,
-8,
-8,
-9,
-9,
-9,
-9,
-9,
-9,
-10,
-10,
-9,
-9,
-11,
-11,
-11,
-11,
-9,
-9,
-10,
-10,
-10,
-10,
-10,
-10,
-10,
-10,
-10,
-10,
-10,
-10,
-9,
-9,
-9,
-9,
-7,
-7,
-8,
-8,
-11,
-11,
-13,
-13,
-13,
-13,
-9,
-9,
-2,
-2,
-1,
-1,
0,
0,
0,
0,
1,
1,
-1,
-1,
-2,
-2,
-3,
-3,
-5,
-5,
-5,
-5,
-5,
-5,
-5,
-5,
-5,
-5,
-5,
-5,
-6,
-6,
-6,
-6,
-6,
-6,
-7,
-7,
-6,
-6,
-7,
-7,
-6,
-6,
-7,
-7,
-6,
-6,
-6,
-6,
-7,
-7,
-7,
-7,
-6,
-6,
-6,
-6,
-5,
-5,
-7,
-7,
-8,
-8,
-7,
-7,
-7,
-7,
-5,
-5,
-3,
-3,
-3,
-3,
-1,
-1,
-3,
-3,
-5,
-5,
-7,
-7,
-6,
-6,
-6,
-6,
-7,
-7,
-6,
-6,
-5,
-5,
-7,
-7,
-6,
-6,
-5,
-5,
-6,
-6,
-7,
-7,
-6,
-6,
-6,
-6,
-5,
14,
18,
32,
33,
33,
40,
40,
46,
46,
47,
47,
48,
48,
49,
49,
51,
51,
51,
51,
50,
50,
49,
49,
49,
49,
49,
49,
49,
49,
52,
52,
52,
52,
51,
51,
51,
51,
51,
51,
50,
50,
51,
51,
50,
50,
50,
50,
51,
51,
50,
50,
51,
51,
51,
51,
50,
50,
51,
51,
52,
52,
49,
49,
51,
51,
54,
54,
54,
54,
55,
55,
50,
32,
33,
17,
17,
17,
14,
14,
11,
11,
9,
9,
8,
8,
7,
7,
5,
5,
4,
4,
4,
4,
4,
4,
7,
7,
5,
5,
5,
5,
6,
6,
5,
5,
5,
5,
5,
5,
5,
5,
5,
5,
6,
6,
6,
6,
6,
6,
6,
6,
7,
7,
7,
7,
5,
5,
4,
4,
4,
4,
5,
5,
9,
9,
6,
6,
3,
3,
-1,
-1,
-5,
-5,
-5,
-5,
-7,
-7,
-5,
-5,
-3,
-3,
-1,
-1,
0,
0,
2,
2,
0,
0,
1,
1,
1,
1,
1,
1,
2,
2,
1,
1,
2,
2,
2,
2,
1,
1,
1,
1,
1,
1,
1,
1,
3,
3,
2,
2,
0,
0,
2,
2,
2,
2,
3,
3,
0,
0,
2,
2,
3,
3,
3,
3,
3,
3,
2,
2,
1,
1,
0,
0,
-2,
-2,
-1,
-1,
-1,
-1,
0,
0,
1,
1,
1,
1,
1,
1,
2,
2,
3,
3,
1,
1,
1,
1,
1,
1,
1,
1,
1,
1,
1,
1,
1,
1,
1,
1,
1,
1,
1,
1,
1,
1,
1,
1,
1,
1,
2,
2,
1,
1,
-11,
-27,
-31,
-43,
-44,
-44,
-47,
-47,
-49,
-49,
-51,
-51,
-52,
-52,
-56,
-56,
-56,
-56,
-57,
-57,
-55,
-55,
-56,
-56,
-55,
-55,
-54,
-54,
-53,
-53,
-54,
-54,
-53,
-53,
-55,
-55,
-55,
-55,
-54,
-54,
-56,
-56,
-56,
-56,
-55,
-55,
-54,
-54,
-56,
-56,
-57,
-57,
-55,
-55,
-56,
-56,
-54,
-54,
-54,
-54,
-53,
-53,
-53,
-53,
-57,
-57,
-60,
-60,
-60,
-60,
-54,
-41,
-41,
-24,
-22,
-22,
-17,
-17,
-16,
-16,
-14,
-14,
-13,
-13,
-12,
-12,
-10,
-10,
-9,
-9,
-9,
-9,
-9,
-9,
-9,
-9,
-9,
-9,
-9,
-9,
-9,
-9,
-10,
-10,
-9,
-9,
-10,
-10,
-10,
-10,
-10,
-10,
-9,
-9,
-11,
-11,
-12,
-12,
-9,
-9,
-10,
-10,
-10,
-10,
-11,
-11,
-9,
-9,
-7,
-7,
-9,
-9,
-13,
-13,
-11,
-11,
-7,
-7,
-6,
-6,
-1,
-1,
-1,
-1,
0,
0,
-2,
-2,
-2,
-2,
-3,
-3,
-4,
-4,
-4,
-4,
-4,
-4,
-4,
-4,
-5,
-5,
-5,
-5,
-6,
-6,
-6,
-6,
-7,
-7,
-6,
-6,
-7,
-7,
-7,
-7,
-6,
-6,
-7,
-7,
-6,
-6,
-5,
-5,
-5,
-5,
-7,
-7,
-8,
-8,
-7,
-7,
-5,
-5,
-6,
-6,
-7,
-7,
-8,
-8,
-9,
-9,
-8,
-8,
-6,
-6,
-2,
-2,
-1,
-1,
-3,
-3,
-4,
-4,
-5,
-5,
-5,
-5,
-5,
-5,
-5,
-5,
-5,
-5,
-6,
-6,
-6,
-6,
-7,
-7,
-6,
-6,
-5,
-5,
-6,
-6,
-8,
-8,
-6,
-6,
-5,
-5,
-6,
-6,
1,
15,
16,
30,
30,
43,
42,
42,
47,
47,
49,
49,
50,
50,
51,
51,
51,
51,
50,
50,
50,
50,
49,
49,
50,
50,
51,
51,
51,
51,
51,
51,
51,
51,
52,
52,
49,
49,
50,
50,
50,
50,
50,
50,
50,
50,
51,
51,
51,
51,
51,
51,
51,
51,
50,
50,
51,
51,
51,
51,
49,
49,
49,
49,
50,
50,
55,
55,
53,
37,
36,
36,
27,
27,
22,
22,
15,
15,
13,
13,
10,
10,
7,
7,
5,
5,
5,
5,
3,
3,
4,
4,
4,
4,
6,
6,
6,
6,
6,
6,
5,
5,
5,
5,
6,
6,
5,
5,
6,
6,
5,
5,
4,
4,
6,
6,
7,
7,
5,
5,
5,
5,
7,
7,
6,
6,
5,
5,
5,
5,
9,
9,
9,
9,
8,
8,
4,
4,
3,
3,
-1,
-1,
-5,
-5,
-3,
-3,
-4,
-4,
-2,
-2,
-1,
-1,
-1,
-1,
-1,
-1,
0,
0,
0,
0,
1,
1,
1,
1,
1,
1,
1,
1,
1,
1,
1,
1,
2,
2,
1,
1,
2,
2,
2,
2,
2,
2,
1,
1,
1,
1,
1,
1,
3,
3,
0,
0,
0,
0,
2,
2,
3,
3,
3,
3,
4,
4,
1,
1,
-3,
-3,
-2,
-2,
-2,
-2,
-1,
-1,
0,
0,
-1,
-1,
1,
1,
0,
0,
1,
1,
2,
2,
2,
2,
2,
2,
1,
1,
2,
2,
2,
2,
1,
1,
1,
1,
1,
1,
1,
1,
-1,
-1,
1,
1,
2,
2,
1,
1,
2,
2,
1,
1,
1,
1,
1,
1,
-14,
-32,
-32,
-48,
-48,
-48,
-51,
-51,
-52,
-52,
-53,
-53,
-56,
-56,
-56,
-56,
-56,
-56,
-56,
-56,
-56,
-56,
-54,
-54,
-54,
-54,
-54,
-54,
-55,
-55,
-54,
-54,
-54,
-54,
-55,
-55,
-54,
-54,
-56,
-56,
-55,
-55,
-55,
-55,
-55,
-55,
-55,
-55,
-55,
-55,
-55,
-55,
-56,
-56,
-55,
-55,
-57,
-57,
-55,
-55,
-53,
-53,
-54,
-54,
-61,
-61,
-51,
-51,
-45,
-45,
-37,
-37,
-27,
-27,
-23,
-23,
-19,
-19,
-14,
-14,
-13,
-13,
-10,
-10,
-9,
-9,
-8,
-8,
-9,
-9,
-9,
-9,
-7,
-7,
-9,
-9,
-9,
-9,
-9,
-9,
-9,
-9,
-9,
-9,
-9,
-9,
-9,
-9,
-9,
-9,
-9,
-9,
-9,
-9,
-11,
-11,
-10,
-10,
-9,
-9,
-9,
-9,
-12,
-12,
-7,
-7,
-9,
-9,
-13,
-13,
-14,
-14,
-13,
-13,
-12,
-12,
-8,
-8,
-3,
-3,
3,
3,
-1,
-1,
-1,
-1,
0,
0,
-1,
-1,
-3,
-3,
-4,
-4,
-5,
-5,
-5,
-5,
-6,
-6,
-7,
-7,
-6,
-6,
-6,
-6,
-6,
-6,
-6,
-6,
-7,
-7,
-5,
-5,
-6,
-6,
-6,
-6,
-6,
-6,
-6,
-6,
-5,
-5,
-6,
-6,
-7,
-7,
-5,
-5,
-5,
-5,
-5,
-5,
-6,
-6,
-8,
-8,
-7,
-7,
-7,
-7,
-4,
-4,
-3,
-3,
-2,
-2,
-3,
-3,
-3,
-3,
-3,
-3,
-6,
-6,
-6,
-6,
-6,
-6,
-7,
-7,
-7,
-7,
-6,
-6,
-7,
-7,
-5,
-5,
-5,
-5,
-6,
-6,
-6,
-6,
-6,
-6,
-5,
-5,
-4,
-4,
-5,
24,
25,
44,
44,
44,
47,
47,
47,
47,
49,
49,
48,
48,
50,
50,
51,
51,
50,
50,
49,
49,
50,
50,
49,
49,
52,
52,
51,
51,
53,
53,
52,
52,
51,
51,
50,
50,
51,
51,
50,
50,
50,
50,
49,
49,
51,
51,
51,
51,
51,
51,
50,
50,
51,
51,
50,
50,
50,
50,
51,
51,
50,
50,
55,
55,
54,
54,
51,
51,
41,
41,
37,
37,
30,
19,
19,
19,
12,
12,
8,
8,
6,
6,
5,
5,
4,
4,
4,
4,
5,
5,
5,
5,
7,
7,
7,
7,
5,
5,
4,
4,
5,
5,
5,
5,
5,
5,
6,
6,
5,
5,
5,
5,
5,
5,
7,
7,
7,
7,
5,
5,
6,
6,
4,
4,
4,
4,
5,
5,
8,
8,
8,
