3-eigenschaften-von-transistoren/daten/ALL0019/A0019CH2.CSV

Memory Length,4000,
Trigger Level,7.20000e+01,
Source,CH2,
Probe,1.0X,
Vertical Units,V,
Vertical Scale,1.00000e-01,
Vertical Position,-1.11600e+00,
Horizontal Units,S,
Horizontal Scale,5.00000e-04,
Horizontal Position,0.0000000e+00,
Horizontal Mode,Main,
Sampling Period,2.00000e-06,
Firmware,V1.14,
Time, ,
Mode,Fast,
Waveform Data,
334,
334,
334,
334,
334,
334,
334,
335,
335,
335,
335,
334,
334,
334,
334,
333,
333,
333,
333,
333,
333,
332,
332,
334,
334,
334,
334,
336,
336,
339,
339,
341,
341,
342,
342,
341,
341,
340,
340,
340,
340,
340,
340,
340,
340,
340,
340,
340,
340,
339,
339,
340,
340,
338,
338,
339,
339,
339,
339,
340,
340,
339,
339,
337,
337,
337,
337,
337,
337,
337,
337,
337,
337,
336,
336,
336,
336,
336,
336,
336,
336,
335,
335,
335,
335,
335,
335,
335,
335,
337,
337,
335,
335,
334,
334,
333,
333,
333,
333,
334,
334,
333,
333,
333,
333,
333,
333,
333,
333,
332,
332,
332,
332,
332,
332,
330,
330,
333,
333,
335,
335,
334,
334,
337,
337,
339,
339,
341,
341,
339,
339,
339,
339,
339,
339,
341,
341,
340,
340,
339,
339,
339,
339,
337,
337,
338,
338,
336,
336,
338,
338,
338,
338,
338,
338,
338,
338,
338,
338,
337,
337,
338,
338,
336,
336,
336,
336,
336,
336,
335,
335,
333,
333,
335,
335,
335,
335,
335,
335,
334,
334,
333,
333,
334,
334,
333,
333,
334,
334,
334,
334,
332,
332,
332,
332,
332,
332,
331,
331,
332,
332,
332,
332,
331,
331,
330,
330,
331,
331,
331,
331,
330,
330,
331,
331,
332,
332,
335,
335,
335,
335,
338,
338,
337,
337,
337,
337,
337,
337,
338,
338,
337,
337,
337,
337,
337,
337,
337,
337,
337,
337,
336,
336,
336,
336,
337,
337,
336,
336,
334,
334,
336,
336,
335,
335,
334,
334,
334,
334,
335,
335,
335,
335,
335,
335,
334,
334,
334,
334,
332,
332,
332,
332,
333,
333,
333,
333,
332,
332,
330,
330,
329,
329,
332,
332,
329,
329,
330,
330,
330,
330,
330,
330,
329,
329,
330,
330,
329,
329,
329,
329,
329,
329,
330,
330,
329,
329,
330,
330,
331,
331,
331,
331,
334,
334,
334,
334,
336,
336,
337,
337,
336,
336,
336,
336,
335,
335,
336,
336,
335,
335,
336,
336,
337,
337,
335,
335,
334,
334,
334,
334,
334,
334,
335,
335,
333,
333,
334,
334,
333,
333,
334,
334,
333,
333,
332,
332,
331,
331,
332,
332,
331,
331,
333,
333,
331,
331,
331,
331,
330,
330,
330,
330,
330,
330,
331,
331,
329,
329,
329,
329,
329,
329,
327,
327,
329,
329,
327,
327,
328,
328,
328,
328,
326,
326,
327,
327,
328,
328,
327,
327,
328,
328,
327,
327,
329,
329,
330,
330,
334,
334,
334,
334,
336,
336,
335,
335,
335,
335,
335,
335,
333,
333,
334,
334,
335,
335,
335,
335,
333,
333,
332,
332,
333,
333,
336,
336,
331,
331,
333,
333,
331,
331,
332,
332,
331,
331,
332,
332,
330,
330,
332,
332,
330,
330,
331,
331,
330,
330,
331,
331,
329,
329,
331,
331,
329,
329,
328,
328,
329,
329,
328,
328,
329,
329,
329,
329,
327,
327,
328,
328,
327,
327,
325,
325,
325,
325,
328,
328,
327,
327,
326,
326,
326,
326,
326,
326,
327,
327,
328,
328,
330,
330,
332,
332,
334,
334,
335,
335,
334,
334,
334,
334,
334,
334,
334,
334,
333,
333,
333,
333,
333,
333,
333,
333,
334,
334,
333,
333,
334,
334,
333,
333,
333,
333,
332,
332,
332,
332,
330,
330,
330,
330,
331,
331,
331,
331,
330,
330,
330,
330,
332,
332,
330,
330,
331,
331,
329,
329,
329,
329,
330,
330,
329,
329,
328,
328,
328,
328,
328,
328,
328,
328,
329,
329,
329,
329,
329,
329,
328,
328,
329,
329,
326,
326,
328,
328,
328,
328,
328,
328,
328,
328,
328,
328,
328,
328,
331,
331,
332,
332,
334,
334,
335,
335,
335,
335,
336,
336,
336,
336,
334,
334,
334,
334,
335,
335,
335,
335,
334,
334,
334,
334,
334,
334,
333,
333,
333,
333,
334,
334,
333,
333,
333,
333,
333,
333,
334,
334,
331,
331,
332,
332,
333,
333,
333,
333,
332,
332,
333,
333,
331,
331,
332,
332,
332,
332,
331,
331,
331,
331,
331,
331,
330,
330,
329,
329,
330,
330,
330,
330,
331,
331,
327,
327,
329,
329,
328,
328,
329,
329,
329,
329,
328,
328,
327,
327,
329,
329,
330,
330,
332,
332,
333,
333,
336,
336,
337,
337,
338,
338,
337,
337,
337,
337,
335,
335,
336,
336,
338,
338,
337,
337,
336,
336,
336,
336,
335,
335,
336,
336,
335,
335,
335,
335,
335,
335,
336,
336,
334,
334,
334,
334,
335,
335,
335,
335,
334,
334,
335,
335,
333,
333,
333,
333,
332,
332,
333,
333,
334,
334,
333,
333,
333,
333,
333,
333,
333,
333,
333,
333,
332,
332,
332,
332,
332,
332,
332,
332,
331,
331,
331,
331,
331,
331,
330,
330,
332,
332,
331,
331,
332,
332,
331,
331,
333,
333,
334,
334,
335,
335,
338,
338,
338,
338,
339,
339,
338,
338,
339,
339,
338,
338,
339,
339,
339,
339,
340,
340,
338,
338,
338,
338,
337,
337,
338,
338,
337,
337,
337,
337,
337,
337,
337,
337,
337,
337,
337,
337,
336,
336,
336,
336,
336,
336,
336,
336,
335,
335,
335,
335,
336,
336,
335,
335,
335,
335,
335,
335,
335,
335,
334,
334,
334,
334,
335,
335,
333,
333,
335,
335,
334,
334,
332,
332,
333,
333,
334,
334,
333,
333,
332,
332,
332,
332,
331,
331,
333,
333,
334,
334,
335,
335,
336,
336,
339,
339,
340,
340,
341,
341,
340,
340,
341,
341,
341,
341,
341,
341,
340,
340,
340,
340,
341,
341,
340,
340,
339,
339,
338,
338,
340,
340,
339,
339,
338,
338,
337,
337,
339,
339,
339,
339,
338,
338,
338,
338,
337,
337,
337,
337,
336,
336,
337,
337,
337,
337,
337,
337,
335,
335,
336,
336,
336,
336,
336,
336,
335,
335,
336,
336,
335,
335,
335,
335,
334,
334,
335,
335,
334,
334,
335,
335,
333,
333,
333,
333,
334,
334,
333,
333,
332,
332,
334,
334,
337,
337,
336,
336,
339,
339,
340,
340,
342,
342,
342,
342,
341,
341,
343,
343,
342,
342,
341,
341,
340,
340,
341,
341,
340,
340,
340,
340,
339,
339,
339,
339,
338,
338,
340,
340,
340,
340,
339,
339,
338,
338,
340,
340,
336,
336,
338,
338,
337,
337,
337,
337,
336,
336,
337,
337,
336,
336,
336,
336,
336,
336,
334,
334,
335,
335,
335,
335,
336,
336,
334,
334,
333,
333,
335,
335,
335,
335,
334,
334,
334,
334,
333,
333,
333,
333,
333,
333,
333,
333,
332,
332,
333,
333,
333,
333,
336,
336,
337,
337,
339,
339,
340,
340,
342,
342,
341,
341,
339,
339,
340,
340,
340,
340,
339,
339,
340,
340,
340,
340,
338,
338,
338,
338,
338,
338,
338,
338,
338,
338,
338,
338,
338,
338,
338,
338,
338,
338,
337,
337,
336,
336,
336,
336,
335,
335,
337,
337,
337,
337,
335,
335,
335,
335,
335,
335,
335,
335,
336,
336,
335,
335,
335,
335,
334,
334,
335,
335,
333,
333,
333,
333,
333,
333,
333,
333,
332,
332,
332,
332,
333,
333,
331,
331,
331,
331,
332,
332,
332,
332,
332,
332,
335,
335,
338,
338,
339,
339,
339,
339,
339,
339,
338,
338,
338,
338,
339,
339,
339,
339,
338,
338,
338,
338,
337,
337,
336,
336,
338,
338,
338,
338,
336,
336,
337,
337,
337,
337,
336,
336,
336,
336,
335,
335,
334,
334,
334,
334,
335,
335,
335,
335,
336,
336,
335,
335,
334,
334,
333,
333,
332,
332,
334,
334,
333,
333,
331,
331,
332,
332,
331,
331,
331,
331,
332,
332,
330,
330,
330,
330,
331,
331,
330,
330,
330,
330,
328,
328,
329,
329,
329,
329,
331,
331,
329,
329,
331,
331,
335,
335,
335,
335,
335,
335,
338,
338,
337,
337,
338,
338,
336,
336,
337,
337,
336,
336,
336,
336,
337,
337,
336,
336,
336,
336,
335,
335,
335,
335,
335,
335,
334,
334,
334,
334,
334,
334,
333,
333,
333,
333,
333,
333,
332,
332,
334,
334,
331,
331,
332,
332,
332,
332,
332,
332,
332,
332,
331,
331,
331,
331,
330,
330,
329,
329,
329,
329,
331,
331,
329,
329,
329,
329,
330,
330,
328,
328,
328,
328,
328,
328,
327,
327,
326,
326,
328,
328,
329,
329,
327,
327,
329,
329,
331,
331,
332,
332,
335,
335,
335,
335,
336,
336,
334,
334,
336,
336,
336,
336,
333,
333,
335,
335,
334,
334,
335,
335,
335,
335,
333,
333,
334,
334,
334,
334,
332,
332,
332,
332,
332,
332,
331,
331,
331,
331,
331,
331,
331,
331,
331,
331,
330,
330,
330,
330,
330,
330,
330,
330,
330,
330,
329,
329,
329,
329,
329,
329,
329,
329,
327,
327,
329,
329,
328,
328,
327,
327,
328,
328,
328,
328,
328,
328,
327,
327,
328,
328,
327,
327,
327,
327,
328,
328,
328,
328,
329,
329,
330,
330,
331,
331,
334,
334,
334,
334,
334,
334,
334,
334,
335,
335,
334,
334,
334,
334,
334,
334,
332,
332,
333,
333,
332,
332,
333,
333,
333,
333,
332,
332,
332,
332,
332,
332,
331,
331,
332,
332,
331,
331,
331,
331,
332,
332,
329,
329,
330,
330,
331,
331,
330,
330,
329,
329,
329,
329,
330,
330,
329,
329,
329,
329,
328,
328,
328,
328,
328,
328,
328,
328,
328,
328,
329,
329,
327,
327,
326,
326,
327,
327,
327,
327,
326,
326,
326,
326,
327,
327,
327,
327,
327,
327,
329,
329,
329,
329,
333,
333,
333,
333,
334,
334,
333,
333,
334,
334,
335,
335,
334,
334,
335,
335,
333,
333,
334,
334,
334,
334,
334,
334,
333,
333,
333,
333,
333,
333,
333,
333,
333,
333,
331,
331,
334,
334,
333,
333,
331,
331,
331,
331,
330,
330,
331,
331,
331,
331,
330,
330,
330,
330,
330,
330,
330,
330,
330,
330,
329,
329,
329,
329,
329,
329,
330,
330,
330,
330,
329,
329,
328,
328,
329,
329,
328,
328,
327,
327,
327,
327,
328,
328,
329,
329,
328,
328,
328,
328,
329,
329,
330,
330,
333,
333,
335,
335,
335,
335,
337,
337,
337,
337,
336,
336,
335,
335,
335,
335,
335,
335,
335,
335,
336,
336,
335,
335,
335,
335,
334,
334,
335,
335,
335,
335,
333,
333,
335,
335,
334,
334,
335,
335,
333,
333,
334,
334,
334,
334,
331,
331,
331,
331,
333,
333,
333,
333,
332,
332,
332,
332,
333,
333,
331,
331,
332,
332,
332,
332,
332,
332,
331,
331,
331,
331,
330,
330,
330,
330,
330,
330,
329,
329,
329,
329,
329,
329,
331,
331,
329,
329,
330,
330,
330,
330,
331,
331,
334,
334,
334,
334,
338,
338,
338,
338,
336,
336,
337,
337,
338,
338,
336,
336,
338,
338,
337,
337,
338,
338,
337,
337,
338,
338,
338,
338,
337,
337,
337,
337,
335,
335,
337,
337,
337,
337,
336,
336,
337,
337,
335,
335,
335,
335,
335,
335,
335,
335,
335,
335,
335,
335,
334,
334,
334,
334,
335,
335,
334,
334,
333,
333,
333,
333,
334,
334,
334,
334,
331,
331,
333,
333,
333,
333,
333,
333,
332,
332,
331,
331,
332,
332,
331,
331,
330,
330,
333,
333,
331,
331,
333,
333,
334,
334,
337,
337,
338,
338,
340,
340,
339,
339,
340,
340,
339,
339,
339,
339,
339,
339,
340,
340,
340,
340,
338,
338,
339,
339,
340,
340,
339,
339,
338,
338,
339,
339,
338,
338,
337,
337,
338,
338,
337,
337,
337,
337,
338,
338,
337,
337,
336,
336,
336,
336,
337,
337,
336,
336,
335,
335,
336,
336,
336,
336,
335,
335,
336,
336,
334,
334,
335,
335,
335,
335,
335,
335,
334,
334,
334,
334,
333,
333,
333,
333,
334,
334,
334,
334,
335,
335,
332,
332,
333,
333,
334,
334,
335,
335,
337,
337,
338,
338,
340,
340,
341,
341,
340,
340,
340,
340,
342,
342,
341,
341,
341,
341,
341,
341,
341,
341,
341,
341,
339,
339,
339,
339,
339,
339,
341,
341,
338,
338,
338,
338,
339,
339,
338,
338,
337,
337,
339,
339,
337,
337,
338,
338,
336,
336,
339,
339,
336,
336,
337,
337,
335,
335,
338,
338,
336,
336,
336,
336,
336,
336,
336,
336,
336,
336,
334,
334,
334,
334,
337,
337,
334,
334,
334,
334,
334,
334,
334,
334,
333,
333,
334,
334,
333,
333,
333,
333,
334,
334,
336,
336,
338,
338,
340,
340,
341,
341,
342,
342,
342,
342,
340,
340,
339,
339,
340,
340,
341,
341,
341,
341,
341,
341,
341,
341,
341,
341,
339,
339,
339,
339,
340,
340,
338,
338,
340,
340,
338,
338,
338,
338,
339,
339,
338,
338,
338,
338,
338,
338,
337,
337,
337,
337,
337,
337,
337,
337,
336,
336,
335,
335,
336,
336,
335,
335,
335,
335,
334,
334,
333,
333,
334,
334,
334,
334,
333,
333,
333,
333,
332,
332,
333,
333,
333,
333,
333,
333,
333,
333,
332,
332,
333,
333,
335,
335,
336,
336,
338,
338,
339,
339,
339,
339,
341,
341,
340,
340,
340,
340,
338,
338,
340,
340,
338,
338,
338,
338,
338,
338,
338,
338,
338,
338,
338,
338,
337,
337,
338,
338,
338,
338,
339,
339,
338,
338,
337,
337,
337,
337,
337,
337,
336,
336,
336,
336,
335,
335,
336,
336,
335,
335,
335,
335,
334,
334,
334,
334,
333,
333,
333,
333,
333,
333,
333,
333,
332,
332,
332,
332,
332,
332,
332,
332,
332,
332,
330,
330,
330,
330,
330,
330,
331,
331,
330,
330,
331,
331,
332,
332,
334,
334,
335,
335,
337,
337,
338,
338,
337,
337,
337,
337,
338,
338,
337,
337,
338,
338,
337,
337,
338,
338,
336,
336,
336,
336,
337,
337,
337,
337,
335,
335,
336,
336,
336,
336,
334,
334,
336,
336,
334,
334,
335,
335,
334,
334,
335,
335,
334,
334,
334,
334,
333,
333,
332,
332,
332,
332,
333,
333,
331,
331,
331,
331,
331,
331,
330,
330,
331,
331,
330,
330,
330,
330,
329,
329,
328,
328,
332,
332,
330,
330,
329,
329,
329,
329,
328,
328,
328,
328,
329,
329,
329,
329,
331,
331,
332,
332,
334,
334,
335,
335,
336,
336,
336,
336,
336,
336,
337,
337,
336,
336,
336,
336,
335,
335,
335,
335,
334,
334,
335,
335,
334,
334,
334,
334,
334,
334,
334,
334,
334,
334,
332,
332,
333,
333,
332,
332,
331,
331,
330,
330,
331,
331,
332,
332,
331,
331,
329,
329,
331,
331,
330,
330,
330,
330,
329,
329,
330,
330,
330,
330,
329,
329,
328,
328,
329,
329,
328,
328,
327,
327,
327,
327,
328,
328,
327,
327,
327,
327,
328,
328,
326,
326,
327,
327,
327,
327,
329,
329,
330,
330,
332,
332,
333,
333,
334,
334,
335,
335,
334,
334,
335,
335,
335,
335,
336,
336,
334,
334,
334,
334,
335,
335,
334,
334,
333,
333,
333,
333,
332,
332,
332,
332,
333,
333,
333,
333,
331,
331,
332,
332,
330,
330,
331,
331,
330,
330,
330,
330,
332,
332,
330,
330,
330,
330,
330,
330,
330,
330,
330,
330,
329,
329,
330,
330,
330,
330,
329,
329,
328,
328,
328,
328,
327,
327,
327,
327,
328,
328,
328,
328,
327,
327,
327,
327,
326,
326,
326,
326,
327,
327,
328,
328,
328,
328,
330,
330,
331,
331,
334,
334,
333,
333,
335,
335,
334,
334,
333,
333,
334,
334,
333,
333,
333,
333,
335,
335,
333,
333,
333,
333,
333,
333,
334,
334,
333,
333,
332,
332,
331,
331,
333,
333,
333,
333,
332,
332,
331,
331,
330,
330,
330,
330,
331,
331,
330,
330,
330,
330,
330,
330,
329,
329,
329,
329,
329,
329,
327,
327,
330,
330,
328,
328,
328,
328,
328,
328,
328,
328,
328,
328,
327,
327,
328,
328,
327,
327,
327,
327,
327,
327,
326,
326,
328,
328,
327,
327,
327,
327,
329,
329,
332,
332,
333,
333,
334,
334,
335,
335,
335,
335,
335,
335,
335,
335,
334,
334,
334,
334,
336,
336,
335,
335,
334,
334,
335,
335,
334,
334,
334,
334,
333,
333,
335,
335,
334,
334,
333,
333,
334,
334,
332,
332,
332,
332,
331,
331,
330,
330,
332,
332,
331,
331,
331,
331,
331,
331,
330,
330,
330,
330,
330,
330,
330,
330,
331,
331,
329,
329,
330,
330,
329,
329,
330,
330,
328,
328,
329,
329,
328,
328,
328,
328,
329,
329,
328,
328,
329,
329,
330,
330,
330,
330,
332,
332,
331,
331,
335,
335,
336,
336,
337,
337,
336,
336,
338,
338,
337,
337,
337,
337,
336,
336,
336,
336,
335,
335,
335,
335,
335,
335,
336,
336,
335,
335,
335,
335,
334,
334,
335,
335,
334,
334,
335,
335,
335,
335,
335,
335,
334,
334,
335,
335,
334,
334,
333,
333,
333,
333,
333,
333,
333,
333,
333,
333,
333,
333,
332,
332,
332,
332,
332,
332,
333,
333,
331,
331,
330,
330,
332,
332,
331,
331,
332,
332,
330,
330,
331,
331,
330,
330,
330,
330,
330,
330,
330,
330,
333,
333,
334,
334,
335,
335,
336,
336,
339,
339,
339,
339,
338,
338,
338,
338,
338,
338,
335,
335,
339,
339,
338,
338,
338,
338,
338,
338,
338,
338,
337,
337,
338,
338,
338,
338,
337,
337,
337,
337,
337,
337,
336,
336,
339,
339,
336,
336,
337,
337,
336,
336,
335,
335,
336,
336,
336,
336,
335,
335,
335,
335,
335,
335,
334,
334,
334,
334,
336,
336,
336,
336,
334,
334,
334,
334,
333,
333,
334,
334,
333,
333,
332,
332,
333,
333,
332,
332,
332,
332,
332,
332,
333,
333,
332,
332,
334,
334,
336,
336,
339,
339,
339,
339,
340,
340,
341,
341,
341,
341,
340,
340,
341,
341,
341,
341,
341,
341,
339,
339,
341,
341,
338,
338,
339,
339,
339,
339,
339,
339,
339,
339,
338,
338,
338,
338,
337,
337,
338,
338,
337,
337,
337,
337,
338,
338,
337,
337,
338,
338,
335,
335,
338,
338,
337,
337,
336,
336,
335,
335,
336,
336,
336,
336,
335,
335,
336,
336,
335,
335,
335,
335,
334,
334,
335,
335,
334,
334,
334,
334,
333,
333,
332,
332,
332,
332,
333,
333,
335,
335,
336,
336,
335,
335,
338,
338,
340,
340,
342,
342,
342,
342,
341,
341,
341,
341,
342,
342,
340,
340,
342,
342,
341,
341,
341,
341,
340,
340,
340,
340,
338,
338,
340,
340,
339,
339,
339,
339,
339,
339,
338,
338,
339,
339,
338,
338,
339,
339,
337,
337,
336,
336,
337,
337,
336,
336,
336,
336,
336,
336,
335,
335,
336,
336,
335,
335,
335,
335,
335,
335,
336,
336,
335,
335,
334,
334,
334,
334,
334,
334,
333,
333,
334,
334,
333,
333,
334,
334,
332,
332,
332,
332,
333,
333,
332,
332,
334,
334,
337,
337,
338,
338,
341,
341,
341,
341,
341,
341,
340,
340,
339,
339,
340,
340,
339,
339,
339,
339,
338,
338,
339,
339,
340,
340,
339,
339,
338,
338,
338,
338,
338,
338,
338,
338,
338,
338,
338,
338,
337,
337,
337,
337,
336,
336,
337,
337,
336,
336,
335,
335,
335,
335,
335,
335,
335,
335,
337,
337,
335,
335,
334,
334,
334,
334,
334,
334,
333,
333,
333,
333,
333,
333,
333,
333,
333,
333,
333,
333,
332,
332,
332,
332,
331,
331,
331,
331,
331,
331,
331,
331,
334,
334,
334,
334,
337,
337,
338,
338,
340,
340,
340,
340,
339,
339,
340,
340,
339,
339,
340,
340,
338,
338,
338,
338,
338,
338,
337,
337,
336,
336,
337,
337,
337,
337,
336,
336,
338,
338,
336,
336,
337,
337,
336,
336,
334,
334,
336,
336,
334,
334,
333,
333,
335,
335,
335,
335,
333,
333,
333,
333,
334,
334,
333,
333,
332,
332,
332,
332,
331,
331,
332,
332,
331,
331,
331,
331,
330,
330,
330,
330,
331,
331,
331,
331,
331,
331,
330,
330,
330,
330,
330,
330,
331,
331,
331,
331,
332,
332,
333,
333,
336,
336,
336,
336,
337,
337,
337,
337,
338,
338,
337,
337,
337,
337,
337,
337,
337,
337,
337,
337,
337,
337,
337,
337,
336,
336,
335,
335,
335,
335,
335,
335,
334,
334,
335,
335,
335,
335,
334,
334,
334,
334,
332,
332,
333,
333,
332,
332,
332,
332,
332,
332,
331,
331,
331,
331,
331,
331,
330,
330,
330,
330,
330,
330,
329,
329,
330,
330,
329,
329,
328,
328,
329,
329,
330,
330,
328,
328,
327,
327,
329,
329,
328,
328,
327,
327,
329,
329,
330,
330,
328,
328,
330,
330,
332,
332,
335,
335,
335,
335,
334,
334,
335,
335,
335,
335,
334,
334,
334,
334,
335,
335,
333,
333,
333,
333,
334,
334,
333,
333,
333,
333,
334,
334,
332,
332,
334,
334,
333,
333,
333,
333,
331,
331,
332,
332,
330,
330,
331,
331,
330,
330,
332,
332,
332,
332,
330,
330,
330,
330,
329,
329,
329,
329,
329,
329,
328,
328,
328,
328,
328,
328,
328,
328,
327,
327,
329,
329,
328,
328,
327,
327,
327,
327,
327,
327,
327,
327,
327,
327,
326,
326,
327,
327,
329,
329,
329,
329,
331,
331,
332,
332,
334,
334,
334,
334,
334,
334,
335,
335,
334,
334,
334,
334,
334,
334,
333,
333,
333,
333,
334,
334,
332,
332,
334,
334,
332,
332,
333,
333,
333,
333,
331,
331,
332,
332,
330,
330,
331,
331,
330,
330,
331,
331,
330,
330,
330,
330,
329,
329,
331,
331,
329,
329,
330,
330,
328,
328,
328,
328,
329,
329,
328,
328,
329,
329,
327,
327,
327,
327,
327,
327,
327,
327,
328,
328,
327,
327,
328,
328,
327,
327,
326,
326,
327,
327,
327,
327,
328,
328,
328,
328,
330,
330,
331,
331,
334,
334,
334,
334,
335,
335,
334,
334,
335,
335,
334,
334,
336,
336,
334,
334,
334,
334,
333,
333,
332,
332,
334,
334,
333,
333,
334,
334,
332,
332,
333,
333,
331,
331,
333,
333,
332,
332,
330,
330,
331,
331,
331,
331,
331,
331,
332,
332,
330,
330,
329,
329,
329,
329,
330,
330,
328,
328,
329,
329,
328,
328,
328,
328,
329,
329,
330,
330,
328,
328,
329,
329,
327,
327,
328,
328,
329,
329,
326,
326,
328,
328,
329,
329,
328,
328,
328,
328,
329,
329,
329,
329,
332,
332,
332,
332,
334,
334,
336,
336,
335,
335,
335,
335,
336,
336,
337,
337,
335,
335,
336,
336,
336,
336,
334,
334,
335,
335,
335,
335,
335,
335,
335,
335,
335,
335,
334,
334,
333,
333,
333,
333,
334,
334,
333,
333,
334,
334,
333,
333,
332,
332,
331,
331,
332,
332,
331,
331,
331,
331,
332,
332,
331,
331,
332,
332,
330,
330,
332,
332,
332,
332,
330,
330,
330,
330,
330,
330,
331,
331,
329,
329,
329,
329,
330,
330,
330,
330,
329,
329,
329,
329,
331,
331,
332,
332,
334,
334,
333,
333,
337,
337,
337,
337,
338,
338,
338,
338,
338,
338,
339,
339,
337,
337,
337,
337,
337,
337,
336,
336,
337,
337,
336,
336,
336,
336,
336,
336,
336,
336,
336,
336,
337,
337,
334,
334,
336,
336,
335,
335,
334,
334,
336,
336,
335,
335,
334,
334,
335,
335,
333,
333,
335,
335,
335,
335,
335,
335,
332,
332,
333,
333,
332,
332,
333,
333,
333,
333,
332,
332,
332,
332,
332,
332,
332,
332,
332,
332,
331,
331,
332,
332,
332,
332,
331,
331,
331,
331,
332,
332,
335,
335,
336,
336,
337,
337,
340,
340,
341,
341,
340,
340,
340,
340,
340,
340,
339,
339,
340,
340,
339,
339,
340,
340,
339,
339,
339,
339,
338,
338,
338,
338,
338,
338,
337,
337,
339,
339,
338,
338,
337,
337,
337,
337,
336,
336,
336,
336,
338,
338,
336,
336,
337,
337,
336,
336,
336,
336,
337,
337,
334,
334,
336,
336,
336,
336,
334,
334,
335,
335,
333,
333,
335,
335,
335,
335,
334,
334,
333,
333,
333,
333,
335,
335,
333,
333,
334,
334,
334,
334,
334,
334,
334,
334,
335,
335,
336,
336,
338,
338,
340,
340,
340,
340,
340,
340,
340,
340,
