3-eigenschaften-von-transistoren/daten/ALL0019/A0019CH1.CSV

Memory Length,4000,
Trigger Level,7.20000e+01,
Source,CH1,
Probe,1.0X,
Vertical Units,V,
Vertical Scale,1.00000e-01,
Vertical Position,4.00000e-02,
Horizontal Units,S,
Horizontal Scale,5.00000e-04,
Horizontal Position,0.0000000e+00,
Horizontal Mode,Main,
Sampling Period,2.00000e-06,
Firmware,V1.14,
Time, ,
Mode,Fast,
Waveform Data,
24,
24,
24,
26,
26,
32,
32,
34,
34,
36,
36,
40,
40,
44,
44,
46,
46,
49,
49,
53,
53,
55,
55,
59,
59,
62,
62,
67,
67,
72,
72,
76,
76,
77,
77,
79,
79,
83,
83,
85,
85,
86,
86,
91,
91,
92,
92,
94,
94,
98,
98,
102,
102,
103,
103,
106,
106,
109,
109,
112,
112,
115,
115,
115,
115,
116,
116,
116,
116,
116,
116,
116,
116,
116,
116,
116,
116,
116,
116,
116,
116,
116,
116,
116,
116,
116,
116,
116,
116,
116,
116,
116,
116,
116,
116,
116,
116,
116,
116,
116,
116,
116,
116,
116,
116,
116,
116,
116,
116,
116,
116,
116,
116,
116,
116,
116,
116,
116,
116,
116,
116,
116,
116,
116,
116,
116,
116,
116,
116,
116,
116,
116,
116,
116,
116,
116,
116,
116,
116,
116,
116,
116,
116,
116,
116,
116,
116,
116,
116,
116,
116,
116,
116,
116,
116,
116,
116,
116,
116,
116,
116,
116,
116,
116,
116,
116,
116,
116,
116,
116,
116,
116,
116,
116,
116,
116,
116,
116,
116,
116,
116,
116,
116,
116,
116,
116,
116,
116,
116,
116,
116,
116,
116,
116,
116,
116,
116,
116,
116,
116,
116,
116,
116,
116,
116,
116,
116,
116,
116,
116,
116,
116,
116,
116,
116,
116,
116,
116,
116,
116,
116,
116,
116,
116,
116,
116,
116,
116,
116,
116,
116,
116,
116,
116,
116,
116,
116,
116,
116,
116,
116,
116,
116,
116,
116,
116,
116,
116,
116,
116,
116,
116,
116,
116,
116,
116,
116,
116,
116,
116,
116,
116,
116,
116,
116,
116,
116,
116,
116,
116,
116,
116,
116,
116,
116,
116,
116,
116,
116,
116,
116,
116,
116,
116,
116,
116,
116,
116,
116,
116,
116,
116,
116,
116,
116,
116,
116,
116,
116,
116,
116,
116,
116,
116,
116,
116,
116,
116,
116,
116,
116,
116,
116,
116,
116,
116,
116,
116,
116,
116,
116,
116,
116,
116,
116,
116,
116,
116,
116,
116,
116,
116,
116,
116,
116,
116,
116,
116,
116,
116,
116,
116,
116,
116,
116,
116,
116,
116,
116,
116,
116,
116,
116,
116,
116,
116,
116,
116,
116,
116,
116,
116,
116,
116,
116,
116,
116,
116,
116,
116,
116,
116,
116,
116,
116,
116,
116,
116,
116,
116,
116,
116,
116,
116,
116,
116,
116,
116,
116,
116,
116,
116,
116,
116,
116,
116,
116,
116,
116,
116,
116,
116,
116,
116,
116,
116,
116,
116,
116,
116,
116,
116,
116,
116,
116,
113,
113,
110,
110,
107,
107,
105,
105,
101,
101,
99,
99,
96,
96,
91,
91,
88,
88,
87,
87,
86,
86,
78,
78,
77,
77,
73,
73,
71,
71,
67,
67,
64,
64,
61,
61,
60,
60,
56,
56,
53,
53,
49,
49,
46,
46,
41,
41,
39,
39,
37,
37,
32,
32,
29,
29,
28,
28,
25,
25,
20,
20,
17,
17,
14,
14,
9,
9,
6,
6,
1,
1,
0,
0,
-4,
-4,
-6,
-6,
-11,
-11,
-13,
-13,
-14,
-14,
-17,
-17,
-19,
-19,
-23,
-23,
-25,
-25,
-28,
-28,
-35,
-35,
-39,
-39,
-41,
-41,
-46,
-46,
-49,
-49,
-51,
-51,
-57,
-57,
-59,
-59,
-61,
-61,
-64,
-64,
-67,
-67,
-70,
-70,
-74,
-74,
-76,
-76,
-80,
-80,
-86,
-86,
-87,
-87,
-89,
-89,
-91,
-91,
-96,
-96,
-100,
-100,
-101,
-101,
-104,
-104,
-107,
-107,
-110,
-110,
-113,
-113,
-117,
-117,
-119,
-119,
-123,
-123,
-124,
-124,
-128,
-128,
-130,
-130,
-131,
-131,
-134,
-134,
-136,
-136,
-137,
-137,
-137,
-137,
-137,
-137,
-137,
-137,
-137,
-137,
-137,
-137,
-137,
-137,
-137,
-137,
-137,
-137,
-137,
-137,
-137,
-137,
-137,
-137,
-137,
-137,
-137,
-137,
-137,
-137,
-137,
-137,
-137,
-137,
-137,
-137,
-137,
-137,
-137,
-137,
-137,
-137,
-137,
-137,
-137,
-137,
-137,
-137,
-137,
-137,
-137,
-137,
-137,
-137,
-137,
-137,
-137,
-137,
-137,
-137,
-137,
-137,
-137,
-137,
-137,
-137,
-137,
-137,
-137,
-137,
-137,
-137,
-137,
-137,
-137,
-137,
-137,
-137,
-137,
-137,
-137,
-137,
-137,
-137,
-137,
-137,
-137,
-137,
-137,
-137,
-137,
-137,
-137,
-137,
-137,
-137,
-137,
-137,
-137,
-137,
-137,
-137,
-137,
-137,
-137,
-137,
-137,
-137,
-137,
-137,
-137,
-137,
-137,
-137,
-137,
-137,
-137,
-137,
-137,
-137,
-137,
-137,
-137,
-137,
-137,
-137,
-137,
-137,
-137,
-137,
-137,
-137,
-137,
-137,
-137,
-137,
-137,
-137,
-137,
-137,
-137,
-137,
-137,
-137,
-137,
-137,
-137,
-137,
-137,
-137,
-137,
-137,
-137,
-137,
-137,
-137,
-137,
-137,
-137,
-137,
-137,
-137,
-137,
-137,
-137,
-137,
-137,
-137,
-137,
-137,
-137,
-137,
-137,
-137,
-137,
-137,
-137,
-137,
-137,
-137,
-137,
-137,
-137,
-137,
-137,
-137,
-137,
-137,
-137,
-137,
-137,
-137,
-137,
-137,
-137,
-137,
-137,
-137,
-137,
-137,
-137,
-137,
-137,
-137,
-137,
-137,
-137,
-137,
-137,
-137,
-137,
-137,
-137,
-137,
-137,
-137,
-137,
-137,
-137,
-137,
-137,
-137,
-137,
-137,
-137,
-137,
-137,
-137,
-137,
-137,
-137,
-137,
-137,
-137,
-137,
-137,
-137,
-137,
-137,
-137,
-137,
-137,
-137,
-137,
-137,
-137,
-137,
-137,
-137,
-137,
-137,
-137,
-137,
-137,
-137,
-137,
-137,
-137,
-137,
-137,
-137,
-137,
-137,
-137,
-137,
-137,
-137,
-137,
-137,
-137,
-137,
-137,
-137,
-137,
-137,
-137,
-137,
-137,
-137,
-137,
-137,
-137,
-137,
-137,
-137,
-137,
-137,
-137,
-137,
-137,
-137,
-137,
-137,
-137,
-137,
-137,
-137,
-137,
-137,
-137,
-137,
-137,
-137,
-137,
-137,
-137,
-137,
-137,
-137,
-137,
-137,
-137,
-137,
-137,
-137,
-137,
-135,
-135,
-135,
-135,
-134,
-134,
-132,
-132,
-128,
-128,
-126,
-126,
-124,
-124,
-121,
-121,
-118,
-118,
-116,
-116,
-113,
-113,
-112,
-112,
-106,
-106,
-103,
-103,
-100,
-100,
-97,
-97,
-94,
-94,
-91,
-91,
-90,
-90,
-86,
-86,
-82,
-82,
-79,
-79,
-76,
-76,
-73,
-73,
-71,
-71,
-67,
-67,
-64,
-64,
-60,
-60,
-58,
-58,
-56,
-56,
-52,
-52,
-48,
-48,
-45,
-45,
-41,
-41,
-40,
-40,
-36,
-36,
-30,
-30,
-29,
-29,
-25,
-25,
-20,
-20,
-16,
-16,
-14,
-14,
-9,
-9,
-6,
-6,
-3,
-3,
-1,
-1,
2,
2,
5,
5,
10,
10,
12,
12,
15,
15,
17,
17,
22,
22,
23,
23,
26,
26,
31,
31,
32,
32,
37,
37,
40,
40,
43,
43,
47,
47,
51,
51,
51,
51,
57,
57,
59,
59,
61,
61,
65,
65,
67,
67,
71,
71,
74,
74,
79,
79,
79,
79,
82,
82,
87,
87,
90,
90,
91,
91,
96,
96,
98,
98,
102,
102,
104,
104,
108,
108,
110,
110,
112,
112,
114,
114,
116,
116,
116,
116,
116,
116,
116,
116,
116,
116,
116,
116,
116,
116,
116,
116,
116,
116,
116,
116,
116,
116,
116,
116,
116,
116,
116,
116,
116,
116,
116,
116,
116,
116,
116,
116,
116,
116,
116,
116,
116,
116,
116,
116,
116,
116,
116,
116,
116,
116,
116,
116,
116,
116,
116,
116,
116,
116,
116,
116,
116,
116,
116,
116,
116,
116,
116,
116,
116,
116,
116,
116,
116,
116,
116,
116,
116,
116,
116,
116,
116,
116,
116,
116,
116,
116,
116,
116,
116,
116,
116,
116,
116,
116,
116,
116,
116,
116,
116,
116,
116,
116,
116,
116,
116,
116,
116,
116,
116,
116,
116,
116,
116,
116,
116,
116,
116,
116,
116,
116,
116,
116,
116,
116,
116,
116,
116,
116,
116,
116,
116,
116,
116,
116,
116,
116,
116,
116,
116,
116,
116,
116,
116,
116,
116,
116,
116,
116,
116,
116,
116,
116,
116,
116,
116,
116,
116,
116,
116,
116,
116,
116,
116,
116,
116,
116,
116,
116,
116,
116,
116,
116,
116,
116,
116,
116,
116,
116,
116,
116,
116,
116,
116,
116,
116,
116,
116,
116,
116,
116,
116,
116,
116,
116,
116,
116,
116,
116,
116,
116,
116,
116,
116,
116,
116,
116,
116,
116,
116,
116,
116,
116,
116,
116,
116,
116,
116,
116,
116,
116,
116,
116,
116,
116,
116,
116,
116,
116,
116,
116,
116,
116,
116,
116,
116,
116,
116,
116,
116,
116,
116,
116,
116,
116,
116,
116,
116,
116,
116,
116,
116,
116,
116,
116,
116,
116,
116,
116,
116,
116,
116,
116,
116,
116,
116,
116,
116,
116,
116,
116,
116,
116,
116,
116,
116,
116,
116,
116,
116,
116,
116,
116,
116,
116,
116,
116,
116,
116,
116,
116,
116,
116,
116,
116,
116,
116,
116,
116,
116,
116,
116,
116,
116,
116,
116,
116,
116,
116,
116,
116,
116,
116,
116,
116,
116,
116,
116,
116,
116,
116,
116,
116,
116,
116,
116,
116,
116,
116,
116,
116,
116,
116,
116,
116,
116,
116,
116,
116,
116,
116,
116,
116,
116,
116,
116,
116,
116,
116,
116,
116,
114,
114,
111,
111,
109,
109,
106,
106,
105,
105,
100,
100,
98,
98,
95,
95,
91,
91,
88,
88,
85,
85,
83,
83,
79,
79,
77,
77,
75,
75,
70,
70,
68,
68,
66,
66,
63,
63,
62,
62,
59,
59,
56,
56,
52,
52,
48,
48,
44,
44,
41,
41,
37,
37,
34,
34,
31,
31,
26,
26,
24,
24,
21,
21,
18,
18,
13,
13,
8,
8,
7,
7,
4,
4,
0,
0,
-3,
-3,
-7,
-7,
-10,
-10,
-11,
-11,
-18,
-18,
-19,
-19,
-23,
-23,
-26,
-26,
-30,
-30,
-34,
-34,
-36,
-36,
-38,
-38,
-42,
-42,
-48,
-48,
-49,
-49,
-52,
-52,
-55,
-55,
-59,
-59,
-61,
-61,
-64,
-64,
-70,
-70,
-71,
-71,
-75,
-75,
-78,
-78,
-83,
-83,
-83,
-83,
-86,
-86,
-89,
-89,
-91,
-91,
-93,
-93,
-94,
-94,
-98,
-98,
-100,
-100,
-105,
-105,
-110,
-110,
-113,
-113,
-116,
-116,
-117,
-117,
-121,
-121,
-125,
-125,
-128,
-128,
-128,
-128,
-133,
-133,
-134,
-134,
-136,
-136,
-137,
-137,
-137,
-137,
-137,
-137,
-137,
-137,
-137,
-137,
-137,
-137,
-137,
-137,
-137,
-137,
-137,
-137,
-137,
-137,
-137,
-137,
-137,
-137,
-137,
-137,
-137,
-137,
-137,
-137,
-137,
-137,
-137,
-137,
-137,
-137,
-137,
-137,
-137,
-137,
-137,
-137,
-137,
-137,
-137,
-137,
-137,
-137,
-137,
-137,
-137,
-137,
-137,
-137,
-137,
-137,
-137,
-137,
-137,
-137,
-137,
-137,
-137,
-137,
-137,
-137,
-137,
-137,
-137,
-137,
-137,
-137,
-137,
-137,
-137,
-137,
-137,
-137,
-137,
-137,
-137,
-137,
-137,
-137,
-137,
-137,
-137,
-137,
-137,
-137,
-137,
-137,
-137,
-137,
-137,
-137,
-137,
-137,
-137,
-137,
-137,
-137,
-137,
-137,
-137,
-137,
-137,
-137,
-137,
-137,
-137,
-137,
-137,
-137,
-137,
-137,
-137,
-137,
-137,
-137,
-137,
-137,
-137,
-137,
-137,
-137,
-137,
-137,
-137,
-137,
-137,
-137,
-137,
-137,
-137,
-137,
-137,
-137,
-137,
-137,
-137,
-137,
-137,
-137,
-137,
-137,
-137,
-137,
-137,
-137,
-137,
-137,
-137,
-137,
-137,
-137,
-137,
-137,
-137,
-137,
-137,
-137,
-137,
-137,
-137,
-137,
-137,
-137,
-137,
-137,
-137,
-137,
-137,
-137,
-137,
-137,
-137,
-137,
-137,
-137,
-137,
-137,
-137,
-137,
-137,
-137,
-137,
-137,
-137,
-137,
-137,
-137,
-137,
-137,
-137,
-137,
-137,
-137,
-137,
-137,
-137,
-137,
-137,
-137,
-137,
-137,
-137,
-137,
-137,
-137,
-137,
-137,
-137,
-137,
-137,
-137,
-137,
-137,
-137,
-137,
-137,
-137,
-137,
-137,
-137,
-137,
-137,
-137,
-137,
-137,
-137,
-137,
-137,
-137,
-137,
-137,
-137,
-137,
-137,
-137,
-137,
-137,
-137,
-137,
-137,
-137,
-137,
-137,
-137,
-137,
-137,
-137,
-137,
-137,
-137,
-137,
-137,
-137,
-137,
-137,
-137,
-137,
-137,
-137,
-137,
-137,
-137,
-137,
-137,
-137,
-137,
-137,
-137,
-137,
-137,
-137,
-137,
-137,
-137,
-137,
-137,
-137,
-137,
-137,
-137,
-137,
-137,
-137,
-137,
-137,
-137,
-137,
-137,
-137,
-137,
-137,
-137,
-137,
-137,
-137,
-137,
-137,
-137,
-137,
-137,
-137,
-137,
-137,
-137,
-137,
-137,
-137,
-137,
-137,
-137,
-137,
-137,
-137,
-136,
-136,
-134,
-134,
-133,
-133,
-128,
-128,
-127,
-127,
-124,
-124,
-121,
-121,
-119,
-119,
-116,
-116,
-113,
-113,
-109,
-109,
-107,
-107,
-104,
-104,
-100,
-100,
-97,
-97,
-91,
-91,
-88,
-88,
-85,
-85,
-83,
-83,
-80,
-80,
-78,
-78,
-74,
-74,
-71,
-71,
-69,
-69,
-67,
-67,
-63,
-63,
-59,
-59,
-57,
-57,
-56,
-56,
-50,
-50,
-47,
-47,
-44,
-44,
-42,
-42,
-39,
-39,
-36,
-36,
-32,
-32,
-27,
-27,
-25,
-25,
-23,
-23,
-19,
-19,
-15,
-15,
-14,
-14,
-8,
-8,
-7,
-7,
-2,
-2,
1,
1,
4,
4,
9,
9,
11,
11,
14,
14,
18,
18,
20,
20,
24,
24,
27,
27,
30,
30,
35,
35,
37,
37,
39,
39,
44,
44,
47,
47,
51,
51,
55,
55,
56,
56,
62,
62,
66,
66,
68,
68,
72,
72,
73,
73,
76,
76,
78,
78,
81,
81,
86,
86,
88,
88,
91,
91,
94,
94,
96,
96,
98,
98,
103,
103,
105,
105,
107,
107,
109,
109,
112,
112,
115,
115,
116,
116,
116,
116,
116,
116,
116,
116,
116,
116,
116,
116,
116,
116,
116,
116,
116,
116,
116,
116,
116,
116,
116,
116,
116,
116,
116,
116,
116,
116,
116,
116,
116,
116,
116,
116,
116,
116,
116,
116,
116,
116,
116,
116,
116,
116,
116,
116,
116,
116,
116,
116,
116,
116,
116,
116,
116,
116,
116,
116,
116,
116,
116,
116,
116,
116,
116,
116,
116,
116,
116,
116,
116,
116,
116,
116,
116,
116,
116,
116,
116,
116,
116,
116,
116,
116,
116,
116,
116,
116,
116,
116,
116,
116,
116,
116,
116,
116,
116,
116,
116,
116,
116,
116,
116,
116,
116,
116,
116,
116,
116,
116,
116,
116,
116,
116,
116,
116,
116,
116,
116,
116,
116,
116,
116,
116,
116,
116,
116,
116,
116,
116,
116,
116,
116,
116,
116,
116,
116,
116,
116,
116,
116,
116,
116,
116,
116,
116,
116,
116,
116,
116,
116,
116,
116,
116,
116,
116,
116,
116,
116,
116,
116,
116,
116,
116,
116,
116,
116,
116,
116,
116,
116,
116,
116,
116,
116,
116,
116,
116,
116,
116,
116,
116,
116,
116,
116,
116,
116,
116,
116,
116,
116,
116,
116,
116,
116,
116,
116,
116,
116,
116,
116,
116,
116,
116,
116,
116,
116,
116,
116,
116,
116,
116,
116,
116,
116,
116,
116,
116,
116,
116,
116,
116,
116,
116,
116,
116,
116,
116,
116,
116,
116,
116,
116,
116,
116,
116,
116,
116,
116,
116,
116,
116,
116,
116,
116,
116,
116,
116,
116,
116,
116,
116,
116,
116,
116,
116,
116,
116,
116,
116,
116,
116,
116,
116,
116,
116,
116,
116,
116,
116,
116,
116,
116,
116,
116,
116,
116,
116,
116,
116,
116,
116,
116,
116,
116,
116,
116,
116,
116,
116,
116,
116,
116,
116,
116,
116,
116,
116,
116,
116,
116,
116,
116,
116,
116,
116,
116,
116,
116,
116,
116,
116,
116,
116,
116,
116,
116,
116,
116,
116,
116,
116,
116,
116,
116,
116,
116,
116,
116,
116,
116,
116,
116,
116,
116,
116,
116,
116,
116,
116,
116,
116,
116,
116,
116,
116,
116,
116,
116,
116,
114,
114,
110,
110,
106,
106,
103,
103,
102,
102,
99,
99,
96,
96,
92,
92,
89,
89,
87,
87,
81,
81,
81,
81,
77,
77,
74,
74,
72,
72,
68,
68,
65,
65,
60,
60,
58,
58,
55,
55,
52,
52,
49,
49,
44,
44,
43,
43,
39,
39,
37,
37,
34,
34,
31,
31,
27,
27,
25,
25,
20,
20,
16,
16,
12,
12,
11,
11,
7,
7,
4,
4,
-2,
-2,
-4,
-4,
-7,
-7,
-6,
-6,
-10,
-10,
-12,
-12,
-16,
-16,
-20,
-20,
-23,
-23,
-26,
-26,
-31,
-31,
-36,
-36,
-38,
-38,
-41,
-41,
-45,
-45,
-47,
-47,
-52,
-52,
-56,
-56,
-58,
-58,
-61,
-61,
-64,
-64,
-69,
-69,
-71,
-71,
-74,
-74,
-77,
-77,
-79,
-79,
-84,
-84,
-87,
-87,
-90,
-90,
-92,
-92,
-96,
-96,
-100,
-100,
-102,
-102,
-105,
-105,
-108,
-108,
-110,
-110,
-115,
-115,
-116,
-116,
-120,
-120,
-123,
-123,
-123,
-123,
-127,
-127,
-130,
-130,
-133,
-133,
-134,
-134,
-137,
-137,
-137,
-137,
-137,
-137,
-137,
-137,
-137,
-137,
-137,
-137,
-137,
-137,
-137,
-137,
-137,
-137,
-137,
-137,
-137,
-137,
-137,
-137,
-137,
-137,
-137,
-137,
-137,
-137,
-137,
-137,
-137,
-137,
-137,
-137,
-137,
-137,
-137,
-137,
-137,
-137,
-137,
-137,
-137,
-137,
-137,
-137,
-137,
-137,
-137,
-137,
-137,
-137,
-137,
-137,
-137,
-137,
-137,
-137,
-137,
-137,
-137,
-137,
-137,
-137,
-137,
-137,
-137,
-137,
-137,
-137,
-137,
-137,
-137,
-137,
-137,
-137,
-137,
-137,
-137,
-137,
-137,
-137,
-137,
-137,
-137,
-137,
-137,
-137,
-137,
-137,
-137,
-137,
-137,
-137,
-137,
-137,
-137,
-137,
-137,
-137,
-137,
-137,
-137,
-137,
-137,
-137,
-137,
-137,
-137,
-137,
-137,
-137,
-137,
-137,
-137,
-137,
-137,
-137,
-137,
-137,
-137,
-137,
-137,
-137,
-137,
-137,
-137,
-137,
-137,
-137,
-137,
-137,
-137,
-137,
-137,
-137,
-137,
-137,
-137,
-137,
-137,
-137,
-137,
-137,
-137,
-137,
-137,
-137,
-137,
-137,
-137,
-137,
-137,
-137,
-137,
-137,
-137,
-137,
-137,
-137,
-137,
-137,
-137,
-137,
-137,
-137,
-137,
-137,
-137,
-137,
-137,
-137,
-137,
-137,
-137,
-137,
-137,
-137,
-137,
-137,
-137,
-137,
-137,
-137,
-137,
-137,
-137,
-137,
-137,
-137,
-137,
-137,
-137,
-137,
-137,
-137,
-137,
-137,
-137,
-137,
-137,
-137,
-137,
-137,
-137,
-137,
-137,
-137,
-137,
-137,
-137,
-137,
-137,
-137,
-137,
-137,
-137,
-137,
-137,
-137,
-137,
-137,
-137,
-137,
-137,
-137,
-137,
-137,
-137,
-137,
-137,
-137,
-137,
-137,
-137,
-137,
-137,
-137,
-137,
-137,
-137,
-137,
-137,
-137,
-137,
-137,
-137,
-137,
-137,
-137,
-137,
-137,
-137,
-137,
-137,
-137,
-137,
-137,
-137,
-137,
-137,
-137,
-137,
-137,
-137,
-137,
-137,
-137,
-137,
-137,
-137,
-137,
-137,
-137,
-137,
-137,
-137,
-137,
-137,
-137,
-137,
-137,
-137,
-137,
-137,
-137,
-137,
-137,
-137,
-137,
-137,
-137,
-137,
-137,
-137,
-137,
-137,
-137,
-137,
-137,
-137,
-137,
-137,
-137,
-137,
-137,
-137,
-137,
-137,
-137,
-137,
-137,
-137,
-137,
-137,
-137,
-137,
-137,
-136,
-136,
-133,
-133,
-132,
-132,
-129,
-129,
-126,
-126,
-122,
-122,
-123,
-123,
-119,
-119,
-116,
-116,
-113,
-113,
-110,
-110,
-107,
-107,
-105,
-105,
-100,
-100,
-97,
-97,
-94,
-94,
-92,
-92,
-88,
-88,
-87,
-87,
-83,
-83,
-81,
-81,
-76,
-76,
-75,
-75,
-71,
-71,
-66,
-66,
-64,
-64,
-62,
-62,
-59,
-59,
-54,
-54,
-52,
-52,
-49,
-49,
-45,
-45,
-42,
-42,
-38,
-38,
-34,
-34,
-31,
-31,
-26,
-26,
-24,
-24,
-20,
-20,
-14,
-14,
-11,
-11,
-11,
-11,
-8,
-8,
-5,
-5,
-1,
-1,
2,
2,
6,
6,
8,
8,
11,
11,
14,
14,
18,
18,
20,
20,
25,
25,
26,
26,
30,
30,
34,
34,
37,
37,
40,
40,
43,
43,
47,
47,
49,
49,
52,
52,
55,
55,
58,
58,
60,
60,
65,
65,
67,
67,
72,
72,
74,
74,
77,
77,
82,
82,
84,
84,
86,
86,
88,
88,
92,
92,
94,
94,
98,
98,
101,
101,
104,
104,
107,
107,
109,
109,
113,
113,
114,
114,
116,
116,
116,
116,
116,
116,
116,
116,
116,
116,
116,
116,
116,
116,
116,
116,
116,
116,
116,
116,
116,
116,
116,
116,
116,
116,
116,
116,
116,
116,
116,
116,
116,
116,
116,
116,
116,
116,
116,
116,
116,
116,
116,
116,
116,
116,
116,
116,
116,
116,
116,
116,
116,
116,
116,
116,
116,
116,
116,
116,
116,
116,
116,
116,
116,
116,
116,
116,
116,
116,
116,
116,
116,
116,
116,
116,
116,
116,
116,
116,
116,
116,
116,
116,
116,
116,
116,
116,
116,
116,
116,
116,
116,
116,
116,
116,
116,
116,
116,
116,
116,
116,
116,
116,
116,
116,
116,
116,
116,
116,
116,
116,
116,
116,
116,
116,
116,
116,
116,
116,
116,
116,
116,
116,
116,
116,
116,
116,
116,
116,
116,
116,
116,
116,
116,
116,
116,
116,
116,
116,
116,
116,
116,
116,
116,
116,
116,
116,
116,
116,
116,
116,
116,
116,
116,
116,
116,
116,
116,
116,
116,
116,
116,
116,
116,
116,
116,
116,
116,
116,
116,
116,
116,
116,
116,
116,
116,
116,
116,
116,
116,
116,
116,
116,
116,
116,
116,
116,
116,
116,
116,
116,
116,
116,
116,
116,
116,
116,
116,
116,
116,
116,
116,
116,
116,
116,
116,
116,
116,
116,
116,
116,
116,
116,
116,
116,
116,
116,
116,
116,
116,
116,
116,
116,
116,
116,
116,
116,
116,
116,
116,
116,
116,
116,
116,
116,
116,
116,
116,
116,
116,
116,
116,
116,
116,
116,
116,
116,
116,
116,
116,
116,
116,
116,
116,
116,
116,
116,
116,
116,
116,
116,
116,
116,
116,
116,
116,
116,
116,
116,
116,
116,
116,
116,
116,
116,
116,
116,
116,
116,
116,
116,
116,
116,
116,
116,
116,
116,
116,
116,
116,
116,
116,
116,
116,
116,
116,
116,
116,
116,
116,
116,
116,
116,
116,
116,
116,
116,
116,
116,
116,
116,
116,
116,
116,
116,
116,
116,
116,
116,
116,
116,
116,
116,
116,
116,
116,
116,
116,
116,
116,
116,
116,
116,
116,
116,
116,
116,
116,
116,
116,
116,
116,
116,
116,
116,
116,
116,
116,
116,
115,
115,
111,
111,
109,
109,
107,
107,
104,
104,
100,
100,
99,
99,
96,
96,
91,
91,
88,
88,
86,
86,
83,
83,
80,
80,
77,
77,
74,
74,
73,
73,
70,
70,
69,
69,
65,
65,
63,
63,
59,
59,
52,
52,
51,
51,
46,
46,
44,
44,
40,
40,
36,
36,
35,
35,
30,
30,
25,
25,
23,
23,
19,
19,
16,
16,
14,
14,
10,
10,
7,
7,
2,
2,
-1,
-1,
-5,
-5,
-7,
-7,
-8,
-8,
-13,
-13,
-18,
-18,
-19,
-19,
-24,
-24,
-26,
-26,
-30,
-30,
-33,
-33,
-36,
-36,
-41,
-41,
-42,
-42,
-46,
-46,
-51,
-51,
-54,
-54,
-57,
-57,
-58,
-58,
-62,
-62,
-66,
-66,
-67,
-67,
-71,
-71,
-73,
-73,
-77,
-77,
-79,
-79,
-82,
-82,
-84,
-84,
-86,
-86,
-88,
-88,
-93,
-93,
-94,
-94,
-98,
-98,
-104,
-104,
-106,
-106,
-108,
-108,
-112,
-112,
-115,
-115,
-120,
-120,
-122,
-122,
-123,
-123,
-127,
-127,
-129,
-129,
-133,
-133,
-135,
-135,
-137,
-137,
-137,
-137,
-137,
-137,
-137,
-137,
-137,
-137,
-137,
-137,
-137,
-137,
-137,
-137,
-137,
-137,
-137,
-137,
-137,
-137,
-137,
-137,
-137,
-137,
-137,
-137,
-137,
-137,
-137,
-137,
-137,
-137,
-137,
-137,
-137,
-137,
-137,
-137,
-137,
-137,
-137,
-137,
-137,
-137,
-137,
-137,
-137,
-137,
-137,
-137,
-137,
-137,
-137,
-137,
-137,
-137,
-137,
-137,
-137,
-137,
-137,
-137,
-137,
-137,
-137,
-137,
-137,
-137,
-137,
-137,
-137,
-137,
-137,
-137,
-137,
-137,
-137,
-137,
-137,
-137,
-137,
-137,
-137,
-137,
-137,
-137,
-137,
-137,
-137,
-137,
-137,
-137,
-137,
-137,
-137,
-137,
-137,
-137,
-137,
-137,
-137,
-137,
-137,
-137,
-137,
-137,
-137,
-137,
-137,
-137,
-137,
-137,
-137,
-137,
-137,
-137,
-137,
-137,
-137,
-137,
-137,
-137,
-137,
-137,
-137,
-137,
-137,
-137,
-137,
-137,
-137,
-137,
-137,
-137,
-137,
-137,
-137,
-137,
-137,
-137,
-137,
-137,
-137,
-137,
-137,
-137,
-137,
-137,
-137,
-137,
-137,
-137,
-137,
-137,
-137,
-137,
-137,
-137,
-137,
-137,
-137,
-137,
-137,
-137,
-137,
-137,
-137,
-137,
-137,
-137,
-137,
-137,
-137,
-137,
-137,
-137,
-137,
-137,
-137,
-137,
-137,
-137,
-137,
-137,
-137,
-137,
-137,
-137,
-137,
-137,
-137,
-137,
-137,
-137,
-137,
-137,
-137,
-137,
-137,
-137,
