5-grundlagen-opAmps/data/ALL0031/A0031CH1.CSV

Memory Length,4000,
Trigger Level,0.00000e+00,
Source,CH1,
Probe,1.0X,
Vertical Units,V,
Vertical Scale,5.00000e-02,
Vertical Position,0.00000e+00,
Horizontal Units,S,
Horizontal Scale,1.00000e-07,
Horizontal Position,1.0000000e-07,
Horizontal Mode,Main,
Sampling Period,2.00000e-09,
Firmware,V1.14,
Time, ,
Mode,Fast,
Waveform Data,
19,
19,
20,
19,
14,
16,
21,
24,
21,
18,
20,
20,
22,
22,
20,
20,
20,
18,
19,
17,
19,
16,
13,
13,
14,
17,
14,
6,
5,
8,
13,
11,
-1,
-7,
-2,
8,
6,
-4,
-15,
-12,
-1,
2,
-5,
-19,
-23,
-15,
-6,
-10,
-23,
-30,
-24,
-14,
-15,
-25,
-34,
-31,
-22,
-20,
-24,
-32,
-34,
-32,
-26,
-23,
-27,
-33,
-35,
-31,
-26,
-23,
-28,
-33,
-35,
-28,
-20,
-18,
-25,
-32,
-28,
-17,
-14,
-17,
-26,
-25,
-14,
-8,
-8,
-14,
-17,
-12,
-1,
-1,
-7,
-10,
-5,
3,
6,
2,
0,
1,
5,
10,
12,
11,
10,
10,
14,
15,
15,
16,
17,
16,
18,
17,
19,
22,
21,
18,
19,
21,
21,
22,
20,
18,
18,
19,
22,
19,
15,
14,
15,
19,
17,
14,
11,
8,
10,
11,
11,
6,
1,
1,
4,
6,
0,
-7,
-7,
-4,
-2,
-4,
-11,
-15,
-16,
-12,
-11,
-13,
-19,
-23,
-17,
-17,
-18,
-23,
-29,
-27,
-23,
-24,
-27,
-29,
-30,
-31,
-26,
-27,
-29,
-34,
-33,
-28,
-25,
-28,
-32,
-33,
-29,
-24,
-24,
-27,
-29,
-27,
-25,
-18,
-21,
-23,
-21,
-17,
-16,
-16,
-14,
-13,
-9,
-10,
-12,
-9,
-4,
0,
-1,
-3,
-4,
0,
6,
8,
3,
1,
7,
14,
14,
11,
9,
9,
15,
18,
18,
15,
14,
17,
22,
24,
19,
18,
16,
21,
25,
26,
24,
14,
13,
17,
26,
25,
16,
9,
12,
21,
25,
17,
6,
2,
12,
19,
17,
3,
-6,
1,
12,
12,
-1,
-14,
-10,
1,
4,
-4,
-16,
-18,
-11,
-4,
-8,
-17,
-23,
-23,
-15,
-15,
-18,
-24,
-28,
-27,
-22,
-23,
-28,
-27,
-30,
-29,
-26,
-26,
-28,
-34,
-35,
-29,
-23,
-25,
-32,
-35,
-30,
-23,
-21,
-28,
-33,
-31,
-24,
-15,
-21,
-26,
-26,
-17,
-11,
-15,
-17,
-16,
-11,
-7,
-9,
-9,
-8,
-4,
0,
-3,
-3,
-1,
4,
7,
3,
2,
4,
12,
13,
9,
7,
10,
17,
19,
16,
12,
13,
19,
23,
21,
16,
15,
19,
21,
25,
21,
19,
18,
18,
20,
23,
20,
17,
12,
16,
21,
20,
16,
11,
9,
11,
15,
13,
5,
2,
3,
8,
6,
0,
-5,
-3,
0,
1,
-4,
-11,
-12,
-9,
-8,
-9,
-15,
-21,
-19,
-16,
-15,
-19,
-24,
-24,
-24,
-22,
-23,
-26,
-28,
-28,
-28,
-29,
-28,
-28,
-29,
-32,
-31,
-30,
-29,
-28,
-29,
-29,
-30,
-29,
-26,
-25,
-26,
-28,
-24,
-21,
-20,
-20,
-20,
-22,
-19,
-13,
-11,
-15,
-17,
-15,
-6,
-1,
-3,
-8,
-9,
-3,
4,
6,
3,
-3,
-1,
7,
16,
13,
8,
6,
9,
17,
19,
17,
12,
11,
17,
24,
23,
17,
12,
16,
24,
29,
25,
15,
11,
18,
27,
28,
18,
9,
11,
23,
29,
20,
7,
5,
12,
22,
18,
7,
0,
3,
12,
13,
5,
-6,
-5,
3,
4,
-1,
-9,
-12,
-8,
-7,
-8,
-12,
-17,
-18,
-16,
-15,
-15,
-19,
-21,
-25,
-24,
-21,
-22,
-24,
-31,
-31,
-27,
-25,
-24,
-31,
-33,
-31,
-27,
-26,
-32,
-32,
-31,
-25,
-26,
-32,
-31,
-26,
-22,
-24,
-28,
-27,
-23,
-16,
-17,
-23,
-22,
-19,
-9,
-13,
-16,
-15,
-10,
-1,
-4,
-10,
-9,
-3,
6,
5,
0,
-4,
0,
10,
11,
9,
3,
4,
14,
17,
17,
14,
12,
15,
17,
21,
18,
19,
18,
18,
22,
22,
24,
19,
16,
20,
24,
26,
20,
14,
15,
21,
27,
18,
10,
7,
12,
20,
16,
10,
4,
5,
11,
11,
5,
-1,
-2,
1,
1,
-2,
-6,
-6,
-4,
-7,
-11,
-13,
-12,
-11,
-15,
-18,
-20,
-18,
-16,
-17,
-25,
-26,
-23,
-21,
-24,
-29,
-32,
-28,
-24,
-25,
-30,
-36,
-32,
-28,
-25,
-27,
-33,
-34,
-31,
-26,
-22,
-26,
-30,
-31,
-26,
-20,
-20,
-24,
-27,
-22,
-18,
-13,
-11,
-19,
-20,
-14,
-5,
-3,
-9,
-15,
-11,
0,
5,
2,
-4,
-7,
2,
11,
13,
5,
0,
4,
12,
20,
18,
10,
8,
13,
22,
26,
18,
13,
12,
21,
28,
25,
18,
13,
20,
25,
27,
21,
12,
16,
20,
25,
21,
11,
10,
14,
21,
19,
11,
9,
6,
11,
11,
8,
5,
0,
2,
3,
0,
-1,
-6,
-4,
-6,
-7,
-8,
-9,
-9,
-14,
-14,
-14,
-15,
-18,
-21,
-18,
-20,
-21,
-23,
-26,
-24,
-27,
-26,
-28,
-31,
-27,
-28,
-28,
-29,
-32,
-29,
-28,
-27,
-34,
-34,
-28,
-23,
-22,
-30,
-35,
-28,
-19,
-16,
-25,
-30,
-25,
-17,
-10,
-15,
-21,
-21,
-15,
-4,
-8,
-13,
-14,
-9,
0,
0,
-2,
-4,
-1,
3,
6,
8,
3,
5,
7,
10,
14,
15,
15,
11,
11,
16,
21,
23,
15,
12,
16,
22,
27,
20,
15,
16,
22,
27,
23,
16,
14,
18,
24,
21,
14,
12,
16,
19,
15,
13,
11,
11,
13,
9,
7,
6,
6,
5,
0,
-2,
0,
1,
0,
-8,
-12,
-11,
-3,
-3,
-14,
-19,
-20,
-12,
-10,
-16,
-26,
-28,
-22,
-17,
-16,
-27,
-33,
-29,
-25,
-23,
-27,
-34,
-34,
-29,
-25,
-26,
-31,
-33,
-32,
-30,
-25,
-24,
-29,
-35,
-32,
-24,
-17,
-21,
-29,
-31,
-22,
-14,
-12,
-18,
-25,
-22,
-10,
-3,
-8,
-17,
-19,
-6,
2,
2,
-6,
-11,
-1,
5,
7,
4,
-2,
2,
10,
16,
13,
7,
7,
12,
18,
19,
16,
14,
14,
18,
24,
22,
19,
16,
19,
22,
25,
21,
19,
20,
21,
23,
19,
17,
16,
17,
20,
16,
13,
12,
12,
15,
12,
9,
7,
5,
9,
5,
3,
1,
0,
2,
-1,
-4,
-7,
-8,
-6,
-8,
-11,
-16,
-16,
-13,
-14,
-15,
-20,
-24,
-24,
-20,
-16,
-23,
-26,
-32,
-28,
-20,
-22,
-29,
-36,
-33,
-26,
-24,
-28,
-33,
-35,
-29,
-24,
-23,
-31,
-35,
-32,
-20,
-18,
-26,
-31,
-30,
-20,
-16,
-18,
-20,
-23,
-19,
-10,
-10,
-10,
-14,
-13,
-9,
-6,
-3,
-4,
-3,
-4,
-1,
4,
7,
5,
2,
4,
9,
13,
13,
11,
8,
13,
18,
20,
17,
11,
14,
21,
27,
20,
16,
16,
19,
26,
22,
19,
19,
20,
20,
19,
18,
20,
19,
17,
14,
14,
18,
19,
15,
5,
5,
12,
16,
10,
0,
-3,
2,
9,
6,
-6,
-11,
-6,
0,
2,
-9,
-19,
-17,
-9,
-6,
-13,
-21,
-25,
-18,
-17,
-18,
-21,
-28,
-26,
-27,
-24,
-20,
-28,
-32,
-32,
-30,
-23,
-26,
-31,
-35,
-32,
-26,
-21,
-26,
-35,
-36,
-28,
-18,
-20,
-30,
-35,
-28,
-16,
-13,
-20,
-29,
-23,
-13,
-8,
-12,
-19,
-21,
-10,
-3,
-4,
-9,
-9,
-4,
1,
1,
0,
0,
3,
7,
9,
6,
6,
9,
12,
15,
12,
12,
15,
16,
16,
16,
19,
20,
19,
19,
20,
20,
20,
20,
21,
22,
20,
18,
19,
19,
21,
22,
17,
15,
13,
18,
21,
16,
7,
4,
12,
16,
12,
4,
-1,
1,
7,
8,
1,
-8,
-8,
-3,
1,
-4,
-14,
-18,
-14,
-6,
-8,
-16,
-25,
-23,
-16,
-14,
-19,
-26,
-31,
-26,
-20,
-18,
-26,
-34,
-35,
-29,
-21,
-25,
-32,
-35,
-31,
-26,
-25,
-29,
-32,
-33,
-27,
-24,
-25,
-28,
-32,
-26,
-21,
-21,
-21,
-23,
-21,
-19,
-14,
-13,
-15,
-16,
-14,
-10,
-7,
-5,
-5,
-8,
-7,
-1,
4,
5,
1,
-1,
3,
8,
10,
9,
10,
9,
12,
14,
14,
16,
15,
16,
17,
18,
18,
20,
20,
19,
18,
22,
23,
21,
17,
14,
20,
25,
25,
16,
11,
15,
22,
25,
16,
6,
6,
13,
21,
16,
3,
-1,
4,
11,
9,
0,
-5,
-3,
2,
0,
-4,
-10,
-14,
-9,
-8,
-9,
-15,
-18,
-19,
-16,
-16,
-17,
-20,
-24,
-26,
-24,
-24,
-19,
-29,
-34,
-31,
-26,
-21,
-28,
-36,
-36,
-27,
-23,
-27,
-33,
-36,
-29,
-24,
-24,
-31,
-34,
-27,
-19,
-21,
-26,
-28,
-20,
-15,
-16,
-21,
-19,
-15,
-10,
-9,
-13,
-14,
-10,
-3,
-3,
-7,
-8,
-3,
5,
4,
1,
0,
3,
11,
10,
10,
8,
8,
11,
15,
19,
15,
15,
16,
17,
21,
22,
19,
17,
15,
19,
25,
22,
18,
14,
18,
25,
27,
19,
12,
13,
21,
27,
20,
8,
5,
12,
23,
20,
6,
-2,
3,
12,
12,
5,
-4,
-8,
0,
4,
1,
-7,
-13,
-12,
-7,
-5,
-12,
-18,
-20,
-16,
-14,
-16,
-21,
-26,
-26,
-22,
-19,
-23,
-29,
-33,
-30,
-24,
-22,
-28,
-34,
-35,
-29,
-24,
-26,
-29,
-35,
-33,
-26,
-24,
-27,
-28,
-29,
-25,
-23,
-24,
-25,
-25,
-21,
-19,
-19,
-15,
-17,
-16,
-14,
-12,
-10,
-8,
-8,
-9,
-7,
-5,
0,
1,
1,
0,
1,
5,
10,
10,
7,
5,
9,
13,
17,
17,
12,
10,
16,
20,
25,
19,
15,
15,
21,
28,
23,
17,
14,
18,
28,
26,
18,
11,
16,
22,
25,
18,
12,
9,
15,
18,
18,
11,
5,
6,
12,
12,
6,
2,
0,
1,
2,
0,
0,
-6,
-8,
-9,
-8,
-6,
-11,
-16,
-19,
-15,
-13,
-16,
-20,
-23,
-22,
-20,
-21,
-24,
-30,
-28,
-24,
-24,
-26,
-34,
-30,
-26,
-26,
-30,
-34,
-32,
-27,
-26,
-29,
-33,
-28,
-24,
-25,
-27,
-31,
-28,
-20,
-16,
-22,
-30,
-27,
-15,
-9,
-14,
-20,
-18,
-10,
-4,
-5,
-11,
-12,
-7,
1,
3,
-2,
-4,
-2,
5,
11,
8,
8,
5,
7,
13,
16,
18,
11,
9,
13,
21,
26,
19,
13,
11,
20,
30,
27,
17,
10,
14,
28,
30,
21,
10,
12,
21,
28,
23,
11,
8,
14,
21,
22,
11,
3,
6,
14,
16,
6,
1,
0,
3,
5,
2,
-1,
-4,
-7,
-7,
-5,
-4,
-10,
-15,
-16,
-16,
-12,
-14,
-19,
-23,
-24,
-21,
-17,
-23,
-27,
-29,
-27,
-23,
-23,
-32,
-33,
-29,
-27,
-26,
-32,
-32,
-31,
-29,
-28,
-28,
-28,
-28,
-28,
-28,
-27,
-24,
-21,
-20,
-25,
-26,
-21,
-15,
-13,
-18,
-20,
-17,
-9,
-7,
-9,
-11,
-11,
-6,
1,
1,
-4,
-5,
0,
6,
8,
6,
4,
5,
10,
14,
14,
11,
9,
12,
18,
21,
18,
14,
15,
19,
25,
24,
18,
16,
18,
23,
25,
23,
18,
15,
21,
21,
21,
18,
15,
17,
16,
17,
16,
11,
11,
10,
12,
10,
6,
4,
4,
5,
2,
1,
0,
-5,
-3,
-6,
-6,
-7,
-11,
-11,
-14,
-14,
-15,
-18,
-15,
-18,
-20,
-23,
-25,
-19,
-21,
-21,
-26,
-32,
-26,
-25,
-24,
-31,
-36,
-34,
-28,
-23,
-28,
-34,
-36,
-29,
-20,
-25,
-32,
-36,
-29,
-19,
-19,
-24,
-31,
-28,
-16,
-12,
-16,
-23,
-25,
-16,
-9,
-7,
-11,
-14,
-13,
-6,
0,
1,
-4,
-8,
-3,
3,
9,
9,
3,
1,
6,
12,
19,
13,
5,
6,
17,
27,
19,
9,
9,
17,
30,
28,
17,
10,
17,
26,
29,
22,
12,
12,
23,
26,
22,
14,
12,
17,
19,
18,
15,
12,
14,
13,
12,
8,
8,
7,
5,
3,
1,
2,
4,
-1,
-6,
-7,
-4,
-2,
-9,
-14,
-15,
-11,
-9,
-14,
-20,
-23,
-19,
-18,
-17,
-24,
-25,
-24,
-26,
-26,
-28,
-27,
-26,
-29,
-30,
-32,
-29,
-25,
-29,
-34,
-34,
-29,
-23,
-26,
-32,
-33,
-26,
-20,
-23,
-26,
-31,
-26,
-16,
-13,
-21,
-27,
-21,
-12,
-8,
-11,
-16,
-16,
-10,
-4,
-3,
-4,
-7,
-5,
1,
3,
3,
2,
0,
5,
7,
10,
12,
10,
10,
11,
16,
19,
17,
16,
16,
19,
20,
20,
19,
16,
20,
22,
24,
21,
18,
18,
22,
22,
19,
18,
20,
17,
18,
14,
16,
18,
15,
13,
9,
9,
10,
10,
8,
3,
0,
1,
5,
4,
-4,
-8,
-8,
-3,
-3,
-9,
-14,
-17,
-12,
-11,
-11,
-17,
-25,
-23,
-15,
-16,
-21,
-29,
-32,
-26,
-19,
-19,
-29,
-35,
-35,
-26,
-20,
-26,
-36,
-38,
-32,
-23,
-22,
-31,
-36,
-32,
-22,
-19,
-25,
-30,
-31,
-25,
-17,
-15,
-22,
-28,
-25,
-14,
-8,
-12,
-16,
-17,
-13,
-4,
0,
-4,
-12,
-11,
2,
6,
9,
0,
-5,
1,
11,
16,
12,
4,
5,
12,
21,
19,
10,
10,
16,
25,
20,
16,
13,
19,
26,
24,
21,
17,
18,
22,
22,
20,
18,
18,
20,
19,
15,
16,
18,
19,
13,
10,
10,
14,
14,
9,
5,
3,
6,
7,
4,
0,
-3,
-2,
0,
-3,
-7,
-11,
-9,
-11,
-13,
-14,
-14,
-13,
-20,
-23,
-20,
-17,
-19,
-25,
-28,
-27,
-20,
-19,
-28,
-34,
-33,
-25,
-21,
-27,
-36,
-38,
-28,
-20,
-24,
-33,
-37,
-31,
-20,
-20,
-29,
-32,
-28,
-21,
-20,
-23,
-25,
-24,
-16,
-15,
-16,
-16,
-15,
-11,
-11,
-11,
-8,
-7,
-6,
-6,
-4,
1,
2,
3,
3,
1,
4,
8,
12,
9,
7,
10,
15,
18,
14,
14,
16,
18,
18,
18,
18,
20,
21,
18,
18,
21,
22,
23,
20,
16,
19,
23,
24,
19,
11,
14,
19,
22,
15,
7,
8,
13,
19,
14,
4,
0,
4,
12,
11,
1,
-8,
-9,
1,
5,
-1,
-11,
-16,
-11,
-7,
-7,
-13,
-20,
-21,
-17,
-13,
-15,
-24,
-29,
-26,
-19,
-19,
-26,
-32,
-35,
-25,
-21,
-24,
-30,
-39,
-35,
-27,
-19,
-27,
-36,
-36,
-31,
-20,
-22,
-30,
-32,
-29,
-21,
-19,
-19,
-26,
-27,
-20,
-13,
-15,
-18,
-20,
-15,
-10,
-7,
-7,
-12,
-10,
-7,
0,
3,
-3,
-3,
0,
6,
9,
6,
6,
5,
10,
12,
12,
13,
11,
16,
17,
17,
14,
16,
23,
22,
18,
17,
19,
24,
25,
19,
17,
18,
21,
24,
21,
17,
15,
18,
21,
19,
13,
11,
14,
16,
13,
9,
8,
5,
6,
7,
5,
3,
-1,
-5,
-2,
0,
-1,
-6,
-12,
-11,
-9,
-6,
-9,
-17,
-22,
-19,
-12,
-12,
-23,
-29,
-26,
-18,
-18,
-25,
-33,
-32,
-23,
-21,
-27,
-33,
-35,
-29,
-25,
-24,
-31,
-34,
-31,
-27,
-25,
-29,
-29,
-27,
-27,
-27,
-27,
-24,
-20,
-22,
-24,
-23,
-17,
-14,
-13,
-16,
-17,
-12,
-7,
-4,
-9,
-12,
-7,
1,
1,
-2,
-3,
1,
6,
6,
7,
7,
8,
9,
12,
14,
13,
15,
16,
14,
14,
19,
24,
20,
12,
12,
20,
29,
26,
14,
11,
17,
28,
29,
18,
9,
13,
24,
27,
19,
7,
7,
16,
22,
18,
6,
0,
6,
14,
12,
5,
-3,
-4,
2,
6,
2,
-6,
-11,
-11,
-5,
-3,
-7,
-14,
-19,
-18,
-12,
-10,
-15,
-25,
-27,
-20,
-16,
-20,
-27,
-33,
-28,
-21,
-21,
-29,
-35,
-32,
-27,
-24,
-27,
-34,
-36,
-29,
-24,
-24,
-30,
-34,
-29,
-22,
-22,
-26,
-27,
-25,
-21,
-20,
-20,
-20,
-19,
-16,
-13,
-16,
-15,
-11,
-8,
-7,
-8,
-8,
-6,
-2,
1,
1,
1,
1,
4,
8,
10,
7,
6,
10,
14,
17,
14,
12,
13,
17,
21,
21,
18,
13,
17,
24,
23,
21,
16,
15,
21,
26,
25,
19,
15,
17,
20,
23,
20,
13,
11,
15,
18,
16,
11,
7,
6,
10,
11,
9,
3,
-2,
0,
6,
4,
-2,
-10,
-10,
-4,
-2,
-7,
-16,
-19,
-15,
-11,
-12,
-17,
-24,
-25,
-19,
-17,
-22,
-28,
-28,
-25,
-25,
-27,
-29,
-28,
-28,
-30,
-32,
-30,
-28,
-28,
-30,
-32,
-30,
-27,
-26,
-28,
-30,
-30,
-24,
-19,
-23,
-27,
-28,
-20,
-15,
-16,
-21,
-23,
-17,
-12,
-8,
-9,
-13,
-11,
-6,
-3,
-1,
-1,
-1,
-3,
-1,
4,
9,
8,
3,
2,
8,
16,
18,
11,
6,
11,
21,
25,
19,
11,
10,
20,
30,
27,
14,
8,
18,
31,
30,
19,
11,
14,
22,
28,
22,
12,
11,
16,
22,
20,
11,
8,
11,
13,
12,
8,
5,
3,
4,
5,
3,
1,
-4,
-7,
-5,
-3,
-4,
-9,
-15,
-16,
-11,
-8,
-11,
-19,
-25,
-20,
-14,
-15,
-25,
-30,
-26,
-20,
-21,
-27,
-33,
-31,
-25,
-25,
-32,
-34,
-31,
-25,
-26,
-31,
-35,
-32,
-25,
-23,
-28,
-33,
-29,
-20,
-21,
-23,
-28,
-26,
-18,
-15,
-16,
-20,
-20,
-16,
-9,
-6,
-13,
-15,
-11,
-3,
1,
-1,
-3,
-4,
-1,
4,
7,
7,
2,
2,
7,
15,
16,
11,
7,
11,
18,
23,
20,
13,
11,
18,
25,
23,
17,
12,
17,
25,
28,
21,
16,
15,
20,
26,
23,
17,
11,
13,
19,
20,
17,
9,
9,
10,
14,
12,
8,
4,
2,
4,
4,
3,
-2,
-5,
-4,
-3,
-6,
-8,
-10,
-12,
-11,
-13,
-14,
-16,
-18,
-19,
-21,
-18,
-20,
-21,
-24,
-28,
-27,
-25,
-24,
-26,
-30,
-34,
-31,
-26,
-25,
-29,
-35,
-33,
-26,
-24,
-26,
-31,
-33,
-28,
-24,
-20,
-27,
-30,
-28,
-20,
-18,
-20,
-20,
-24,
-19,
-13,
-10,
-10,
-15,
-15,
-8,
-3,
1,
-3,
-10,
-6,
2,
8,
7,
0,
-3,
2,
16,
17,
10,
2,
6,
19,
24,
19,
11,
9,
20,
27,
23,
16,
11,
18,
28,
25,
19,
14,
16,
23,
25,
20,
17,
16,
18,
19,
17,
18,
15,
14,
13,
11,
11,
12,
11,
5,
3,
4,
7,
3,
-2,
-4,
-3,
0,
-4,
-9,
-9,
-9,
-8,
-12,
-16,
-17,
-14,
-13,
-20,
-24,
-23,
-19,
-16,
-24,
-31,
-30,
-24,
-19,
-26,
-35,
-36,
-27,
-21,
-27,
-36,
-37,
-29,
-21,
-23,
-32,
-38,
-33,
-21,
-19,
-26,
-31,
-29,
-20,
-16,
-20,
-24,
-24,
-20,
-13,
-13,
-12,
-15,
-17,
-10,
-5,
-2,
-6,
-9,
-7,
-1,
6,
7,
1,
-3,
0,
12,
17,
10,
3,
3,
14,
22,
22,
13,
8,
15,
24,
25,
17,
13,
16,
24,
28,
21,
17,
16,
20,
25,
23,
20,
17,
16,
17,
21,
19,
14,
13,
12,
12,
13,
14,
12,
7,
3,
4,
7,
6,
1,
-4,
-4,
-2,
0,
-3,
-8,
-11,
-13,
-11,
-10,
-13,
-17,
-19,
-19,
-17,
-18,
-21,
-24,
-29,
-25,
-21,
-24,
-26,
-31,
-32,
-27,
-24,
-26,
-34,
-35,
-32,
-25,
-24,
-29,
-34,
-34,
-27,
-21,
-22,
-30,
-34,
-26,
-19,
-18,
-21,
-28,
-24,
-18,
-13,
-12,
-17,
-19,
-15,
-7,
-3,
-8,
-13,
-11,
-2,
4,
2,
-2,
-5,
2,
10,
12,
8,
2,
5,
13,
17,
14,
10,
12,
16,
21,
19,
16,
16,
19,
21,
21,
19,
19,
22,
24,
21,
18,
18,
22,
20,
18,
17,
17,
17,
17,
14,
13,
14,
12,
11,
11,
9,
8,
6,
5,
4,
3,
1,
-1,
-4,
-5,
-2,
0,
-9,
-16,
-15,
-10,
-5,
-11,
-21,
-25,
-19,
-11,
-14,
-26,
-31,
-28,
-17,
-16,
-28,
-36,
-36,
-25,
-19,
-25,
-37,
-37,
-31,
-21,
-23,
-32,
-35,
-30,
-26,
-22,
-26,
-30,
-30,
-28,
-20,
-19,
-21,
-25,
-26,
-22,
-16,
-11,
-13,
-19,
-19,
-12,
-2,
-4,
-11,
-14,
-7,
3,
4,
0,
-7,
-1,
7,
12,
11,
1,
2,
12,
18,
17,
10,
10,
14,
20,
19,
16,
16,
18,
19,
21,
18,
20,
21,
23,
19,
18,
20,
23,
23,
17,
14,
18,
21,
20,
15,
11,
13,
17,
17,
12,
7,
5,
9,
11,
6,
1,
-2,
1,
1,
1,
-2,
-7,
-7,
-9,
-8,
-7,
-11,
-15,
-19,
-19,
-15,
-14,
-18,
-25,
-28,
-22,
-19,
-20,
-27,
-34,
-30,
-24,
-23,
-29,
-36,
-34,
-28,
-23,
-26,
-35,
-35,
-27,
-23,
-24,
-29,
-34,
-30,
-25,
-19,
-23,
-28,
-27,
-21,
-18,
-17,
-18,
-19,
-17,
-14,
-11,
-9,
-11,
-11,
-6,
-3,
-2,
-5,
-3,
0,
4,
5,
3,
4,
6,
9,
12,
9,
10,
11,
16,
17,
14,
15,
17,
22,
20,
17,
16,
18,
25,
24,
20,
17,
15,
20,
24,
23,
17,
14,
17,
20,
21,
19,
13,
10,
12,
16,
18,
11,
4,
2,
8,
13,
8,
-2,
-7,
-1,
5,
6,
-5,
-15,
-14,
-4,
0,
-7,
-20,
-25,
-16,
-5,
-9,
-23,
-32,
-26,
-16,
-14,
-21,
-33,
-32,
-26,
-20,
-24,
-31,
-34,
-32,
-27,
-26,
-30,
-33,
-33,
-29,
-25,
-25,
-27,
-31,
-33,
-28,
-19,
-19,
-24,
-30,
-28,
-18,
-14,
-15,
-20,
-23,
-16,
-8,
-6,
-13,
-17,
-9,
-3,
0,
-4,
-6,
-3,
2,
5,
3,
1,
6,
9,
12,
8,
8,
11,
16,
16,
11,
14,
20,
21,
20,
14,
16,
22,
27,
22,
17,
16,
20,
28,
25,
17,
13,
16,
23,
24,
18,
12,
14,
17,
18,
15,
12,
9,
10,
10,
10,
8,
4,
2,
2,
0,
2,
0,
-7,
-9,
-9,
-4,
-4,
-10,
-19,
-19,
-12,
-8,
-13,
-22,
-28,
-22,
-15,
-16,
-27,
-31,
-28,
-22,
-18,
-27,
-35,
-32,
-27,
-24,
-28,
-34,
-32,
-29,
-26,
-30,
-32,
-31,
-27,
-24,
-28,
-28,
-26,
-25,
-21,
-24,
-22,
-21,
-20,
-16,
-19,
-18,
-16,
-12,
-10,
-12,
-10,
-10,
-6,
-3,
-2,
0,
-3,
-2,
3,
6,
8,
6,
5,
6,
10,
15,
16,
13,
9,
11,
21,
24,
18,
11,
15,
21,
26,
24,
16,
14,
20,
27,
27,
20,
12,
14,
23,
27,
24,
13,
8,
14,
21,
23,
16,
5,
3,
10,
17,
14,
2,
-5,
1,
8,
8,
-1,
-8,
-11,
-3,
2,
-3,
-13,
-19,
-15,
-7,
-8,
-18,
-25,
-25,
-16,
-15,
-19,
-27,
-30,
-26,
-22,
-21,
-27,
-30,
-34,
-32,
-26,
-25,
-29,
-33,
-32,
-29,
-27,
-27,
-29,
-31,
-30,
-26,
-23,
-26,
-30,
-28,
-21,
-20,
-21,
-24,
-23,
-16,
-14,
-14,
-15,
-15,
-12,
-7,
-9,
-9,
-7,
-2,
0,
-3,
-4,
1,
8,
8,
3,
0,
5,
13,
16,
13,
7,
9,
16,
23,
20,
10,
11,
20,
25,
22,
16,
14,
19,
26,
26,
19,
17,
18,
20,
23,
20,
18,
16,
17,
17,
17,
18,
14,
10,
6,
9,
15,
13,
6,
0,
0,
7,
7,
2,
-6,
-6,
-2,
-1,
-4,
-13,
-14,
-10,
-8,
-9,
-19,
-21,
-16,
-14,
-18,
-24,
-26,
-24,
-19,
-24,
-28,
-28,
-26,
-24,
-28,
-32,
-29,
-28,
-26,
-29,
-35,
-34,
-28,
-23,
-26,
-34,
-33,
-28,
-20,
-22,
-27,
-29,
-26,
-19,
-17,
-19,
-21,
-21,
-15,
-12,
-12,
-13,
-15,
-11,
-8,
-3,
-1,
-5,
-8,
-6,
4,
10,
5,
0,
-2,
6,
15,
17,
11,
2,
6,
17,
26,
21,
10,
6,
18,
28,
26,
17,
11,
17,
28,
30,
22,
14,
14,
21,
26,
25,
15,
10,
15,
21,
23,
18,
11,
9,
11,
17,
17,
11,
2,
1,
7,
10,
5,
-2,
-5,
-3,
1,
0,
-4,
-10,
-12,
-11,
-8,
-10,
-17,
-19,
-19,
-13,
-18,
-21,
-24,
-24,
-22,
-23,
-24,
-28,
-29,
-28,
-29,
-27,
-28,
-31,
-30,
-31,
-29,
-30,
-29,
-28,
-29,
-30,
-31,
-28,
-25,
-25,
-25,
-27,
-25,
-23,
-19,
-16,
-21,
-23,
-20,
-15,
-10,
-13,
-16,
-15,
-8,
-3,
-3,
-7,
-9,
-2,
5,
5,
0,
-4,
3,
10,
12,
9,
4,
7,
13,
17,
18,
14,
12,
14,
19,
21,
18,
17,
17,
20,
21,
22,
23,
20,
18,
19,
22,
23,
21,
17,
14,
16,
20,
18,
14,
10,
12,
16,
16,
10,
4,
4,
9,
11,
4,
-1,
-2,
0,
1,
-3,
-8,
-8,
-7,
-8,
-12,
-15,
-12,
-12,
-14,
-20,
-22,
-19,
-15,
-17,
-27,
-32,
-25,
-19,
-19,
-29,
-36,
-32,
-22,
-21,
-29,
-37,
-35,
-27,
-24,
-26,
-35,
-35,
-29,
-20,
-22,
-27,
-31,
-29,
-23,
-20,
-20,
-20,
-25,
-23,
-16,
-11,
-12,
-17,
-20,
-15,
-6,
0,
-4,
-12,
-13,
-3,
10,
7,
-3,
-9,
0,
14,
17,
6,
-2,
3,
17,
24,
17,
8,
6,
16,
25,
24,
15,
10,
17,
23,
26,
23,
17,
16,
21,
24,
24,
20,
17,
17,
19,
21,
19,
17,
15,
12,
15,
14,
14,
9,
5,
6,
10,
10,
3,
0,
0,
3,
3,
-2,
-6,
-7,
-7,
-7,
-9,
-12,
-13,
-13,
-13,
-17,
-19,
-20,
-18,
-16,
-24,
-26,
-27,
-20,
-21,
-26,
-29,
-32,
-25,
-24,
-29,
-31,
-34,
-29,
-26,
-27,
-31,
-34,
-30,
-26,
-22,
-26,
-32,
-28,
-25,
-20,
-20,
-24,
-26,
-25,
-15,
-12,
-15,
-19,
-20,
-12,
-8,
-6,
-9,
-11,
-7,
-3,
3,
0,
-2,
-1,
3,
9,
7,
5,
7,
8,
14,
15,
13,
13,
11,
14,
17,
20,
19,
17,
18,
19,
22,
25,
23,
19,
17,
19,
24,
23,
19,
15,
17,
19,
20,
18,
16,
16,
15,
14,
13,
12,
12,
8,
8,
5,
5,
7,
4,
0,
-3,
-3,
2,
-1,
-7,
-13,
-11,
-4,
-4,
-12,
-24,
-20,
-12,
-9,
-14,
-26,
-29,
-24,
-15,
-16,
-27,
-35,
-32,
-24,
-20,
-26,
-34,
-34,
-30,
-25,
-27,
-30,
-35,
-33,
-28,
-23,
-23,
-29,
-33,
-30,
-22,
-18,
-20,
-28,
-30,
-24,
-13,
-9,
-18,
-26,
-23,
7,
