5-grundlagen-opAmps/data/ALL0031/A0031CH2.CSV

Memory Length,4000,
Trigger Level,0.00000e+00,
Source,CH2,
Probe,1.0X,
Vertical Units,V,
Vertical Scale,5.00000e-02,
Vertical Position,0.00000e+00,
Horizontal Units,S,
Horizontal Scale,1.00000e-07,
Horizontal Position,1.0000000e-07,
Horizontal Mode,Main,
Sampling Period,2.00000e-09,
Firmware,V1.14,
Time, ,
Mode,Fast,
Waveform Data,
-23,
-23,
-24,
-25,
-27,
-24,
-21,
-18,
-17,
-17,
-15,
-13,
-10,
-9,
-8,
-4,
-3,
-2,
1,
3,
4,
5,
5,
8,
12,
15,
13,
10,
13,
19,
24,
24,
19,
20,
27,
32,
32,
24,
25,
29,
36,
34,
27,
24,
25,
33,
35,
30,
23,
23,
29,
31,
28,
21,
19,
25,
27,
24,
18,
15,
16,
17,
15,
13,
7,
6,
5,
3,
3,
2,
-1,
-4,
-6,
-5,
-4,
-7,
-13,
-16,
-16,
-12,
-14,
-21,
-26,
-26,
-21,
-22,
-28,
-33,
-35,
-28,
-26,
-31,
-35,
-38,
-33,
-31,
-32,
-36,
-39,
-36,
-34,
-35,
-38,
-38,
-33,
-31,
-33,
-34,
-32,
-29,
-26,
-26,
-26,
-24,
-23,
-19,
-20,
-21,
-19,
-15,
-12,
-12,
-13,
-12,
-6,
-3,
-1,
-1,
1,
5,
8,
9,
10,
10,
12,
15,
16,
17,
17,
18,
19,
22,
25,
27,
27,
26,
28,
29,
32,
32,
29,
28,
28,
32,
30,
31,
26,
25,
28,
29,
27,
24,
20,
24,
25,
24,
19,
18,
16,
20,
18,
15,
10,
8,
9,
11,
5,
0,
-2,
-2,
-1,
-3,
-8,
-9,
-9,
-10,
-11,
-15,
-17,
-16,
-18,
-18,
-21,
-25,
-26,
-24,
-26,
-31,
-33,
-33,
-29,
-30,
-36,
-37,
-36,
-31,
-31,
-34,
-36,
-34,
-34,
-30,
-29,
-31,
-34,
-31,
-27,
-27,
-28,
-30,
-26,
-24,
-21,
-18,
-19,
-19,
-18,
-15,
-8,
-6,
-7,
-8,
-8,
-2,
3,
2,
0,
-3,
2,
11,
12,
7,
7,
11,
20,
25,
20,
16,
18,
25,
31,
30,
23,
21,
28,
33,
34,
27,
25,
28,
35,
35,
31,
30,
31,
32,
33,
32,
27,
26,
28,
27,
25,
22,
18,
18,
18,
18,
17,
17,
14,
9,
9,
11,
11,
7,
1,
-2,
0,
0,
-5,
-11,
-12,
-10,
-9,
-10,
-16,
-20,
-19,
-16,
-18,
-22,
-27,
-25,
-25,
-26,
-33,
-35,
-31,
-29,
-32,
-38,
-38,
-35,
-33,
-33,
-37,
-38,
-34,
-31,
-31,
-36,
-38,
-32,
-27,
-27,
-31,
-32,
-29,
-23,
-23,
-24,
-25,
-22,
-17,
-15,
-16,
-18,
-15,
-10,
-7,
-6,
-5,
-2,
-1,
0,
1,
4,
7,
8,
7,
8,
12,
15,
15,
16,
16,
20,
25,
27,
24,
21,
25,
30,
31,
26,
24,
25,
29,
31,
27,
25,
25,
28,
30,
28,
26,
24,
25,
28,
23,
20,
20,
20,
18,
17,
11,
13,
13,
11,
8,
5,
4,
7,
6,
1,
-1,
-4,
-3,
-3,
-7,
-14,
-17,
-15,
-15,
-18,
-21,
-23,
-23,
-22,
-23,
-25,
-28,
-28,
-27,
-29,
-27,
-32,
-37,
-37,
-35,
-31,
-35,
-37,
-38,
-38,
-35,
-32,
-32,
-34,
-36,
-34,
-27,
-27,
-33,
-34,
-31,
-24,
-20,
-20,
-25,
-26,
-21,
-14,
-12,
-16,
-19,
-14,
-9,
-4,
-4,
-8,
-5,
2,
9,
10,
5,
4,
9,
15,
18,
16,
11,
14,
19,
23,
24,
20,
22,
26,
30,
31,
31,
27,
29,
32,
33,
32,
31,
30,
31,
29,
30,
31,
28,
26,
25,
26,
27,
25,
21,
22,
23,
24,
20,
17,
14,
13,
14,
13,
11,
4,
4,
5,
3,
0,
-5,
-3,
-3,
-5,
-10,
-13,
-13,
-11,
-13,
-17,
-20,
-20,
-19,
-20,
-25,
-30,
-31,
-25,
-25,
-31,
-35,
-35,
-29,
-27,
-33,
-37,
-37,
-32,
-31,
-32,
-36,
-37,
-33,
-31,
-29,
-32,
-34,
-31,
-27,
-26,
-25,
-24,
-22,
-19,
-19,
-18,
-16,
-14,
-16,
-15,
-13,
-8,
-6,
-7,
-7,
-6,
1,
5,
7,
5,
7,
13,
17,
16,
13,
15,
19,
23,
21,
19,
20,
23,
27,
27,
25,
25,
29,
31,
31,
26,
28,
31,
32,
28,
25,
25,
28,
28,
25,
21,
22,
24,
25,
24,
15,
15,
18,
20,
18,
11,
9,
11,
13,
11,
5,
1,
0,
1,
0,
-4,
-9,
-11,
-11,
-9,
-12,
-16,
-20,
-20,
-20,
-19,
-20,
-22,
-28,
-29,
-27,
-25,
-27,
-31,
-36,
-37,
-29,
-30,
-36,
-41,
-40,
-32,
-31,
-32,
-37,
-40,
-35,
-31,
-28,
-32,
-37,
-35,
-26,
-22,
-27,
-32,
-30,
-25,
-20,
-18,
-22,
-23,
-19,
-12,
-8,
-10,
-10,
-7,
-4,
0,
1,
0,
1,
2,
5,
10,
10,
10,
11,
14,
17,
20,
20,
24,
23,
24,
26,
27,
27,
26,
28,
27,
31,
29,
28,
29,
28,
28,
30,
30,
31,
28,
29,
30,
27,
25,
25,
26,
24,
20,
17,
17,
17,
17,
12,
9,
10,
13,
12,
7,
1,
2,
4,
5,
-1,
-8,
-11,
-7,
-7,
-13,
-20,
-20,
-16,
-14,
-19,
-24,
-27,
-25,
-21,
-23,
-27,
-32,
-33,
-31,
-29,
-33,
-37,
-35,
-34,
-31,
-34,
-35,
-35,
-32,
-33,
-33,
-31,
-30,
-33,
-32,
-30,
-27,
-24,
-23,
-26,
-26,
-23,
-18,
-19,
-21,
-21,
-17,
-12,
-10,
-14,
-14,
-9,
-4,
-2,
-1,
-1,
1,
5,
7,
6,
6,
9,
14,
15,
13,
15,
18,
24,
24,
23,
24,
27,
31,
30,
28,
28,
31,
35,
34,
30,
25,
28,
33,
33,
26,
21,
24,
28,
28,
25,
19,
18,
22,
25,
21,
16,
12,
13,
16,
15,
8,
5,
3,
2,
2,
2,
0,
-4,
-7,
-7,
-5,
-5,
-8,
-16,
-17,
-13,
-12,
-17,
-23,
-28,
-26,
-22,
-23,
-29,
-35,
-34,
-27,
-25,
-31,
-39,
-40,
-34,
-29,
-35,
-40,
-41,
-37,
-33,
-34,
-38,
-39,
-37,
-32,
-29,
-32,
-33,
-30,
-25,
-22,
-22,
-23,
-21,
-18,
-17,
-14,
-13,
-13,
-11,
-7,
-6,
-6,
-3,
-2,
2,
4,
7,
8,
10,
10,
12,
14,
16,
17,
15,
17,
19,
19,
19,
20,
23,
26,
28,
28,
28,
28,
32,
33,
32,
28,
29,
33,
33,
32,
28,
26,
29,
32,
31,
27,
23,
22,
25,
29,
23,
15,
15,
19,
20,
16,
9,
7,
7,
10,
8,
1,
-4,
-5,
-4,
-4,
-6,
-13,
-17,
-13,
-13,
-15,
-20,
-23,
-22,
-22,
-22,
-25,
-28,
-29,
-31,
-31,
-29,
-30,
-34,
-35,
-36,
-34,
-32,
-32,
-32,
-35,
-35,
-32,
-29,
-31,
-34,
-33,
-30,
-27,
-29,
-31,
-30,
-29,
-25,
-23,
-25,
-23,
-21,
-17,
-15,
-16,
-13,
-8,
-7,
-7,
-6,
-3,
2,
3,
1,
3,
7,
12,
13,
12,
10,
14,
23,
25,
23,
20,
23,
30,
32,
27,
25,
25,
31,
34,
31,
27,
26,
28,
33,
33,
28,
25,
28,
30,
31,
26,
25,
25,
23,
23,
23,
18,
18,
15,
12,
15,
16,
15,
9,
6,
7,
10,
9,
3,
-3,
-4,
-1,
0,
-7,
-15,
-19,
-13,
-9,
-14,
-23,
-25,
-21,
-16,
-21,
-29,
-31,
-29,
-25,
-27,
-35,
-39,
-37,
-33,
-31,
-36,
-41,
-40,
-36,
-33,
-38,
-39,
-37,
-31,
-33,
-33,
-36,
-33,
-29,
-27,
-28,
-28,
-25,
-23,
-20,
-20,
-19,
-17,
-15,
-14,
-13,
-11,
-8,
-6,
-5,
-2,
1,
3,
3,
2,
5,
10,
12,
12,
10,
10,
17,
19,
19,
18,
17,
25,
31,
29,
26,
25,
27,
34,
35,
32,
30,
28,
33,
36,
33,
26,
27,
29,
33,
32,
25,
24,
24,
26,
27,
25,
20,
18,
19,
20,
19,
13,
9,
10,
9,
7,
4,
2,
0,
-1,
-1,
-3,
-5,
-7,
-9,
-10,
-9,
-10,
-15,
-16,
-19,
-21,
-21,
-21,
-25,
-27,
-27,
-26,
-26,
-28,
-31,
-33,
-30,
-28,
-31,
-35,
-35,
-35,
-35,
-34,
-35,
-35,
-36,
-34,
-32,
-32,
-32,
-30,
-29,
-29,
-27,
-23,
-21,
-20,
-23,
-22,
-17,
-14,
-12,
-12,
-13,
-12,
-5,
-1,
-1,
-4,
-2,
3,
11,
12,
9,
6,
11,
18,
18,
15,
14,
16,
19,
25,
22,
19,
21,
27,
32,
29,
27,
28,
28,
30,
31,
31,
31,
27,
28,
30,
29,
27,
26,
25,
24,
25,
25,
24,
18,
17,
20,
21,
18,
12,
8,
10,
15,
11,
2,
0,
0,
3,
0,
-5,
-10,
-10,
-7,
-7,
-12,
-18,
-18,
-15,
-14,
-19,
-25,
-24,
-21,
-23,
-30,
-33,
-32,
-27,
-26,
-32,
-35,
-37,
-32,
-30,
-32,
-36,
-36,
-32,
-29,
-31,
-35,
-34,
-32,
-30,
-29,
-30,
-30,
-29,
-27,
-27,
-25,
-23,
-22,
-22,
-21,
-16,
-12,
-10,
-12,
-12,
-7,
-2,
0,
-4,
-7,
-2,
5,
10,
6,
4,
6,
15,
19,
19,
15,
15,
21,
28,
28,
22,
20,
27,
32,
32,
28,
24,
26,
30,
32,
32,
27,
27,
31,
33,
32,
29,
28,
28,
27,
25,
25,
25,
22,
20,
18,
18,
19,
16,
13,
13,
13,
13,
11,
7,
4,
4,
5,
2,
-2,
-8,
-8,
-7,
-8,
-12,
-17,
-16,
-14,
-16,
-19,
-21,
-22,
-22,
-24,
-27,
-28,
-30,
-31,
-32,
-35,
-33,
-33,
-32,
-33,
-36,
-37,
-33,
-29,
-31,
-35,
-36,
-32,
-28,
-27,
-30,
-31,
-30,
-24,
-21,
-24,
-27,
-26,
-22,
-16,
-15,
-20,
-19,
-16,
-9,
-6,
-6,
-7,
-6,
-1,
4,
4,
2,
1,
6,
10,
12,
13,
12,
13,
17,
19,
24,
23,
22,
25,
26,
28,
28,
30,
29,
31,
32,
32,
32,
27,
26,
29,
31,
32,
27,
25,
26,
28,
27,
25,
23,
23,
23,
24,
21,
16,
15,
15,
17,
14,
6,
5,
6,
6,
2,
-3,
-3,
-1,
0,
-5,
-10,
-11,
-10,
-7,
-12,
-20,
-22,
-20,
-17,
-20,
-27,
-33,
-30,
-25,
-26,
-32,
-35,
-35,
-30,
-31,
-32,
-35,
-38,
-36,
-34,
-32,
-35,
-37,
-36,
-35,
-32,
-32,
-32,
-34,
-33,
-29,
-24,
-20,
-24,
-28,
-26,
-19,
-15,
-18,
-21,
-21,
-13,
-6,
-6,
-11,
-13,
-5,
3,
7,
4,
0,
4,
11,
15,
12,
10,
11,
16,
19,
18,
17,
17,
23,
26,
26,
26,
27,
29,
31,
28,
29,
32,
32,
29,
28,
29,
32,
30,
29,
28,
26,
27,
29,
26,
22,
21,
24,
26,
22,
17,
13,
17,
16,
13,
9,
8,
8,
8,
3,
-1,
-2,
-2,
-3,
-6,
-8,
-9,
-9,
-10,
-14,
-18,
-17,
-14,
-18,
-22,
-27,
-27,
-24,
-26,
-32,
-36,
-33,
-29,
-27,
-31,
-37,
-36,
-32,
-29,
-30,
-36,
-37,
-34,
-30,
-30,
-36,
-35,
-32,
-28,
-27,
-27,
-28,
-28,
-24,
-21,
-20,
-18,
-19,
-16,
-14,
-12,
-11,
-12,
-9,
-8,
-6,
-3,
0,
1,
1,
6,
8,
12,
12,
13,
13,
16,
17,
18,
18,
19,
20,
22,
24,
23,
24,
29,
31,
29,
29,
29,
31,
31,
31,
30,
28,
28,
31,
29,
27,
24,
25,
27,
27,
23,
17,
19,
21,
22,
17,
13,
11,
13,
15,
13,
5,
0,
1,
6,
4,
-2,
-9,
-8,
-6,
-6,
-11,
-16,
-19,
-16,
-14,
-15,
-20,
-24,
-24,
-22,
-22,
-26,
-32,
-33,
-32,
-30,
-31,
-34,
-37,
-38,
-37,
-33,
-30,
-33,
-39,
-37,
-31,
-28,
-31,
-35,
-37,
-31,
-24,
-23,
-28,
-32,
-31,
-23,
-19,
-22,
-25,
-22,
-15,
-10,
-12,
-15,
-13,
-7,
-1,
0,
-2,
-3,
1,
5,
7,
6,
7,
10,
13,
14,
13,
15,
19,
21,
20,
24,
24,
26,
28,
27,
25,
26,
30,
31,
28,
26,
27,
30,
32,
29,
27,
28,
32,
29,
27,
25,
25,
26,
25,
22,
19,
18,
19,
16,
12,
12,
13,
15,
8,
5,
3,
8,
6,
1,
-4,
-6,
-2,
-3,
-10,
-15,
-19,
-16,
-12,
-15,
-22,
-26,
-23,
-19,
-21,
-28,
-33,
-29,
-25,
-26,
-33,
-37,
-37,
-32,
-34,
-35,
-37,
-36,
-36,
-36,
-36,
-33,
-34,
-33,
-32,
-32,
-32,
-30,
-27,
-26,
-27,
-25,
-22,
-21,
-22,
-21,
-19,
-15,
-13,
-13,
-13,
-11,
-7,
-4,
-3,
-2,
1,
3,
6,
6,
6,
10,
14,
13,
12,
14,
18,
20,
20,
18,
19,
24,
29,
31,
26,
24,
28,
32,
34,
31,
25,
27,
32,
33,
29,
25,
24,
27,
31,
29,
23,
19,
21,
27,
26,
22,
15,
15,
18,
18,
15,
12,
7,
6,
9,
7,
3,
-4,
-6,
-4,
-1,
-3,
-9,
-13,
-14,
-12,
-11,
-13,
-19,
-22,
-22,
-20,
-21,
-26,
-33,
-33,
-28,
-25,
-30,
-35,
-38,
-35,
-31,
-30,
-33,
-38,
-38,
-34,
-30,
-33,
-39,
-40,
-35,
-31,
-29,
-32,
-35,
-29,
-25,
-24,
-25,
-24,
-22,
-19,
-16,
-17,
-20,
-14,
-12,
-9,
-9,
-9,
-6,
-4,
-3,
-1,
2,
5,
9,
11,
10,
10,
13,
17,
18,
16,
17,
18,
22,
23,
23,
24,
26,
27,
29,
30,
31,
32,
30,
30,
31,
31,
31,
30,
27,
26,
29,
28,
28,
25,
20,
24,
25,
22,
15,
13,
16,
20,
17,
11,
7,
7,
11,
12,
4,
-2,
-3,
1,
1,
-6,
-14,
-12,
-8,
-8,
-13,
-18,
-21,
-17,
-17,
-19,
-22,
-26,
-24,
-23,
-28,
-32,
-32,
-31,
-31,
-32,
-36,
-35,
-32,
-33,
-36,
-37,
-35,
-32,
-33,
-34,
-35,
-31,
-30,
-29,
-30,
-30,
-30,
-26,
-25,
-25,
-23,
-21,
-20,
-19,
-19,
-16,
-10,
-10,
-11,
-8,
-6,
0,
1,
-3,
-3,
2,
8,
10,
8,
4,
8,
15,
19,
18,
13,
17,
25,
28,
26,
24,
19,
26,
32,
31,
27,
23,
25,
31,
32,
28,
27,
26,
31,
33,
30,
28,
25,
24,
27,
27,
24,
20,
17,
17,
18,
17,
15,
11,
8,
10,
13,
12,
7,
1,
-1,
3,
4,
-1,
-8,
-12,
-9,
-7,
-11,
-15,
-21,
-19,
-17,
-17,
-21,
-26,
-27,
-23,
-23,
-28,
-34,
-33,
-30,
-30,
-33,
-36,
-37,
-35,
-34,
-34,
-37,
-36,
-34,
-34,
-33,
-34,
-35,
-32,
-29,
-29,
-28,
-29,
-27,
-23,
-23,
-22,
-22,
-21,
-17,
-15,
-15,
-15,
-13,
-10,
-6,
-4,
-5,
-2,
1,
3,
4,
7,
8,
8,
11,
14,
15,
15,
15,
17,
19,
22,
25,
25,
24,
24,
28,
30,
32,
27,
27,
30,
32,
33,
29,
26,
26,
29,
31,
29,
24,
22,
27,
30,
26,
20,
19,
22,
24,
22,
15,
13,
14,
15,
13,
7,
3,
2,
3,
2,
-1,
-5,
-5,
-3,
-6,
-10,
-12,
-11,
-11,
-15,
-19,
-19,
-19,
-20,
-24,
-30,
-29,
-25,
-25,
-29,
-31,
-34,
-33,
-31,
-31,
-33,
-36,
-35,
-32,
-35,
-36,
-35,
-35,
-35,
-35,
-33,
-30,
-30,
-31,
-31,
-29,
-23,
-21,
-22,
-25,
-22,
-17,
-13,
-15,
-20,
-17,
-10,
-4,
-5,
-12,
-12,
-3,
6,
7,
5,
1,
6,
15,
17,
14,
10,
12,
19,
23,
21,
17,
17,
22,
26,
29,
28,
25,
27,
30,
33,
32,
29,
29,
29,
32,
29,
31,
28,
26,
24,
28,
30,
27,
21,
17,
21,
23,
21,
17,
14,
14,
17,
15,
11,
5,
6,
9,
5,
2,
-5,
-7,
-3,
-3,
-8,
-15,
-14,
-13,
-12,
-17,
-19,
-21,
-20,
-20,
-23,
-28,
-30,
-31,
-28,
-30,
-33,
-34,
-34,
-31,
-32,
-38,
-37,
-35,
-31,
-33,
-33,
-37,
-35,
-31,
-31,
-30,
-32,
-33,
-30,
-28,
-28,
-27,
-27,
-25,
-22,
-20,
-18,
-17,
-17,
-16,
-11,
-7,
-6,
-6,
-6,
-3,
1,
3,
3,
2,
3,
8,
13,
14,
12,
12,
16,
22,
23,
23,
20,
22,
26,
28,
28,
24,
23,
29,
30,
32,
27,
27,
29,
32,
32,
29,
28,
28,
29,
29,
29,
25,
24,
25,
24,
19,
17,
17,
17,
16,
13,
11,
11,
12,
9,
5,
3,
3,
4,
0,
-5,
-8,
-8,
-9,
-10,
-15,
-18,
-17,
-16,
-16,
-20,
-23,
-23,
-23,
-22,
-25,
-30,
-31,
-31,
-33,
-32,
-32,
-33,
-36,
-37,
-37,
-32,
-34,
-35,
-37,
-37,
-33,
-27,
-30,
-35,
-36,
-30,
-24,
-23,
-29,
-32,
-27,
-19,
-17,
-21,
-26,
-22,
-13,
-8,
-8,
-14,
-14,
-4,
2,
3,
-1,
-2,
3,
9,
10,
9,
7,
10,
13,
16,
16,
17,
18,
21,
24,
25,
27,
27,
27,
26,
29,
33,
32,
28,
28,
28,
32,
32,
28,
27,
26,
28,
31,
28,
23,
23,
27,
27,
24,
18,
16,
21,
22,
18,
11,
10,
11,
12,
7,
0,
0,
2,
5,
1,
-6,
-11,
-7,
-5,
-6,
-14,
-19,
-16,
-13,
-16,
-24,
-27,
-26,
-22,
-23,
-29,
-32,
-33,
-31,
-29,
-30,
-33,
-36,
-34,
-32,
-32,
-36,
-35,
-37,
-35,
-35,
-33,
-31,
-33,
-35,
-32,
-28,
-25,
-26,
-27,
-25,
-22,
-18,
-17,
-21,
-22,
-17,
-12,
-9,
-13,
-14,
-10,
-4,
0,
-1,
-2,
1,
6,
11,
11,
8,
9,
12,
17,
18,
17,
15,
18,
20,
21,
23,
26,
26,
27,
28,
28,
31,
31,
30,
31,
29,
28,
31,
31,
30,
26,
27,
28,
31,
25,
23,
21,
23,
24,
23,
19,
15,
15,
17,
16,
13,
9,
5,
6,
8,
5,
-1,
-3,
-5,
-5,
-5,
-6,
-9,
-13,
-14,
-13,
-13,
-17,
-20,
-22,
-22,
-21,
-23,
-27,
-31,
-32,
-29,
-29,
-29,
-35,
-39,
-35,
-29,
-30,
-36,
-39,
-38,
-31,
-31,
-33,
-38,
-38,
-32,
-25,
-27,
-32,
-36,
-31,
-23,
-21,
-25,
-26,
-22,
-18,
-15,
-14,
-15,
-12,
-7,
-6,
-4,
-4,
-4,
0,
2,
2,
3,
6,
8,
10,
10,
15,
16,
18,
20,
19,
22,
25,
25,
25,
24,
25,
29,
29,
28,
26,
29,
32,
32,
27,
28,
31,
34,
33,
28,
26,
28,
31,
28,
25,
19,
20,
26,
23,
16,
12,
13,
19,
19,
10,
4,
7,
10,
12,
5,
-4,
-6,
-3,
0,
-6,
-14,
-15,
-12,
-11,
-12,
-18,
-22,
-20,
-18,
-20,
-23,
-24,
-27,
-27,
-31,
-29,
-29,
-33,
-36,
-36,
-32,
-31,
-33,
-37,
-37,
-33,
-31,
-29,
-32,
-37,
-35,
-29,
-25,
-27,
-33,
-31,
-25,
-20,
-22,
-26,
-26,
-20,
-14,
-14,
-16,
-17,
-11,
-7,
-5,
-5,
-5,
-2,
3,
2,
2,
6,
7,
11,
9,
10,
13,
16,
17,
18,
18,
20,
25,
28,
26,
25,
26,
30,
34,
29,
28,
28,
27,
32,
30,
28,
27,
27,
30,
31,
31,
27,
25,
27,
26,
25,
21,
22,
17,
17,
17,
15,
13,
11,
8,
8,
10,
8,
5,
1,
0,
4,
1,
-3,
-10,
-14,
-11,
-8,
-13,
-19,
-23,
-22,
-16,
-18,
-25,
-29,
-28,
-23,
-22,
-26,
-33,
-33,
-32,
-31,
-30,
-37,
-39,
-36,
-32,
-31,
-36,
-38,
-37,
-32,
-31,
-31,
-32,
-32,
-29,
-29,
-27,
-27,
-26,
-23,
-21,
-21,
-20,
-18,
-16,
-14,
-13,
-12,
-9,
-8,
-4,
-2,
-1,
2,
3,
5,
8,
9,
9,
11,
12,
14,
17,
17,
19,
18,
17,
23,
26,
24,
27,
26,
29,
33,
30,
30,
27,
29,
33,
33,
28,
23,
26,
30,
33,
27,
19,
20,
25,
28,
25,
19,
16,
20,
24,
22,
15,
10,
12,
13,
14,
7,
-1,
1,
3,
2,
-3,
-5,
-8,
-7,
-7,
-9,
-11,
-14,
-17,
-18,
-19,
-19,
-20,
-24,
-29,
-29,
-27,
-24,
-28,
-34,
-35,
-31,
-27,
-30,
-36,
-38,
-34,
-30,
-32,
-35,
-38,
-35,
-31,
-31,
-31,
-35,
-34,
-27,
-26,
-26,
-26,
-25,
-21,
-18,
-20,
-19,
-16,
-14,
-14,
-14,
-13,
-8,
-5,
-4,
-6,
-6,
1,
6,
7,
4,
5,
11,
16,
16,
13,
14,
16,
22,
24,
20,
20,
21,
25,
28,
27,
26,
29,
30,
32,
29,
29,
32,
31,
28,
29,
30,
28,
27,
25,
24,
26,
27,
25,
19,
17,
20,
22,
21,
15,
11,
13,
15,
15,
7,
1,
2,
5,
6,
-1,
-6,
-9,
-7,
-5,
-9,
-15,
-18,
-15,
-13,
-15,
-22,
-25,
-22,
-21,
-23,
-28,
-31,
-30,
-29,
-32,
-32,
-34,
-35,
-34,
-35,
-36,
-35,
-36,
-34,
-32,
-33,
-35,
-34,
-32,
-31,
-29,
-30,
-30,
-28,
-27,
-24,
-23,
-25,
-23,
-21,
-17,
-15,
-17,
-14,
-13,
-10,
-5,
-2,
-3,
-3,
-1,
2,
5,
5,
4,
5,
10,
16,
15,
13,
12,
17,
25,
27,
24,
20,
21,
28,
32,
31,
25,
23,
27,
33,
31,
27,
24,
26,
33,
35,
31,
25,
25,
30,
31,
28,
23,
20,
22,
23,
20,
17,
14,
12,
14,
14,
11,
9,
6,
5,
5,
3,
1,
0,
-4,
-6,
-7,
-5,
-9,
-16,
-19,
-17,
-13,
-16,
-23,
-25,
-25,
-22,
-21,
-25,
-30,
-30,
-28,
-27,
-30,
-36,
-37,
-33,
-32,
-34,
-38,
-37,
-35,
-32,
-35,
-36,
-32,
-29,
-31,
-32,
-32,
-28,
-24,
-22,
-26,
-27,
-23,
-18,
-16,
-19,
-21,
-17,
-11,
-8,
-11,
-10,
-9,
-3,
2,
2,
2,
2,
6,
11,
11,
9,
10,
13,
15,
16,
17,
18,
20,
21,
24,
26,
27,
28,
27,
25,
28,
33,
32,
31,
26,
27,
31,
33,
30,
24,
25,
29,
32,
26,
20,
19,
24,
27,
24,
19,
16,
17,
18,
16,
10,
7,
9,
10,
7,
0,
-3,
0,
0,
-2,
-7,
-10,
-8,
-7,
-11,
-15,
-18,
-17,
-16,
-20,
-25,
-27,
-26,
-23,
-25,
-31,
-34,
-32,
-30,
-29,
-33,
-35,
-35,
-35,
-34,
-34,
-35,
-34,
-38,
-36,
-32,
-32,
-33,
-33,
-34,
-31,
-25,
-24,
-25,
-27,
-23,
-18,
-14,
-18,
-21,
-21,
-14,
-7,
-7,
-10,
-13,
-10,
-1,
3,
2,
-1,
1,
8,
15,
14,
9,
8,
13,
20,
20,
18,
15,
18,
24,
27,
25,
22,
24,
29,
32,
33,
29,
27,
29,
32,
32,
32,
28,
26,
28,
30,
31,
27,
25,
25,
23,
23,
22,
21,
18,
17,
17,
18,
15,
10,
8,
9,
10,
7,
2,
0,
-2,
-2,
-5,
-7,
-10,
-12,
-12,
-12,
-14,
-18,
-19,
-19,
-19,
-21,
-25,
-25,
-26,
-25,
-31,
-35,
-31,
-30,
-32,
-34,
-38,
-36,
-34,
-31,
-33,
-38,
-37,
-33,
-30,
-31,
-36,
-36,
-31,
-26,
-27,
-31,
-31,
-28,
-23,
-21,
-22,
-24,
-20,
-16,
-13,
-14,
-14,
-9,
-6,
-4,
-3,
-3,
0,
0,
1,
5,
6,
10,
9,
10,
12,
15,
18,
19,
19,
20,
23,
27,
27,
24,
24,
27,
31,
31,
28,
25,
27,
32,
31,
31,
27,
26,
32,
32,
28,
25,
26,
29,
26,
22,
17,
19,
23,
19,
13,
11,
13,
18,
14,
9,
4,
4,
7,
8,
2,
-5,
-7,
-4,
-4,
-10,
-16,
-16,
-13,
-14,
-17,
-22,
-22,
-21,
-22,
-21,
-25,
-27,
-31,
-30,
-28,
-29,
-32,
-34,
-36,
-37,
-33,
-31,
-36,
-37,
-39,
-34,
-28,
-29,
-36,
-38,
-35,
-26,
-25,
-31,
-35,
-31,
-23,
-18,
-21,
-28,
-25,
-18,
-10,
-12,
-18,
-19,
-10,
-3,
-2,
-3,
-4,
0,
4,
9,
7,
6,
7,
10,
14,
15,
15,
15,
16,
18,
20,
25,
24,
24,
25,
27,
31,
30,
29,
27,
28,
31,
31,
31,
27,
25,
28,
31,
29,
26,
25,
26,
27,
26,
25,
22,
22,
22,
19,
18,
15,
14,
14,
13,
9,
3,
2,
3,
2,
0,
-4,
-4,
-3,
-6,
-11,
-13,
-12,
-12,
-14,
-17,
-22,
-25,
-22,
-21,
-25,
-29,
-33,
-29,
-26,
-28,
-32,
-37,
-35,
-31,
-31,
-33,
-37,
-36,
-35,
-33,
-35,
-37,
-37,
-34,
-30,
-30,
-33,
-32,
-29,
-26,
-25,
-22,
-21,
-22,
-22,
-21,
-17,
-16,
-15,
-15,
-13,
-12,
-7,
-5,
-5,
-4,
-1,
5,
7,
8,
7,
9,
13,
16,
15,
14,
15,
18,
20,
20,
21,
22,
25,
29,
27,
26,
28,
30,
32,
29,
28,
31,
32,
32,
27,
23,
26,
29,
30,
28,
21,
20,
25,
28,
23,
16,
15,
19,
22,
18,
9,
6,
9,
13,
11,
5,
-1,
0,
1,
-1,
-4,
-8,
-11,
-9,
-9,
-12,
-15,
-18,
-19,
-19,
-20,
-19,
-21,
-27,
-31,
-32,
-27,
-26,
-35,
-38,
-37,
-30,
-29,
-34,
-40,
-41,
-35,
-26,
-28,
-38,
-41,
-34,
-26,
-26,
-35,
-37,
-32,
-25,
-23,
-27,
-29,
-27,
-21,
-16,
-17,
-20,
-17,
-14,
-9,
-8,
-8,
-7,
-5,
-3,
-3,
1,
2,
3,
5,
6,
9,
11,
14,
14,
16,
18,
23,
25,
23,
21,
23,
27,
27,
26,
25,
26,
31,
30,
29,
29,
31,
32,
32,
30,
28,
28,
31,
31,
26,
23,
25,
27,
24,
18,
14,
15,
19,
18,
13,
10,
10,
12,
12,
7,
2,
0,
1,
3,
-1,
-8,
-12,
-10,
-9,
-11,
-16,
-18,
-19,
-17,
-20,
-21,
-25,
-26,
-25,
-24,
-27,
-30,
-31,
-34,
-32,
-32,
-34,
-34,
-37,
-37,
-37,
-35,
-32,
-33,
-36,
-36,
-31,
-30,
-33,
-32,
-31,
-28,
-26,
-24,
-26,
-27,
-24,
-23,
-20,
-18,
-19,
-16,
-14,
-10,
-9,
-8,
-5,
-4,
-1,
2,
3,
3,
6,
8,
7,
9,
11,
13,
15,
14,
15,
19,
24,
26,
25,
24,
24,
27,
31,
30,
26,
25,
30,
34,
32,
25,
25,
28,
33,
32,
26,
24,
24,
27,
29,
28,
22,
19,
20,
24,
23,
16,
13,
13,
14,
14,
9,
4,
1,
1,
2,
2,
0,
-4,
-7,
-7,
-4,
-7,
-13,
-17,
-19,
-16,
-15,
-18,
-27,
-30,
-28,
-32,
