5-grundlagen-opAmps/data/ALL0070/A0070CH1.CSV

Memory Length,4000,
Trigger Level,-1.00000e+01,
Source,CH1,
Probe,1.0X,
Vertical Units,V,
Vertical Scale,5.00000e-02,
Vertical Position,0.00000e+00,
Horizontal Units,S,
Horizontal Scale,1.00000e-02,
Horizontal Position,0.0000000e+00,
Horizontal Mode,Main,
Sampling Period,4.00000e-05,
Firmware,V1.14,
Time, ,
Mode,Fast,
Waveform Data,
4,
4,
19,
8,
19,
9,
20,
14,
14,
16,
3,
11,
24,
15,
15,
19,
7,
19,
8,
21,
9,
16,
29,
22,
11,
22,
22,
31,
14,
23,
23,
32,
15,
19,
36,
28,
16,
24,
38,
25,
38,
29,
29,
35,
21,
28,
42,
27,
43,
29,
44,
39,
24,
37,
25,
34,
34,
35,
35,
37,
48,
41,
28,
32,
50,
40,
40,
37,
50,
44,
31,
37,
52,
36,
52,
41,
52,
37,
52,
51,
34,
47,
36,
42,
54,
50,
35,
43,
55,
42,
55,
48,
36,
46,
46,
45,
56,
43,
54,
50,
38,
49,
38,
40,
57,
47,
47,
43,
56,
44,
56,
53,
38,
45,
59,
45,
57,
41,
57,
42,
56,
50,
38,
49,
36,
44,
58,
49,
36,
46,
46,
42,
56,
44,
44,
36,
53,
43,
43,
50,
33,
40,
53,
49,
33,
40,
52,
40,
52,
39,
51,
41,
41,
48,
28,
43,
30,
39,
39,
35,
35,
33,
46,
40,
26,
37,
26,
37,
24,
33,
44,
35,
23,
28,
41,
38,
23,
29,
40,
27,
27,
29,
18,
25,
36,
21,
35,
21,
35,
24,
24,
25,
12,
22,
22,
22,
22,
24,
11,
23,
8,
15,
27,
13,
24,
12,
25,
21,
6,
12,
12,
16,
1,
13,
0,
8,
19,
2,
18,
10,
-3,
4,
15,
3,
3,
6,
-7,
0,
11,
1,
-11,
0,
-11,
1,
-11,
-3,
-14,
-4,
-16,
1,
-15,
-11,
1,
-13,
1,
-12,
-1,
-10,
-10,
-9,
-22,
-8,
-24,
-14,
-26,
-18,
-6,
-21,
-8,
-16,
-30,
-17,
-29,
-20,
-32,
-25,
-13,
-19,
-32,
-23,
-23,
-25,
-25,
-24,
-35,
-26,
-26,
-28,
-39,
-31,
-20,
-31,
-31,
-31,
-42,
-31,
-43,
-30,
-44,
-39,
-23,
-33,
-46,
-33,
-46,
-35,
-47,
-40,
-28,
-41,
-29,
-47,
-31,
-38,
-49,
-39,
-51,
-38,
-53,
-40,
-52,
-45,
-45,
-35,
-54,
-50,
-36,
-47,
-36,
-47,
-36,
-43,
-56,
-45,
-57,
-49,
-49,
-53,
-38,
-43,
-61,
-52,
-41,
-51,
-51,
-49,
-61,
-55,
-41,
-54,
-43,
-52,
-52,
-57,
-41,
-55,
-42,
-51,
-62,
-55,
-44,
-52,
-52,
-48,
-63,
-46,
-61,
-48,
-64,
-45,
-62,
-57,
-42,
-51,
-62,
-53,
-53,
-53,
-53,
-59,
-42,
-52,
-52,
-47,
-61,
-46,
-62,
-49,
-60,
-48,
-60,
-48,
-60,
-55,
-42,
-49,
-49,
-48,
-59,
-47,
-59,
-40,
-58,
-44,
-57,
-48,
-48,
-43,
-56,
-43,
-56,
-47,
-47,
-43,
-54,
-41,
-54,
-40,
-52,
-43,
-43,
-41,
-41,
-41,
-41,
-47,
-32,
-46,
-32,
-48,
-29,
-36,
-48,
-34,
-49,
-35,
-35,
-37,
-25,
-33,
-33,
-34,
-34,
-28,
-42,
-35,
-22,
-33,
-19,
-32,
-19,
-27,
-27,
-22,
-37,
-31,
-17,
-29,
-16,
-24,
-35,
-17,
-33,
-23,
-11,
-25,
-11,
-12,
-29,
-16,
-29,
-15,
-26,
-16,
-5,
-15,
-15,
-9,
-22,
-19,
-3,
-14,
0,
-13,
0,
-11,
0,
-4,
-18,
-9,
4,
-9,
7,
-4,
-4,
-8,
8,
-4,
9,
-2,
11,
3,
-8,
9,
-7,
9,
-3,
3,
17,
3,
15,
11,
0,
14,
0,
9,
20,
8,
21,
14,
3,
6,
25,
12,
24,
19,
8,
17,
17,
17,
30,
18,
30,
25,
11,
20,
33,
25,
14,
28,
15,
25,
36,
23,
37,
26,
37,
22,
38,
31,
18,
26,
39,
32,
20,
31,
43,
37,
23,
30,
45,
30,
45,
32,
45,
34,
45,
32,
46,
37,
37,
31,
48,
39,
39,
33,
48,
43,
31,
48,
31,
41,
41,
43,
43,
37,
53,
41,
53,
41,
54,
45,
34,
39,
54,
47,
36,
46,
46,
51,
36,
50,
37,
42,
56,
40,
56,
49,
37,
51,
37,
40,
59,
47,
47,
49,
37,
49,
38,
54,
38,
48,
48,
46,
46,
41,
56,
46,
57,
52,
37,
44,
55,
48,
48,
44,
55,
51,
37,
46,
34,
45,
57,
47,
35,
40,
54,
45,
45,
44,
44,
44,
44,
51,
31,
40,
52,
44,
32,
41,
41,
35,
51,
35,
48,
40,
28,
38,
38,
36,
47,
36,
48,
37,
37,
32,
46,
34,
46,
29,
44,
27,
43,
32,
21,
30,
30,
29,
40,
28,
39,
21,
39,
33,
17,
24,
35,
18,
36,
29,
15,
19,
32,
27,
12,
18,
30,
22,
9,
18,
29,
21,
7,
23,
7,
14,
25,
12,
12,
14,
14,
7,
21,
14,
0,
7,
7,
13,
-2,
3,
15,
5,
16,
9,
-5,
3,
3,
4,
-8,
-4,
9,
1,
-11,
-4,
9,
1,
-15,
-8,
4,
-7,
5,
-3,
-18,
-12,
0,
-9,
-22,
-11,
-11,
-15,
-4,
-15,
-4,
-16,
-5,
-9,
-23,
-19,
-7,
-14,
-27,
-17,
-28,
-21,
-21,
-22,
-22,
-20,
-33,
-24,
-24,
-23,
-35,
-29,
-18,
-30,
-16,
-27,
-39,
-30,
-30,
-29,
-29,
-34,
-20,
-37,
-24,
-33,
-33,
-32,
-44,
-43,
-27,
-30,
-47,
-38,
-27,
-43,
-30,
-36,
-47,
-43,
-32,
-44,
-32,
-48,
-32,
-43,
-43,
-43,
-43,
-40,
-53,
-51,
-35,
-47,
-47,
-41,
-56,
-53,
-37,
-45,
-57,
-48,
-48,
-49,
-37,
-38,
-61,
-48,
-48,
-48,
-60,
-57,
-42,
-56,
-41,
-51,
-51,
-51,
-51,
-56,
-43,
-55,
-41,
-55,
-43,
-44,
-63,
-59,
-43,
-58,
-43,
-55,
-42,
-52,
-52,
-55,
-43,
-56,
-45,
-57,
-43,
-51,
-62,
-47,
-64,
-58,
-42,
-43,
-61,
-55,
-43,
-53,
-41,
-45,
-61,
-55,
-42,
-45,
-61,
-45,
-60,
-45,
-59,
-53,
-40,
-44,
-59,
-53,
-40,
-50,
-37,
-47,
-58,
-44,
-57,
-46,
-46,
-51,
-37,
-43,
-54,
-43,
-55,
-42,
-54,
-49,
-35,
-47,
-34,
-43,
-32,
-40,
-51,
-43,
-31,
-43,
-30,
-42,
-30,
-36,
-48,
-41,
-27,
-38,
-25,
-43,
-27,
-37,
-25,
-36,
-22,
-32,
-32,
-36,
-22,
-31,
-20,
-31,
-20,
-25,
-38,
-30,
-17,
-26,
-26,
-20,
-35,
-21,
-34,
-23,
-23,
-23,
-11,
-24,
-9,
-16,
-28,
-19,
-8,
-17,
-17,
-15,
-15,
-15,
-4,
-20,
-3,
-9,
-21,
-9,
-20,
-8,
-8,
-5,
-17,
0,
-18,
-6,
-6,
-2,
-13,
-8,
7,
0,
0,
3,
-9,
-4,
11,
7,
-7,
-1,
12,
-1,
15,
3,
15,
7,
7,
1,
18,
16,
0,
12,
0,
8,
21,
13,
13,
17,
5,
12,
25,
17,
6,
16,
27,
15,
29,
24,
11,
28,
11,
14,
32,
24,
24,
22,
36,
27,
16,
23,
36,
31,
17,
28,
28,
22,
40,
29,
29,
35,
21,
34,
22,
30,
42,
30,
43,
35,
35,
38,
27,
32,
45,
41,
27,
40,
28,
45,
29,
38,
49,
44,
30,
42,
31,
42,
42,
48,
31,
46,
33,
45,
45,
43,
43,
43,
54,
43,
43,
41,
55,
48,
36,
51,
36,
40,
55,
45,
45,
52,
37,
49,
37,
44,
57,
45,
58,
45,
56,
40,
56,
49,
49,
50,
38,
51,
38,
52,
38,
46,
58,
46,
58,
53,
37,
53,
37,
48,
48,
50,
38,
42,
56,
47,
47,
49,
37,
44,
44,
44,
55,
36,
53,
47,
34,
47,
33,
44,
33,
41,
53,
45,
31,
41,
52,
37,
49,
48,
31,
40,
29,
42,
29,
34,
49,
37,
37,
42,
27,
43,
27,
33,
45,
35,
35,
28,
44,
36,
22,
43,
21,
27,
41,
23,
41,
23,
38,
33,
18,
20,
37,
28,
17,
20,
34,
19,
34,
25,
13,
29,
11,
12,
31,
21,
8,
21,
9,
12,
27,
16,
27,
19,
5,
17,
4,
9,
22,
8,
22,
14,
0,
8,
8,
4,
17,
4,
15,
8,
-3,
10,
-6,
5,
-7,
6,
-8,
-2,
9,
-1,
-12,
-1,
-12,
-11,
6,
-1,
-15,
-13,
3,
-9,
3,
-7,
-7,
-12,
-1,
-4,
-23,
-12,
-23,
-12,
-23,
-19,
-4,
-19,
-7,
-20,
-9,
-16,
-29,
-25,
-11,
-19,
-31,
-22,
-22,
-22,
-22,
-20,
-36,
-21,
-35,
-27,
-16,
-25,
-38,
-26,
-37,
-23,
-40,
-30,
-41,
-30,
-30,
-32,
-32,
-35,
-24,
-40,
-26,
-41,
-25,
-41,
-26,
-43,
-28,
-42,
-29,
-37,
-50,
-36,
-49,
-47,
-32,
-38,
-51,
-47,
-33,
-44,
-31,
-42,
-53,
-48,
-35,
-51,
-36,
-39,
-56,
-43,
-55,
-49,
-38,
-43,
-57,
-47,
-58,
-55,
-41,
-43,
-59,
-49,
-49,
-51,
-39,
-52,
-40,
-44,
-61,
-50,
-50,
-50,
-50,
-50,
-61,
-48,
-63,
-49,
-62,
-52,
-52,
-56,
-45,
-51,
-63,
-51,
-51,
-55,
-44,
-48,
-61,
-49,
-63,
-47,
-61,
-57,
-43,
-57,
-43,
-55,
-43,
-58,
-43,
-43,
-62,
-51,
-51,
-50,
-50,
-56,
-42,
-50,
-61,
-46,
-60,
-55,
-42,
-46,
-60,
-52,
-39,
-55,
-39,
-47,
-47,
-48,
-48,
-51,
-38,
-51,
-37,
-46,
-35,
-49,
-36,
-41,
-54,
-42,
-53,
-44,
-33,
-43,
-43,
-49,
-33,
-44,
-30,
-43,
-31,
-32,
-49,
-36,
-47,
-39,
-27,
-33,
-46,
-38,
-27,
-32,
-45,
-32,
-32,
-33,
-33,
-34,
-23,
-27,
-39,
-29,
-29,
-23,
-38,
-39,
-16,
-26,
-15,
-23,
-35,
-26,
-15,
-24,
-12,
-25,
-13,
-18,
-29,
-20,
-20,
-19,
-8,
-27,
-5,
-15,
-15,
-12,
-24,
-16,
-4,
-15,
-2,
-9,
-9,
-13,
1,
-11,
1,
-15,
3,
-4,
-15,
-2,
-13,
-2,
-2,
-3,
-3,
2,
-10,
6,
-9,
0,
12,
3,
3,
0,
14,
3,
15,
7,
7,
9,
9,
5,
20,
13,
0,
15,
2,
13,
13,
9,
23,
17,
6,
17,
17,
16,
28,
9,
27,
12,
30,
17,
30,
22,
33,
29,
15,
17,
34,
25,
25,
31,
16,
28,
28,
24,
38,
36,
20,
29,
40,
30,
41,
33,
44,
33,
33,
32,
44,
37,
26,
36,
36,
38,
27,
38,
38,
41,
29,
44,
29,
34,
48,
31,
49,
43,
32,
35,
49,
35,
52,
45,
33,
45,
33,
41,
53,
44,
44,
44,
44,
48,
34,
49,
36,
49,
37,
45,
56,
45,
45,
42,
56,
43,
57,
49,
37,
48,
36,
52,
37,
44,
57,
49,
38,
45,
59,
45,
57,
44,
57,
49,
37,
42,
57,
47,
58,
51,
37,
52,
37,
47,
47,
43,
55,
44,
44,
41,
56,
47,
35,
45,
45,
45,
45,
45,
45,
45,
45,
41,
54,
45,
33,
37,
52,
38,
52,
39,
50,
39,
51,
38,
49,
48,
29,
39,
39,
36,
48,
43,
27,
34,
45,
33,
45,
40,
26,
34,
45,
26,
43,
36,
23,
32,
21,
32,
20,
31,
20,
37,
19,
36,
17,
32,
17,
28,
15,
17,
35,
21,
32,
24,
12,
24,
12,
17,
28,
13,
29,
19,
8,
19,
5,
19,
3,
24,
2,
18,
4,
10,
21,
16,
1,
6,
19,
7,
7,
4,
16,
2,
15,
9,
-5,
2,
14,
-4,
11,
2,
-11,
4,
-11,
0,
-12,
-1,
-13,
-9,
5,
-8,
4,
-10,
3,
-3,
-18,
-8,
-20,
-12,
-12,
-14,
-3,
-15,
-4,
-11,
-24,
-13,
-27,
-20,
-7,
-17,
-28,
-26,
-11,
-14,
-32,
-24,
-13,
-24,
-24,
-20,
-35,
-24,
-24,
-26,
-26,
-29,
-17,
-27,
-40,
-27,
-39,
-33,
-21,
-29,
-41,
-29,
-42,
-33,
-33,
-30,
-44,
-33,
-47,
-35,
-46,
-43,
-30,
-44,
-29,
-41,
-29,
-40,
-40,
-36,
-51,
-40,
-51,
-44,
-33,
-38,
-52,
-38,
-54,
-44,
-55,
-47,
-35,
-47,
-36,
-50,
-37,
-44,
-56,
-44,
-57,
-52,
-39,
-45,
-60,
-52,
-39,
-50,
-50,
-53,
-42,
-47,
-60,
-48,
-61,
-55,
-41,
-49,
-60,
-49,
-49,
-55,
-43,
-44,
-62,
-52,
-52,
-55,
-42,
-52,
-52,
-51,
-51,
-53,
-42,
-49,
-62,
-55,
-43,
-45,
-63,
-52,
-63,
-48,
-61,
-55,
-43,
-53,
-53,
-48,
-62,
-52,
-52,
-59,
-43,
-49,
-60,
-53,
-41,
-51,
-51,
-54,
-41,
-48,
-59,
-47,
-59,
-49,
-49,
-46,
-59,
-48,
-48,
-49,
-37,
-52,
-35,
-43,
-43,
-42,
-53,
-48,
-35,
-41,
-52,
-44,
-33,
-51,
-32,
-42,
-29,
-36,
-51,
-37,
-48,
-43,
-30,
-39,
-27,
-40,
-28,
-33,
-48,
-32,
-44,
-28,
-44,
-28,
-43,
-40,
-23,
-39,
-21,
-35,
-23,
-27,
-39,
-28,
-28,
-24,
-38,
-32,
-16,
-28,
-15,
-30,
-15,
-20,
-31,
-26,
-12,
-17,
-29,
-17,
-30,
-19,
-7,
-16,
-16,
-14,
-14,
-16,
-4,
-15,
-2,
-9,
-23,
-7,
-19,
-8,
-8,
-7,
-7,
-6,
-6,
0,
-14,
-3,
-14,
4,
-11,
-2,
-2,
-3,
10,
2,
-9,
4,
-7,
6,
-6,
3,
3,
1,
15,
5,
18,
6,
18,
9,
9,
12,
12,
15,
1,
17,
4,
13,
13,
10,
25,
7,
27,
17,
28,
14,
27,
19,
19,
25,
12,
21,
33,
20,
33,
23,
34,
31,
17,
20,
37,
22,
36,
29,
17,
33,
20,
29,
29,
31,
31,
37,
22,
28,
43,
28,
43,
29,
45,
40,
27,
32,
46,
34,
45,
37,
37,
42,
29,
42,
30,
37,
50,
37,
51,
51,
31,
44,
31,
36,
51,
41,
53,
48,
33,
50,
35,
41,
54,
41,
53,
44,
55,
47,
34,
40,
55,
45,
56,
47,
47,
47,
47,
43,
56,
45,
57,
43,
57,
43,
57,
45,
57,
52,
37,
47,
47,
42,
58,
44,
57,
50,
38,
45,
57,
51,
36,
52,
39,
48,
48,
45,
56,
43,
55,
41,
55,
40,
55,
44,
44,
50,
35,
41,
53,
45,
45,
40,
53,
45,
34,
41,
52,
44,
32,
43,
31,
45,
31,
39,
50,
37,
49,
38,
38,
34,
47,
42,
27,
36,
36,
33,
45,
36,
24,
34,
34,
33,
22,
27,
43,
28,
41,
32,
21,
31,
17,
29,
29,
26,
38,
29,
16,
24,
24,
29,
15,
25,
14,
23,
11,
20,
31,
18,
31,
21,
8,
18,
18,
15,
27,
17,
5,
18,
5,
8,
22,
14,
2,
12,
0,
12,
0,
6,
17,
5,
16,
1,
15,
3,
14,
4,
-9,
-1,
12,
-6,
11,
2,
-10,
-3,
8,
0,
-12,
-4,
-4,
-3,
-15,
-14,
3,
-3,
-19,
-8,
-19,
-8,
-20,
-20,
-2,
-8,
-23,
-10,
-23,
-10,
-24,
-23,
-8,
-15,
-28,
-22,
-11,
-14,
-31,
-17,
-32,
-24,
-13,
-23,
-34,
-25,
-36,
-32,
-15,
-27,
-27,
-27,
-38,
-35,
-20,
-36,
-23,
-36,
-24,
-30,
-41,
-30,
-44,
-31,
-44,
-42,
-24,
-35,
-46,
-30,
-47,
-33,
-48,
-43,
-29,
-46,
-32,
-35,
-52,
-43,
-43,
-46,
-33,
-48,
-32,
-49,
-34,
-41,
-53,
-43,
-54,
-47,
-36,
-45,
-57,
-47,
-47,
-53,
-37,
-46,
-60,
-55,
-40,
-45,
-59,
-58,
-39,
-55,
-39,
-52,
-40,
-54,
-42,
-51,
-51,
-44,
-60,
-46,
-62,
-55,
-42,
-48,
-61,
-55,
-43,
-57,
-42,
-54,
-43,
-51,
-62,
-57,
-42,
-57,
-44,
-51,
-63,
-55,
-43,
-55,
-43,
-48,
-61,
-47,
-61,
-49,
-61,
-56,
-43,
-52,
-52,
-53,
-41,
-49,
-49,
-56,
-41,
-55,
-41,
-47,
-61,
-43,
-59,
-53,
-39,
-47,
-59,
-50,
-38,
-48,
-37,
-47,
-47,
-44,
-56,
-48,
-36,
-45,
-45,
-45,
-45,
-43,
-43,
-40,
-52,
-41,
-41,
-41,
-41,
-43,
-32,
-47,
-31,
-36,
-48,
-41,
-27,
-37,
-48,
-40,
-28,
-42,
-26,
-37,
-26,
-31,
-42,
-35,
-21,
-35,
-21,
-37,
-20,
-32,
-21,
-22,
-37,
-32,
-19,
-26,
-26,
-23,
-34,
-27,
-15,
-28,
-12,
-23,
-12,
-17,
-31,
-17,
-29,
-16,
-27,
-19,
-7,
-18,
-6,
-19,
-5,
-17,
-4,
-15,
-4,
-7,
-21,
-8,
-19,
-13,
1,
-8,
-8,
-4,
-4,
-6,
-6,
-11,
5,
-1,
-1,
-1,
-1,
-5,
12,
-2,
12,
7,
-5,
1,
15,
3,
15,
12,
-4,
12,
-2,
5,
19,
13,
1,
14,
2,
8,
22,
8,
25,
17,
6,
20,
6,
13,
27,
19,
8,
19,
31,
27,
11,
20,
31,
21,
33,
23,
23,
24,
35,
17,
35,
31,
18,
34,
19,
30,
30,
35,
20,
24,
41,
35,
23,
31,
43,
31,
44,
39,
25,
37,
24,
33,
45,
39,
27,
34,
48,
31,
49,
44,
29,
41,
30,
37,
50,
47,
31,
33,
51,
39,
51,
41,
52,
52,
34,
44,
33,
50,
33,
44,
44,
45,
45,
42,
54,
42,
55,
52,
35,
43,
55,
44,
56,
42,
56,
54,
38,
51,
37,
49,
38,
44,
57,
48,
48,
47,
47,
44,
57,
51,
38,
48,
37,
53,
38,
49,
37,
50,
37,
52,
36,
44,
55,
51,
36,
42,
56,
49,
37,
38,
53,
52,
35,
46,
34,
46,
34,
44,
32,
41,
53,
38,
52,
44,
31,
46,
31,
38,
50,
40,
29,
38,
49,
32,
48,
33,
47,
36,
47,
43,
26,
30,
45,
39,
25,
34,
45,
39,
22,
24,
41,
27,
40,
33,
20,
29,
41,
29,
18,
29,
17,
26,
26,
26,
15,
21,
35,
22,
33,
24,
12,
21,
10,
21,
21,
15,
28,
20,
8,
13,
26,
16,
5,
12,
24,
15,
1,
14,
2,
16,
0,
5,
19,
5,
18,
14,
-3,
10,
-3,
1,
14,
5,
-7,
6,
-10,
5,
-11,
-4,
8,
1,
-11,
-8,
8,
-1,
-14,
-8,
4,
-6,
-17,
-10,
1,
-14,
-1,
-13,
-1,
-9,
-23,
-15,
-3,
-12,
-24,
-20,
-5,
-17,
-17,
-15,
-29,
-11,
-29,
-15,
-29,
-23,
-23,
-21,
-33,
-29,
-15,
-22,
-35,
-28,
-28,
-25,
-37,
-29,
-29,
-26,
-40,
-35,
-20,
-27,
-42,
-34,
-34,
-30,
-44,
-42,
-24,
-35,
-46,
-45,
-29,
-40,
-28,
-43,
-29,
-39,
-39,
-38,
-52,
-43,
-32,
-39,
-52,
-48,
-34,
-37,
-53,
-41,
-52,
-41,
-53,
-44,
-56,
-55,
-36,
-48,
-48,
-51,
-37,
-45,
-56,
-52,
-40,
-41,
-58,
-53,
-40,
-53,
-40,
-47,
-60,
-52,
-41,
-48,
-60,
-47,
-59,
-55,
-41,
-52,
-52,
-47,
-62,
-55,
-44,
-55,
-44,
-55,
-43,
-48,
-62,
-55,
-44,
-47,
-63,
-48,
-63,
-51,
-63,
-52,
-63,
-48,
-63,
-51,
-62,
-59,
-44,
-59,
-43,
-53,
-53,
-49,
-62,
-49,
-61,
-48,
-60,
-56,
-40,
-57,
-42,
-46,
-60,
-52,
-41,
-48,
-48,
-44,
-57,
-47,
-59,
-55,
-40,
-47,
-36,
-43,
-56,
-45,
-56,
-49,
-35,
-49,
-35,
-40,
-55,
-52,
-33,
-36,
-52,
-42,
-42,
-45,
-31,
-35,
-50,
-34,
-48,
-35,
-46,
-38,
-38,
-33,
-45,
-37,
-26,
-39,
-25,
-31,
-43,
-32,
-32,
-30,
-41,
-26,
-40,
-27,
-39,
-33,
-19,
-31,
-17,
-29,
-16,
-35,
-14,
-20,
-33,
-19,
-32,
-20,
-33,
-21,
-9,
-18,
-29,
-22,
-7,
-15,
-27,
-15,
-26,
-14,
-14,
-15,
-4,
-21,
-3,
-18,
-1,
-8,
-19,
-5,
-19,
-8,
4,
-9,
5,
1,
-13,
-7,
9,
2,
-11,
4,
-9,
4,
-8,
3,
-8,
10,
-5,
4,
4,
8,
-4,
6,
6,
4,
20,
14,
0,
8,
20,
6,
22,
17,
4,
20,
4,
9,
24,
9,
25,
15,
26,
18,
18,
20,
31,
19,
31,
20,
31,
19,
32,
21,
33,
20,
34,
26,
37,
21,
37,
25,
38,
32,
19,
30,
30,
31,
31,
31,
42,
40,
24,
33,
44,
37,
24,
36,
36,
31,
45,
38,
38,
33,
47,
29,
49,
39,
28,
43,
31,
36,
51,
44,
31,
36,
51,
37,
51,
44,
33,
43,
43,
48,
35,
40,
54,
45,
45,
42,
54,
49,
36,
52,
37,
47,
47,
52,
36,
53,
37,
50,
37,
50,
37,
41,
57,
45,
57,
43,
57,
46,
57,
51,
37,
47,
36,
48,
37,
53,
38,
49,
38,
49,
38,
47,
47,
44,
56,
46,
46,
47,
36,
46,
46,
47,
47,
49,
36,
46,
34,
43,
55,
41,
53,
49,
34,
40,
53,
49,
32,
44,
31,
37,
51,
37,
51,
38,
38,
35,
49,
37,
48,
34,
49,
37,
37,
34,
45,
41,
25,
36,
24,
35,
23,
34,
34,
29,
40,
27,
42,
37,
21,
36,
21,
24,
38,
29,
18,
23,
36,
22,
35,
29,
14,
22,
22,
23,
12,
22,
10,
20,
9,
23,
8,
11,
25,
24,
5,
16,
5,
16,
2,
12,
12,
11,
11,
10,
21,
12,
0,
13,
-3,
2,
15,
2,
15,
1,
13,
1,
1,
-3,
12,
1,
1,
4,
-11,
1,
-11,
1,
-14,
-4,
-4,
-2,
-16,
-16,
1,
-6,
-18,
-7,
-19,
-11,
-11,
-15,
-4,
-18,
-3,
-20,
-5,
-12,
-27,
-14,
-27,
-21,
-8,
-19,
-19,
-19,
-33,
-19,
-32,
-24,
-13,
-22,
-34,
-22,
-34,
-30,
-18,
-33,
-18,
-28,
-28,
-29,
-40,
-32,
-32,
-32,
-32,
-28,
-43,
-30,
-43,
-34,
-34,
-30,
-46,
-37,
-37,
-41,
-29,
-40,
-29,
-37,
-48,
-40,
-51,
-45,
-32,
-38,
-52,
-45,
-33,
-40,
-53,
-43,
-43,
-38,
-55,
-49,
-35,
-49,
-37,
-46,
-46,
-48,
-48,
-48,
-48,
-47,
-59,
-50,
-50,
-54,
-40,
-56,
-40,
-47,
-59,
-48,
-60,
-43,
-61,
-54,
-40,
-41,
-63,
-52,
-52,
-43,
-61,
-50,
-62,
-52,
-52,
-56,
-43,
-49,
-62,
-46,
-62,
-50,
-64,
-51,
-51,
-58,
-44,
-58,
-44,
-57,
-44,
-46,
-62,
-55,
-43,
-49,
-63,
-47,
-63,
-54,
-42,
-50,
-50,
-54,
-41,
-47,
-61,
-41,
-59,
-56,
-40,
-53,
-39,
-46,
-59,
-50,
-39,
-49,
-37,
-48,
-37,
-49,
-37,
-50,
-37,
-38,
-54,
-44,
-44,
-48,
-35,
-46,
-35,
-36,
-52,
-39,
-53,
-33,
-51,
-39,
-39,
-38,
-49,
-36,
-47,
-39,
-39,
-32,
-47,
-29,
-44,
-38,
-27,
-37,
-26,
-35,
-24,
-27,
-41,
-33,
-22,
-29,
-40,
-33,
-19,
-33,
-17,
-30,
-16,
-32,
-15,
-25,
-25,
-27,
-14,
-24,
-24,
-20,
-31,
-14,
-29,
-22,
-9,
-20,
-9,
-11,
-27,
-18,
-5,
-8,
-24,
-9,
-23,
-16,
-3,
-20,
0,
-9,
-9,
-8,
-19,
-7,
-7,
-6,
-6,
-5,
-5,
-9,
8,
0,
-12,
3,
-9,
4,
-7,
-5,
13,
-1,
12,
9,
-5,
2,
15,
5,
17,
8,
8,
7,
19,
15,
1,
15,
1,
19,
4,
16,
3,
20,
7,
19,
8,
17,
28,
12,
29,
19,
30,
22,
11,
19,
32,
17,
34,
23,
23,
21,
35,
19,
36,
30,
18,
20,
39,
21,
39,
24,
40,
30,
42,
35,
22,
23,
42,
36,
22,
32,
45,
38,
27,
37,
37,
38,
27,
33,
48,
36,
47,
32,
49,
43,
29,
36,
51,
33,
51,
45,
33,
42,
42,
37,
52,
45,
33,
42,
42,
44,
44,
49,
36,
45,
45,
48,
37,
49,
36,
45,
56,
45,
57,
46,
46,
49,
36,
48,
37,
42,
56,
44,
57,
45,
45,
36,
58,
52,
39,
54,
37,
46,
46,
50,
37,
37,
56,
41,
55,
45,
45,
53,
38,
45,
45,
48,
35,
49,
35,
43,
55,
48,
35,
42,
54,
46,
35,
41,
53,
41,
41,
38,
53,
47,
33,
37,
51,
44,
32,
39,
51,
36,
49,
37,
49,
44,
29,
44,
28,
35,
47,
37,
26,
33,
45,
41,
24,
32,
32,
37,
23,
39,
22,
32,
32,
30,
30,
24,
38,
25,
37,
25,
25,
27,
27,
29,
16,
27,
14,
24,
24,
22,
22,
24,
12,
21,
9,
17,
17,
21,
7,
12,
26,
12,
24,
15,
4,
8,
21,
11,
11,
7,
20,
12,
-1,
4,
20,
3,
17,
9,
-4,
4,
4,
-1,
13,
3,
-8,
-4,
10,
-7,
9,
-8,
9,
-2,
-13,
-6,
-6,
-17,
5,
-8,
-8,
-7,
-18,
-7,
-19,
-11,
-23,
-19,
-3,
-7,
-23,
-23,
-5,
-12,
-25,
-16,
-5,
-19,
-7,
-19,
-30,
-17,
-30,
-26,
-11,
-18,
-33,
-19,
-33,
-20,
-34,
-24,
-35,
-27,
-27,
-26,
-26,
-31,
-20,
-32,
-20,
-27,
-41,
-31,
-42,
-34,
-34,
-32,
-45,
-32,
-46,
-34,
-47,
-37,
-37,
-36,
-49,
-39,
-39,
-35,
-48,
-44,
-31,
-41,
-54,
-43,
-43,
-44,
-44,
-40,
-55,
-43,
-54,
-45,
-45,
-45,
-57,
-42,
-56,
-47,
-47,
-48,
-48,
-48,
-37,
-45,
-59,
-47,
-60,
-49,
-49,
-47,
-60,
-46,
-60,
-55,
-41,
-58,
-41,
-50,
-61,
-58,
-42,
-48,
-60,
-51,
-51,
-55,
-44,
-51,
-63,
-46,
-63,
-47,
-63,
-49,
-64,
-57,
-43,
-56,
-43,
-56,
-43,
-43,
-61,
-54,
-43,
-56,
-43,
-57,
-42,
-46,
-62,
-49,
-61,
-51,
-51,
-52,
-40,
-52,
-52,
-45,
-60,
-50,
-50,
-48,
-59,
-43,
-60,
-56,
-39,
-50,
-39,
-44,
-57,
-52,
-38,
-47,
-36,
-51,
-36,
-48,
-36,
-47,
-35,
-41,
-55,
-44,
-44,
-38,
-52,
-48,
-33,
-35,
-51,
-41,
-41,
-46,
-29,
-31,
-48,
-45,
-27,
-41,
-27,
-32,
-45,
-36,
-25,
-34,
-34,
-36,
-23,
-29,
-41,
-35,
-20,
-32,
-20,
-27,
-27,
-26,
-26,
-24,
-36,
-29,
-15,
-26,
-14,
-25,
-14,
-22,
-22,
-26,
-10,
-24,
-10,
-21,
-8,
-15,
-27,
-14,
-26,
-14,
-14,
-9,
-23,
-15,
-2,
-10,
-10,
-8,
-21,
-4,
-18,
-2,
-17,
-9,
4,
-6,
5,
-9,
7,
-4,
8,
3,
-9,
-2,
11,
1,
1,
4,
4,
0,
13,
6,
6,
8,
