1-signale-auf-leitern/tag_1_daten/daten_versuch1/ALL0014/A0014CH1.CSV

Memory Length,4000,
Trigger Level,5.52000e+01,
Source,CH1,
Probe,1.0X,
Vertical Units,V,
Vertical Scale,2.00000e-02,
Vertical Position,0.00000e+00,
Horizontal Units,S,
Horizontal Scale,2.50000e-08,
Horizontal Position,5.0000000e-08,
Horizontal Mode,Main,
Sampling Period,1.00000e-09,
Firmware,V1.14,
Time, ,
Mode,Fast,
Waveform Data,
1,
0,
1,
-1,
-1,
0,
1,
-1,
-2,
0,
0,
-1,
0,
-1,
-1,
0,
1,
0,
0,
-1,
0,
0,
0,
0,
1,
0,
1,
0,
0,
0,
1,
-1,
-1,
-1,
0,
0,
0,
0,
-1,
-1,
0,
-1,
-2,
-1,
0,
0,
0,
-1,
0,
-1,
0,
-1,
-1,
0,
0,
-1,
0,
0,
0,
0,
0,
-1,
-1,
0,
0,
0,
0,
-1,
0,
0,
0,
0,
1,
0,
0,
0,
-1,
-1,
0,
-1,
-2,
1,
0,
-1,
-1,
-1,
-1,
-1,
0,
-1,
-1,
-1,
-1,
0,
0,
-1,
-1,
-2,
-2,
-1,
-1,
0,
0,
0,
1,
-1,
-1,
0,
0,
-1,
-1,
0,
0,
-1,
-1,
-2,
-1,
0,
0,
-1,
0,
0,
0,
1,
1,
0,
1,
-1,
-2,
-1,
0,
-1,
0,
-1,
-1,
-1,
0,
-1,
-1,
-1,
0,
0,
0,
0,
0,
0,
0,
-1,
0,
0,
0,
-1,
0,
-1,
-1,
0,
0,
-1,
-1,
0,
1,
0,
0,
-1,
-1,
0,
0,
-1,
0,
0,
0,
0,
0,
0,
1,
-1,
-1,
-1,
0,
0,
0,
0,
0,
1,
2,
4,
6,
18,
22,
40,
48,
61,
66,
73,
76,
74,
73,
67,
64,
55,
53,
45,
42,
36,
34,
28,
27,
25,
25,
22,
22,
19,
19,
16,
15,
12,
13,
11,
11,
8,
7,
7,
7,
5,
5,
4,
4,
4,
4,
2,
2,
3,
3,
1,
0,
1,
1,
1,
1,
0,
1,
1,
1,
0,
0,
1,
1,
1,
1,
0,
0,
1,
1,
1,
1,
1,
2,
1,
1,
0,
0,
-1,
-1,
0,
0,
0,
0,
-1,
-1,
0,
0,
0,
2,
-1,
-1,
0,
1,
0,
-1,
-1,
-1,
-1,
-1,
-1,
-1,
-1,
-1,
-1,
0,
-1,
-1,
-1,
0,
0,
0,
-1,
0,
1,
1,
-1,
-1,
-1,
-1,
-1,
-1,
-1,
-1,
0,
0,
0,
0,
-2,
-2,
-1,
0,
0,
0,
0,
0,
-1,
-1,
0,
-1,
-1,
0,
0,
-1,
-1,
-1,
-1,
-1,
0,
0,
-1,
-2,
-1,
0,
-1,
-1,
-1,
0,
0,
0,
-1,
-1,
-1,
0,
0,
0,
-1,
-1,
0,
1,
-1,
-1,
-1,
0,
0,
1,
-1,
-2,
0,
0,
-1,
0,
0,
0,
-1,
-1,
0,
0,
-2,
-1,
0,
0,
-1,
0,
-1,
-1,
-1,
-1,
-1,
-1,
-1,
0,
-1,
0,
-1,
0,
0,
1,
-1,
-1,
-1,
-1,
-1,
-1,
-1,
-1,
-1,
1,
1,
2,
0,
0,
-1,
-1,
-1,
-1,
-2,
-2,
0,
0,
-1,
0,
-1,
-2,
-1,
0,
-1,
-1,
-1,
-1,
0,
1,
-1,
-1,
-1,
0,
0,
1,
-1,
-1,
-1,
0,
-1,
-1,
-1,
-1,
-1,
0,
-1,
-1,
0,
0,
0,
1,
-1,
-1,
0,
0,
-1,
-1,
-1,
-1,
-1,
0,
-1,
-1,
1,
1,
0,
1,
-2,
-3,
-1,
-1,
-1,
0,
-1,
-1,
-1,
0,
0,
0,
0,
0,
0,
1,
-1,
-2,
-1,
-1,
-1,
0,
-1,
-1,
0,
1,
0,
0,
0,
0,
0,
1,
-1,
-1,
-1,
-1,
-1,
0,
0,
0,
-1,
0,
0,
1,
0,
0,
-1,
-1,
0,
1,
-1,
-1,
-1,
0,
1,
1,
-2,
-2,
0,
1,
1,
0,
-1,
-1,
0,
1,
-1,
-1,
-1,
0,
1,
1,
-1,
-1,
0,
1,
0,
-1,
-1,
-1,
0,
1,
0,
0,
-1,
0,
0,
1,
-1,
-1,
-1,
-1,
0,
0,
-1,
-1,
0,
0,
1,
2,
-1,
-1,
0,
1,
-1,
-1,
-1,
-1,
-1,
0,
-1,
-1,
-1,
0,
0,
0,
-1,
-1,
-1,
-1,
0,
1,
-1,
-1,
0,
0,
0,
1,
-1,
-2,
-1,
0,
-1,
-1,
-1,
-1,
-1,
0,
-1,
-1,
-1,
0,
0,
1,
-1,
-1,
0,
1,
0,
-1,
-1,
-1,
0,
1,
0,
0,
-1,
0,
0,
1,
-1,
-1,
-1,
-1,
0,
0,
-1,
-1,
0,
1,
0,
0,
0,
0,
0,
1,
-1,
-2,
-1,
-1,
-1,
0,
-1,
-1,
0,
1,
0,
1,
-1,
-1,
-1,
-1,
-1,
0,
-1,
-2,
-1,
0,
1,
1,
-1,
-1,
0,
1,
0,
0,
-1,
-1,
0,
1,
-1,
-2,
-1,
0,
0,
1,
-1,
-1,
0,
1,
0,
0,
-1,
-1,
0,
0,
-1,
0,
-1,
0,
0,
0,
-1,
-1,
-2,
-2,
-1,
0,
-1,
-1,
1,
2,
1,
1,
-1,
-1,
0,
1,
-1,
-1,
-1,
-1,
0,
0,
0,
0,
0,
1,
0,
1,
-1,
-1,
-1,
-1,
-1,
0,
0,
0,
-1,
0,
0,
0,
-1,
-1,
-1,
0,
-1,
0,
-1,
-1,
0,
1,
-1,
-1,
-1,
0,
0,
0,
-1,
-2,
0,
1,
-1,
-1,
-1,
-1,
-1,
0,
0,
0,
1,
1,
-1,
-1,
-1,
0,
0,
0,
0,
0,
0,
0,
-1,
0,
-1,
0,
-1,
0,
0,
1,
-1,
-1,
-1,
0,
0,
0,
0,
-1,
-1,
0,
-1,
-1,
-1,
0,
-1,
-1,
0,
0,
-1,
-1,
-1,
-1,
-1,
-1,
-2,
-2,
-1,
-1,
0,
0,
0,
0,
-1,
0,
-1,
-1,
-1,
0,
0,
0,
0,
1,
0,
1,
0,
-1,
0,
1,
-1,
-1,
-1,
-1,
-2,
-1,
-1,
-1,
-1,
0,
-1,
-1,
1,
1,
0,
0,
-1,
-1,
-1,
0,
-1,
0,
-1,
-1,
-1,
0,
-2,
-2,
-1,
0,
-1,
-1,
0,
1,
1,
0,
-1,
0,
0,
0,
-2,
-2,
-1,
0,
-1,
-1,
-1,
-1,
0,
1,
-2,
-2,
-1,
-1,
-1,
-1,
-1,
0,
-1,
-1,
0,
0,
0,
1,
-1,
-1,
-1,
0,
0,
0,
-1,
-1,
0,
1,
-1,
0,
-1,
-1,
0,
0,
0,
0,
-1,
-1,
-1,
0,
1,
1,
-1,
-1,
-1,
-1,
0,
0,
-1,
-1,
0,
0,
-1,
-1,
-1,
0,
-1,
-1,
0,
1,
0,
1,
0,
0,
-1,
-1,
-1,
-1,
-1,
-1,
0,
0,
0,
1,
-1,
-1,
-1,
-1,
1,
1,
0,
0,
1,
1,
1,
1,
-1,
-1,
0,
0,
-1,
0,
-1,
-1,
0,
0,
-1,
-1,
0,
1,
-1,
-1,
-1,
0,
1,
1,
-2,
-2,
-1,
-1,
0,
0,
-1,
-1,
0,
1,
0,
0,
-1,
-1,
-1,
-1,
-1,
0,
-1,
-1,
1,
1,
0,
1,
-2,
-3,
-1,
0,
-1,
0,
1,
1,
0,
1,
-1,
-1,
0,
0,
-1,
-1,
0,
0,
1,
1,
-1,
-1,
-1,
-1,
0,
1,
-1,
-1,
0,
0,
0,
1,
-1,
-1,
-1,
-1,
-1,
0,
-1,
-1,
0,
1,
-1,
-1,
0,
0,
0,
0,
-1,
-1,
1,
2,
-1,
-1,
-1,
-1,
0,
1,
-1,
-1,
1,
1,
0,
1,
-1,
-2,
-1,
-1,
-2,
-1,
0,
0,
-1,
0,
-1,
0,
0,
-1,
-5,
-6,
-18,
-22,
-40,
-46,
-62,
-66,
-76,
-78,
-73,
-70,
-63,
-60,
-51,
-49,
-46,
-44,
-42,
-40,
-36,
-34,
-30,
-28,
-23,
-21,
-19,
-17,
-15,
-14,
-13,
-13,
-14,
-13,
-10,
-9,
-8,
-8,
-7,
-6,
-5,
-5,
-5,
-5,
-4,
-4,
-3,
-3,
-3,
-3,
-3,
-2,
-2,
-2,
-2,
-1,
-1,
-1,
-2,
-1,
-1,
-1,
-1,
-1,
-2,
-2,
-2,
-1,
-2,
-2,
-2,
-1,
-2,
-1,
-1,
-1,
-2,
-2,
-1,
-1,
-1,
-1,
-2,
-1,
0,
0,
0,
0,
0,
0,
-1,
-1,
-1,
-1,
0,
0,
0,
0,
-1,
0,
-2,
-1,
-1,
0,
0,
0,
-1,
0,
0,
0,
0,
0,
0,
0,
-1,
0,
-1,
-1,
0,
0,
-1,
-1,
0,
1,
0,
0,
-1,
0,
0,
1,
-2,
-2,
-1,
0,
-1,
-1,
0,
0,
-1,
0,
-1,
-1,
-1,
0,
-1,
-1,
0,
1,
0,
0,
0,
0,
0,
1,
-1,
-1,
-1,
0,
0,
0,
-1,
-1,
0,
2,
-1,
-1,
1,
1,
0,
0,
-1,
-1,
0,
1,
-1,
-1,
0,
1,
-1,
-2,
-1,
0,
0,
0,
-1,
-1,
0,
1,
-2,
-2,
-1,
-1,
0,
0,
-1,
0,
0,
1,
0,
0,
0,
1,
-1,
-1,
-1,
0,
-1,
0,
-1,
-1,
0,
1,
-1,
-1,
-1,
0,
0,
0,
-1,
0,
0,
1,
0,
0,
0,
1,
-1,
-1,
-1,
0,
0,
0,
-1,
-1,
0,
0,
0,
-1,
-1,
0,
-1,
-1,
0,
1,
0,
1,
0,
0,
0,
0,
-1,
-2,
-1,
0,
-1,
0,
-1,
-1,
0,
1,
0,
0,
-1,
0,
0,
0,
-1,
0,
0,
0,
-1,
-1,
0,
1,
-1,
-1,
0,
0,
1,
1,
-1,
-1,
1,
2,
0,
0,
-1,
0,
0,
0,
0,
1,
0,
0,
0,
0,
0,
0,
0,
1,
-1,
-1,
1,
1,
-1,
-1,
-1,
-1,
-1,
-1,
-1,
0,
0,
0,
0,
1,
0,
1,
-1,
-1,
-1,
-1,
-1,
-1,
-1,
-1,
0,
1,
-1,
-1,
0,
0,
-1,
-1,
-1,
-1,
0,
1,
-2,
-2,
-1,
0,
-1,
0,
0,
0,
-1,
0,
-1,
-1,
0,
0,
-2,
-2,
0,
0,
0,
0,
0,
0,
1,
1,
-1,
-1,
0,
0,
-1,
-1,
0,
0,
-1,
0,
0,
0,
1,
1,
-1,
-1,
0,
1,
0,
1,
0,
-1,
0,
1,
-1,
-2,
0,
0,
-1,
-1,
-1,
-1,
0,
1,
-1,
-1,
-1,
0,
-1,
-1,
-1,
0,
1,
1,
0,
0,
-1,
-1,
0,
1,
0,
0,
-1,
0,
0,
0,
-1,
0,
-1,
0,
-1,
0,
-1,
-1,
0,
1,
0,
0,
0,
0,
0,
1,
-1,
-2,
-1,
0,
0,
0,
-1,
-1,
0,
1,
-1,
-1,
-1,
0,
0,
0,
-1,
0,
0,
0,
-1,
0,
-1,
-1,
-1,
0,
-1,
0,
-1,
0,
0,
0,
-1,
0,
-1,
-1,
-1,
-1,
0,
0,
-1,
0,
0,
1,
0,
0,
0,
1,
-1,
-2,
-1,
0,
0,
0,
-1,
-1,
0,
1,
-1,
0,
-1,
-1,
-1,
-1,
-1,
0,
0,
0,
-1,
-1,
0,
1,
-2,
-2,
-1,
-1,
0,
0,
-1,
-1,
-1,
0,
0,
0,
-1,
0,
0,
0,
-1,
0,
0,
0,
0,
0,
-1,
-1,
-1,
-1,
-1,
0,
-1,
0,
-1,
-1,
-1,
0,
-1,
0,
0,
0,
1,
1,
-1,
-2,
-1,
0,
-1,
-1,
-1,
-1,
0,
1,
-1,
-1,
-1,
-1,
-1,
-1,
-1,
0,
0,
0,
0,
0,
0,
0,
-1,
-1,
-1,
0,
-1,
0,
-1,
-1,
0,
0,
-1,
-2,
0,
0,
0,
0,
-1,
0,
1,
0,
0,
0,
0,
1,
-1,
-2,
-1,
0,
0,
0,
0,
0,
-1,
0,
0,
0,
0,
0,
0,
0,
-1,
0,
-1,
-1,
-1,
-1,
0,
1,
-1,
-1,
0,
0,
1,
1,
-1,
-1,
0,
1,
-1,
-1,
-1,
-1,
0,
0,
-1,
0,
0,
1,
0,
0,
-1,
-1,
-1,
0,
-1,
0,
-1,
0,
0,
1,
-2,
-2,
-1,
-1,
-1,
0,
0,
0,
0,
2,
0,
1,
0,
0,
0,
1,
-1,
-2,
0,
0,
0,
0,
-1,
-1,
0,
0,
0,
0,
-1,
0,
0,
0,
0,
1,
-1,
-2,
-1,
-1,
0,
1,
-1,
-1,
0,
1,
0,
-1,
-1,
-1,
0,
1,
-1,
-1,
-1,
0,
0,
0,
0,
1,
0,
0,
-1,
-1,
0,
0,
-1,
0,
-1,
-1,
1,
1,
0,
1,
-1,
-1,
0,
0,
-1,
-1,
-1,
-1,
0,
1,
0,
1,
0,
-1,
-1,
0,
-1,
-1,
0,
0,
0,
0,
-1,
-1,
0,
1,
0,
0,
-1,
0,
0,
1,
-1,
-1,
0,
0,
0,
0,
-1,
-1,
0,
1,
0,
1,
0,
0,
-1,
0,
-1,
-1,
-1,
-1,
0,
0,
0,
0,
0,
0,
0,
0,
-1,
0,
-1,
-1,
-1,
0,
-2,
-2,
-1,
0,
0,
0,
0,
1,
0,
1,
1,
0,
0,
0,
0,
0,
-1,
0,
-1,
0,
0,
1,
-1,
-2,
-1,
0,
0,
0,
-1,
-1,
0,
1,
0,
0,
0,
0,
0,
1,
-1,
-1,
-1,
0,
-1,
-1,
-1,
-1,
0,
0,
-1,
-1,
-1,
0,
-1,
-1,
-1,
0,
-1,
0,
-1,
0,
-1,
-1,
-1,
0,
0,
1,
3,
4,
13,
18,
35,
42,
55,
61,
71,
73,
77,
77,
70,
69,
59,
57,
47,
44,
38,
37,
29,
27,
25,
24,
24,
23,
20,
20,
17,
18,
13,
12,
11,
10,
9,
9,
7,
7,
5,
5,
5,
5,
5,
5,
2,
3,
2,
2,
1,
1,
1,
1,
1,
2,
1,
1,
1,
1,
0,
0,
1,
2,
0,
1,
1,
1,
1,
1,
0,
1,
0,
1,
1,
1,
0,
0,
0,
1,
-1,
-1,
0,
0,
0,
0,
0,
1,
-1,
-1,
0,
1,
0,
-1,
0,
1,
-1,
0,
-1,
-1,
-1,
-1,
-1,
0,
-1,
-1,
-1,
0,
-1,
-1,
0,
0,
1,
1,
0,
-1,
-1,
0,
-1,
-2,
-1,
-1,
-1,
-1,
0,
0,
-1,
0,
-1,
-1,
1,
1,
-1,
-1,
-1,
-1,
0,
0,
-1,
0,
0,
1,
-1,
-2,
-1,
-1,
-1,
-1,
-1,
-1,
-1,
0,
-1,
-1,
-1,
0,
0,
0,
-1,
-2,
0,
0,
1,
1,
-1,
-1,
-1,
0,
-1,
-1,
-1,
0,
0,
0,
0,
1,
-1,
-1,
0,
0,
0,
1,
-1,
-2,
0,
1,
0,
0,
-1,
0,
-1,
0,
-1,
-1,
-1,
0,
-1,
-1,
0,
1,
0,
0,
1,
1,
0,
1,
-2,
-3,
-1,
0,
0,
0,
0,
0,
0,
0,
-1,
-1,
-1,
0,
-1,
-1,
0,
1,
1,
2,
1,
0,
0,
1,
-1,
-2,
-1,
0,
-1,
0,
-1,
-1,
0,
2,
-1,
0,
-1,
0,
-1,
-1,
-1,
-1,
0,
1,
0,
-1,
0,
1,
-1,
-1,
0,
0,
0,
0,
-1,
-1,
0,
1,
-1,
-1,
0,
0,
0,
0,
0,
1,
0,
0,
0,
0,
-1,
-1,
-1,
-1,
-1,
-1,
-1,
0,
0,
0,
-1,
0,
-2,
-2,
-1,
-1,
-1,
-1,
-1,
0,
-1,
0,
-1,
-1,
0,
1,
-2,
-2,
0,
0,
0,
0,
-2,
-2,
0,
1,
0,
0,
-1,
-1,
0,
1,
-1,
-1,
-1,
0,
0,
0,
-1,
-1,
-1,
0,
-1,
-1,
-1,
0,
-1,
-1,
0,
2,
-1,
-1,
0,
0,
0,
0,
-1,
0,
0,
1,
0,
-1,
0,
0,
0,
1,
-1,
-2,
1,
1,
0,
0,
-1,
-1,
0,
1,
-1,
-1,
0,
1,
-1,
-1,
-1,
0,
0,
0,
0,
0,
-1,
0,
-2,
-1,
0,
0,
-1,
-1,
0,
1,
-1,
-1,
0,
0,
0,
1,
-1,
-1,
-1,
0,
-1,
-1,
-1,
-1,
0,
1,
-1,
0,
-1,
0,
0,
-1,
-1,
0,
0,
0,
0,
0,
0,
1,
-1,
-2,
-1,
0,
-1,
0,
0,
0,
-1,
0,
-1,
-1,
0,
0,
-1,
-1,
0,
1,
0,
1,
-1,
-1,
-1,
-1,
-1,
-1,
-1,
-1,
-1,
0,
-1,
-1,
0,
0,
0,
0,
-1,
0,
0,
0,
0,
1,
0,
0,
0,
0,
0,
1,
-1,
-2,
0,
0,
-1,
0,
-1,
-1,
0,
1,
-1,
-1,
0,
0,
1,
1,
-2,
-2,
-1,
-1,
-1,
0,
-1,
-1,
0,
1,
0,
0,
1,
1,
-1,
-1,
0,
0,
-1,
-1,
-2,
-1,
0,
-1,
0,
1,
0,
1,
0,
0,
0,
1,
-1,
-2,
0,
0,
0,
1,
0,
0,
-1,
0,
0,
1,
-1,
-1,
-1,
-1,
0,
1,
-1,
-1,
-1,
0,
0,
1,
-2,
-3,
-1,
-1,
0,
1,
-1,
-1,
0,
1,
0,
-1,
-2,
-1,
-1,
-1,
0,
1,
0,
1,
0,
0,
-1,
0,
-1,
-1,
0,
0,
-1,
0,
0,
1,
-1,
-1,
-1,
0,
-1,
-1,
0,
0,
-1,
0,
0,
1,
-1,
-1,
-1,
-1,
-1,
-1,
-1,
-2,
1,
1,
-1,
-1,
0,
0,
-1,
-1,
-1,
0,
0,
0,
0,
1,
-1,
-1,
-1,
-1,
0,
0,
-1,
0,
0,
0,
0,
0,
-1,
-1,
-1,
0,
-1,
-1,
-1,
0,
0,
1,
-1,
-2,
-1,
-1,
-1,
-1,
0,
0,
-1,
0,
0,
0,
-1,
0,
0,
0,
-1,
0,
-1,
-1,
1,
1,
-1,
-1,
-1,
0,
0,
0,
-1,
0,
0,
1,
-1,
-1,
-1,
0,
-1,
0,
0,
0,
-1,
0,
0,
1,
0,
0,
-1,
-1,
-1,
0,
-2,
-2,
-1,
0,
0,
1,
-1,
-2,
-1,
0,
-1,
0,
-1,
-1,
0,
1,
-1,
-1,
-1,
0,
0,
0,
0,
1,
0,
0,
0,
0,
-1,
-1,
0,
0,
0,
0,
-1,
0,
0,
1,
-1,
-1,
-1,
-1,
-1,
-1,
-1,
-1,
0,
1,
0,
1,
0,
0,
0,
1,
-1,
-2,
0,
0,
-1,
0,
-1,
-1,
0,
1,
1,
0,
-1,
-1,
-1,
-1,
-1,
0,
-1,
-1,
-1,
0,
1,
1,
-1,
-1,
1,
2,
0,
0,
-1,
-1,
0,
1,
-1,
-2,
-1,
0,
0,
0,
0,
1,
0,
1,
-1,
-1,
0,
0,
-1,
0,
0,
0,
0,
0,
0,
1,
-1,
-2,
-1,
-1,
0,
1,
-1,
-1,
0,
1,
1,
1,
-1,
-1,
0,
1,
-1,
0,
-1,
-1,
0,
0,
0,
0,
0,
1,
-1,
-1,
-1,
0,
0,
0,
-1,
0,
-1,
-1,
-1,
0,
1,
1,
-2,
-2,
0,
1,
0,
0,
-1,
-1,
-1,
0,
-2,
-2,
0,
0,
-1,
0,
-2,
-2,
-1,
1,
-1,
-1,
0,
0,
-1,
0,
-2,
-2,
-1,
0,
-1,
-1,
-1,
0,
-1,
-1,
0,
0,
-1,
-1,
0,
1,
2,
2,
-1,
-1,
0,
1,
-1,
-1,
0,
0,
0,
0,
0,
0,
-1,
0,
-1,
-1,
-1,
0,
0,
1,
-2,
-2,
-1,
-1,
-1,
0,
0,
0,
0,
0,
-1,
-1,
-1,
0,
-1,
-1,
-2,
-2,
-9,
-12,
-26,
-31,
-52,
-58,
-71,
-75,
-75,
-74,
-68,
-66,
-57,
-54,
-50,
-48,
-44,
-43,
-39,
-36,
-32,
-31,
-26,
-23,
-19,
-18,
-17,
-17,
-15,
-14,
-14,
-13,
-11,
-11,
-8,
-7,
-7,
-7,
-6,
-5,
-5,
-5,
-4,
-4,
-4,
-3,
-3,
-3,
-3,
-3,
-2,
-1,
-2,
-2,
-2,
-1,
-2,
-2,
-1,
-1,
-1,
-1,
-2,
-2,
-2,
-2,
-2,
-2,
-1,
-1,
-1,
-1,
-2,
-2,
-1,
-1,
-1,
-1,
-1,
-2,
-1,
-1,
-1,
0,
-1,
-1,
-1,
0,
-1,
-1,
0,
0,
0,
0,
0,
1,
-1,
0,
-1,
0,
0,
0,
0,
0,
-1,
-1,
-1,
0,
0,
0,
0,
1,
-1,
-1,
-1,
0,
0,
0,
-1,
-1,
-1,
-1,
0,
0,
-1,
0,
0,
0,
0,
0,
0,
0,
-1,
-1,
0,
1,
0,
0,
0,
0,
0,
1,
-2,
-3,
-1,
0,
-1,
0,
0,
0,
-1,
0,
-1,
-1,
0,
0,
-1,
-1,
0,
1,
0,
0,
0,
0,
-1,
-1,
0,
1,
0,
0,
1,
1,
-1,
-1,
-1,
0,
-1,
0,
-1,
0,
0,
0,
0,
1,
1,
2,
0,
-1,
0,
0,
-2,
-2,
-1,
0,
-1,
0,
-1,
-1,
0,
1,
-1,
-1,
1,
1,
-1,
-1,
0,
0,
-1,
0,
-1,
0,
-1,
-1,
-1,
-1,
-1,
0,
0,
0,
0,
0,
0,
0,
0,
-1,
-1,
0,
0,
0,
-1,
0,
-1,
-1,
-1,
-1,
0,
1,
-1,
-1,
-1,
-1,
0,
0,
-1,
-1,
0,
1,
-1,
-1,
1,
1,
0,
0,
0,
0,
-1,
0,
0,
0,
0,
1,
-2,
-2,
0,
0,
0,
0,
-1,
-1,
0,
0,
-1,
0,
0,
0,
0,
0,
-1,
0,
0,
1,
0,
-1,
-1,
-1,
0,
1,
-1,
-1,
-1,
0,
-1,
-1,
0,
1,
0,
0,
1,
1,
-1,
-1,
0,
1,
0,
1,
0,
-1,
0,
0,
-1,
0,
-2,
-2,
0,
1,
-1,
-1,
0,
0,
1,
0,
-1,
0,
0,
0,
-1,
-1,
-1,
-1,
-1,
-1,
-1,
-1,
0,
1,
0,
0,
0,
0,
0,
0,
-1,
-1,
0,
0,
0,
0,
0,
1,
-1,
-1,
-1,
0,
-1,
-1,
-1,
-1,
-1,
0,
-1,
-1,
0,
0,
0,
1,
-1,
-2,
-1,
0,
-1,
-1,
-1,
-2,
-1,
0,
-1,
0,
-1,
-1,
0,
0,
-1,
0,
-1,
-1,
-1,
-1,
0,
0,
0,
1,
0,
0,
0,
0,
-1,
0,
-1,
-2,
-1,
-1,
-1,
0,
-1,
-1,
0,
1,
0,
1,
0,
0,
0,
0,
-1,
0,
-1,
0,
-1,
-1,
0,
1,
-1,
-2,
0,
0,
0,
0,
-1,
-1,
0,
1,
0,
-1,
-1,
-1,
1,
1,
-1,
-1,
0,
1,
1,
1,
-1,
-1,
0,
1,
0,
0,
0,
0,
0,
0,
-1,
0,
-1,
-1,
0,
0,
0,
0,
-1,
0,
0,
0,
0,
0,
0,
1,
-1,
-1,
-1,
-1,
0,
0,
-1,
-1,
0,
1,
2,
2,
-1,
-1,
0,
0,
-1,
-1,
-1,
-1,
1,
1,
0,
1,
0,
-1,
0,
0,
-1,
0,
-1,
-1,
0,
1,
-1,
-1,
-1,
0,
1,
1,
-1,
-1,
0,
0,
0,
-1,
-1,
-1,
-1,
0,
-1,
-1,
0,
0,
0,
1,
-1,
-1,
-1,
0,
-1,
0,
-1,
-1,
0,
1,
0,
1,
0,
0,
0,
1,
-1,
-1,
0,
0,
-1,
0,
-1,
-1,
0,
1,
1,
1,
-1,
-1,
0,
1,
-1,
-2,
-1,
-1,
-1,
0,
-1,
-1,
0,
2,
0,
1,
0,
-1,
-1,
0,
-1,
0,
-1,
-1,
-1,
0,
0,
0,
0,
1,
0,
1,
-1,
-1,
0,
0,
-1,
0,
-2,
-2,
-1,
0,
0,
1,
-1,
-2,
0,
1,
0,
0,
-2,
-2,
0,
1,
-1,
-1,
-1,
0,
0,
0,
-2,
-2,
0,
0,
0,
0,
-1,
-1,
-1,
0,
-1,
-1,
-1,
0,
0,
0,
-2,
-2,
-2,
-1,
-1,
0,
-1,
-1,
0,
1,
0,
1,
-1,
-1,
0,
1,
-1,
-1,
0,
0,
1,
1,
-1,
-1,
0,
0,
-1,
0,
-1,
0,
1,
1,
-1,
-1,
-1,
0,
0,
0,
-1,
-1,
-1,
0,
-1,
-1,
-1,
0,
-1,
-1,
0,
1,
-1,
-1,
-1,
-1,
0,
0,
0,
1,
0,
1,
-1,
-1,
0,
0,
-1,
0,
-1,
-1,
1,
1,
0,
0,
0,
0,
1,
1,
-1,
-1,
0,
1,
-1,
-1,
-1,
0,
-1,
0,
0,
0,
-1,
0,
-1,
-2,
0,
0,
-1,
-1,
0,
1,
0,
0,
-1,
0,
0,
1,
-1,
-1,
-1,
-1,
0,
0,
-1,
-1,
-1,
0,
-1,
-1,
-1,
0,
0,
0,
-1,
0,
0,
0,
0,
0,
-1,
0,
-1,
-1,
1,
1,
-1,
0,
0,
0,
0,
1,
-1,
-2,
0,
0,
0,
1,
-1,
-1,
0,
1,
0,
-1,
0,
0,
-1,
0,
-1,
-1,
0,
0,
-1,
-1,
0,
1,
-1,
-1,
-1,
0,
0,
0,
-1,
0,
-1,
-1,
1,
1,
-1,
0,
-1,
-1,
-1,
0,
-1,
-1,
0,
0,
0,
1,
0,
0,
0,
0,
0,
1,
-1,
-2,
-1,
0,
-1,
0,
0,
0,
-1,
0,
-2,
-1,
-1,
0,
0,
0,
0,
1,
-1,
-1,
0,
0,
-1,
-1,
0,
1,
-1,
-1,
0,
0,
0,
1,
10,
14,
27,
32,
49,
54,
69,
73,
76,
78,
74,
73,
63,
60,
51,
50,
40,
37,
30,
29,
25,
25,
24,
23,
21,
21,
18,
17,
16,
15,
11,
11,
10,
11,
7,
7,
6,
6,
5,
4,
4,
4,
3,
2,
2,
2,
2,
2,
1,
1,
2,
2,
1,
1,
1,
1,
1,
1,
0,
0,
0,
0,
0,
0,
1,
1,
1,
1,
1,
1,
1,
1,
1,
1,
0,
0,
0,
0,
-1,
-1,
-1,
0,
0,
0,
0,
1,
0,
-1,
0,
1,
-1,
-2,
-1,
0,
-1,
-1,
-1,
-1,
-1,
0,
-1,
-1,
0,
0,
0,
0,
-1,
0,
-1,
-1,
-1,
-1,
-1,
0,
1,
0,
-1,
-1,
-1,
-1,
-1,
0,
-1,
-1,
-1,
0,
0,
1,
-1,
-2,
0,
0,
-1,
-1,
-1,
-1,
0,
1,
0,
0,
-1,
-1,
-1,
-1,
-1,
0,
0,
0,
1,
1,
-1,
-1,
-1,
-1,
-1,
-1,
0,
0,
0,
1,
-1,
-1,
-1,
0,
-1,
0,
-1,
-1,
0,
1,
0,
1,
1,
0,
-1,
-1,
-1,
0,
-1,
0,
-1,
-1,
-1,
-1,
0,
0,
-1,
-1,
0,
0,
0,
1,
-1,
-2,
0,
0,
0,
0,
-1,
-1,
0,
1,
0,
1,
0,
-1,
-1,
-1,
0,
0,
-1,
0,
0,
0,
-1,
-1,
-1,
0,
-1,
-1,
-1,
-1,
0,
1,
-1,
-2,
-1,
0,
-1,
0,
-1,
-1,
0,
1,
0,
1,
0,
0,
0,
0,
-1,
-1,
-1,
-2,
0,
0,
-1,
-1,
-1,
0,
-1,
-1,
0,
0,
0,
1,
-1,
-2,
-1,
0,
-1,
0,
0,
0,
0,
1,
0,
1,
0,
0,
-1,
0,
0,
0,
-1,
0,
0,
0,
0,
1,
-1,
-1,
-1,
0,
0,
0,
0,
0,
-1,
0,
-1,
-1,
-1,
-1,
-1,
-1,
0,
1,
0,
0,
0,
0,
-1,
-1,
-1,
