4-transistorverstaerker/data/ALL0006/A0006CH1.CSV

Memory Length,4000,
Trigger Level,1.03900e+00,
Source,CH1,
Probe,1.0X,
Vertical Units,V,
Vertical Scale,2.00000e-01,
Vertical Position,-1.02400e+00,
Horizontal Units,S,
Horizontal Scale,5.00000e-04,
Horizontal Position,-6.4000000e-04,
Horizontal Mode,Main,
Sampling Period,2.00000e-06,
Firmware,V1.14,
Time, ,
Mode,Fast,
Waveform Data,
162,
162,
162,
161,
161,
160,
160,
161,
161,
162,
162,
160,
160,
160,
160,
160,
160,
160,
160,
160,
160,
159,
159,
159,
159,
159,
159,
159,
159,
158,
158,
158,
158,
158,
158,
158,
158,
157,
157,
157,
157,
157,
157,
156,
156,
156,
156,
156,
156,
155,
155,
155,
155,
154,
154,
154,
154,
154,
154,
153,
153,
153,
153,
152,
152,
152,
152,
152,
152,
151,
151,
150,
150,
150,
150,
149,
149,
149,
149,
148,
148,
148,
148,
147,
147,
147,
147,
146,
146,
146,
146,
145,
145,
145,
145,
145,
145,
144,
144,
143,
143,
142,
142,
142,
142,
141,
141,
140,
140,
140,
140,
139,
139,
139,
139,
138,
138,
137,
137,
137,
137,
136,
136,
136,
136,
135,
135,
134,
134,
134,
134,
133,
133,
132,
132,
131,
131,
131,
131,
130,
130,
130,
130,
128,
128,
129,
129,
128,
128,
128,
128,
127,
127,
127,
127,
125,
125,
125,
125,
124,
124,
124,
124,
124,
124,
124,
124,
122,
122,
121,
121,
121,
121,
121,
121,
120,
120,
119,
119,
119,
119,
118,
118,
117,
117,
117,
117,
116,
116,
116,
116,
115,
115,
114,
114,
114,
114,
113,
113,
113,
113,
113,
113,
112,
112,
111,
111,
111,
111,
110,
110,
110,
110,
110,
110,
110,
110,
109,
109,
108,
108,
108,
108,
108,
108,
107,
107,
106,
106,
106,
106,
106,
106,
105,
105,
105,
105,
104,
104,
104,
104,
104,
104,
103,
103,
103,
103,
102,
102,
101,
101,
101,
101,
101,
101,
101,
101,
101,
101,
101,
101,
100,
100,
100,
100,
100,
100,
100,
100,
99,
99,
99,
99,
99,
99,
99,
99,
99,
99,
99,
99,
98,
98,
99,
99,
98,
98,
97,
97,
98,
98,
98,
98,
98,
98,
97,
97,
98,
98,
98,
98,
98,
98,
98,
98,
98,
98,
98,
98,
99,
99,
99,
99,
99,
99,
99,
99,
99,
99,
99,
99,
99,
99,
99,
99,
100,
100,
99,
99,
100,
100,
100,
100,
100,
100,
100,
100,
101,
101,
101,
101,
101,
101,
101,
101,
101,
101,
102,
102,
102,
102,
103,
103,
103,
103,
104,
104,
104,
104,
104,
104,
106,
106,
105,
105,
104,
104,
105,
105,
106,
106,
107,
107,
108,
108,
108,
108,
108,
108,
109,
109,
109,
109,
110,
110,
110,
110,
110,
110,
112,
112,
112,
112,
112,
112,
113,
113,
113,
113,
114,
114,
114,
114,
114,
114,
116,
116,
116,
116,
116,
116,
117,
117,
117,
117,
118,
118,
119,
119,
120,
120,
120,
120,
120,
120,
121,
121,
122,
122,
123,
123,
123,
123,
123,
123,
124,
124,
125,
125,
126,
126,
126,
126,
127,
127,
127,
127,
128,
128,
128,
128,
128,
128,
131,
131,
130,
130,
131,
131,
131,
131,
132,
132,
132,
132,
133,
133,
133,
133,
135,
135,
135,
135,
136,
136,
136,
136,
138,
138,
137,
137,
139,
139,
139,
139,
139,
139,
140,
140,
141,
141,
142,
142,
142,
142,
142,
142,
143,
143,
143,
143,
144,
144,
145,
145,
145,
145,
145,
145,
146,
146,
147,
147,
147,
147,
148,
148,
149,
149,
149,
149,
149,
149,
149,
149,
151,
151,
151,
151,
151,
151,
152,
152,
153,
153,
153,
153,
153,
153,
153,
153,
154,
154,
155,
155,
155,
155,
156,
156,
156,
156,
156,
156,
156,
156,
156,
156,
157,
157,
157,
157,
157,
157,
158,
158,
158,
158,
158,
158,
158,
158,
159,
159,
159,
159,
160,
160,
160,
160,
159,
159,
161,
161,
161,
161,
161,
161,
161,
161,
161,
161,
162,
162,
163,
163,
162,
162,
162,
162,
161,
161,
162,
162,
162,
162,
162,
162,
162,
162,
162,
162,
162,
162,
162,
162,
162,
162,
162,
162,
163,
163,
162,
162,
163,
163,
162,
162,
162,
162,
162,
162,
161,
161,
160,
160,
160,
160,
161,
161,
160,
160,
160,
160,
160,
160,
159,
159,
159,
159,
159,
159,
159,
159,
158,
158,
158,
158,
158,
158,
157,
157,
158,
158,
157,
157,
157,
157,
156,
156,
156,
156,
156,
156,
156,
156,
155,
155,
154,
154,
153,
153,
153,
153,
153,
153,
153,
153,
152,
152,
152,
152,
152,
152,
150,
150,
150,
150,
150,
150,
149,
149,
148,
148,
148,
148,
147,
147,
147,
147,
147,
147,
146,
146,
145,
145,
144,
144,
144,
144,
144,
144,
143,
143,
143,
143,
142,
142,
142,
142,
140,
140,
140,
140,
140,
140,
139,
139,
139,
139,
138,
138,
137,
137,
136,
136,
136,
136,
135,
135,
135,
135,
134,
134,
133,
133,
133,
133,
132,
132,
131,
131,
131,
131,
130,
130,
130,
130,
130,
130,
128,
128,
128,
128,
127,
127,
127,
127,
127,
127,
125,
125,
125,
125,
124,
124,
124,
124,
123,
123,
123,
123,
122,
122,
122,
122,
121,
121,
120,
120,
119,
119,
119,
119,
119,
119,
117,
117,
117,
117,
116,
116,
116,
116,
115,
115,
115,
115,
115,
115,
114,
114,
113,
113,
112,
112,
113,
113,
112,
112,
111,
111,
111,
111,
111,
111,
110,
110,
109,
109,
109,
109,
108,
108,
108,
108,
108,
108,
107,
107,
106,
106,
107,
107,
106,
106,
105,
105,
104,
104,
104,
104,
104,
104,
104,
104,
104,
104,
102,
102,
102,
102,
103,
103,
102,
102,
102,
102,
101,
101,
101,
101,
101,
101,
101,
101,
100,
100,
100,
100,
100,
100,
99,
99,
99,
99,
99,
99,
99,
99,
99,
99,
99,
99,
99,
99,
98,
98,
99,
99,
98,
98,
99,
99,
98,
98,
98,
98,
99,
99,
97,
97,
98,
98,
98,
98,
97,
97,
98,
98,
98,
98,
98,
98,
98,
98,
98,
98,
99,
99,
98,
98,
99,
99,
99,
99,
99,
99,
99,
99,
100,
100,
100,
100,
100,
100,
100,
100,
100,
100,
101,
101,
101,
101,
101,
101,
101,
101,
101,
101,
102,
102,
102,
102,
102,
102,
102,
102,
103,
103,
103,
103,
104,
104,
104,
104,
104,
104,
105,
105,
105,
105,
105,
105,
105,
105,
107,
107,
108,
108,
108,
108,
108,
108,
109,
109,
110,
110,
110,
110,
111,
111,
111,
111,
112,
112,
112,
112,
112,
112,
112,
112,
114,
114,
115,
115,
114,
114,
115,
115,
115,
115,
116,
116,
117,
117,
117,
117,
118,
118,
118,
118,
119,
119,
120,
120,
120,
120,
121,
121,
121,
121,
122,
122,
122,
122,
123,
123,
124,
124,
125,
125,
125,
125,
125,
125,
126,
126,
127,
127,
128,
128,
128,
128,
129,
129,
129,
129,
129,
129,
131,
131,
131,
131,
132,
132,
132,
132,
133,
133,
133,
133,
133,
133,
135,
135,
135,
135,
135,
135,
136,
136,
136,
136,
138,
138,
138,
138,
139,
139,
139,
139,
140,
140,
141,
141,
141,
141,
142,
142,
143,
143,
144,
144,
144,
144,
144,
144,
145,
145,
145,
145,
146,
146,
146,
146,
147,
147,
147,
147,
147,
147,
149,
149,
149,
149,
150,
150,
150,
150,
150,
150,
151,
151,
151,
151,
152,
152,
152,
152,
154,
154,
154,
154,
153,
153,
155,
155,
154,
154,
155,
155,
155,
155,
155,
155,
156,
156,
156,
156,
157,
157,
157,
157,
158,
158,
158,
158,
158,
158,
158,
158,
159,
159,
159,
159,
160,
160,
159,
159,
159,
159,
159,
159,
161,
161,
160,
160,
161,
161,
161,
161,
160,
160,
160,
160,
160,
160,
162,
162,
161,
161,
161,
161,
162,
162,
160,
160,
162,
162,
161,
161,
162,
162,
162,
162,
162,
162,
162,
162,
162,
162,
162,
162,
163,
163,
162,
162,
162,
162,
161,
161,
161,
161,
161,
161,
162,
162,
160,
160,
161,
161,
160,
160,
160,
160,
160,
160,
160,
160,
160,
160,
159,
159,
159,
159,
159,
159,
158,
158,
158,
158,
158,
158,
157,
157,
157,
157,
157,
157,
156,
156,
156,
156,
156,
156,
156,
156,
156,
156,
155,
155,
154,
154,
154,
154,
153,
153,
152,
152,
153,
153,
152,
152,
151,
151,
151,
151,
151,
151,
150,
150,
149,
149,
149,
149,
148,
148,
148,
148,
148,
148,
147,
147,
146,
146,
146,
146,
146,
146,
145,
145,
145,
145,
144,
144,
144,
144,
143,
143,
142,
142,
142,
142,
141,
141,
141,
141,
140,
140,
139,
139,
139,
139,
138,
138,
137,
137,
136,
136,
136,
136,
136,
136,
135,
135,
134,
134,
133,
133,
133,
133,
132,
132,
131,
131,
131,
131,
130,
130,
129,
129,
129,
129,
128,
128,
128,
128,
127,
127,
127,
127,
126,
126,
126,
126,
125,
125,
124,
124,
124,
124,
123,
123,
123,
123,
121,
121,
122,
122,
121,
121,
120,
120,
120,
120,
119,
119,
118,
118,
118,
118,
117,
117,
117,
117,
116,
116,
115,
115,
115,
115,
114,
114,
114,
114,
114,
114,
113,
113,
112,
112,
112,
112,
111,
111,
110,
110,
111,
111,
110,
110,
109,
109,
109,
109,
108,
108,
109,
109,
107,
107,
107,
107,
107,
107,
106,
106,
105,
105,
106,
106,
104,
104,
104,
104,
104,
104,
104,
104,
103,
103,
104,
104,
102,
102,
102,
102,
102,
102,
101,
101,
101,
101,
101,
101,
101,
101,
100,
100,
100,
100,
100,
100,
100,
100,
100,
100,
99,
99,
100,
100,
100,
100,
99,
99,
98,
98,
98,
98,
99,
99,
98,
98,
98,
98,
98,
98,
99,
99,
98,
98,
98,
98,
98,
98,
99,
99,
97,
97,
98,
98,
99,
99,
98,
98,
98,
98,
98,
98,
98,
98,
98,
98,
99,
99,
99,
99,
99,
99,
99,
99,
99,
99,
99,
99,
99,
99,
100,
100,
100,
100,
100,
100,
101,
101,
101,
101,
100,
100,
101,
101,
101,
101,
102,
102,
102,
102,
103,
103,
103,
103,
104,
104,
104,
104,
104,
104,
105,
105,
104,
104,
105,
105,
105,
105,
107,
107,
106,
106,
106,
106,
108,
108,
108,
108,
109,
109,
110,
110,
110,
110,
110,
110,
111,
111,
111,
111,
111,
111,
112,
112,
113,
113,
113,
113,
114,
114,
114,
114,
114,
114,
115,
115,
115,
115,
116,
116,
117,
117,
117,
117,
118,
118,
118,
118,
119,
119,
119,
119,
120,
120,
121,
121,
122,
122,
123,
123,
123,
123,
124,
124,
124,
124,
124,
124,
125,
125,
126,
126,
126,
126,
127,
127,
128,
128,
128,
128,
129,
129,
130,
130,
129,
129,
131,
131,
131,
131,
131,
131,
132,
132,
133,
133,
134,
134,
134,
134,
135,
135,
135,
135,
136,
136,
138,
138,
137,
137,
138,
138,
138,
138,
139,
139,
140,
140,
140,
140,
141,
141,
142,
142,
142,
142,
142,
142,
143,
143,
144,
144,
144,
144,
145,
145,
146,
146,
146,
146,
147,
147,
147,
147,
147,
147,
148,
148,
148,
148,
149,
149,
149,
149,
150,
150,
151,
151,
151,
151,
152,
152,
152,
152,
152,
152,
153,
153,
154,
154,
154,
154,
154,
154,
155,
155,
155,
155,
156,
156,
156,
156,
156,
156,
157,
157,
157,
157,
157,
157,
157,
157,
158,
158,
158,
158,
158,
158,
159,
159,
160,
160,
159,
159,
159,
159,
160,
160,
160,
160,
160,
160,
161,
161,
161,
161,
161,
161,
161,
161,
160,
160,
162,
162,
161,
161,
161,
161,
162,
162,
162,
162,
161,
161,
161,
161,
163,
163,
162,
162,
162,
162,
163,
163,
162,
162,
162,
162,
161,
161,
162,
162,
162,
162,
161,
161,
162,
162,
161,
161,
162,
162,
160,
160,
160,
160,
161,
161,
161,
161,
161,
161,
160,
160,
160,
160,
159,
159,
159,
159,
158,
158,
158,
158,
158,
158,
157,
157,
157,
157,
157,
157,
157,
157,
157,
157,
156,
156,
156,
156,
156,
156,
155,
155,
155,
155,
155,
155,
154,
154,
153,
153,
153,
153,
152,
152,
153,
153,
152,
152,
152,
152,
151,
151,
151,
151,
150,
150,
149,
149,
148,
148,
148,
148,
148,
148,
148,
148,
147,
147,
147,
147,
146,
146,
145,
145,
145,
145,
144,
144,
144,
144,
144,
144,
142,
142,
143,
143,
142,
142,
141,
141,
140,
140,
139,
139,
139,
139,
138,
138,
138,
138,
137,
137,
136,
136,
136,
136,
135,
135,
135,
135,
134,
134,
133,
133,
132,
132,
132,
132,
131,
131,
131,
131,
130,
130,
129,
129,
129,
129,
128,
128,
128,
128,
127,
127,
127,
127,
127,
127,
125,
125,
125,
125,
125,
125,
123,
123,
124,
124,
123,
123,
121,
121,
121,
121,
120,
120,
120,
120,
119,
119,
119,
119,
118,
118,
117,
117,
117,
117,
116,
116,
116,
116,
115,
115,
115,
115,
114,
114,
114,
114,
114,
114,
113,
113,
112,
112,
112,
112,
111,
111,
111,
111,
110,
110,
110,
110,
109,
109,
108,
108,
109,
109,
108,
108,
108,
108,
107,
107,
107,
107,
105,
105,
106,
106,
104,
104,
105,
105,
105,
105,
104,
104,
104,
104,
102,
102,
103,
103,
102,
102,
102,
102,
101,
101,
102,
102,
101,
101,
101,
101,
101,
101,
101,
101,
100,
100,
100,
100,
100,
100,
100,
100,
100,
100,
100,
100,
99,
99,
99,
99,
98,
98,
98,
98,
98,
98,
98,
98,
97,
97,
98,
98,
98,
98,
98,
98,
98,
98,
98,
98,
98,
98,
97,
97,
98,
98,
98,
98,
98,
98,
98,
98,
98,
98,
99,
99,
99,
99,
98,
98,
99,
99,
99,
99,
99,
99,
99,
99,
100,
100,
100,
100,
100,
100,
100,
100,
101,
101,
101,
101,
101,
101,
102,
102,
102,
102,
102,
102,
102,
102,
103,
103,
103,
103,
104,
104,
104,
104,
104,
104,
104,
104,
105,
105,
104,
104,
106,
106,
107,
107,
107,
107,
107,
107,
107,
107,
108,
108,
108,
108,
109,
109,
109,
109,
110,
110,
110,
110,
111,
111,
111,
111,
112,
112,
112,
112,
113,
113,
113,
113,
113,
113,
114,
114,
114,
114,
115,
115,
116,
116,
116,
116,
117,
117,
117,
117,
117,
117,
118,
118,
119,
119,
120,
120,
120,
120,
122,
122,
122,
122,
122,
122,
123,
123,
124,
124,
124,
124,
125,
125,
125,
125,
126,
126,
126,
126,
127,
127,
128,
128,
128,
128,
129,
129,
130,
130,
130,
130,
131,
131,
132,
132,
132,
132,
133,
133,
133,
133,
134,
134,
135,
135,
135,
135,
136,
136,
136,
136,
136,
136,
137,
137,
138,
138,
139,
139,
139,
139,
140,
140,
140,
140,
141,
141,
142,
142,
143,
143,
143,
143,
144,
144,
144,
144,
145,
145,
144,
144,
146,
146,
146,
146,
146,
146,
147,
147,
147,
147,
148,
148,
148,
148,
149,
149,
150,
150,
151,
151,
150,
150,
152,
152,
152,
152,
152,
152,
153,
153,
153,
153,
153,
153,
153,
153,
154,
154,
155,
155,
155,
155,
156,
156,
156,
156,
156,
156,
156,
156,
157,
157,
157,
157,
158,
158,
157,
157,
158,
158,
159,
159,
158,
158,
160,
160,
159,
159,
159,
159,
160,
160,
160,
160,
160,
160,
160,
160,
160,
160,
161,
161,
161,
161,
162,
162,
161,
161,
162,
162,
162,
162,
161,
161,
162,
162,
162,
162,
162,
162,
162,
162,
162,
162,
162,
162,
162,
162,
162,
162,
162,
162,
160,
160,
161,
161,
161,
161,
161,
161,
161,
161,
161,
161,
161,
161,
161,
161,
160,
160,
160,
160,
160,
160,
161,
161,
159,
159,
160,
160,
159,
159,
159,
159,
159,
159,
158,
158,
157,
157,
157,
157,
158,
158,
157,
157,
157,
157,
157,
157,
156,
156,
155,
155,
156,
156,
156,
156,
156,
156,
155,
155,
154,
154,
153,
153,
153,
153,
152,
152,
152,
152,
151,
151,
151,
151,
151,
151,
151,
151,
149,
149,
149,
149,
149,
149,
148,
148,
148,
148,
147,
147,
147,
147,
146,
146,
145,
145,
145,
145,
144,
144,
144,
144,
143,
143,
143,
143,
142,
142,
142,
142,
141,
141,
140,
140,
140,
140,
139,
139,
139,
139,
138,
138,
137,
137,
137,
137,
136,
136,
135,
135,
135,
135,
135,
135,
133,
133,
133,
133,
133,
133,
132,
132,
131,
131,
130,
130,
130,
130,
129,
129,
130,
130,
128,
128,
127,
127,
127,
127,
126,
126,
126,
126,
125,
125,
125,
125,
124,
124,
124,
124,
123,
123,
122,
122,
122,
122,
121,
121,
121,
121,
120,
120,
119,
119,
118,
118,
117,
117,
117,
117,
117,
117,
116,
116,
116,
116,
115,
115,
115,
115,
114,
114,
114,
114,
113,
113,
112,
112,
112,
112,
112,
112,
111,
111,
110,
110,
110,
110,
110,
110,
109,
109,
109,
109,
108,
108,
108,
108,
108,
108,
106,
106,
107,
107,
105,
105,
105,
105,
104,
104,
105,
105,
104,
104,
103,
103,
104,
104,
104,
104,
102,
102,
102,
102,
101,
101,
102,
102,
101,
101,
102,
102,
101,
101,
100,
100,
100,
100,
100,
100,
100,
100,
99,
99,
99,
99,
99,
99,
99,
99,
99,
99,
99,
99,
98,
98,
99,
99,
98,
98,
98,
98,
98,
98,
98,
98,
98,
98,
98,
98,
98,
98,
97,
97,
98,
98,
98,
98,
98,
98,
99,
99,
98,
98,
98,
98,
98,
98,
99,
99,
99,
99,
99,
99,
99,
99,
99,
99,
100,
100,
100,
100,
99,
99,
100,
100,
100,
100,
100,
100,
100,
100,
101,
101,
101,
101,
101,
101,
101,
101,
102,
102,
102,
102,
102,
102,
102,
102,
103,
103,
104,
104,
104,
104,
104,
104,
106,
106,
105,
105,
106,
106,
105,
105,
107,
107,
107,
107,
108,
108,
108,
108,
108,
108,
108,
108,
109,
109,
110,
110,
111,
111,
111,
111,
111,
111,
111,
111,
112,
112,
113,
113,
114,
114,
113,
113,
114,
114,
115,
115,
116,
116,
115,
115,
116,
116,
117,
117,
117,
117,
118,
118,
119,
119,
119,
119,
120,
120,
121,
121,
122,
122,
122,
122,
123,
123,
124,
124,
124,
124,
124,
124,
125,
125,
125,
125,
126,
126,
126,
126,
127,
127,
128,
128,
129,
129,
128,
128,
130,
130,
130,
130,
131,
131,
131,
131,
132,
132,
132,
132,
133,
133,
134,
134,
135,
135,
135,
135,
136,
136,
136,
136,
136,
136,
137,
137,
138,
138,
139,
139,
139,
139,
140,
140,
141,
141,
141,
141,
143,
143,
143,
143,
143,
143,
144,
144,
144,
144,
145,
145,
145,
145,
146,
146,
146,
146,
147,
147,
147,
147,
148,
148,
149,
149,
149,
149,
149,
149,
149,
149,
150,
150,
152,
152,
151,
151,
152,
152,
152,
152,
153,
153,
154,
154,
154,
154,
154,
154,
155,
155,
155,
155,
155,
155,
156,
156,
155,
155,
156,
156,
157,
157,
157,
157,
157,
157,
157,
157,
157,
157,
158,
158,
159,
159,
159,
159,
159,
159,
159,
159,
160,
160,
160,
160,
160,
160,
160,
160,
160,
160,
160,
160,
160,
160,
161,
161,
162,
162,
161,
161,
162,
162,
161,
161,
161,
161,
161,
161,
162,
162,
163,
163,
162,
162,
162,
162,
162,
162,
162,
162,
161,
161,
161,
161,
162,
162,
161,
161,
162,
162,
162,
162,
161,
161,
162,
162,
162,
162,
161,
161,
160,
160,
161,
161,
160,
160,
160,
160,
159,
159,
160,
160,
160,
160,
158,
158,
158,
158,
159,
159,
158,
158,
158,
158,
158,
158,
157,
157,
157,
157,
157,
157,
156,
156,
156,
156,
156,
156,
155,
155,
155,
155,
155,
155,
154,
154,
154,
154,
154,
154,
153,
153,
152,
152,
152,
152,
151,
151,
151,
151,
150,
150,
149,
149,
149,
149,
149,
149,
148,
148,
147,
147,
147,
147,
146,
146,
146,
146,
146,
146,
145,
145,
145,
145,
145,
145,
143,
143,
143,
143,
142,
142,
141,
141,
141,
141,
141,
141,
140,
140,
139,
139,
139,
139,
138,
138,
136,
136,
136,
136,
136,
136,
136,
136,
135,
135,
134,
134,
133,
133,
133,
133,
132,
132,
131,
131,
131,
131,
131,
131,
129,
129,
129,
129,
129,
129,
128,
128,
128,
128,
127,
127,
126,
126,
125,
125,
126,
126,
124,
124,
124,
124,
123,
123,
122,
122,
122,
122,
121,
121,
121,
121,
120,
120,
119,
119,
119,
119,
118,
118,
118,
118,
117,
117,
116,
116,
117,
117,
116,
116,
115,
115,
114,
114,
113,
113,
114,
114,
113,
113,
113,
113,
112,
112,
111,
111,
111,
111,
111,
111,
110,
110,
109,
109,
109,
109,
109,
109,
108,
108,
108,
108,
108,
108,
108,
108,
106,
106,
105,
105,
104,
104,
104,
104,
104,
104,
104,
104,
103,
103,
103,
103,
103,
103,
103,
103,
102,
102,
101,
101,
101,
101,
101,
101,
101,
101,
101,
101,
101,
101,
101,
101,
100,
100,
100,
100,
100,
100,
100,
100,
99,
99,
99,
99,
100,
100,
99,
99,
99,
99,
98,
98,
98,
98,
99,
99,
98,
98,
98,
98,
98,
98,
99,
99,
97,
97,
98,
98,
98,
98,
98,
98,
99,
99,
98,
98,
98,
98,
98,
98,
99,
99,
99,
99,
98,
98,
99,
99,
99,
99,
99,
99,
99,
99,
99,
99,
100,
100,
100,
100,
100,
100,
100,
100,
100,
100,
101,
101,
101,
101,
101,
101,
101,
101,
102,
102,
102,
102,
102,
102,
103,
103,
103,
103,
104,
104,
104,
104,
104,
104,
104,
104,
105,
105,
105,
105,
105,
105,
107,
107,
106,
106,
108,
108,
108,
108,
109,
109,
109,
109,
110,
110,
110,
110,
111,
111,
110,
110,
111,
111,
112,
112,
112,
112,
113,
113,
113,
113,
114,
114,
114,
114,
115,
115,
116,
116,
116,
116,
117,
117,
117,
117,
118,
118,
118,
118,
119,
119,
120,
120,
120,
120,
121,
121,
121,
121,
122,
122,
122,
122,
124,
124,
124,
124,
124,
124,
125,
125,
126,
126,
126,
126,
127,
127,
127,
127,
128,
128,
129,
129,
130,
130,
131,
131,
130,
130,
131,
131,
132,
132,
132,
132,
133,
133,
133,
133,
134,
134,
135,
135,
135,
135,
136,
136,
137,
137,
137,
137,
138,
138,
138,
138,
139,
139,
139,
139,
141,
141,
141,
141,
141,
141,
142,
142,
142,
142,
143,
143,
144,
144,
144,
144,
145,
145,
146,
146,
145,
145,
146,
146,
146,
146,
147,
147,
147,
147,
149,
149,
149,
149,
149,
149,
150,
150,
150,
150,
152,
152,
152,
152,
152,
152,
153,
153,
154,
154,
154,
154,
154,
154,
153,
153,
155,
155,
155,
155,
156,
156,
155,
155,
156,
156,
157,
157,
157,
157,
157,
157,
157,
157,
158,
158,
157,
157,
158,
158,
159,
159,
158,
158,
159,
159,
160,
160,
159,
159,
160,
160,
160,
160,
160,
160,
160,
160,
161,
161,
161,
161,
161,
161,
161,
161,
160,
160,
161,
161,
162,
162,
162,
162,
161,
161,
162,
162,
162,
162,
163,
163,
162,
162,
162,
162,
162,
162,
162,
162,
162,
162,
162,
162,
162,
162,
162,
162,
161,
161,
162,
162,
161,
161,
162,
162,
161,
161,
161,
161,
160,
160,
160,
160,
160,
160,
160,
160,
160,
160,
159,
159,
158,
158,
158,
158,
158,
158,
158,
158,
158,
158,
157,
157,
157,
157,
156,
156,
157,
157,
156,
156,
156,
156,
156,
156,
155,
155,
155,
155,
155,
155,
154,
154,
154,
154,
153,
153,
152,
152,
152,
152,
151,
151,
151,
151,
151,
151,
150,
150,
150,
150,
149,
149,
148,
148,
147,
147,
147,
147,
147,
147,
146,
146,
146,
146,
145,
145,
145,
145,
144,
144,
144,
144,
143,
143,
143,
143,
142,
142,
141,
141,
142,
142,
140,
140,
139,
139,
139,
139,
138,
138,
137,
137,
138,
138,
136,
136,
135,
135,
135,
135,
135,
135,
134,
134,
134,
134,
133,
133,
132,
132,
131,
131,
131,
131,
130,
130,
131,
131,
130,
130,
129,
129,
128,
128,
128,
128,
126,
126,
125,
125,
125,
125,
125,
125,
124,
124,
124,
124,
123,
123,
123,
123,
122,
122,
121,
121,
121,
121,
120,
120,
119,
119,
119,
119,
118,
118,
117,
117,
117,
117,
117,
117,
116,
116,
115,
115,
115,
115,
114,
114,
114,
114,
114,
114,
113,
113,
112,
112,
112,
112,
111,
111,
111,
111,
110,
110,
110,
110,
110,
110,
109,
109,
109,
109,
108,
108,
107,
107,
108,
108,
106,
106,
107,
107,
105,
105,
105,
105,
104,
104,
104,
104,
104,
104,
103,
103,
103,
103,
103,
103,
102,
102,
102,
102,
102,
102,
101,
101,
101,
101,
101,
101,
100,
