2-diodenkennlinien/data/ALL0007/A0007CH1.CSV

Memory Length,4000,
Trigger Level,2.00000e+01,
Source,CH1,
Probe,1.0X,
Vertical Units,V,
Vertical Scale,1.00000e+01,
Vertical Position,0.00000e+00,
Horizontal Units,S,
Horizontal Scale,1.00000e-02,
Horizontal Position,4.0000000e-04,
Horizontal Mode,Main,
Sampling Period,4.00000e-05,
Firmware,V1.14,
Time, ,
Mode,Fast,
Waveform Data,
52,
52,
52,
52,
52,
54,
54,
53,
53,
55,
55,
55,
55,
56,
56,
56,
56,
56,
56,
56,
56,
57,
57,
57,
57,
58,
58,
59,
59,
58,
58,
58,
58,
58,
58,
59,
59,
59,
59,
59,
59,
59,
59,
59,
59,
59,
59,
59,
59,
59,
59,
59,
59,
59,
59,
59,
59,
58,
58,
58,
58,
58,
58,
58,
58,
57,
57,
57,
57,
57,
57,
57,
57,
57,
57,
56,
56,
56,
56,
56,
56,
55,
55,
55,
55,
55,
55,
55,
55,
55,
55,
55,
55,
55,
55,
54,
54,
55,
55,
54,
54,
54,
54,
53,
53,
53,
53,
53,
53,
53,
53,
52,
52,
52,
52,
53,
53,
52,
52,
52,
52,
51,
51,
51,
51,
51,
51,
51,
51,
51,
51,
51,
51,
51,
51,
50,
50,
51,
51,
50,
50,
50,
50,
49,
49,
49,
49,
49,
49,
49,
49,
49,
49,
49,
49,
49,
49,
48,
48,
48,
48,
47,
47,
48,
48,
47,
47,
48,
48,
47,
47,
47,
47,
47,
47,
47,
47,
47,
47,
47,
47,
47,
47,
47,
47,
46,
46,
46,
46,
45,
45,
46,
46,
45,
45,
45,
45,
45,
45,
45,
45,
45,
45,
45,
45,
45,
45,
44,
44,
44,
44,
44,
44,
43,
43,
43,
43,
43,
43,
43,
43,
43,
43,
43,
43,
43,
43,
43,
43,
43,
43,
42,
42,
42,
42,
43,
43,
42,
42,
42,
42,
41,
41,
41,
41,
41,
41,
41,
41,
41,
41,
41,
41,
39,
39,
40,
40,
40,
40,
40,
40,
40,
40,
40,
40,
39,
39,
40,
40,
39,
39,
39,
39,
39,
39,
39,
39,
39,
39,
39,
39,
39,
39,
39,
39,
38,
38,
39,
39,
38,
38,
37,
37,
38,
38,
37,
37,
37,
37,
37,
37,
37,
37,
38,
38,
37,
37,
36,
36,
36,
36,
36,
36,
35,
35,
37,
37,
35,
35,
36,
36,
35,
35,
35,
35,
35,
35,
36,
36,
35,
35,
35,
35,
35,
35,
35,
35,
35,
35,
35,
35,
35,
35,
34,
34,
34,
34,
35,
35,
34,
34,
34,
34,
33,
33,
33,
33,
34,
34,
33,
33,
33,
33,
32,
32,
33,
33,
33,
33,
32,
32,
33,
33,
33,
33,
33,
33,
32,
32,
32,
32,
31,
31,
32,
32,
33,
33,
31,
31,
31,
31,
31,
31,
31,
31,
31,
31,
31,
31,
31,
31,
31,
31,
31,
31,
31,
31,
29,
29,
30,
30,
30,
30,
30,
30,
30,
30,
30,
30,
29,
29,
29,
29,
29,
29,
29,
29,
30,
30,
29,
29,
29,
29,
29,
29,
29,
29,
29,
29,
28,
28,
28,
28,
28,
28,
28,
28,
28,
28,
29,
29,
27,
27,
28,
28,
28,
28,
29,
29,
30,
30,
31,
31,
32,
32,
34,
34,
35,
35,
36,
36,
38,
38,
39,
39,
41,
41,
43,
43,
43,
43,
44,
44,
45,
45,
46,
46,
47,
47,
47,
47,
47,
47,
48,
48,
50,
50,
50,
50,
51,
51,
52,
52,
52,
52,
53,
53,
54,
54,
55,
55,
55,
55,
56,
56,
56,
56,
56,
56,
56,
56,
57,
57,
57,
57,
57,
57,
57,
57,
58,
58,
58,
58,
58,
58,
59,
59,
59,
59,
59,
59,
59,
59,
58,
58,
59,
59,
58,
58,
59,
59,
59,
59,
59,
59,
59,
59,
59,
59,
57,
57,
58,
58,
57,
57,
58,
58,
57,
57,
57,
57,
57,
57,
56,
56,
56,
56,
55,
55,
56,
56,
56,
56,
56,
56,
55,
55,
55,
55,
55,
55,
55,
55,
54,
54,
55,
55,
54,
54,
54,
54,
55,
55,
53,
53,
53,
53,
53,
53,
52,
52,
52,
52,
52,
52,
51,
51,
52,
52,
52,
52,
51,
51,
51,
51,
51,
51,
51,
51,
51,
51,
51,
51,
50,
50,
50,
50,
50,
50,
50,
50,
50,
50,
50,
50,
49,
49,
50,
50,
49,
49,
49,
49,
49,
49,
49,
49,
48,
48,
48,
48,
48,
48,
48,
48,
47,
47,
47,
47,
47,
47,
47,
47,
47,
47,
47,
47,
47,
47,
47,
47,
47,
47,
47,
47,
46,
46,
47,
47,
46,
46,
45,
45,
45,
45,
45,
45,
45,
45,
45,
45,
45,
45,
45,
45,
45,
45,
43,
43,
44,
44,
43,
43,
44,
44,
43,
43,
43,
43,
43,
43,
43,
43,
43,
43,
43,
43,
43,
43,
43,
43,
42,
42,
43,
43,
41,
41,
43,
43,
42,
42,
42,
42,
43,
43,
41,
41,
40,
40,
41,
41,
42,
42,
41,
41,
41,
41,
40,
40,
40,
40,
40,
40,
40,
40,
39,
39,
40,
40,
41,
41,
39,
39,
39,
39,
39,
39,
38,
38,
39,
39,
38,
38,
39,
39,
38,
38,
38,
38,
38,
38,
38,
38,
38,
38,
37,
37,
36,
36,
37,
37,
37,
37,
37,
37,
37,
37,
36,
36,
37,
37,
37,
37,
36,
36,
36,
36,
36,
36,
35,
35,
36,
36,
35,
35,
35,
35,
35,
35,
35,
35,
35,
35,
35,
35,
35,
35,
34,
34,
35,
35,
34,
34,
35,
35,
34,
34,
34,
34,
33,
33,
34,
34,
33,
33,
33,
33,
33,
33,
33,
33,
33,
33,
33,
33,
33,
33,
32,
32,
33,
33,
32,
32,
32,
32,
33,
33,
31,
31,
32,
32,
31,
31,
31,
31,
31,
31,
31,
31,
32,
32,
32,
32,
31,
31,
31,
31,
31,
31,
31,
31,
31,
31,
29,
29,
31,
31,
31,
31,
31,
31,
30,
30,
30,
30,
30,
30,
30,
30,
29,
29,
30,
30,
30,
30,
29,
29,
29,
29,
29,
29,
29,
29,
29,
29,
29,
29,
29,
29,
29,
29,
28,
28,
28,
28,
29,
29,
27,
27,
28,
28,
28,
28,
27,
27,
28,
28,
29,
29,
29,
29,
31,
31,
32,
32,
33,
33,
35,
35,
35,
35,
37,
37,
39,
39,
39,
39,
41,
41,
43,
43,
44,
44,
44,
44,
45,
45,
47,
47,
47,
47,
48,
48,
49,
49,
51,
51,
51,
51,
51,
51,
52,
52,
53,
53,
54,
54,
54,
54,
54,
54,
55,
55,
55,
55,
55,
55,
56,
56,
57,
57,
57,
57,
57,
57,
57,
57,
58,
58,
58,
58,
58,
58,
58,
58,
58,
58,
59,
59,
59,
59,
59,
59,
59,
59,
59,
59,
59,
59,
59,
59,
58,
58,
59,
59,
59,
59,
57,
57,
57,
57,
58,
58,
58,
58,
57,
57,
57,
57,
57,
57,
57,
57,
57,
57,
56,
56,
56,
56,
56,
56,
55,
55,
56,
56,
55,
55,
55,
55,
54,
54,
55,
55,
54,
54,
53,
53,
54,
54,
53,
53,
53,
53,
53,
53,
52,
52,
53,
53,
52,
52,
54,
54,
52,
52,
53,
53,
53,
53,
51,
51,
51,
51,
51,
51,
51,
51,
51,
51,
51,
51,
51,
51,
51,
51,
51,
51,
51,
51,
50,
50,
50,
50,
49,
49,
51,
51,
49,
49,
49,
49,
49,
49,
48,
48,
48,
48,
49,
49,
48,
48,
47,
47,
48,
48,
48,
48,
47,
47,
48,
48,
47,
47,
47,
47,
47,
47,
47,
47,
46,
46,
47,
47,
46,
46,
46,
46,
46,
46,
46,
46,
45,
45,
46,
46,
45,
45,
45,
45,
45,
45,
45,
45,
44,
44,
44,
44,
44,
44,
45,
45,
44,
44,
44,
44,
43,
43,
43,
43,
43,
43,
43,
43,
43,
43,
43,
43,
43,
43,
41,
41,
43,
43,
42,
42,
42,
42,
41,
41,
42,
42,
42,
42,
42,
42,
41,
41,
41,
41,
41,
41,
41,
41,
41,
41,
41,
41,
40,
40,
39,
39,
39,
39,
40,
40,
40,
40,
39,
39,
39,
39,
40,
40,
39,
39,
39,
39,
39,
39,
39,
39,
39,
39,
38,
38,
39,
39,
37,
37,
39,
39,
38,
38,
38,
38,
38,
38,
37,
37,
37,
37,
37,
37,
37,
37,
35,
35,
36,
36,
36,
36,
37,
37,
36,
36,
35,
35,
35,
35,
35,
35,
35,
35,
35,
35,
35,
35,
36,
36,
35,
35,
35,
35,
35,
35,
35,
35,
35,
35,
36,
36,
34,
34,
33,
33,
35,
35,
33,
33,
34,
34,
33,
33,
34,
34,
33,
33,
33,
33,
33,
33,
33,
33,
33,
33,
32,
32,
32,
32,
32,
32,
32,
32,
32,
32,
31,
31,
32,
32,
32,
32,
31,
31,
31,
31,
31,
31,
31,
31,
31,
31,
31,
31,
30,
30,
31,
31,
31,
31,
30,
30,
31,
31,
29,
29,
31,
31,
29,
29,
30,
30,
30,
30,
31,
31,
29,
29,
30,
30,
30,
30,
29,
29,
29,
29,
29,
29,
29,
29,
29,
29,
29,
29,
29,
29,
29,
29,
28,
28,
28,
28,
28,
28,
28,
28,
28,
28,
28,
28,
28,
28,
29,
29,
28,
28,
28,
28,
29,
29,
30,
30,
31,
31,
31,
31,
33,
33,
35,
35,
36,
36,
38,
38,
39,
39,
39,
39,
42,
42,
43,
43,
43,
43,
45,
45,
46,
46,
47,
47,
47,
47,
48,
48,
49,
49,
51,
51,
50,
50,
51,
51,
53,
53,
53,
53,
54,
54,
55,
55,
54,
54,
55,
55,
55,
55,
56,
56,
56,
56,
57,
57,
57,
57,
57,
57,
58,
58,
58,
58,
59,
59,
58,
58,
59,
59,
59,
59,
58,
58,
58,
58,
59,
59,
59,
59,
58,
58,
59,
59,
59,
59,
59,
59,
59,
59,
59,
59,
58,
58,
59,
59,
58,
58,
57,
57,
57,
57,
57,
57,
57,
57,
57,
57,
56,
56,
56,
56,
57,
57,
55,
55,
55,
55,
55,
55,
55,
55,
55,
55,
55,
55,
55,
55,
54,
54,
54,
54,
54,
54,
54,
54,
55,
55,
53,
53,
53,
53,
53,
53,
52,
52,
53,
53,
52,
52,
52,
52,
52,
52,
51,
51,
51,
51,
51,
51,
51,
51,
51,
51,
51,
51,
51,
51,
50,
50,
51,
51,
50,
50,
50,
50,
51,
51,
49,
49,
49,
49,
48,
48,
49,
49,
49,
49,
49,
49,
49,
49,
48,
48,
48,
48,
48,
48,
47,
47,
47,
47,
47,
47,
47,
47,
47,
47,
47,
47,
47,
47,
47,
47,
47,
47,
46,
46,
45,
45,
46,
46,
45,
45,
45,
45,
46,
46,
45,
45,
44,
44,
45,
45,
45,
45,
44,
44,
45,
45,
44,
44,
44,
44,
44,
44,
44,
44,
44,
44,
43,
43,
43,
43,
43,
43,
43,
43,
43,
43,
43,
43,
43,
43,
43,
43,
42,
42,
42,
42,
42,
42,
42,
42,
42,
42,
41,
41,
41,
41,
41,
41,
41,
41,
41,
41,
41,
41,
41,
41,
40,
40,
40,
40,
40,
40,
40,
40,
40,
40,
40,
40,
39,
39,
39,
39,
39,
39,
39,
39,
39,
39,
38,
38,
39,
39,
39,
39,
38,
38,
38,
38,
38,
38,
39,
39,
37,
37,
37,
37,
37,
37,
37,
37,
37,
37,
37,
37,
36,
36,
37,
37,
37,
37,
36,
36,
37,
37,
36,
36,
36,
36,
35,
35,
37,
37,
36,
36,
35,
35,
35,
35,
35,
35,
35,
35,
35,
35,
35,
35,
34,
34,
35,
35,
34,
34,
35,
35,
34,
34,
34,
34,
35,
35,
34,
34,
33,
33,
33,
33,
34,
34,
33,
33,
32,
32,
33,
33,
32,
32,
33,
33,
32,
32,
32,
32,
33,
33,
32,
32,
33,
33,
32,
32,
32,
32,
31,
31,
32,
32,
31,
31,
31,
31,
31,
31,
31,
31,
31,
31,
31,
31,
31,
31,
31,
31,
31,
31,
31,
31,
31,
31,
31,
31,
29,
29,
30,
30,
29,
29,
30,
30,
30,
30,
29,
29,
29,
29,
29,
29,
29,
29,
29,
29,
28,
28,
29,
29,
29,
29,
29,
29,
29,
29,
29,
29,
29,
29,
28,
28,
28,
28,
28,
28,
28,
28,
28,
28,
28,
28,
28,
28,
29,
29,
30,
30,
30,
30,
32,
32,
33,
33,
35,
35,
35,
35,
37,
37,
39,
39,
40,
40,
41,
41,
43,
43,
44,
44,
44,
44,
45,
45,
47,
47,
47,
47,
48,
48,
49,
49,
50,
50,
51,
51,
51,
51,
52,
52,
53,
53,
53,
53,
54,
54,
55,
55,
55,
55,
55,
55,
56,
56,
56,
56,
57,
57,
57,
57,
57,
57,
57,
57,
58,
58,
59,
59,
59,
59,
59,
59,
59,
59,
58,
58,
59,
59,
59,
59,
58,
58,
58,
58,
59,
59,
59,
59,
58,
58,
58,
58,
58,
58,
58,
58,
59,
59,
58,
58,
58,
58,
56,
56,
57,
57,
57,
57,
57,
57,
57,
57,
56,
56,
56,
56,
56,
56,
56,
56,
55,
55,
55,
55,
55,
55,
55,
55,
55,
55,
55,
55,
54,
54,
54,
54,
54,
54,
53,
53,
53,
53,
53,
53,
53,
53,
52,
52,
52,
52,
52,
52,
52,
52,
51,
51,
52,
52,
52,
52,
51,
51,
51,
51,
51,
51,
51,
51,
51,
51,
51,
51,
51,
51,
50,
50,
49,
49,
50,
50,
49,
49,
51,
51,
49,
49,
49,
49,
49,
49,
49,
49,
49,
49,
48,
48,
47,
47,
48,
48,
48,
48,
48,
48,
47,
47,
48,
48,
47,
47,
47,
47,
47,
47,
47,
47,
47,
47,
46,
46,
47,
47,
46,
46,
46,
46,
46,
46,
46,
46,
45,
45,
45,
45,
45,
45,
45,
45,
45,
45,
45,
45,
44,
44,
44,
44,
43,
43,
44,
44,
44,
44,
43,
43,
44,
44,
43,
43,
43,
43,
43,
43,
43,
43,
43,
43,
43,
43,
43,
43,
42,
42,
43,
43,
42,
42,
42,
42,
41,
41,
42,
42,
42,
42,
41,
41,
41,
41,
41,
41,
41,
41,
40,
40,
41,
41,
40,
40,
40,
40,
39,
39,
40,
40,
39,
39,
39,
39,
39,
39,
39,
39,
39,
39,
39,
39,
38,
38,
38,
38,
38,
38,
39,
39,
38,
38,
38,
38,
39,
39,
37,
37,
38,
38,
38,
38,
37,
37,
37,
37,
36,
36,
37,
37,
37,
37,
36,
36,
36,
36,
37,
37,
36,
36,
35,
35,
36,
36,
35,
35,
35,
35,
35,
35,
35,
35,
34,
34,
35,
35,
35,
35,
35,
35,
35,
35,
34,
34,
34,
34,
35,
35,
34,
34,
34,
34,
34,
34,
34,
34,
34,
34,
33,
33,
33,
33,
34,
34,
33,
33,
33,
33,
33,
33,
33,
33,
32,
32,
33,
33,
32,
32,
32,
32,
32,
32,
31,
31,
32,
32,
31,
31,
31,
31,
31,
31,
31,
31,
31,
31,
31,
31,
31,
31,
30,
30,
31,
31,
31,
31,
31,
31,
31,
31,
30,
30,
31,
31,
30,
30,
30,
30,
29,
29,
29,
29,
29,
29,
30,
30,
29,
29,
29,
29,
29,
29,
29,
29,
29,
29,
29,
29,
28,
28,
29,
29,
28,
28,
28,
28,
28,
28,
28,
28,
28,
28,
28,
28,
28,
28,
28,
28,
29,
29,
28,
28,
30,
30,
30,
30,
31,
31,
33,
33,
35,
35,
35,
35,
37,
37,
39,
39,
40,
40,
43,
43,
43,
43,
44,
44,
45,
45,
45,
45,
47,
47,
47,
47,
48,
48,
48,
48,
49,
49,
51,
51,
51,
51,
52,
52,
52,
52,
53,
53,
54,
54,
54,
54,
55,
55,
55,
55,
55,
55,
56,
56,
56,
56,
57,
57,
57,
57,
57,
57,
57,
57,
58,
58,
59,
59,
59,
59,
58,
58,
59,
59,
59,
59,
59,
59,
59,
59,
59,
59,
58,
58,
59,
59,
59,
59,
58,
58,
59,
59,
58,
58,
58,
58,
59,
59,
57,
57,
57,
57,
57,
57,
57,
57,
56,
56,
57,
57,
56,
56,
56,
56,
55,
55,
55,
55,
56,
56,
55,
55,
55,
55,
55,
55,
55,
55,
53,
53,
54,
54,
55,
55,
54,
54,
53,
53,
53,
53,
53,
53,
53,
53,
53,
53,
52,
52,
52,
52,
52,
52,
52,
52,
51,
51,
52,
52,
51,
51,
51,
51,
51,
51,
51,
51,
51,
51,
51,
51,
51,
51,
50,
50,
50,
50,
50,
50,
49,
49,
50,
50,
49,
49,
49,
49,
49,
49,
49,
49,
49,
49,
49,
49,
48,
48,
49,
49,
48,
48,
48,
48,
47,
47,
47,
47,
47,
47,
47,
47,
47,
47,
47,
47,
47,
47,
47,
47,
46,
46,
45,
45,
46,
46,
47,
47,
45,
45,
45,
45,
44,
44,
45,
45,
45,
45,
45,
45,
45,
45,
44,
44,
44,
44,
45,
45,
44,
44,
43,
43,
43,
43,
43,
43,
43,
43,
43,
43,
43,
43,
43,
43,
43,
43,
42,
42,
43,
43,
42,
42,
41,
41,
42,
42,
42,
42,
42,
42,
41,
41,
41,
41,
41,
41,
40,
40,
40,
40,
41,
41,
41,
41,
40,
40,
40,
40,
40,
40,
40,
40,
39,
39,
40,
40,
39,
39,
39,
39,
39,
39,
39,
39,
39,
39,
39,
39,
39,
39,
38,
38,
39,
39,
38,
38,
38,
38,
38,
38,
37,
37,
38,
38,
38,
38,
38,
38,
37,
37,
37,
37,
37,
37,
35,
35,
36,
36,
36,
36,
35,
35,
36,
36,
36,
36,
35,
35,
35,
35,
36,
36,
35,
35,
35,
35,
35,
35,
35,
35,
35,
35,
35,
35,
35,
35,
35,
35,
35,
35,
34,
34,
34,
34,
35,
35,
33,
33,
34,
34,
33,
33,
34,
34,
33,
33,
33,
33,
33,
33,
32,
32,
33,
33,
33,
33,
32,
32,
33,
33,
32,
32,
32,
32,
32,
32,
33,
33,
31,
31,
31,
31,
31,
31,
32,
32,
31,
31,
31,
31,
31,
31,
31,
31,
30,
30,
31,
31,
31,
31,
31,
31,
30,
30,
31,
31,
30,
30,
31,
31,
31,
31,
30,
30,
30,
30,
29,
29,
29,
29,
29,
29,
30,
30,
29,
29,
29,
29,
29,
29,
29,
29,
29,
29,
28,
28,
29,
29,
28,
28,
29,
29,
28,
28,
28,
28,
29,
29,
28,
28,
28,
28,
28,
28,
29,
29,
30,
30,
30,
30,
32,
32,
33,
33,
35,
35,
36,
36,
37,
37,
39,
39,
41,
41,
41,
41,
43,
43,
43,
43,
45,
45,
45,
45,
46,
46,
47,
47,
48,
48,
48,
48,
50,
50,
51,
51,
51,
51,
52,
52,
52,
52,
53,
53,
54,
54,
54,
54,
55,
55,
56,
56,
56,
56,
57,
57,
56,
56,
57,
57,
58,
58,
57,
57,
57,
57,
57,
57,
58,
58,
58,
58,
59,
59,
59,
59,
58,
58,
59,
59,
59,
59,
58,
58,
59,
59,
59,
59,
59,
59,
59,
59,
58,
58,
58,
58,
58,
58,
58,
58,
58,
58,
58,
58,
57,
57,
57,
57,
56,
56,
56,
56,
56,
56,
56,
56,
56,
56,
56,
56,
55,
55,
55,
55,
55,
55,
55,
55,
55,
55,
54,
54,
54,
54,
54,
54,
54,
54,
53,
53,
54,
54,
53,
53,
52,
52,
53,
53,
53,
53,
52,
52,
52,
52,
51,
51,
52,
52,
51,
51,
51,
51,
51,
51,
51,
51,
51,
51,
51,
51,
51,
51,
51,
51,
50,
50,
50,
50,
50,
50,
50,
50,
49,
49,
49,
49,
49,
49,
49,
49,
49,
49,
49,
49,
48,
48,
49,
49,
48,
48,
48,
48,
47,
47,
47,
47,
47,
47,
47,
47,
47,
47,
47,
47,
48,
48,
47,
47,
46,
46,
46,
46,
45,
45,
46,
46,
46,
46,
46,
46,
46,
46,
45,
45,
45,
45,
45,
45,
45,
45,
45,
45,
44,
44,
43,
43,
45,
45,
44,
44,
43,
43,
44,
44,
44,
44,
43,
43,
43,
43,
43,
43,
43,
43,
42,
42,
43,
43,
42,
42,
42,
42,
42,
42,
43,
43,
41,
41,
41,
41,
41,
41,
42,
42,
41,
41,
41,
41,
40,
40,
40,
40,
41,
41,
39,
39,
39,
39,
39,
39,
39,
39,
40,
40,
39,
39,
40,
40,
39,
39,
39,
39,
39,
39,
39,
39,
39,
39,
38,
38,
39,
39,
39,
39,
38,
38,
38,
38,
37,
37,
38,
38,
38,
38,
37,
37,
37,
37,
37,
37,
37,
37,
37,
37,
37,
37,
36,
36,
36,
36,
37,
37,
37,
37,
35,
35,
35,
35,
35,
35,
35,
35,
35,
35,
35,
35,
35,
35,
35,
35,
35,
35,
35,
35,
35,
35,
34,
34,
35,
35,
34,
34,
34,
34,
34,
34,
33,
33,
33,
33,
34,
34,
33,
33,
33,
33,
33,
33,
33,
33,
33,
33,
33,
33,
33,
33,
33,
33,
32,
32,
32,
32,
32,
32,
32,
32,
31,
31,
31,
31,
31,
31,
31,
31,
31,
31,
31,
31,
31,
31,
31,
31,
31,
31,
31,
31,
31,
31,
31,
31,
31,
31,
30,
30,
31,
31,
30,
30,
31,
31,
29,
29,
30,
30,
30,
30,
30,
30,
29,
29,
29,
29,
29,
29,
29,
29,
29,
29,
29,
29,
29,
29,
28,
28,
28,
28,
29,
29,
29,
29,
28,
28,
28,
28,
28,
28,
28,
28,
28,
28,
28,
28,
28,
28,
29,
29,
30,
30,
31,
31,
32,
32,
33,
33,
35,
35,
37,
37,
37,
37,
37,
37,
40,
40,
42,
42,
43,
43,
44,
44,
44,
44,
45,
45,
46,
46,
47,
47,
48,
48,
49,
49,
50,
50,
50,
50,
51,
51,
52,
52,
53,
53,
54,
54,
54,
54,
55,
55,
55,
55,
55,
55,
56,
56,
56,
56,
57,
57,
57,
57,
57,
57,
58,
58,
57,
57,
58,
58,
57,
57,
59,
59,
59,
59,
59,
59,
59,
59,
59,
59,
59,
59,
59,
59,
58,
58,
59,
59,
58,
58,
59,
59,
58,
58,
58,
58,
58,
58,
58,
58,
58,
58,
57,
57,
57,
57,
57,
57,
57,
57,
57,
57,
56,
56,
56,
56,
55,
55,
55,
55,
55,
55,
55,
55,
55,
55,
55,
55,
55,
55,
54,
54,
54,
54,
55,
55,
55,
55,
53,
53,
53,
53,
53,
53,
53,
53,
53,
53,
53,
53,
53,
53,
53,
53,
51,
51,
51,
51,
52,
52,
52,
52,
52,
52,
51,
51,
51,
51,
51,
51,
51,
51,
51,
51,
50,
50,
50,
50,
49,
49,
49,
49,
50,
50,
50,
50,
49,
49,
49,
49,
49,
49,
49,
49,
48,
48,
49,
49,
47,
47,
48,
48,
48,
48,
48,
48,
47,
47,
47,
47,
47,
47,
47,
47,
47,
47,
47,
47,
46,
46,
47,
47,
45,
45,
46,
46,
45,
45,
45,
45,
46,
46,
45,
45,
46,
46,
45,
45,
45,
45,
44,
44,
44,
44,
44,
44,
44,
44,
44,
44,
44,
44,
43,
43,
43,
43,
43,
43,
43,
43,
43,
43,
43,
43,
43,
43,
43,
43,
43,
43,
43,
43,
41,
41,
41,
41,
42,
42,
41,
41,
41,
41,
41,
41,
41,
41,
41,
41,
41,
41,
41,
41,
41,
41,
40,
40,
40,
40,
40,
40,
40,
40,
39,
39,
39,
39,
40,
40,
39,
39,
39,
39,
39,
39,
39,
39,
39,
39,
38,
38,
39,
39,
39,
39,
38,
38,
38,
38,
38,
38,
37,
37,
38,
38,
37,
37,
37,
37,
37,
37,
37,
37,
36,
36,
37,
37,
36,
36,
35,
35,
37,
37,
36,
36,
35,
35,
35,
35,
35,
35,
35,
35,
35,
35,
35,
35,
35,
35,
35,
35,
35,
35,
34,
34,
34,
34,
34,
34,
34,
34,
34,
34,
34,
34,
34,
34,
35,
35,
35,
35,
33,
33,
33,
33,
33,
33,
33,
33,
33,
33,
32,
32,
33,
33,
32,
32,
32,
32,
33,
33,
32,
32,
33,
33,
33,
33,
32,
32,
31,
31,
31,
31,
31,
31,
31,
31,
31,
31,
31,
31,
31,
31,
31,
31,
31,
31,
30,
30,
31,
31,
30,
30,
31,
31,
30,
30,
31,
31,
31,
31,
31,
31,
30,
30,
29,
29,
29,
29,
30,
30,
30,
30,
29,
29,
29,
29,
29,
29,
30,
30,
29,
29,
28,
28,
29,
29,
29,
29,
28,
28,
28,
28,
28,
28,
28,
28,
28,
28,
28,
28,
28,
28,
28,
28,
28,
28,
30,
30,
30,
30,
31,
31,
33,
33,
35,
35,
36,
36,
36,
36,
39,
39,
40,
40,
41,
41,
43,
43,
45,
45,
45,
45,
45,
45,
47,
47,
47,
47,
48,
48,
48,
48,
50,
50,
51,
51,
51,
