5-grundlagen-opAmps/data/ALL0083/A0083CH1.CSV

Memory Length,4000,
Trigger Level,2.00000e+01,
Source,CH1,
Probe,1.0X,
Vertical Units,V,
Vertical Scale,2.00000e-01,
Vertical Position,0.00000e+00,
Horizontal Units,S,
Horizontal Scale,5.00000e-03,
Horizontal Position,0.0000000e+00,
Horizontal Mode,Main,
Sampling Period,2.00000e-05,
Firmware,V1.14,
Time, ,
Mode,Fast,
Waveform Data,
67,
67,
67,
67,
67,
67,
67,
67,
67,
67,
67,
67,
67,
67,
67,
67,
67,
67,
67,
67,
67,
67,
67,
67,
67,
67,
67,
67,
67,
67,
67,
67,
67,
67,
67,
67,
67,
67,
67,
67,
67,
67,
67,
67,
67,
67,
67,
67,
67,
66,
66,
67,
67,
67,
67,
67,
67,
67,
67,
67,
67,
67,
67,
67,
67,
67,
67,
66,
66,
66,
66,
67,
67,
66,
66,
67,
67,
67,
67,
67,
67,
67,
67,
67,
67,
67,
67,
66,
66,
67,
67,
67,
67,
67,
67,
67,
67,
67,
67,
67,
67,
67,
-71,
-69,
-69,
-69,
-69,
-70,
-70,
-70,
-70,
-69,
-69,
-70,
-70,
-69,
-69,
-69,
-69,
-69,
-69,
-69,
-69,
-69,
-69,
-69,
-69,
-69,
-69,
-69,
-69,
-70,
-70,
-69,
-69,
-69,
-69,
-69,
-69,
-69,
-69,
-69,
-69,
-69,
-69,
-68,
-68,
-69,
-69,
-69,
-69,
-68,
-68,
-68,
-68,
-69,
-69,
-69,
-69,
-69,
-69,
-69,
-69,
-68,
-68,
-69,
-69,
-68,
-68,
-69,
-69,
-69,
-69,
-68,
-68,
-69,
-69,
-68,
-68,
-69,
-69,
-68,
-68,
-69,
-69,
-69,
-69,
-68,
-68,
-69,
-69,
-68,
-68,
-69,
-69,
-69,
-69,
-68,
-68,
-68,
-68,
-68,
-68,
-68,
-68,
-68,
-68,
-69,
-69,
-69,
-69,
-68,
-68,
-69,
-69,
-69,
-69,
-68,
-68,
-68,
-68,
-68,
-68,
-69,
-69,
-69,
-69,
-68,
-68,
-69,
-69,
-68,
-68,
-69,
-69,
-68,
-68,
-69,
-69,
-69,
-69,
-68,
-68,
-69,
-69,
-69,
-69,
-69,
-69,
-69,
-69,
-69,
-69,
-69,
-69,
-69,
-69,
-69,
-69,
-69,
-69,
-69,
-69,
-69,
-69,
-69,
-69,
-68,
-68,
-69,
-69,
-69,
-69,
-69,
-69,
-69,
-69,
-69,
-69,
-69,
-69,
-69,
-69,
-69,
-69,
-69,
-69,
-69,
-69,
-69,
-69,
-69,
-69,
-68,
-68,
-69,
-69,
-69,
-69,
-69,
-69,
-69,
-69,
-70,
-70,
-69,
-69,
-69,
-69,
-69,
-69,
-70,
-70,
-70,
-70,
-70,
-70,
-70,
-70,
-70,
-70,
-70,
-70,
-69,
-69,
-70,
-70,
-69,
-69,
-69,
-69,
-69,
-69,
-70,
-70,
-70,
-70,
-70,
-70,
-71,
-71,
-69,
-69,
-70,
-70,
-70,
-70,
-69,
-69,
-69,
-69,
-71,
-71,
-69,
-69,
-70,
-70,
-70,
-70,
-71,
-71,
-69,
-69,
-69,
-69,
-69,
-69,
-69,
-69,
-70,
-70,
-71,
-71,
-70,
-70,
-70,
-70,
-70,
-70,
-71,
-71,
-70,
-70,
-70,
-70,
-69,
-69,
-70,
-70,
-70,
-70,
-70,
-70,
-70,
-70,
-69,
-69,
-71,
-71,
-70,
-70,
-70,
-70,
-70,
-70,
-71,
-71,
-70,
-70,
-71,
-71,
-69,
-69,
-69,
-69,
-70,
-70,
-71,
-71,
-70,
-70,
-71,
-71,
-70,
-70,
-71,
-71,
-69,
-69,
-71,
-71,
-69,
-69,
-71,
-71,
-70,
-70,
-70,
-70,
-71,
-71,
-71,
-71,
-71,
-71,
-70,
-70,
-71,
-71,
-71,
-71,
-70,
-70,
-71,
-71,
-71,
-71,
-71,
-71,
-71,
-71,
-70,
-70,
-70,
-70,
-70,
-70,
-71,
-71,
-71,
-71,
-71,
-71,
-71,
-71,
-71,
-71,
-71,
-71,
-71,
-71,
-71,
-71,
-70,
-70,
-71,
-71,
-71,
-71,
-72,
-72,
-70,
-70,
-71,
-71,
-71,
-71,
-71,
-71,
-71,
-71,
-71,
-71,
-71,
-71,
-71,
-71,
-71,
-71,
-71,
-71,
-71,
-71,
-71,
-71,
-69,
-69,
-71,
-71,
-71,
-71,
-71,
-71,
-71,
-71,
-71,
-71,
-71,
-71,
-71,
-71,
-71,
-71,
-70,
-70,
-71,
-71,
-70,
-70,
-71,
-71,
-71,
-71,
-71,
-71,
-70,
-70,
-71,
-71,
-71,
-71,
-71,
-71,
-71,
-71,
-70,
-70,
-71,
-71,
-71,
-71,
-71,
-71,
-72,
-72,
-71,
-71,
-71,
-71,
-71,
-71,
-71,
-71,
-71,
-71,
-71,
-71,
-71,
-71,
-71,
-71,
-71,
-71,
-70,
-70,
-70,
-70,
-71,
-71,
-71,
-71,
-71,
-71,
-70,
-70,
-71,
-71,
-71,
-71,
-71,
-71,
-71,
-71,
-71,
-71,
-71,
-71,
-71,
-71,
-71,
-71,
-70,
-70,
-71,
-71,
-71,
-71,
-71,
-71,
-70,
-70,
-71,
-71,
-71,
-71,
-70,
-70,
-70,
-70,
-71,
-71,
-70,
-70,
-71,
-71,
-70,
-70,
-71,
-71,
-71,
-71,
-71,
-71,
-71,
-71,
-71,
-71,
-71,
-71,
-71,
-71,
-70,
-70,
-70,
-70,
-71,
-71,
-70,
-70,
-70,
-70,
-71,
-71,
-71,
-71,
-70,
-70,
-70,
-70,
-70,
-70,
-70,
-70,
-70,
-70,
-71,
-71,
-70,
-70,
-70,
-70,
-71,
-71,
-71,
-71,
-71,
-71,
-70,
-70,
-71,
-71,
-70,
-70,
-70,
-70,
-70,
-70,
-71,
-71,
-71,
-71,
-69,
-69,
-71,
-71,
-70,
-70,
-71,
-71,
-70,
-70,
-69,
68,
66,
66,
66,
66,
66,
66,
65,
65,
66,
66,
66,
66,
66,
66,
66,
66,
65,
65,
65,
65,
67,
67,
65,
65,
65,
65,
65,
65,
67,
67,
66,
66,
65,
65,
65,
65,
65,
65,
65,
65,
65,
65,
65,
65,
65,
65,
65,
65,
65,
65,
65,
65,
65,
65,
65,
65,
65,
65,
66,
66,
65,
65,
66,
66,
64,
64,
65,
65,
65,
65,
65,
65,
65,
65,
65,
65,
65,
65,
66,
66,
66,
66,
65,
65,
65,
65,
65,
65,
65,
65,
65,
65,
65,
65,
65,
65,
65,
65,
65,
65,
65,
65,
65,
65,
65,
65,
65,
65,
66,
66,
65,
65,
65,
65,
65,
65,
65,
65,
65,
65,
65,
65,
65,
65,
66,
66,
66,
66,
65,
65,
65,
65,
66,
66,
65,
65,
65,
65,
65,
65,
65,
65,
65,
65,
65,
65,
65,
65,
65,
65,
65,
65,
65,
65,
65,
65,
66,
66,
65,
65,
65,
65,
65,
65,
66,
66,
66,
66,
65,
65,
65,
65,
65,
65,
65,
65,
65,
65,
66,
66,
65,
65,
66,
66,
65,
65,
66,
66,
65,
65,
66,
66,
65,
65,
66,
66,
65,
65,
66,
66,
65,
65,
66,
66,
66,
66,
66,
66,
66,
66,
65,
65,
66,
66,
65,
65,
65,
65,
66,
66,
66,
66,
65,
65,
66,
66,
65,
65,
66,
66,
66,
66,
65,
65,
66,
66,
66,
66,
66,
66,
66,
66,
66,
66,
66,
66,
66,
66,
65,
65,
67,
67,
65,
65,
67,
67,
66,
66,
66,
66,
66,
66,
66,
66,
67,
67,
67,
67,
66,
66,
66,
66,
67,
67,
67,
67,
66,
66,
66,
66,
67,
67,
67,
67,
67,
67,
67,
67,
67,
67,
67,
67,
67,
67,
66,
66,
67,
67,
67,
67,
67,
67,
67,
67,
66,
66,
67,
67,
67,
67,
68,
68,
66,
66,
67,
67,
67,
67,
67,
67,
67,
67,
67,
67,
67,
67,
67,
67,
67,
67,
67,
67,
67,
67,
68,
68,
67,
67,
67,
67,
67,
67,
67,
67,
67,
67,
67,
67,
67,
67,
67,
67,
67,
67,
67,
67,
67,
67,
67,
67,
67,
67,
67,
67,
67,
67,
67,
67,
67,
67,
67,
67,
67,
67,
67,
67,
67,
67,
67,
67,
67,
67,
67,
67,
67,
67,
67,
67,
67,
67,
67,
67,
67,
67,
67,
67,
67,
67,
67,
67,
67,
67,
67,
67,
67,
67,
67,
67,
68,
68,
67,
67,
67,
67,
67,
67,
67,
67,
67,
67,
67,
67,
67,
67,
67,
67,
67,
67,
67,
67,
67,
67,
67,
67,
67,
67,
67,
67,
67,
67,
67,
67,
67,
67,
67,
67,
67,
67,
67,
67,
67,
67,
67,
67,
67,
67,
66,
66,
67,
67,
67,
67,
68,
68,
67,
67,
67,
67,
67,
67,
68,
68,
67,
67,
67,
67,
67,
67,
67,
67,
67,
67,
67,
67,
67,
67,
67,
67,
68,
68,
67,
67,
67,
67,
66,
66,
67,
67,
67,
67,
67,
67,
67,
67,
67,
67,
67,
67,
67,
67,
66,
66,
67,
67,
67,
67,
67,
67,
67,
67,
67,
67,
67,
67,
67,
67,
67,
67,
67,
67,
67,
67,
67,
67,
67,
67,
67,
67,
67,
67,
67,
67,
67,
67,
67,
67,
67,
67,
67,
67,
67,
67,
67,
67,
67,
67,
67,
67,
67,
67,
67,
67,
67,
67,
66,
66,
67,
67,
67,
67,
67,
67,
67,
67,
67,
67,
67,
67,
67,
67,
66,
66,
66,
66,
67,
67,
67,
67,
67,
67,
67,
67,
66,
66,
67,
67,
66,
66,
67,
67,
66,
66,
67,
67,
67,
67,
67,
67,
67,
67,
67,
67,
67,
67,
67,
67,
67,
67,
67,
67,
67,
67,
67,
67,
67,
67,
67,
67,
67,
67,
66,
66,
67,
67,
66,
66,
67,
67,
66,
-73,
-69,
-69,
-69,
-69,
-70,
-70,
-69,
-69,
-70,
-70,
-69,
-69,
-69,
-69,
-70,
-70,
-69,
-69,
-69,
-69,
-69,
-69,
-69,
-69,
-69,
-69,
-69,
-69,
-70,
-70,
-69,
-69,
-69,
-69,
-69,
-69,
-69,
-69,
-68,
-68,
-69,
-69,
-69,
-69,
-69,
-69,
-69,
-69,
-69,
-69,
-69,
-69,
-68,
-68,
-69,
-69,
-69,
-69,
-69,
-69,
-68,
-68,
-69,
-69,
-69,
-69,
-69,
-69,
-69,
-69,
-68,
-68,
-69,
-69,
-68,
-68,
-68,
-68,
-68,
-68,
-69,
-69,
-69,
-69,
-68,
-68,
-69,
-69,
-69,
-69,
-69,
-69,
-69,
-69,
-69,
-69,
-68,
-68,
-69,
-69,
-69,
-69,
-68,
-68,
-69,
-69,
-69,
-69,
-69,
-69,
-68,
-68,
-69,
-69,
-69,
-69,
-69,
-69,
-69,
-69,
-68,
-68,
-69,
-69,
-69,
-69,
-69,
-69,
-69,
-69,
-68,
-68,
-68,
-68,
-69,
-69,
-68,
-68,
-69,
-69,
-69,
-69,
-69,
-69,
-69,
-69,
-69,
-69,
-69,
-69,
-69,
-69,
-69,
-69,
-69,
-69,
-69,
-69,
-69,
-69,
-69,
-69,
-68,
-68,
-69,
-69,
-69,
-69,
-69,
-69,
-69,
-69,
-69,
-69,
-68,
-68,
-68,
-68,
-69,
-69,
-69,
-69,
-68,
-68,
-69,
-69,
-69,
-69,
-69,
-69,
-69,
-69,
-69,
-69,
-69,
-69,
-69,
-69,
-69,
-69,
-69,
-69,
-70,
-70,
-69,
-69,
-69,
-69,
-69,
-69,
-69,
-69,
-69,
-69,
-69,
-69,
-69,
-69,
-70,
-70,
-70,
-70,
-69,
-69,
-70,
-70,
-70,
-70,
-69,
-69,
-70,
-70,
-69,
-69,
-69,
-69,
-70,
-70,
-69,
-69,
-69,
-69,
-70,
-70,
-70,
-70,
-69,
-69,
-70,
-70,
-69,
-69,
-70,
-70,
-69,
-69,
-70,
-70,
-69,
-69,
-70,
-70,
-70,
-70,
-70,
-70,
-69,
-69,
-70,
-70,
-69,
-69,
-71,
-71,
-70,
-70,
-70,
-70,
-69,
-69,
-71,
-71,
-71,
-71,
-70,
-70,
-69,
-69,
-69,
-69,
-69,
-69,
-70,
-70,
-71,
-71,
-70,
-70,
-70,
-70,
-70,
-70,
-69,
-69,
-71,
-71,
-70,
-70,
-70,
-70,
-70,
-70,
-70,
-70,
-70,
-70,
-71,
-71,
-70,
-70,
-71,
-71,
-71,
-71,
-71,
-71,
-71,
-71,
-71,
-71,
-71,
-71,
-70,
-70,
-69,
-69,
-70,
-70,
-71,
-71,
-71,
-71,
-71,
-71,
-70,
-70,
-71,
-71,
-71,
-71,
-70,
-70,
-70,
-70,
-70,
-70,
-71,
-71,
-70,
-70,
-70,
-70,
-70,
-70,
-71,
-71,
-70,
-70,
-70,
-70,
-71,
-71,
-71,
-71,
-71,
-71,
-71,
-71,
-71,
-71,
-71,
-71,
-71,
-71,
-70,
-70,
-71,
-71,
-71,
-71,
-71,
-71,
-71,
-71,
-71,
-71,
-71,
-71,
-71,
-71,
-71,
-71,
-71,
-71,
-71,
-71,
-71,
-71,
-71,
-71,
-71,
-71,
-70,
-70,
-71,
-71,
-71,
-71,
-71,
-71,
-70,
-70,
-70,
-70,
-71,
-71,
-72,
-72,
-71,
-71,
-70,
-70,
-70,
-70,
-71,
-71,
-71,
-71,
-71,
-71,
-70,
-70,
-71,
-71,
-71,
-71,
-71,
-71,
-71,
-71,
-71,
-71,
-71,
-71,
-71,
-71,
-70,
-70,
-71,
-71,
-71,
-71,
-70,
-70,
-71,
-71,
-71,
-71,
-70,
-70,
-71,
-71,
-71,
-71,
-71,
-71,
-71,
-71,
-71,
-71,
-71,
-71,
-71,
-71,
-71,
-71,
-71,
-71,
-71,
-71,
-70,
-70,
-71,
-71,
-71,
-71,
-71,
-71,
-70,
-70,
-71,
-71,
-70,
-70,
-71,
-71,
-71,
-71,
-71,
-71,
-71,
-71,
-70,
-70,
-71,
-71,
-71,
-71,
-70,
-70,
-71,
-71,
-72,
-72,
-69,
-69,
-71,
-71,
-69,
-69,
-69,
-69,
-71,
-71,
-70,
-70,
-71,
-71,
-71,
-71,
-71,
-71,
-72,
-72,
-71,
-71,
-70,
-70,
-70,
-70,
-71,
-71,
-70,
-70,
-71,
-71,
-71,
-71,
-70,
-70,
-70,
-70,
-71,
-71,
-71,
-71,
-71,
-71,
-71,
-71,
-70,
-70,
-71,
-71,
-71,
-71,
-71,
-71,
-71,
-71,
-70,
-70,
-70,
-70,
-71,
-71,
-70,
-70,
-71,
-71,
-70,
-70,
-71,
-71,
-71,
-71,
-70,
-70,
-69,
-69,
-70,
-70,
-70,
-70,
-70,
-70,
-70,
67,
67,
67,
67,
67,
65,
65,
65,
65,
66,
66,
66,
66,
65,
65,
66,
66,
65,
65,
65,
65,
66,
66,
65,
65,
65,
65,
65,
65,
66,
66,
65,
65,
66,
66,
65,
65,
66,
66,
65,
65,
65,
65,
65,
65,
65,
65,
65,
65,
65,
65,
65,
65,
66,
66,
65,
65,
65,
65,
65,
65,
65,
65,
65,
65,
66,
66,
65,
65,
66,
66,
65,
65,
65,
65,
65,
65,
65,
65,
65,
65,
65,
65,
65,
65,
65,
65,
65,
65,
65,
65,
65,
65,
65,
65,
65,
65,
65,
65,
65,
65,
65,
65,
65,
65,
65,
65,
65,
65,
65,
65,
65,
65,
64,
64,
65,
65,
65,
65,
65,
65,
65,
65,
65,
65,
65,
65,
65,
65,
66,
66,
65,
65,
65,
65,
65,
65,
65,
65,
65,
65,
65,
65,
65,
65,
65,
65,
65,
65,
65,
65,
65,
65,
65,
65,
65,
65,
65,
65,
65,
65,
66,
66,
65,
65,
66,
66,
65,
65,
65,
65,
66,
66,
65,
65,
65,
65,
65,
65,
66,
66,
65,
65,
65,
65,
65,
65,
65,
65,
65,
65,
65,
65,
66,
66,
66,
66,
67,
67,
65,
65,
65,
65,
65,
65,
66,
66,
66,
66,
66,
66,
66,
66,
66,
66,
65,
65,
65,
65,
66,
66,
66,
66,
66,
66,
66,
66,
66,
66,
66,
66,
66,
66,
67,
67,
66,
66,
65,
65,
66,
66,
66,
66,
66,
66,
66,
66,
66,
66,
67,
67,
65,
65,
66,
66,
66,
66,
66,
66,
67,
67,
66,
66,
66,
66,
67,
67,
67,
67,
66,
66,
67,
67,
67,
67,
67,
67,
66,
66,
67,
67,
67,
67,
67,
67,
66,
66,
66,
66,
66,
66,
66,
66,
67,
67,
67,
67,
67,
67,
67,
67,
67,
67,
66,
66,
67,
67,
67,
67,
66,
66,
67,
67,
67,
67,
67,
67,
66,
66,
67,
67,
67,
67,
67,
67,
66,
66,
67,
67,
67,
67,
66,
66,
67,
67,
67,
67,
67,
67,
67,
67,
67,
67,
67,
67,
67,
67,
66,
66,
67,
67,
67,
67,
67,
67,
67,
67,
67,
67,
67,
67,
67,
67,
67,
67,
68,
68,
67,
67,
67,
67,
67,
67,
67,
67,
68,
68,
67,
67,
67,
67,
67,
67,
67,
67,
67,
67,
67,
67,
66,
66,
67,
67,
67,
67,
67,
67,
67,
67,
67,
67,
67,
67,
67,
67,
67,
67,
67,
67,
67,
67,
67,
67,
67,
67,
67,
67,
67,
67,
67,
67,
67,
67,
68,
68,
68,
68,
67,
67,
66,
66,
67,
67,
67,
67,
67,
67,
67,
67,
67,
67,
67,
67,
67,
67,
67,
67,
67,
67,
68,
68,
67,
67,
67,
67,
67,
67,
67,
67,
67,
67,
67,
67,
67,
67,
67,
67,
67,
67,
67,
67,
67,
67,
67,
67,
66,
66,
67,
67,
67,
67,
67,
67,
67,
67,
67,
67,
67,
67,
67,
67,
67,
67,
67,
67,
67,
67,
68,
68,
67,
67,
67,
67,
68,
68,
67,
67,
68,
68,
67,
67,
67,
67,
67,
67,
67,
67,
67,
67,
67,
67,
67,
67,
67,
67,
67,
67,
66,
66,
67,
67,
67,
67,
67,
67,
67,
67,
66,
66,
67,
67,
67,
67,
67,
67,
66,
66,
66,
66,
67,
67,
67,
67,
67,
67,
67,
67,
67,
67,
66,
66,
66,
66,
67,
67,
66,
66,
67,
67,
67,
67,
67,
67,
67,
67,
66,
66,
67,
67,
67,
67,
67,
67,
67,
67,
67,
67,
66,
66,
67,
67,
66,
66,
66,
66,
67,
67,
66,
66,
67,
67,
67,
67,
67,
67,
67,
67,
67,
67,
67,
67,
67,
67,
67,
67,
67,
67,
66,
66,
67,
67,
67,
67,
67,
67,
66,
66,
67,
67,
67,
67,
67,
67,
67,
67,
67,
67,
67,
67,
66,
66,
66,
-70,
-69,
-69,
-69,
-69,
-69,
-69,
-70,
-70,
-70,
-70,
-69,
-69,
-70,
-70,
-69,
-69,
-69,
-69,
-69,
-69,
-68,
-68,
-69,
-69,
-69,
-69,
-69,
-69,
-69,
-69,
-69,
-69,
-69,
-69,
-69,
-69,
-69,
-69,
-69,
-69,
-69,
-69,
-69,
-69,
-69,
-69,
-68,
-68,
-69,
-69,
-69,
-69,
-69,
-69,
-69,
-69,
-69,
-69,
-68,
-68,
-68,
-68,
-68,
-68,
-68,
-68,
-69,
-69,
-69,
-69,
-69,
-69,
-69,
-69,
-68,
-68,
-68,
-68,
-69,
-69,
-68,
-68,
-68,
-68,
-69,
-69,
-69,
-69,
-69,
-69,
-69,
-69,
-69,
-69,
-68,
-68,
-68,
-68,
-68,
-68,
-69,
-69,
-68,
-68,
-69,
-69,
-68,
-68,
-68,
-68,
-69,
-69,
-69,
-69,
-68,
-68,
-68,
-68,
-69,
-69,
-68,
-68,
-69,
-69,
-68,
-68,
-68,
-68,
-69,
-69,
-69,
-69,
-69,
-69,
-69,
-69,
-69,
-69,
-68,
-68,
-68,
-68,
-68,
-68,
-68,
-68,
-69,
-69,
-69,
-69,
-68,
-68,
-69,
-69,
-68,
-68,
-69,
-69,
-69,
-69,
-69,
-69,
-69,
-69,
-69,
-69,
-69,
-69,
-69,
-69,
-69,
-69,
-69,
-69,
-69,
-69,
-69,
-69,
-70,
-70,
-69,
-69,
-69,
-69,
-69,
-69,
-69,
-69,
-69,
-69,
-69,
-69,
-69,
-69,
-69,
-69,
-69,
-69,
-69,
-69,
-69,
-69,
-70,
-70,
-70,
-70,
-69,
-69,
-69,
-69,
-70,
-70,
-69,
-69,
-70,
-70,
-69,
-69,
-69,
-69,
-69,
-69,
-69,
-69,
-69,
-69,
-69,
-69,
-70,
-70,
-69,
-69,
-69,
-69,
-69,
-69,
-69,
-69,
-70,
-70,
-70,
-70,
-70,
-70,
-70,
-70,
-69,
-69,
-69,
-69,
-69,
-69,
-69,
-69,
-71,
-71,
-70,
-70,
-69,
-69,
-70,
-70,
-70,
-70,
-70,
-70,
-70,
-70,
-70,
-70,
-69,
-69,
-69,
-69,
-69,
-69,
-70,
-70,
-70,
-70,
-70,
-70,
-70,
-70,
-71,
-71,
-69,
-69,
-71,
-71,
-70,
-70,
-71,
-71,
-70,
-70,
-71,
-71,
-70,
-70,
-70,
-70,
-71,
-71,
-71,
-71,
-70,
-70,
-70,
-70,
-71,
-71,
-70,
-70,
-70,
-70,
-71,
-71,
-70,
-70,
-71,
-71,
-71,
-71,
-71,
-71,
-70,
-70,
-71,
-71,
-71,
-71,
-71,
-71,
-71,
-71,
-71,
-71,
-70,
-70,
-70,
-70,
-71,
-71,
-71,
-71,
-71,
-71,
-71,
-71,
-71,
-71,
-70,
-70,
-71,
-71,
-71,
-71,
-70,
-70,
-71,
-71,
-71,
-71,
-70,
-70,
-72,
-72,
-71,
-71,
-70,
-70,
-71,
-71,
-71,
-71,
-71,
-71,
-71,
-71,
-71,
-71,
-71,
-71,
-71,
-71,
-71,
-71,
-71,
-71,
-71,
-71,
-71,
-71,
-71,
-71,
-71,
-71,
-71,
-71,
-71,
-71,
-71,
-71,
-71,
-71,
-70,
-70,
-71,
-71,
-71,
-71,
-71,
-71,
-71,
-71,
-71,
-71,
-72,
-72,
-71,
-71,
-71,
-71,
-70,
-70,
-71,
-71,
-70,
-70,
-71,
-71,
-71,
-71,
-71,
-71,
-71,
-71,
-71,
-71,
-71,
-71,
-71,
-71,
-71,
-71,
-71,
-71,
-71,
-71,
-71,
-71,
-71,
-71,
-71,
-71,
-71,
-71,
-71,
-71,
-71,
-71,
-70,
-70,
-71,
-71,
-71,
-71,
-71,
-71,
-71,
-71,
-70,
-70,
-70,
-70,
-71,
-71,
-71,
-71,
-70,
-70,
-71,
-71,
-71,
-71,
-70,
-70,
-69,
-69,
-70,
-70,
-72,
-72,
-71,
-71,
-71,
-71,
-70,
-70,
-71,
-71,
-71,
-71,
-71,
-71,
-71,
-71,
-71,
-71,
-71,
-71,
-71,
-71,
-70,
-70,
-71,
-71,
-71,
-71,
-70,
-70,
-71,
-71,
-69,
-69,
-70,
-70,
-71,
-71,
-71,
-71,
-71,
-71,
-71,
-71,
-70,
-70,
-71,
-71,
-70,
-70,
-70,
-70,
-71,
-71,
-71,
-71,
-70,
-70,
-71,
-71,
-71,
-71,
-71,
-71,
-70,
-70,
-69,
-69,
-71,
-71,
-71,
-71,
-71,
-71,
-71,
-71,
-71,
-71,
-71,
-71,
-70,
-70,
-69,
-69,
-70,
-70,
-70,
-70,
-71,
-71,
-70,
-70,
-70,
-70,
-71,
-71,
-71,
-71,
-70,
-70,
-70,
-70,
-70,
-70,
-71,
-71,
-71,
-71,
-71,
-71,
-70,
-70,
-69,
-69,
-71,
66,
65,
65,
65,
65,
66,
66,
66,
66,
66,
66,
66,
66,
65,
65,
66,
66,
65,
65,
65,
65,
66,
66,
66,
66,
65,
65,
65,
65,
67,
67,
65,
65,
65,
65,
65,
65,
65,
65,
65,
65,
65,
65,
66,
66,
65,
65,
65,
65,
65,
65,
65,
65,
65,
65,
65,
65,
65,
65,
65,
65,
65,
65,
66,
66,
65,
65,
65,
65,
65,
65,
65,
65,
65,
65,
65,
65,
65,
65,
65,
65,
65,
65,
65,
65,
64,
64,
65,
65,
65,
65,
65,
65,
65,
65,
65,
65,
65,
65,
65,
65,
65,
65,
65,
65,
65,
65,
65,
65,
65,
65,
65,
65,
65,
65,
65,
65,
65,
65,
65,
65,
65,
65,
65,
65,
65,
65,
65,
65,
65,
65,
67,
67,
65,
65,
65,
65,
65,
65,
65,
65,
65,
65,
67,
67,
65,
65,
65,
65,
65,
65,
65,
65,
65,
65,
65,
65,
65,
65,
66,
66,
65,
65,
65,
65,
65,
65,
65,
65,
65,
65,
65,
65,
65,
65,
66,
66,
67,
67,
66,
66,
65,
65,
66,
66,
65,
65,
65,
65,
66,
66,
65,
65,
65,
65,
66,
66,
65,
65,
65,
65,
65,
65,
66,
66,
65,
65,
66,
66,
65,
65,
67,
67,
66,
66,
65,
65,
65,
65,
65,
65,
65,
65,
65,
65,
66,
66,
67,
67,
66,
66,
66,
66,
66,
66,
66,
66,
65,
65,
66,
66,
67,
67,
65,
65,
67,
67,
66,
66,
67,
67,
66,
66,
67,
67,
67,
67,
66,
66,
66,
66,
66,
66,
66,
66,
66,
66,
66,
66,
66,
66,
65,
65,
67,
67,
66,
66,
65,
65,
66,
66,
67,
67,
66,
66,
66,
66,
66,
66,
66,
66,
66,
66,
67,
67,
67,
67,
66,
66,
67,
67,
67,
67,
66,
66,
67,
67,
67,
67,
67,
67,
67,
67,
67,
67,
66,
66,
66,
66,
67,
67,
67,
67,
66,
66,
67,
67,
67,
67,
67,
67,
66,
66,
67,
67,
67,
67,
66,
66,
67,
67,
67,
67,
67,
67,
67,
67,
67,
67,
67,
67,
67,
67,
67,
67,
67,
67,
66,
66,
68,
68,
67,
67,
67,
67,
67,
67,
67,
67,
67,
67,
67,
67,
67,
67,
67,
67,
68,
68,
67,
67,
67,
67,
67,
67,
68,
68,
67,
67,
67,
67,
67,
67,
67,
67,
67,
67,
67,
67,
67,
67,
67,
67,
68,
68,
67,
67,
67,
67,
67,
67,
67,
67,
67,
67,
67,
67,
67,
67,
67,
67,
67,
67,
67,
67,
67,
67,
67,
67,
67,
67,
68,
68,
67,
67,
67,
67,
67,
67,
67,
67,
67,
67,
67,
67,
68,
68,
67,
67,
67,
67,
67,
67,
67,
67,
67,
67,
67,
67,
67,
67,
67,
67,
67,
67,
67,
67,
67,
67,
68,
68,
67,
67,
67,
67,
68,
68,
67,
67,
67,
67,
67,
67,
67,
67,
67,
67,
67,
67,
67,
67,
67,
67,
67,
67,
67,
67,
67,
67,
67,
67,
67,
67,
67,
67,
67,
67,
67,
67,
67,
67,
67,
67,
67,
67,
67,
67,
67,
67,
67,
67,
67,
67,
67,
67,
67,
67,
67,
67,
67,
67,
67,
67,
67,
67,
67,
67,
67,
67,
67,
67,
67,
67,
67,
67,
66,
66,
67,
67,
66,
66,
67,
67,
67,
67,
67,
67,
67,
67,
67,
67,
68,
68,
67,
67,
67,
67,
67,
67,
67,
67,
67,
67,
67,
67,
67,
67,
67,
67,
66,
66,
67,
67,
67,
67,
67,
67,
67,
67,
68,
68,
67,
67,
68,
68,
67,
67,
67,
67,
67,
67,
67,
67,
67,
67,
67,
67,
67,
67,
67,
67,
67,
67,
67,
67,
67,
67,
67,
67,
67,
67,
67,
67,
67,
67,
67,
67,
67,
67,
67,
67,
67,
67,
66,
66,
67,
67,
67,
67,
67,
67,
67,
-71,
-69,
-69,
-69,
-69,
-69,
-69,
-70,
-70,
-69,
-69,
-70,
-70,
-69,
-69,
-69,
-69,
-69,
-69,
-69,
-69,
-68,
-68,
-69,
-69,
-70,
-70,
-69,
-69,
-69,
-69,
-70,
-70,
-69,
-69,
-69,
-69,
-68,
-68,
-69,
-69,
-69,
-69,
-69,
-69,
-69,
-69,
-69,
-69,
-68,
-68,
-68,
-68,
-68,
-68,
-69,
-69,
-69,
-69,
-69,
-69,
-69,
-69,
-69,
-69,
-69,
-69,
-68,
-68,
-69,
-69,
-69,
-69,
-68,
-68,
-68,
-68,
-68,
-68,
-68,
-68,
-69,
-69,
-69,
-69,
-69,
-69,
-68,
-68,
-68,
-68,
-68,
-68,
-68,
-68,
-69,
-69,
-68,
-68,
-69,
-69,
-69,
-69,
-69,
-69,
-68,
-68,
-68,
-68,
-69,
-69,
-69,
-69,
-68,
-68,
-69,
-69,
-68,
-68,
-69,
-69,
-69,
-69,
-69,
-69,
-68,
-68,
-69,
-69,
-69,
-69,
-69,
-69,
-69,
-69,
-69,
-69,
-68,
-68,
-68,
-68,
-69,
-69,
-69,
-69,
-68,
-68,
-69,
