5-grundlagen-opAmps/data/ALL0072/A0072CH1.CSV

Memory Length,4000,
Trigger Level,-1.00000e+01,
Source,CH1,
Probe,1.0X,
Vertical Units,V,
Vertical Scale,5.00000e-02,
Vertical Position,0.00000e+00,
Horizontal Units,S,
Horizontal Scale,5.00000e-02,
Horizontal Position,0.0000000e+00,
Horizontal Mode,Roll Mode,
Waveform Last Dot Address,4000,
Sampling Period,2.00000e-04,
Firmware,V1.14,
Time, ,
Mode,Fast,
Waveform Data,
-5,
9,
1,
1,
5,
-8,
8,
-7,
5,
5,
7,
7,
5,
17,
8,
8,
8,
20,
13,
1,
11,
11,
9,
21,
12,
24,
17,
6,
19,
8,
13,
27,
17,
29,
20,
31,
23,
23,
21,
32,
26,
14,
27,
16,
28,
28,
30,
16,
27,
27,
36,
20,
29,
40,
29,
40,
28,
41,
34,
34,
32,
43,
40,
25,
28,
45,
40,
27,
31,
45,
33,
47,
37,
48,
37,
48,
38,
49,
35,
50,
40,
51,
44,
33,
46,
32,
38,
51,
48,
34,
50,
35,
42,
42,
46,
35,
43,
55,
41,
55,
44,
44,
44,
55,
52,
36,
51,
37,
47,
47,
45,
56,
48,
37,
50,
39,
46,
58,
43,
57,
50,
50,
52,
38,
53,
40,
46,
46,
47,
47,
49,
49,
52,
37,
47,
47,
49,
35,
48,
37,
48,
37,
48,
37,
44,
56,
50,
36,
36,
54,
42,
53,
41,
53,
39,
53,
44,
33,
38,
52,
43,
31,
48,
32,
41,
41,
35,
48,
35,
48,
39,
39,
41,
28,
27,
27,
33,
45,
38,
27,
34,
34,
33,
33,
32,
43,
29,
41,
29,
40,
34,
20,
28,
39,
25,
36,
26,
26,
24,
35,
17,
33,
27,
15,
22,
22,
23,
12,
24,
11,
16,
28,
15,
28,
17,
17,
20,
5,
16,
4,
18,
4,
12,
12,
7,
20,
12,
1,
15,
-1,
8,
8,
16,
-3,
0,
14,
5,
-6,
1,
1,
0,
12,
-1,
-1,
-3,
8,
-7,
6,
-6,
5,
-2,
-14,
0,
-16,
-2,
-16,
-10,
1,
-13,
-2,
-15,
-3,
-14,
-14,
-7,
-24,
-10,
-23,
-11,
-26,
-17,
-17,
-14,
-28,
-24,
-10,
-19,
-19,
-17,
-31,
-19,
-32,
-24,
-24,
-30,
-16,
-19,
-36,
-30,
-19,
-35,
-20,
-32,
-20,
-37,
-22,
-26,
-41,
-32,
-43,
-35,
-24,
-39,
-27,
-41,
-27,
-44,
-28,
-34,
-48,
-34,
-48,
-41,
-41,
-45,
-31,
-36,
-52,
-46,
-33,
-42,
-42,
-38,
-53,
-36,
-54,
-47,
-36,
-43,
-55,
-47,
-47,
-45,
-57,
-48,
-48,
-47,
-58,
-53,
-40,
-55,
-40,
-49,
-49,
-52,
-41,
-48,
-60,
-47,
-60,
-52,
-52,
-51,
-51,
-58,
-44,
-56,
-43,
-54,
-43,
-51,
-62,
-51,
-51,
-52,
-52,
-50,
-61,
-56,
-43,
-57,
-44,
-51,
-62,
-50,
-61,
-55,
-44,
-55,
-43,
-52,
-63,
-53,
-53,
-49,
-62,
-48,
-61,
-50,
-61,
-55,
-42,
-48,
-60,
-54,
-42,
-47,
-60,
-44,
-59,
-47,
-59,
-50,
-50,
-51,
-39,
-52,
-40,
-49,
-37,
-40,
-56,
-43,
-56,
-46,
-57,
-44,
-55,
-45,
-45,
-46,
-35,
-43,
-43,
-41,
-52,
-42,
-42,
-39,
-39,
-40,
-40,
-41,
-29,
-35,
-47,
-40,
-29,
-32,
-45,
-39,
-26,
-29,
-44,
-35,
-24,
-33,
-33,
-28,
-40,
-28,
-39,
-36,
-20,
-27,
-38,
-26,
-26,
-25,
-36,
-27,
-16,
-24,
-24,
-24,
-13,
-26,
-12,
-19,
-30,
-16,
-28,
-16,
-27,
-15,
-26,
-17,
-17,
-16,
-16,
-13,
-13,
-13,
-1,
-5,
-19,
-17,
0,
-10,
1,
-2,
-15,
-2,
-14,
-7,
5,
-7,
7,
-5,
8,
0,
0,
-5,
11,
0,
12,
0,
14,
2,
14,
7,
7,
9,
-4,
11,
-1,
9,
9,
8,
20,
12,
12,
12,
12,
15,
4,
8,
26,
15,
27,
15,
28,
13,
30,
21,
21,
18,
31,
20,
32,
21,
33,
23,
35,
31,
17,
32,
19,
31,
19,
27,
38,
23,
40,
31,
31,
28,
41,
32,
43,
35,
35,
35,
35,
43,
26,
35,
47,
34,
46,
38,
38,
34,
48,
37,
48,
39,
51,
39,
39,
39,
39,
40,
40,
39,
52,
48,
33,
48,
33,
48,
35,
48,
36,
48,
37,
41,
53,
45,
45,
43,
54,
40,
54,
48,
37,
45,
45,
44,
56,
45,
56,
44,
57,
46,
46,
43,
57,
54,
38,
53,
38,
44,
58,
53,
38,
46,
46,
49,
38,
43,
56,
52,
38,
45,
57,
49,
37,
47,
47,
44,
56,
46,
46,
48,
35,
52,
36,
40,
53,
45,
34,
49,
33,
50,
33,
36,
52,
44,
32,
40,
51,
39,
39,
41,
41,
38,
50,
40,
40,
39,
39,
31,
48,
33,
46,
30,
46,
38,
27,
37,
24,
34,
34,
37,
23,
42,
20,
32,
32,
29,
29,
33,
20,
26,
37,
27,
27,
27,
16,
25,
25,
29,
15,
20,
31,
22,
22,
23,
11,
25,
11,
17,
28,
21,
8,
9,
25,
12,
24,
11,
23,
12,
12,
8,
19,
6,
19,
10,
-2,
5,
17,
5,
5,
1,
15,
7,
-6,
7,
-7,
-5,
10,
-2,
12,
5,
-12,
-2,
-2,
-2,
-2,
-1,
-15,
-3,
-15,
0,
-17,
-8,
-19,
-7,
-19,
-10,
-10,
-14,
-3,
-12,
-23,
-12,
-26,
-15,
-15,
-11,
-27,
-23,
-11,
-18,
-18,
-23,
-12,
-24,
-24,
-20,
-33,
-27,
-16,
-27,
-15,
-25,
-36,
-23,
-37,
-28,
-28,
-35,
-21,
-34,
-21,
-36,
-23,
-34,
-34,
-36,
-24,
-36,
-36,
-35,
-35,
-36,
-36,
-36,
-48,
-41,
-30,
-37,
-49,
-40,
-40,
-36,
-51,
-48,
-33,
-44,
-44,
-36,
-53,
-46,
-33,
-36,
-54,
-40,
-54,
-49,
-36,
-51,
-38,
-39,
-39,
-47,
-47,
-47,
-59,
-54,
-40,
-54,
-41,
-49,
-49,
-52,
-52,
-54,
-42,
-51,
-51,
-47,
-61,
-49,
-60,
-51,
-62,
-51,
-62,
-54,
-54,
-58,
-43,
-52,
-52,
-57,
-44,
-60,
-43,
-52,
-63,
-48,
-63,
-55,
-44,
-55,
-55,
-55,
-44,
-52,
-63,
-59,
-44,
-56,
-42,
-50,
-50,
-48,
-62,
-54,
-41,
-51,
-51,
-50,
-50,
-53,
-40,
-57,
-41,
-51,
-39,
-49,
-38,
-57,
-40,
-47,
-58,
-44,
-57,
-51,
-37,
-48,
-37,
-50,
-36,
-47,
-36,
-43,
-54,
-47,
-35,
-39,
-53,
-45,
-33,
-39,
-51,
-45,
-33,
-41,
-41,
-38,
-49,
-33,
-47,
-40,
-28,
-39,
-27,
-39,
-25,
-37,
-24,
-39,
-24,
-38,
-23,
-32,
-20,
-28,
-39,
-27,
-39,
-28,
-28,
-35,
-16,
-26,
-26,
-25,
-25,
-27,
-15,
-24,
-12,
-16,
-31,
-23,
-11,
-20,
-20,
-24,
-8,
-17,
-6,
-14,
-14,
-10,
-23,
-8,
-21,
-10,
-10,
-15,
-1,
-12,
-1,
-6,
-17,
-7,
-7,
-9,
4,
-3,
-14,
-4,
8,
-1,
-1,
-2,
-2,
5,
-9,
3,
3,
4,
-7,
4,
4,
4,
16,
4,
16,
7,
19,
11,
11,
13,
13,
12,
12,
6,
23,
8,
24,
17,
17,
17,
28,
14,
27,
12,
28,
20,
20,
21,
21,
25,
13,
27,
14,
24,
24,
24,
35,
27,
27,
31,
19,
32,
20,
29,
29,
29,
41,
35,
21,
29,
43,
28,
43,
38,
25,
37,
26,
34,
34,
33,
46,
36,
47,
35,
47,
38,
38,
41,
41,
37,
49,
41,
41,
51,
33,
48,
32,
44,
33,
49,
35,
43,
54,
43,
43,
41,
54,
50,
35,
56,
56,
40,
56,
44,
55,
51,
36,
50,
37,
48,
48,
52,
37,
48,
37,
48,
48,
50,
38,
48,
37,
49,
49,
52,
38,
49,
49,
45,
58,
49,
49,
45,
57,
47,
47,
47,
47,
49,
38,
45,
56,
45,
45,
52,
37,
44,
56,
41,
54,
48,
37,
49,
36,
48,
35,
40,
52,
47,
33,
43,
43,
46,
33,
43,
31,
35,
51,
40,
40,
38,
38,
41,
27,
41,
28,
41,
28,
38,
27,
37,
26,
37,
25,
30,
43,
36,
23,
29,
41,
37,
22,
27,
39,
35,
20,
27,
27,
23,
36,
26,
26,
19,
35,
21,
34,
20,
33,
20,
32,
17,
29,
18,
18,
17,
17,
16,
16,
21,
8,
10,
24,
19,
5,
13,
13,
11,
22,
16,
1,
12,
-1,
1,
18,
12,
-3,
8,
-4,
6,
-6,
1,
12,
-2,
10,
-4,
9,
2,
-11,
-5,
7,
-1,
-13,
0,
-15,
-9,
3,
-13,
2,
-5,
-17,
-1,
-20,
-10,
-22,
-11,
-22,
-15,
-3,
-17,
-4,
-15,
-26,
-16,
-27,
-22,
-11,
-19,
-19,
-23,
-12,
-20,
-31,
-27,
-15,
-30,
-16,
-25,
-25,
-27,
-27,
-28,
-28,
-30,
-30,
-33,
-21,
-37,
-22,
-32,
-32,
-27,
-42,
-34,
-45,
-34,
-34,
-32,
-45,
-27,
-47,
-41,
-29,
-39,
-39,
-36,
-48,
-40,
-40,
-43,
-43,
-45,
-33,
-43,
-43,
-40,
-52,
-41,
-54,
-42,
-54,
-48,
-37,
-47,
-47,
-47,
-47,
-43,
-58,
-48,
-48,
-51,
-38,
-47,
-59,
-46,
-58,
-55,
-40,
-56,
-41,
-54,
-42,
-49,
-49,
-54,
-42,
-58,
-43,
-55,
-43,
-53,
-53,
-57,
-43,
-59,
-43,
-48,
-62,
-51,
-63,
-56,
-44,
-52,
-52,
-56,
-43,
-49,
-61,
-54,
-54,
-54,
-54,
-47,
-63,
-55,
-43,
-52,
-52,
-53,
-53,
-50,
-61,
-53,
-41,
-55,
-41,
-45,
-61,
-53,
-42,
-51,
-51,
-55,
-41,
-55,
-41,
-47,
-47,
-51,
-40,
-49,
-38,
-44,
-55,
-45,
-56,
-40,
-55,
-47,
-36,
-44,
-44,
-49,
-35,
-43,
-43,
-44,
-33,
-36,
-50,
-35,
-51,
-43,
-31,
-37,
-48,
-36,
-48,
-41,
-27,
-40,
-27,
-36,
-36,
-27,
-44,
-36,
-25,
-30,
-41,
-28,
-40,
-29,
-40,
-28,
-28,
-25,
-37,
-32,
-17,
-29,
-17,
-29,
-15,
-21,
-34,
-24,
-13,
-27,
-13,
-17,
-30,
-20,
-20,
-12,
-28,
-13,
-27,
-19,
-6,
-19,
-5,
-15,
-4,
-14,
-3,
-11,
-11,
-3,
-18,
0,
-18,
-7,
-7,
-3,
-14,
-5,
6,
1,
-12,
-5,
9,
-1,
11,
-1,
-1,
2,
2,
1,
13,
3,
14,
6,
6,
9,
-3,
8,
8,
5,
19,
6,
20,
14,
14,
9,
23,
15,
15,
19,
8,
20,
7,
16,
28,
23,
9,
22,
11,
22,
22,
21,
21,
28,
14,
23,
23,
26,
15,
24,
24,
31,
19,
32,
20,
32,
21,
30,
41,
28,
42,
32,
32,
33,
33,
31,
44,
31,
46,
37,
37,
35,
47,
39,
28,
37,
48,
43,
31,
32,
49,
40,
40,
40,
40,
43,
32,
42,
42,
39,
52,
47,
34,
42,
53,
40,
54,
44,
44,
44,
44,
55,
55,
42,
54,
45,
45,
41,
56,
47,
47,
45,
56,
52,
38,
53,
39,
44,
57,
53,
38,
51,
38,
46,
46,
49,
38,
44,
56,
48,
37,
51,
37,
39,
57,
43,
56,
49,
37,
50,
37,
46,
46,
45,
45,
42,
54,
43,
55,
42,
54,
44,
44,
49,
36,
45,
45,
43,
43,
46,
33,
48,
33,
42,
42,
47,
31,
36,
50,
43,
30,
44,
28,
35,
48,
31,
46,
35,
35,
41,
27,
33,
44,
31,
44,
38,
24,
32,
32,
25,
41,
37,
21,
27,
39,
37,
20,
32,
18,
30,
18,
23,
35,
25,
14,
21,
33,
20,
31,
23,
11,
22,
10,
13,
28,
13,
28,
20,
9,
12,
26,
15,
15,
15,
4,
13,
13,
8,
20,
8,
20,
15,
0,
6,
17,
8,
-3,
3,
14,
5,
5,
1,
12,
6,
-9,
-3,
9,
-4,
9,
-3,
8,
0,
-13,
-6,
-6,
0,
-17,
-2,
-17,
-8,
-8,
-16,
0,
-17,
-2,
-13,
-13,
-12,
-23,
-16,
-5,
-15,
-15,
-8,
-26,
-20,
-9,
-23,
-10,
-16,
-30,
-17,
-31,
-19,
-32,
-22,
-35,
-21,
-36,
-30,
-19,
-31,
-18,
-32,
-19,
-28,
-39,
-32,
-32,
-32,
-32,
-29,
-43,
-29,
-43,
-38,
-24,
-34,
-47,
-33,
-46,
-41,
-29,
-37,
-48,
-43,
-31,
-43,
-31,
-34,
-50,
-44,
-33,
-40,
-52,
-43,
-43,
-48,
-34,
-40,
-54,
-44,
-55,
-45,
-56,
-41,
-56,
-52,
-38,
-47,
-58,
-50,
-50,
-47,
-60,
-52,
-40,
-41,
-59,
-52,
-41,
-52,
-52,
-50,
-50,
-51,
-62,
-48,
-60,
-49,
-61,
-52,
-63,
-55,
-43,
-53,
-53,
-59,
-43,
-52,
-63,
-51,
-63,
-55,
-44,
-54,
-43,
-48,
-63,
-48,
-62,
-47,
-63,
-54,
-43,
-55,
-43,
-54,
-43,
-56,
-43,
-51,
-51,
-57,
-43,
-59,
-42,
-48,
-60,
-48,
-60,
-51,
-51,
-56,
-41,
-48,
-60,
-44,
-58,
-46,
-58,
-53,
-37,
-43,
-57,
-49,
-37,
-50,
-36,
-45,
-45,
-45,
-45,
-42,
-53,
-37,
-54,
-43,
-43,
-42,
-42,
-43,
-32,
-43,
-31,
-44,
-30,
-47,
-29,
-40,
-28,
-31,
-46,
-31,
-44,
-34,
-34,
-36,
-25,
-32,
-32,
-31,
-31,
-28,
-28,
-31,
-19,
-28,
-28,
-26,
-26,
-32,
-16,
-26,
-26,
-22,
-33,
-28,
-12,
-23,
-12,
-22,
-11,
-16,
-28,
-15,
-27,
-15,
-15,
-23,
-6,
-13,
-13,
-7,
-22,
-17,
-3,
-15,
0,
-13,
0,
-11,
1,
-4,
-15,
-12,
4,
-2,
-14,
-8,
7,
3,
-10,
0,
0,
8,
-8,
1,
12,
-1,
12,
6,
6,
2,
15,
13,
-2,
11,
-1,
6,
19,
15,
2,
19,
3,
8,
22,
14,
14,
16,
5,
13,
25,
16,
27,
19,
19,
22,
11,
23,
12,
24,
12,
28,
15,
24,
35,
23,
36,
25,
36,
31,
19,
31,
20,
31,
31,
27,
40,
29,
41,
32,
43,
30,
43,
30,
44,
31,
45,
37,
37,
33,
47,
40,
29,
36,
48,
46,
30,
42,
31,
41,
41,
45,
33,
45,
32,
42,
42,
39,
52,
42,
42,
45,
45,
49,
35,
46,
46,
44,
44,
45,
45,
41,
55,
48,
37,
48,
37,
44,
44,
44,
56,
52,
38,
52,
38,
53,
38,
49,
49,
47,
47,
53,
40,
44,
56,
48,
37,
55,
37,
41,
58,
44,
57,
51,
38,
50,
37,
44,
55,
49,
36,
45,
45,
47,
47,
47,
36,
42,
54,
47,
36,
49,
33,
40,
53,
45,
45,
47,
34,
44,
33,
35,
51,
42,
31,
45,
31,
43,
29,
37,
48,
39,
39,
38,
38,
31,
46,
37,
26,
37,
26,
37,
24,
30,
42,
35,
23,
29,
41,
28,
41,
30,
30,
22,
38,
30,
17,
32,
16,
28,
17,
27,
15,
23,
34,
20,
32,
19,
30,
17,
31,
19,
19,
15,
27,
12,
27,
16,
16,
17,
6,
15,
4,
13,
13,
5,
20,
6,
20,
15,
-1,
2,
17,
9,
-3,
7,
-5,
2,
2,
6,
-8,
5,
-10,
4,
-9,
-2,
-2,
-5,
8,
4,
-13,
-3,
-14,
-5,
-16,
-4,
-16,
-6,
-18,
-8,
-19,
-6,
-21,
-12,
-12,
-20,
-4,
-12,
-24,
-21,
-7,
-18,
-18,
-18,
-18,
-15,
-30,
-19,
-30,
-18,
-31,
-25,
-14,
-23,
-34,
-19,
-35,
-27,
-27,
-24,
-38,
-32,
-20,
-29,
-29,
-32,
-32,
-33,
-33,
-28,
-42,
-32,
-44,
-40,
-26,
-28,
-45,
-41,
-27,
-42,
-29,
-32,
-47,
-36,
-48,
-38,
-50,
-40,
-40,
-44,
-32,
-40,
-52,
-43,
-43,
-52,
-36,
-47,
-35,
-49,
-36,
-44,
-57,
-50,
-39,
-49,
-37,
-55,
-39,
-42,
-57,
-49,
-49,
-53,
-41,
-50,
-50,
-53,
-41,
-60,
-41,
-49,
-61,
-49,
-60,
-50,
-62,
-50,
-61,
-56,
-44,
-54,
-43,
-50,
-61,
-53,
-53,
-53,
-42,
-58,
-44,
-56,
-44,
-53,
-53,
-60,
-44,
-55,
-55,
-56,
-44,
-53,
-53,
-55,
-44,
-51,
-51,
-54,
-43,
-55,
-42,
-55,
-42,
-50,
-61,
-48,
-59,
-50,
-61,
-43,
-60,
-49,
-49,
-51,
-40,
-43,
-58,
-52,
-39,
-48,
-48,
-47,
-47,
-48,
-37,
-44,
-56,
-45,
-45,
-46,
-46,
-43,
-43,
-43,
-43,
-37,
-51,
-47,
-32,
-43,
-31,
-39,
-39,
-36,
-47,
-38,
-38,
-44,
-27,
-30,
-46,
-36,
-36,
-39,
-25,
-28,
-43,
-31,
-31,
-36,
-20,
-33,
-21,
-27,
-39,
-31,
-19,
-21,
-37,
-33,
-17,
-21,
-34,
-31,
-16,
-26,
-13,
-14,
-32,
-23,
-11,
-24,
-8,
-16,
-27,
-18,
-6,
-18,
-7,
-19,
-5,
-15,
-3,
-15,
-3,
-11,
0,
-14,
1,
-4,
-16,
-3,
-16,
1,
-14,
-5,
-5,
1,
-13,
-8,
7,
-4,
11,
5,
-9,
-1,
12,
1,
13,
9,
-4,
2,
15,
11,
-2,
8,
8,
4,
20,
20,
2,
16,
3,
16,
4,
17,
5,
24,
6,
14,
27,
17,
17,
20,
8,
17,
30,
24,
12,
24,
24,
20,
32,
21,
34,
21,
36,
30,
17,
25,
38,
21,
37,
24,
39,
35,
21,
27,
41,
33,
33,
29,
43,
36,
24,
31,
44,
33,
45,
39,
27,
34,
46,
33,
47,
31,
47,
41,
41,
40,
40,
38,
50,
37,
51,
42,
42,
47,
34,
47,
33,
41,
53,
48,
36,
50,
36,
52,
36,
49,
37,
40,
55,
48,
37,
51,
37,
51,
38,
52,
37,
49,
37,
47,
47,
46,
57,
49,
37,
42,
57,
45,
56,
50,
37,
47,
47,
43,
57,
48,
37,
51,
39,
48,
48,
50,
38,
48,
37,
48,
48,
49,
36,
38,
55,
42,
54,
40,
55,
47,
35,
54,
36,
43,
43,
37,
52,
49,
32,
43,
32,
45,
32,
44,
33,
46,
31,
44,
30,
32,
49,
40,
40,
36,
47,
35,
46,
35,
35,
32,
44,
34,
34,
34,
34,
27,
43,
33,
22,
32,
32,
32,
20,
27,
38,
25,
36,
25,
25,
20,
34,
24,
24,
25,
25,
23,
23,
22,
22,
19,
30,
24,
9,
19,
8,
20,
8,
14,
27,
16,
16,
12,
23,
11,
11,
12,
12,
10,
10,
15,
-1,
4,
17,
5,
16,
4,
4,
10,
-5,
4,
-8,
-2,
11,
-4,
10,
-5,
8,
-1,
-12,
-8,
5,
-7,
4,
-3,
-14,
-10,
1,
-10,
1,
-8,
-19,
-5,
-20,
-12,
-12,
-10,
-22,
-15,
-4,
-9,
-26,
-13,
-28,
-23,
-9,
-18,
-29,
-22,
-22,
-16,
-32,
-23,
-23,
-27,
-16,
-23,
-35,
-25,
-36,
-27,
-27,
-28,
-28,
-27,
-38,
-25,
-40,
-36,
-24,
-38,
-24,
-40,
-25,
-38,
-25,
-37,
-37,
-37,
-37,
-39,
-39,
-32,
-48,
-40,
-40,
-34,
-51,
-45,
-32,
-42,
-42,
-42,
-42,
-42,
-53,
-48,
-35,
-42,
-55,
-45,
-45,
-49,
-36,
-43,
-56,
-48,
-48,
-52,
-39,
-48,
-48,
-44,
-58,
-55,
-40,
-47,
-59,
-47,
-60,
-47,
-60,
-52,
-52,
-53,
-53,
-53,
-53,
-49,
-60,
-45,
-61,
-52,
-52,
-56,
-43,
-48,
-63,
-49,
-62,
-55,
-43,
-49,
-62,
-52,
-52,
-51,
-51,
-48,
-63,
-54,
-43,
-55,
-44,
-49,
-61,
-55,
-44,
-56,
-43,
-52,
-52,
-54,
-43,
-48,
-60,
-54,
-43,
-53,
-53,
-50,
-50,
-44,
-60,
-49,
-49,
-48,
-48,
-52,
-39,
-49,
-37,
-41,
-55,
-40,
-55,
-51,
-37,
-44,
-44,
-41,
-54,
-39,
-53,
-47,
-34,
-45,
-33,
-41,
-41,
-44,
-32,
-39,
-39,
-42,
-29,
-39,
-28,
-30,
-47,
-37,
-37,
-32,
-44,
-33,
-44,
-35,
-24,
-30,
-42,
-27,
-40,
-36,
-21,
-32,
-20,
-25,
-37,
-31,
-19,
-24,
-24,
-24,
-35,
-19,
-32,
-25,
-25,
-25,
-12,
-23,
-11,
-21,
-10,
-11,
-28,
-10,
-27,
-16,
-16,
-14,
-3,
-12,
-23,
-13,
-13,
-5,
-19,
-11,
0,
-6,
-6,
-9,
3,
-3,
-14,
-7,
5,
-5,
7,
-1,
-1,
-3,
9,
-7,
11,
2,
2,
3,
3,
2,
14,
8,
-3,
10,
-1,
9,
9,
2,
20,
8,
21,
10,
21,
9,
22,
9,
23,
12,
25,
17,
17,
16,
27,
16,
28,
17,
31,
21,
21,
24,
13,
21,
33,
29,
17,
28,
17,
32,
18,
20,
37,
33,
20,
28,
39,
24,
40,
25,
40,
35,
22,
40,
24,
33,
45,
38,
25,
32,
45,
45,
26,
32,
46,
36,
48,
43,
29,
45,
31,
38,
50,
40,
51,
42,
30,
44,
33,
40,
53,
37,
52,
42,
53,
45,
45,
48,
35,
44,
44,
47,
36,
48,
37,
45,
45,
46,
46,
41,
55,
41,
56,
53,
37,
52,
38,
52,
39,
52,
38,
49,
49,
49,
37,
49,
38,
51,
38,
48,
37,
49,
37,
49,
38,
46,
46,
44,
56,
48,
36,
49,
37,
50,
38,
46,
46,
49,
36,
42,
55,
43,
43,
44,
44,
42,
53,
44,
44,
45,
34,
38,
52,
51,
32,
42,
31,
36,
50,
37,
49,
31,
48,
31,
48,
39,
39,
32,
47,
37,
37,
40,
26,
33,
44,
33,
44,
35,
24,
29,
40,
31,
31,
27,
40,
25,
38,
24,
37,
25,
25,
30,
17,
21,
33,
19,
33,
19,
33,
16,
31,
14,
29,
27,
11,
12,
28,
18,
18,
14,
25,
7,
24,
17,
5,
9,
22,
8,
20,
15,
0,
7,
18,
7,
7,
5,
5,
7,
-4,
9,
-6,
4,
-7,
8,
-10,
0,
0,
3,
-11,
-2,
-2,
2,
-13,
-11,
4,
-6,
-6,
-7,
-7,
-10,
-10,
-11,
-11,
-13,
-13,
-7,
-23,
-23,
-5,
-14,
-14,
-17,
-6,
-12,
-27,
-19,
-19,
-24,
-11,
-16,
-31,
-23,
-23,
-15,
-35,
-24,
-24,
-23,
-36,
-31,
-18,
-29,
-29,
-31,
-20,
-34,
-21,
-34,
-20,
-32,
-32,
-32,
-43,
-29,
-44,
-29,
-44,
-39,
-28,
-43,
-28,
-44,
-28,
-39,
-39,
-41,
-41,
-45,
-31,
-43,
-32,
-43,
-32,
-41,
-52,
-44,
-44,
-44,
-55,
-42,
-55,
-48,
-37,
-43,
-56,
-38,
-58,
-48,
-48,
-49,
-49,
-41,
-58,
-52,
-39,
-46,
-59,
-51,
-51,
-45,
-59,
-52,
-52,
-55,
-43,
-55,
-44,
-52,
-52,
-51,
-62,
-48,
-62,
-56,
-44,
-56,
-43,
-50,
-61,
-59,
-44,
-57,
-44,
-58,
-44,
-55,
-44,
-62,
-44,
-57,
-44,
-57,
-44,
-55,
-44,
-53,
-53,
-54,
-54,
-53,
-53,
-50,
-50,
-53,
-42,
-49,
-60,
-48,
-60,
-53,
-41,
-48,
-59,
-53,
-40,
-53,
-40,
-49,
-49,
-47,
-47,
-48,
-48,
-52,
-39,
-47,
-36,
-45,
-45,
-39,
-55,
-46,
-46,
-46,
-34,
-49,
-35,
-45,
-33,
-41,
-41,
-42,
-42,
-41,
-30,
-41,
-30,
-35,
-48,
-37,
-37,
-34,
-45,
-39,
-27,
-41,
-27,
-38,
-24,
-31,
-42,
-32,
-32,
-30,
-30,
-31,
-19,
-32,
-19,
-25,
-36,
-26,
-26,
-31,
-16,
-26,
-14,
-21,
-32,
-25,
-12,
-18,
-29,
-18,
-18,
-18,
-18,
-16,
-16,
-17,
-17,
-14,
-3,
-11,
-11,
-12,
-12,
-10,
-10,
-3,
-18,
-11,
3,
-11,
3,
-6,
-6,
-2,
-13,
-2,
-2,
-2,
-2,
3,
-9,
0,
11,
1,
12,
2,
13,
6,
6,
4,
15,
9,
9,
5,
17,
9,
9,
10,
10,
18,
2,
5,
23,
14,
14,
16,
16,
16,
16,
23,
9,
23,
10,
19,
31,
15,
31,
23,
12,
25,
25,
27,
16,
22,
37,
30,
18,
31,
18,
35,
20,
31,
20,
38,
21,
30,
30,
34,
34,
30,
43,
35,
24,
41,
26,
33,
45,
36,
47,
35,
47,
41,
29,
33,
48,
37,
49,
43,
31,
44,
31,
47,
33,
44,
31,
45,
33,
45,
34,
44,
33,
40,
54,
44,
44,
40,
55,
47,
36,
48,
36,
48,
37,
40,
55,
45,
56,
51,
37,
48,
37,
49,
38,
52,
38,
46,
57,
50,
39,
51,
39,
46,
58,
44,
56,
49,
49,
51,
38,
49,
38,
49,
37,
47,
47,
52,
37,
47,
47,
45,
45,
46,
57,
47,
47,
44,
44,
38,
54,
38,
53,
41,
54,
45,
34,
43,
43,
43,
43,
36,
52,
47,
32,
39,
39,
40,
40,
43,
29,
34,
48,
41,
28,
31,
45,
36,
36,
34,
45,
34,
34,
37,
25,
38,
23,
29,
42,
29,
29,
30,
30,
32,
19,
29,
29,
30,
18,
21,
35,
20,
35,
25,
25,
28,
14,
21,
32,
19,
19,
16,
28,
21,
8,
21,
8,
20,
7,
13,
13,
11,
22,
9,
21,
19,
3,
10,
10,
5,
17,
11,
-2,
7,
7,
1,
14,
9,
-6,
3,
3,
-3,
12,
0,
0,
3,
-11,
-2,
-2,
-8,
4,
-7,
4,
-11,
4,
-9,
2,
-9,
-9,
-7,
-19,
-8,
-21,
-11,
-23,
-5,
-23,
-14,
-25,
-15,
-15,
-15,
-27,
-17,
-28,
-19,
-19,
-13,
-31,
-24,
-13,
-28,
-15,
-20,
-33,
-27,
-16,
-22,
-35,
-28,
-28,
-33,
-19,
-28,
-40,
-33,
-22,
-31,
-42,
-39,
-23,
-40,
-25,
-33,
-45,
-32,
-46,
-34,
-47,
-34,
-47,
-37,
-48,
-35,
-49,
-39,
-50,
-39,
-51,
-37,
-51,
-39,
-54,
-46,
-35,
-44,
-44,
-48,
-35,
-54,
-37,
-47,
-47,
-48,
-48,
-44,
-57,
-46,
-59,
-47,
-59,
-50,
-50,
-44,
-59,
-48,
-60,
-51,
-51,
-56,
-41,
-55,
-41,
-55,
-43,
-52,
-52,
-47,
-61,
-51,
-51,
-55,
-44,
-52,
-63,
-54,
-54,
-58,
-44,
-60,
-44,
-57,
-44,
-54,
-43,
-55,
-44,
-57,
-43,
-51,
-63,
-56,
-44,
-47,
-62,
-52,
-52,
-56,
-42,
-48,
-61,
-51,
-51,
-51,
-51,
-49,
-49,
-59,
-41,
-53,
-42,
-51,
-40,
-54,
-40,
-49,
-49,
-47,
-47,
-46,
-58,
-44,
-56,
-43,
-56,
-44,
-55,
-47,
-36,
-41,
-54,
-51,
-35,
-40,
-52,
-45,
-33,
-44,
-33,
-40,
-40,
-38,
-51,
-31,
-48,
-38,
-38,
-40,
-29,
-36,
-36,
-40,
-26,
-40,
-25,
-33,
-44,
-31,
-44,
-33,
-33,
-29,
-40,
-37,
-19,
-34,
-19,
-29,
-18,
-29,
-17,
-23,
-34,
-24,
-24,
-21,
-32,
-26,
-12,
-16,
-29,
-23,
-11,
-19,
-7,
-9,
-26,
-14,
-14,
-12,
-23,
-7,
-22,
-8,
-23,
-14,
-1,
-12,
0,
-1,
-17,
-7,
-7,
-10,
5,
-8,
6,
1,
-11,
-4,
9,
