6-anwendungen-opAmps/daten/ALL0004/A0004CH1.CSV

Memory Length,4000,
Trigger Level,2.00000e+02,
Source,CH1,
Probe,1.0X,
Vertical Units,V,
Vertical Scale,5.00000e+00,
Vertical Position,-2.00000e-01,
Horizontal Units,S,
Horizontal Scale,5.00000e-02,
Horizontal Position,0.0000000e+00,
Horizontal Mode,Roll Mode,
Waveform Last Dot Address,4000,
Sampling Period,2.00000e-04,
Firmware,V1.14,
Time, ,
Mode,Fast,
Waveform Data,
-79,
-78,
-78,
-79,
-79,
-77,
-77,
-79,
64,
64,
64,
64,
64,
63,
63,
64,
64,
64,
64,
64,
64,
64,
64,
65,
65,
64,
64,
64,
64,
64,
64,
64,
64,
64,
64,
64,
64,
64,
64,
65,
65,
64,
64,
65,
65,
64,
64,
64,
64,
64,
64,
65,
65,
64,
64,
65,
65,
64,
64,
64,
64,
65,
65,
64,
64,
63,
63,
64,
64,
63,
63,
65,
65,
64,
64,
64,
64,
64,
64,
64,
64,
65,
65,
64,
64,
64,
64,
65,
65,
65,
65,
64,
64,
64,
64,
64,
64,
64,
64,
64,
64,
64,
64,
64,
64,
64,
64,
65,
65,
64,
64,
64,
64,
64,
64,
64,
64,
64,
64,
65,
65,
64,
64,
64,
64,
64,
64,
65,
65,
64,
64,
64,
64,
65,
65,
64,
64,
64,
64,
64,
64,
64,
64,
65,
65,
64,
64,
64,
64,
64,
64,
64,
64,
65,
65,
64,
64,
65,
65,
65,
65,
63,
63,
63,
63,
65,
65,
64,
64,
64,
64,
64,
64,
65,
65,
65,
65,
65,
65,
64,
64,
65,
65,
64,
64,
65,
65,
65,
65,
64,
64,
64,
64,
64,
64,
64,
64,
64,
64,
64,
64,
64,
64,
64,
64,
64,
64,
64,
64,
65,
65,
65,
65,
64,
64,
64,
64,
64,
64,
64,
64,
65,
65,
65,
65,
63,
63,
64,
64,
64,
64,
64,
64,
65,
65,
64,
64,
64,
64,
65,
65,
64,
64,
65,
65,
64,
64,
65,
65,
66,
66,
64,
64,
65,
65,
65,
65,
64,
64,
64,
64,
64,
64,
64,
64,
64,
64,
65,
65,
64,
64,
65,
65,
64,
64,
65,
65,
65,
65,
65,
65,
64,
64,
65,
65,
65,
65,
65,
65,
64,
64,
64,
64,
63,
63,
64,
64,
64,
64,
64,
64,
64,
64,
64,
64,
64,
64,
64,
64,
63,
63,
64,
64,
64,
64,
64,
64,
64,
64,
64,
64,
64,
64,
64,
64,
64,
64,
64,
64,
65,
65,
65,
65,
64,
64,
65,
65,
64,
64,
65,
65,
64,
64,
63,
63,
64,
64,
64,
64,
64,
64,
64,
64,
64,
64,
65,
65,
64,
64,
65,
65,
64,
64,
64,
64,
65,
65,
64,
64,
65,
65,
64,
64,
64,
64,
65,
65,
63,
63,
65,
65,
64,
64,
64,
64,
64,
64,
64,
64,
64,
64,
64,
64,
64,
64,
65,
65,
65,
65,
64,
64,
65,
65,
64,
64,
64,
64,
64,
64,
64,
64,
64,
64,
64,
64,
64,
64,
64,
64,
64,
64,
65,
65,
65,
65,
64,
64,
64,
64,
64,
64,
64,
64,
64,
64,
65,
65,
64,
64,
65,
65,
65,
65,
65,
65,
65,
65,
65,
65,
65,
65,
65,
64,
64,
64,
64,
64,
64,
64,
66,
66,
65,
65,
64,
64,
63,
63,
64,
64,
64,
64,
65,
65,
64,
64,
64,
64,
65,
65,
64,
64,
64,
64,
65,
65,
64,
64,
64,
64,
65,
65,
65,
65,
64,
64,
64,
64,
65,
65,
64,
64,
65,
65,
64,
64,
64,
64,
65,
65,
64,
64,
63,
63,
64,
64,
64,
64,
64,
64,
64,
64,
64,
64,
65,
65,
64,
64,
64,
64,
65,
65,
63,
63,
64,
64,
64,
64,
64,
64,
64,
64,
64,
64,
64,
64,
65,
65,
63,
63,
64,
64,
65,
65,
64,
64,
64,
64,
64,
64,
63,
63,
64,
64,
65,
65,
64,
64,
64,
64,
64,
64,
65,
65,
64,
64,
65,
65,
65,
65,
65,
65,
65,
65,
64,
64,
64,
64,
64,
64,
64,
64,
65,
65,
65,
65,
64,
64,
64,
64,
65,
65,
64,
64,
64,
64,
65,
65,
64,
64,
65,
65,
64,
64,
65,
65,
64,
64,
65,
65,
64,
64,
64,
64,
64,
64,
64,
64,
65,
65,
65,
65,
64,
64,
64,
64,
64,
64,
65,
65,
64,
64,
65,
65,
64,
64,
64,
64,
64,
64,
65,
65,
65,
65,
64,
64,
64,
64,
65,
65,
64,
64,
65,
65,
64,
64,
65,
65,
65,
65,
64,
64,
64,
64,
65,
65,
65,
65,
63,
63,
64,
64,
64,
64,
64,
64,
64,
64,
65,
65,
65,
65,
64,
64,
64,
64,
65,
65,
65,
65,
65,
65,
65,
65,
65,
65,
64,
64,
64,
64,
64,
64,
64,
64,
64,
64,
65,
65,
65,
65,
64,
64,
65,
65,
65,
65,
64,
64,
64,
64,
65,
65,
64,
64,
64,
64,
64,
64,
64,
64,
65,
65,
64,
64,
65,
65,
65,
65,
64,
64,
64,
64,
64,
64,
64,
64,
65,
65,
65,
65,
64,
64,
64,
64,
64,
64,
64,
64,
63,
63,
65,
65,
64,
64,
65,
65,
64,
64,
63,
63,
64,
64,
64,
64,
64,
64,
64,
64,
64,
64,
64,
64,
64,
64,
65,
65,
65,
65,
64,
64,
65,
65,
64,
64,
64,
64,
65,
65,
64,
64,
65,
65,
64,
64,
64,
64,
64,
64,
64,
64,
64,
64,
65,
65,
64,
64,
64,
64,
65,
65,
64,
64,
64,
64,
65,
65,
65,
65,
65,
65,
64,
64,
64,
64,
64,
64,
64,
64,
65,
65,
64,
64,
63,
63,
65,
65,
64,
64,
65,
65,
64,
64,
64,
64,
64,
64,
65,
65,
64,
64,
64,
64,
64,
64,
65,
65,
64,
64,
64,
64,
64,
64,
64,
64,
64,
64,
65,
65,
64,
64,
64,
64,
64,
64,
64,
64,
64,
64,
65,
65,
64,
64,
65,
65,
64,
64,
64,
64,
64,
64,
64,
64,
64,
64,
64,
64,
65,
65,
64,
64,
65,
65,
64,
64,
64,
64,
64,
64,
64,
64,
64,
64,
64,
64,
65,
65,
65,
65,
64,
64,
64,
64,
64,
64,
65,
65,
65,
65,
64,
64,
63,
63,
64,
64,
63,
63,
64,
64,
64,
64,
64,
64,
64,
64,
63,
63,
65,
65,
64,
64,
65,
65,
64,
64,
64,
64,
65,
65,
64,
64,
65,
65,
65,
65,
65,
65,
65,
65,
64,
64,
64,
64,
64,
64,
65,
65,
65,
65,
63,
63,
65,
65,
64,
64,
64,
64,
65,
65,
64,
64,
64,
64,
66,
66,
64,
64,
65,
65,
64,
64,
64,
64,
64,
64,
64,
64,
63,
63,
64,
64,
64,
64,
64,
64,
64,
64,
64,
64,
65,
65,
64,
64,
63,
63,
66,
66,
64,
64,
64,
64,
65,
65,
64,
64,
65,
65,
64,
64,
65,
65,
64,
64,
65,
65,
64,
64,
64,
64,
65,
65,
65,
65,
64,
64,
64,
64,
64,
64,
63,
63,
64,
64,
64,
64,
65,
65,
64,
64,
65,
65,
65,
65,
64,
64,
64,
64,
65,
65,
64,
64,
64,
64,
64,
64,
64,
64,
64,
64,
64,
64,
65,
65,
64,
64,
65,
65,
64,
64,
65,
65,
63,
63,
64,
64,
64,
64,
64,
64,
64,
64,
65,
65,
65,
65,
63,
63,
65,
65,
64,
64,
64,
64,
64,
64,
64,
64,
65,
65,
64,
64,
64,
64,
65,
65,
64,
64,
64,
64,
64,
64,
64,
64,
65,
65,
63,
63,
65,
65,
64,
64,
64,
64,
65,
65,
64,
64,
65,
65,
65,
65,
64,
64,
64,
64,
64,
64,
64,
64,
64,
64,
65,
65,
64,
64,
65,
65,
65,
65,
64,
64,
64,
64,
64,
64,
64,
64,
64,
64,
64,
64,
64,
64,
65,
65,
64,
64,
64,
64,
64,
64,
64,
64,
65,
65,
64,
64,
64,
64,
63,
63,
64,
64,
64,
64,
64,
64,
64,
64,
64,
64,
64,
64,
64,
64,
65,
65,
65,
65,
65,
65,
64,
64,
65,
65,
64,
64,
64,
64,
64,
64,
64,
64,
64,
64,
65,
65,
65,
65,
64,
64,
65,
65,
63,
63,
64,
64,
64,
64,
65,
65,
64,
64,
64,
64,
65,
65,
65,
65,
64,
64,
65,
65,
64,
64,
64,
64,
63,
63,
64,
64,
64,
64,
64,
64,
64,
64,
64,
64,
64,
64,
65,
65,
64,
64,
65,
65,
64,
64,
64,
64,
65,
65,
65,
65,
64,
64,
64,
64,
64,
64,
64,
64,
65,
65,
63,
63,
63,
63,
62,
62,
63,
63,
63,
63,
62,
62,
62,
62,
62,
62,
63,
63,
61,
61,
62,
62,
61,
61,
61,
61,
61,
61,
60,
60,
61,
61,
62,
62,
61,
61,
61,
61,
61,
61,
61,
61,
60,
60,
61,
61,
61,
61,
60,
60,
60,
60,
60,
60,
60,
60,
59,
59,
58,
58,
60,
60,
58,
58,
58,
58,
58,
58,
58,
58,
58,
58,
58,
58,
58,
58,
58,
58,
57,
57,
59,
59,
57,
57,
57,
57,
57,
57,
56,
56,
57,
57,
56,
56,
56,
56,
55,
55,
56,
56,
56,
56,
56,
56,
56,
56,
56,
56,
56,
56,
54,
54,
54,
54,
54,
54,
55,
55,
54,
54,
54,
54,
53,
53,
55,
55,
54,
54,
53,
53,
53,
53,
52,
52,
52,
52,
53,
53,
53,
53,
53,
53,
53,
53,
52,
52,
52,
52,
52,
52,
53,
53,
53,
53,
52,
52,
52,
52,
51,
52,
52,
52,
51,
51,
51,
51,
51,
51,
51,
51,
51,
51,
49,
49,
51,
51,
50,
50,
50,
50,
50,
50,
48,
48,
49,
49,
49,
49,
49,
49,
50,
50,
50,
50,
49,
49,
49,
49,
48,
48,
48,
48,
49,
49,
49,
49,
48,
48,
47,
47,
48,
48,
48,
48,
47,
47,
47,
47,
46,
46,
47,
47,
47,
47,
46,
46,
47,
47,
47,
47,
46,
46,
46,
46,
46,
46,
45,
45,
45,
45,
45,
45,
45,
45,
45,
45,
45,
45,
45,
45,
46,
46,
44,
44,
44,
44,
45,
45,
44,
44,
44,
44,
44,
44,
44,
44,
44,
44,
43,
43,
44,
44,
44,
44,
43,
43,
44,
44,
41,
41,
43,
43,
42,
42,
43,
43,
41,
41,
41,
41,
42,
42,
42,
42,
41,
41,
41,
41,
41,
41,
41,
41,
40,
40,
41,
41,
41,
41,
40,
40,
41,
41,
40,
40,
40,
40,
40,
40,
40,
40,
39,
39,
40,
40,
39,
39,
40,
40,
38,
38,
39,
39,
38,
38,
38,
38,
39,
39,
38,
38,
37,
37,
37,
37,
38,
38,
37,
37,
37,
37,
37,
37,
37,
37,
37,
37,
37,
37,
36,
36,
37,
37,
36,
36,
37,
37,
35,
35,
36,
36,
35,
35,
36,
36,
34,
34,
35,
35,
34,
34,
34,
34,
33,
33,
34,
34,
35,
35,
35,
35,
33,
33,
36,
36,
33,
33,
34,
34,
33,
33,
33,
33,
33,
33,
33,
33,
32,
32,
32,
32,
33,
33,
32,
32,
32,
32,
33,
33,
31,
32,
32,
32,
32,
32,
33,
33,
32,
32,
32,
32,
31,
31,
31,
31,
31,
31,
29,
29,
31,
31,
29,
29,
30,
30,
30,
30,
31,
31,
30,
30,
30,
30,
29,
29,
30,
30,
29,
29,
30,
30,
29,
29,
28,
28,
29,
29,
28,
28,
28,
28,
28,
28,
28,
28,
27,
27,
28,
28,
28,
28,
28,
28,
26,
26,
27,
27,
26,
26,
27,
27,
27,
27,
27,
27,
27,
27,
26,
26,
25,
25,
26,
26,
25,
25,
25,
25,
24,
24,
25,
25,
24,
24,
24,
24,
24,
24,
24,
24,
23,
23,
24,
24,
25,
25,
24,
24,
24,
24,
25,
25,
23,
23,
22,
22,
23,
23,
22,
22,
23,
23,
23,
23,
23,
23,
23,
23,
23,
23,
23,
23,
22,
22,
23,
23,
22,
22,
23,
23,
22,
22,
21,
21,
21,
21,
21,
21,
21,
21,
21,
21,
21,
21,
21,
21,
20,
20,
21,
21,
20,
20,
20,
20,
20,
20,
20,
20,
20,
20,
19,
19,
20,
20,
19,
19,
18,
18,
18,
18,
18,
18,
17,
17,
19,
19,
18,
18,
19,
19,
18,
18,
18,
18,
18,
18,
17,
17,
17,
17,
16,
16,
17,
17,
16,
16,
16,
16,
16,
16,
17,
17,
16,
16,
15,
15,
16,
16,
15,
15,
16,
16,
16,
16,
16,
16,
15,
15,
15,
15,
15,
15,
15,
15,
13,
13,
14,
14,
14,
14,
14,
14,
14,
14,
14,
14,
15,
15,
13,
13,
12,
12,
13,
13,
13,
13,
12,
13,
13,
13,
13,
13,
12,
12,
13,
13,
13,
13,
11,
11,
13,
13,
13,
13,
12,
12,
11,
11,
11,
11,
11,
11,
11,
11,
10,
10,
10,
10,
10,
10,
10,
10,
10,
10,
9,
9,
9,
9,
10,
10,
9,
9,
9,
9,
9,
9,
10,
10,
9,
9,
8,
8,
9,
9,
9,
9,
8,
8,
7,
7,
8,
8,
8,
8,
7,
7,
8,
8,
8,
8,
7,
7,
7,
7,
6,
6,
6,
6,
6,
6,
7,
7,
7,
7,
5,
5,
5,
5,
5,
5,
6,
6,
5,
5,
5,
5,
5,
5,
5,
5,
5,
5,
4,
4,
5,
5,
5,
5,
5,
5,
4,
4,
5,
5,
4,
4,
4,
4,
4,
4,
3,
3,
4,
4,
4,
4,
3,
3,
3,
3,
3,
3,
3,
3,
1,
1,
3,
3,
4,
4,
1,
1,
1,
1,
1,
1,
0,
0,
1,
1,
1,
1,
1,
1,
1,
1,
1,
1,
1,
1,
1,
1,
0,
0,
1,
1,
0,
0,
1,
1,
0,
0,
0,
0,
-1,
-1,
0,
0,
0,
0,
-3,
-3,
0,
0,
-1,
-1,
-1,
-1,
0,
0,
-2,
-2,
-2,
-2,
-2,
-2,
-3,
-3,
-3,
-3,
-4,
-4,
-3,
-3,
-3,
-3,
-3,
-3,
-3,
-3,
-3,
-3,
-4,
-4,
-4,
-4,
-3,
-3,
-4,
-4,
-4,
-4,
-4,
-4,
-4,
-4,
-5,
-5,
-4,
-4,
-4,
-4,
-4,
-4,
-5,
-5,
-5,
-5,
-5,
-5,
-5,
-5,
-6,
-6,
-6,
-6,
-7,
-7,
-7,
-7,
-7,
-7,
-7,
-7,
-8,
-8,
-8,
-7,
-7,
-7,
-7,
-7,
-8,
-8,
-7,
-7,
-8,
-8,
-8,
-8,
-8,
-8,
-7,
-7,
-8,
-8,
-8,
-8,
-9,
-9,
-8,
-8,
-9,
-9,
-8,
-8,
-9,
-9,
-9,
-9,
-10,
-10,
-9,
-9,
-10,
-10,
-9,
-9,
-10,
-10,
-10,
-10,
-11,
-11,
-11,
-11,
-11,
-11,
-9,
-9,
-11,
-11,
-11,
-11,
-11,
-11,
-12,
-12,
-11,
-11,
-12,
-12,
-11,
-11,
-11,
-11,
-12,
-12,
-13,
-13,
-12,
-12,
-12,
-12,
-12,
-12,
-12,
-12,
-13,
-13,
-14,
-14,
-13,
-13,
-13,
-13,
-14,
-14,
-14,
-14,
-13,
-13,
-15,
-15,
-14,
-14,
-15,
-15,
-15,
-15,
-14,
-14,
-15,
-15,
-15,
-15,
-16,
-16,
-15,
-15,
-15,
-15,
-15,
-15,
-16,
-16,
-16,
-16,
-15,
-15,
-16,
-16,
-17,
-17,
-16,
-16,
-17,
-17,
-16,
-16,
-16,
-16,
-16,
-16,
-17,
-17,
-17,
-17,
-18,
-18,
-18,
-18,
-17,
-17,
-19,
-19,
-18,
-18,
-18,
-18,
-19,
-19,
-17,
-17,
-17,
-17,
-19,
-19,
-18,
-18,
-19,
-19,
-19,
-19,
-19,
-19,
-19,
-19,
-19,
-19,
-19,
-19,
-20,
-20,
-20,
-20,
-21,
-21,
-20,
-20,
-21,
-21,
-20,
-20,
-20,
-20,
-21,
-21,
-21,
-21,
-22,
-22,
-22,
-22,
-22,
-22,
-23,
-23,
-23,
-23,
-23,
-23,
-22,
-22,
-23,
-23,
-23,
-23,
-23,
-23,
-23,
-23,
-23,
-23,
-23,
-23,
-23,
-23,
-23,
-23,
-24,
-24,
-24,
-24,
-23,
-23,
-23,
-23,
-24,
-24,
-25,
-25,
-24,
-24,
-25,
-25,
-25,
-25,
-26,
-26,
-26,
-26,
-25,
-25,
-26,
-26,
-26,
-26,
-26,
-26,
-26,
-26,
-27,
-26,
-26,
-26,
-27,
-27,
-27,
-27,
-26,
-26,
-27,
-27,
-28,
-28,
-27,
-27,
-26,
-26,
-28,
-28,
-28,
-28,
-28,
-28,
-28,
-28,
-28,
-28,
-28,
-28,
-28,
-28,
-28,
-28,
-29,
-29,
-28,
-28,
-29,
-29,
-29,
-29,
-29,
-29,
-30,
-30,
-29,
-29,
-29,
-29,
-31,
-31,
-29,
-29,
-30,
-30,
-30,
-30,
-31,
-31,
-31,
-31,
-32,
-32,
-31,
-31,
-31,
-31,
-31,
-31,
-31,
-31,
-32,
-32,
-33,
-33,
-32,
-32,
-32,
-32,
-33,
-33,
-32,
-32,
-32,
-32,
-32,
-32,
-32,
-32,
-32,
-32,
-33,
-33,
-32,
-32,
-33,
-33,
-33,
-33,
-35,
-35,
-33,
-33,
-34,
-34,
-33,
-33,
-35,
-35,
-34,
-34,
-34,
-34,
-34,
-34,
-35,
-35,
-35,
-35,
-35,
-35,
-35,
-35,
-35,
-35,
-36,
-36,
-36,
-36,
-37,
-37,
-35,
-35,
-36,
-36,
-36,
-36,
-36,
-36,
-36,
-36,
-36,
-36,
-37,
-37,
-37,
-37,
-38,
-38,
-37,
-37,
-38,
-38,
-38,
-38,
-38,
-38,
-37,
-37,
-37,
-37,
-38,
-38,
-38,
-38,
-39,
-39,
-39,
-39,
-37,
-37,
-40,
-40,
-40,
-40,
-39,
-39,
-40,
-40,
-40,
-40,
-41,
-41,
-40,
-40,
-40,
-40,
-41,
-41,
-40,
-40,
-41,
-41,
-41,
-41,
-40,
-40,
-41,
-41,
-41,
-41,
-42,
-42,
-41,
-41,
-42,
-42,
-42,
-42,
-41,
-41,
-42,
-42,
-41,
-41,
-43,
-43,
-42,
-42,
-43,
-43,
-43,
-43,
-43,
-43,
-43,
-43,
-43,
-43,
-44,
-44,
-43,
-43,
-43,
-43,
-44,
-44,
-44,
-44,
-45,
-45,
-45,
-45,
-45,
-45,
-45,
-45,
-45,
-45,
-44,
-44,
-45,
-45,
-45,
-45,
-45,
-45,
-46,
-46,
-45,
-45,
-45,
-45,
-46,
-46,
-46,
-46,
-47,
-47,
-47,
-47,
-47,
-47,
-48,
-48,
-47,
-47,
-46,
-46,
-47,
-47,
-47,
-47,
-48,
-48,
-47,
-47,
-47,
-47,
-48,
-48,
-48,
-48,
-48,
-48,
-48,
-48,
-47,
-47,
-49,
-49,
-49,
-49,
-49,
-49,
-50,
-50,
-49,
-49,
-50,
-50,
-49,
-49,
-50,
-50,
-50,
-50,
-49,
-49,
-50,
-50,
-49,
-49,
-50,
-50,
-50,
-50,
-51,
-51,
-52,
-52,
-51,
-51,
-51,
-51,
-50,
-50,
-51,
-51,
-52,
-52,
-51,
-51,
-52,
-52,
-52,
-52,
-52,
-52,
-52,
-52,
-52,
-52,
-53,
-53,
-52,
-52,
-52,
-52,
-53,
-53,
-54,
-54,
-53,
-53,
-55,
-55,
-54,
-54,
-53,
-53,
-54,
-54,
-54,
-54,
-54,
-54,
-54,
-54,
-54,
-54,
-56,
-56,
-54,
-54,
-56,
-56,
-54,
-54,
-54,
-54,
-55,
-55,
-55,
-55,
-56,
-56,
-56,
-56,
-55,
-55,
-56,
-56,
-56,
-56,
-57,
-57,
-56,
-56,
-57,
-57,
-57,
-57,
-57,
-57,
-59,
-59,
-57,
-57,
-58,
-58,
-56,
-56,
-58,
-58,
-58,
-58,
-59,
-59,
-59,
-59,
-58,
-58,
-59,
-59,
-59,
-59,
-59,
-59,
-59,
-59,
-59,
-59,
-59,
-59,
-60,
-60,
-60,
-60,
-61,
-61,
-60,
-60,
-60,
-60,
-60,
-60,
-61,
-61,
-60,
-60,
-61,
-61,
-60,
-60,
-61,
-61,
-62,
-62,
-62,
-62,
-63,
-63,
-62,
-62,
-63,
-63,
-62,
-62,
-62,
-62,
-62,
-62,
-63,
-63,
-61,
-61,
-63,
-63,
-63,
-63,
-63,
-63,
-63,
-63,
-64,
-64,
-63,
-63,
-64,
-64,
-63,
-63,
-64,
-64,
-64,
-64,
-63,
-63,
-64,
-64,
-63,
-63,
-65,
-65,
-65,
-65,
-65,
-65,
-64,
-65,
-65,
-65,
-65,
-65,
-66,
-66,
-66,
-66,
-65,
-65,
-66,
-66,
-66,
-66,
-67,
-67,
-66,
-66,
-67,
-67,
-67,
-67,
-68,
-68,
-68,
-68,
-67,
-67,
-67,
-67,
-67,
-67,
-67,
-67,
-67,
-67,
-68,
-68,
-68,
-68,
-68,
-68,
-67,
-67,
-68,
-68,
-68,
-68,
-69,
-69,
-69,
-69,
-68,
-68,
-69,
-69,
-68,
-68,
-70,
-70,
-70,
-70,
-71,
-71,
-71,
-71,
-70,
-70,
-70,
-70,
-71,
-71,
-71,
-71,
-70,
-70,
-71,
-71,
-72,
-72,
-72,
-72,
-72,
-72,
-71,
-71,
-71,
-71,
-73,
-73,
-72,
-72,
-72,
-72,
-73,
-73,
-72,
-72,
-71,
-71,
-72,
-72,
-72,
-72,
-73,
-73,
-74,
-74,
-74,
-74,
-73,
-73,
-73,
-73,
-75,
-75,
-75,
-75,
-75,
-75,
-74,
-74,
-74,
-74,
-75,
-75,
-75,
-75,
-75,
-75,
-75,
-75,
-76,
-76,
-76,
-76,
-76,
-76,
-77,
-77,
-75,
-75,
-75,
-75,
-76,
-76,
-76,
-76,
-76,
-76,
-77,
-77,
-77,
-77,
-77,
-77,
-77,
-77,
-77,
-77,
-77,
-77,
-79,
-79,
-77,
-77,
-79,
-79,
-77,
-77,
-79,
-79,
-77,
-77,
-77,
-77,
-79,
-79,
-79,
-79,
-79,
-79,
-79,
-79,
-79,
-79,
-79,
-79,
-80,
-80,
-79,
-79,
-80,
-80,
-80,
-80,
-80,
-80,
-80,
-80,
-80,
-80,
-80,
-80,
-81,
-81,
-78,
-78,
-79,
-79,
-79,
-79,
-79,
-79,
-79,
-79,
-79,
-79,
-79,
-79,
-78,
-78,
-79,
-79,
-78,
-78,
-78,
-78,
-79,
-79,
-79,
-79,
-79,
-79,
-78,
-78,
-79,
-79,
-79,
-79,
-79,
-79,
-78,
-78,
-79,
-79,
-79,
-79,
-79,
-79,
-79,
-79,
-78,
-78,
-79,
-79,
-79,
-79,
-78,
-78,
-78,
-78,
-79,
-79,
-79,
-79,
-79,
-79,
-78,
-78,
-78,
-78,
-79,
-79,
-79,
-79,
-79,
-79,
-79,
-79,
-79,
-79,
-79,
-79,
-79,
-79,
-79,
-79,
-79,
-79,
-79,
-79,
-78,
-78,
-79,
-79,
-79,
-79,
-79,
-79,
-78,
-78,
-79,
-79,
-79,
-79,
-79,
-79,
-80,
-80,
-79,
-79,
-78,
-78,
-79,
-79,
-79,
-79,
-78,
-78,
-79,
-79,
-79,
-79,
-79,
-79,
-79,
-79,
-77,
-77,
-79,
-79,
-79,
-79,
-79,
-79,
-79,
-79,
-78,
-78,
-79,
-79,
-77,
-77,
-79,
-79,
-79,
-79,
-78,
-78,
-78,
-78,
-79,
-79,
-77,
-77,
-79,
-79,
-79,
-79,
-79,
-79,
-79,
-79,
-78,
-78,
-79,
-79,
-79,
-79,
-79,
-79,
-79,
-79,
-79,
-79,
-79,
-79,
-79,
-79,
-78,
-78,
-79,
-79,
-77,
-77,
-79,
-79,
-78,
-78,
-79,
-79,
-79,
-79,
-80,
-80,
-79,
-79,
-80,
-80,
-78,
-78,
-79,
-79,
-80,
-80,
-79,
-79,
-79,
-79,
-79,
-79,
-80,
-80,
-79,
-79,
-79,
-79,
-79,
-79,
-78,
-78,
-79,
-79,
-79,
-79,
-79,
-79,
-79,
-79,
-79,
-79,
-80,
-80,
-79,
-79,
-78,
-78,
-79,
-79,
-78,
-78,
-78,
-78,
-79,
-79,
-78,
-78,
-79,
-79,
-79,
-79,
-79,
-79,
-78,
-78,
-78,
-78,
-79,
-79,
-79,
-79,
-79,
-79,
-79,
-79,
-79,
-79,
-78,
-78,
-78,
-78,
-79,
-79,
-79,
-79,
-77,
-77,
-79,
-79,
-79,
-79,
-80,
-80,
-79,
-79,
-79,
-79,
-79,
-79,
-79,
-79,
-78,
-78,
-79,
-79,
-79,
-79,
-79,
-79,
-79,
-79,
-78,
-78,
-79,
-79,
-79,
-79,
-79,
-79,
-78,
-78,
-79,
-79,
-79,
-79,
-78,
-78,
-78,
-79,
-79,
-79,
-77,
-77,
-79,
-79,
-79,
-79,
-78,
-78,
-79,
-79,
-79,
-79,
-79,
-79,
-79,
-79,
-79,
-79,
-79,
-79,
-79,
-79,
-79,
-79,
-78,
-78,
-79,
-79,
-80,
-80,
-78,
-78,
-78,
-78,
-79,
-79,
-79,
-79,
-77,
-77,
-78,
-78,
-79,
-79,
-78,
-78,
-79,
-79,
-79,
-79,
-79,
-79,
-79,
-79,
-80,
-80,
-79,
-79,
-79,
-79,
-79,
-79,
-78,
-78,
-79,
-79,
-79,
-79,
-79,
-79,
-79,
-79,
-79,
-79,
-79,
-79,
-79,
-79,
-79,
-79,
-80,
-80,
-79,
-79,
-79,
-79,
-79,
-79,
-79,
-79,
-77,
-77,
-79,
-79,
-78,
-78,
-79,
-79,
-79,
-79,
-79,
-79,
-79,
-79,
-79,
-79,
-77,
-77,
-79,
-79,
-79,
-79,
-79,
-79,
-78,
-78,
-78,
-78,
-78,
-78,
-79,
-79,
-79,
-79,
-78,
-78,
-79,
-79,
-79,
-79,
-79,
-79,
-80,
-80,
-79,
-79,
-80,
-80,
-79,
-79,
-78,
-78,
-79,
-79,
-79,
-79,
-79,
-79,
-80,
-80,
-79,
-79,
-79,
-79,
-78,
-78,
-79,
-79,
-79,
-79,
-79,
-79,
-79,
-79,
-78,
-78,
-78,
-78,
-79,
-79,
-79,
-79,
-79,
-79,
-79,
-79,
-80,
-80,
-79,
-79,
-79,
-79,
-79,
-79,
-79,
-79,
-79,
-79,
-78,
-78,
-78,
-78,
-79,
-79,
-79,
-79,
-78,
-78,
-77,
-77,
-79,
-79,
-79,
-79,
-79,
-79,
-79,
-79,
-78,
-78,
-79,
-79,
-79,
-79,
-79,
-79,
-79,
-79,
-79,
-79,
-79,
-79,
-78,
-78,
-79,
-79,
-79,
-79,
-79,
-79,
-77,
-77,
-79,
-79,
-79,
-79,
-79,
-79,
-79,
-79,
-79,
-79,
-79,
-79,
-80,
-80,
-79,
-79,
-80,
-80,
-79,
-79,
-79,
-79,
-79,
-79,
-78,
-79,
-79,
-79,
-78,
-78,
-79,
-79,
-79,
-79,
-78,
-78,
-79,
-79,
-79,
-79,
-80,
-80,
-79,
-79,
-79,
-79,
-79,
-79,
-79,
-79,
-77,
-77,
-79,
-79,
-79,
-79,
-79,
-79,
-78,
-78,
-78,
-78,
-79,
-79,
-79,
-79,
-79,
-79,
-79,
-79,
-79,
-79,
-79,
-79,
-78,
-78,
-78,
-78,
-80,
-80,
-79,
-79,
-79,
-79,
-79,
-79,
-79,
-79,
-79,
-79,
-79,
-79,
-79,
-79,
-79,
-79,
-77,
-77,
-79,
-79,
-79,
-79,
-79,
-79,
-79,
-79,
-79,
-79,
-79,
-79,
-79,
-79,
-79,
-79,
-79,
-79,
-79,
-79,
-79,
-79,
-79,
-79,
-79,
-79,
-80,
-80,
-79,
-79,
-79,
-79,
-78,
-78,
-79,
-79,
-79,
-79,
-79,
-79,
-78,
-78,
-79,
-79,
-79,
-79,
-79,
-79,
-77,
-77,
-77,
-77,
-78,
-78,
-79,
-79,
-78,
-78,
-79,
-79,
-79,
-79,
-79,
-79,
-79,
-79,
-79,
-79,
-79,
-79,
-79,
-79,
-78,
-78,
-79,
-79,
-80,
-80,
-79,
-79,
-79,
-79,
-79,
-79,
-78,
-78,
-79,
-79,
-77,
-77,
-79,
-79,
-79,
-79,
-79,
-79,
-78,
-78,
-79,
-79,
-78,
-78,
-79,
