3-eigenschaften-von-transistoren/daten/ALL0009/A0009CH2.CSV

Memory Length,4000,
Trigger Level,3.00000e+00,
Source,CH2,
Probe,1.0X,
Vertical Units,V,
Vertical Scale,1.00000e+00,
Vertical Position,-3.60000e+00,
Horizontal Units,S,
Horizontal Scale,5.00000e-04,
Horizontal Position,0.0000000e+00,
Horizontal Mode,XY Mode,
Sampling Period,2.00000e-06,
Firmware,V1.14,
Time, ,
Mode,Fast,
Waveform Data,
44,
44,
44,
44,
44,
45,
45,
45,
45,
44,
44,
44,
44,
44,
44,
45,
45,
44,
44,
45,
45,
44,
44,
45,
45,
44,
44,
44,
44,
44,
44,
44,
44,
44,
44,
44,
44,
45,
45,
45,
45,
45,
45,
44,
44,
45,
45,
45,
45,
44,
44,
44,
44,
45,
45,
45,
45,
44,
44,
44,
44,
45,
45,
45,
45,
45,
45,
45,
45,
45,
45,
44,
44,
44,
44,
45,
45,
44,
44,
45,
45,
44,
44,
45,
45,
45,
45,
44,
44,
45,
45,
45,
45,
45,
45,
44,
44,
44,
44,
45,
45,
44,
44,
44,
44,
45,
45,
45,
45,
45,
45,
45,
45,
44,
44,
44,
44,
45,
45,
45,
45,
46,
46,
45,
45,
45,
45,
44,
44,
45,
45,
45,
45,
45,
45,
45,
45,
45,
45,
45,
45,
45,
45,
44,
23,
23,
0,
-1,
-1,
1,
1,
3,
3,
3,
3,
4,
4,
6,
6,
6,
6,
7,
7,
7,
7,
7,
7,
9,
9,
9,
9,
10,
10,
10,
10,
10,
10,
12,
12,
12,
12,
12,
12,
13,
13,
14,
14,
14,
14,
15,
15,
16,
16,
17,
17,
18,
18,
18,
18,
19,
19,
19,
19,
20,
20,
21,
21,
21,
21,
22,
22,
23,
23,
23,
23,
24,
24,
26,
26,
25,
25,
26,
26,
27,
27,
27,
27,
28,
28,
29,
29,
29,
29,
29,
29,
31,
31,
32,
32,
32,
32,
32,
32,
34,
34,
33,
33,
35,
35,
35,
35,
36,
36,
36,
36,
38,
38,
39,
39,
38,
38,
40,
40,
41,
41,
41,
41,
42,
42,
42,
42,
43,
43,
44,
44,
44,
44,
45,
45,
46,
46,
46,
46,
47,
47,
48,
48,
48,
48,
49,
49,
49,
49,
50,
50,
51,
51,
51,
51,
52,
52,
52,
52,
53,
53,
54,
54,
55,
55,
55,
55,
55,
55,
56,
56,
56,
56,
57,
57,
56,
56,
56,
56,
56,
56,
56,
56,
56,
56,
56,
56,
56,
56,
57,
57,
56,
56,
56,
56,
56,
56,
57,
57,
57,
57,
56,
56,
56,
56,
57,
57,
57,
57,
57,
57,
57,
57,
57,
57,
57,
57,
56,
56,
56,
56,
57,
57,
56,
56,
56,
56,
56,
56,
56,
56,
56,
56,
57,
57,
57,
57,
56,
56,
56,
56,
56,
56,
57,
57,
56,
56,
57,
57,
56,
56,
58,
58,
56,
56,
57,
57,
57,
57,
57,
57,
56,
56,
57,
57,
57,
57,
57,
57,
57,
57,
56,
56,
57,
57,
57,
57,
56,
56,
57,
57,
57,
57,
57,
57,
57,
57,
56,
56,
57,
57,
58,
58,
57,
57,
57,
57,
57,
57,
57,
57,
57,
57,
57,
57,
57,
57,
57,
57,
57,
57,
57,
57,
57,
57,
57,
57,
58,
58,
57,
57,
57,
57,
57,
57,
57,
57,
58,
58,
57,
57,
58,
58,
57,
57,
58,
58,
58,
58,
58,
58,
58,
58,
57,
57,
57,
57,
58,
58,
58,
58,
57,
57,
58,
58,
57,
57,
59,
59,
57,
57,
58,
58,
58,
58,
58,
58,
58,
58,
58,
58,
58,
58,
57,
57,
57,
57,
58,
58,
57,
57,
58,
58,
58,
58,
58,
58,
57,
57,
58,
58,
58,
58,
58,
58,
57,
57,
58,
58,
58,
58,
58,
58,
58,
58,
57,
57,
58,
58,
58,
58,
58,
58,
57,
57,
57,
57,
58,
58,
58,
58,
58,
58,
57,
57,
58,
58,
57,
57,
58,
58,
59,
59,
57,
57,
57,
57,
58,
58,
57,
57,
57,
57,
58,
58,
58,
58,
58,
58,
58,
58,
58,
58,
59,
59,
58,
58,
57,
57,
58,
58,
58,
58,
58,
58,
58,
58,
58,
58,
58,
58,
58,
58,
58,
58,
58,
58,
57,
57,
58,
58,
58,
58,
58,
58,
58,
58,
58,
58,
57,
57,
58,
58,
58,
58,
59,
59,
58,
58,
58,
58,
58,
58,
58,
58,
58,
58,
58,
58,
57,
57,
57,
57,
58,
58,
58,
58,
58,
58,
58,
58,
57,
57,
58,
58,
58,
58,
58,
58,
58,
58,
58,
58,
58,
58,
58,
58,
58,
58,
58,
58,
59,
59,
59,
59,
58,
58,
58,
58,
58,
58,
58,
58,
58,
58,
58,
58,
58,
58,
59,
59,
58,
58,
58,
58,
58,
58,
58,
58,
58,
58,
58,
58,
58,
58,
59,
59,
58,
58,
58,
58,
59,
59,
58,
58,
58,
58,
58,
58,
58,
58,
58,
58,
58,
58,
59,
59,
58,
58,
58,
58,
59,
59,
59,
59,
58,
58,
59,
59,
59,
59,
59,
59,
59,
59,
58,
58,
59,
59,
58,
58,
59,
59,
59,
42,
42,
23,
22,
-4,
-4,
-4,
2,
2,
3,
3,
4,
4,
5,
5,
5,
5,
6,
6,
7,
7,
7,
7,
7,
7,
8,
8,
9,
9,
10,
10,
11,
11,
11,
11,
11,
11,
12,
12,
13,
13,
13,
13,
14,
14,
15,
15,
16,
16,
16,
16,
16,
16,
18,
18,
19,
19,
19,
19,
20,
20,
20,
20,
21,
21,
22,
22,
22,
22,
23,
23,
23,
23,
25,
25,
25,
25,
26,
26,
27,
27,
27,
27,
28,
28,
28,
28,
29,
29,
30,
30,
31,
31,
32,
32,
32,
32,
33,
33,
33,
33,
34,
34,
35,
35,
35,
35,
36,
36,
36,
36,
38,
38,
38,
38,
39,
39,
40,
40,
40,
40,
40,
40,
42,
42,
42,
42,
43,
43,
44,
44,
44,
44,
45,
45,
46,
46,
46,
46,
46,
46,
48,
48,
48,
48,
50,
50,
50,
50,
50,
50,
51,
51,
52,
52,
53,
53,
53,
53,
53,
53,
55,
55,
55,
55,
56,
56,
57,
57,
57,
57,
58,
58,
59,
59,
60,
60,
60,
60,
61,
61,
62,
62,
63,
63,
63,
63,
63,
63,
64,
64,
65,
65,
65,
65,
66,
66,
66,
66,
68,
68,
68,
68,
68,
68,
69,
69,
70,
70,
70,
70,
70,
70,
70,
70,
70,
70,
70,
70,
70,
70,
70,
70,
69,
69,
70,
70,
70,
70,
70,
70,
70,
70,
70,
70,
70,
70,
71,
71,
70,
70,
70,
70,
70,
70,
70,
70,
71,
71,
70,
70,
71,
71,
70,
70,
71,
71,
70,
70,
70,
70,
71,
71,
71,
71,
71,
71,
70,
70,
70,
70,
70,
70,
71,
71,
70,
70,
71,
71,
70,
70,
71,
71,
70,
70,
70,
70,
70,
70,
71,
71,
70,
70,
70,
70,
71,
71,
71,
71,
70,
70,
70,
70,
70,
70,
70,
70,
71,
71,
70,
70,
70,
70,
70,
70,
71,
71,
70,
70,
70,
70,
71,
71,
71,
71,
70,
70,
71,
71,
72,
72,
71,
71,
71,
71,
70,
70,
71,
71,
71,
71,
71,
71,
71,
71,
71,
71,
71,
71,
71,
71,
71,
71,
71,
71,
71,
71,
70,
70,
71,
71,
71,
71,
71,
71,
71,
71,
71,
71,
71,
71,
71,
71,
71,
71,
71,
71,
71,
71,
71,
71,
71,
71,
71,
71,
71,
71,
71,
71,
72,
72,
72,
72,
71,
71,
71,
71,
71,
71,
72,
72,
71,
71,
71,
71,
71,
71,
72,
72,
71,
71,
71,
71,
71,
71,
71,
71,
71,
71,
71,
71,
71,
71,
71,
71,
71,
71,
72,
72,
71,
71,
71,
71,
71,
71,
71,
71,
72,
72,
71,
71,
72,
72,
71,
71,
72,
72,
71,
71,
71,
71,
71,
71,
71,
71,
71,
71,
71,
71,
71,
71,
71,
71,
72,
72,
71,
71,
71,
71,
72,
72,
72,
72,
71,
71,
72,
72,
71,
71,
71,
71,
72,
72,
71,
71,
72,
72,
72,
72,
72,
72,
72,
72,
72,
72,
72,
72,
72,
72,
72,
72,
72,
72,
72,
72,
72,
72,
72,
72,
72,
72,
72,
72,
72,
72,
72,
72,
72,
72,
72,
72,
73,
73,
72,
72,
72,
72,
72,
72,
72,
72,
72,
72,
72,
72,
72,
72,
72,
72,
73,
73,
72,
72,
71,
71,
72,
72,
72,
72,
72,
72,
73,
73,
72,
72,
72,
72,
72,
72,
72,
72,
72,
72,
72,
72,
73,
73,
73,
73,
72,
72,
72,
72,
72,
72,
72,
72,
72,
72,
73,
73,
73,
73,
73,
73,
72,
72,
72,
72,
73,
73,
72,
72,
73,
73,
73,
73,
72,
72,
73,
73,
72,
72,
73,
73,
73,
73,
73,
73,
72,
72,
72,
72,
72,
72,
72,
72,
73,
73,
73,
73,
72,
72,
73,
73,
68,
45,
45,
22,
22,
1,
1,
1,
2,
2,
4,
4,
4,
4,
5,
5,
6,
6,
7,
7,
6,
6,
8,
8,
7,
7,
9,
9,
10,
10,
10,
10,
11,
11,
11,
11,
12,
12,
13,
13,
13,
13,
14,
14,
15,
15,
16,
16,
17,
17,
17,
17,
18,
18,
18,
18,
19,
19,
20,
20,
20,
20,
21,
21,
22,
22,
22,
22,
23,
23,
23,
23,
24,
24,
25,
25,
26,
26,
27,
27,
28,
28,
28,
28,
28,
28,
30,
30,
30,
30,
31,
31,
31,
31,
31,
31,
32,
32,
33,
33,
33,
33,
34,
34,
34,
34,
36,
36,
37,
37,
37,
37,
38,
38,
39,
39,
39,
39,
41,
41,
40,
40,
42,
42,
42,
42,
43,
43,
44,
44,
44,
44,
45,
45,
45,
45,
46,
46,
47,
47,
48,
48,
48,
48,
49,
49,
49,
49,
51,
51,
51,
51,
52,
52,
52,
52,
53,
53,
55,
55,
55,
55,
55,
55,
57,
57,
56,
56,
58,
58,
57,
57,
59,
59,
59,
59,
60,
60,
62,
62,
63,
63,
62,
62,
63,
63,
64,
64,
65,
65,
65,
65,
66,
66,
67,
67,
68,
68,
68,
68,
69,
69,
70,
70,
71,
71,
71,
71,
72,
72,
73,
73,
73,
73,
73,
73,
73,
73,
74,
74,
76,
76,
76,
76,
76,
76,
77,
77,
77,
77,
78,
78,
79,
79,
80,
80,
81,
81,
81,
81,
82,
82,
82,
82,
82,
82,
83,
83,
82,
82,
83,
83,
83,
83,
83,
83,
84,
84,
84,
84,
83,
83,
83,
83,
84,
84,
84,
84,
83,
83,
83,
83,
84,
84,
84,
84,
83,
83,
84,
84,
83,
83,
84,
84,
84,
84,
84,
84,
83,
83,
84,
84,
83,
83,
84,
84,
84,
84,
84,
84,
84,
84,
84,
84,
84,
84,
84,
84,
84,
84,
84,
84,
84,
84,
84,
84,
84,
84,
84,
84,
84,
84,
84,
84,
84,
84,
84,
84,
84,
84,
84,
84,
84,
84,
84,
84,
84,
84,
84,
84,
84,
84,
84,
84,
84,
84,
84,
84,
84,
84,
84,
84,
84,
84,
84,
84,
84,
84,
84,
84,
84,
84,
84,
84,
84,
84,
84,
84,
84,
84,
84,
84,
84,
84,
84,
84,
84,
84,
84,
84,
84,
84,
84,
84,
85,
85,
84,
84,
84,
84,
85,
85,
85,
85,
85,
85,
84,
84,
85,
85,
85,
85,
84,
84,
84,
84,
84,
84,
85,
85,
84,
84,
85,
85,
85,
85,
85,
85,
85,
85,
85,
85,
85,
85,
85,
85,
84,
84,
85,
85,
84,
84,
84,
84,
85,
85,
86,
86,
86,
86,
84,
84,
85,
85,
85,
85,
85,
85,
86,
86,
84,
84,
85,
85,
85,
85,
85,
85,
85,
85,
84,
84,
85,
85,
86,
86,
85,
85,
85,
85,
86,
86,
84,
84,
85,
85,
84,
84,
85,
85,
85,
85,
85,
85,
85,
85,
86,
86,
85,
85,
86,
86,
85,
85,
85,
85,
85,
85,
85,
85,
85,
85,
86,
86,
85,
85,
85,
85,
85,
85,
86,
86,
86,
86,
86,
86,
86,
86,
86,
86,
86,
86,
85,
85,
86,
86,
85,
85,
86,
86,
86,
86,
86,
86,
85,
85,
86,
86,
86,
86,
85,
85,
86,
86,
86,
86,
86,
86,
85,
85,
86,
86,
86,
86,
85,
85,
86,
86,
86,
86,
86,
86,
86,
86,
86,
86,
86,
86,
86,
86,
86,
86,
85,
85,
87,
87,
86,
86,
86,
86,
86,
86,
86,
86,
86,
86,
86,
86,
86,
86,
86,
86,
86,
86,
86,
86,
86,
86,
86,
86,
86,
86,
86,
86,
86,
86,
86,
86,
86,
86,
86,
86,
86,
86,
86,
86,
86,
86,
86,
86,
87,
87,
87,
87,
87,
74,
74,
42,
43,
18,
19,
3,
3,
3,
3,
3,
4,
4,
5,
5,
6,
6,
6,
6,
6,
6,
7,
7,
8,
8,
9,
9,
9,
9,
10,
10,
11,
11,
12,
12,
11,
11,
12,
12,
13,
13,
14,
14,
14,
14,
15,
15,
16,
16,
17,
17,
17,
17,
18,
18,
19,
19,
19,
19,
20,
20,
20,
20,
21,
21,
22,
22,
23,
23,
23,
23,
23,
23,
25,
25,
26,
26,
26,
26,
27,
27,
28,
28,
28,
28,
28,
28,
30,
30,
30,
30,
31,
31,
31,
31,
32,
32,
33,
33,
34,
34,
34,
34,
34,
34,
36,
36,
37,
37,
37,
37,
38,
38,
38,
38,
39,
39,
40,
40,
40,
40,
41,
41,
42,
42,
43,
43,
43,
43,
44,
44,
44,
44,
45,
45,
46,
46,
47,
47,
48,
48,
48,
48,
49,
49,
50,
50,
50,
50,
52,
52,
51,
51,
53,
53,
53,
53,
54,
54,
54,
54,
55,
55,
56,
56,
57,
57,
58,
58,
58,
58,
59,
59,
59,
59,
59,
59,
61,
61,
62,
62,
62,
62,
63,
63,
64,
64,
64,
64,
65,
65,
66,
66,
67,
67,
67,
67,
68,
68,
69,
69,
70,
70,
70,
70,
71,
71,
71,
71,
72,
72,
73,
73,
73,
73,
74,
74,
75,
75,
75,
75,
76,
76,
76,
76,
77,
77,
79,
79,
79,
79,
80,
80,
80,
80,
81,
81,
82,
82,
82,
82,
83,
83,
83,
83,
84,
84,
85,
85,
85,
85,
86,
86,
87,
87,
87,
87,
88,
88,
88,
88,
89,
89,
90,
90,
91,
91,
91,
91,
92,
92,
92,
92,
93,
93,
93,
93,
94,
94,
95,
95,
95,
95,
95,
95,
96,
96,
95,
95,
96,
96,
96,
96,
96,
96,
97,
97,
97,
97,
97,
97,
96,
96,
97,
97,
96,
96,
97,
97,
96,
96,
96,
96,
97,
97,
96,
96,
96,
96,
96,
96,
97,
97,
97,
97,
97,
97,
97,
97,
96,
96,
97,
97,
96,
96,
96,
96,
97,
97,
97,
97,
97,
97,
96,
96,
97,
97,
96,
96,
97,
97,
97,
97,
97,
97,
97,
97,
97,
97,
97,
97,
97,
97,
98,
98,
97,
97,
97,
97,
97,
97,
97,
97,
97,
97,
98,
98,
97,
97,
97,
97,
97,
97,
97,
97,
97,
97,
98,
98,
98,
98,
98,
98,
97,
97,
97,
97,
97,
97,
97,
97,
97,
97,
97,
97,
97,
97,
98,
98,
97,
97,
97,
97,
98,
98,
97,
97,
97,
97,
97,
97,
97,
97,
97,
97,
98,
98,
97,
97,
98,
98,
98,
98,
97,
97,
97,
97,
97,
97,
98,
98,
97,
97,
97,
97,
98,
98,
98,
98,
98,
98,
97,
97,
98,
98,
97,
97,
98,
98,
98,
98,
98,
98,
99,
99,
97,
97,
98,
98,
98,
98,
98,
98,
98,
98,
98,
98,
99,
99,
99,
99,
98,
98,
98,
98,
98,
98,
98,
98,
98,
98,
98,
98,
99,
99,
98,
98,
99,
99,
98,
98,
98,
98,
99,
99,
98,
98,
99,
99,
98,
98,
99,
99,
99,
99,
99,
99,
98,
98,
98,
98,
98,
98,
99,
99,
98,
98,
98,
98,
97,
97,
99,
99,
99,
99,
99,
99,
98,
98,
99,
99,
99,
99,
99,
99,
99,
99,
99,
99,
99,
99,
100,
100,
99,
99,
99,
99,
99,
99,
99,
99,
99,
99,
99,
99,
99,
99,
99,
99,
99,
99,
99,
99,
99,
99,
99,
99,
99,
99,
99,
99,
99,
99,
99,
99,
99,
99,
99,
99,
99,
99,
99,
99,
100,
100,
100,
100,
99,
99,
99,
99,
99,
99,
99,
99,
99,
99,
99,
99,
99,
99,
99,
99,
100,
100,
100,
100,
99,
99,
99,
99,
100,
100,
100,
100,
90,
71,
71,
44,
44,
25,
25,
5,
5,
5,
4,
4,
4,
4,
5,
5,
6,
6,
6,
6,
7,
7,
8,
8,
8,
8,
9,
9,
10,
10,
10,
10,
11,
11,
12,
12,
12,
12,
13,
13,
14,
14,
14,
14,
15,
15,
16,
16,
17,
17,
17,
17,
18,
18,
19,
19,
19,
19,
19,
19,
20,
20,
21,
21,
23,
23,
22,
22,
23,
23,
23,
23,
26,
26,
26,
26,
26,
26,
26,
26,
26,
26,
28,
28,
29,
29,
30,
30,
29,
29,
31,
31,
31,
31,
32,
32,
34,
34,
33,
33,
34,
34,
34,
34,
36,
36,
36,
36,
37,
37,
37,
37,
39,
39,
39,
39,
39,
39,
40,
40,
42,
42,
41,
41,
43,
43,
42,
42,
44,
44,
45,
45,
45,
45,
45,
45,
47,
47,
48,
48,
48,
48,
49,
49,
49,
49,
51,
51,
50,
50,
52,
52,
53,
53,
54,
54,
54,
54,
54,
54,
55,
55,
56,
56,
57,
57,
57,
57,
58,
58,
59,
59,
59,
59,
60,
60,
60,
60,
61,
61,
62,
62,
63,
63,
64,
64,
65,
65,
66,
66,
66,
66,
67,
67,
67,
67,
68,
68,
69,
69,
70,
70,
71,
71,
71,
71,
72,
72,
72,
72,
73,
73,
74,
74,
74,
74,
75,
75,
76,
76,
76,
76,
76,
76,
77,
77,
78,
78,
79,
79,
79,
79,
80,
80,
81,
81,
82,
82,
82,
82,
83,
83,
84,
84,
85,
85,
86,
86,
86,
86,
87,
87,
87,
87,
88,
88,
89,
89,
89,
89,
90,
90,
91,
91,
92,
92,
92,
92,
92,
92,
93,
93,
94,
94,
94,
94,
96,
96,
96,
96,
97,
97,
97,
97,
98,
98,
98,
98,
99,
99,
100,
100,
100,
100,
101,
101,
101,
101,
103,
103,
103,
103,
103,
103,
103,
103,
105,
105,
105,
105,
106,
106,
106,
106,
107,
107,
107,
107,
108,
108,
108,
108,
108,
108,
108,
108,
109,
109,
109,
109,
109,
109,
110,
110,
110,
110,
109,
109,
109,
109,
109,
109,
110,
110,
110,
110,
110,
110,
110,
110,
110,
110,
110,
110,
110,
110,
110,
110,
110,
110,
111,
111,
110,
110,
109,
109,
111,
111,
110,
110,
110,
110,
110,
110,
110,
110,
111,
111,
111,
111,
111,
111,
110,
110,
110,
110,
110,
110,
110,
110,
111,
111,
111,
111,
111,
111,
110,
110,
111,
111,
111,
111,
110,
110,
110,
110,
112,
112,
111,
111,
111,
111,
110,
110,
111,
111,
110,
110,
110,
110,
112,
112,
111,
111,
111,
111,
112,
112,
111,
111,
111,
111,
111,
111,
111,
111,
111,
111,
112,
112,
111,
111,
111,
111,
111,
111,
111,
111,
112,
112,
110,
110,
111,
111,
111,
111,
112,
112,
112,
112,
111,
111,
112,
112,
112,
112,
111,
111,
112,
112,
112,
112,
112,
112,
112,
112,
112,
112,
112,
112,
112,
112,
112,
112,
111,
111,
113,
113,
111,
111,
112,
112,
112,
112,
111,
111,
112,
112,
111,
111,
113,
113,
113,
113,
112,
112,
112,
112,
113,
113,
112,
112,
113,
113,
113,
113,
111,
111,
112,
112,
112,
112,
113,
113,
112,
112,
113,
113,
112,
112,
113,
113,
112,
112,
113,
113,
112,
112,
112,
112,
113,
113,
113,
113,
112,
112,
113,
113,
112,
112,
113,
113,
112,
112,
113,
113,
113,
113,
113,
113,
113,
113,
113,
113,
113,
113,
113,
113,
113,
113,
112,
112,
113,
113,
113,
113,
112,
112,
113,
113,
113,
113,
113,
113,
112,
112,
113,
113,
114,
114,
113,
113,
113,
113,
113,
113,
113,
113,
114,
114,
114,
114,
113,
113,
113,
113,
112,
112,
114,
114,
113,
113,
113,
113,
113,
113,
113,
113,
114,
114,
113,
113,
113,
113,
113,
93,
93,
68,
68,
52,
52,
26,
28,
7,
6,
6,
6,
6,
5,
5,
5,
5,
7,
7,
7,
7,
7,
7,
8,
8,
10,
10,
10,
10,
10,
10,
11,
11,
11,
11,
12,
12,
13,
13,
13,
13,
14,
14,
15,
15,
15,
15,
17,
17,
18,
18,
18,
18,
18,
18,
19,
19,
20,
20,
21,
21,
21,
21,
22,
22,
22,
22,
22,
22,
23,
23,
25,
25,
26,
26,
26,
26,
26,
26,
27,
27,
28,
28,
28,
28,
28,
28,
31,
31,
30,
30,
31,
31,
32,
32,
33,
33,
33,
33,
34,
34,
35,
35,
35,
35,
36,
36,
37,
37,
37,
37,
38,
38,
39,
39,
39,
39,
41,
41,
41,
41,
42,
42,
43,
43,
43,
43,
44,
44,
44,
44,
45,
45,
45,
45,
46,
46,
48,
48,
48,
48,
49,
49,
49,
49,
50,
50,
51,
51,
51,
51,
52,
52,
52,
52,
54,
54,
54,
54,
55,
55,
55,
55,
57,
57,
57,
57,
58,
58,
59,
59,
59,
59,
60,
60,
60,
60,
60,
60,
63,
63,
64,
64,
64,
64,
65,
65,
65,
65,
66,
66,
68,
68,
67,
67,
68,
68,
68,
68,
70,
70,
70,
70,
71,
71,
72,
72,
72,
72,
73,
73,
73,
73,
74,
74,
75,
75,
76,
76,
76,
76,
77,
77,
78,
78,
78,
78,
79,
79,
79,
79,
80,
80,
82,
82,
82,
82,
82,
82,
84,
84,
84,
84,
85,
85,
86,
86,
86,
86,
87,
87,
87,
87,
87,
87,
88,
88,
90,
90,
90,
90,
91,
91,
92,
92,
92,
92,
93,
93,
93,
93,
95,
95,
95,
95,
96,
96,
97,
97,
97,
97,
98,
98,
99,
99,
99,
99,
100,
100,
100,
100,
101,
101,
102,
102,
102,
102,
103,
103,
104,
104,
104,
104,
105,
105,
107,
107,
106,
106,
107,
107,
108,
108,
108,
108,
109,
109,
109,
109,
110,
110,
111,
111,
112,
112,
113,
113,
114,
114,
114,
114,
115,
115,
115,
115,
116,
116,
116,
116,
116,
116,
117,
117,
117,
117,
118,
118,
119,
119,
119,
119,
120,
120,
121,
121,
121,
121,
121,
121,
121,
121,
121,
121,
122,
122,
122,
122,
123,
123,
123,
123,
124,
124,
124,
124,
123,
123,
124,
124,
124,
124,
123,
123,
124,
124,
124,
124,
124,
124,
123,
123,
124,
124,
124,
124,
124,
124,
124,
124,
124,
124,
124,
124,
124,
124,
125,
125,
124,
124,
124,
124,
124,
124,
124,
124,
124,
124,
124,
124,
124,
124,
125,
125,
124,
124,
124,
124,
124,
124,
124,
124,
125,
125,
125,
125,
124,
124,
125,
125,
125,
125,
124,
124,
125,
125,
124,
124,
124,
124,
125,
125,
124,
124,
124,
124,
125,
125,
124,
124,
125,
125,
125,
125,
124,
124,
124,
124,
125,
125,
124,
124,
124,
124,
126,
126,
126,
126,
125,
125,
126,
126,
126,
126,
125,
125,
125,
125,
125,
125,
126,
126,
126,
126,
125,
125,
126,
126,
126,
126,
124,
124,
126,
126,
125,
125,
125,
125,
125,
125,
126,
126,
125,
125,
126,
126,
125,
125,
125,
125,
126,
126,
125,
125,
125,
125,
126,
126,
125,
125,
125,
125,
126,
126,
126,
126,
126,
126,
126,
126,
126,
126,
126,
126,
126,
126,
125,
125,
126,
126,
125,
125,
126,
126,
126,
126,
126,
126,
127,
127,
125,
125,
126,
126,
126,
126,
126,
126,
126,
126,
126,
126,
126,
126,
126,
126,
126,
126,
126,
126,
126,
126,
126,
126,
126,
126,
126,
126,
126,
126,
126,
126,
127,
127,
126,
126,
127,
127,
126,
126,
126,
126,
126,
126,
126,
126,
126,
126,
127,
127,
126,
126,
127,
127,
127,
127,
126,
126,
126,
126,
128,
128,
126,
126,
127,
127,
126,
97,
97,
68,
68,
49,
49,
23,
24,
3,
3,
3,
7,
7,
6,
6,
6,
6,
7,
7,
7,
7,
8,
8,
8,
8,
9,
9,
10,
10,
10,
10,
11,
11,
12,
12,
13,
13,
13,
13,
14,
14,
15,
15,
14,
14,
16,
16,
16,
16,
18,
18,
18,
18,
19,
19,
19,
19,
21,
21,
21,
21,
21,
21,
22,
22,
23,
23,
23,
23,
24,
24,
25,
25,
25,
25,
27,
27,
27,
27,
28,
28,
28,
28,
29,
29,
29,
29,
30,
30,
32,
32,
32,
32,
32,
32,
34,
34,
34,
34,
35,
35,
35,
35,
36,
36,
36,
