5-grundlagen-opAmps/data/ALL0020/A0020CH1.CSV

Memory Length,4000,
Trigger Level,0.00000e+00,
Source,CH1,
Probe,1.0X,
Vertical Units,V,
Vertical Scale,5.00000e-02,
Vertical Position,0.00000e+00,
Horizontal Units,S,
Horizontal Scale,1.00000e-03,
Horizontal Position,1.0000000e-03,
Horizontal Mode,Main,
Sampling Period,4.00000e-06,
Firmware,V1.14,
Time, ,
Mode,Fast,
Waveform Data,
-7,
-7,
-18,
-7,
-20,
-5,
-19,
-11,
-11,
-12,
-12,
-18,
-4,
-12,
-23,
-12,
-23,
-21,
-4,
-12,
-23,
-16,
-16,
-12,
-24,
-20,
-8,
-19,
-19,
-15,
-26,
-24,
-10,
-15,
-28,
-22,
-11,
-19,
-19,
-24,
-11,
-20,
-20,
-17,
-29,
-18,
-31,
-20,
-31,
-23,
-23,
-24,
-24,
-29,
-14,
-20,
-32,
-25,
-25,
-26,
-15,
-25,
-25,
-28,
-17,
-29,
-17,
-22,
-35,
-29,
-16,
-24,
-36,
-30,
-17,
-31,
-17,
-28,
-28,
-28,
-28,
-27,
-27,
-28,
-28,
-31,
-18,
-33,
-19,
-29,
-29,
-33,
-20,
-32,
-19,
-27,
-38,
-26,
-38,
-33,
-20,
-27,
-27,
-28,
-28,
-27,
-38,
-30,
-30,
-28,
-28,
-24,
-37,
-33,
-20,
-28,
-28,
-23,
-38,
-28,
-28,
-23,
-37,
-30,
-19,
-35,
-19,
-27,
-27,
-21,
-36,
-31,
-19,
-26,
-37,
-24,
-35,
-35,
-19,
-28,
-28,
-30,
-17,
-30,
-17,
-23,
-35,
-25,
-25,
-20,
-33,
-26,
-26,
-28,
-16,
-26,
-26,
-18,
-33,
-23,
-23,
-25,
-13,
-20,
-32,
-16,
-31,
-27,
-13,
-26,
-14,
-16,
-31,
-25,
-12,
-17,
-30,
-21,
-21,
-27,
-11,
-18,
-18,
-23,
-11,
-19,
-19,
-12,
-26,
-19,
-19,
-24,
-7,
-10,
-25,
-16,
-16,
-12,
-24,
-8,
-23,
-16,
-5,
-13,
-13,
-15,
-4,
-12,
-12,
-14,
-3,
-15,
-2,
-5,
-19,
-11,
0,
-7,
-18,
-9,
-9,
-9,
-9,
-13,
1,
-12,
2,
-1,
-14,
-5,
-5,
1,
-13,
-2,
-2,
-6,
6,
-2,
-2,
3,
-12,
-1,
-1,
-5,
9,
-3,
9,
0,
0,
-1,
-1,
8,
-7,
4,
4,
6,
-7,
5,
5,
-1,
13,
13,
-4,
12,
-5,
5,
5,
9,
-3,
16,
-1,
9,
-2,
3,
17,
12,
-1,
13,
1,
11,
11,
12,
12,
16,
2,
12,
12,
17,
2,
13,
13,
11,
22,
15,
15,
17,
4,
17,
5,
5,
23,
12,
24,
13,
24,
17,
17,
18,
7,
17,
17,
15,
26,
19,
8,
18,
7,
17,
17,
19,
19,
22,
9,
24,
9,
21,
10,
19,
19,
20,
20,
20,
9,
20,
20,
17,
29,
17,
29,
14,
29,
21,
21,
23,
12,
16,
29,
22,
11,
21,
21,
22,
22,
23,
12,
20,
20,
16,
29,
24,
12,
20,
20,
25,
12,
17,
30,
27,
11,
16,
29,
17,
29,
20,
20,
17,
28,
20,
20,
18,
29,
17,
29,
18,
18,
20,
20,
20,
20,
25,
11,
19,
19,
14,
28,
14,
27,
14,
27,
13,
27,
22,
9,
20,
8,
20,
7,
21,
7,
17,
17,
21,
7,
13,
24,
11,
24,
12,
12,
17,
5,
14,
14,
11,
11,
13,
13,
14,
14,
9,
20,
8,
19,
9,
9,
3,
19,
11,
0,
5,
18,
11,
0,
16,
-1,
6,
17,
8,
8,
11,
-3,
-2,
15,
8,
-3,
7,
-4,
2,
13,
2,
2,
6,
-6,
4,
-7,
1,
1,
5,
-8,
2,
-9,
5,
-9,
-5,
9,
-3,
8,
-1,
-1,
-4,
-4,
-9,
7,
-7,
6,
-1,
-13,
-5,
-5,
-7,
-7,
-7,
-7,
-8,
-8,
-10,
1,
-8,
-8,
-7,
-18,
-12,
-1,
-7,
-19,
-11,
-11,
-7,
-20,
-5,
-21,
-12,
-23,
-8,
-22,
-8,
-23,
-19,
-5,
-15,
-15,
-16,
-16,
-23,
-8,
-18,
-18,
-20,
-9,
-15,
-27,
-21,
-10,
-21,
-10,
-17,
-28,
-16,
-30,
-22,
-11,
-19,
-19,
-29,
-12,
-20,
-31,
-19,
-31,
-30,
-14,
-17,
-31,
-26,
-15,
-27,
-15,
-21,
-34,
-26,
-15,
-27,
-16,
-26,
-26,
-25,
-25,
-29,
-15,
-25,
-25,
-28,
-28,
-28,
-17,
-26,
-26,
-31,
-18,
-26,
-26,
-29,
-29,
-23,
-36,
-24,
-36,
-23,
-37,
-30,
-18,
-32,
-19,
-34,
-20,
-29,
-29,
-27,
-27,
-25,
-37,
-26,
-26,
-26,
-37,
-30,
-19,
-32,
-20,
-31,
-20,
-33,
-19,
-23,
-37,
-32,
-19,
-33,
-19,
-37,
-20,
-31,
-19,
-29,
-29,
-32,
-20,
-30,
-19,
-29,
-29,
-23,
-36,
-26,
-26,
-35,
-19,
-28,
-17,
-28,
-28,
-25,
-25,
-33,
-18,
-28,
-17,
-23,
-35,
-31,
-17,
-24,
-24,
-27,
-16,
-21,
-33,
-19,
-32,
-28,
-15,
-17,
-32,
-18,
-31,
-20,
-32,
-30,
-13,
-24,
-13,
-21,
-21,
-24,
-12,
-18,
-18,
-22,
-11,
-16,
-28,
-19,
-19,
-14,
-27,
-22,
-10,
-15,
-27,
-11,
-25,
-12,
-25,
-12,
-24,
-13,
-24,
-16,
-16,
-19,
-5,
-12,
-23,
-8,
-22,
-11,
-22,
-13,
-13,
-12,
-12,
-13,
-2,
-4,
-19,
-9,
-9,
-7,
-7,
0,
-17,
-4,
-15,
-6,
-6,
-4,
-4,
-5,
-5,
-9,
5,
-5,
-5,
-11,
5,
-10,
6,
0,
-11,
-2,
-2,
0,
-11,
-5,
8,
-1,
-1,
0,
0,
-2,
9,
4,
-7,
5,
-7,
6,
-5,
1,
13,
1,
12,
4,
4,
0,
14,
4,
16,
11,
-2,
5,
16,
9,
-2,
11,
0,
5,
18,
8,
8,
12,
1,
10,
10,
12,
12,
20,
3,
8,
20,
5,
21,
8,
21,
14,
14,
13,
13,
20,
5,
20,
6,
14,
14,
13,
24,
22,
7,
12,
25,
20,
8,
17,
17,
15,
27,
16,
27,
17,
28,
15,
28,
18,
18,
21,
9,
19,
19,
19,
19,
13,
28,
19,
19,
15,
28,
24,
11,
21,
10,
17,
29,
23,
11,
21,
21,
21,
21,
23,
11,
21,
21,
22,
22,
24,
12,
15,
30,
22,
22,
21,
21,
23,
12,
21,
21,
20,
20,
12,
29,
23,
12,
15,
29,
22,
22,
17,
29,
17,
29,
19,
19,
22,
11,
17,
29,
15,
28,
19,
19,
21,
21,
21,
10,
23,
9,
17,
17,
20,
20,
13,
26,
20,
9,
16,
16,
17,
17,
20,
7,
16,
16,
20,
6,
15,
15,
14,
14,
18,
5,
12,
12,
16,
3,
15,
4,
16,
4,
8,
21,
10,
10,
12,
12,
13,
1,
14,
1,
4,
18,
12,
0,
8,
8,
4,
16,
2,
16,
14,
-3,
2,
16,
8,
-3,
7,
-4,
7,
-4,
1,
12,
4,
4,
0,
11,
3,
3,
1,
1,
5,
-8,
-2,
9,
0,
0,
1,
1,
-1,
-1,
-6,
7,
-5,
-5,
1,
-12,
-3,
-3,
-7,
4,
-9,
3,
-6,
-6,
-2,
-15,
-5,
-17,
-13,
0,
-4,
-17,
-7,
-18,
-15,
-2,
-12,
-12,
-5,
-19,
-9,
-20,
-12,
-12,
-16,
-4,
-8,
-21,
-14,
-14,
-18,
-6,
-15,
-15,
-15,
-15,
-17,
-17,
-20,
-8,
-11,
-26,
-15,
-27,
-15,
-27,
-24,
-10,
-22,
-11,
-27,
-11,
-16,
-28,
-16,
-29,
-23,
-23,
-20,
-20,
-23,
-23,
-24,
-24,
-25,
-25,
-21,
-32,
-28,
-15,
-22,
-22,
-25,
-25,
-15,
-34,
-27,
-15,
-27,
-16,
-24,
-35,
-23,
-35,
-28,
-28,
-32,
-17,
-24,
-35,
-21,
-36,
-27,
-27,
-28,
-28,
-26,
-26,
-29,
-29,
-26,
-26,
-33,
-20,
-24,
-36,
-33,
-20,
-23,
-37,
-30,
-19,
-33,
-20,
-27,
-27,
-28,
-28,
-27,
-27,
-31,
-31,
-33,
-20,
-29,
-29,
-28,
-28,
-25,
-37,
-31,
-19,
-25,
-37,
-29,
-29,
-32,
-20,
-27,
-27,
-27,
-27,
-31,
-19,
-31,
-19,
-22,
-36,
-30,
-19,
-25,
-25,
-27,
-27,
-29,
-17,
-27,
-27,
-28,
-28,
-23,
-34,
-19,
-34,
-27,
-27,
-23,
-34,
-25,
-25,
-31,
-15,
-25,
-25,
-21,
-32,
-22,
-22,
-24,
-24,
-20,
-31,
-26,
-13,
-23,
-23,
-22,
-22,
-16,
-31,
-21,
-21,
-24,
-11,
-23,
-10,
-26,
-9,
-22,
-10,
-19,
-19,
-15,
-15,
-16,
-16,
-9,
-25,
-12,
-23,
-19,
-7,
-21,
-5,
-15,
-15,
-10,
-22,
-8,
-21,
-16,
-3,
-13,
-13,
-13,
-13,
-7,
-19,
-15,
0,
-8,
-8,
-10,
-10,
-15,
0,
-3,
-15,
-11,
2,
-8,
4,
-6,
-6,
-4,
-4,
-4,
-4,
3,
-12,
-2,
-2,
2,
-10,
1,
-10,
-3,
9,
-5,
9,
-1,
-1,
0,
11,
5,
-7,
3,
3,
-1,
11,
8,
-4,
4,
4,
1,
15,
5,
5,
3,
15,
2,
16,
2,
16,
10,
-1,
5,
17,
10,
10,
17,
1,
12,
0,
5,
20,
4,
19,
8,
20,
9,
21,
20,
4,
12,
12,
7,
21,
11,
23,
13,
13,
12,
12,
8,
25,
14,
14,
17,
17,
15,
15,
18,
18,
21,
8,
14,
25,
19,
19,
13,
27,
15,
27,
19,
19,
17,
17,
21,
10,
19,
19,
20,
20,
19,
19,
21,
21,
25,
12,
17,
28,
24,
12,
19,
19,
21,
21,
23,
11,
21,
21,
20,
20,
16,
29,
19,
19,
17,
30,
14,
29,
26,
12,
18,
29,
25,
12,
17,
29,
23,
12,
20,
20,
21,
21,
13,
28,
18,
29,
21,
21,
19,
19,
18,
18,
26,
10,
12,
29,
21,
10,
19,
19,
13,
28,
21,
8,
16,
27,
22,
9,
23,
9,
15,
15,
16,
16,
20,
5,
25,
8,
18,
7,
15,
15,
19,
7,
17,
6,
20,
5,
11,
22,
13,
13,
15,
3,
16,
4,
7,
20,
15,
2,
10,
10,
9,
9,
11,
11,
11,
11,
7,
18,
4,
17,
4,
17,
4,
16,
12,
-3,
3,
15,
4,
15,
4,
4,
3,
3,
7,
-5,
0,
12,
0,
11,
-1,
11,
0,
11,
-2,
9,
8,
-10,
-6,
8,
5,
-10,
-2,
-2,
-4,
-4,
-9,
5,
3,
-11,
0,
-13,
-3,
-14,
-5,
-5,
-1,
-14,
-3,
-15,
-11,
1,
-3,
-16,
-4,
-17,
-10,
-10,
-13,
-1,
-11,
-11,
-12,
-12,
-6,
-20,
-16,
-3,
-10,
-21,
-18,
-5,
-13,
-13,
-13,
-13,
-16,
-16,
-13,
-24,
-19,
-8,
-10,
-24,
-13,
-26,
-15,
-27,
-21,
-10,
-23,
-8,
-20,
-20,
-18,
-29,
-17,
-29,
-22,
-22,
-18,
-31,
-18,
-30,
-24,
-13,
-22,
-22,
-22,
-22,
-24,
-24,
-21,
-21,
-24,
-24,
-28,
-15,
-28,
-16,
-29,
-16,
-28,
-17,
-26,
-26,
-24,
-35,
-26,
-26,
-26,
-26,
-25,
-36,
-28,
-28,
-30,
-19,
-28,
-28,
-24,
-36,
-31,
-19,
-28,
-28,
-29,
-29,
-23,
-36,
-27,
-27,
-30,
-19,
-30,
-30,
-33,
-20,
-29,
-29,
-25,
-37,
-34,
-20,
-34,
-20,
-28,
-28,
-32,
-20,
-33,
-20,
-28,
-28,
-27,
-27,
-29,
-29,
-28,
-28,
-28,
-28,
-29,
-29,
-27,
-27,
-29,
-18,
-20,
-36,
-24,
-36,
-24,
-36,
-25,
-25,
-22,
-35,
-24,
-36,
-31,
-18,
-25,
-25,
-20,
-35,
-21,
-35,
-25,
-25,
-31,
-16,
-28,
-16,
-24,
-24,
-23,
-23,
-21,
-21,
-23,
-23,
-26,
-14,
-23,
-23,
-21,
-21,
-20,
-31,
-23,
-12,
-19,
-19,
-13,
-29,
-20,
-20,
-13,
-27,
-22,
-9,
-19,
-19,
-9,
-25,
-14,
-14,
-16,
-16,
-12,
-24,
-18,
-6,
-20,
-7,
-13,
-13,
-14,
-14,
-14,
-14,
-6,
-20,
-15,
-3,
-13,
-2,
-13,
-1,
-7,
-18,
-8,
-8,
-10,
1,
-16,
1,
-13,
1,
-5,
-16,
-3,
-14,
-1,
-14,
-8,
3,
-3,
-3,
-5,
-5,
-1,
-1,
-3,
-3,
6,
-11,
-3,
9,
-1,
-1,
-9,
9,
3,
3,
8,
-8,
0,
0,
0,
12,
1,
12,
6,
-6,
0,
13,
5,
5,
9,
-4,
3,
15,
5,
16,
8,
8,
5,
16,
11,
0,
16,
1,
13,
0,
16,
1,
12,
1,
12,
12,
8,
20,
8,
20,
15,
4,
17,
3,
15,
4,
13,
13,
17,
5,
21,
4,
13,
24,
10,
24,
15,
15,
18,
7,
23,
8,
16,
16,
17,
17,
12,
27,
14,
28,
18,
18,
13,
28,
23,
9,
19,
19,
21,
10,
14,
29,
21,
21,
19,
19,
22,
22,
16,
28,
20,
20,
23,
10,
21,
10,
23,
12,
19,
19,
20,
20,
27,
12,
20,
20,
23,
12,
25,
12,
30,
12,
19,
30,
17,
31,
20,
20,
15,
29,
25,
12,
19,
19,
22,
11,
22,
11,
19,
19,
25,
11,
26,
11,
20,
20,
23,
11,
19,
19,
19,
19,
18,
18,
19,
19,
20,
9,
24,
9,
16,
16,
11,
27,
17,
17,
16,
16,
19,
8,
12,
25,
24,
7,
20,
7,
12,
24,
17,
5,
9,
22,
13,
13,
8,
21,
12,
12,
8,
21,
8,
21,
9,
9,
17,
1,
11,
11,
1,
17,
9,
9,
5,
17,
5,
17,
9,
9,
12,
-2,
14,
-3,
13,
-4,
5,
5,
11,
-4,
0,
15,
3,
3,
4,
-8,
-3,
10,
-1,
10,
5,
-8,
-1,
-1,
5,
-10,
2,
-10,
5,
-10,
-3,
-3,
-3,
-3,
-3,
-3,
3,
-13,
-10,
4,
-9,
3,
-10,
4,
-3,
-15,
-6,
-6,
-1,
-17,
-5,
-17,
-11,
-11,
-7,
-20,
-6,
-19,
-16,
-1,
-15,
-3,
-17,
-4,
-12,
-23,
-10,
-22,
-15,
-15,
-12,
-23,
-20,
-7,
-16,
-16,
-14,
-25,
-12,
-26,
-24,
-8,
-17,
-17,
-17,
-28,
-15,
-27,
-20,
-20,
-21,
-21,
-21,
-21,
-24,
-11,
-24,
-12,
-19,
-32,
-30,
-13,
-18,
-31,
-25,
-12,
-23,
-23,
-26,
-15,
-24,
-24,
-24,
-24,
-24,
-24,
-27,
-16,
-23,
-23,
-24,
-35,
-26,
-26,
-31,
-17,
-31,
-18,
-33,
-19,
-22,
-36,
-33,
-18,
-26,
-26,
-31,
-19,
-28,
-28,
-25,
-36,
-24,
-36,
-26,
-37,
-24,
-36,
-28,
-28,
-29,
-29,
-33,
-20,
-21,
-38,
-23,
-37,
-31,
-19,
-24,
-37,
-28,
-28,
-27,
-38,
-30,
-30,
-33,
-20,
-33,
-20,
-31,
-20,
-31,
-20,
-27,
-27,
-33,
-19,
-26,
-37,
-31,
-19,
-28,
-28,
-27,
-27,
-29,
-29,
-31,
-19,
-26,
-26,
-28,
-17,
-26,
-26,
-24,
-35,
-23,
-34,
-28,
-16,
-22,
-34,
-27,
-16,
-20,
-33,
-23,
-23,
-27,
-15,
-20,
-33,
-26,
-14,
-20,
-31,
-24,
-13,
-23,
-23,
-26,
-13,
-17,
-30,
-27,
-11,
-22,
-11,
-14,
-29,
-21,
-21,
-20,
-9,
-20,
-9,
-20,
-9,
-23,
-9,
-17,
-17,
-16,
-16,
-15,
-15,
-15,
-15,
-8,
-23,
-7,
-23,
-12,
-12,
-21,
-4,
-13,
-13,
-14,
-3,
-12,
-12,
-4,
-19,
-17,
-1,
-4,
-17,
-9,
-9,
-9,
-9,
-12,
2,
-12,
2,
-3,
-14,
-7,
4,
1,
-13,
-8,
5,
-4,
-4,
-2,
-2,
-5,
7,
-6,
8,
-2,
9,
-4,
9,
1,
1,
-1,
11,
-3,
10,
4,
4,
1,
1,
6,
-5,
8,
-4,
4,
4,
7,
7,
5,
5,
4,
16,
7,
7,
8,
8,
6,
17,
11,
0,
9,
9,
12,
12,
15,
1,
9,
20,
16,
3,
19,
3,
16,
4,
15,
15,
17,
4,
14,
14,
13,
24,
15,
15,
15,
15,
20,
7,
14,
14,
18,
18,
19,
8,
12,
25,
15,
26,
17,
17,
20,
9,
17,
17,
23,
9,
18,
18,
27,
11,
24,
10,
11,
28,
19,
19,
23,
11,
20,
20,
17,
29,
24,
11,
18,
29,
23,
12,
15,
30,
23,
12,
16,
29,
20,
20,
17,
30,
20,
20,
16,
30,
21,
21,
14,
31,
21,
21,
20,
20,
20,
20,
22,
22,
21,
21,
20,
20,
24,
9,
21,
21,
19,
19,
18,
18,
19,
19,
27,
11,
24,
10,
15,
28,
17,
28,
16,
27,
19,
19,
25,
9,
14,
27,
27,
9,
16,
16,
15,
15,
9,
25,
19,
7,
23,
6,
12,
24,
15,
15,
16,
5,
18,
4,
18,
4,
18,
3,
13,
13,
10,
21,
8,
21,
14,
2,
16,
3,
17,
1,
6,
20,
16,
-1,
5,
17,
10,
-2,
9,
9,
6,
6,
10,
-3,
4,
4,
12,
-3,
3,
3,
2,
13,
-1,
12,
-4,
11,
3,
3,
-3,
10,
6,
-8,
-7,
9,
-3,
8,
-4,
7,
1,
-11,
7,
-12,
-3,
-3,
-1,
-12,
-4,
-4,
-3,
-14,
-10,
3,
-3,
-15,
-8,
-8,
-6,
-6,
-9,
-9,
-8,
-8,
-1,
-19,
-12,
-1,
-16,
-1,
-13,
-1,
-16,
-3,
-19,
-3,
-13,
-13,
-5,
-23,
-15,
-4,
-17,
-6,
-15,
-15,
-18,
-7,
-17,
-17,
-14,
-25,
-13,
-25,
-23,
-9,
-15,
-27,
-16,
-27,
-22,
-10,
-20,
-20,
-17,
-29,
-16,
-31,
-20,
-20,
-17,
-31,
-26,
-13,
-21,
-32,
-19,
-31,
-23,
-23,
-26,
-15,
-21,
-32,
-31,
-15,
-27,
-16,
-27,
-27,
-19,
-35,
-28,
-17,
-25,
-25,
-27,
-27,
-23,
-36,
-28,
-28,
-32,
-19,
-26,
-26,
-22,
-36,
-27,
-27,
-23,
-37,
-33,
-19,
-21,
-37,
-32,
-20,
-23,
-38,
-24,
-37,
-32,
-20,
-28,
-28,
-27,
-27,
-29,
-29,
-31,
-20,
-32,
-19,
-24,
-38,
-33,
-20,
-26,
-37,
-24,
-38,
-33,
-20,
-24,
-36,
-28,
-28,
-23,
-36,
-28,
-28,
-28,
-28,
-27,
-27,
-22,
-36,
-26,
-26,
-31,
-19,
-30,
-18,
-30,
-19,
-33,
-18,
-28,
-28,
-27,
-16,
-31,
-17,
-25,
-25,
-33,
-17,
-21,
-34,
-30,
-16,
-24,
-24,
-28,
-15,
-23,
-23,
-24,
-24,
-24,
-24,
-22,
-22,
-20,
-31,
-13,
-28,
-26,
-13,
-25,
-12,
-14,
-29,
-16,
-30,
-17,
-17,
-19,
-19,
-21,
-9,
-16,
-16,
-15,
-26,
-18,
-18,
-18,
-18,
-16,
-16,
-19,
-6,
-19,
-5,
-11,
-22,
-6,
-22,
-12,
-23,
-13,
-13,
-15,
-3,
-8,
-19,
-8,
-8,
-8,
-19,
-4,
-18,
-9,
-9,
-9,
-9,
-13,
1,
-6,
-6,
-4,
-4,
-7,
-7,
2,
-13,
-3,
-3,
-2,
-2,
-4,
-4,
-3,
8,
-6,
7,
2,
-11,
-4,
8,
0,
0,
4,
-7,
-3,
10,
1,
1,
4,
4,
0,
12,
6,
6,
5,
5,
3,
14,
5,
5,
6,
6,
12,
-3,
7,
7,
10,
10,
7,
7,
6,
17,
15,
1,
9,
9,
9,
9,
15,
2,
7,
22,
9,
21,
17,
3,
13,
13,
11,
23,
14,
14,
20,
5,
20,
6,
16,
16,
15,
15,
14,
14,
13,
24,
22,
8,
19,
19,
21,
9,
21,
9,
16,
16,
16,
27,
21,
9,
11,
28,
17,
28,
19,
19,
13,
28,
20,
20,
20,
20,
27,
11,
21,
21,
16,
28,
26,
11,
20,
20,
28,
12,
18,
29,
23,
23,
20,
20,
22,
22,
17,
29,
18,
29,
19,
19,
27,
11,
26,
13,
19,
19,
17,
29,
23,
12,
21,
21,
16,
28,
20,
20,
17,
29,
22,
11,
23,
11,
22,
11,
25,
10,
19,
19,
15,
27,
20,
20,
14,
26,
23,
9,
19,
19,
19,
8,
12,
24,
18,
18,
22,
8,
14,
25,
20,
7,
16,
16,
11,
23,
17,
5,
6,
21,
13,
13,
12,
12,
15,
4,
15,
2,
12,
12,
9,
20,
11,
11,
12,
1,
10,
10,
8,
8,
9,
9,
11,
-1,
4,
15,
5,
5,
5,
5,
0,
14,
1,
15,
5,
5,
4,
4,
3,
3,
2,
2,
-3,
10,
-3,
9,
0,
0,
1,
1,
4,
-9,
0,
-12,
-2,
-2,
0,
-11,
1,
-12,
-8,
6,
1,
-13,
-1,
-13,
-4,
-15,
-2,
-16,
-2,
-15,
0,
-17,
-4,
-16,
-10,
-10,
-6,
-17,
-11,
-11,
-5,
-19,
-9,
-21,
-14,
-3,
-11,
-11,
-16,
-3,
-11,
-11,
-12,
-23,
-14,
-14,
-12,
-24,
-11,
-25,
-24,
-8,
-16,
-16,
-17,
-17,
-12,
-27,
-13,
-27,
-19,
-19,
-19,
-19,
-19,
-19,
-22,
-22,
-23,
-12,
-19,
-30,
-22,
-22,
-20,
-31,
-25,
-14,
-23,
-23,
-26,
-15,
-19,
-32,
-22,
-34,
-21,
-32,
-28,
-16,
-27,
-16,
-23,
-35,
-28,
-17,
-27,
-27,
-29,
-18,
-23,
-35,
-24,
-24,
-28,
-28,
-26,
-26,
-24,
-36,
-30,
-30,
-25,
-37,
-24,
-37,
-33,
-19,
-31,
-19,
-36,
-20,
-27,
-27,
-30,
-30,
-28,
-28,
-32,
-19,
-30,
-30,
-37,
-20,
-31,
-20,
-28,
-28,
-26,
-38,
-24,
-38,
-30,
-30,
-24,
-39,
-28,
-28,
-29,
-29,
-27,
-38,
-24,
-37,
-33,
-21,
-28,
-28,
-21,
-36,
-32,
-19,
-36,
-19,
-35,
-18,
-24,
-36,
-29,
-17,
-26,
-26,
-22,
-35,
-24,
-24,
-19,
-33,
-21,
-35,
-18,
-33,
-29,
-16,
-25,
-25,
-24,
-24,
-19,
-33,
-24,
-24,
-24,
-24,
-17,
-31,
-21,
-21,
-19,
-30,
-21,
-21,
-19,
-19,
-20,
-20,
-19,
-19,
-17,
-17,
-20,
-20,
-19,
-19,
-16,
-27,
-16,
-16,
-24,
-8,
-15,
-26,
-24,
-7,
-18,
-7,
-13,
-13,
-10,
-23,
-10,
-23,
-8,
-21,
-4,
-20,
-13,
-2,
-15,
-2,
-12,
0,
-7,
-18,
-13,
0,
-5,
-17,
-11,
1,
-9,
-9,
-1,
-15,
-11,
2,
-6,
-6,
-10,
5,
-8,
4,
-6,
5,
4,
-11,
-5,
7,
3,
-11,
5,
-9,
1,
-10,
-2,
10,
-3,
9,
1,
1,
-3,
11,
5,
-7,
5,
5,
-1,
12,
1,
14,
5,
5,
4,
15,
8,
8,
1,
15,
3,
16,
3,
16,
4,
17,
16,
0,
11,
11,
10,
10,
13,
2,
17,
2,
12,
12,
10,
10,
11,
11,
14,
14,
9,
22,
13,
13,
16,
4,
15,
15,
16,
16,
18,
6,
19,
8,
16,
16,
21,
8,
11,
25,
9,
26,
13,
26,
13,
27,
21,
9,
17,
17,
20,
9,
19,
19,
23,
10,
20,
20,
27,
11,
22,
11,
15,
28,
22,
9,
14,
29,
17,
30,
19,
19,
19,
30,
22,
10,
17,
30,
19,
30,
16,
29,
21,
21,
24,
12,
20,
20,
19,
30,
17,
30,
23,
12,
16,
29,
26,
11,
16,
29,
21,
21,
17,
29,
17,
29,
13,
28,
16,
28,
22,
11,
17,
28,
20,
20,
17,
17,
22,
9,
21,
9,
17,
17,
20,
8,
25,
8,
18,
18,
24,
9,
13,
25,
19,
6,
17,
17,
13,
13,
16,
16,
14,
14,
16,
4,
16,
4,
13,
13,
11,
11,
15,
3,
3,
21,
10,
10,
9,
9,
10,
10,
5,
18,
12,
0,
7,
7,
7,
7,
13,
-1,
6,
6,
8,
-3,
9,
-4,
5,
5,
3,
14,
6,
-5,
-1,
12,
4,
4,
3,
3,
5,
-7,
-4,
9,
5,
-8,
2,
-9,
1,
-11,
-3,
-3,
-8,
7,
-9,
5,
-7,
5,
2,
-13,
-4,
-4,
-8,
3,
1,
-14,
-4,
-15,
-5,
-17,
-2,
-16,
-4,
-17,
-5,
-19,
-3,
-19,
-13,
-1,
-8,
-21,
-8,
-21,
-17,
-4,
-6,
-23,
-13,
-13,
-19,
-4,
-18,
-6,
-12,
-24,
-20,
-7,
-14,
-14,
-20,
-8,
-20,
-8,
-20,
-8,
-11,
-28,
-21,
-10,
-17,
-29,
-15,
-29,
-16,
-28,
-19,
-19,
-22,
-22,
-23,
-23,
-26,
-13,
-18,
-32,
-29,
-14,
-27,
-15,
-29,
-16,
-18,
-33,
-24,
-24,
-28,
-16,
-24,
-35,
-29,
-17,
-24,
-35,
-31,
-17,
-23,
-35,
-22,
-36,
-27,
-27,
-32,
-19,
-26,
-26,
-29,
-29,
-27,
-39,
-24,
-35,
-28,
-28,
-25,
-36,
-33,
-19,
-27,
-38,
-28,
-28,
-30,
-19,
-27,
-27,
-23,
-37,
-27,
-39,
-28,
-28,
-35,
-18,
-24,
-39,
-33,
-20,
-20,
-38,
-20,
-38,
-27,
-39,
-30,
-30,
-35,
-19,
-28,
-28,
-26,
-26,
-21,
-39,
-25,
-36,
-27,
-27,
-31,
-19,
-24,
-36,
-33,
-18,
-27,
-27,
-25,
-36,
-25,
-25,
-28,
-17,
-30,
-17,
-20,
-35,
-22,
-34,
-27,
-15,
-29,
-15,
-31,
-16,
-30,
-14,
-29,
-13,
-22,
-22,
-27,
-14,
-19,
-31,
-29,
-14,
-18,
-29,
-14,
-30,
-16,
-29,
-19,
-19,
-18,
-18,
-15,
-28,
-20,
-20,
-17,
-17,
-13,
-27,
-18,
-18,
-20,
-7,
-11,
-25,
-14,
-14,
-12,
-23,
-11,
-22,
-13,
-13,
-11,
-22,
-12,
-12,
-15,
-2,
-9,
-9,
-8,
-20,
-9,
-9,
-14,
0,
-9,
-9,
-4,
-16,
-7,
-7,
-5,
-16,
-2,
-15,
-4,
-15,
-8,
5,
-4,
-4,
-6,
5,
-8,
5,
-4,
-4,
3,
-11,
-6,
7,
-1,
-1,
5,
-8,
-5,
10,
4,
-8,
1,
1,
-2,
11,
3,
3,
5,
5,
1,
13,
10,
-4,
9,
-3,
5,
5,
2,
15,
13,
-1,
11,
-2,
5,
16,
5,
17,
9,
9,
7,
19,
8,
19,
13,
2,
15,
1,
13,
13,
5,
21,
14,
14,
15,
15,
12,
23,
16,
5,
12,
24,
15,
15,
20,
7,
10,
24,
22,
8,
15,
15,
15,
15,
14,
25,
21,
9,
19,
19,
20,
20,
15,
28,
25,
9,
25,
11,
24,
10,
20,
20,
15,
28,
18,
18,
14,
28,
18,
29,
18,
29,
28,
12,
20,
20,
21,
21,
15,
29,
21,
21,
21,
21,
23,
12,
21,
21,
17,
29,
24,
11,
16,
29,
18,
29,
20,
20,
19,
19,
24,
11,
21,
21,
26,
12,
15,
30,
17,
29,
19,
19,
20,
20,
20,
20,
21,
21,
20,
20,
20,
20,
18,
18,
17,
28,
17,
17,
16,
16,
19,
19,
15,
28,
15,
26,
12,
25,
13,
25,
15,
15,
12,
24,
16,
16,
16,
5,
9,
23,
19,
4,
11,
11,
17,
4,
6,
21,
5,
21,
11,
11,
11,
11,
12,
12,
4,
19,
8,
8,
3,
17,
9,
9,
13,
-1,
11,
-2,
10,
-1,
5,
5,
6,
6,
8,
-3,
10,
-4,
8,
-5,
-5,
12,
4,
4,
8,
-6,
4,
-7,
6,
-7,
1,
1,
0,
0,
-3,
8,
-7,
7,
1,
-11,
-7,
6,
-3,
-3,
-6,
-6,
-5,
-5,
4,
-15,
1,
-15,
-1,
-15,
-7,
-7,
-5,
-17,
-12,
0,
-5,
