4-transistorverstaerker/data/ALL0029/A0029CH1.CSV

Memory Length,4000,
Trigger Level,1.11989e+01,
Source,CH1,
Probe,1.0X,
Vertical Units,V,
Vertical Scale,2.00000e-02,
Vertical Position,-8.00000e-04,
Horizontal Units,S,
Horizontal Scale,2.50000e-06,
Horizontal Position,-3.4000000e-06,
Horizontal Mode,Main,
Sampling Period,1.00000e-08,
Firmware,V1.14,
Time, ,
Mode,Fast,
Waveform Data,
50,
50,
50,
40,
40,
50,
50,
41,
41,
41,
53,
51,
31,
48,
48,
43,
26,
54,
54,
36,
36,
52,
52,
36,
36,
46,
46,
38,
38,
47,
47,
34,
34,
45,
45,
32,
32,
42,
42,
33,
33,
38,
38,
37,
37,
38,
38,
35,
35,
35,
35,
37,
37,
31,
31,
39,
26,
27,
38,
39,
26,
29,
29,
34,
34,
26,
26,
35,
35,
25,
25,
32,
32,
27,
27,
28,
28,
27,
27,
26,
26,
26,
26,
25,
25,
21,
21,
25,
25,
23,
23,
24,
24,
19,
19,
24,
24,
14,
14,
25,
13,
11,
11,
24,
24,
12,
12,
18,
18,
9,
9,
18,
18,
8,
8,
14,
14,
8,
8,
11,
11,
10,
10,
7,
7,
7,
7,
8,
8,
7,
7,
7,
7,
4,
4,
5,
5,
2,
2,
5,
5,
-4,
-4,
8,
8,
-4,
-4,
2,
2,
-4,
-4,
-1,
-1,
-6,
-6,
-4,
-4,
-7,
-7,
-6,
-6,
-5,
-5,
-12,
-12,
-5,
-5,
-13,
-13,
-7,
-7,
-12,
-12,
-9,
-9,
-12,
-12,
-10,
-10,
-15,
-15,
-13,
-13,
-13,
-13,
-18,
-18,
-14,
-14,
-16,
-16,
-19,
-19,
-18,
-18,
-22,
-22,
-19,
-19,
-23,
-23,
-19,
-19,
-27,
-27,
-16,
-16,
-30,
-30,
-18,
-18,
-30,
-30,
-21,
-21,
-30,
-30,
-24,
-24,
-28,
-28,
-22,
-22,
-31,
-31,
-29,
-29,
-29,
-29,
-30,
-30,
-30,
-30,
-30,
-30,
-33,
-33,
-29,
-29,
-37,
-37,
-32,
-32,
-37,
-37,
-30,
-30,
-41,
-41,
-29,
-29,
-42,
-42,
-33,
-33,
-42,
-42,
-36,
-36,
-37,
-37,
-37,
-37,
-38,
-38,
-37,
-37,
-39,
-39,
-42,
-42,
-38,
-38,
-43,
-43,
-38,
-38,
-42,
-42,
-43,
-43,
-42,
-42,
-44,
-44,
-43,
-43,
-46,
-46,
-42,
-42,
-46,
-46,
-42,
-42,
-47,
-47,
-44,
-44,
-45,
-45,
-48,
-48,
-43,
-43,
-48,
-48,
-43,
-43,
-51,
-51,
-43,
-43,
-52,
-52,
-42,
-54,
-54,
-54,
-43,
-43,
-50,
-50,
-48,
-48,
-52,
-52,
-47,
-47,
-51,
-51,
-49,
-49,
-51,
-51,
-48,
-48,
-49,
-49,
-50,
-50,
-52,
-52,
-46,
-46,
-54,
-54,
-45,
-45,
-54,
-54,
-45,
-45,
-54,
-54,
-46,
-46,
-57,
-57,
-44,
-44,
-54,
-54,
-49,
-49,
-52,
-52,
-50,
-50,
-52,
-52,
-51,
-51,
-51,
-51,
-50,
-50,
-49,
-49,
-51,
-51,
-47,
-47,
-50,
-50,
-51,
-51,
-47,
-47,
-53,
-53,
-44,
-44,
-50,
-50,
-46,
-46,
-49,
-49,
-46,
-46,
-52,
-52,
-45,
-45,
-49,
-49,
-45,
-45,
-37,
-37,
-54,
-54,
-30,
-47,
-61,
-30,
-32,
-47,
-59,
-59,
-31,
-45,
-55,
-55,
-34,
-34,
-51,
-51,
-37,
-37,
-45,
-45,
-42,
-42,
-40,
-40,
-40,
-40,
-41,
-41,
-41,
-41,
-38,
-38,
-39,
-39,
-38,
-38,
-35,
-35,
-39,
-39,
-31,
-31,
-42,
-42,
-30,
-30,
-39,
-39,
-28,
-28,
-38,
-38,
-26,
-26,
-36,
-36,
-25,
-25,
-35,
-35,
-28,
-28,
-29,
-29,
-27,
-27,
-28,
-28,
-25,
-25,
-28,
-28,
-27,
-27,
-26,
-26,
-24,
-24,
-24,
-24,
-20,
-20,
-26,
-26,
-17,
-17,
-26,
-26,
-17,
-17,
-23,
-23,
-15,
-15,
-20,
-20,
-14,
-14,
-18,
-18,
-13,
-13,
-15,
-15,
-16,
-16,
-9,
-9,
-14,
-14,
-10,
-10,
-13,
-13,
-8,
-8,
-12,
-12,
-8,
-8,
-11,
-11,
-7,
-7,
-5,
-5,
-9,
-9,
-4,
-4,
-6,
-6,
-3,
-3,
-3,
-3,
-3,
-3,
1,
1,
-1,
-1,
0,
0,
-2,
-2,
6,
6,
-3,
-3,
8,
8,
-4,
-4,
12,
1,
3,
3,
8,
8,
0,
0,
9,
9,
3,
3,
12,
12,
8,
8,
10,
10,
10,
10,
11,
11,
11,
11,
15,
15,
11,
11,
16,
16,
14,
14,
19,
19,
10,
10,
20,
20,
10,
10,
26,
26,
13,
13,
21,
21,
16,
16,
23,
23,
17,
17,
23,
23,
23,
23,
24,
24,
25,
25,
22,
22,
29,
29,
24,
24,
27,
27,
29,
29,
29,
29,
30,
30,
29,
29,
31,
31,
28,
28,
33,
33,
26,
26,
34,
34,
31,
31,
31,
31,
33,
33,
31,
31,
34,
34,
30,
30,
37,
37,
32,
32,
40,
40,
29,
29,
41,
41,
34,
34,
41,
41,
38,
38,
43,
43,
40,
40,
44,
44,
40,
40,
42,
42,
43,
43,
42,
42,
43,
43,
46,
46,
40,
40,
47,
47,
39,
39,
47,
47,
38,
38,
50,
50,
40,
40,
51,
51,
37,
37,
49,
49,
42,
42,
49,
49,
44,
44,
50,
50,
46,
46,
51,
51,
46,
46,
47,
47,
51,
51,
49,
49,
47,
47,
51,
51,
47,
47,
53,
53,
44,
44,
51,
51,
47,
47,
52,
52,
43,
43,
52,
52,
45,
45,
49,
49,
47,
47,
46,
46,
51,
40,
47,
47,
49,
49,
47,
47,
52,
52,
45,
45,
53,
53,
47,
47,
52,
52,
49,
49,
47,
47,
47,
47,
47,
47,
46,
46,
47,
47,
46,
46,
46,
46,
45,
45,
46,
33,
47,
47,
37,
37,
45,
45,
35,
35,
43,
43,
34,
48,
38,
38,
40,
40,
38,
38,
40,
40,
36,
36,
40,
40,
37,
37,
39,
39,
35,
35,
41,
41,
36,
36,
41,
41,
36,
36,
38,
38,
35,
35,
36,
36,
28,
28,
38,
25,
24,
24,
35,
35,
26,
26,
32,
32,
22,
22,
30,
30,
22,
22,
28,
28,
23,
23,
23,
23,
24,
24,
20,
20,
23,
23,
19,
19,
22,
22,
20,
20,
21,
21,
18,
18,
21,
21,
18,
18,
13,
13,
20,
20,
13,
13,
15,
15,
11,
11,
12,
12,
10,
10,
9,
9,
7,
7,
6,
6,
10,
10,
1,
1,
9,
9,
-2,
-2,
7,
7,
-3,
-3,
6,
6,
0,
0,
8,
8,
-2,
-2,
5,
5,
0,
0,
0,
0,
0,
0,
-1,
-1,
-2,
-2,
-1,
-1,
-6,
-6,
-4,
-4,
-8,
-8,
-5,
-5,
-14,
-14,
-5,
-5,
-16,
-16,
-5,
-5,
-19,
-19,
-8,
-8,
-17,
-17,
-10,
-10,
-17,
-17,
-9,
-9,
-18,
-18,
-13,
-13,
-14,
-14,
-16,
-16,
-14,
-14,
-17,
-17,
-16,
-16,
-18,
-18,
-20,
-20,
-20,
-20,
-22,
-22,
-22,
-22,
-24,
-24,
-20,
-20,
-27,
-27,
-19,
-19,
-31,
-31,
-24,
-24,
-26,
-26,
-25,
-25,
-28,
-28,
-28,
-28,
-27,
-27,
-31,
-31,
-27,
-27,
-35,
-35,
-25,
-36,
-34,
-34,
-29,
-29,
-35,
-35,
-31,
-31,
-35,
-35,
-33,
-33,
-37,
-37,
-33,
-33,
-35,
-35,
-38,
-38,
-36,
-36,
-36,
-36,
-39,
-39,
-34,
-34,
-40,
-40,
-34,
-34,
-41,
-41,
-35,
-35,
-45,
-45,
-33,
-46,
-48,
-48,
-35,
-35,
-46,
-46,
-39,
-39,
-47,
-47,
-40,
-40,
-46,
-46,
-42,
-42,
-45,
-45,
-44,
-44,
-43,
-43,
-45,
-45,
-45,
-45,
-44,
-44,
-48,
-48,
-43,
-43,
-49,
-49,
-42,
-42,
-49,
-49,
-43,
-43,
-53,
-53,
-41,
-41,
-52,
-52,
-45,
-45,
-51,
-51,
-47,
-47,
-49,
-49,
-50,
-50,
-49,
-49,
-50,
-50,
-46,
-46,
-52,
-52,
-46,
-46,
-52,
-52,
-46,
-46,
-50,
-50,
-51,
-51,
-47,
-47,
-49,
-49,
-50,
-50,
-50,
-50,
-48,
-48,
-53,
-53,
-48,
-48,
-50,
-50,
-50,
-50,
-47,
-47,
-53,
-53,
-46,
-46,
-54,
-54,
-45,
-45,
-53,
-53,
-43,
-43,
-54,
-54,
-42,
-42,
-54,
-54,
-44,
-44,
-50,
-50,
-46,
-46,
-48,
-48,
-44,
-44,
-50,
-50,
-46,
-46,
-48,
-48,
-48,
-48,
-41,
-53,
-46,
-46,
-46,
-57,
-32,
-32,
-56,
-56,
-29,
-40,
-54,
-54,
-29,
-29,
-53,
-53,
-30,
-30,
-50,
-50,
-31,
-31,
-49,
-49,
-38,
-38,
-41,
-41,
-39,
-39,
-40,
-40,
-39,
-39,
-38,
-38,
-42,
-42,
-37,
-37,
-41,
-41,
-34,
-34,
-37,
-37,
-37,
-37,
-33,
-33,
-37,
-37,
-33,
-33,
-36,
-36,
-32,
-32,
-33,
-33,
-28,
-28,
-33,
-33,
-28,
-28,
-29,
-29,
-33,
-33,
-24,
-36,
-31,
-31,
-24,
-24,
-31,
-31,
-23,
-23,
-29,
-29,
-22,
-22,
-28,
-28,
-22,
-22,
-24,
-24,
-22,
-22,
-21,
-21,
-22,
-22,
-20,
-20,
-19,
-19,
-19,
-19,
-16,
-16,
-16,
-16,
-16,
-16,
-19,
-19,
-10,
-10,
-19,
-19,
-7,
-19,
-19,
-19,
-7,
-7,
-15,
-15,
-8,
-8,
-16,
-16,
-5,
-5,
-13,
-13,
-6,
-6,
-10,
-10,
-6,
-6,
-5,
-5,
-6,
-6,
-6,
-6,
-2,
-2,
-5,
-5,
0,
0,
-1,
-1,
1,
1,
-2,
-2,
4,
4,
-3,
-3,
8,
8,
-1,
-1,
7,
7,
2,
2,
7,
7,
3,
3,
8,
8,
7,
7,
8,
8,
11,
11,
6,
6,
15,
15,
7,
7,
13,
13,
12,
12,
16,
16,
13,
13,
17,
17,
15,
15,
18,
18,
19,
19,
16,
16,
21,
21,
21,
21,
19,
19,
22,
22,
20,
20,
26,
26,
20,
20,
27,
27,
21,
21,
32,
32,
19,
19,
33,
33,
23,
23,
33,
33,
26,
26,
34,
34,
28,
28,
36,
36,
29,
29,
34,
34,
34,
34,
34,
34,
34,
34,
37,
37,
34,
34,
39,
39,
32,
32,
40,
40,
34,
34,
42,
42,
34,
34,
46,
46,
33,
33,
45,
45,
37,
37,
44,
44,
41,
41,
44,
44,
41,
41,
46,
46,
42,
42,
42,
42,
47,
47,
43,
43,
46,
46,
44,
44,
45,
45,
46,
46,
43,
43,
45,
45,
46,
46,
49,
49,
44,
44,
50,
50,
45,
45,
50,
50,
47,
47,
46,
46,
51,
39,
47,
47,
50,
50,
44,
44,
52,
52,
42,
42,
53,
53,
43,
43,
52,
52,
45,
45,
48,
48,
45,
45,
48,
48,
45,
45,
48,
48,
47,
47,
47,
47,
49,
49,
48,
48,
46,
46,
52,
52,
44,
44,
53,
53,
43,
43,
50,
50,
39,
39,
50,
50,
38,
38,
49,
49,
39,
39,
48,
48,
42,
42,
45,
45,
41,
41,
43,
43,
43,
43,
42,
42,
43,
43,
45,
45,
47,
47,
40,
40,
49,
49,
37,
37,
50,
50,
31,
31,
44,
44,
35,
35,
42,
42,
31,
45,
34,
34,
36,
36,
36,
36,
34,
34,
34,
34,
32,
32,
36,
36,
34,
34,
35,
35,
35,
35,
37,
37,
31,
31,
35,
35,
30,
30,
29,
29,
31,
31,
29,
29,
30,
30,
30,
30,
27,
27,
27,
27,
25,
25,
24,
24,
23,
23,
26,
26,
19,
19,
28,
28,
18,
18,
29,
29,
17,
17,
25,
25,
16,
16,
27,
27,
13,
13,
22,
22,
16,
16,
19,
19,
17,
17,
16,
16,
16,
16,
16,
16,
11,
11,
12,
12,
11,
11,
13,
13,
8,
8,
13,
13,
6,
6,
15,
15,
1,
1,
10,
10,
3,
3,
9,
9,
2,
2,
8,
8,
1,
1,
4,
4,
0,
0,
-2,
-2,
3,
3,
-2,
-2,
-1,
-1,
-2,
-2,
-2,
-2,
-5,
-5,
-4,
-4,
-6,
-6,
-7,
-7,
-5,
-5,
-9,
-9,
-6,
-6,
-11,
-11,
-8,
-8,
-9,
-9,
-10,
-10,
-12,
-12,
-12,
-12,
-12,
-12,
-17,
-17,
-10,
-24,
-20,
-20,
-9,
-23,
-19,
-19,
-16,
-16,
-24,
-24,
-16,
-16,
-24,
-24,
-19,
-19,
-27,
-27,
-19,
-19,
-23,
-23,
-26,
-26,
-26,
-26,
-25,
-25,
-28,
-28,
-25,
-25,
-32,
-32,
-25,
-25,
-30,
-30,
-27,
-27,
-36,
-36,
-23,
-35,
-37,
-37,
-26,
-26,
-39,
-39,
-29,
-29,
-37,
-37,
-33,
-33,
-39,
-39,
-33,
-33,
-38,
-38,
-37,
-37,
-37,
-37,
-40,
-40,
-39,
-39,
-40,
-40,
-42,
-42,
-38,
-38,
-41,
-41,
-40,
-40,
-43,
-43,
-41,
-41,
-47,
-47,
-39,
-39,
-48,
-48,
-40,
-40,
-46,
-46,
-44,
-44,
-45,
-45,
-47,
-47,
-47,
-47,
-47,
-47,
-44,
-44,
-50,
-50,
-44,
-44,
-51,
-51,
-43,
-43,
-50,
-50,
-48,
-48,
-48,
-48,
-46,
-46,
-51,
-51,
-48,
-48,
-49,
-49,
-49,
-49,
-49,
-49,
-51,
-51,
-50,
-50,
-48,
-48,
-54,
-54,
-48,
-48,
-54,
-54,
-47,
-47,
-55,
-55,
-46,
-46,
-55,
-55,
-43,
-43,
-58,
-58,
-46,
-46,
-53,
-53,
-48,
-48,
-52,
-52,
-47,
-47,
-52,
-52,
-48,
-48,
-51,
-51,
-51,
-51,
-49,
-49,
-50,
-50,
-52,
-52,
-46,
-46,
-53,
-53,
-47,
-47,
-53,
-53,
-45,
-45,
-51,
-51,
-44,
-44,
-52,
-52,
-41,
-41,
-53,
-53,
-46,
-46,
-47,
-47,
-47,
-47,
-46,
-46,
-47,
-47,
-46,
-46,
-48,
-48,
-44,
-44,
-48,
-48,
-44,
-57,
-37,
-37,
-55,
-55,
-36,
-51,
-57,
-32,
-37,
-52,
-54,
-36,
-39,
-39,
-48,
-48,
-36,
-36,
-47,
-47,
-39,
-39,
-42,
-42,
-44,
-44,
-35,
-47,
-45,
-45,
-31,
-47,
-42,
-42,
-34,
-34,
-43,
-43,
-30,
-42,
-43,
-43,
-31,
-31,
-39,
-39,
-32,
-32,
-35,
-35,
-34,
-34,
-33,
-33,
-33,
-33,
-33,
-33,
-30,
-30,
-29,
-29,
-30,
-30,
-30,
-30,
-27,
-27,
-33,
-33,
-21,
-32,
-35,
-24,
-20,
-20,
-31,
-31,
-22,
-22,
-32,
-32,
-19,
-19,
-28,
-28,
-19,
-19,
-25,
-25,
-19,
-19,
-20,
-20,
-22,
-22,
-20,
-20,
-18,
-18,
-18,
-18,
-17,
-17,
-15,
-15,
-16,
-16,
-14,
-14,
-13,
-13,
-18,
-18,
-8,
-8,
-15,
-15,
-10,
-10,
-14,
-14,
-8,
-8,
-12,
-12,
-7,
-7,
-10,
-10,
-7,
-7,
-5,
-5,
-10,
-10,
-1,
-1,
-9,
-9,
0,
0,
-6,
-6,
2,
2,
-4,
-4,
4,
4,
-3,
-3,
3,
3,
1,
1,
1,
1,
5,
5,
3,
3,
5,
5,
7,
7,
5,
5,
9,
9,
6,
6,
11,
11,
6,
6,
16,
16,
5,
5,
18,
18,
7,
7,
19,
19,
10,
10,
20,
20,
13,
13,
23,
23,
13,
13,
19,
19,
19,
19,
20,
20,
20,
20,
21,
21,
21,
21,
24,
24,
20,
20,
24,
24,
22,
22,
28,
28,
23,
23,
31,
31,
23,
23,
34,
34,
23,
23,
32,
32,
28,
28,
35,
35,
28,
28,
34,
34,
32,
32,
32,
32,
35,
35,
31,
31,
38,
38,
33,
33,
36,
36,
34,
34,
37,
37,
35,
35,
39,
39,
37,
37,
38,
38,
42,
42,
37,
37,
43,
43,
42,
29,
38,
38,
42,
42,
42,
42,
44,
44,
40,
40,
46,
46,
39,
39,
49,
37,
37,
37,
49,
49,
40,
40,
47,
47,
39,
39,
47,
47,
42,
42,
48,
48,
42,
42,
47,
47,
48,
48,
45,
45,
45,
45,
48,
48,
45,
45,
50,
50,
45,
45,
50,
50,
44,
44,
50,
50,
40,
40,
53,
53,
41,
41,
50,
50,
43,
43,
49,
49,
43,
43,
47,
47,
45,
45,
48,
48,
46,
46,
45,
45,
49,
49,
45,
45,
46,
46,
46,
46,
45,
45,
48,
48,
45,
45,
46,
46,
44,
44,
46,
46,
40,
40,
48,
48,
43,
43,
45,
45,
44,
44,
40,
40,
44,
44,
41,
41,
43,
43,
41,
41,
47,
47,
35,
35,
56,
36,
28,
55,
46,
31,
31,
52,
37,
37,
37,
37,
39,
39,
33,
48,
36,
36,
36,
36,
34,
34,
37,
37,
34,
34,
37,
37,
38,
38,
32,
32,
37,
37,
31,
31,
38,
38,
29,
29,
40,
40,
27,
27,
40,
40,
26,
26,
35,
35,
30,
30,
34,
34,
28,
28,
32,
32,
26,
26,
27,
27,
27,
27,
26,
26,
26,
26,
25,
25,
24,
24,
28,
28,
20,
20,
25,
25,
20,
20,
25,
25,
19,
19,
24,
24,
17,
17,
23,
23,
17,
17,
16,
16,
20,
8,
14,
14,
17,
17,
12,
12,
17,
17,
10,
10,
14,
14,
6,
6,
14,
14,
9,
9,
9,
9,
8,
8,
7,
7,
7,
7,
5,
5,
4,
4,
7,
7,
6,
6,
1,
1,
0,
0,
4,
4,
-5,
-5,
5,
-9,
-6,
-6,
4,
-9,
-8,
-8,
0,
0,
-11,
-11,
-1,
-1,
-13,
-13,
-3,
-3,
-11,
-11,
-9,
-9,
-10,
-10,
-11,
-11,
-12,
-12,
-10,
-10,
-14,
-14,
-11,
-11,
-13,
-13,
-15,
-15,
-19,
-19,
-13,
-13,
-22,
-22,
-13,
-13,
-25,
-25,
-16,
-16,
-25,
-25,
-18,
-18,
-28,
-28,
-20,
-20,
-28,
-28,
-23,
-23,
-27,
-27,
-28,
-28,
-25,
-25,
-31,
-31,
-28,
-28,
-29,
-29,
-27,
-27,
-31,
-31,
-30,
-30,
-31,
-31,
-32,
-32,
-32,
-32,
-37,
-37,
-30,
-30,
-35,
-35,
-34,
-34,
-37,
-37,
-36,
-36,
-37,
-37,
-39,
-39,
-37,
-37,
-40,
-40,
-35,
-35,
-45,
-45,
-33,
-45,
-45,
-45,
-37,
-37,
-44,
-44,
-37,
-37,
-44,
-44,
-37,
-37,
-46,
-46,
-41,
-41,
-44,
-44,
-45,
-45,
-42,
-42,
-41,
-41,
-47,
-47,
-45,
-45,
-48,
-48,
-42,
-42,
-49,
-49,
-44,
-44,
-50,
-50,
-40,
-40,
-53,
-53,
-40,
-40,
-52,
-52,
-43,
-43,
-50,
-50,
-43,
-43,
-50,
-50,
-44,
-44,
-50,
-50,
-49,
-49,
-46,
-46,
-49,
-49,
-47,
-47,
-49,
-49,
-48,
-48,
-48,
-48,
-51,
-51,
-50,
-50,
-49,
-49,
-47,
-47,
-52,
-52,
-44,
-44,
-52,
-52,
-45,
-45,
-50,
-50,
-48,
-48,
-47,
-47,
-47,
-47,
-49,
-49,
-49,
-49,
-46,
-46,
-53,
-53,
-45,
-45,
-53,
-53,
-44,
-44,
-53,
-53,
-47,
-47,
-49,
-49,
-49,
-49,
-50,
-50,
-47,
-47,
-51,
-51,
-46,
-46,
-45,
-45,
-48,
-48,
-46,
-46,
-45,
-45,
-50,
-50,
-42,
-53,
-47,
-47,
-43,
-43,
-52,
-39,
-37,
-56,
-44,
-44,
-43,
-43,
-40,
-40,
-49,
-49,
-36,
-36,
-51,
-51,
-41,
-41,
-47,
-47,
-40,
-40,
-46,
-46,
-39,
-39,
-45,
-45,
-39,
-39,
-43,
-43,
-43,
-43,
-36,
-36,
-43,
-43,
-35,
-35,
-41,
-41,
-34,
-34,
-42,
-42,
-33,
-33,
-43,
-43,
-31,
-31,
-42,
-42,
-32,
-32,
-36,
-36,
-34,
-34,
-35,
-35,
-34,
-34,
-32,
-32,
-32,
-32,
-28,
-28,
-34,
-34,
-25,
-25,
-33,
-33,
-28,
-28,
-28,
-28,
-25,
-25,
-27,
-27,
-26,
-26,
-26,
-26,
-25,
-25,
-23,
-23,
-26,
-26,
-21,
-21,
-22,
-22,
-22,
-22,
-18,
-18,
-23,
-23,
-15,
-15,
-22,
-22,
-14,
-14,
-20,
-20,
-9,
-9,
-21,
-21,
-8,
-8,
-17,
-17,
-9,
-9,
-14,
-14,
-9,
-9,
-11,
-11,
-6,
-6,
-11,
-11,
-8,
-8,
-8,
-8,
-7,
-7,
-6,
-6,
-4,
-4,
-6,
-6,
1,
1,
-8,
-8,
2,
2,
-4,
-4,
4,
4,
-2,
-2,
10,
10,
-4,
-4,
10,
10,
0,
0,
7,
7,
6,
6,
7,
7,
6,
6,
9,
9,
10,
10,
7,
7,
11,
11,
9,
9,
13,
13,
11,
11,
12,
12,
18,
18,
11,
11,
16,
16,
15,
15,
19,
19,
17,
17,
21,
21,
18,
18,
21,
21,
23,
23,
18,
18,
27,
14,
20,
20,
26,
26,
20,
20,
29,
29,
20,
20,
29,
29,
19,
19,
32,
32,
26,
26,
28,
28,
27,
27,
29,
29,
29,
29,
32,
32,
30,
30,
34,
34,
34,
34,
34,
34,
31,
31,
38,
27,
30,
30,
41,
29,
30,
30,
42,
31,
32,
32,
39,
39,
31,
31,
42,
42,
31,
31,
42,
42,
37,
37,
40,
40,
39,
39,
39,
39,
40,
40,
42,
42,
41,
41,
42,
42,
43,
43,
43,
43,
40,
40,
47,
47,
40,
40,
47,
47,
39,
39,
46,
46,
42,
42,
44,
44,
40,
40,
46,
46,
42,
42,
44,
44,
46,
46,
42,
42,
49,
49,
42,
42,
47,
47,
46,
46,
50,
50,
44,
44,
50,
50,
46,
46,
48,
48,
46,
46,
46,
46,
48,
48,
47,
47,
45,
45,
48,
48,
44,
44,
47,
47,
44,
44,
49,
49,
43,
43,
52,
52,
40,
40,
53,
53,
43,
43,
50,
50,
44,
44,
53,
53,
43,
43,
50,
50,
44,
44,
48,
48,
45,
45,
45,
45,
46,
46,
47,
47,
43,
43,
45,
45,
43,
43,
46,
46,
44,
44,
52,
52,
31,
31,
59,
41,
25,
57,
53,
36,
30,
30,
50,
39,
32,
32,
47,
47,
34,
34,
44,
44,
36,
36,
37,
37,
42,
42,
34,
34,
42,
42,
34,
34,
38,
38,
36,
36,
35,
35,
33,
33,
37,
37,
36,
36,
32,
32,
36,
36,
31,
31,
34,
34,
32,
32,
31,
31,
33,
21,
29,
29,
31,
31,
25,
25,
32,
21,
20,
20,
31,
20,
18,
18,
29,
29,
18,
18,
25,
25,
18,
18,
23,
23,
15,
15,
23,
23,
19,
19,
19,
19,
18,
18,
17,
17,
15,
15,
18,
18,
10,
10,
18,
18,
10,
10,
15,
15,
5,
5,
15,
15,
3,
3,
14,
14,
0,
0,
12,
12,
2,
2,
5,
5,
0,
0,
6,
6,
0,
0,
2,
2,
2,
2,
0,
0,
2,
2,
-2,
-2,
-3,
-3,
0,
0,
-5,
-5,
-3,
-3,
-7,
-7,
-4,
-4,
-10,
-10,
-6,
-6,
-13,
-13,
-6,
-6,
-14,
-14,
-11,
-11,
-11,
-11,
-15,
-15,
-12,
-12,
-17,
-17,
-13,
-13,
-18,
-18,
-11,
-11,
-23,
-23,
-12,
-12,
-21,
-21,
-17,
-17,
-20,
-20,
-18,
-18,
-22,
-22,
-20,
-20,
-23,
-23,
-23,
-23,
-26,
-26,
-27,
-27,
-24,
-24,
-24,
-24,
-30,
-30,
-24,
-24,
-34,
-34,
-24,
-24,
-34,
-34,
-26,
-26,
-34,
-34,
-23,
-23,
-38,
-38,
-26,
-26,
-34,
-34,
-28,
-28,
-34,
-34,
-32,
-32,
-34,
-34,
-33,
-33,
-38,
-38,
-37,
-37,
-36,
-36,
-39,
-39,
-37,
-37,
-37,
-37,
-41,
-41,
-34,
-34,
-44,
-44,
-37,
-37,
-42,
-42,
-37,
-37,
-43,
-43,
-36,
-36,
-43,
-43,
-39,
-39,
-43,
-43,
-43,
-43,
-40,
-51,
-45,
-45,
-41,
-41,
-46,
-46,
-42,
-42,
-49,
-49,
-43,
-43,
-50,
-50,
-43,
-43,
-48,
-48,
-46,
-46,
-46,
-46,
-48,
-48,
-48,
-48,
-46,
-46,
-46,
-46,
-47,
-47,
-47,
-47,
-46,
-46,
-49,
-49,
-45,
-45,
-53,
-53,
-42,
-56,
-53,
-53,
-44,
-44,
-54,
-54,
-45,
-45,
-55,
-55,
-46,
-46,
-56,
-56,
-45,
-45,
-51,
-51,
-50,
-50,
-52,
-52,
-49,
-49,
-52,
-52,
-48,
-48,
-51,
-51,
-48,
-48,
-50,
-50,
-48,
-48,
-52,
-52,
-45,
-45,
-55,
-55,
-44,
-44,
-54,
-54,
-45,
-45,
-53,
-53,
-48,
-48,
-54,
-54,
-47,
-47,
-53,
-53,
-48,
-48,
-48,
-48,
-51,
-51,
-48,
-48,
-49,
-49,
-46,
-46,
-47,
-47,
-45,
-45,
-47,
-47,
-36,
-36,
-54,
-54,
-40,
-53,
-52,
-32,
-45,
-59,
-48,
-31,
-49,
-49,
-47,
-31,
-46,
-46,
-48,
-30,
-47,
-47,
-43,
-43,
-43,
-43,
-44,
-44,
-40,
-40,
-43,
-43,
-36,
-36,
-42,
-42,
-34,
-34,
-40,
-40,
-31,
-31,
-41,
-41,
-31,
-31,
-38,
-38,
-32,
-32,
-37,
-37,
-34,
-34,
-33,
-33,
-31,
-31,
-37,
-37,
-29,
-29,
-36,
-36,
-30,
-30,
-33,
-33,
-27,
-27,
-32,
-32,
-22,
-22,
-33,
-33,
-21,
-21,
-29,
-29,
-21,
-21,
-26,
-26,
-19,
-19,
-24,
-24,
-19,
-19,
-23,
-23,
-20,
-20,
-20,
-20,
-22,
-22,
-16,
-16,
-17,
-17,
-19,
-19,
-15,
-15,
-18,
-18,
-15,
-15,
-16,
-16,
-13,
-13,
-13,
-13,
-5,
-5,
-17,
-17,
-10,
-10,
-8,
-8,
-6,
-6,
-7,
-7,
-7,
-7,
-4,
-4,
-6,
-6,
-3,
-3,
-9,
-9,
1,
-10,
-8,
-8,
0,
0,
-5,
-5,
1,
1,
-2,
-2,
1,
1,
-4,
-4,
4,
4,
3,
3,
3,
3,
5,
5,
6,
6,
4,
4,
9,
9,
5,
5,
12,
1,
5,
5,
13,
13,
5,
5,
15,
15,
4,
4,
18,
18,
6,
6,
17,
17,
10,
10,
15,
15,
12,
12,
17,
17,
13,
13,
19,
19,
18,
18,
17,
17,
20,
20,
20,
20,
20,
20,
23,
23,
19,
19,
27,
27,
21,
21,
27,
27,
20,
20,
28,
28,
21,
21,
30,
30,
22,
22,
29,
29,
28,
28,
25,
25,
28,
28,
28,
28,
32,
32,
28,
28,
36,
36,
30,
30,
37,
37,
31,
31,
35,
35,
36,
36,
37,
37,
36,
36,
37,
37,
37,
37,
37,
37,
37,
37,
35,
35,
40,
40,
40,
40,
35,
35,
44,
44,
35,
35,
44,
44,
36,
36,
46,
46,
38,
38,
49,
49,
38,
38,
49,
49,
41,
41,
47,
47,
44,
44,
46,
46,
45,
45,
47,
47,
44,
44,
46,
46,
45,
45,
45,
45,
45,
45,
50,
50,
41,
41,
51,
51,
42,
42,
52,
52,
43,
43,
52,
52,
45,
45,
54,
54,
45,
45,
51,
51,
49,
49,
49,
49,
50,
50,
47,
47,
51,
51,
48,
48,
48,
48,
46,
46,
49,
49,
45,
45,
48,
48,
48,
48,
46,
46,
49,
49,
45,
45,
48,
48,
48,
48,
48,
48,
48,
48,
48,
48,
48,
48,
46,
46,
50,
50,
41,
41,
53,
37,
40,
40,
50,
50,
42,
42,
46,
46,
40,
40,
40,
40,
41,
41,
41,
52,
35,
35,
44,
44,
31,
31,
46,
46,
30,
30,
47,
47,
33,
33,
44,
