5-grundlagen-opAmps/data/ALL0002/A0002CH2.CSV

Memory Length,4000,
Trigger Level,0.00000e+00,
Source,CH2,
Probe,1.0X,
Vertical Units,V,
Vertical Scale,5.00000e-02,
Vertical Position,0.00000e+00,
Horizontal Units,S,
Horizontal Scale,1.00000e-07,
Horizontal Position,1.0000000e-07,
Horizontal Mode,Main,
Sampling Period,2.00000e-09,
Firmware,V1.14,
Time, ,
Mode,Fast,
Waveform Data,
23,
23,
19,
21,
25,
26,
23,
21,
24,
25,
27,
26,
24,
20,
23,
27,
27,
24,
22,
20,
26,
27,
22,
15,
17,
18,
19,
16,
13,
10,
12,
13,
12,
7,
4,
5,
6,
6,
3,
-1,
0,
0,
-3,
-7,
-7,
-9,
-9,
-12,
-13,
-13,
-15,
-15,
-16,
-19,
-19,
-19,
-19,
-19,
-21,
-25,
-23,
-22,
-22,
-23,
-25,
-24,
-26,
-27,
-23,
-23,
-24,
-23,
-24,
-22,
-20,
-19,
-20,
-22,
-19,
-16,
-14,
-16,
-20,
-20,
-13,
-8,
-10,
-16,
-13,
-7,
0,
1,
-4,
-6,
-2,
6,
9,
5,
1,
2,
8,
15,
12,
7,
9,
15,
18,
20,
18,
17,
19,
23,
25,
24,
21,
21,
24,
25,
26,
26,
22,
23,
24,
25,
27,
26,
21,
20,
25,
27,
25,
19,
19,
19,
22,
23,
18,
12,
12,
15,
15,
11,
6,
5,
8,
10,
6,
0,
-1,
2,
3,
-1,
-4,
-6,
-6,
-7,
-9,
-12,
-14,
-13,
-13,
-15,
-18,
-20,
-17,
-18,
-20,
-24,
-23,
-20,
-19,
-23,
-25,
-26,
-25,
-23,
-23,
-28,
-28,
-27,
-25,
-24,
-25,
-25,
-24,
-23,
-20,
-21,
-19,
-20,
-21,
-18,
-17,
-15,
-16,
-17,
-15,
-13,
-8,
-8,
-8,
-8,
-6,
0,
2,
0,
0,
1,
6,
9,
7,
5,
6,
10,
12,
14,
13,
11,
15,
19,
22,
19,
18,
20,
25,
27,
26,
24,
22,
24,
26,
25,
24,
24,
24,
26,
27,
24,
22,
25,
25,
23,
22,
19,
19,
22,
21,
17,
17,
16,
16,
13,
13,
10,
7,
8,
9,
7,
2,
1,
2,
1,
0,
-2,
-4,
-5,
-6,
-7,
-8,
-10,
-14,
-14,
-14,
-13,
-17,
-22,
-21,
-19,
-19,
-20,
-21,
-26,
-25,
-20,
-20,
-22,
-28,
-31,
-26,
-22,
-22,
-31,
-31,
-27,
-20,
-20,
-23,
-27,
-26,
-18,
-13,
-17,
-22,
-23,
-17,
-10,
-10,
-15,
-18,
-15,
-8,
-5,
-5,
-6,
-6,
-3,
3,
4,
3,
1,
5,
8,
10,
9,
8,
7,
10,
13,
17,
16,
16,
15,
17,
22,
23,
23,
21,
23,
26,
28,
27,
23,
21,
26,
29,
26,
22,
21,
24,
24,
25,
20,
19,
21,
23,
23,
19,
17,
18,
17,
19,
14,
10,
12,
14,
11,
5,
2,
5,
7,
5,
-1,
-4,
-1,
1,
-2,
-6,
-9,
-8,
-7,
-7,
-12,
-17,
-17,
-14,
-14,
-17,
-21,
-22,
-21,
-20,
-22,
-23,
-21,
-26,
-23,
-25,
-22,
-23,
-26,
-26,
-25,
-23,
-23,
-23,
-26,
-26,
-23,
-20,
-19,
-24,
-24,
-20,
-15,
-14,
-17,
-17,
-14,
-10,
-7,
-9,
-12,
-10,
-7,
-2,
-3,
-4,
-4,
1,
4,
5,
6,
5,
8,
12,
12,
12,
15,
16,
17,
18,
16,
18,
19,
21,
22,
20,
23,
25,
26,
25,
25,
25,
27,
28,
28,
27,
25,
23,
25,
25,
24,
22,
20,
23,
23,
22,
20,
19,
16,
18,
18,
17,
15,
11,
9,
11,
11,
9,
2,
1,
3,
6,
1,
-2,
-6,
-8,
-2,
1,
-5,
-12,
-15,
-12,
-7,
-11,
-19,
-22,
-22,
-16,
-16,
-23,
-27,
-26,
-21,
-16,
-20,
-28,
-29,
-26,
-21,
-20,
-25,
-29,
-27,
-24,
-21,
-23,
-27,
-27,
-25,
-21,
-19,
-20,
-23,
-21,
-17,
-15,
-15,
-14,
-14,
-14,
-11,
-7,
-8,
-8,
-7,
-5,
-3,
-1,
-2,
-2,
1,
4,
7,
10,
7,
9,
11,
14,
16,
15,
13,
17,
19,
20,
18,
18,
19,
22,
25,
22,
23,
23,
27,
28,
25,
22,
25,
28,
28,
22,
20,
21,
24,
25,
20,
19,
18,
20,
23,
20,
15,
15,
15,
17,
16,
10,
6,
9,
8,
6,
2,
1,
-1,
0,
-1,
-2,
-4,
-6,
-6,
-6,
-7,
-8,
-12,
-15,
-15,
-15,
-15,
-15,
-20,
-23,
-22,
-20,
-20,
-24,
-27,
-24,
-21,
-20,
-24,
-29,
-28,
-23,
-23,
-21,
-25,
-27,
-24,
-21,
-21,
-24,
-25,
-22,
-17,
-20,
-21,
-19,
-16,
-14,
-13,
-13,
-12,
-8,
-6,
-7,
-8,
-6,
-4,
-1,
0,
-2,
-2,
2,
6,
7,
7,
7,
10,
15,
15,
15,
13,
16,
17,
20,
20,
18,
18,
20,
23,
24,
24,
23,
23,
24,
27,
29,
26,
23,
24,
26,
28,
26,
23,
18,
19,
23,
25,
20,
16,
13,
18,
24,
19,
12,
7,
11,
17,
16,
7,
2,
1,
5,
7,
3,
-5,
-6,
-3,
0,
-2,
-8,
-12,
-10,
-7,
-8,
-14,
-15,
-18,
-16,
-16,
-17,
-21,
-24,
-23,
-23,
-21,
-22,
-26,
-25,
-24,
-22,
-25,
-25,
-26,
-26,
-25,
-22,
-21,
-24,
-25,
-24,
-22,
-21,
-22,
-22,
-21,
-19,
-19,
-17,
-17,
-15,
-14,
-12,
-9,
-10,
-9,
-6,
-4,
-5,
-5,
-3,
0,
3,
2,
3,
3,
6,
11,
13,
11,
12,
14,
17,
20,
19,
15,
16,
20,
24,
24,
20,
19,
22,
27,
28,
24,
22,
24,
28,
31,
26,
24,
24,
26,
27,
25,
24,
20,
20,
20,
22,
19,
17,
16,
17,
17,
17,
15,
11,
10,
10,
11,
9,
5,
2,
-1,
1,
3,
-1,
-7,
-7,
-6,
-4,
-7,
-10,
-13,
-12,
-11,
-12,
-16,
-20,
-19,
-17,
-19,
-21,
-26,
-23,
-21,
-22,
-24,
-29,
-25,
-22,
-25,
-25,
-27,
-24,
-23,
-21,
-25,
-26,
-23,
-21,
-20,
-22,
-25,
-21,
-16,
-15,
-19,
-21,
-19,
-13,
-10,
-9,
-12,
-11,
-7,
-3,
-3,
-4,
-5,
-2,
2,
4,
3,
5,
5,
6,
10,
12,
15,
12,
12,
16,
18,
21,
19,
17,
18,
22,
28,
25,
19,
18,
23,
29,
31,
24,
17,
19,
27,
30,
25,
21,
20,
24,
28,
26,
19,
16,
20,
24,
22,
16,
11,
11,
14,
16,
9,
7,
6,
7,
9,
8,
4,
2,
1,
2,
-1,
-4,
-6,
-7,
-8,
-10,
-11,
-11,
-13,
-14,
-17,
-15,
-16,
-18,
-20,
-20,
-19,
-20,
-23,
-24,
-24,
-23,
-23,
-25,
-27,
-26,
-23,
-24,
-26,
-27,
-27,
-22,
-20,
-20,
-25,
-25,
-19,
-18,
-19,
-19,
-22,
-19,
-12,
-13,
-15,
-16,
-14,
-7,
-3,
-5,
-8,
-7,
-2,
4,
2,
1,
0,
2,
5,
10,
8,
6,
7,
13,
16,
17,
15,
15,
18,
21,
23,
22,
22,
21,
21,
27,
26,
23,
23,
24,
27,
26,
25,
25,
22,
23,
26,
28,
24,
22,
21,
24,
24,
23,
18,
16,
16,
18,
17,
13,
10,
10,
11,
11,
8,
5,
4,
6,
4,
2,
-1,
0,
-1,
-3,
-6,
-9,
-9,
-8,
-12,
-14,
-15,
-15,
-14,
-14,
-19,
-22,
-20,
-19,
-17,
-21,
-26,
-26,
-21,
-22,
-25,
-30,
-29,
-25,
-24,
-22,
-26,
-28,
-26,
-22,
-20,
-22,
-24,
-23,
-20,
-17,
-19,
-19,
-20,
-19,
-17,
-14,
-12,
-13,
-14,
-12,
-5,
-3,
-3,
-3,
-4,
-1,
5,
8,
4,
1,
4,
9,
13,
11,
7,
7,
14,
21,
19,
16,
15,
18,
25,
27,
24,
19,
20,
27,
27,
25,
22,
20,
25,
27,
25,
24,
23,
24,
25,
24,
23,
21,
21,
24,
23,
19,
17,
19,
17,
16,
14,
13,
11,
9,
10,
7,
5,
4,
3,
3,
2,
2,
-3,
-4,
-4,
-4,
-7,
-9,
-12,
-14,
-11,
-9,
-14,
-19,
-20,
-17,
-14,
-16,
-23,
-25,
-21,
-17,
-20,
-27,
-29,
-28,
-22,
-20,
-25,
-30,
-31,
-24,
-21,
-23,
-29,
-28,
-23,
-17,
-17,
-20,
-22,
-21,
-18,
-15,
-14,
-16,
-17,
-14,
-9,
-9,
-9,
-9,
-6,
-3,
-1,
1,
0,
0,
1,
5,
8,
9,
6,
7,
9,
13,
15,
15,
14,
15,
17,
22,
22,
19,
19,
25,
24,
25,
25,
22,
23,
25,
27,
25,
24,
24,
25,
26,
24,
23,
25,
25,
24,
21,
20,
24,
22,
20,
17,
17,
17,
18,
15,
9,
8,
9,
9,
9,
4,
1,
0,
3,
4,
0,
-6,
-6,
-4,
-3,
-5,
-12,
-16,
-14,
-12,
-11,
-15,
-20,
-21,
-18,
-16,
-18,
-23,
-24,
-21,
-22,
-21,
-23,
-27,
-27,
-25,
-24,
-25,
-27,
-28,
-26,
-25,
-22,
-22,
-24,
-25,
-22,
-19,
-15,
-17,
-22,
-21,
-16,
-12,
-12,
-16,
-15,
-12,
-7,
-6,
-8,
-7,
-5,
1,
3,
3,
1,
1,
7,
11,
9,
5,
7,
11,
13,
13,
14,
14,
17,
20,
20,
19,
20,
23,
26,
25,
23,
24,
25,
26,
26,
24,
24,
24,
25,
25,
25,
23,
22,
25,
21,
23,
22,
19,
20,
19,
19,
18,
15,
14,
12,
13,
14,
11,
4,
3,
5,
6,
6,
-1,
-4,
-3,
2,
1,
-4,
-12,
-12,
-7,
-5,
-8,
-18,
-23,
-17,
-12,
-16,
-23,
-27,
-25,
-18,
-18,
-23,
-27,
-27,
-23,
-21,
-22,
-26,
-27,
-26,
-22,
-22,
-26,
-26,
-27,
-25,
-23,
-21,
-22,
-23,
-23,
-19,
-17,
-15,
-17,
-17,
-16,
-12,
-9,
-9,
-10,
-12,
-9,
-4,
-3,
-4,
-6,
-2,
2,
4,
4,
6,
6,
10,
13,
12,
12,
15,
16,
17,
16,
18,
17,
19,
22,
20,
20,
24,
26,
25,
24,
24,
26,
28,
29,
26,
22,
22,
26,
26,
22,
19,
19,
23,
24,
22,
16,
16,
18,
20,
18,
15,
12,
11,
12,
13,
8,
3,
1,
3,
5,
3,
-1,
-4,
-5,
-3,
-4,
-4,
-7,
-13,
-12,
-10,
-9,
-15,
-20,
-19,
-18,
-17,
-19,
-22,
-26,
-22,
-20,
-21,
-21,
-27,
-27,
-25,
-22,
-24,
-27,
-26,
-24,
-22,
-23,
-24,
-27,
-25,
-21,
-20,
-21,
-22,
-23,
-18,
-16,
-17,
-18,
-15,
-12,
-9,
-12,
-11,
-9,
-6,
-3,
-2,
-5,
-4,
0,
3,
5,
4,
3,
7,
11,
13,
12,
10,
14,
17,
19,
19,
17,
16,
17,
24,
23,
21,
22,
21,
24,
26,
27,
27,
23,
24,
26,
30,
27,
22,
19,
22,
26,
25,
20,
16,
17,
21,
23,
20,
15,
12,
16,
20,
18,
10,
3,
6,
11,
10,
1,
-3,
-4,
1,
3,
-2,
-7,
-10,
-7,
-3,
-5,
-11,
-15,
-14,
-13,
-13,
-17,
-19,
-20,
-20,
-21,
-22,
-23,
-23,
-24,
-25,
-22,
-23,
-25,
-24,
-27,
-26,
-23,
-22,
-24,
-27,
-27,
-23,
-20,
-22,
-25,
-23,
-21,
-19,
-20,
-19,
-17,
-16,
-12,
-12,
-13,
-12,
-9,
-6,
-6,
-7,
-3,
-1,
0,
-1,
-2,
1,
6,
9,
7,
6,
9,
13,
17,
15,
13,
14,
17,
24,
20,
18,
17,
20,
24,
25,
24,
19,
23,
26,
27,
27,
25,
24,
26,
27,
28,
24,
24,
24,
23,
23,
21,
20,
18,
18,
19,
18,
18,
15,
12,
14,
16,
14,
8,
6,
5,
5,
6,
2,
-2,
-4,
-3,
-1,
-3,
-7,
-10,
-9,
-6,
-10,
-15,
-15,
-15,
-14,
-18,
-20,
-21,
-22,
-20,
-21,
-22,
-26,
-25,
-22,
-24,
-25,
-30,
-28,
-24,
-23,
-25,
-27,
-25,
-23,
-23,
-22,
-25,
-25,
-23,
-19,
-17,
-20,
-23,
-18,
-16,
-12,
-13,
-13,
-13,
-9,
-4,
-3,
-5,
-7,
-5,
0,
3,
2,
-1,
-1,
3,
9,
11,
12,
7,
10,
15,
19,
19,
16,
15,
18,
24,
25,
20,
16,
18,
23,
28,
29,
23,
20,
25,
29,
32,
24,
19,
21,
26,
28,
25,
19,
18,
20,
25,
21,
16,
13,
15,
19,
20,
13,
9,
11,
11,
12,
9,
5,
3,
2,
1,
0,
-2,
-4,
-5,
-5,
-7,
-8,
-8,
-8,
-10,
-14,
-14,
-14,
-16,
-19,
-20,
-20,
-19,
-20,
-23,
-25,
-24,
-23,
-25,
-25,
-26,
-25,
-25,
-25,
-26,
-26,
-25,
-21,
-22,
-25,
-23,
-21,
-20,
-22,
-24,
-22,
-20,
-16,
-17,
-21,
-20,
-14,
-10,
-8,
-10,
-11,
-7,
-1,
0,
-4,
-5,
-2,
4,
6,
3,
3,
3,
9,
12,
11,
11,
12,
15,
17,
19,
18,
17,
20,
23,
22,
25,
24,
24,
22,
23,
26,
26,
26,
24,
22,
25,
27,
27,
24,
24,
25,
26,
26,
23,
20,
20,
24,
21,
16,
13,
13,
15,
15,
12,
9,
9,
11,
8,
7,
4,
3,
5,
2,
-1,
-6,
-7,
-3,
-3,
-11,
-15,
-13,
-10,
-10,
-15,
-19,
-20,
-16,
-14,
-17,
-22,
-25,
-23,
-21,
-19,
-26,
-31,
-28,
-23,
-22,
-25,
-29,
-29,
-25,
-22,
-19,
-21,
-23,
-24,
-21,
-17,
-15,
-20,
-22,
-21,
-15,
-13,
-13,
-16,
-16,
-11,
-4,
-3,
-6,
-9,
-5,
-1,
4,
3,
0,
-1,
4,
8,
10,
7,
4,
7,
14,
19,
17,
13,
13,
18,
23,
25,
22,
19,
21,
25,
27,
25,
22,
23,
26,
27,
26,
24,
24,
25,
25,
25,
25,
24,
23,
25,
25,
21,
21,
19,
19,
18,
17,
16,
14,
12,
11,
9,
10,
9,
6,
5,
5,
3,
2,
1,
0,
-3,
-4,
-7,
-7,
-9,
-10,
-11,
-13,
-14,
-15,
-16,
-16,
-17,
-20,
-22,
-18,
-19,
-21,
-25,
-26,
-23,
-22,
-23,
-27,
-29,
-27,
-23,
-22,
-27,
-29,
-26,
-23,
-17,
-20,
-25,
-25,
-21,
-17,
-19,
-19,
-21,
-19,
-13,
-13,
-14,
-14,
-12,
-8,
-6,
-5,
-4,
-3,
0,
0,
1,
3,
4,
5,
4,
7,
9,
10,
11,
10,
12,
16,
18,
19,
16,
19,
20,
25,
25,
23,
23,
22,
25,
24,
24,
25,
24,
25,
25,
24,
23,
24,
25,
23,
22,
22,
25,
25,
19,
17,
17,
20,
21,
14,
9,
10,
12,
15,
9,
3,
1,
4,
9,
7,
-1,
-5,
-3,
2,
0,
-4,
-13,
-13,
-9,
-8,
-13,
-16,
-18,
-18,
-17,
-16,
-19,
-23,
-23,
-22,
-20,
-21,
-23,
-27,
-28,
-24,
-21,
-24,
-28,
-30,
-31,
-25,
-21,
-23,
-31,
-27,
-22,
-17,
-19,
-22,
-25,
-21,
-15,
-14,
-17,
-20,
-19,
-12,
-8,
-10,
-15,
-12,
-7,
-2,
-2,
-1,
-1,
1,
5,
6,
5,
4,
6,
8,
11,
11,
11,
13,
15,
18,
17,
19,
20,
21,
24,
25,
24,
23,
25,
24,
25,
24,
25,
26,
25,
24,
25,
24,
24,
24,
25,
26,
23,
22,
23,
23,
22,
20,
17,
16,
16,
17,
15,
11,
6,
9,
10,
10,
5,
2,
2,
2,
3,
1,
-7,
-5,
-4,
-4,
-7,
-10,
-15,
-16,
-11,
-12,
-15,
-20,
-22,
-19,
-16,
-19,
-24,
-25,
-21,
-19,
-19,
-24,
-27,
-26,
-25,
-22,
-25,
-28,
-27,
-26,
-24,
-25,
-23,
-22,
-24,
-19,
-19,
-18,
-19,
-17,
-17,
-17,
-14,
-14,
-13,
-12,
-12,
-10,
-11,
-6,
-4,
-4,
-1,
1,
1,
3,
4,
5,
6,
9,
9,
9,
11,
12,
13,
14,
16,
19,
19,
20,
19,
19,
26,
27,
25,
21,
23,
26,
29,
26,
22,
20,
25,
29,
28,
21,
19,
21,
27,
29,
23,
16,
17,
22,
24,
19,
13,
13,
16,
18,
14,
10,
4,
6,
8,
8,
5,
0,
-2,
0,
0,
1,
-4,
-6,
-7,
-8,
-7,
-7,
-13,
-17,
-17,
-14,
-13,
-15,
-25,
-25,
-21,
-19,
-19,
-23,
-28,
-25,
-20,
-20,
-23,
-29,
-27,
-23,
-21,
-23,
-27,
-29,
-25,
-20,
-23,
-24,
-26,
-21,
-18,
-18,
-19,
-20,
-17,
-12,
-12,
-15,
-13,
-10,
-8,
-6,
-7,
-8,
-5,
-2,
-2,
-1,
0,
3,
5,
7,
10,
9,
9,
12,
15,
15,
16,
16,
16,
18,
19,
21,
20,
19,
22,
24,
26,
26,
23,
24,
25,
27,
29,
27,
24,
21,
25,
27,
24,
20,
17,
22,
24,
24,
17,
14,
17,
21,
19,
16,
12,
10,
12,
13,
10,
5,
1,
3,
5,
3,
-1,
-3,
-5,
-3,
-3,
-5,
-8,
-10,
-11,
-12,
-12,
-14,
-19,
-17,
-17,
-18,
-20,
-21,
-22,
-23,
-23,
-22,
-22,
-23,
-25,
-25,
-24,
-23,
-24,
-25,
-25,
-25,
-25,
-23,
-24,
-23,
-25,
-23,
-21,
-22,
-20,
-19,
-19,
-19,
-17,
-13,
-11,
-12,
-12,
-12,
-8,
-4,
-5,
-5,
-5,
-3,
1,
3,
3,
2,
1,
8,
14,
13,
9,
8,
11,
19,
19,
17,
14,
14,
19,
25,
24,
17,
17,
19,
27,
26,
22,
20,
23,
25,
29,
26,
22,
22,
25,
26,
24,
21,
17,
20,
22,
21,
19,
16,
15,
16,
17,
19,
16,
10,
7,
7,
9,
7,
1,
-1,
-1,
2,
1,
-3,
-7,
-8,
-7,
-4,
-6,
-13,
-16,
-13,
-10,
-14,
-20,
-22,
-20,
-17,
-19,
-24,
-28,
-25,
-23,
-19,
-24,
-27,
-27,
-22,
-22,
-26,
-31,
-26,
-22,
-22,
-26,
-29,
-26,
-22,
-20,
-21,
-25,
-23,
-19,
-16,
-16,
-18,
-17,
-15,
-9,
-8,
-10,
-8,
-8,
-7,
-3,
-1,
-1,
-3,
-2,
1,
5,
7,
6,
6,
7,
12,
17,
16,
13,
12,
17,
25,
24,
18,
15,
19,
23,
25,
24,
19,
22,
26,
29,
29,
24,
23,
27,
31,
28,
24,
20,
22,
25,
23,
19,
18,
18,
18,
18,
17,
16,
15,
14,
14,
13,
12,
11,
8,
5,
3,
1,
3,
2,
-3,
-5,
-4,
-4,
-6,
-8,
-8,
-8,
-10,
-11,
-13,
-15,
-15,
-17,
-18,
-18,
-20,
-23,
-22,
-22,
-22,
-22,
-25,
-24,
-26,
-26,
-23,
-22,
-24,
-25,
-28,
-25,
-21,
-20,
-24,
-26,
-25,
-21,
-17,
-19,
-21,
-23,
-18,
-13,
-12,
-14,
-14,
-13,
-6,
-3,
-5,
-7,
-7,
-2,
3,
2,
1,
-2,
1,
7,
10,
7,
7,
9,
13,
17,
18,
16,
15,
17,
21,
23,
20,
19,
20,
21,
25,
26,
22,
24,
24,
25,
28,
27,
26,
25,
26,
27,
26,
25,
22,
23,
22,
21,
21,
17,
16,
17,
18,
17,
15,
12,
12,
14,
12,
7,
5,
4,
5,
2,
0,
-4,
-4,
-1,
-2,
-7,
-11,
-10,
-7,
-7,
-12,
-18,
-18,
-15,
-14,
-19,
-22,
-24,
-21,
-19,
-21,
-26,
-28,
-25,
-22,
-21,
-25,
-27,
-27,
-24,
-22,
-23,
-26,
-26,
-24,
-23,
-21,
-21,
-24,
-23,
-21,
-17,
-16,
-19,
-19,
-19,
-15,
-10,
-8,
-10,
-12,
-8,
-3,
0,
-3,
-6,
-4,
2,
7,
5,
2,
1,
6,
11,
15,
11,
10,
14,
18,
21,
19,
17,
19,
23,
24,
24,
20,
22,
22,
25,
26,
24,
23,
25,
25,
24,
23,
26,
27,
25,
22,
22,
24,
24,
21,
18,
17,
19,
20,
15,
15,
12,
11,
13,
13,
8,
6,
6,
6,
5,
4,
1,
1,
-2,
-3,
-5,
-6,
-6,
-9,
-14,
-12,
-9,
-12,
-16,
-19,
-19,
-16,
-14,
-17,
-22,
-25,
-22,
-18,
-21,
-26,
-31,
-29,
-21,
-20,
-27,
-32,
-29,
-23,
-21,
-21,
-25,
-26,
-23,
-18,
-18,
-22,
-23,
-20,
-17,
-14,
-17,
-17,
-16,
-14,
-11,
-8,
-8,
-7,
-6,
-3,
-1,
0,
-2,
1,
2,
4,
6,
6,
5,
8,
11,
14,
15,
15,
15,
17,
19,
20,
23,
21,
23,
22,
24,
24,
23,
23,
25,
27,
26,
23,
25,
26,
26,
25,
23,
22,
26,
26,
25,
20,
19,
21,
23,
23,
17,
13,
13,
16,
16,
11,
6,
6,
8,
12,
7,
1,
0,
2,
4,
3,
-3,
-8,
-9,
-5,
-5,
-8,
-15,
-16,
-14,
-13,
-13,
-17,
-21,
-20,
-17,
-16,
-20,
-23,
-25,
-25,
-21,
-21,
-27,
-27,
-29,
-26,
-23,
-22,
-26,
-29,
-25,
-23,
-19,
-20,
-25,
-25,
-21,
-16,
-16,
-19,
-22,
-17,
-13,
-10,
-13,
-16,
-13,
-7,
-4,
-4,
-7,
-5,
-2,
2,
1,
2,
3,
6,
7,
8,
7,
10,
11,
14,
15,
13,
17,
19,
20,
20,
20,
23,
25,
24,
24,
23,
23,
27,
28,
25,
24,
23,
25,
28,
25,
23,
23,
24,
25,
23,
21,
23,
20,
20,
20,
19,
18,
16,
12,
11,
14,
13,
9,
6,
3,
4,
7,
7,
2,
-5,
-3,
1,
2,
-4,
-12,
-12,
-8,
-6,
-11,
-18,
-19,
-16,
-13,
-16,
-21,
-24,
-23,
-16,
-16,
-23,
-27,
-25,
-23,
-22,
-24,
-28,
-28,
-26,
-24,
-25,
-27,
-27,
-25,
-23,
-21,
-21,
-22,
-20,
-20,
-19,
-18,
-17,
-15,
-17,
-15,
-13,
-12,
-12,
-11,
-7,
-6,
-3,
-3,
-3,
0,
3,
3,
5,
3,
6,
9,
11,
11,
9,
11,
15,
18,
17,
15,
16,
19,
24,
25,
20,
20,
23,
27,
28,
24,
20,
20,
28,
31,
26,
20,
21,
23,
26,
27,
20,
18,
21,
25,
25,
22,
17,
14,
17,
20,
17,
10,
6,
7,
11,
11,
8,
2,
1,
1,
5,
3,
-3,
-5,
-5,
-3,
-3,
-7,
-11,
-14,
-13,
-11,
-12,
-16,
-21,
-23,
-17,
-16,
-19,
-24,
-25,
-22,
-19,
-20,
-25,
-29,
-27,
-25,
-24,
-24,
-27,
-30,
-25,
-23,
-24,
-25,
-24,
-22,
-20,
-20,
-19,
-21,
-18,
-16,
-16,
-16,
-15,
-14,
-12,
-11,
-12,
-11,
-7,
-2,
-2,
-4,
-1,
2,
4,
5,
6,
4,
9,
11,
13,
11,
10,
12,
14,
18,
18,
16,
18,
22,
23,
23,
24,
24,
22,
25,
27,
26,
24,
25,
23,
24,
26,
27,
24,
20,
21,
25,
26,
23,
18,
17,
20,
24,
21,
14,
13,
15,
17,
15,
10,
4,
6,
9,
9,
4,
0,
-1,
1,
3,
-3,
-7,
-6,
-5,
-5,
-8,
-12,
-13,
-14,
-13,
-15,
-19,
-20,
-20,
-18,
-22,
-22,
-23,
-22,
-21,
-22,
-24,
-25,
-22,
-22,
-25,
-25,
-24,
-23,
-24,
-24,
-25,
-25,
-25,
-24,
-22,
-21,
-20,
-19,
-21,
-19,
-15,
-12,
-11,
-15,
-15,
-9,
-5,
-6,
-10,
-10,
-6,
-1,
1,
-2,
-4,
0,
8,
13,
10,
6,
7,
12,
18,
17,
12,
11,
15,
21,
20,
20,
16,
18,
24,
28,
26,
22,
23,
25,
27,
30,
27,
25,
23,
24,
28,
26,
23,
18,
19,
24,
24,
21,
17,
17,
17,
20,
20,
16,
10,
10,
13,
14,
9,
3,
1,
4,
6,
5,
-3,
-4,
-3,
-3,
-3,
-7,
-10,
-11,
-8,
-9,
-13,
-17,
-18,
-16,
-16,
-19,
-23,
-22,
-21,
-20,
-22,
-23,
-24,
-23,
-23,
-24,
-27,
-26,
-23,
-22,
-23,
-26,
-27,
-23,
-22,
-22,
-25,
-25,
-21,
-20,
-20,
-19,
-21,
-18,
-13,
-12,
-11,
-12,
-14,
-9,
-7,
-6,
-7,
-6,
-5,
-2,
1,
1,
2,
3,
4,
9,
11,
12,
10,
10,
14,
17,
18,
18,
16,
17,
20,
23,
22,
20,
19,
21,
26,
26,
25,
23,
24,
26,
28,
28,
23,
21,
27,
27,
23,
20,
20,
20,
23,
20,
16,
16,
18,
18,
17,
14,
14,
13,
12,
10,
5,
3,
5,
5,
2,
-3,
-4,
-2,
-2,
-5,
-9,
-9,
-9,
-8,
-11,
-13,
-15,
-16,
-17,
-15,
-18,
-21,
-23,
-21,
-21,
-23,
-22,
-24,
-26,
-25,
-23,
-22,
-25,
-26,
-31,
-24,
-20,
-22,
-26,
-30,
-25,
-20,
-19,
-21,
-26,
-26,
-18,
-13,
-14,
-20,
-19,
-13,
-7,
-6,
-12,
-14,
-9,
-2,
0,
-2,
-5,
-5,
1,
6,
5,
3,
3,
8,
12,
14,
14,
12,
14,
17,
19,
20,
19,
18,
17,
20,
24,
23,
24,
21,
24,
26,
28,
28,
23,
23,
26,
30,
27,
22,
20,
22,
25,
25,
18,
17,
18,
20,
19,
17,
14,
14,
16,
17,
13,
9,
8,
10,
8,
4,
0,
0,
2,
1,
-4,
-7,
-6,
-5,
-5,
-7,
-11,
-13,
-12,
-11,
-13,
-18,
-22,
-18,
-17,
-18,
-23,
-25,
-24,
-22,
-21,
-24,
-26,
-26,
-25,
-23,
-23,
-25,
-27,
-26,
-22,
-22,
-23,
-23,
-25,
-23,
-22,
-18,
-19,
-20,
-20,
-19,
-14,
-13,
-15,
-14,
-11,
-7,
-7,
-5,
-6,
-7,
-3,
0,
2,
0,
-1,
2,
6,
9,
7,
7,
10,
14,
15,
16,
16,
16,
17,
20,
20,
20,
19,
22,
23,
22,
25,
25,
24,
26,
25,
25,
24,
25,
28,
27,
25,
22,
24,
25,
23,
19,
17,
19,
22,
18,
15,
13,
14,
16,
15,
14,
8,
7,
9,
8,
6,
2,
-2,
-2,
0,
1,
-4,
-6,
-9,
-10,
-7,
-6,
-9,
-15,
-17,
-14,
-12,
-14,
-21,
-25,
-22,
-19,
-19,
-22,
-29,
-30,
-23,
-20,
-20,
-28,
-34,
-29,
-22,
-20,
-26,
-31,
-28,
-22,
-19,
-21,
-28,
-26,
-22,
-18,
-14,
-20,
-23,
-18,
-13,
-12,
-13,
-12,
-9,
-7,
-5,
-5,
-4,
-4,
-2,
0,
1,
4,
2,
3,
4,
6,
10,
11,
12,
12,
13,
18,
19,
18,
17,
19,
22,
23,
24,
19,
22,
24,
26,
25,
21,
23,
26,
27,
24,
21,
23,
27,
28,
25,
19,
20,
24,
24,
20,
16,
15,
18,
19,
16,
10,
9,
11,
13,
12,
6,
3,
5,
5,
6,
0,
-3,
-3,
-1,
-3,
-5,
-9,
-12,
-11,
-10,
-10,
-14,
-18,
-19,
-18,
-15,
-17,
-18,
-22,
-24,
-23,
-21,
-20,
-25,
-30,
-29,
-25,
-22,
-25,
-29,
-28,
-26,
-23,
-21,
-25,
-26,
-25,
-19,
-18,
-20,
-23,
-22,
-17,
-17,
-17,
-18,
-17,
-14,
-11,
-9,
-9,
-8,
-5,
-4,
-3,
-1,
0,
3,
3,
4,
2,
7,
8,
9,
9,
10,
12,
14,
17,
17,
16,
18,
19,
