5-grundlagen-opAmps/data/ALL0002/A0002CH1.CSV

Memory Length,4000,
Trigger Level,0.00000e+00,
Source,CH1,
Probe,1.0X,
Vertical Units,V,
Vertical Scale,5.00000e-02,
Vertical Position,0.00000e+00,
Horizontal Units,S,
Horizontal Scale,1.00000e-07,
Horizontal Position,1.0000000e-07,
Horizontal Mode,Main,
Sampling Period,2.00000e-09,
Firmware,V1.14,
Time, ,
Mode,Fast,
Waveform Data,
-9,
-9,
-15,
-16,
-11,
-7,
-10,
-19,
-24,
-21,
-16,
-15,
-20,
-30,
-29,
-24,
-17,
-23,
-33,
-37,
-29,
-20,
-23,
-32,
-39,
-36,
-26,
-23,
-27,
-37,
-36,
-28,
-23,
-25,
-30,
-32,
-29,
-21,
-23,
-27,
-24,
-22,
-19,
-20,
-20,
-18,
-16,
-14,
-12,
-14,
-13,
-9,
-8,
-7,
-7,
-4,
-1,
-1,
-2,
0,
3,
3,
6,
6,
8,
9,
9,
11,
12,
14,
15,
15,
12,
13,
19,
23,
20,
12,
13,
20,
27,
25,
14,
12,
18,
28,
28,
18,
9,
11,
23,
28,
16,
6,
5,
16,
23,
15,
4,
-1,
5,
17,
15,
4,
-5,
-6,
2,
8,
3,
-10,
-14,
-10,
-3,
-2,
-10,
-16,
-20,
-15,
-10,
-12,
-19,
-27,
-25,
-20,
-16,
-21,
-30,
-33,
-29,
-21,
-21,
-29,
-37,
-35,
-27,
-21,
-27,
-36,
-39,
-33,
-23,
-23,
-30,
-36,
-33,
-25,
-23,
-26,
-29,
-29,
-24,
-21,
-20,
-22,
-23,
-20,
-16,
-16,
-17,
-15,
-13,
-9,
-10,
-9,
-7,
-6,
-4,
-4,
-3,
0,
2,
4,
4,
2,
4,
10,
12,
12,
8,
9,
11,
17,
19,
16,
14,
12,
18,
23,
20,
17,
14,
16,
22,
25,
22,
17,
16,
19,
22,
23,
17,
13,
13,
18,
21,
15,
9,
7,
11,
17,
15,
7,
0,
1,
6,
11,
6,
-6,
-11,
-4,
1,
1,
-9,
-15,
-15,
-9,
-8,
-13,
-19,
-21,
-17,
-12,
-18,
-25,
-25,
-24,
-18,
-22,
-27,
-30,
-29,
-24,
-26,
-31,
-31,
-30,
-29,
-30,
-30,
-30,
-29,
-29,
-30,
-31,
-31,
-28,
-24,
-26,
-29,
-31,
-28,
-21,
-22,
-25,
-24,
-23,
-20,
-16,
-14,
-17,
-16,
-14,
-12,
-6,
-7,
-8,
-9,
-7,
-1,
4,
2,
-3,
-4,
4,
12,
12,
3,
-2,
5,
18,
24,
16,
6,
5,
16,
29,
25,
10,
5,
16,
28,
29,
19,
9,
12,
25,
29,
23,
13,
11,
18,
27,
25,
14,
7,
11,
19,
21,
16,
8,
2,
7,
12,
14,
9,
-1,
-4,
0,
5,
6,
-3,
-10,
-10,
-4,
-1,
-5,
-14,
-19,
-14,
-8,
-11,
-20,
-25,
-20,
-16,
-17,
-23,
-33,
-28,
-21,
-21,
-25,
-32,
-31,
-29,
-27,
-28,
-31,
-32,
-31,
-28,
-31,
-33,
-31,
-27,
-27,
-31,
-33,
-29,
-23,
-23,
-26,
-29,
-26,
-22,
-19,
-17,
-22,
-23,
-19,
-12,
-11,
-15,
-15,
-11,
-7,
-5,
-5,
-7,
-7,
-3,
2,
4,
2,
-1,
2,
7,
12,
13,
9,
5,
7,
16,
22,
19,
12,
8,
16,
24,
24,
18,
11,
16,
21,
26,
23,
16,
14,
18,
24,
22,
14,
10,
16,
21,
22,
16,
11,
9,
14,
17,
13,
8,
4,
6,
9,
8,
3,
0,
0,
-1,
-1,
-3,
-5,
-4,
-7,
-10,
-12,
-11,
-11,
-12,
-15,
-19,
-20,
-20,
-20,
-18,
-23,
-28,
-25,
-24,
-24,
-28,
-31,
-29,
-27,
-26,
-29,
-32,
-35,
-30,
-28,
-27,
-30,
-35,
-34,
-29,
-23,
-24,
-30,
-33,
-30,
-24,
-16,
-19,
-27,
-30,
-24,
-13,
-11,
-18,
-27,
-20,
-9,
-4,
-5,
-16,
-16,
-7,
4,
6,
-6,
-13,
-4,
9,
15,
6,
-4,
-3,
10,
19,
18,
9,
2,
7,
20,
25,
17,
10,
12,
20,
25,
24,
18,
13,
17,
21,
24,
22,
15,
14,
18,
22,
21,
18,
14,
11,
16,
21,
19,
12,
5,
7,
14,
15,
8,
1,
1,
4,
6,
3,
-3,
-5,
-3,
-1,
-5,
-11,
-11,
-10,
-8,
-12,
-19,
-19,
-15,
-12,
-18,
-25,
-26,
-23,
-18,
-22,
-28,
-30,
-25,
-24,
-27,
-31,
-34,
-30,
-26,
-26,
-32,
-37,
-34,
-26,
-24,
-29,
-35,
-33,
-27,
-23,
-25,
-27,
-29,
-27,
-24,
-19,
-19,
-21,
-24,
-20,
-16,
-13,
-13,
-15,
-17,
-14,
-5,
-2,
-7,
-11,
-8,
1,
6,
2,
-4,
-3,
4,
11,
13,
6,
2,
6,
16,
20,
14,
9,
12,
18,
20,
19,
16,
16,
19,
22,
20,
19,
17,
19,
22,
19,
18,
17,
21,
20,
17,
15,
15,
18,
16,
12,
11,
10,
13,
13,
9,
3,
3,
6,
8,
6,
-2,
-6,
-3,
-1,
1,
-5,
-11,
-12,
-11,
-8,
-8,
-12,
-22,
-22,
-16,
-15,
-18,
-24,
-28,
-26,
-19,
-19,
-25,
-34,
-34,
-27,
-22,
-22,
-35,
-40,
-36,
-24,
-21,
-29,
-39,
-40,
-28,
-19,
-22,
-31,
-38,
-32,
-20,
-16,
-23,
-32,
-31,
-20,
-12,
-15,
-25,
-27,
-17,
-9,
-7,
-11,
-18,
-16,
-4,
0,
-3,
-10,
-8,
-2,
5,
7,
3,
1,
1,
6,
13,
12,
10,
7,
11,
15,
14,
15,
16,
15,
18,
20,
19,
20,
17,
18,
22,
20,
20,
18,
16,
20,
21,
19,
16,
16,
18,
19,
18,
14,
12,
14,
17,
11,
6,
5,
10,
13,
6,
-2,
-3,
1,
7,
2,
-8,
-11,
-8,
0,
-1,
-10,
-20,
-19,
-11,
-8,
-14,
-24,
-25,
-19,
-17,
-19,
-28,
-32,
-25,
-23,
-20,
-26,
-34,
-34,
-29,
-24,
-25,
-30,
-36,
-35,
-29,
-26,
-24,
-30,
-35,
-35,
-28,
-20,
-25,
-29,
-33,
-27,
-18,
-18,
-24,
-29,
-23,
-15,
-12,
-14,
-21,
-19,
-10,
-4,
-7,
-13,
-12,
-5,
1,
1,
-3,
-3,
1,
3,
6,
5,
6,
8,
10,
9,
8,
12,
18,
17,
13,
10,
14,
21,
22,
18,
15,
14,
21,
25,
22,
18,
15,
18,
24,
23,
17,
14,
16,
20,
21,
17,
11,
9,
13,
16,
16,
12,
4,
1,
7,
11,
10,
1,
-6,
-5,
0,
6,
1,
-9,
-17,
-12,
-3,
-1,
-12,
-22,
-24,
-12,
-7,
-15,
-28,
-30,
-22,
-15,
-16,
-30,
-36,
-34,
-23,
-16,
-27,
-37,
-39,
-30,
-20,
-23,
-32,
-37,
-35,
-26,
-24,
-27,
-35,
-35,
-29,
-23,
-23,
-28,
-29,
-26,
-20,
-19,
-21,
-24,
-22,
-16,
-12,
-12,
-16,
-16,
-13,
-7,
-6,
-7,
-7,
-6,
-3,
0,
1,
2,
2,
3,
6,
7,
7,
8,
12,
13,
12,
11,
12,
16,
19,
18,
16,
12,
16,
22,
24,
20,
13,
14,
21,
24,
22,
16,
13,
17,
22,
24,
17,
10,
13,
19,
23,
16,
5,
2,
12,
18,
13,
3,
-4,
1,
7,
8,
2,
-6,
-9,
-4,
1,
-1,
-11,
-15,
-15,
-10,
-9,
-14,
-19,
-22,
-20,
-16,
-17,
-20,
-28,
-28,
-24,
-20,
-23,
-30,
-35,
-32,
-24,
-23,
-29,
-35,
-36,
-31,
-24,
-25,
-34,
-37,
-32,
-26,
-24,
-29,
-31,
-30,
-23,
-24,
-25,
-24,
-22,
-19,
-19,
-19,
-20,
-16,
-12,
-13,
-15,
-14,
-9,
-4,
-6,
-11,
-8,
0,
5,
2,
-4,
-4,
4,
11,
13,
6,
1,
6,
16,
19,
14,
7,
8,
17,
22,
22,
16,
12,
14,
22,
24,
23,
18,
15,
20,
20,
25,
20,
15,
15,
18,
24,
24,
16,
7,
8,
18,
23,
15,
4,
-1,
8,
17,
15,
3,
-9,
-4,
5,
8,
1,
-11,
-14,
-4,
-1,
-6,
-15,
-19,
-14,
-8,
-11,
-19,
-25,
-22,
-18,
-16,
-22,
-28,
-30,
-26,
-24,
-25,
-29,
-32,
-29,
-28,
-27,
-29,
-31,
-31,
-32,
-30,
-28,
-28,
-31,
-31,
-27,
-27,
-29,
-28,
-26,
-23,
-22,
-25,
-26,
-24,
-20,
-14,
-16,
-20,
-20,
-15,
-7,
-9,
-14,
-13,
-9,
0,
0,
-4,
-8,
-3,
5,
11,
6,
-2,
-3,
9,
18,
15,
7,
3,
8,
21,
24,
17,
10,
10,
18,
25,
23,
15,
12,
17,
26,
27,
19,
13,
13,
21,
27,
24,
15,
10,
14,
20,
22,
15,
7,
7,
12,
16,
15,
7,
1,
2,
6,
9,
6,
-2,
-8,
-5,
0,
-1,
-6,
-11,
-13,
-10,
-8,
-11,
-16,
-20,
-18,
-15,
-15,
-22,
-26,
-24,
-22,
-20,
-25,
-28,
-31,
-29,
-27,
-29,
-29,
-31,
-30,
-32,
-32,
-30,
-29,
-28,
-29,
-32,
-33,
-28,
-21,
-25,
-30,
-34,
-28,
-19,
-19,
-24,
-30,
-24,
-16,
-12,
-14,
-22,
-22,
-11,
-4,
-6,
-13,
-15,
-9,
2,
2,
-2,
-6,
-3,
2,
9,
9,
3,
1,
4,
12,
17,
16,
12,
9,
10,
18,
22,
20,
13,
11,
19,
22,
25,
17,
12,
18,
25,
27,
20,
11,
13,
21,
27,
23,
11,
8,
15,
21,
20,
11,
5,
7,
13,
13,
9,
3,
3,
6,
5,
1,
-4,
-3,
-3,
-3,
-7,
-11,
-9,
-8,
-10,
-14,
-16,
-17,
-16,
-17,
-20,
-20,
-22,
-22,
-21,
-25,
-27,
-27,
-27,
-27,
-27,
-30,
-32,
-33,
-31,
-30,
-27,
-29,
-35,
-36,
-32,
-23,
-22,
-30,
-37,
-32,
-22,
-18,
-25,
-32,
-30,
-22,
-12,
-14,
-24,
-27,
-20,
-8,
-6,
-15,
-21,
-16,
-3,
2,
-3,
-11,
-12,
-2,
9,
8,
-1,
-7,
0,
9,
15,
12,
4,
4,
10,
17,
22,
16,
11,
12,
17,
23,
21,
18,
16,
17,
22,
24,
20,
16,
15,
20,
23,
24,
17,
12,
15,
20,
22,
18,
12,
8,
12,
15,
15,
10,
4,
4,
6,
7,
4,
2,
0,
0,
-1,
-3,
-4,
-5,
-7,
-9,
-12,
-11,
-11,
-13,
-16,
-19,
-21,
-20,
-18,
-19,
-25,
-27,
-24,
-19,
-23,
-29,
-35,
-31,
-23,
-24,
-29,
-35,
-38,
-30,
-25,
-25,
-34,
-38,
-34,
-24,
-21,
-28,
-35,
-33,
-25,
-20,
-21,
-26,
-27,
-24,
-17,
-15,
-19,
-22,
-20,
-13,
-8,
-8,
-12,
-15,
-11,
-4,
1,
-1,
-7,
-8,
-2,
8,
8,
4,
0,
3,
10,
15,
14,
8,
7,
12,
19,
20,
13,
11,
18,
22,
21,
17,
12,
17,
22,
24,
18,
16,
16,
23,
24,
18,
15,
16,
20,
21,
14,
11,
14,
17,
15,
10,
4,
5,
9,
12,
7,
0,
-3,
-1,
4,
3,
-4,
-10,
-9,
-6,
-6,
-8,
-13,
-16,
-17,
-15,
-13,
-14,
-22,
-26,
-24,
-17,
-18,
-26,
-34,
-32,
-22,
-18,
-25,
-34,
-41,
-32,
-20,
-19,
-33,
-44,
-39,
-24,
-17,
-25,
-39,
-41,
-28,
-18,
-20,
-30,
-36,
-29,
-16,
-14,
-22,
-29,
-27,
-16,
-9,
-14,
-19,
-19,
-13,
-6,
-5,
-6,
-11,
-11,
-4,
1,
5,
2,
-2,
0,
4,
8,
11,
9,
5,
6,
13,
17,
15,
12,
12,
17,
19,
19,
16,
15,
18,
22,
22,
20,
15,
18,
21,
22,
19,
17,
18,
19,
19,
16,
16,
17,
17,
14,
10,
11,
13,
15,
11,
2,
1,
4,
10,
9,
-2,
-8,
-5,
1,
2,
-5,
-11,
-13,
-9,
-7,
-10,
-16,
-21,
-18,
-12,
-15,
-21,
-28,
-28,
-19,
-18,
-22,
-32,
-32,
-29,
-23,
-20,
-29,
-35,
-37,
-32,
-24,
-25,
-32,
-37,
-34,
-28,
-25,
-27,
-32,
-31,
-27,
-24,
-20,
-27,
-28,
-25,
-19,
-17,
-21,
-24,
-20,
-15,
-11,
-12,
-13,
-16,
-12,
-3,
-3,
-5,
-8,
-5,
1,
3,
2,
2,
4,
7,
7,
6,
6,
10,
13,
15,
13,
8,
14,
19,
23,
18,
12,
13,
20,
26,
24,
16,
13,
19,
26,
24,
17,
12,
16,
23,
23,
17,
11,
11,
16,
20,
18,
12,
5,
5,
11,
16,
12,
2,
-4,
0,
6,
8,
0,
-8,
-13,
-6,
2,
-1,
-11,
-22,
-18,
-7,
-5,
-16,
-27,
-29,
-17,
-10,
-15,
-32,
-36,
-27,
-16,
-16,
-31,
-39,
-37,
-27,
-17,
-26,
-37,
-39,
-32,
-22,
-24,
-32,
-34,
-31,
-26,
-27,
-28,
-30,
-28,
-26,
-23,
-22,
-23,
-25,
-23,
-20,
-18,
-15,
-14,
-18,
-17,
-12,
-8,
-7,
-10,
-12,
-7,
-2,
1,
0,
-2,
-1,
2,
7,
6,
6,
7,
10,
11,
10,
9,
15,
16,
17,
13,
12,
18,
21,
23,
17,
12,
19,
24,
24,
17,
13,
17,
24,
27,
17,
11,
14,
20,
25,
17,
9,
5,
14,
19,
17,
9,
1,
2,
11,
11,
6,
-2,
-3,
-1,
2,
1,
-5,
-7,
-10,
-8,
-6,
-10,
-13,
-17,
-15,
-15,
-13,
-17,
-25,
-24,
-22,
-18,
-21,
-26,
-31,
-32,
-25,
-24,
-27,
-32,
-35,
-30,
-25,
-28,
-32,
-32,
-30,
-28,
-29,
-30,
-30,
-29,
-25,
-29,
-29,
-29,
-26,
-20,
-22,
-24,
-25,
-20,
-16,
-15,
-19,
-17,
-13,
-9,
-9,
-11,
-13,
-10,
-2,
2,
-3,
-8,
-7,
3,
11,
9,
3,
0,
5,
14,
18,
12,
5,
6,
16,
22,
21,
14,
10,
14,
24,
25,
20,
15,
14,
19,
25,
25,
17,
11,
15,
22,
26,
21,
12,
8,
14,
23,
23,
14,
1,
3,
14,
19,
13,
1,
-4,
0,
11,
10,
-2,
-10,
-9,
0,
4,
-3,
-15,
-18,
-9,
-5,
-9,
-19,
-26,
-18,
-13,
-14,
-21,
-29,
-27,
-23,
-20,
-23,
-28,
-32,
-30,
-28,
-26,
-30,
-30,
-29,
-30,
-31,
-30,
-28,
-29,
-31,
-32,
-29,
-29,
-27,
-28,
-27,
-27,
-24,
-25,
-24,
-22,
-22,
-20,
-18,
-20,
-18,
-14,
-12,
-13,
-14,
-9,
-6,
-6,
-8,
-9,
-3,
3,
5,
0,
-4,
0,
9,
14,
11,
2,
2,
12,
19,
17,
9,
8,
15,
22,
24,
15,
11,
15,
24,
27,
19,
13,
14,
20,
26,
21,
17,
16,
16,
21,
20,
17,
15,
12,
13,
15,
17,
12,
8,
6,
5,
8,
9,
7,
1,
-2,
-1,
3,
0,
-6,
-8,
-8,
-5,
-8,
-13,
-16,
-15,
-12,
-13,
-18,
-19,
-21,
-19,
-19,
-24,
-26,
-24,
-25,
-27,
-30,
-30,
-27,
-25,
-29,
-36,
-36,
-29,
-23,
-27,
-35,
-37,
-30,
-23,
-22,
-29,
-36,
-34,
-25,
-17,
-23,
-31,
-31,
-23,
-15,
-15,
-22,
-26,
-20,
-13,
-8,
-10,
-17,
-18,
-8,
0,
-1,
-5,
-11,
-8,
2,
9,
8,
-1,
-4,
1,
12,
17,
12,
4,
5,
12,
21,
22,
13,
9,
13,
24,
25,
20,
10,
11,
24,
29,
25,
15,
10,
16,
26,
27,
19,
11,
10,
18,
24,
22,
11,
8,
11,
16,
14,
8,
5,
4,
7,
8,
4,
1,
-1,
0,
0,
-2,
-7,
-9,
-8,
-8,
-11,
-14,
-15,
-13,
-15,
-17,
-19,
-19,
-20,
-21,
-24,
-26,
-26,
-23,
-25,
-27,
-30,
-32,
-30,
-28,
-27,
-30,
-32,
-32,
-30,
-27,
-28,
-29,
-31,
-34,
-29,
-24,
-23,
-29,
-33,
-29,
-21,
-19,
-24,
-28,
-25,
-18,
-12,
-12,
-21,
-23,
-12,
-4,
-3,
-11,
-17,
-12,
1,
5,
0,
-7,
-7,
2,
11,
12,
3,
0,
6,
14,
15,
12,
11,
11,
16,
17,
18,
16,
15,
17,
19,
20,
19,
18,
17,
20,
20,
22,
22,
18,
16,
16,
21,
23,
18,
12,
12,
15,
17,
16,
11,
8,
9,
8,
9,
8,
5,
3,
3,
0,
-3,
-1,
0,
-3,
-9,
-14,
-8,
-6,
-8,
-17,
-24,
-17,
-11,
-12,
-24,
-28,
-26,
-18,
-13,
-23,
-35,
-35,
-25,
-17,
-22,
-35,
-39,
-32,
-21,
-21,
-30,
-37,
-38,
-29,
-22,
-24,
-31,
-36,
-30,
-24,
-20,
-26,
-32,
-29,
-22,
-18,
-16,
-24,
-27,
-24,
-14,
-6,
-11,
-19,
-21,
-13,
0,
1,
-8,
-14,
-11,
0,
9,
7,
-6,
-6,
4,
13,
14,
6,
3,
8,
17,
18,
15,
10,
11,
19,
23,
20,
13,
11,
19,
24,
22,
18,
15,
19,
24,
22,
20,
16,
18,
20,
19,
17,
14,
16,
17,
16,
11,
9,
11,
11,
12,
8,
3,
1,
3,
5,
4,
0,
-6,
-6,
-3,
-3,
-7,
-12,
-13,
-11,
-10,
-12,
-16,
-21,
-21,
-17,
-16,
-19,
-28,
-30,
-25,
-19,
-22,
-28,
-35,
-34,
-23,
-23,
-28,
-34,
-38,
-32,
-24,
-23,
-31,
-38,
-35,
-26,
-20,
-26,
-34,
-32,
-26,
-19,
-20,
-27,
-29,
-26,
-16,
-13,
-19,
-23,
-20,
-14,
-7,
-8,
-12,
-13,
-10,
-5,
-1,
0,
-4,
-4,
-2,
2,
5,
5,
5,
5,
4,
8,
14,
14,
12,
10,
12,
18,
18,
17,
16,
17,
21,
21,
20,
19,
19,
20,
21,
21,
20,
18,
19,
17,
17,
19,
21,
20,
12,
10,
15,
19,
18,
8,
3,
5,
13,
17,
7,
-3,
-7,
1,
11,
4,
-9,
-14,
-9,
1,
-1,
-11,
-24,
-19,
-8,
-6,
-13,
-25,
-28,
-21,
-12,
-13,
-26,
-33,
-30,
-23,
-19,
-25,
-32,
-34,
-32,
-27,
-26,
-27,
-35,
-37,
-32,
-26,
-23,
-30,
-36,
-33,
-27,
-22,
-24,
-32,
-31,
-24,
-16,
-15,
-25,
-30,
-25,
-13,
-10,
-15,
-21,
-19,
-10,
-3,
-6,
-11,
-11,
-6,
0,
0,
-4,
-4,
3,
8,
5,
0,
3,
10,
13,
12,
7,
9,
14,
17,
19,
15,
12,
16,
22,
22,
18,
15,
17,
22,
24,
19,
17,
16,
19,
24,
21,
18,
13,
12,
18,
20,
19,
11,
6,
9,
15,
16,
12,
2,
0,
3,
11,
9,
-2,
-9,
-6,
3,
4,
-5,
-14,
-15,
-9,
-3,
-8,
-17,
-23,
-19,
-9,
-12,
-20,
-30,
-30,
-19,
-16,
-22,
-33,
-34,
-30,
-24,
-21,
-28,
-34,
-35,
-31,
-26,
-27,
-32,
-35,
-32,
-28,
-27,
-28,
-31,
-30,
-29,
-27,
-23,
-25,
-26,
-25,
-21,
-19,
-19,
-19,
-19,
-18,
-14,
-11,
-9,
-11,
-13,
-12,
-6,
-1,
-2,
-3,
-4,
-3,
1,
6,
9,
5,
3,
5,
9,
13,
14,
12,
11,
11,
16,
20,
19,
15,
12,
18,
23,
24,
18,
12,
14,
23,
28,
24,
12,
9,
18,
25,
26,
12,
6,
10,
20,
25,
16,
6,
2,
10,
18,
14,
5,
-3,
0,
9,
7,
0,
-8,
-7,
-2,
-1,
-5,
-10,
-15,
-15,
-11,
-10,
-13,
-19,
-22,
-19,
-15,
-17,
-22,
-29,
-29,
-24,
-22,
-22,
-28,
-33,
-32,
-28,
-24,
-29,
-34,
-36,
-30,
-25,
-29,
-34,
-33,
-27,
-24,
-28,
-31,
-31,
-25,
-20,
-23,
-27,
-28,
-24,
-15,
-17,
-21,
-24,
-17,
-10,
-12,
-16,
-16,
-9,
-3,
-2,
-9,
-12,
-6,
3,
8,
3,
-4,
-1,
7,
14,
13,
7,
5,
9,
14,
18,
16,
13,
11,
16,
21,
22,
18,
14,
15,
21,
26,
25,
16,
12,
17,
26,
28,
19,
8,
9,
18,
28,
21,
10,
3,
10,
20,
22,
11,
0,
0,
11,
15,
5,
-3,
-5,
1,
5,
2,
-7,
-11,
-10,
-6,
-5,
-10,
-16,
-16,
-14,
-13,
-15,
-20,
-24,
-23,
-22,
-23,
-24,
-26,
-27,
-29,
-29,
-26,
-25,
-28,
-31,
-33,
-30,
-27,
-28,
-29,
-31,
-32,
-30,
-27,
-28,
-29,
-29,
-29,
-26,
-25,
-26,
-26,
-24,
-24,
-21,
-17,
-18,
-19,
-18,
-16,
-11,
-9,
-11,
-14,
-13,
-8,
1,
3,
-5,
-8,
-5,
5,
10,
6,
0,
0,
7,
17,
17,
9,
4,
8,
19,
23,
15,
8,
12,
19,
29,
24,
15,
11,
18,
27,
28,
20,
13,
14,
22,
26,
21,
14,
12,
16,
18,
18,
16,
10,
10,
11,
12,
12,
6,
5,
5,
5,
4,
1,
-1,
-2,
-2,
-3,
-5,
-8,
-11,
-10,
-9,
-9,
-14,
-16,
-18,
-18,
-18,
-20,
-24,
-23,
-22,
-22,
-24,
-29,
-27,
-26,
-25,
-29,
-35,
-33,
-28,
-21,
-27,
-35,
-36,
-32,
-22,
-24,
-34,
-37,
-31,
-23,
-19,
-27,
-34,
-33,
-21,
-15,
-20,
-27,
-29,
-19,
-11,
-11,
-18,
-23,
-18,
-8,
-1,
-4,
-11,
-14,
-8,
3,
6,
1,
-4,
-5,
3,
11,
14,
8,
2,
3,
13,
19,
16,
8,
8,
15,
26,
24,
16,
10,
12,
26,
32,
21,
11,
10,
22,
30,
25,
16,
12,
15,
23,
23,
17,
12,
11,
16,
17,
15,
9,
7,
10,
11,
7,
5,
5,
3,
1,
0,
-2,
-1,
-3,
-6,
-9,
-9,
-8,
-9,
-13,
-17,
-16,
-15,
-13,
-16,
-23,
-25,
-23,
-20,
-21,
-25,
-28,
-29,
-27,
-27,
-27,
-28,
-31,
-34,
-33,
-28,
-26,
-29,
-34,
-35,
-29,
-25,
-25,
-29,
-35,
-32,
-24,
-19,
-26,
-33,
-29,
-20,
-12,
-15,
-25,
-27,
-18,
-8,
-5,
-12,
-20,
-16,
-4,
1,
-2,
-9,
-12,
-2,
5,
5,
3,
-1,
2,
8,
12,
9,
7,
8,
13,
17,
14,
13,
13,
15,
19,
20,
19,
16,
16,
19,
23,
22,
20,
17,
17,
20,
21,
20,
17,
16,
17,
16,
16,
15,
14,
14,
16,
12,
8,
6,
10,
12,
8,
2,
0,
1,
4,
2,
-3,
-8,
-7,
-4,
-3,
-7,
-15,
-17,
-12,
-7,
-13,
-22,
-27,
-20,
-14,
-14,
-25,
-32,
-31,
-20,
-13,
-23,
-38,
-40,
-30,
-19,
-20,
-33,
-40,
-36,
-25,
-21,
-28,
-35,
-38,
-31,
-21,
-23,
-30,
-34,
-32,
-20,
-18,
-22,
-28,
-28,
-20,
-14,
-11,
-17,
-24,
-21,
-12,
-2,
-6,
-14,
-16,
-10,
0,
4,
1,
-8,
-6,
2,
11,
10,
2,
-2,
6,
16,
17,
10,
6,
11,
18,
20,
18,
11,
13,
18,
23,
21,
17,
16,
19,
23,
20,
18,
20,
19,
19,
17,
16,
20,
20,
18,
14,
10,
13,
16,
16,
11,
5,
5,
9,
9,
5,
1,
0,
1,
2,
0,
-4,
-6,
-7,
-7,
-8,
-9,
-12,
-16,
-16,
-15,
-15,
-16,
-23,
-24,
-24,
-20,
-17,
-20,
-31,
-34,
-25,
-20,
-22,
-33,
-40,
-33,
-25,
-23,
-29,
-37,
-36,
-28,
-24,
-25,
-35,
-35,
-27,
-20,
-23,
-30,
-34,
-27,
-18,
-18,
-21,
-26,
-22,
-18,
-13,
-14,
-15,
-17,
-12,
-8,
-9,
-7,
-5,
-5,
-6,
-5,
0,
3,
3,
3,
4,
7,
6,
7,
11,
10,
11,
11,
14,
16,
15,
17,
17,
17,
18,
19,
20,
19,
18,
17,
21,
23,
20,
16,
15,
18,
25,
24,
16,
10,
12,
20,
24,
17,
4,
2,
11,
19,
17,
4,
-4,
0,
9,
11,
4,
-8,
-9,
-1,
4,
-1,
-13,
-18,
-14,
-4,
-4,
-14,
-25,
-26,
-16,
-11,
-14,
-24,
-31,
-27,
-19,
-16,
-25,
-34,
-35,
-28,
-21,
-22,
-32,
-37,
-35,
-28,
-24,
-27,
-36,
-38,
-31,
-23,
-22,
-30,
-36,
-31,
-22,
-18,
-24,
-29,
-29,
-23,
-14,
-15,
-20,
-24,
-20,
-11,
-8,
-12,
-16,
-13,
-7,
-3,
-4,
-4,
-3,
0,
4,
4,
0,
2,
9,
10,
10,
7,
10,
15,
15,
14,
12,
15,
18,
20,
17,
15,
16,
20,
24,
20,
17,
15,
19,
24,
23,
16,
15,
16,
21,
23,
19,
15,
13,
13,
16,
16,
13,
8,
5,
7,
10,
10,
6,
2,
-2,
0,
4,
2,
-6,
-12,
-9,
-3,
-3,
-11,
-20,
-18,
-11,
-9,
-15,
-23,
-27,
-23,
-13,
-15,
-25,
-32,
-30,
-23,
-20,
-26,
-32,
-31,
-27,
-26,
-31,
-33,
-30,
-29,
-28,
-30,
-32,
-31,
-28,
-27,
-29,
-29,
-27,
-26,
-25,
-26,
-26,
-20,
-19,
-19,
-24,
-23,
-17,
-14,
-11,
-14,
-16,
-14,
-9,
-5,
-4,
-5,
-5,
-5,
0,
2,
6,
5,
1,
1,
7,
14,
12,
9,
5,
11,
18,
22,
15,
10,
11,
19,
28,
22,
12,
8,
19,
30,
29,
17,
6,
12,
27,
30,
22,
10,
7,
17,
27,
24,
12,
6,
10,
16,
18,
12,
5,
1,
5,
10,
9,
1,
-6,
-5,
1,
4,
-1,
-10,
-13,
-11,
-4,
-4,
-12,
-19,
-21,
-15,
-9,
-13,
-24,
-31,
-26,
-18,
-17,
-24,
-32,
-33,
-27,
-24,
-26,
-31,
-34,
-32,
-28,
-27,
-32,
-35,
-30,
-27,
-26,
-30,
-33,
-32,
-25,
-24,
-27,
-28,
-27,
-24,
-20,
-21,
-23,
-22,
-17,
-15,
-18,
-20,
-16,
-11,
-7,
-9,
-13,
-11,
-4,
1,
2,
-3,
-5,
0,
7,
9,
5,
2,
4,
11,
14,
14,
11,
9,
14,
18,
19,
17,
13,
15,
19,
23,
21,
17,
16,
16,
23,
25,
23,
17,
13,
17,
24,
23,
17,
11,
12,
16,
21,
17,
10,
6,
9,
14,
13,
6,
0,
0,
6,
8,
0,
-7,
-8,
-3,
-1,
-5,
-11,
-13,
-10,
-9,
-11,
-15,
-19,
-18,
-16,
-19,
-22,
-24,
-23,
-24,
-25,
-29,
-29,
-24,
-23,
-29,
-36,
-33,
-26,
-25,
-28,
-34,
-35,
-31,
-27,
-26,
-31,
-35,
-30,
-27,
-22,
-26,
-28,
-27,
-25,
-21,
-20,
-19,
-25,
-24,
-15,
-10,
-11,
-17,
-21,
-16,
-4,
1,
-4,
-12,
-14,
-5,
9,
10,
-2,
-9,
-4,
12,
18,
10,
-1,
1,
14,
23,
19,
9,
3,
14,
24,
27,
15,
8,
13,
22,
29,
24,
13,
11,
19,
25,
26,
19,
14,
13,
18,
21,
20,
15,
12,
12,
13,
16,
15,
9,
4,
6,
10,
11,
3,
-2,
-1,
2,
2,
-2,
-9,
-11,
-7,
-4,
-7,
-12,
-17,
-14,
-11,
-12,
-18,
-23,
-20,
-18,
-20,
-25,
-29,
-24,
-22,
-24,
-29,
-35,
-28,
-26,
-25,
-30,
-36,
-33,
-28,
-24,
-30,
-36,
-36,
-29,
-22,
-26,
-32,
-33,
-27,
-21,
-20,
-24,
-30,
-26,
-17,
-14,
-18,
-23,
-24,
-14,
-8,
-7,
-9,
-16,
-15,
-7,
0,
1,
-3,
-8,
-4,
4,
7,
5,
1,
1,
8,
14,
14,
9,
6,
10,
18,
21,
16,
11,
12,
19,
25,
24,
18,
12,
16,
23,
27,
21,
13,
14,
19,
23,
21,
17,
16,
15,
16,
16,
16,
13,
12,
13,
12,
8,
7,
7,
6,
2,
1,
0,
3,
2,
-4,
-8,
-7,
