7-logik-schaltungen/data/ALL0002/A0002CH1.CSV

Memory Length,4000,
Trigger Level,2.16000e+00,
Source,CH1,
Probe,1.0X,
Vertical Units,V,
Vertical Scale,5.00000e-02,
Vertical Position,-9.14000e-01,
Horizontal Units,S,
Horizontal Scale,1.00000e-03,
Horizontal Position,4.0000000e-04,
Horizontal Mode,XY Mode,
Sampling Period,4.00000e-06,
Firmware,V1.14,
Time, ,
Mode,Fast,
Waveform Data,
329,
329,
329,
329,
329,
329,
329,
329,
329,
329,
329,
329,
329,
329,
329,
329,
329,
329,
329,
329,
329,
329,
329,
329,
329,
329,
329,
329,
329,
329,
329,
329,
329,
329,
329,
329,
329,
329,
329,
329,
329,
329,
329,
329,
329,
329,
329,
329,
329,
329,
329,
329,
329,
329,
329,
329,
329,
329,
329,
329,
329,
329,
329,
329,
329,
329,
329,
329,
329,
329,
329,
329,
329,
329,
329,
329,
329,
329,
329,
329,
329,
329,
329,
329,
329,
329,
329,
329,
329,
329,
329,
329,
329,
329,
329,
329,
329,
329,
329,
329,
329,
329,
329,
329,
329,
329,
329,
329,
329,
329,
329,
329,
329,
329,
329,
329,
329,
329,
329,
329,
329,
329,
329,
329,
329,
329,
329,
329,
329,
329,
329,
329,
329,
329,
329,
329,
329,
329,
329,
329,
329,
329,
329,
329,
329,
329,
329,
329,
329,
329,
329,
329,
329,
329,
329,
329,
329,
329,
329,
329,
329,
329,
329,
329,
329,
329,
329,
329,
329,
329,
329,
329,
329,
329,
329,
329,
329,
329,
329,
329,
329,
329,
329,
329,
329,
329,
329,
329,
329,
329,
329,
329,
329,
329,
329,
329,
329,
329,
329,
329,
329,
329,
329,
329,
330,
330,
335,
335,
338,
338,
338,
338,
338,
338,
342,
342,
344,
344,
348,
348,
348,
348,
350,
350,
352,
352,
354,
354,
357,
357,
361,
361,
363,
363,
366,
366,
367,
367,
368,
368,
370,
370,
372,
372,
375,
375,
380,
380,
383,
383,
382,
382,
385,
385,
387,
387,
390,
390,
389,
389,
396,
396,
395,
395,
398,
398,
402,
402,
403,
403,
404,
404,
409,
409,
410,
410,
413,
413,
417,
417,
422,
422,
417,
417,
418,
418,
423,
423,
428,
428,
430,
430,
431,
431,
432,
432,
438,
438,
442,
442,
441,
441,
443,
443,
447,
447,
448,
448,
451,
451,
452,
452,
452,
452,
458,
458,
456,
456,
461,
461,
463,
463,
468,
468,
470,
470,
468,
468,
475,
475,
477,
477,
478,
478,
482,
482,
484,
484,
486,
486,
487,
487,
491,
491,
493,
493,
495,
495,
496,
496,
501,
501,
503,
503,
502,
502,
506,
506,
506,
506,
513,
513,
512,
512,
514,
514,
518,
518,
519,
519,
521,
521,
525,
525,
525,
525,
529,
529,
530,
530,
534,
534,
536,
536,
535,
535,
539,
539,
540,
540,
545,
545,
551,
551,
549,
549,
549,
549,
554,
554,
555,
555,
559,
559,
563,
563,
560,
560,
561,
561,
563,
574,
572,
572,
568,
568,
577,
577,
575,
575,
582,
582,
581,
581,
581,
581,
583,
583,
583,
583,
583,
583,
583,
583,
583,
583,
583,
583,
583,
583,
583,
583,
583,
583,
583,
583,
583,
583,
583,
583,
583,
583,
583,
583,
583,
583,
583,
583,
583,
583,
583,
583,
583,
583,
583,
583,
583,
583,
583,
583,
583,
583,
583,
583,
583,
583,
583,
583,
583,
583,
583,
583,
583,
583,
583,
583,
583,
583,
583,
583,
583,
583,
583,
583,
583,
583,
583,
583,
583,
583,
583,
583,
583,
583,
583,
583,
583,
583,
583,
583,
583,
583,
583,
583,
583,
583,
583,
583,
583,
583,
583,
583,
583,
583,
583,
583,
583,
583,
583,
583,
583,
583,
583,
583,
583,
583,
583,
583,
583,
583,
583,
583,
583,
583,
583,
583,
583,
583,
583,
583,
583,
583,
583,
583,
583,
583,
583,
583,
583,
583,
583,
583,
583,
583,
583,
583,
583,
583,
583,
583,
583,
583,
583,
583,
583,
583,
583,
583,
583,
583,
583,
583,
583,
583,
583,
583,
583,
583,
583,
583,
583,
583,
583,
583,
583,
583,
583,
583,
583,
583,
583,
583,
583,
583,
583,
583,
583,
583,
583,
583,
583,
583,
583,
583,
583,
583,
583,
583,
583,
583,
583,
583,
583,
583,
583,
583,
583,
583,
583,
583,
583,
583,
583,
583,
583,
583,
583,
583,
583,
583,
583,
583,
583,
583,
583,
583,
583,
583,
583,
583,
583,
583,
583,
583,
583,
583,
583,
583,
583,
583,
583,
583,
583,
583,
583,
583,
583,
583,
583,
583,
583,
583,
583,
583,
583,
583,
583,
583,
583,
583,
583,
583,
583,
583,
583,
583,
583,
583,
583,
583,
583,
583,
583,
583,
583,
583,
583,
583,
583,
583,
583,
583,
583,
583,
583,
583,
583,
583,
583,
583,
583,
583,
583,
583,
583,
583,
583,
583,
583,
583,
583,
583,
583,
583,
583,
583,
583,
583,
583,
583,
583,
583,
583,
583,
583,
583,
583,
583,
583,
583,
583,
583,
583,
583,
583,
583,
583,
583,
583,
583,
583,
583,
583,
583,
583,
583,
583,
583,
583,
583,
583,
583,
583,
583,
583,
583,
583,
583,
583,
583,
583,
583,
583,
583,
583,
583,
583,
583,
583,
583,
583,
583,
583,
583,
583,
583,
583,
583,
583,
583,
583,
583,
583,
583,
583,
583,
583,
583,
583,
583,
583,
583,
583,
583,
583,
583,
583,
583,
583,
583,
583,
583,
583,
583,
583,
583,
583,
583,
583,
583,
583,
583,
583,
583,
583,
583,
583,
583,
583,
583,
583,
583,
583,
583,
583,
583,
583,
583,
583,
583,
583,
583,
583,
583,
583,
583,
583,
583,
583,
583,
583,
583,
583,
583,
583,
583,
583,
583,
583,
583,
583,
583,
583,
583,
583,
583,
583,
583,
583,
583,
583,
583,
583,
583,
583,
583,
583,
583,
583,
583,
583,
583,
583,
583,
583,
583,
583,
583,
583,
583,
583,
583,
583,
583,
583,
583,
583,
583,
583,
583,
583,
583,
583,
583,
583,
583,
583,
583,
583,
583,
583,
583,
583,
583,
583,
583,
583,
583,
583,
583,
583,
583,
583,
583,
583,
583,
583,
583,
583,
583,
583,
583,
583,
583,
583,
583,
583,
583,
583,
583,
583,
583,
583,
583,
583,
583,
583,
583,
583,
583,
583,
583,
583,
583,
583,
583,
583,
583,
583,
583,
583,
583,
583,
583,
583,
583,
583,
583,
583,
583,
583,
583,
583,
583,
583,
583,
583,
583,
583,
583,
583,
583,
583,
583,
583,
583,
583,
583,
583,
583,
583,
583,
583,
583,
583,
583,
583,
583,
583,
583,
583,
583,
583,
583,
583,
583,
583,
583,
583,
583,
583,
583,
583,
583,
583,
583,
583,
583,
583,
583,
583,
583,
583,
583,
583,
583,
583,
583,
583,
583,
583,
583,
583,
583,
583,
583,
583,
583,
583,
583,
583,
583,
583,
583,
583,
583,
583,
583,
583,
583,
583,
583,
583,
583,
583,
583,
583,
583,
583,
583,
583,
583,
583,
583,
583,
583,
583,
583,
583,
583,
583,
583,
583,
583,
583,
583,
583,
583,
583,
583,
583,
583,
583,
583,
583,
583,
583,
583,
583,
583,
583,
583,
583,
583,
583,
583,
583,
583,
583,
583,
583,
583,
583,
583,
583,
583,
583,
583,
583,
583,
583,
583,
583,
583,
583,
583,
583,
583,
583,
583,
583,
583,
583,
583,
583,
583,
583,
583,
583,
583,
583,
583,
583,
583,
583,
583,
583,
583,
583,
583,
583,
583,
583,
583,
583,
583,
583,
583,
583,
583,
583,
583,
583,
583,
583,
583,
583,
583,
583,
583,
583,
583,
583,
583,
583,
583,
583,
583,
583,
583,
583,
583,
583,
583,
583,
583,
583,
583,
583,
583,
583,
583,
583,
583,
583,
583,
583,
583,
583,
583,
583,
583,
583,
583,
583,
583,
583,
583,
583,
583,
583,
583,
583,
583,
583,
583,
583,
583,
583,
583,
583,
583,
583,
583,
583,
583,
583,
583,
583,
583,
583,
583,
583,
583,
583,
583,
583,
583,
583,
583,
583,
583,
583,
583,
583,
583,
583,
583,
583,
583,
583,
583,
583,
583,
583,
583,
583,
583,
583,
583,
583,
583,
583,
583,
583,
583,
583,
583,
583,
583,
583,
583,
583,
583,
583,
583,
583,
583,
583,
583,
583,
583,
583,
583,
583,
583,
583,
583,
583,
583,
583,
583,
583,
583,
583,
583,
583,
583,
583,
583,
583,
583,
583,
583,
583,
583,
583,
583,
583,
583,
583,
583,
583,
583,
583,
583,
583,
583,
583,
583,
583,
583,
583,
583,
583,
583,
583,
583,
583,
583,
583,
583,
583,
583,
583,
583,
583,
583,
583,
583,
583,
583,
583,
583,
583,
583,
583,
583,
583,
583,
583,
583,
583,
583,
583,
583,
583,
583,
583,
583,
583,
583,
583,
583,
583,
583,
583,
583,
583,
583,
583,
583,
583,
583,
583,
583,
583,
583,
583,
583,
583,
583,
583,
583,
583,
583,
583,
583,
583,
583,
583,
583,
583,
583,
583,
583,
583,
583,
583,
583,
583,
583,
583,
583,
583,
583,
583,
583,
583,
583,
583,
583,
583,
583,
583,
583,
583,
583,
583,
583,
583,
583,
583,
583,
583,
583,
583,
583,
583,
583,
583,
583,
583,
583,
583,
583,
583,
583,
583,
583,
583,
583,
583,
583,
583,
583,
583,
583,
583,
583,
583,
583,
583,
583,
583,
583,
583,
583,
583,
583,
583,
583,
583,
583,
583,
583,
583,
583,
583,
583,
583,
583,
583,
583,
583,
583,
583,
583,
583,
583,
583,
583,
583,
583,
583,
583,
583,
583,
583,
583,
583,
583,
583,
583,
583,
583,
583,
583,
583,
583,
583,
583,
583,
583,
583,
583,
583,
583,
583,
583,
583,
583,
583,
583,
583,
583,
583,
583,
583,
583,
583,
583,
583,
583,
583,
583,
583,
583,
583,
583,
583,
583,
583,
583,
583,
583,
583,
583,
583,
583,
583,
583,
583,
583,
583,
583,
583,
583,
583,
583,
583,
583,
583,
583,
583,
583,
583,
583,
583,
583,
583,
583,
583,
583,
583,
583,
583,
583,
583,
583,
583,
583,
583,
583,
583,
583,
583,
583,
583,
583,
583,
583,
583,
583,
583,
583,
583,
583,
583,
583,
583,
583,
583,
583,
583,
583,
583,
583,
583,
583,
583,
583,
583,
583,
583,
583,
583,
583,
583,
583,
583,
583,
583,
583,
583,
583,
583,
583,
583,
583,
583,
583,
583,
583,
583,
583,
583,
583,
583,
583,
583,
583,
583,
583,
583,
583,
583,
583,
583,
583,
583,
583,
583,
583,
583,
583,
583,
583,
583,
583,
583,
583,
583,
583,
583,
583,
583,
583,
583,
583,
583,
583,
583,
583,
583,
583,
583,
583,
583,
583,
583,
583,
583,
583,
583,
583,
583,
583,
583,
583,
583,
583,
583,
583,
583,
583,
583,
583,
583,
583,
583,
583,
583,
583,
583,
583,
583,
583,
583,
583,
583,
583,
583,
583,
583,
583,
583,
583,
583,
583,
583,
583,
583,
583,
583,
583,
583,
583,
583,
583,
583,
583,
583,
583,
583,
583,
583,
583,
583,
583,
583,
583,
583,
583,
583,
583,
583,
583,
583,
583,
583,
583,
583,
583,
583,
583,
583,
583,
583,
583,
583,
583,
583,
583,
583,
583,
583,
583,
583,
583,
583,
583,
583,
583,
583,
583,
583,
583,
583,
583,
583,
583,
583,
583,
583,
583,
583,
583,
583,
583,
583,
583,
583,
583,
583,
583,
583,
583,
583,
583,
583,
583,
583,
583,
583,
583,
583,
583,
583,
583,
583,
583,
583,
583,
583,
583,
583,
583,
583,
583,
583,
583,
583,
583,
583,
583,
583,
583,
583,
583,
583,
583,
583,
583,
583,
583,
583,
583,
583,
583,
583,
583,
583,
583,
583,
583,
583,
583,
583,
583,
583,
583,
583,
583,
583,
583,
583,
583,
583,
583,
583,
583,
583,
583,
583,
583,
583,
583,
583,
583,
583,
583,
583,
583,
583,
583,
583,
583,
583,
583,
583,
583,
583,
583,
583,
583,
583,
583,
583,
583,
583,
583,
583,
583,
583,
583,
583,
583,
583,
583,
583,
583,
583,
583,
583,
583,
583,
583,
583,
583,
583,
583,
583,
583,
583,
583,
583,
583,
583,
583,
583,
583,
583,
583,
583,
583,
583,
583,
583,
583,
583,
583,
583,
583,
583,
583,
583,
583,
583,
583,
583,
583,
583,
583,
583,
583,
583,
583,
583,
583,
583,
583,
583,
583,
583,
583,
583,
583,
583,
583,
583,
583,
583,
583,
583,
583,
583,
583,
583,
583,
583,
583,
583,
583,
583,
583,
583,
583,
583,
583,
583,
583,
583,
583,
583,
583,
583,
583,
583,
583,
583,
583,
583,
583,
583,
583,
583,
583,
583,
583,
583,
583,
583,
583,
583,
583,
583,
583,
583,
583,
583,
583,
583,
583,
583,
583,
583,
583,
583,
583,
583,
583,
583,
583,
583,
583,
583,
583,
583,
583,
583,
583,
583,
583,
583,
583,
583,
583,
583,
583,
583,
583,
583,
583,
583,
583,
583,
583,
583,
583,
583,
583,
583,
583,
583,
583,
583,
583,
583,
583,
583,
329,
329,
329,
329,
329,
329,
329,
329,
329,
329,
329,
329,
329,
329,
329,
329,
329,
329,
329,
329,
329,
329,
329,
329,
329,
329,
329,
329,
329,
329,
329,
329,
329,
329,
329,
329,
329,
329,
329,
329,
329,
329,
329,
329,
329,
329,
329,
329,
329,
329,
329,
329,
329,
329,
329,
329,
329,
329,
329,
329,
329,
329,
329,
329,
329,
329,
329,
329,
329,
329,
329,
329,
329,
329,
329,
329,
329,
329,
329,
329,
329,
329,
329,
329,
329,
329,
329,
329,
329,
329,
329,
329,
329,
329,
329,
329,
329,
329,
329,
329,
329,
329,
329,
329,
329,
329,
329,
329,
329,
329,
329,
329,
329,
329,
329,
329,
329,
329,
329,
329,
329,
329,
329,
329,
329,
329,
329,
329,
329,
329,
329,
329,
329,
329,
329,
329,
329,
329,
329,
329,
329,
329,
329,
329,
329,
329,
329,
329,
329,
329,
329,
329,
329,
329,
329,
329,
329,
329,
329,
329,
329,
329,
329,
329,
329,
329,
329,
329,
329,
329,
329,
329,
329,
329,
329,
329,
329,
329,
329,
329,
329,
329,
329,
329,
329,
329,
329,
329,
329,
329,
329,
329,
329,
329,
329,
329,
329,
329,
329,
329,
329,
329,
329,
329,
329,
329,
329,
329,
329,
329,
329,
329,
329,
329,
329,
329,
329,
329,
329,
329,
329,
329,
329,
329,
329,
329,
329,
329,
329,
329,
329,
329,
329,
329,
329,
329,
329,
329,
329,
329,
329,
329,
329,
329,
329,
329,
329,
329,
329,
329,
329,
329,
329,
329,
329,
329,
329,
329,
329,
329,
329,
329,
329,
329,
329,
329,
329,
329,
329,
329,
329,
329,
329,
329,
329,
329,
329,
330,
330,
329,
329,
330,
330,
331,
331,
335,
335,
336,
336,
340,
340,
340,
340,
344,
344,
343,
343,
348,
348,
352,
352,
353,
353,
357,
357,
359,
359,
362,
362,
363,
363,
364,
364,
369,
369,
369,
369,
370,
370,
370,
370,
375,
375,
377,
377,
377,
377,
382,
382,
384,
384,
387,
387,
392,
392,
393,
393,
394,
394,
393,
393,
398,
398,
402,
402,
406,
406,
405,
405,
408,
408,
410,
410,
414,
414,
416,
416,
419,
419,
420,
420,
424,
424,
424,
424,
426,
426,
431,
431,
430,
430,
432,
432,
435,
435,
441,
441,
441,
441,
442,
442,
446,
446,
449,
449,
450,
450,
451,
451,
454,
454,
460,
460,
458,
458,
462,
462,
461,
461,
469,
469,
468,
468,
468,
468,
472,
472,
472,
472,
478,
478,
479,
479,
482,
482,
484,
484,
484,
484,
489,
489,
491,
491,
495,
495,
500,
500,
499,
499,
502,
502,
503,
503,
503,
503,
509,
509,
511,
511,
509,
509,
514,
514,
517,
517,
516,
516,
519,
519,
526,
526,
526,
526,
526,
526,
530,
530,
530,
530,
533,
533,
536,
536,
539,
539,
541,
541,
542,
542,
547,
547,
546,
546,
550,
550,
552,
552,
555,
555,
559,
559,
561,
561,
565,
565,
566,
566,
566,
566,
570,
570,
570,
570,
577,
577,
573,
573,
580,
580,
575,
575,
582,
582,
581,
581,
583,
583,
583,
583,
583,
583,
583,
583,
583,
583,
583,
583,
583,
583,
583,
583,
583,
583,
583,
583,
583,
583,
583,
583,
583,
583,
583,
583,
583,
583,
583,
583,
583,
583,
583,
583,
583,
583,
583,
583,
583,
583,
583,
583,
583,
583,
583,
583,
583,
583,
583,
583,
583,
583,
583,
583,
583,
583,
583,
583,
583,
583,
583,
583,
583,
583,
583,
583,
583,
583,
583,
583,
583,
583,
583,
583,
583,
583,
583,
583,
583,
583,
583,
583,
583,
583,
583,
583,
583,
583,
583,
583,
583,
583,
583,
583,
583,
583,
583,
583,
583,
583,
583,
583,
583,
583,
583,
583,
583,
583,
583,
583,
583,
583,
583,
583,
583,
583,
583,
583,
583,
583,
583,
583,
583,
583,
583,
583,
583,
583,
583,
583,
583,
583,
583,
583,
583,
583,
583,
583,
583,
583,
583,
583,
583,
583,
583,
583,
583,
583,
583,
583,
583,
583,
583,
583,
583,
583,
583,
583,
583,
583,
583,
583,
583,
583,
583,
583,
583,
583,
583,
583,
583,
583,
583,
583,
583,
583,
583,
583,
583,
583,
583,
583,
583,
583,
583,
583,
583,
583,
583,
583,
583,
583,
583,
583,
583,
583,
583,
583,
583,
583,
583,
583,
583,
583,
583,
583,
583,
583,
583,
583,
583,
583,
583,
583,
583,
583,
583,
583,
583,
583,
583,
583,
583,
583,
583,
583,
583,
583,
583,
583,
583,
583,
583,
583,
583,
583,
583,
583,
583,
583,
583,
583,
583,
583,
583,
583,
583,
583,
583,
583,
583,
583,
583,
583,
583,
583,
583,
583,
583,
583,
583,
583,
583,
583,
583,
583,
583,
583,
583,
583,
583,
583,
583,
583,
583,
583,
583,
583,
583,
583,
583,
583,
583,
583,
583,
583,
583,
583,
583,
583,
583,
583,
583,
583,
583,
583,
583,
583,
583,
583,
583,
583,
583,
583,
583,
583,
583,
583,
583,
583,
583,
583,
583,
583,
583,
583,
583,
583,
583,
583,
583,
583,
583,
583,
583,
583,
583,
583,
583,
583,
583,
583,
583,
583,
583,
583,
583,
583,
583,
583,
583,
583,
583,
583,
583,
583,
583,
583,
583,
583,
583,
583,
583,
583,
583,
583,
583,
583,
583,
583,
583,
583,
583,
583,
583,
583,
583,
583,
583,
583,
583,
583,
583,
583,
583,
583,
583,
583,
583,
583,
583,
583,
583,
583,
583,
583,
583,
583,
583,
583,
583,
583,
583,
583,
583,
583,
583,
583,
583,
583,
583,
583,
583,
583,
583,
583,
583,
583,
583,
583,
583,
583,
583,
583,
583,
583,
583,
583,
583,
583,
583,
583,
583,
583,
583,
583,
583,
583,
583,
583,
583,
583,
583,
583,
583,
583,
583,
583,
583,
583,
583,
583,
583,
583,
583,
583,
583,
583,
583,
583,
583,
583,
583,
583,
583,
583,
583,
583,
583,
583,
583,
583,
583,
583,
583,
583,
583,
583,
583,
583,
583,
583,
583,
583,
583,
583,
583,
583,
583,
583,
583,
583,
583,
583,
583,
583,
583,
583,
583,
583,
583,
583,
583,
583,
583,
583,
583,
583,
583,
583,
583,
583,
583,
583,
583,
583,
583,
583,
583,
583,
583,
583,
583,
583,
583,
583,
583,
583,
583,
583,
583,
583,
583,
583,
583,
583,
583,
583,
583,
583,
583,
583,
583,
583,
583,
583,
583,
583,
583,
583,
583,
583,
583,
583,
583,
583,
583,
583,
583,
583,
583,
583,
583,
583,
583,
583,
583,
583,
583,
583,
583,
583,
583,
583,
583,
583,
583,
583,
583,
583,
583,
583,
583,
583,
583,
583,
583,
583,
583,
583,
583,
583,
583,
583,
583,
583,
583,
583,
583,
583,
583,
583,
583,
583,
583,
583,
583,
583,
583,
583,
583,
583,
583,
583,
583,
583,
583,
583,
583,
583,
583,
583,
583,
583,
583,
583,
583,
583,
583,
583,
583,
583,
583,
583,
583,
583,
583,
583,
583,
583,
583,
583,
583,
583,
583,
583,
583,
583,
583,
583,
583,
583,
583,
583,
583,
583,
583,
583,
583,
583,
583,
583,
583,
583,
583,
583,
583,
583,
583,
583,
583,
583,
583,
583,
583,
583,
583,
583,
583,
583,
583,
583,
583,
583,
583,
583,
583,
583,
583,
583,
583,
583,
583,
583,
583,
583,
583,
583,
583,
583,
583,
583,
583,
583,
583,
583,
583,
583,
583,
583,
583,
583,
583,
583,
583,
583,
583,
583,
583,
583,
583,
583,
583,
583,
583,
583,
583,
583,
583,
583,
583,
583,
583,
583,
583,
583,
583,
583,
583,
583,
583,
583,
583,
583,
583,
583,
583,
583,
583,
583,
583,
583,
583,
583,
583,
583,
583,
583,
583,
583,
583,
583,
583,
583,
583,
583,
583,
583,
583,
583,
583,
583,
583,
583,
583,
583,
583,
583,
583,
583,
583,
583,
583,
583,
583,
583,
583,
583,
583,
583,
583,
583,
583,
583,
583,
583,
583,
583,
583,
583,
583,
583,
583,
583,
583,
583,
583,
583,
583,
583,
583,
583,
583,
583,
583,
583,
583,
583,
583,
583,
583,
583,
583,
583,
583,
583,
583,
583,
583,
583,
583,
583,
583,
583,
583,
583,
583,
583,
583,
583,
583,
583,
583,
583,
583,
583,
583,
583,
583,
583,
583,
583,
583,
583,
583,
583,
583,
583,
583,
583,
583,
583,
583,
583,
583,
583,
583,
583,
583,
583,
583,
583,
583,
583,
583,
583,
583,
583,
583,
583,
583,
583,
583,
583,
583,
583,
583,
583,
583,
583,
583,
583,
583,
583,
583,
583,
583,
583,
583,
583,
583,
583,
583,
583,
583,
583,
583,
583,
583,
583,
583,
583,
583,
583,
583,
583,
583,
583,
583,
583,
583,
583,
583,
583,
583,
583,
583,
583,
583,
583,
583,
583,
583,
583,
583,
583,
583,
583,
583,
583,
583,
583,
583,
583,
583,
583,
583,
583,
583,
583,
583,
583,
583,
583,
583,
583,
583,
583,
583,
583,
583,
583,
583,
583,
583,
583,
583,
583,
583,
583,
583,
583,
583,
583,
583,
583,
583,
583,
583,
583,
583,
583,
583,
583,
583,
583,
583,
583,
583,
583,
583,
583,
583,
583,
583,
583,
583,
583,
583,
583,
583,
583,
583,
583,
583,
583,
583,
583,
583,
583,
583,
583,
583,
583,
583,
583,
583,
583,
583,
583,
583,
583,
583,
583,
583,
583,
583,
583,
583,
583,
583,
583,
583,
583,
583,
583,
583,
583,
583,
583,
583,
583,
583,
583,
583,
583,
583,
583,
583,
583,
583,
583,
583,
583,
583,
583,
583,
583,
583,
583,
583,
583,
583,
583,
583,
583,
583,
583,
583,
583,
583,
583,
583,
583,
583,
583,
583,
583,
583,
583,
583,
583,
583,
583,
583,
583,
583,
583,
583,
583,
583,
583,
583,
583,
583,
583,
583,
583,
583,
583,
583,
583,
583,
583,
583,
583,
583,
583,
583,
583,
583,
583,
583,
583,
583,
583,
583,
583,
583,
583,
583,
583,
583,
583,
583,
583,
583,
583,
583,
583,
583,
583,
583,
583,
583,
583,
583,
583,
583,
583,
583,
583,
583,
583,
583,
583,
583,
583,
583,
583,
583,
583,
583,
583,
583,
583,
583,
583,
583,
583,
583,
583,
583,
583,
583,
583,
583,
583,
583,
583,
583,
583,
583,
583,
583,
583,
583,
583,
583,
583,
583,
583,
583,
583,
583,
583,
583,
583,
583,
583,
583,
583,
583,
583,
583,
583,
583,
583,
583,
583,
583,
583,
583,
583,
583,
583,
583,
583,
583,
583,
583,
583,
583,
583,
583,
583,
583,
583,
583,
583,
583,
583,
583,
583,
583,
583,
583,
583,
583,
583,
583,
583,
583,
583,
583,
583,
583,
583,
583,
583,
583,
583,
583,
583,
583,
583,
583,
583,
583,
583,
583,
583,
583,
583,
583,
583,
583,
583,
583,
583,
583,
583,
583,
583,
583,
583,
583,
583,
583,
583,
583,
583,
583,
583,
583,
583,
583,
583,
583,
583,
583,
583,
583,
583,
583,
583,
583,
583,
583,
583,
583,
583,
583,
583,
583,
583,
583,
583,
583,
583,
583,
583,
583,
583,
583,
583,
583,
583,
583,
583,
583,
583,
583,
583,
583,
583,
583,
583,
583,
583,
583,
583,
583,
583,
583,
583,
583,
583,
583,
583,
583,
583,
583,
583,
583,
583,
583,
583,
583,
583,
583,
583,
583,
583,
583,
583,
583,
583,
583,
583,
583,
583,
583,
583,
583,
583,
583,
583,
583,
583,
583,
583,
583,
583,
583,
583,
583,
583,
583,
583,
583,
583,
583,
583,
583,
583,
583,
583,
583,
583,
583,
583,
583,
583,
583,
583,
583,
583,
583,
583,
583,
583,
583,
583,
