5-grundlagen-opAmps/data/ALL0015/A0015CH1.CSV

Memory Length,4000,
Trigger Level,0.00000e+00,
Source,CH1,
Probe,1.0X,
Vertical Units,V,
Vertical Scale,5.00000e-02,
Vertical Position,0.00000e+00,
Horizontal Units,S,
Horizontal Scale,5.00000e-06,
Horizontal Position,5.0000000e-06,
Horizontal Mode,Main,
Sampling Period,2.00000e-08,
Firmware,V1.14,
Time, ,
Mode,Fast,
Waveform Data,
-8,
-8,
-8,
-8,
-8,
-9,
-9,
-13,
-13,
-7,
-19,
-13,
-13,
-14,
-14,
-16,
-16,
-12,
-12,
-19,
-19,
-16,
-16,
-16,
-16,
-14,
-14,
-24,
-13,
-13,
-25,
-16,
-16,
-20,
-20,
-19,
-19,
-16,
-16,
-16,
-16,
-22,
-22,
-23,
-23,
-16,
-32,
-16,
-29,
-23,
-23,
-22,
-22,
-21,
-21,
-27,
-27,
-25,
-25,
-24,
-24,
-26,
-26,
-22,
-22,
-32,
-32,
-21,
-32,
-25,
-25,
-30,
-30,
-28,
-28,
-26,
-26,
-28,
-28,
-27,
-27,
-28,
-28,
-26,
-26,
-36,
-24,
-24,
-24,
-30,
-30,
-30,
-30,
-32,
-32,
-32,
-32,
-33,
-33,
-33,
-33,
-29,
-29,
-27,
-27,
-31,
-31,
-34,
-34,
-28,
-28,
-30,
-30,
-34,
-23,
-32,
-32,
-29,
-29,
-32,
-32,
-28,
-28,
-34,
-34,
-29,
-29,
-33,
-33,
-32,
-32,
-32,
-32,
-26,
-26,
-36,
-24,
-32,
-32,
-30,
-30,
-28,
-28,
-32,
-32,
-25,
-25,
-26,
-26,
-28,
-28,
-26,
-26,
-30,
-30,
-19,
-31,
-28,
-28,
-24,
-24,
-26,
-26,
-25,
-25,
-27,
-27,
-22,
-22,
-22,
-22,
-18,
-18,
-24,
-24,
-15,
-26,
-25,
-25,
-19,
-19,
-20,
-20,
-18,
-18,
-16,
-16,
-17,
-17,
-20,
-20,
-16,
-16,
-23,
-10,
-12,
-12,
-13,
-13,
-14,
-14,
-14,
-14,
-12,
-12,
-12,
-12,
-12,
-12,
-14,
-14,
-18,
-7,
-6,
-6,
-15,
-15,
-7,
-7,
-12,
-12,
-7,
-7,
-10,
-10,
-4,
-4,
-7,
-7,
-5,
-5,
-10,
-10,
1,
1,
-9,
-9,
-5,
-5,
-6,
-6,
-2,
-2,
-1,
-1,
-4,
-4,
-4,
-4,
0,
0,
4,
4,
0,
0,
2,
2,
3,
3,
-2,
9,
-1,
10,
3,
3,
3,
3,
3,
3,
6,
6,
13,
1,
5,
5,
6,
6,
9,
9,
13,
2,
6,
6,
14,
14,
8,
8,
12,
12,
8,
8,
10,
10,
11,
11,
12,
12,
13,
13,
19,
8,
17,
17,
8,
8,
16,
16,
19,
19,
18,
18,
11,
11,
19,
19,
19,
19,
17,
17,
22,
11,
21,
21,
13,
13,
19,
19,
18,
18,
20,
20,
18,
18,
15,
15,
18,
18,
19,
19,
15,
15,
16,
16,
16,
16,
18,
18,
19,
19,
22,
22,
23,
23,
19,
19,
18,
18,
26,
15,
15,
27,
13,
13,
21,
21,
20,
20,
16,
16,
14,
14,
21,
21,
18,
18,
17,
17,
13,
13,
24,
24,
19,
19,
19,
19,
20,
20,
19,
19,
13,
13,
17,
17,
18,
18,
20,
20,
11,
23,
12,
12,
21,
21,
15,
15,
14,
14,
14,
14,
12,
12,
11,
11,
14,
14,
18,
18,
12,
12,
11,
11,
13,
13,
14,
14,
14,
14,
11,
11,
15,
15,
10,
10,
11,
11,
8,
8,
11,
11,
5,
5,
5,
5,
9,
9,
8,
8,
0,
0,
10,
10,
9,
9,
4,
4,
6,
6,
6,
6,
6,
6,
2,
2,
-1,
-1,
5,
-6,
5,
5,
-4,
-4,
-1,
-1,
0,
0,
-3,
-3,
-5,
-5,
0,
0,
-4,
-4,
-2,
-2,
-12,
-12,
0,
0,
-7,
-7,
-11,
-11,
-9,
-9,
-6,
-6,
-8,
-8,
-9,
-9,
-12,
-12,
-8,
-19,
-19,
-4,
-9,
-9,
-14,
-14,
-14,
-14,
-14,
-14,
-17,
-17,
-16,
-16,
-17,
-17,
-15,
-15,
-14,
-14,
-19,
-19,
-21,
-21,
-17,
-17,
-17,
-17,
-23,
-23,
-22,
-22,
-17,
-17,
-23,
-23,
-17,
-17,
-24,
-24,
-21,
-21,
-27,
-27,
-26,
-26,
-24,
-24,
-22,
-22,
-29,
-29,
-27,
-27,
-25,
-25,
-24,
-24,
-29,
-29,
-22,
-22,
-22,
-22,
-27,
-27,
-27,
-27,
-31,
-31,
-22,
-33,
-29,
-29,
-28,
-28,
-31,
-31,
-26,
-26,
-32,
-32,
-32,
-32,
-27,
-27,
-27,
-27,
-32,
-32,
-24,
-24,
-33,
-33,
-28,
-28,
-31,
-31,
-32,
-32,
-27,
-27,
-30,
-30,
-32,
-32,
-30,
-30,
-37,
-23,
-29,
-29,
-27,
-27,
-31,
-31,
-28,
-28,
-30,
-30,
-29,
-29,
-31,
-31,
-32,
-32,
-34,
-34,
-23,
-34,
-31,
-31,
-29,
-29,
-27,
-27,
-25,
-25,
-32,
-32,
-25,
-25,
-26,
-26,
-26,
-26,
-28,
-28,
-20,
-33,
-29,
-29,
-27,
-27,
-27,
-27,
-25,
-25,
-21,
-21,
-25,
-25,
-23,
-23,
-23,
-23,
-17,
-29,
-21,
-21,
-17,
-17,
-20,
-20,
-22,
-22,
-23,
-23,
-17,
-17,
-19,
-19,
-17,
-17,
-17,
-17,
-13,
-13,
-17,
-17,
-19,
-19,
-15,
-15,
-13,
-13,
-17,
-17,
-10,
-10,
-14,
-14,
-13,
-13,
-16,
-16,
-15,
-15,
-11,
-11,
-13,
-13,
-12,
-12,
-5,
-5,
-4,
-4,
-13,
-13,
-5,
-5,
-5,
-5,
-2,
-2,
-11,
-11,
-1,
-1,
-7,
-7,
-4,
-4,
-3,
-3,
2,
2,
-7,
-7,
-1,
-1,
-2,
-2,
3,
3,
1,
1,
-3,
-3,
0,
0,
3,
3,
0,
0,
0,
0,
1,
1,
4,
4,
6,
6,
10,
10,
10,
10,
6,
6,
6,
6,
12,
12,
5,
5,
3,
3,
12,
12,
11,
11,
10,
10,
9,
9,
13,
13,
11,
11,
12,
12,
9,
9,
19,
19,
15,
15,
15,
15,
13,
13,
17,
17,
11,
11,
14,
14,
18,
18,
18,
18,
12,
12,
13,
13,
24,
12,
15,
15,
16,
16,
18,
18,
16,
16,
16,
16,
20,
20,
21,
21,
20,
20,
16,
16,
19,
19,
22,
22,
20,
20,
19,
19,
22,
22,
20,
20,
21,
21,
19,
19,
19,
19,
16,
16,
14,
14,
21,
21,
21,
21,
14,
26,
23,
23,
23,
23,
17,
17,
19,
19,
21,
21,
21,
21,
17,
17,
16,
16,
21,
21,
23,
12,
14,
14,
18,
18,
16,
16,
17,
17,
13,
13,
19,
19,
18,
18,
17,
17,
11,
11,
19,
19,
19,
8,
12,
12,
13,
13,
17,
17,
18,
18,
12,
12,
14,
14,
15,
15,
5,
18,
13,
13,
10,
10,
11,
11,
13,
13,
8,
8,
10,
10,
9,
9,
8,
8,
10,
10,
8,
8,
3,
3,
11,
0,
8,
8,
6,
6,
2,
2,
8,
8,
2,
2,
3,
3,
-1,
-1,
-2,
-2,
-2,
-2,
-7,
-7,
-1,
-1,
1,
1,
-4,
-4,
-8,
-8,
-2,
-2,
-6,
-6,
-8,
-8,
-5,
-5,
-3,
-3,
-10,
-10,
-10,
-10,
-11,
-11,
-5,
-5,
-13,
-13,
-10,
-10,
-12,
-12,
-10,
-10,
-19,
-6,
-16,
-16,
-14,
-14,
-13,
-13,
-19,
-19,
-11,
-11,
-21,
-21,
-15,
-15,
-14,
-14,
-18,
-18,
-12,
-12,
-21,
-21,
-17,
-17,
-16,
-16,
-25,
-14,
-19,
-19,
-15,
-27,
-22,
-22,
-18,
-18,
-23,
-23,
-17,
-17,
-26,
-26,
-24,
-24,
-26,
-26,
-17,
-32,
-26,
-26,
-19,
-19,
-23,
-23,
-24,
-24,
-29,
-29,
-20,
-31,
-24,
-24,
-26,
-26,
-29,
-29,
-21,
-35,
-30,
-30,
-27,
-27,
-27,
-27,
-29,
-29,
-26,
-26,
-33,
-33,
-27,
-27,
-30,
-30,
-26,
-37,
-32,
-32,
-25,
-25,
-30,
-30,
-31,
-31,
-32,
-32,
-27,
-27,
-34,
-34,
-30,
-30,
-31,
-31,
-27,
-27,
-30,
-30,
-36,
-36,
-31,
-31,
-30,
-30,
-30,
-30,
-26,
-26,
-31,
-31,
-31,
-31,
-34,
-34,
-34,
-22,
-32,
-32,
-34,
-34,
-27,
-27,
-28,
-28,
-24,
-24,
-32,
-32,
-25,
-25,
-28,
-28,
-24,
-24,
-31,
-31,
-21,
-21,
-30,
-30,
-27,
-27,
-24,
-24,
-21,
-21,
-28,
-28,
-20,
-20,
-24,
-24,
-19,
-19,
-20,
-20,
-27,
-27,
-18,
-18,
-21,
-21,
-21,
-21,
-22,
-22,
-21,
-21,
-18,
-18,
-17,
-17,
-15,
-15,
-14,
-14,
-19,
-19,
-14,
-14,
-14,
-14,
-18,
-18,
-18,
-18,
-12,
-12,
-11,
-11,
-11,
-11,
-14,
-14,
-12,
-12,
-14,
-14,
-11,
-11,
-12,
-12,
-4,
-4,
-6,
-6,
-5,
-5,
-8,
-8,
-5,
-5,
-10,
-10,
-10,
-10,
-4,
-4,
-6,
-6,
-8,
3,
-8,
-8,
3,
-10,
-6,
-6,
0,
0,
-2,
-2,
-1,
-1,
-3,
-3,
3,
3,
2,
2,
1,
1,
-2,
-2,
3,
3,
7,
7,
2,
2,
4,
4,
7,
7,
9,
9,
8,
8,
5,
5,
8,
8,
2,
14,
3,
3,
11,
11,
9,
9,
7,
7,
14,
14,
17,
17,
11,
11,
14,
14,
14,
14,
19,
6,
13,
13,
16,
16,
15,
15,
20,
20,
13,
13,
17,
17,
15,
15,
18,
18,
13,
13,
23,
11,
23,
23,
16,
16,
18,
18,
24,
13,
22,
22,
14,
14,
19,
19,
22,
22,
21,
21,
20,
20,
21,
21,
19,
19,
16,
16,
23,
23,
23,
23,
17,
17,
19,
19,
15,
15,
23,
23,
18,
18,
15,
15,
20,
20,
20,
20,
16,
16,
26,
15,
22,
22,
19,
19,
16,
16,
23,
23,
17,
17,
16,
16,
16,
16,
18,
18,
12,
24,
12,
12,
21,
21,
16,
16,
14,
14,
13,
13,
18,
18,
17,
17,
13,
13,
15,
15,
20,
8,
8,
8,
14,
14,
17,
17,
18,
18,
10,
10,
13,
13,
14,
14,
14,
14,
6,
17,
9,
9,
10,
10,
9,
9,
10,
10,
15,
15,
6,
6,
10,
10,
8,
8,
5,
5,
11,
-1,
5,
5,
6,
6,
7,
7,
4,
4,
5,
5,
6,
6,
1,
1,
1,
1,
1,
1,
5,
5,
-4,
-4,
1,
1,
-1,
-1,
1,
1,
-4,
-4,
1,
1,
-2,
-2,
-7,
-7,
-9,
-9,
-2,
-2,
-2,
-2,
-9,
-9,
-9,
-9,
-4,
-4,
-13,
-13,
-10,
-10,
-9,
-9,
-11,
-11,
-7,
-7,
-15,
-15,
-10,
-10,
-10,
-10,
-12,
-12,
-15,
-15,
-11,
-11,
-12,
-12,
-14,
-14,
-15,
-15,
-13,
-13,
-22,
-22,
-18,
-18,
-18,
-18,
-15,
-26,
-17,
-17,
-23,
-23,
-20,
-20,
-22,
-22,
-20,
-20,
-18,
-18,
-22,
-22,
-25,
-25,
-24,
-24,
-25,
-25,
-25,
-25,
-26,
-26,
-19,
-19,
-25,
-25,
-24,
-24,
-30,
-30,
-26,
-26,
-28,
-28,
-27,
-27,
-32,
-32,
-22,
-34,
-33,
-33,
-33,
-33,
-26,
-26,
-28,
-28,
-33,
-33,
-26,
-26,
-30,
-30,
-29,
-29,
-28,
-28,
-37,
-37,
-25,
-25,
-33,
-33,
-30,
-30,
-33,
-33,
-31,
-31,
-33,
-33,
-29,
-29,
-31,
-31,
-26,
-37,
-37,
-26,
-27,
-27,
-31,
-31,
-32,
-32,
-34,
-34,
-28,
-28,
-28,
-28,
-29,
-29,
-30,
-30,
-30,
-30,
-34,
-22,
-29,
-29,
-28,
-28,
-26,
-26,
-26,
-26,
-23,
-23,
-27,
-27,
-27,
-27,
-30,
-30,
-31,
-31,
-22,
-22,
-25,
-25,
-27,
-27,
-28,
-28,
-18,
-32,
-26,
-26,
-19,
-19,
-24,
-24,
-23,
-23,
-25,
-25,
-18,
-18,
-22,
-22,
-22,
-22,
-23,
-23,
-18,
-18,
-15,
-15,
-22,
-22,
-18,
-18,
-19,
-19,
-15,
-15,
-17,
-17,
-16,
-16,
-15,
-15,
-22,
-9,
-21,
-8,
-12,
-12,
-16,
-16,
-14,
-14,
-12,
-12,
-9,
-9,
-13,
-13,
-10,
-10,
-8,
-8,
-4,
-16,
-11,
-11,
-4,
-4,
-8,
-8,
-7,
-7,
-10,
-10,
-8,
-8,
-8,
-8,
-4,
-4,
-8,
-8,
1,
1,
2,
2,
-7,
-7,
-1,
-1,
0,
0,
1,
1,
-5,
-5,
1,
1,
3,
3,
6,
-5,
3,
3,
7,
7,
0,
0,
4,
4,
8,
8,
7,
7,
4,
4,
6,
6,
5,
5,
10,
10,
8,
8,
6,
6,
10,
10,
10,
10,
8,
8,
17,
4,
15,
15,
13,
13,
9,
9,
17,
17,
10,
10,
10,
10,
15,
15,
15,
15,
11,
11,
9,
9,
19,
19,
15,
15,
15,
15,
12,
12,
21,
21,
19,
19,
16,
16,
20,
20,
21,
21,
13,
13,
16,
16,
19,
19,
20,
20,
14,
26,
15,
15,
20,
20,
19,
19,
15,
15,
16,
16,
17,
17,
15,
15,
19,
19,
22,
22,
17,
17,
18,
18,
19,
19,
18,
18,
23,
23,
18,
18,
22,
22,
19,
19,
18,
18,
18,
18,
20,
20,
16,
16,
18,
18,
17,
17,
23,
11,
11,
22,
20,
20,
21,
21,
18,
18,
18,
18,
20,
20,
20,
20,
16,
16,
10,
10,
20,
7,
23,
10,
12,
12,
15,
15,
17,
17,
12,
12,
12,
12,
14,
14,
12,
12,
18,
7,
8,
8,
16,
16,
14,
14,
11,
11,
11,
11,
13,
13,
9,
9,
10,
10,
7,
7,
11,
11,
1,
12,
9,
9,
8,
8,
7,
7,
4,
4,
-1,
-1,
2,
2,
-2,
-2,
1,
1,
4,
4,
1,
1,
-3,
-3,
0,
0,
-3,
-3,
-4,
-4,
-5,
-5,
1,
1,
-6,
-6,
-5,
-5,
-8,
-8,
-7,
-7,
-10,
-10,
-9,
-9,
-11,
-11,
-3,
-15,
-15,
-3,
-14,
-14,
-12,
-12,
-11,
-11,
-16,
-16,
-13,
-13,
-12,
-12,
-14,
-14,
-12,
-12,
-17,
-17,
-7,
-21,
-19,
-19,
-14,
-14,
-18,
-18,
-17,
-17,
-21,
-21,
-17,
-17,
-16,
-16,
-11,
-25,
-22,
-22,
-15,
-26,
-23,
-23,
-20,
-20,
-22,
-22,
-20,
-20,
-20,
-20,
-23,
-23,
-25,
-25,
-21,
-21,
-30,
-19,
-21,
-21,
-22,
-22,
-23,
-23,
-25,
-25,
-22,
-22,
-26,
-26,
-25,
-25,
-30,
-30,
-33,
-33,
-22,
-33,
-30,
-30,
-25,
-25,
-31,
-31,
-25,
-25,
-32,
-32,
-27,
-27,
-32,
-32,
-28,
-28,
-33,
-33,
-25,
-25,
-31,
-31,
-30,
-30,
-32,
-32,
-31,
-31,
-29,
-29,
-35,
-35,
-33,
-33,
-33,
-33,
-26,
-37,
-32,
-32,
-29,
-29,
-28,
-28,
-35,
-35,
-36,
-36,
-31,
-31,
-33,
-33,
-32,
-32,
-31,
-31,
-24,
-35,
-28,
-28,
-30,
-30,
-27,
-27,
-21,
-35,
-30,
-30,
-24,
-24,
-29,
-29,
-25,
-25,
-32,
-32,
-27,
-27,
-29,
-29,
-26,
-26,
-27,
-27,
-18,
-32,
-18,
-30,
-28,
-28,
-21,
-21,
-19,
-19,
-18,
-18,
-26,
-26,
-19,
-19,
-18,
-18,
-18,
-18,
-17,
-17,
-15,
-15,
-22,
-22,
-16,
-16,
-16,
-16,
-15,
-15,
-19,
-19,
-19,
-19,
-20,
-20,
-13,
-13,
-18,
-18,
-19,
-8,
-14,
-14,
-12,
-12,
-17,
-17,
-8,
-8,
-11,
-11,
-11,
-11,
-13,
-13,
-5,
-16,
-13,
-13,
-15,
-15,
-9,
-9,
-9,
-9,
-11,
-11,
-12,
-12,
-5,
-5,
-7,
-7,
-6,
-6,
-9,
-9,
0,
0,
-1,
-1,
-4,
-4,
-2,
-2,
-1,
-1,
-7,
-7,
-1,
-1,
2,
2,
4,
4,
-6,
8,
-1,
-1,
9,
9,
2,
2,
2,
2,
4,
4,
2,
2,
4,
4,
4,
4,
11,
11,
6,
6,
6,
6,
10,
10,
13,
13,
15,
15,
11,
11,
14,
14,
11,
11,
13,
13,
11,
11,
15,
15,
11,
11,
13,
13,
17,
17,
21,
21,
11,
11,
21,
21,
16,
16,
15,
15,
16,
16,
21,
21,
19,
19,
17,
17,
14,
14,
24,
10,
23,
23,
18,
18,
17,
17,
21,
21,
17,
17,
16,
16,
21,
21,
18,
18,
23,
23,
12,
12,
25,
25,
21,
21,
17,
17,
17,
17,
21,
21,
21,
21,
18,
18,
18,
18,
23,
11,
11,
26,
22,
22,
19,
19,
21,
21,
19,
19,
17,
17,
16,
16,
18,
18,
21,
21,
21,
21,
18,
18,
17,
17,
19,
19,
19,
19,
16,
16,
15,
15,
19,
19,
16,
16,
20,
20,
14,
14,
17,
17,
14,
14,
15,
15,
13,
13,
20,
20,
10,
10,
11,
11,
12,
12,
13,
13,
8,
8,
15,
15,
15,
15,
12,
12,
9,
9,
5,
16,
13,
13,
8,
8,
8,
8,
3,
3,
10,
10,
2,
2,
4,
4,
8,
8,
9,
-2,
1,
1,
7,
7,
0,
0,
3,
3,
-1,
-1,
0,
0,
4,
4,
-1,
-1,
-3,
-3,
-1,
-1,
-8,
4,
-2,
-2,
-2,
-2,
-2,
-2,
-2,
-2,
-7,
-7,
-6,
-6,
-8,
-8,
-13,
0,
-12,
-12,
-1,
-14,
-11,
-11,
-11,
-11,
-11,
-11,
-6,
-6,
-15,
-15,
-12,
-12,
-13,
-13,
-12,
-12,
-15,
-15,
-7,
-20,
-17,
-17,
-15,
-15,
-17,
-17,
-17,
-17,
-14,
-14,
-17,
-17,
-19,
-19,
-17,
-17,
-12,
-24,
-18,
-18,
-16,
-16,
-20,
-20,
-23,
-23,
-26,
-26,
-20,
-20,
-21,
-21,
-25,
-25,
-21,
-21,
-19,
-30,
-24,
-24,
-26,
-26,
-21,
-21,
-22,
-22,
-29,
-29,
-24,
-24,
-27,
-27,
-25,
-25,
-33,
-33,
-31,
-31,
-29,
-29,
-28,
-28,
-28,
-28,
-23,
-34,
-26,
-26,
-32,
-32,
-30,
-30,
-26,
-26,
-25,
-25,
-35,
-35,
-28,
-28,
-29,
-29,
-27,
-27,
-29,
-29,
-26,
-26,
-34,
-34,
-32,
-32,
-33,
-33,
-29,
-29,
-29,
-29,
-32,
-32,
-31,
-31,
-29,
-29,
-31,
-31,
-32,
-32,
-32,
-32,
-29,
-29,
-30,
-30,
-27,
-27,
-25,
-25,
-30,
-30,
-31,
-31,
-23,
-35,
-32,
-32,
-32,
-32,
-26,
-26,
-28,
-28,
-28,
-28,
-30,
-30,
-25,
-25,
-25,
-25,
-28,
-28,
-31,
-31,
-20,
-20,
-25,
-25,
-22,
-22,
-22,
-22,
-20,
-20,
-25,
-25,
-22,
-22,
-24,
-24,
-18,
-18,
-27,
-16,
-25,
-25,
-17,
-17,
-18,
-18,
-21,
-21,
-22,
-22,
-18,
-18,
-19,
-19,
-19,
-19,
-12,
-23,
-19,
-19,
-17,
-17,
-15,
-15,
-14,
-14,
-12,
-12,
-14,
-14,
-11,
-11,
-13,
-13,
-14,
-14,
-14,
-14,
-8,
-8,
-14,
-14,
-10,
-10,
-8,
-8,
-6,
-6,
-13,
-1,
-5,
-5,
-5,
-5,
-4,
-4,
-1,
-1,
-2,
-2,
1,
1,
-1,
-1,
-6,
-6,
3,
3,
4,
4,
-3,
-3,
2,
2,
1,
1,
2,
2,
-2,
-2,
4,
4,
5,
5,
9,
9,
-1,
-1,
10,
10,
7,
7,
6,
6,
4,
4,
13,
2,
12,
12,
9,
9,
7,
7,
15,
15,
5,
5,
16,
5,
11,
11,
11,
11,
12,
12,
7,
7,
14,
14,
14,
14,
14,
14,
20,
6,
15,
15,
11,
11,
18,
18,
13,
13,
16,
16,
13,
13,
18,
18,
18,
18,
22,
22,
12,
12,
18,
18,
16,
16,
16,
16,
16,
16,
21,
21,
15,
15,
17,
17,
16,
16,
19,
19,
13,
27,
20,
20,
21,
21,
19,
19,
20,
20,
15,
15,
24,
24,
18,
18,
22,
22,
15,
26,
21,
21,
15,
15,
18,
18,
20,
20,
24,
24,
17,
17,
21,
21,
17,
17,
19,
19,
17,
17,
17,
17,
24,
24,
17,
17,
16,
16,
19,
19,
14,
14,
19,
19,
18,
18,
21,
21,
22,
11,
17,
17,
19,
19,
17,
17,
12,
12,
10,
10,
20,
9,
11,
11,
14,
14,
9,
9,
16,
16,
9,
9,
13,
13,
11,
11,
11,
11,
7,
7,
15,
15,
8,
8,
10,
10,
5,
5,
5,
5,
10,
10,
5,
5,
3,
3,
5,
5,
10,
-2,
4,
4,
4,
4,
1,
1,
-1,
-1,
-3,
-3,
2,
2,
0,
0,
-4,
-4,
-1,
-1,
4,
4,
-2,
-2,
-4,
-4,
-3,
-3,
-1,
-1,
-4,
-4,
-6,
-6,
-7,
-7,
-1,
-14,
-14,
-1,
-10,
-10,
-11,
-11,
-10,
-10,
-12,
-12,
-7,
-7,
-7,
-7,
-12,
-12,
-10,
-10,
-7,
-18,
-5,
-20,
-17,
-17,
-11,
-11,
-14,
-14,
-12,
-12,
-15,
-15,
-13,
-13,
-17,
-17,
-18,
-18,
-19,
-19,
-13,
-13,
-16,
-16,
-21,
-21,
-21,
-21,
-17,
-17,
-22,
-22,
-23,
-23,
-21,
-21,
-17,
-17,
-21,
-21,
-17,
-30,
-19,
-19,
-22,
-22,
-25,
-25,
-18,
-32,
-27,
-27,
-31,
-31,
-25,
-25,
-30,
-30,
-28,
-28,
-32,
-32,
-28,
-28,
-27,
-27,
-30,
-30,
-34,
-34,
-24,
-24,
-30,
-30,
-27,
-27,
-33,
-33,
-25,
-25,
-35,
-35,
-32,
-32,
-32,
-32,
-28,
-28,
-37,
-24,
-35,
-35,
-27,
-27,
-30,
-30,
-35,
-24,
-34,
-34,
-30,
-30,
-30,
-30,
-35,
-35,
-26,
-26,
-32,
-32,
-33,
-33,
-29,
-29,
-30,
-30,
-26,
-26,
-34,
-34,
-29,
-29,
-28,
-28,
-30,
-30,
-32,
-32,
-25,
-25,
-33,
-33,
-30,
-30,
-28,
-28,
-24,
-24,
-32,
-32,
-26,
-26,
-26,
-26,
-24,
-24,
-22,
-22,
-21,
-21,
-20,
-20,
-24,
-24,
-26,
-26,
-19,
-19,
-19,
-19,
-21,
-21,
-21,
-21,
-18,
-18,
-19,
-19,
-24,
-24,
-15,
-15,
-19,
-19,
-17,
-17,
-24,
-24,
-15,
-15,
-17,
-17,
-16,
-16,
-20,
-20,
-10,
-23,
-12,
-12,
-15,
-15,
-17,
-17,
-10,
-10,
-18,
-18,
-11,
-11,
-14,
-14,
-14,
-14,
-9,
-9,
-16,
-16,
-7,
-7,
-10,
-10,
-10,
-10,
-4,
-4,
-9,
-9,
-11,
-11,
-6,
-6,
-9,
-9,
-4,
-4,
-11,
1,
-4,
-4,
-3,
-3,
1,
1,
-6,
-6,
-2,
-2,
-4,
-4,
-2,
-2,
0,
0,
4,
4,
-2,
-2,
1,
1,
0,
0,
5,
5,
-3,
11,
5,
5,
6,
6,
5,
5,
9,
9,
3,
3,
12,
12,
7,
7,
10,
10,
4,
16,
13,
13,
5,
5,
9,
9,
12,
12,
15,
15,
9,
9,
16,
16,
14,
14,
15,
15,
12,
12,
10,
22,
20,
20,
15,
15,
15,
15,
14,
14,
14,
14,
17,
17,
17,
17,
21,
21,
21,
10,
18,
18,
22,
22,
18,
18,
16,
16,
13,
13,
20,
20,
17,
17,
19,
19,
14,
14,
21,
21,
13,
24,
22,
22,
19,
19,
20,
20,
16,
16,
22,
22,
16,
16,
20,
20,
14,
26,
15,
15,
25,
25,
17,
17,
18,
18,
19,
19,
25,
14,
17,
17,
18,
18,
18,
18,
17,
17,
15,
15,
22,
22,
15,
15,
15,
15,
17,
17,
23,
12,
18,
18,
17,
17,
15,
15,
19,
19,
20,
20,
18,
18,
16,
16,
19,
19,
10,
10,
11,
11,
13,
13,
14,
14,
12,
12,
18,
18,
18,
7,
12,
12,
11,
11,
18,
4,
18,
4,
5,
5,
14,
14,
9,
9,
9,
9,
8,
8,
10,
10,
6,
6,
7,
7,
6,
6,
12,
1,
7,
7,
-2,
-2,
3,
3,
5,
5,
3,
3,
-2,
-2,
1,
1,
2,
2,
0,
0,
3,
3,
4,
4,
-6,
-6,
-4,
-4,
-1,
-1,
-6,
-6,
-8,
-8,
-4,
-4,
-8,
-8,
-7,
-7,
-11,
-11,
-9,
-9,
-10,
-10,
-12,
-12,
-12,
-12,
-6,
-6,
-9,
-9,
-12,
-12,
-15,
-15,
-8,
-20,
-20,
-9,
-17,
-17,
-12,
-12,
-11,
-11,
-21,
-9,
-19,
-19,
-12,
-12,
-16,
-16,
-21,
-21,
-20,
-20,
-17,
-17,
-18,
-18,
-19,
-19,
-16,
-16,
-20,
-20,
-24,
-24,
-20,
-20,
-22,
-22,
-19,
-19,
-27,
-27,
-24,
-24,
-20,
-20,
-25,
-25,
-24,
-24,
-24,
-24,
-29,
-29,
-29,
-29,
-26,
-26,
-22,
-22,
-29,
-29,
-26,
-26,
-27,
-27,
-26,
-26,
-26,
-26,
-23,
-23,
-23,
-23,
-31,
-31,
-30,
-30,
-28,
-28,
-27,
-27,
-32,
-32,
-31,
-31,
-28,
-28,
-29,
-29,
-36,
-36,
-26,
-26,
-28,
-28,
-30,
-30,
-32,
-32,
-28,
-28,
-28,
-28,
-31,
-31,
-34,
-34,
-24,
-35,
-24,
-35,
-31,
-31,
-29,
-29,
-30,
-30,
-36,
-24,
-31,
-31,
-30,
-30,
-29,
-29,
-25,
-25,
-35,
-24,
-25,
-25,
-27,
-27,
-29,
-29,
-27,
-27,
-27,
-27,
-28,
-28,
-26,
-26,
-26,
-26,
-23,
-23,
-32,
-21,
-20,
-31,
-25,
-25,
-23,
-23,
-27,
-27,
-23,
-23,
-27,
-27,
-25,
-25,
-20,
-20,
-16,
-29,
-23,
-23,
-25,
-25,
-17,
-17,
-19,
-19,
-23,
-23,
-16,
-16,
-15,
-15,
-18,
-18,
-16,
-16,
-21,
-21,
-15,
-15,
-18,
-18,
-18,
-18,
-19,
-19,
-11,
-11,
-19,
-19,
-16,
-16,
-14,
-14,
-12,
-12,
-15,
-15,
-7,
-7,
-10,
-10,
-9,
-9,
-12,
-12,
-12,
-12,
-3,
-3,
-9,
-9,
-5,
-5,
-7,
-7,
-7,
-7,
-8,
-8,
-4,
-4,
-3,
-3,
1,
1,
-4,
-4,
2,
2,
-8,
3,
-2,
-2,
-2,
-2,
3,
3,
3,
3,
2,
2,
2,
2,
7,
-4,
-4,
12,
7,
7,
8,
8,
5,
5,
6,
6,
10,
10,
6,
6,
9,
9,
6,
6,
6,
6,
16,
2,
6,
6,
13,
13,
11,
11,
15,
15,
12,
12,
17,
17,
12,
12,
15,
15,
10,
10,
22,
7,
12,
12,
15,
15,
17,
17,
18,
18,
16,
16,
13,
13,
17,
17,
18,
18,
19,
19,
22,
22,
19,
19,
18,
18,
16,
16,
15,
15,
17,
17,
17,
17,
20,
20,
22,
22,
24,
24,
17,
17,
19,
19,
21,
21,
22,
22,
13,
13,
23,
23,
15,
15,
18,
18,
16,
16,
20,
20,
15,
15,
18,
18,
18,
18,
22,
22,
22,
11,
14,
14,
23,
23,
18,
18,
22,
22,
15,
15,
20,
20,
17,
17,
18,
18,
21,
21,
25,
10,
13,
13,
19,
19,
16,
16,
17,
17,
15,
15,
17,
17,
17,
17,
16,
16,
12,
12,
15,
15,
10,
10,
14,
14,
13,
13,
18,
18,
17,
17,
14,
14,
12,
12,
17,
5,
7,
7,
3,
15,
14,
14,
9,
9,
8,
8,
4,
4,
13,
13,
7,
7,
7,
7,
2,
2,
9,
9,
2,
2,
8,
8,
4,
4,
3,
3,
-1,
-1,
1,
1,
3,
3,
1,
1,
-4,
-4,
-4,
-4,
2,
2,
-5,
-5,
-3,
-3,
-2,
-2,
-11,
3,
-9,
-9,
-6,
-6,
-5,
-5,
-9,
-9,
-8,
-8,
-4,
-4,
-8,
-8,
-9,
-9,
-8,
-8,
-4,
