3-eigenschaften-von-transistoren/daten/ALL0001/A0001CH2.CSV

Memory Length,4000,
Trigger Level,2.96000e+00,
Source,CH2,
Probe,1.0X,
Vertical Units,V,
Vertical Scale,2.00000e+00,
Vertical Position,0.00000e+00,
Horizontal Units,S,
Horizontal Scale,5.00000e-04,
Horizontal Position,0.0000000e+00,
Horizontal Mode,XY Mode,
Sampling Period,2.00000e-06,
Firmware,V1.14,
Time, ,
Mode,Fast,
Waveform Data,
5,
5,
5,
5,
5,
6,
6,
6,
6,
6,
6,
6,
6,
6,
6,
8,
8,
8,
8,
8,
8,
8,
8,
9,
9,
9,
9,
10,
10,
10,
10,
10,
10,
10,
10,
10,
10,
11,
11,
12,
12,
12,
12,
12,
12,
12,
12,
13,
13,
13,
13,
13,
13,
13,
13,
14,
14,
15,
15,
15,
15,
16,
16,
15,
15,
16,
16,
16,
16,
16,
16,
17,
17,
18,
18,
17,
17,
17,
17,
18,
18,
18,
18,
18,
18,
19,
19,
19,
19,
19,
19,
20,
20,
20,
20,
21,
21,
21,
21,
21,
21,
22,
22,
23,
23,
23,
23,
23,
23,
23,
23,
24,
24,
24,
24,
24,
24,
25,
25,
24,
24,
25,
25,
25,
25,
26,
26,
26,
26,
26,
26,
27,
27,
27,
27,
27,
27,
27,
27,
27,
27,
28,
28,
28,
28,
28,
28,
28,
28,
28,
28,
28,
28,
28,
28,
27,
27,
27,
27,
28,
28,
28,
28,
28,
28,
27,
27,
28,
28,
27,
27,
28,
28,
28,
28,
28,
28,
28,
28,
28,
28,
28,
28,
27,
27,
28,
28,
28,
28,
28,
28,
28,
28,
28,
28,
28,
28,
28,
28,
27,
27,
28,
28,
27,
27,
28,
28,
28,
28,
28,
28,
28,
28,
27,
27,
28,
28,
28,
28,
28,
28,
28,
28,
28,
28,
28,
28,
28,
28,
28,
28,
27,
27,
28,
28,
28,
28,
28,
28,
28,
28,
28,
28,
28,
28,
28,
28,
28,
28,
28,
28,
28,
28,
28,
28,
29,
29,
28,
28,
28,
28,
28,
28,
28,
28,
28,
28,
29,
29,
29,
29,
28,
28,
28,
28,
28,
28,
29,
29,
29,
29,
28,
28,
28,
28,
28,
28,
28,
28,
28,
28,
28,
28,
28,
28,
28,
28,
28,
28,
28,
28,
29,
29,
28,
28,
28,
28,
28,
28,
28,
28,
29,
29,
29,
29,
28,
28,
29,
29,
29,
29,
28,
28,
28,
28,
29,
29,
29,
29,
28,
28,
28,
28,
29,
29,
28,
28,
28,
28,
28,
28,
29,
29,
28,
28,
29,
29,
29,
29,
28,
28,
29,
29,
29,
29,
28,
28,
29,
29,
29,
29,
28,
28,
28,
28,
29,
29,
28,
28,
29,
29,
29,
29,
29,
29,
29,
29,
29,
29,
28,
28,
29,
29,
28,
28,
28,
28,
29,
29,
29,
29,
29,
29,
29,
29,
29,
29,
29,
29,
29,
29,
28,
28,
28,
28,
29,
29,
29,
29,
29,
29,
29,
29,
29,
29,
29,
29,
29,
29,
29,
29,
29,
29,
29,
29,
29,
29,
28,
28,
29,
29,
28,
28,
29,
29,
29,
29,
29,
29,
29,
29,
29,
29,
29,
29,
29,
29,
28,
28,
29,
29,
29,
29,
28,
28,
29,
29,
29,
29,
29,
29,
29,
29,
28,
28,
29,
29,
29,
29,
29,
29,
29,
29,
28,
28,
29,
29,
29,
29,
28,
28,
29,
29,
29,
29,
29,
29,
29,
29,
29,
29,
29,
29,
29,
29,
29,
29,
29,
29,
29,
29,
29,
29,
29,
29,
29,
29,
29,
29,
29,
29,
28,
28,
29,
29,
29,
29,
29,
29,
29,
29,
29,
29,
28,
28,
28,
28,
29,
29,
29,
29,
29,
29,
29,
29,
29,
29,
29,
29,
29,
29,
29,
29,
29,
29,
29,
29,
29,
29,
29,
29,
29,
29,
29,
29,
29,
29,
29,
29,
29,
29,
29,
29,
29,
29,
29,
29,
29,
29,
29,
29,
29,
29,
29,
29,
29,
29,
29,
29,
29,
29,
29,
29,
29,
29,
29,
29,
29,
29,
30,
30,
29,
29,
29,
29,
25,
14,
14,
14,
5,
5,
1,
1,
1,
1,
1,
1,
1,
1,
2,
2,
2,
2,
2,
2,
3,
3,
3,
3,
3,
3,
4,
4,
4,
4,
4,
4,
5,
5,
5,
5,
6,
6,
6,
6,
6,
6,
6,
6,
7,
7,
7,
7,
8,
8,
8,
8,
9,
9,
9,
9,
9,
9,
9,
9,
9,
9,
10,
10,
10,
10,
10,
10,
10,
10,
11,
11,
11,
11,
12,
12,
12,
12,
13,
13,
13,
13,
14,
14,
13,
13,
13,
13,
15,
15,
16,
16,
15,
15,
16,
16,
16,
16,
16,
16,
16,
16,
17,
17,
17,
17,
18,
18,
18,
18,
18,
18,
19,
19,
19,
19,
19,
19,
19,
19,
20,
20,
20,
20,
20,
20,
21,
21,
21,
21,
22,
22,
23,
23,
23,
23,
23,
23,
23,
23,
24,
24,
24,
24,
24,
24,
25,
25,
25,
25,
26,
26,
25,
25,
25,
25,
26,
26,
26,
26,
27,
27,
27,
27,
28,
28,
27,
27,
28,
28,
29,
29,
29,
29,
28,
28,
30,
30,
30,
30,
31,
31,
30,
30,
30,
30,
31,
31,
32,
32,
32,
32,
32,
32,
33,
33,
33,
33,
33,
33,
33,
33,
34,
34,
34,
34,
34,
34,
34,
34,
35,
35,
34,
34,
34,
34,
34,
34,
35,
35,
34,
34,
35,
35,
35,
35,
35,
35,
34,
34,
35,
35,
35,
35,
35,
35,
35,
35,
34,
34,
35,
35,
36,
36,
35,
35,
36,
36,
34,
34,
34,
34,
35,
35,
34,
34,
36,
36,
36,
36,
35,
35,
35,
35,
35,
35,
35,
35,
34,
34,
35,
35,
35,
35,
35,
35,
34,
34,
35,
35,
36,
36,
36,
36,
36,
36,
36,
36,
36,
36,
35,
35,
35,
35,
36,
36,
35,
35,
36,
36,
35,
35,
36,
36,
35,
35,
36,
36,
35,
35,
35,
35,
36,
36,
35,
35,
35,
35,
35,
35,
35,
35,
36,
36,
36,
36,
35,
35,
35,
35,
36,
36,
35,
35,
35,
35,
36,
36,
35,
35,
35,
35,
36,
36,
36,
36,
35,
35,
36,
36,
35,
35,
36,
36,
35,
35,
36,
36,
35,
35,
35,
35,
35,
35,
35,
35,
36,
36,
36,
36,
35,
35,
35,
35,
35,
35,
36,
36,
35,
35,
36,
36,
36,
36,
35,
35,
35,
35,
36,
36,
36,
36,
36,
36,
35,
35,
35,
35,
36,
36,
36,
36,
36,
36,
35,
35,
35,
35,
35,
35,
35,
35,
35,
35,
35,
35,
36,
36,
35,
35,
35,
35,
35,
35,
36,
36,
35,
35,
35,
35,
35,
35,
36,
36,
35,
35,
36,
36,
35,
35,
35,
35,
35,
35,
36,
36,
36,
36,
35,
35,
36,
36,
36,
36,
36,
36,
35,
35,
35,
35,
36,
36,
36,
36,
36,
36,
36,
36,
35,
35,
36,
36,
36,
36,
36,
36,
35,
35,
36,
36,
36,
36,
36,
36,
36,
36,
36,
36,
36,
36,
35,
35,
36,
36,
36,
36,
36,
36,
36,
36,
36,
36,
36,
36,
36,
36,
36,
36,
36,
36,
36,
36,
36,
36,
36,
36,
36,
36,
36,
36,
36,
36,
36,
36,
36,
36,
36,
36,
36,
36,
35,
35,
36,
36,
36,
36,
36,
36,
36,
36,
36,
36,
36,
36,
36,
36,
36,
36,
36,
36,
36,
36,
36,
36,
36,
36,
36,
36,
36,
36,
36,
36,
36,
36,
36,
36,
36,
36,
37,
37,
37,
37,
36,
36,
36,
36,
36,
36,
36,
36,
36,
36,
36,
36,
37,
37,
36,
36,
36,
36,
37,
37,
36,
36,
36,
36,
36,
36,
36,
36,
36,
36,
36,
36,
36,
36,
37,
37,
36,
36,
36,
36,
36,
36,
36,
36,
36,
36,
36,
36,
36,
36,
36,
36,
36,
24,
25,
13,
13,
13,
6,
6,
2,
2,
2,
2,
1,
1,
2,
2,
2,
2,
2,
2,
2,
2,
4,
4,
3,
3,
4,
4,
4,
4,
4,
4,
5,
5,
5,
5,
5,
5,
5,
5,
6,
6,
6,
6,
7,
7,
8,
8,
7,
7,
7,
7,
8,
8,
8,
8,
9,
9,
10,
10,
8,
8,
10,
10,
10,
10,
10,
10,
12,
12,
11,
11,
11,
11,
12,
12,
12,
12,
12,
12,
13,
13,
13,
13,
14,
14,
14,
14,
14,
14,
15,
15,
15,
15,
16,
16,
16,
16,
16,
16,
17,
17,
17,
17,
17,
17,
18,
18,
18,
18,
18,
18,
18,
18,
18,
18,
19,
19,
19,
19,
20,
20,
20,
20,
20,
20,
20,
20,
21,
21,
21,
21,
22,
22,
22,
22,
23,
23,
24,
24,
24,
24,
24,
24,
24,
24,
24,
24,
25,
25,
24,
24,
26,
26,
26,
26,
26,
26,
26,
26,
27,
27,
27,
27,
28,
28,
27,
27,
28,
28,
29,
29,
29,
29,
29,
29,
30,
30,
30,
30,
30,
30,
31,
31,
31,
31,
32,
32,
32,
32,
32,
32,
32,
32,
33,
33,
34,
34,
33,
33,
34,
34,
34,
34,
34,
34,
34,
34,
36,
36,
35,
35,
36,
36,
36,
36,
37,
37,
37,
37,
37,
37,
37,
37,
38,
38,
38,
38,
38,
38,
39,
39,
39,
39,
39,
39,
40,
40,
40,
40,
40,
40,
41,
41,
40,
40,
41,
41,
41,
41,
41,
41,
41,
41,
41,
41,
42,
42,
41,
41,
42,
42,
42,
42,
41,
41,
42,
42,
41,
41,
41,
41,
42,
42,
42,
42,
42,
42,
42,
42,
42,
42,
42,
42,
42,
42,
42,
42,
42,
42,
42,
42,
42,
42,
42,
42,
42,
42,
42,
42,
42,
42,
42,
42,
42,
42,
41,
41,
42,
42,
42,
42,
42,
42,
41,
41,
42,
42,
42,
42,
42,
42,
42,
42,
42,
42,
42,
42,
42,
42,
42,
42,
42,
42,
42,
42,
42,
42,
42,
42,
42,
42,
42,
42,
42,
42,
42,
42,
42,
42,
42,
42,
42,
42,
42,
42,
42,
42,
42,
42,
42,
42,
42,
42,
42,
42,
42,
42,
42,
42,
42,
42,
42,
42,
42,
42,
42,
42,
42,
42,
42,
42,
42,
42,
42,
42,
42,
42,
42,
42,
42,
42,
42,
42,
42,
42,
43,
43,
42,
42,
42,
42,
42,
42,
42,
42,
42,
42,
42,
42,
42,
42,
42,
42,
42,
42,
43,
43,
42,
42,
42,
42,
42,
42,
42,
42,
42,
42,
42,
42,
42,
42,
42,
42,
43,
43,
42,
42,
42,
42,
42,
42,
42,
42,
42,
42,
42,
42,
43,
43,
42,
42,
42,
42,
43,
43,
42,
42,
42,
42,
42,
42,
42,
42,
42,
42,
42,
42,
43,
43,
42,
42,
43,
43,
42,
42,
42,
42,
42,
42,
42,
42,
42,
42,
42,
42,
42,
42,
43,
43,
42,
42,
43,
43,
42,
42,
43,
43,
43,
43,
43,
43,
43,
43,
42,
42,
42,
42,
43,
43,
42,
42,
43,
43,
43,
43,
43,
43,
43,
43,
43,
43,
43,
43,
43,
43,
43,
43,
42,
42,
43,
43,
43,
43,
43,
43,
43,
43,
43,
43,
42,
42,
43,
43,
42,
42,
42,
42,
43,
43,
43,
43,
42,
42,
43,
43,
43,
43,
43,
43,
43,
43,
43,
43,
43,
43,
43,
43,
43,
43,
43,
43,
42,
42,
42,
42,
43,
43,
43,
43,
43,
43,
43,
43,
43,
43,
44,
44,
43,
43,
43,
43,
43,
43,
43,
43,
43,
43,
43,
43,
43,
43,
43,
43,
44,
44,
43,
43,
43,
43,
43,
43,
44,
44,
43,
43,
43,
43,
43,
43,
43,
43,
42,
42,
43,
43,
37,
26,
27,
14,
14,
2,
2,
2,
-1,
-1,
1,
1,
0,
0,
2,
2,
1,
1,
2,
2,
2,
2,
4,
4,
3,
3,
4,
4,
3,
3,
5,
5,
4,
4,
5,
5,
5,
5,
6,
6,
7,
7,
6,
6,
7,
7,
7,
7,
8,
8,
8,
8,
8,
8,
9,
9,
9,
9,
8,
8,
10,
10,
10,
10,
10,
10,
11,
11,
11,
11,
12,
12,
12,
12,
12,
12,
12,
12,
13,
13,
14,
14,
13,
13,
14,
14,
14,
14,
16,
16,
15,
15,
15,
15,
16,
16,
16,
16,
16,
16,
17,
17,
17,
17,
17,
17,
17,
17,
18,
18,
18,
18,
19,
19,
19,
19,
19,
19,
20,
20,
20,
20,
20,
20,
21,
21,
21,
21,
22,
22,
22,
22,
23,
23,
23,
23,
24,
24,
24,
24,
23,
23,
24,
24,
24,
24,
25,
25,
25,
25,
26,
26,
26,
26,
26,
26,
26,
26,
27,
27,
28,
28,
27,
27,
28,
28,
28,
28,
28,
28,
29,
29,
29,
29,
30,
30,
29,
29,
31,
31,
31,
31,
31,
31,
32,
32,
32,
32,
32,
32,
32,
32,
33,
33,
33,
33,
33,
33,
34,
34,
34,
34,
34,
34,
35,
35,
35,
35,
36,
36,
36,
36,
36,
36,
36,
36,
36,
36,
37,
37,
37,
37,
38,
38,
38,
38,
39,
39,
39,
39,
39,
39,
39,
39,
40,
40,
41,
41,
41,
41,
41,
41,
41,
41,
42,
42,
42,
42,
42,
42,
43,
43,
42,
42,
43,
43,
44,
44,
44,
44,
44,
44,
45,
45,
45,
45,
45,
45,
45,
45,
45,
45,
46,
46,
46,
46,
46,
46,
47,
47,
47,
47,
48,
48,
47,
47,
47,
47,
48,
48,
48,
48,
48,
48,
48,
48,
48,
48,
48,
48,
48,
48,
48,
48,
48,
48,
48,
48,
48,
48,
48,
48,
48,
48,
47,
47,
48,
48,
48,
48,
48,
48,
48,
48,
48,
48,
48,
48,
48,
48,
48,
48,
48,
48,
48,
48,
48,
48,
48,
48,
48,
48,
48,
48,
48,
48,
48,
48,
48,
48,
48,
48,
48,
48,
48,
48,
48,
48,
49,
49,
49,
49,
48,
48,
48,
48,
48,
48,
48,
48,
49,
49,
48,
48,
49,
49,
49,
49,
48,
48,
48,
48,
48,
48,
48,
48,
49,
49,
49,
49,
49,
49,
48,
48,
48,
48,
49,
49,
48,
48,
48,
48,
48,
48,
49,
49,
48,
48,
49,
49,
49,
49,
49,
49,
49,
49,
49,
49,
49,
49,
49,
49,
48,
48,
48,
48,
48,
48,
48,
48,
49,
49,
49,
49,
49,
49,
49,
49,
49,
49,
49,
49,
49,
49,
49,
49,
49,
49,
49,
49,
48,
48,
49,
49,
49,
49,
49,
49,
49,
49,
49,
49,
49,
49,
49,
49,
49,
49,
49,
49,
49,
49,
49,
49,
49,
49,
49,
49,
49,
49,
49,
49,
49,
49,
49,
49,
49,
49,
49,
49,
49,
49,
49,
49,
49,
49,
49,
49,
49,
49,
49,
49,
49,
49,
49,
49,
49,
49,
50,
50,
49,
49,
49,
49,
49,
49,
49,
49,
49,
49,
49,
49,
49,
49,
49,
49,
49,
49,
49,
49,
49,
49,
49,
49,
49,
49,
50,
50,
49,
49,
50,
50,
49,
49,
49,
49,
49,
49,
49,
49,
50,
50,
49,
49,
50,
50,
50,
50,
49,
49,
49,
49,
49,
49,
49,
49,
49,
49,
49,
49,
49,
49,
50,
50,
49,
49,
49,
49,
50,
50,
49,
49,
49,
49,
50,
50,
49,
49,
50,
50,
50,
50,
49,
49,
49,
49,
49,
49,
50,
50,
49,
49,
49,
49,
49,
49,
50,
50,
49,
49,
50,
50,
50,
50,
50,
50,
50,
50,
50,
50,
49,
49,
49,
49,
49,
37,
37,
24,
26,
15,
15,
2,
2,
2,
1,
1,
1,
1,
2,
2,
2,
2,
3,
3,
3,
3,
3,
3,
3,
3,
4,
4,
4,
4,
5,
5,
4,
4,
5,
5,
6,
6,
5,
5,
6,
6,
7,
7,
7,
7,
7,
7,
7,
7,
8,
8,
8,
8,
9,
9,
9,
9,
9,
9,
9,
9,
10,
10,
10,
10,
10,
10,
11,
11,
11,
11,
11,
11,
11,
11,
12,
12,
12,
12,
13,
13,
13,
13,
13,
13,
14,
14,
14,
14,
15,
15,
15,
15,
15,
15,
16,
16,
16,
16,
17,
17,
17,
17,
17,
17,
18,
18,
18,
18,
18,
18,
19,
19,
19,
19,
19,
19,
20,
20,
20,
20,
20,
20,
20,
20,
21,
21,
21,
21,
22,
22,
23,
23,
22,
22,
23,
23,
24,
24,
24,
24,
24,
24,
24,
24,
24,
24,
24,
24,
26,
26,
26,
26,
26,
26,
26,
26,
27,
27,
27,
27,
28,
28,
27,
27,
28,
28,
29,
29,
29,
29,
29,
29,
29,
29,
30,
30,
30,
30,
30,
30,
31,
31,
31,
31,
32,
32,
32,
32,
33,
33,
33,
33,
33,
33,
33,
33,
34,
34,
34,
34,
35,
35,
35,
35,
36,
36,
36,
36,
36,
36,
37,
37,
36,
36,
37,
37,
37,
37,
38,
38,
39,
39,
38,
38,
39,
39,
39,
39,
39,
39,
40,
40,
40,
40,
41,
41,
41,
41,
42,
42,
41,
41,
42,
42,
42,
42,
42,
42,
43,
43,
44,
44,
43,
43,
44,
44,
45,
45,
45,
45,
45,
45,
46,
46,
46,
46,
46,
46,
46,
46,
47,
47,
47,
47,
47,
47,
47,
47,
48,
48,
48,
48,
48,
48,
48,
48,
49,
49,
50,
50,
50,
50,
50,
50,
50,
50,
50,
50,
50,
50,
52,
52,
51,
51,
51,
51,
51,
51,
51,
51,
52,
52,
53,
53,
53,
53,
53,
53,
53,
53,
53,
53,
54,
54,
55,
55,
54,
54,
55,
55,
54,
54,
55,
55,
55,
55,
55,
55,
55,
55,
55,
55,
55,
55,
55,
55,
55,
55,
54,
54,
55,
55,
55,
55,
55,
55,
55,
55,
55,
55,
56,
56,
55,
55,
55,
55,
56,
56,
55,
55,
55,
55,
55,
55,
55,
55,
55,
55,
55,
55,
56,
56,
56,
56,
55,
55,
55,
55,
55,
55,
55,
55,
55,
55,
55,
55,
55,
55,
56,
56,
55,
55,
55,
55,
55,
55,
56,
56,
56,
56,
55,
55,
55,
55,
55,
55,
55,
55,
56,
56,
56,
56,
55,
55,
56,
56,
55,
55,
55,
55,
55,
55,
56,
56,
56,
56,
55,
55,
55,
55,
55,
55,
55,
55,
55,
55,
57,
57,
55,
55,
56,
56,
56,
56,
56,
56,
56,
56,
55,
55,
56,
56,
55,
55,
55,
55,
55,
55,
55,
55,
56,
56,
55,
55,
55,
55,
55,
55,
56,
56,
56,
56,
56,
56,
55,
55,
56,
56,
55,
55,
55,
55,
55,
55,
56,
56,
55,
55,
56,
56,
56,
56,
56,
56,
56,
56,
56,
56,
56,
56,
56,
56,
56,
56,
55,
55,
56,
56,
56,
56,
56,
56,
56,
56,
55,
55,
56,
56,
55,
55,
56,
56,
56,
56,
56,
56,
56,
56,
56,
56,
56,
56,
56,
56,
56,
56,
56,
56,
56,
56,
56,
56,
56,
56,
56,
56,
56,
56,
56,
56,
56,
56,
56,
56,
56,
56,
56,
56,
56,
56,
56,
56,
57,
57,
57,
57,
56,
56,
56,
56,
56,
56,
56,
56,
56,
56,
56,
56,
57,
57,
57,
57,
57,
57,
57,
57,
56,
56,
56,
56,
57,
57,
56,
56,
56,
56,
56,
56,
56,
56,
56,
56,
56,
56,
56,
56,
56,
56,
57,
57,
57,
57,
56,
56,
55,
43,
43,
27,
26,
26,
19,
6,
6,
6,
0,
0,
1,
1,
2,
2,
2,
2,
3,
3,
3,
3,
3,
3,
3,
3,
4,
4,
4,
4,
4,
4,
5,
5,
5,
5,
6,
6,
6,
6,
6,
6,
6,
6,
7,
7,
7,
7,
8,
8,
8,
8,
8,
8,
9,
9,
9,
9,
9,
9,
10,
10,
10,
10,
11,
11,
10,
10,
11,
11,
12,
12,
12,
12,
12,
12,
11,
11,
13,
13,
13,
13,
13,
13,
14,
14,
15,
15,
15,
15,
15,
15,
15,
15,
16,
16,
16,
16,
17,
17,
17,
17,
16,
16,
17,
17,
18,
18,
18,
18,
18,
18,
18,
18,
19,
19,
19,
19,
20,
20,
20,
20,
20,
20,
22,
22,
21,
21,
22,
22,
23,
23,
23,
23,
23,
23,
23,
23,
24,
24,
24,
24,
25,
25,
25,
25,
25,
25,
25,
25,
25,
25,
26,
26,
26,
26,
27,
27,
27,
27,
27,
27,
28,
28,
28,
28,
28,
28,
29,
29,
29,
29,
29,
29,
29,
29,
31,
31,
30,
30,
31,
31,
31,
31,
31,
31,
32,
32,
31,
31,
33,
33,
33,
33,
34,
34,
33,
33,
34,
34,
35,
35,
35,
35,
35,
35,
35,
35,
36,
36,
36,
36,
37,
37,
38,
38,
37,
37,
38,
38,
38,
38,
39,
39,
39,
39,
39,
39,
39,
39,
40,
40,
40,
40,
41,
41,
41,
41,
41,
41,
41,
41,
42,
42,
42,
42,
42,
42,
43,
43,
43,
43,
44,
44,
44,
44,
44,
44,
44,
44,
45,
45,
45,
45,
46,
46,
46,
46,
47,
47,
47,
47,
47,
47,
47,
47,
47,
47,
48,
48,
48,
48,
49,
49,
49,
49,
49,
49,
49,
49,
50,
50,
50,
50,
50,
50,
51,
51,
51,
51,
52,
52,
51,
51,
52,
52,
53,
53,
52,
52,
53,
53,
53,
53,
53,
53,
54,
54,
54,
54,
55,
55,
54,
54,
55,
55,
56,
56,
56,
56,
57,
57,
57,
57,
57,
57,
57,
57,
57,
57,
58,
58,
58,
58,
58,
58,
58,
58,
59,
59,
59,
59,
59,
59,
60,
60,
60,
60,
60,
60,
60,
60,
61,
61,
61,
61,
60,
60,
60,
60,
61,
61,
61,
61,
61,
61,
61,
61,
61,
61,
60,
60,
61,
61,
61,
61,
61,
61,
61,
61,
62,
62,
61,
61,
62,
62,
62,
62,
62,
62,
61,
61,
62,
62,
61,
61,
61,
61,
61,
61,
61,
61,
62,
62,
61,
61,
61,
61,
61,
61,
61,
61,
62,
62,
61,
61,
61,
61,
62,
62,
62,
62,
62,
62,
61,
61,
61,
61,
61,
61,
61,
61,
61,
61,
62,
62,
62,
62,
62,
62,
62,
62,
62,
62,
62,
62,
62,
62,
62,
62,
62,
62,
61,
61,
62,
62,
62,
62,
62,
62,
61,
61,
62,
62,
62,
62,
62,
62,
62,
62,
62,
62,
61,
61,
61,
61,
62,
62,
62,
62,
62,
62,
62,
62,
62,
62,
62,
62,
62,
62,
62,
62,
62,
62,
62,
62,
62,
62,
62,
62,
62,
62,
62,
62,
62,
62,
62,
62,
62,
62,
62,
62,
61,
61,
62,
62,
63,
63,
62,
62,
62,
62,
63,
63,
62,
62,
62,
62,
62,
62,
63,
63,
62,
62,
62,
62,
63,
63,
63,
63,
62,
62,
63,
63,
63,
63,
63,
63,
62,
62,
62,
62,
62,
62,
63,
63,
63,
63,
63,
63,
63,
63,
63,
63,
63,
63,
63,
63,
64,
64,
63,
63,
64,
64,
63,
63,
63,
63,
62,
62,
63,
63,
64,
64,
63,
63,
62,
62,
63,
63,
64,
64,
64,
64,
62,
62,
64,
64,
63,
63,
63,
63,
63,
63,
63,
63,
64,
64,
63,
63,
63,
63,
63,
63,
63,
63,
53,
53,
44,
30,
32,
14,
15,
4,
4,
4,
-1,
-1,
1,
1,
2,
2,
3,
3,
3,
3,
3,
3,
3,
3,
4,
4,
4,
4,
4,
4,
4,
4,
5,
5,
6,
6,
6,
6,
6,
6,
7,
7,
7,
7,
7,
7,
7,
7,
8,
8,
8,
8,
9,
9,
9,
9,
10,
10,
9,
9,
10,
10,
10,
10,
10,
10,
11,
11,
11,
11,
12,
12,
12,
12,
12,
12,
13,
13,
13,
13,
13,
13,
13,
13,
14,
14,
16,
16,
15,
15,
15,
15,
16,
16,
16,
16,
17,
17,
16,
16,
17,
17,
18,
18,
18,
18,
18,
18,
18,
18,
19,
19,
18,
18,
20,
20,
19,
19,
20,
20,
21,
21,
20,
20,
22,
22,
21,
21,
23,
23,
22,
22,
23,
23,
23,
23,
24,
24,
24,
24,
24,
24,
24,
24,
25,
25,
26,
26,
26,
26,
26,
26,
26,
26,
26,
26,
27,
27,
27,
27,
28,
28,
28,
28,
28,
28,
28,
28,
29,
29,
30,
30,
29,
29,
31,
31,
32,
32,
31,
31,
32,
32,
31,
31,
32,
32,
32,
32,
32,
32,
33,
33,
33,
33,
34,
34,
34,
34,
34,
34,
34,
34,
35,
35,
35,
35,
36,
36,
36,
36,
37,
37,
36,
36,
37,
37,
38,
38,
38,
38,
38,
38,
38,
38,
39,
39,
39,
39,
39,
39,
40,
40,
41,
41,
41,
41,
41,
41,
41,
41,
41,
41,
42,
42,
43,
43,
42,
42,
43,
43,
44,
44,
44,
44,
44,
44,
44,
44,
45,
45,
46,
46,
45,
45,
45,
45,
46,
46,
47,
47,
47,
47,
48,
48,
47,
47,
48,
48,
48,
