5-grundlagen-opAmps/data/ALL0029/A0029CH2.CSV

Memory Length,4000,
Trigger Level,0.00000e+00,
Source,CH2,
Probe,1.0X,
Vertical Units,V,
Vertical Scale,5.00000e-02,
Vertical Position,0.00000e+00,
Horizontal Units,S,
Horizontal Scale,1.00000e-07,
Horizontal Position,1.0000000e-07,
Horizontal Mode,Main,
Sampling Period,2.00000e-09,
Firmware,V1.14,
Time, ,
Mode,Fast,
Waveform Data,
-28,
-28,
-27,
-20,
-14,
-16,
-23,
-22,
-14,
-7,
-7,
-10,
-11,
-7,
1,
4,
2,
1,
3,
8,
11,
11,
9,
12,
15,
16,
17,
17,
17,
21,
20,
24,
25,
26,
27,
27,
25,
25,
28,
26,
25,
23,
25,
25,
23,
20,
17,
19,
19,
18,
14,
12,
13,
13,
11,
8,
5,
5,
5,
2,
-2,
-5,
-5,
-4,
-7,
-14,
-18,
-15,
-12,
-14,
-20,
-23,
-22,
-19,
-19,
-25,
-29,
-28,
-23,
-23,
-26,
-32,
-35,
-31,
-28,
-29,
-31,
-32,
-30,
-26,
-26,
-26,
-28,
-28,
-25,
-22,
-21,
-23,
-23,
-19,
-16,
-14,
-11,
-10,
-9,
-6,
-6,
-1,
0,
0,
1,
3,
7,
8,
8,
8,
9,
12,
17,
19,
19,
19,
20,
24,
25,
25,
25,
26,
25,
26,
26,
25,
23,
23,
24,
24,
23,
21,
20,
20,
20,
20,
18,
19,
17,
12,
11,
11,
11,
9,
3,
1,
2,
2,
-3,
-6,
-9,
-10,
-7,
-7,
-13,
-19,
-20,
-15,
-13,
-17,
-25,
-26,
-25,
-21,
-23,
-30,
-32,
-30,
-27,
-26,
-29,
-32,
-35,
-30,
-27,
-26,
-28,
-30,
-28,
-25,
-23,
-22,
-22,
-23,
-23,
-18,
-15,
-15,
-17,
-17,
-13,
-9,
-5,
-6,
-7,
-6,
1,
9,
9,
5,
3,
8,
14,
17,
13,
9,
12,
19,
23,
19,
17,
19,
25,
28,
26,
22,
24,
28,
28,
27,
25,
25,
25,
26,
23,
19,
20,
21,
20,
17,
15,
14,
15,
15,
11,
7,
8,
10,
7,
3,
1,
0,
-1,
-3,
-6,
-8,
-10,
-12,
-15,
-17,
-16,
-18,
-20,
-21,
-22,
-21,
-21,
-22,
-28,
-29,
-27,
-24,
-25,
-31,
-36,
-34,
-27,
-24,
-31,
-34,
-30,
-25,
-22,
-23,
-28,
-29,
-22,
-17,
-19,
-22,
-24,
-17,
-12,
-9,
-11,
-12,
-6,
-3,
-1,
0,
0,
2,
4,
7,
6,
9,
10,
11,
13,
16,
19,
20,
20,
21,
20,
25,
27,
26,
25,
22,
25,
26,
25,
24,
22,
23,
25,
25,
22,
18,
17,
20,
19,
18,
15,
15,
15,
12,
9,
9,
6,
5,
1,
0,
-2,
-3,
-5,
-7,
-9,
-11,
-9,
-9,
-13,
-18,
-20,
-17,
-16,
-19,
-26,
-28,
-26,
-23,
-25,
-31,
-34,
-32,
-29,
-26,
-29,
-33,
-36,
-30,
-25,
-25,
-32,
-31,
-28,
-22,
-20,
-21,
-23,
-24,
-20,
-15,
-15,
-16,
-19,
-14,
-8,
-5,
-5,
-7,
-3,
1,
4,
8,
7,
7,
7,
11,
16,
16,
13,
14,
16,
19,
23,
23,
19,
20,
25,
29,
28,
24,
21,
22,
29,
28,
25,
20,
20,
24,
25,
19,
17,
16,
18,
19,
15,
10,
9,
11,
11,
10,
4,
2,
3,
4,
-1,
-5,
-7,
-7,
-7,
-9,
-15,
-19,
-17,
-15,
-16,
-21,
-25,
-22,
-21,
-22,
-26,
-30,
-29,
-26,
-27,
-30,
-30,
-31,
-31,
-31,
-29,
-28,
-27,
-29,
-28,
-26,
-23,
-22,
-23,
-25,
-22,
-17,
-15,
-18,
-22,
-18,
-10,
-5,
-5,
-8,
-7,
-3,
5,
6,
3,
1,
5,
12,
14,
10,
7,
11,
17,
22,
20,
19,
20,
23,
25,
26,
24,
23,
26,
27,
25,
24,
25,
21,
23,
21,
20,
23,
23,
19,
17,
19,
20,
18,
14,
11,
10,
12,
11,
8,
2,
1,
2,
2,
-1,
-6,
-8,
-7,
-6,
-10,
-15,
-15,
-15,
-17,
-19,
-21,
-21,
-21,
-25,
-26,
-28,
-27,
-25,
-30,
-30,
-32,
-33,
-27,
-28,
-32,
-35,
-31,
-24,
-22,
-30,
-31,
-27,
-20,
-17,
-19,
-25,
-22,
-17,
-10,
-12,
-16,
-14,
-9,
-3,
-3,
-5,
-5,
-1,
3,
8,
9,
7,
8,
11,
15,
16,
17,
13,
16,
18,
21,
23,
22,
21,
22,
26,
28,
28,
24,
21,
26,
30,
27,
25,
20,
20,
22,
24,
20,
17,
15,
16,
16,
16,
11,
7,
9,
10,
8,
3,
0,
0,
0,
-2,
-6,
-10,
-11,
-11,
-11,
-16,
-20,
-21,
-18,
-19,
-20,
-27,
-26,
-23,
-21,
-25,
-29,
-29,
-29,
-24,
-29,
-31,
-34,
-32,
-26,
-25,
-26,
-31,
-30,
-25,
-22,
-23,
-24,
-25,
-22,
-18,
-16,
-17,
-18,
-17,
-13,
-8,
-5,
-5,
-5,
-4,
1,
4,
7,
4,
4,
7,
11,
14,
12,
10,
12,
18,
23,
24,
20,
19,
22,
29,
31,
25,
21,
23,
27,
32,
26,
19,
19,
23,
27,
23,
18,
16,
17,
20,
19,
16,
12,
12,
13,
10,
9,
5,
4,
3,
-2,
-3,
-3,
-4,
-7,
-13,
-12,
-10,
-11,
-14,
-19,
-21,
-19,
-17,
-18,
-23,
-26,
-25,
-24,
-24,
-29,
-33,
-32,
-28,
-26,
-31,
-31,
-31,
-28,
-28,
-27,
-27,
-26,
-25,
-25,
-25,
-22,
-19,
-17,
-19,
-20,
-17,
-11,
-9,
-12,
-15,
-11,
-3,
1,
-1,
-2,
0,
7,
13,
12,
8,
9,
13,
19,
19,
15,
14,
18,
24,
24,
20,
20,
22,
25,
27,
26,
25,
24,
25,
26,
24,
22,
20,
20,
21,
20,
19,
19,
18,
16,
15,
16,
15,
10,
5,
4,
4,
4,
3,
0,
-5,
-5,
-4,
-5,
-9,
-13,
-13,
-10,
-13,
-18,
-23,
-21,
-20,
-22,
-27,
-29,
-29,
-26,
-26,
-31,
-31,
-30,
-26,
-25,
-29,
-32,
-33,
-26,
-22,
-27,
-31,
-29,
-24,
-21,
-23,
-25,
-26,
-20,
-15,
-14,
-16,
-17,
-13,
-7,
-4,
-4,
-6,
-4,
0,
4,
5,
5,
3,
6,
11,
13,
14,
13,
12,
17,
20,
24,
24,
20,
20,
24,
28,
30,
26,
23,
25,
27,
30,
25,
19,
19,
23,
25,
21,
18,
14,
16,
17,
19,
14,
9,
7,
11,
14,
9,
1,
-1,
-1,
0,
-2,
-7,
-10,
-11,
-11,
-10,
-14,
-17,
-18,
-16,
-17,
-20,
-23,
-23,
-24,
-25,
-28,
-30,
-27,
-28,
-31,
-31,
-30,
-29,
-30,
-29,
-31,
-29,
-25,
-24,
-25,
-25,
-26,
-23,
-19,
-18,
-20,
-19,
-16,
-14,
-13,
-11,
-10,
-10,
-7,
-5,
-2,
0,
1,
3,
5,
7,
11,
13,
12,
11,
13,
17,
21,
20,
16,
17,
22,
25,
26,
23,
20,
24,
31,
30,
24,
20,
23,
27,
27,
22,
17,
17,
23,
22,
17,
14,
15,
17,
15,
13,
9,
6,
7,
6,
2,
0,
-3,
-4,
-5,
-7,
-9,
-8,
-8,
-12,
-15,
-16,
-17,
-18,
-21,
-24,
-25,
-24,
-25,
-25,
-27,
-29,
-27,
-29,
-28,
-30,
-31,
-29,
-26,
-28,
-31,
-29,
-24,
-24,
-27,
-27,
-25,
-20,
-20,
-23,
-23,
-19,
-13,
-9,
-13,
-15,
-12,
-4,
0,
-1,
-6,
-2,
2,
8,
8,
5,
3,
10,
15,
17,
14,
12,
15,
19,
24,
23,
20,
21,
23,
25,
28,
27,
24,
22,
25,
27,
27,
22,
19,
19,
23,
23,
20,
16,
14,
14,
18,
19,
15,
7,
6,
10,
11,
6,
-1,
-3,
-2,
-1,
-3,
-8,
-15,
-15,
-11,
-11,
-14,
-19,
-22,
-19,
-17,
-20,
-24,
-26,
-26,
-25,
-26,
-29,
-30,
-32,
-32,
-29,
-29,
-30,
-31,
-30,
-28,
-28,
-27,
-25,
-23,
-25,
-25,
-22,
-19,
-18,
-19,
-17,
-15,
-13,
-9,
-9,
-9,
-9,
-5,
-1,
1,
1,
1,
5,
8,
12,
12,
13,
14,
15,
17,
19,
19,
20,
21,
23,
23,
24,
24,
26,
25,
24,
27,
27,
25,
22,
20,
23,
26,
23,
18,
17,
18,
20,
20,
15,
11,
12,
15,
15,
8,
2,
0,
2,
4,
-1,
-7,
-8,
-6,
-5,
-8,
-13,
-15,
-14,
-14,
-15,
-21,
-23,
-23,
-22,
-24,
-27,
-31,
-29,
-25,
-28,
-31,
-31,
-29,
-26,
-27,
-31,
-30,
-27,
-25,
-24,
-27,
-26,
-24,
-23,
-22,
-23,
-22,
-20,
-16,
-15,
-15,
-12,
-9,
-9,
-7,
-3,
0,
3,
1,
0,
3,
9,
12,
10,
7,
10,
15,
19,
18,
13,
15,
22,
27,
26,
19,
19,
24,
30,
30,
26,
20,
21,
28,
29,
24,
18,
17,
24,
24,
21,
15,
11,
14,
17,
15,
13,
7,
5,
7,
7,
5,
2,
-3,
-4,
-3,
-4,
-7,
-10,
-16,
-17,
-15,
-13,
-15,
-21,
-23,
-22,
-18,
-19,
-27,
-31,
-28,
-23,
-23,
-30,
-36,
-33,
-28,
-25,
-29,
-31,
-33,
-30,
-25,
-25,
-27,
-26,
-24,
-21,
-22,
-21,
-19,
-17,
-15,
-15,
-14,
-12,
-8,
-6,
-6,
-6,
-3,
0,
3,
3,
3,
7,
11,
15,
14,
14,
15,
18,
19,
19,
19,
20,
20,
24,
24,
23,
25,
26,
26,
26,
26,
27,
24,
22,
23,
24,
23,
20,
17,
17,
17,
18,
16,
14,
12,
9,
11,
11,
6,
1,
-2,
-1,
0,
-3,
-7,
-10,
-10,
-9,
-11,
-13,
-17,
-17,
-18,
-16,
-20,
-24,
-27,
-25,
-23,
-26,
-31,
-31,
-31,
-28,
-27,
-31,
-31,
-29,
-28,
-27,
-29,
-30,
-31,
-25,
-25,
-26,
-26,
-23,
-20,
-20,
-22,
-18,
-15,
-12,
-11,
-11,
-10,
-6,
-2,
1,
0,
0,
3,
6,
8,
10,
8,
11,
14,
16,
17,
18,
18,
18,
20,
23,
25,
26,
25,
24,
24,
27,
30,
27,
23,
21,
26,
29,
24,
18,
15,
19,
23,
22,
12,
8,
11,
16,
17,
10,
1,
2,
7,
9,
4,
-6,
-8,
-5,
-3,
-6,
-15,
-18,
-16,
-14,
-15,
-18,
-22,
-23,
-21,
-22,
-22,
-25,
-27,
-29,
-27,
-27,
-27,
-30,
-31,
-31,
-31,
-25,
-25,
-28,
-32,
-30,
-24,
-20,
-24,
-27,
-25,
-21,
-18,
-16,
-20,
-19,
-14,
-8,
-7,
-9,
-7,
-4,
0,
2,
-1,
1,
3,
7,
7,
7,
9,
13,
17,
17,
16,
19,
21,
25,
25,
22,
24,
26,
27,
25,
25,
23,
23,
27,
26,
23,
20,
21,
25,
24,
21,
19,
17,
18,
19,
16,
13,
13,
10,
8,
7,
4,
3,
0,
-3,
-3,
-3,
-4,
-7,
-11,
-13,
-12,
-12,
-15,
-19,
-21,
-20,
-17,
-20,
-25,
-31,
-27,
-24,
-25,
-27,
-33,
-31,
-27,
-30,
-29,
-31,
-30,
-29,
-26,
-27,
-28,
-27,
-24,
-22,
-22,
-23,
-20,
-20,
-18,
-18,
-16,
-13,
-11,
-10,
-9,
-6,
-4,
-1,
3,
3,
3,
4,
8,
11,
12,
10,
11,
14,
17,
18,
18,
16,
18,
23,
27,
26,
23,
24,
25,
29,
27,
25,
24,
23,
24,
25,
26,
19,
18,
18,
19,
21,
18,
13,
12,
11,
13,
13,
9,
3,
2,
4,
7,
2,
-6,
-11,
-7,
-5,
-7,
-16,
-21,
-20,
-15,
-14,
-17,
-27,
-27,
-23,
-20,
-21,
-28,
-35,
-30,
-25,
-25,
-31,
-36,
-34,
-27,
-24,
-25,
-29,
-30,
-26,
-24,
-24,
-23,
-25,
-23,
-22,
-21,
-19,
-17,
-15,
-15,
-13,
-7,
-5,
-5,
-5,
-4,
0,
5,
5,
4,
3,
7,
12,
14,
13,
13,
16,
20,
23,
20,
19,
23,
26,
26,
25,
23,
23,
25,
26,
21,
22,
22,
25,
27,
20,
18,
20,
25,
24,
17,
13,
16,
19,
17,
9,
6,
6,
9,
9,
3,
-3,
-4,
-2,
-1,
-5,
-10,
-13,
-10,
-10,
-14,
-17,
-18,
-20,
-20,
-22,
-23,
-25,
-26,
-27,
-30,
-27,
-26,
-27,
-31,
-35,
-30,
-27,
-25,
-29,
-31,
-30,
-24,
-22,
-25,
-27,
-26,
-21,
-17,
-20,
-21,
-22,
-16,
-13,
-13,
-13,
-12,
-8,
-4,
-3,
-2,
1,
3,
7,
7,
7,
10,
12,
15,
13,
13,
15,
18,
20,
19,
18,
21,
26,
29,
27,
23,
25,
27,
31,
28,
24,
23,
23,
24,
26,
20,
17,
17,
17,
20,
17,
13,
9,
10,
11,
12,
9,
6,
2,
2,
2,
2,
-3,
-8,
-11,
-8,
-7,
-10,
-17,
-21,
-19,
-16,
-15,
-19,
-27,
-27,
-23,
-20,
-23,
-29,
-33,
-32,
-25,
-24,
-32,
-36,
-35,
-27,
-23,
-25,
-31,
-30,
-27,
-22,
-21,
-23,
-27,
-23,
-19,
-16,
-18,
-18,
-16,
-11,
-7,
-4,
-4,
-4,
-2,
1,
3,
4,
4,
6,
7,
10,
12,
13,
15,
16,
17,
19,
22,
23,
25,
24,
24,
25,
28,
26,
24,
24,
26,
27,
24,
23,
24,
25,
24,
20,
17,
18,
21,
19,
15,
14,
13,
15,
12,
7,
3,
3,
5,
4,
-3,
-8,
-7,
-3,
-4,
-10,
-17,
-16,
-14,
-13,
-17,
-22,
-24,
-20,
-19,
-22,
-29,
-30,
-28,
-26,
-25,
-30,
-35,
-32,
-29,
-28,
-31,
-31,
-29,
-27,
-27,
-26,
-25,
-23,
-23,
-24,
-21,
-18,
-17,
-17,
-17,
-17,
-13,
-7,
-7,
-10,
-8,
-3,
2,
4,
2,
2,
7,
12,
13,
11,
10,
13,
17,
18,
17,
17,
17,
21,
23,
22,
25,
26,
27,
25,
25,
26,
29,
28,
25,
21,
20,
24,
25,
19,
16,
14,
17,
19,
17,
10,
5,
10,
11,
10,
3,
-1,
-1,
2,
1,
-2,
-8,
-12,
-11,
-9,
-12,
-17,
-20,
-20,
-20,
-19,
-21,
-23,
-26,
-26,
-23,
-24,
-26,
-29,
-36,
-33,
-27,
-25,
-31,
-34,
-31,
-26,
-23,
-24,
-29,
-31,
-25,
-20,
-19,
-22,
-26,
-23,
-16,
-13,
-16,
-16,
-14,
-8,
-4,
-3,
-5,
-5,
0,
5,
6,
5,
5,
6,
11,
12,
13,
14,
15,
18,
20,
22,
22,
23,
25,
26,
27,
26,
26,
25,
26,
24,
25,
25,
23,
22,
23,
20,
22,
20,
17,
19,
19,
17,
13,
13,
11,
10,
7,
7,
4,
2,
1,
-1,
-5,
-7,
-9,
-8,
-7,
-11,
-16,
-16,
-14,
-14,
-18,
-22,
-25,
-23,
-22,
-22,
-27,
-32,
-32,
-29,
-24,
-27,
-36,
-35,
-30,
-25,
-26,
-31,
-32,
-28,
-23,
-21,
-24,
-26,
-25,
-20,
-16,
-17,
-20,
-18,
-14,
-12,
-10,
-9,
-8,
-7,
-4,
-1,
3,
6,
6,
7,
8,
11,
14,
16,
15,
14,
15,
19,
22,
20,
17,
20,
24,
26,
27,
23,
24,
27,
28,
28,
24,
22,
25,
25,
24,
20,
17,
18,
19,
17,
14,
14,
13,
11,
7,
8,
7,
8,
4,
0,
-3,
-1,
0,
-3,
-9,
-15,
-13,
-9,
-12,
-20,
-23,
-23,
-19,
-17,
-24,
-30,
-29,
-23,
-22,
-25,
-31,
-32,
-31,
-26,
-26,
-30,
-35,
-31,
-27,
-25,
-27,
-26,
-27,
-25,
-24,
-21,
-21,
-21,
-22,
-20,
-16,
-12,
-12,
-13,
-13,
-8,
-1,
2,
0,
-2,
1,
8,
11,
9,
4,
5,
12,
17,
15,
13,
15,
20,
25,
26,
22,
20,
26,
29,
28,
24,
22,
24,
26,
25,
21,
21,
22,
24,
23,
19,
18,
18,
17,
19,
15,
13,
11,
11,
10,
6,
3,
3,
2,
0,
-3,
-6,
-8,
-8,
-10,
-10,
-12,
-14,
-17,
-17,
-17,
-17,
-20,
-24,
-25,
-26,
-24,
-22,
-28,
-32,
-32,
-30,
-25,
-28,
-34,
-34,
-30,
-25,
-26,
-29,
-30,
-27,
-22,
-20,
-22,
-26,
-24,
-17,
-13,
-14,
-19,
-18,
-12,
-7,
-7,
-6,
-8,
-5,
-1,
5,
5,
4,
5,
9,
13,
15,
14,
13,
15,
18,
19,
20,
19,
20,
20,
24,
25,
26,
26,
25,
26,
25,
25,
26,
23,
20,
23,
21,
24,
21,
16,
17,
17,
19,
17,
13,
10,
9,
8,
8,
4,
0,
-1,
-2,
-3,
-6,
-8,
-7,
-9,
-10,
-12,
-13,
-14,
-17,
-22,
-23,
-21,
-21,
-23,
-27,
-31,
-29,
-23,
-26,
-29,
-33,
-32,
-25,
-24,
-29,
-36,
-32,
-25,
-22,
-25,
-30,
-30,
-26,
-20,
-17,
-22,
-23,
-20,
-13,
-9,
-12,
-14,
-10,
-5,
-2,
-1,
-1,
0,
3,
3,
8,
8,
9,
10,
11,
14,
17,
19,
19,
18,
20,
25,
28,
25,
22,
23,
25,
31,
27,
24,
23,
24,
26,
25,
20,
19,
20,
24,
20,
17,
13,
15,
18,
17,
11,
7,
9,
10,
9,
1,
-1,
-1,
1,
-3,
-9,
-12,
-11,
-10,
-9,
-15,
-20,
-19,
-16,
-16,
-20,
-26,
-25,
-25,
-23,
-25,
-31,
-30,
-30,
-31,
-30,
-29,
-31,
-32,
-30,
-28,
-26,
-26,
-26,
-28,
-26,
-22,
-18,
-20,
-23,
-23,
-18,
-12,
-11,
-17,
-16,
-12,
-4,
-1,
-5,
-7,
-5,
3,
9,
7,
4,
5,
11,
16,
18,
13,
12,
16,
22,
25,
23,
18,
20,
25,
26,
26,
23,
24,
25,
26,
25,
25,
23,
20,
21,
20,
23,
20,
18,
15,
16,
17,
18,
13,
10,
7,
6,
7,
6,
0,
-3,
-3,
-2,
-2,
-6,
-11,
-12,
-10,
-12,
-15,
-15,
-18,
-19,
-22,
-23,
-24,
-28,
-29,
-28,
-28,
-30,
-27,
-31,
-29,
-29,
-31,
-29,
-27,
-28,
-31,
-31,
-26,
-22,
-24,
-26,
-27,
-25,
-19,
-17,
-19,
-21,
-19,
-12,
-8,
-8,
-12,
-10,
-4,
2,
2,
2,
0,
2,
7,
11,
11,
8,
9,
13,
18,
19,
17,
18,
21,
25,
27,
25,
24,
24,
25,
28,
27,
25,
25,
24,
23,
24,
21,
22,
20,
19,
18,
20,
18,
14,
12,
14,
14,
13,
7,
5,
5,
6,
4,
-1,
-5,
-7,
-6,
-6,
-10,
-15,
-16,
-13,
-13,
-19,
-23,
-21,
-19,
-18,
-24,
-29,
-27,
-23,
-23,
-30,
-34,
-33,
-28,
-24,
-28,
-34,
-35,
-29,
-22,
-24,
-29,
-31,
-25,
-20,
-20,
-20,
-22,
-21,
-17,
-14,
-12,
-14,
-13,
-10,
-6,
-4,
-3,
-3,
-1,
1,
6,
10,
11,
10,
8,
13,
19,
21,
17,
14,
17,
22,
26,
26,
18,
18,
26,
32,
31,
23,
19,
24,
29,
29,
21,
18,
19,
23,
25,
19,
15,
15,
17,
18,
16,
11,
9,
9,
7,
6,
1,
1,
-1,
-3,
-5,
-7,
-6,
-8,
-12,
-13,
-13,
-13,
-15,
-17,
-21,
-23,
-22,
-22,
-25,
-28,
-31,
-29,
-26,
-27,
-31,
-32,
-29,
-26,
-27,
-30,
-29,
-28,
-27,
-25,
-26,
-24,
-24,
-24,
-24,
-22,
-21,
-15,
-16,
-16,
-17,
-13,
-6,
-4,
-7,
-5,
-2,
4,
5,
5,
3,
4,
11,
13,
12,
10,
11,
16,
20,
20,
18,
18,
22,
26,
27,
25,
23,
23,
26,
29,
27,
24,
24,
25,
24,
24,
21,
19,
19,
18,
17,
16,
15,
13,
11,
11,
11,
10,
6,
6,
3,
2,
-1,
-1,
-4,
-8,
-10,
-10,
-13,
-14,
-17,
-16,
-16,
-18,
-20,
-22,
-22,
-22,
-23,
-25,
-28,
-28,
-29,
-30,
-30,
-32,
-31,
-27,
-28,
-30,
-33,
-30,
-25,
-22,
-25,
-27,
-26,
-21,
-17,
-18,
-21,
-21,
-16,
-9,
-9,
-14,
-15,
-10,
-2,
2,
-4,
-4,
-1,
5,
11,
11,
8,
9,
13,
18,
20,
18,
16,
17,
22,
23,
24,
23,
22,
23,
27,
29,
31,
24,
22,
25,
27,
27,
23,
17,
17,
20,
25,
22,
14,
11,
14,
19,
17,
10,
3,
3,
7,
7,
-2,
-7,
-6,
-3,
-3,
-6,
-12,
-14,
-11,
-10,
-13,
-19,
-20,
-20,
-20,
-22,
-26,
-26,
-25,
-26,
-31,
-32,
-29,
-28,
-27,
-31,
-31,
-29,
-25,
-25,
-28,
-28,
-27,
-24,
-22,
-25,
-27,
-23,
-20,
-17,
-19,
-17,
-15,
-13,
-11,
-9,
-6,
-6,
-3,
-1,
1,
4,
6,
7,
5,
6,
11,
14,
16,
13,
12,
16,
21,
24,
20,
19,
21,
25,
28,
26,
23,
22,
27,
30,
27,
22,
19,
23,
25,
23,
18,
16,
18,
18,
17,
16,
11,
11,
12,
11,
7,
4,
2,
3,
1,
-1,
-4,
-5,
-7,
-10,
-13,
-15,
-14,
-14,
-18,
-19,
-19,
-20,
-21,
-22,
-25,
-26,
-27,
-24,
-27,
-29,
-31,
-32,
-30,
-30,
-30,
-31,
-29,
-30,
-31,
-29,
-25,
-23,
-25,
-25,
-23,
-19,
-17,
-15,
-19,
-18,
-13,
-9,
-9,
-11,
-11,
-5,
0,
2,
-1,
-1,
1,
8,
13,
13,
11,
11,
15,
20,
22,
18,
15,
17,
24,
26,
25,
19,
19,
24,
29,
30,
25,
20,
24,
27,
27,
23,
17,
17,
19,
21,
19,
17,
14,
12,
13,
16,
13,
7,
2,
3,
4,
4,
-2,
-5,
-7,
-7,
-5,
-6,
-13,
-18,
-15,
-13,
-12,
-18,
-25,
-26,
-24,
-20,
-24,
-31,
-31,
-28,
-25,
-29,
-31,
-32,
-31,
-27,
-26,
-29,
-32,
-30,
-25,
-23,
-25,
-25,
-23,
-21,
-21,
-22,
-22,
-18,
-15,
-12,
-14,
-14,
-8,
-5,
-4,
-4,
-3,
2,
5,
7,
5,
5,
8,
13,
13,
14,
14,
15,
17,
19,
20,
21,
24,
25,
24,
24,
26,
27,
26,
24,
25,
27,
27,
24,
20,
20,
23,
24,
20,
15,
14,
16,
17,
17,
8,
6,
9,
11,
9,
3,
-1,
-1,
3,
0,
-7,
-12,
-12,
-12,
-13,
-15,
-19,
-19,
-18,
-18,
-21,
-23,
-25,
-23,
-25,
-27,
-29,
-29,
-26,
-29,
-32,
-33,
-29,
-26,
-27,
-29,
-29,
-28,
-25,
-24,
-25,
-25,
-24,
-22,
-20,
-20,
-20,
-17,
-15,
-13,
-11,
-8,
-6,
-6,
-6,
-2,
2,
5,
4,
2,
3,
9,
12,
13,
11,
10,
17,
23,
24,
20,
17,
20,
27,
31,
25,
20,
20,
24,
30,
28,
19,
18,
24,
27,
27,
20,
16,
16,
21,
23,
17,
11,
10,
12,
15,
13,
8,
2,
1,
3,
3,
-1,
-7,
-7,
-8,
-6,
-7,
-11,
-15,
-17,
-17,
-15,
-16,
-20,
-24,
-24,
-22,
-22,
-26,
-29,
-30,
-28,
-26,
-27,
-31,
-32,
-32,
-27,
-25,
-26,
-32,
-31,
-25,
-22,
-23,
-23,
-23,
-20,
-18,
-16,
-19,
-18,
-15,
-11,
-9,
-9,
-8,
-6,
-1,
1,
1,
4,
7,
10,
8,
10,
10,
13,
17,
17,
16,
15,
18,
20,
23,
22,
20,
25,
27,
27,
26,
24,
25,
25,
26,
27,
23,
21,
21,
23,
19,
19,
18,
16,
15,
13,
12,
13,
11,
7,
5,
6,
7,
4,
-1,
-5,
-3,
-3,
-6,
-10,
-16,
-17,
-13,
-12,
-17,
-23,
-23,
-21,
-19,
-22,
-30,
-32,
-27,
-23,
-27,
-33,
-32,
-30,
-31,
-29,
-31,
-30,
-27,
-26,
-27,
-28,
-26,
-24,
-23,
-24,
-25,
-22,
-18,
-15,
-18,
-19,
-14,
-8,
-5,
-5,
-8,
-6,
1,
4,
3,
2,
3,
7,
10,
10,
9,
11,
15,
18,
19,
20,
23,
24,
23,
25,
25,
26,
26,
24,
22,
24,
27,
27,
23,
19,
20,
26,
26,
20,
13,
15,
20,
23,
16,
10,
6,
10,
15,
11,
3,
-3,
-2,
2,
2,
-6,
-14,
-13,
-7,
-6,
-11,
-17,
-19,
-18,
-15,
-16,
-21,
-26,
-25,
-23,
-24,
-27,
-29,
-32,
-31,
-28,
-27,
-29,
-29,
-31,
-31,
-26,
-25,
-26,
-31,
-27,
-24,
-20,
-21,
-22,
-24,
-20,
-16,
-14,
-15,
-16,
-14,
-8,
-6,
-6,
-6,
-5,
1,
4,
5,
6,
7,
10,
13,
13,
11,
13,
15,
18,
18,
18,
18,
22,
25,
24,
25,
25,
27,
26,
27,
27,
24,
24,
27,
27,
23,
20,
18,
19,
20,
18,
13,
13,
14,
15,
12,
8,
6,
6,
5,
5,
1,
-1,
-4,
-5,
-4,
-7,
-9,
-12,
-14,
-17,
-17,
-16,
-20,
-21,
-23,
-23,
-21,
-23,
-31,
-30,
-27,
-25,
-25,
-30,
-34,
-32,
-31,
-26,
-28,
-30,
-31,
-28,
-23,
-24,
-26,
-25,
-24,
-20,
-20,
-20,
-20,
-17,
-15,
-13,
-12,
-10,
-4,
-4,
-3,
-2,
0,
5,
7,
6,
4,
7,
11,
14,
13,
12,
14,
18,
25,
25,
20,
20,
24,
28,
27,
25,
20,
22,
26,
26,
25,
23,
23,
23,
24,
22,
20,
18,
17,
19,
18,
17,
14,
11,
7,
6,
9,
8,
3,
-4,
-4,
-1,
0,
-6,
-13,
-14,
-10,
-7,
-12,
-18,
-24,
-20,
-15,
-16,
-22,
-30,
-31,
-23,
-21,
-27,
-35,
-35,
-29,
-25,
-27,
-34,
-36,
-31,
-26,
-25,
-27,
-29,
-27,
-24,
-22,
-23,
-23,
-21,
-19,
-18,
-17,
-15,
-13,
-11,
-11,
-8,
-5,
-2,
-1,
-3,
1,
6,
8,
9,
8,
10,
14,
16,
16,
15,
15,
19,
22,
21,
17,
23,
25,
26,
26,
24,
25,
26,
29,
27,
22,
22,
25,
27,
23,
18,
15,
18,
20,
17,
11,
9,
11,
13,
12,
7,
2,
3,
5,
5,
0,
-6,
-7,
-6,
-6,
-10,
-16,
-17,
-17,
-17,
-17,
-19,
-22,
-24,
-23,
-23,
-22,
-26,
-29,
-30,
-27,
-26,
-27,
-31,
-33,
-32,
-31,
-25,
-26,
-29,
-31,
-26,
-21,
-21,
-23,
-24,
-23,
-18,
-17,
-17,
-19,
-17,
-11,
-7,
-6,
-6,
-5,
-3,
0,
3,
2,
5,
7,
8,
9,
11,
11,
13,
16,
18,
18,
21,
24,
24,
24,
23,
25,
28,
30,
25,
21,
23,
25,
26,
25,
22,
19,
21,
24,
23,
19,
14,
15,
18,
19,
15,
8,
6,
8,
10,
6,
2,
-1,
-3,
-2,
-2,
-7,
-10,
-12,
-13,
-12,
-13,
-17,
-19,
-21,
-19,
-19,
-21,
-24,
-28,
-31,
-29,
-23,
-26,
-33,
-35,
-32,
-26,
-26,
-32,
-36,
-33,
-26,
-22,
-25,
-30,
-31,
-23,
-16,
-18,
-23,
-24,
-18,
-13,
-12,
-14,
-16,
-11,
-5,
-3,
-5,
-4,
-1,
2,
6,
7,
7,
10,
13,
15,
14,
15,
18,
19,
17,
19,
20,
22,
25,
26,
24,
25,
27,
27,
26,
24,
24,
27,
24,
21,
20,
21,
23,
20,
16,
16,
19,
18,
14,
11,
7,
10,
10,
6,
-1,
-3,
-1,
2,
-1,
-10,
-13,
-9,
-5,
-7,
-17,
-20,
-19,
-16,
-17,
-23,
-29,
-28,
-23,
-34,
