5-grundlagen-opAmps/data/ALL0029/A0029CH1.CSV

Memory Length,4000,
Trigger Level,0.00000e+00,
Source,CH1,
Probe,1.0X,
Vertical Units,V,
Vertical Scale,5.00000e-02,
Vertical Position,0.00000e+00,
Horizontal Units,S,
Horizontal Scale,1.00000e-07,
Horizontal Position,1.0000000e-07,
Horizontal Mode,Main,
Sampling Period,2.00000e-09,
Firmware,V1.14,
Time, ,
Mode,Fast,
Waveform Data,
15,
15,
10,
15,
29,
31,
20,
12,
13,
21,
28,
24,
14,
9,
14,
20,
19,
14,
9,
8,
10,
10,
9,
4,
1,
1,
1,
1,
-4,
-6,
-9,
-9,
-9,
-12,
-13,
-16,
-19,
-18,
-16,
-17,
-24,
-26,
-24,
-24,
-23,
-27,
-29,
-28,
-27,
-28,
-29,
-29,
-29,
-28,
-28,
-31,
-29,
-28,
-26,
-25,
-28,
-29,
-25,
-17,
-17,
-21,
-25,
-19,
-14,
-11,
-12,
-14,
-13,
-7,
-2,
-2,
-6,
-6,
0,
7,
7,
3,
3,
4,
11,
16,
16,
12,
7,
11,
19,
23,
20,
14,
15,
20,
26,
24,
19,
16,
18,
23,
25,
20,
17,
14,
18,
20,
18,
14,
11,
11,
13,
14,
11,
5,
2,
1,
4,
4,
1,
-4,
-7,
-8,
-4,
-5,
-9,
-15,
-18,
-17,
-13,
-15,
-21,
-25,
-28,
-19,
-22,
-25,
-26,
-32,
-27,
-28,
-29,
-28,
-30,
-32,
-31,
-28,
-26,
-27,
-28,
-30,
-28,
-24,
-22,
-22,
-27,
-28,
-20,
-14,
-14,
-20,
-25,
-16,
-6,
-2,
-7,
-14,
-12,
-4,
6,
5,
-3,
-6,
2,
12,
13,
8,
4,
8,
14,
18,
18,
15,
12,
15,
21,
24,
21,
17,
16,
19,
26,
27,
21,
15,
13,
18,
26,
24,
15,
5,
9,
20,
21,
14,
3,
2,
10,
14,
11,
-1,
-7,
-2,
5,
2,
-7,
-14,
-12,
-5,
-7,
-14,
-19,
-19,
-15,
-15,
-24,
-24,
-25,
-24,
-23,
-27,
-28,
-28,
-28,
-29,
-30,
-29,
-29,
-27,
-30,
-32,
-32,
-28,
-25,
-27,
-28,
-27,
-25,
-23,
-24,
-20,
-19,
-19,
-19,
-17,
-15,
-11,
-8,
-10,
-12,
-8,
0,
0,
-2,
-4,
-1,
6,
10,
7,
3,
4,
13,
18,
17,
9,
9,
16,
24,
27,
17,
11,
17,
25,
29,
22,
16,
16,
21,
24,
23,
18,
13,
14,
19,
20,
17,
11,
9,
10,
12,
12,
7,
2,
-1,
1,
5,
4,
-3,
-10,
-9,
-5,
-4,
-9,
-15,
-19,
-16,
-14,
-14,
-18,
-26,
-25,
-23,
-20,
-25,
-28,
-29,
-30,
-27,
-28,
-28,
-28,
-31,
-30,
-29,
-28,
-27,
-29,
-31,
-28,
-23,
-24,
-24,
-26,
-25,
-21,
-16,
-14,
-17,
-19,
-16,
-12,
-6,
-6,
-9,
-10,
-7,
0,
6,
5,
0,
-2,
3,
12,
15,
11,
7,
8,
15,
23,
21,
14,
11,
16,
26,
26,
19,
11,
17,
24,
29,
23,
15,
14,
19,
24,
23,
16,
9,
9,
16,
20,
14,
8,
4,
5,
8,
9,
6,
-1,
-4,
-5,
-2,
0,
-8,
-14,
-15,
-11,
-8,
-14,
-21,
-26,
-21,
-16,
-17,
-24,
-31,
-28,
-20,
-20,
-27,
-34,
-33,
-28,
-23,
-27,
-34,
-32,
-28,
-26,
-28,
-31,
-29,
-25,
-24,
-26,
-27,
-26,
-20,
-13,
-18,
-23,
-19,
-12,
-7,
-10,
-13,
-10,
-5,
-1,
-1,
-2,
-1,
2,
6,
8,
6,
6,
8,
12,
14,
15,
16,
14,
15,
16,
20,
25,
19,
16,
16,
20,
28,
23,
16,
12,
18,
26,
27,
19,
7,
9,
21,
24,
16,
4,
4,
10,
14,
12,
1,
-3,
-2,
3,
4,
-3,
-10,
-12,
-6,
-5,
-10,
-15,
-19,
-19,
-18,
-16,
-19,
-23,
-26,
-26,
-25,
-20,
-22,
-28,
-33,
-31,
-24,
-25,
-28,
-33,
-34,
-28,
-25,
-26,
-31,
-32,
-28,
-20,
-20,
-26,
-27,
-21,
-19,
-16,
-17,
-17,
-15,
-14,
-10,
-8,
-6,
-7,
-6,
-6,
-3,
3,
6,
5,
1,
1,
9,
15,
15,
10,
6,
11,
20,
24,
18,
13,
14,
19,
27,
23,
17,
14,
19,
25,
26,
21,
15,
14,
19,
23,
21,
15,
9,
9,
16,
17,
13,
3,
1,
4,
9,
8,
0,
-6,
-7,
-3,
0,
-5,
-13,
-16,
-13,
-9,
-12,
-18,
-24,
-23,
-18,
-18,
-24,
-28,
-29,
-26,
-24,
-24,
-29,
-33,
-32,
-29,
-26,
-28,
-32,
-32,
-30,
-26,
-25,
-26,
-29,
-28,
-25,
-20,
-21,
-22,
-20,
-15,
-15,
-16,
-15,
-13,
-8,
-7,
-8,
-9,
-7,
0,
4,
3,
0,
0,
7,
12,
10,
6,
7,
13,
19,
19,
15,
12,
17,
24,
25,
19,
14,
16,
22,
28,
23,
17,
13,
16,
22,
23,
21,
15,
11,
13,
18,
18,
12,
5,
3,
7,
11,
10,
3,
-5,
-4,
1,
4,
-3,
-14,
-18,
-8,
-3,
-7,
-20,
-27,
-20,
-12,
-12,
-24,
-33,
-30,
-22,
-16,
-23,
-31,
-35,
-32,
-26,
-25,
-30,
-32,
-32,
-28,
-28,
-29,
-27,
-28,
-28,
-28,
-23,
-20,
-21,
-21,
-24,
-19,
-13,
-13,
-16,
-18,
-13,
-4,
-1,
-6,
-11,
-8,
1,
6,
4,
1,
2,
7,
11,
13,
11,
10,
11,
14,
17,
17,
18,
18,
18,
18,
18,
23,
24,
20,
16,
18,
23,
25,
20,
15,
14,
19,
23,
20,
10,
6,
9,
16,
17,
6,
-1,
1,
8,
9,
2,
-5,
-9,
-4,
-2,
-5,
-10,
-15,
-16,
-13,
-11,
-16,
-20,
-25,
-23,
-20,
-21,
-24,
-29,
-29,
-28,
-25,
-25,
-29,
-34,
-32,
-29,
-24,
-28,
-32,
-32,
-28,
-24,
-25,
-26,
-27,
-28,
-22,
-18,
-19,
-21,
-21,
-15,
-15,
-13,
-12,
-11,
-6,
-6,
-7,
-4,
-1,
2,
3,
4,
2,
4,
9,
12,
12,
10,
12,
15,
18,
19,
16,
16,
18,
21,
25,
19,
17,
16,
20,
28,
24,
17,
13,
16,
25,
25,
17,
9,
7,
14,
20,
17,
5,
0,
6,
9,
12,
2,
-7,
-5,
-1,
2,
-1,
-11,
-16,
-14,
-8,
-7,
-15,
-23,
-25,
-17,
-15,
-17,
-26,
-33,
-29,
-23,
-16,
-24,
-33,
-37,
-33,
-22,
-21,
-30,
-37,
-35,
-25,
-21,
-24,
-32,
-34,
-26,
-20,
-17,
-25,
-27,
-20,
-15,
-12,
-16,
-19,
-15,
-9,
-7,
-7,
-6,
-6,
-3,
0,
0,
3,
6,
7,
7,
6,
11,
16,
16,
11,
9,
16,
21,
22,
18,
14,
16,
22,
25,
22,
17,
17,
20,
24,
22,
18,
16,
17,
19,
18,
15,
15,
11,
10,
8,
11,
12,
6,
1,
0,
1,
5,
3,
-7,
-12,
-10,
-4,
-2,
-9,
-21,
-22,
-14,
-9,
-16,
-26,
-30,
-23,
-17,
-21,
-29,
-35,
-28,
-23,
-25,
-30,
-35,
-33,
-27,
-27,
-27,
-32,
-30,
-28,
-26,
-25,
-28,
-25,
-24,
-23,
-24,
-18,
-16,
-17,
-16,
-16,
-13,
-8,
-7,
-8,
-8,
-6,
-1,
0,
0,
0,
4,
8,
7,
6,
9,
12,
14,
11,
12,
15,
19,
20,
17,
15,
18,
23,
25,
20,
15,
17,
23,
25,
21,
15,
14,
20,
25,
21,
14,
7,
11,
17,
18,
12,
2,
1,
7,
11,
7,
-1,
-7,
-8,
-1,
1,
-5,
-13,
-17,
-15,
-9,
-9,
-17,
-25,
-27,
-17,
-15,
-21,
-29,
-33,
-26,
-20,
-19,
-30,
-36,
-36,
-28,
-19,
-26,
-34,
-38,
-32,
-21,
-21,
-27,
-32,
-30,
-23,
-18,
-16,
-23,
-25,
-20,
-12,
-8,
-14,
-16,
-15,
-8,
-3,
-1,
-5,
-7,
-3,
4,
9,
5,
1,
4,
9,
15,
15,
11,
11,
13,
17,
19,
19,
18,
18,
18,
20,
20,
21,
21,
22,
18,
18,
22,
21,
20,
16,
13,
16,
17,
16,
12,
8,
10,
12,
12,
6,
0,
0,
3,
4,
0,
-6,
-7,
-8,
-7,
-8,
-9,
-14,
-19,
-20,
-20,
-15,
-19,
-24,
-27,
-27,
-21,
-21,
-25,
-32,
-34,
-29,
-25,
-24,
-31,
-36,
-32,
-24,
-23,
-30,
-35,
-31,
-21,
-20,
-25,
-29,
-27,
-19,
-13,
-15,
-21,
-21,
-14,
-9,
-8,
-11,
-9,
-4,
-3,
-3,
-2,
0,
3,
4,
4,
5,
9,
12,
13,
11,
11,
13,
19,
19,
17,
16,
19,
22,
22,
19,
18,
19,
22,
20,
20,
19,
19,
18,
17,
18,
18,
17,
15,
8,
9,
14,
16,
11,
0,
-2,
4,
10,
5,
-7,
-12,
-9,
1,
0,
-10,
-17,
-20,
-12,
-7,
-14,
-25,
-30,
-23,
-14,
-17,
-28,
-35,
-29,
-23,
-21,
-26,
-33,
-35,
-31,
-26,
-23,
-29,
-35,
-36,
-28,
-20,
-21,
-28,
-32,
-28,
-21,
-13,
-16,
-23,
-26,
-19,
-8,
-8,
-14,
-19,
-12,
-3,
2,
-2,
-8,
-7,
2,
10,
11,
3,
0,
9,
15,
17,
14,
11,
13,
15,
19,
21,
18,
17,
16,
20,
22,
21,
19,
17,
21,
20,
20,
22,
19,
17,
16,
16,
16,
13,
12,
11,
9,
8,
7,
6,
4,
1,
0,
-1,
-1,
-3,
-8,
-9,
-10,
-9,
-10,
-13,
-16,
-19,
-18,
-16,
-16,
-23,
-28,
-27,
-24,
-22,
-26,
-32,
-32,
-29,
-27,
-27,
-27,
-30,
-33,
-30,
-27,
-25,
-28,
-30,
-28,
-24,
-21,
-21,
-24,
-24,
-22,
-15,
-12,
-15,
-19,
-17,
-9,
-4,
-5,
-8,
-10,
-1,
3,
5,
3,
0,
2,
9,
12,
10,
8,
12,
16,
17,
15,
16,
19,
21,
19,
16,
16,
21,
24,
22,
19,
18,
21,
22,
21,
14,
14,
19,
19,
17,
10,
7,
10,
14,
14,
7,
2,
1,
3,
5,
4,
-2,
-7,
-7,
-7,
-6,
-8,
-11,
-17,
-19,
-16,
-13,
-14,
-23,
-29,
-25,
-19,
-17,
-26,
-36,
-31,
-23,
-19,
-26,
-35,
-40,
-31,
-19,
-20,
-32,
-40,
-35,
-19,
-15,
-24,
-35,
-32,
-19,
-13,
-15,
-20,
-23,
-19,
-10,
-7,
-10,
-13,
-12,
-8,
-1,
0,
0,
-2,
-2,
3,
9,
12,
6,
3,
9,
16,
20,
16,
10,
9,
19,
26,
24,
16,
12,
18,
25,
27,
20,
12,
15,
22,
25,
19,
16,
15,
18,
18,
16,
11,
11,
12,
13,
8,
3,
4,
5,
4,
0,
-4,
-3,
-2,
-6,
-10,
-13,
-10,
-9,
-12,
-16,
-19,
-20,
-18,
-17,
-19,
-27,
-28,
-24,
-24,
-25,
-27,
-32,
-32,
-29,
-28,
-27,
-29,
-31,
-32,
-28,
-24,
-24,
-29,
-30,
-27,
-21,
-20,
-24,
-23,
-22,
-18,
-12,
-12,
-15,
-17,
-10,
-5,
-3,
-5,
-8,
-4,
1,
4,
7,
3,
2,
5,
10,
15,
13,
11,
12,
14,
19,
20,
19,
17,
17,
19,
24,
21,
19,
18,
19,
22,
21,
19,
19,
17,
17,
18,
17,
16,
14,
12,
12,
9,
11,
9,
5,
1,
-1,
1,
5,
2,
-7,
-13,
-8,
-4,
-5,
-12,
-21,
-19,
-15,
-13,
-15,
-25,
-28,
-26,
-20,
-19,
-26,
-32,
-32,
-28,
-22,
-25,
-30,
-33,
-31,
-28,
-25,
-24,
-32,
-36,
-32,
-20,
-17,
-23,
-30,
-29,
-19,
-11,
-12,
-20,
-27,
-19,
-4,
-1,
-7,
-18,
-16,
-1,
7,
4,
-5,
-7,
3,
11,
13,
6,
2,
7,
17,
21,
13,
11,
15,
17,
25,
21,
19,
17,
18,
20,
23,
25,
20,
18,
16,
19,
25,
21,
17,
12,
13,
17,
19,
14,
6,
3,
10,
12,
5,
0,
-3,
1,
2,
-3,
-9,
-10,
-8,
-7,
-10,
-15,
-17,
-15,
-14,
-17,
-25,
-26,
-20,
-18,
-25,
-31,
-31,
-24,
-22,
-26,
-34,
-35,
-28,
-24,
-25,
-33,
-35,
-32,
-25,
-21,
-27,
-30,
-29,
-19,
-19,
-21,
-21,
-23,
-17,
-15,
-13,
-11,
-15,
-13,
-9,
-5,
-2,
-2,
-4,
-3,
2,
7,
10,
6,
1,
5,
16,
20,
14,
6,
10,
16,
22,
22,
16,
16,
18,
24,
24,
20,
17,
17,
24,
23,
21,
18,
16,
19,
18,
15,
16,
14,
12,
10,
9,
11,
8,
6,
3,
0,
1,
1,
0,
-5,
-9,
-10,
-8,
-5,
-11,
-16,
-20,
-19,
-15,
-16,
-19,
-25,
-27,
-25,
-20,
-21,
-29,
-32,
-33,
-28,
-22,
-27,
-33,
-35,
-30,
-24,
-24,
-28,
-35,
-33,
-25,
-17,
-21,
-28,
-30,
-20,
-13,
-12,
-16,
-24,
-19,
-12,
-4,
-3,
-9,
-13,
-6,
1,
6,
3,
-2,
-2,
6,
13,
15,
11,
5,
8,
18,
22,
17,
11,
11,
19,
29,
26,
18,
11,
14,
27,
28,
22,
13,
11,
21,
24,
22,
16,
13,
15,
17,
16,
12,
9,
9,
8,
9,
5,
1,
1,
0,
-1,
-3,
-5,
-6,
-9,
-11,
-13,
-11,
-13,
-18,
-20,
-21,
-18,
-20,
-24,
-25,
-28,
-25,
-25,
-28,
-29,
-27,
-26,
-29,
-31,
-31,
-28,
-26,
-28,
-32,
-33,
-27,
-19,
-22,
-28,
-32,
-23,
-15,
-15,
-20,
-26,
-19,
-10,
-4,
-10,
-16,
-15,
-4,
4,
-1,
-6,
-5,
3,
10,
8,
5,
3,
7,
12,
16,
16,
13,
12,
15,
19,
21,
22,
20,
17,
19,
22,
25,
24,
17,
14,
20,
25,
25,
17,
12,
14,
19,
20,
15,
8,
7,
10,
13,
11,
1,
-1,
1,
4,
2,
-4,
-8,
-7,
-7,
-8,
-11,
-12,
-13,
-17,
-20,
-19,
-17,
-17,
-20,
-29,
-29,
-25,
-24,
-24,
-31,
-34,
-28,
-27,
-24,
-30,
-35,
-32,
-27,
-24,
-27,
-31,
-31,
-27,
-21,
-18,
-24,
-28,
-24,
-17,
-12,
-13,
-16,
-18,
-15,
-7,
-2,
-3,
-9,
-13,
-3,
5,
9,
4,
-3,
-1,
9,
16,
16,
8,
6,
13,
22,
22,
15,
10,
13,
22,
28,
24,
16,
12,
20,
28,
26,
20,
11,
14,
21,
25,
20,
13,
11,
13,
18,
17,
12,
5,
3,
6,
9,
5,
-2,
-5,
-3,
-1,
-4,
-8,
-11,
-11,
-9,
-12,
-16,
-18,
-19,
-18,
-20,
-23,
-23,
-25,
-24,
-26,
-26,
-29,
-28,
-27,
-28,
-31,
-32,
-29,
-27,
-27,
-28,
-31,
-29,
-26,
-24,
-24,
-25,
-25,
-25,
-18,
-17,
-17,
-19,
-18,
-16,
-11,
-6,
-7,
-10,
-11,
-4,
2,
4,
-1,
-3,
2,
11,
14,
8,
4,
5,
15,
23,
19,
10,
6,
16,
26,
25,
17,
12,
17,
25,
29,
24,
16,
16,
19,
24,
22,
17,
14,
15,
17,
16,
15,
14,
9,
7,
7,
10,
9,
2,
-3,
-3,
1,
2,
-3,
-10,
-15,
-10,
-5,
-8,
-15,
-22,
-20,
-15,
-15,
-20,
-27,
-29,
-24,
-22,
-24,
-29,
-29,
-27,
-27,
-28,
-30,
-27,
-28,
-29,
-32,
-28,
-25,
-25,
-27,
-30,
-27,
-21,
-16,
-22,
-26,
-24,
-13,
-9,
-14,
-20,
-17,
-7,
-1,
0,
-7,
-11,
-5,
5,
9,
4,
-1,
2,
8,
13,
14,
12,
9,
12,
16,
20,
20,
17,
15,
16,
22,
25,
23,
17,
16,
19,
25,
27,
19,
11,
14,
21,
27,
18,
9,
6,
12,
19,
16,
5,
-1,
3,
7,
9,
3,
-7,
-8,
-2,
-1,
-6,
-13,
-14,
-11,
-11,
-15,
-19,
-20,
-19,
-18,
-23,
-24,
-25,
-27,
-25,
-26,
-27,
-28,
-29,
-29,
-29,
-30,
-29,
-29,
-29,
-29,
-28,
-28,
-27,
-26,
-26,
-20,
-23,
-24,
-22,
-16,
-13,
-15,
-19,
-17,
-12,
-7,
-4,
-7,
-10,
-6,
0,
4,
2,
-1,
0,
8,
12,
11,
8,
8,
11,
18,
20,
17,
11,
10,
19,
25,
25,
18,
13,
17,
26,
29,
24,
15,
12,
18,
26,
25,
17,
8,
9,
17,
20,
15,
5,
2,
8,
11,
9,
1,
-5,
-4,
3,
1,
-6,
-12,
-13,
-10,
-7,
-13,
-15,
-18,
-22,
-20,
-20,
-18,
-22,
-27,
-28,
-27,
-23,
-25,
-28,
-32,
-31,
-26,
-25,
-26,
-31,
-34,
-29,
-24,
-23,
-29,
-32,
-28,
-22,
-21,
-21,
-23,
-22,
-20,
-16,
-15,
-13,
-14,
-12,
-11,
-8,
-3,
0,
-2,
-5,
-4,
4,
11,
9,
2,
1,
9,
18,
19,
12,
5,
13,
22,
26,
21,
12,
14,
21,
28,
25,
16,
16,
19,
28,
24,
19,
15,
14,
19,
21,
17,
12,
9,
11,
13,
13,
11,
7,
3,
1,
3,
6,
2,
-6,
-10,
-8,
-3,
-4,
-13,
-20,
-16,
-12,
-13,
-19,
-26,
-25,
-19,
-18,
-24,
-28,
-31,
-27,
-20,
-26,
-32,
-34,
-30,
-25,
-27,
-33,
-31,
-28,
-25,
-27,
-29,
-27,
-24,
-20,
-23,
-26,
-24,
-16,
-12,
-15,
-17,
-17,
-13,
-6,
-6,
-7,
-7,
-6,
-1,
3,
3,
2,
2,
5,
9,
13,
12,
11,
9,
13,
18,
20,
19,
14,
13,
21,
27,
25,
17,
12,
16,
29,
30,
20,
12,
12,
21,
28,
21,
10,
6,
12,
20,
18,
10,
3,
1,
7,
11,
7,
-2,
-6,
-4,
1,
1,
-9,
-15,
-16,
-10,
-7,
-13,
-19,
-24,
-21,
-17,
-15,
-19,
-30,
-30,
-27,
-20,
-23,
-31,
-33,
-32,
-26,
-25,
-28,
-32,
-31,
-30,
-27,
-26,
-27,
-29,
-28,
-26,
-22,
-20,
-20,
-19,
-21,
-18,
-13,
-11,
-12,
-14,
-10,
-6,
-2,
-2,
-5,
-3,
1,
3,
8,
8,
5,
5,
11,
14,
14,
14,
13,
13,
17,
18,
22,
21,
17,
16,
20,
24,
26,
19,
14,
17,
25,
25,
21,
13,
11,
17,
23,
18,
10,
3,
10,
16,
13,
5,
-3,
-1,
4,
5,
3,
-7,
-10,
-8,
-4,
-6,
-14,
-17,
-18,
-14,
-16,
-19,
-20,
-24,
-23,
-26,
-25,
-20,
-28,
-29,
-29,
-27,
-25,
-29,
-32,
-32,
-27,
-26,
-26,
-29,
-31,
-27,
-24,
-23,
-25,
-28,
-24,
-18,
-18,
-20,
-23,
-15,
-12,
-12,
-16,
-15,
-6,
-2,
0,
-7,
-8,
1,
8,
10,
1,
-1,
7,
15,
18,
10,
7,
12,
20,
24,
18,
14,
13,
19,
27,
24,
17,
12,
19,
25,
25,
22,
15,
14,
19,
21,
23,
18,
11,
7,
12,
18,
15,
8,
1,
-2,
7,
9,
5,
-6,
-11,
-5,
0,
1,
-14,
-22,
-16,
-9,
-6,
-17,
-27,
-27,
-20,
-14,
-19,
-27,
-31,
-30,
-20,
-20,
-28,
-35,
-35,
-29,
-25,
-26,
-30,
-31,
-30,
-28,
-25,
-24,
-26,
-27,
-28,
-24,
-19,
-19,
-21,
-20,
-16,
-14,
-10,
-12,
-13,
-11,
-5,
0,
-2,
-5,
-4,
0,
5,
6,
7,
8,
7,
9,
13,
15,
15,
13,
15,
17,
18,
20,
21,
20,
17,
18,
22,
23,
22,
16,
17,
20,
21,
22,
17,
15,
14,
16,
17,
14,
9,
5,
12,
11,
9,
2,
-2,
-1,
1,
2,
0,
-8,
-12,
-12,
-8,
-6,
-12,
-19,
-21,
-17,
-15,
-19,
-25,
-28,
-25,
-21,
-20,
-27,
-31,
-30,
-28,
-23,
-28,
-33,
-32,
-29,
-28,
-30,
-29,
-30,
-27,
-26,
-27,
-23,
-22,
-24,
-21,
-23,
-16,
-15,
-15,
-13,
-15,
-13,
-8,
-7,
-6,
-7,
-3,
0,
1,
2,
4,
8,
7,
6,
11,
13,
16,
15,
13,
12,
17,
22,
21,
17,
13,
17,
27,
24,
20,
12,
14,
27,
30,
23,
12,
11,
20,
26,
22,
11,
3,
8,
17,
19,
7,
-1,
-1,
5,
9,
3,
-4,
-10,
-8,
-4,
-4,
-5,
-15,
-19,
-16,
-12,
-13,
-19,
-26,
-27,
-22,
-16,
-20,
-29,
-35,
-33,
-21,
-17,
-28,
-38,
-38,
-28,
-18,
-24,
-35,
-37,
-29,
-20,
-19,
-27,
-34,
-29,
-20,
-15,
-19,
-24,
-24,
-14,
-10,
-13,
-13,
-11,
-9,
-6,
-4,
-2,
-2,
-1,
3,
3,
5,
7,
10,
8,
7,
11,
16,
19,
14,
10,
16,
21,
22,
20,
17,
18,
21,
23,
22,
21,
20,
18,
19,
19,
19,
19,
18,
16,
13,
13,
16,
14,
9,
5,
6,
9,
9,
1,
-4,
-3,
1,
2,
-4,
-12,
-15,
-11,
-6,
-9,
-19,
-23,
-21,
-16,
-16,
-22,
-28,
-28,
-24,
-21,
-24,
-31,
-31,
-32,
-28,
-26,
-27,
-32,
-32,
-28,
-27,
-27,
-28,
-29,
-28,
-25,
-25,
-20,
-22,
-24,
-21,
-16,
-14,
-14,
-16,
-13,
-10,
-8,
-6,
-5,
-6,
-3,
-1,
2,
3,
5,
6,
7,
7,
8,
15,
16,
13,
12,
13,
18,
21,
20,
18,
17,
18,
22,
24,
21,
18,
18,
22,
24,
22,
18,
16,
15,
19,
20,
17,
11,
5,
7,
13,
16,
5,
-4,
-4,
3,
8,
3,
-7,
-13,
-10,
-1,
-2,
-12,
-22,
-22,
-11,
-9,
-16,
-27,
-31,
-23,
-16,
-18,
-28,
-34,
-29,
-26,
-20,
-26,
-35,
-35,
-31,
-24,
-22,
-28,
-33,
-33,
-25,
-22,
-20,
-24,
-29,
-28,
-21,
-12,
-15,
-22,
-24,
-16,
-7,
-5,
-11,
-15,
-12,
-2,
5,
0,
-6,
-3,
5,
12,
10,
4,
5,
9,
17,
17,
13,
12,
15,
19,
20,
19,
17,
20,
23,
21,
18,
20,
23,
22,
19,
16,
19,
21,
21,
17,
12,
13,
16,
14,
12,
8,
6,
8,
7,
5,
1,
-1,
0,
-2,
-3,
-8,
-7,
-9,
-12,
-14,
-12,
-11,
-16,
-22,
-27,
-20,
-17,
-19,
-25,
-34,
-28,
-21,
-21,
-27,
-37,
-36,
-26,
-23,
-28,
-35,
-35,
-28,
-22,
-25,
-32,
-31,
-25,
-20,
-19,
-22,
-23,
-22,
-15,
-13,
-15,
-15,
-15,
-11,
-9,
-7,
-4,
-3,
-1,
-2,
1,
5,
6,
7,
5,
5,
10,
14,
16,
14,
12,
14,
18,
22,
19,
18,
19,
19,
20,
19,
22,
20,
18,
18,
20,
22,
19,
17,
15,
16,
19,
18,
14,
8,
6,
11,
14,
11,
1,
-5,
-1,
5,
6,
-3,
-12,
-13,
-8,
-3,
-8,
-16,
-22,
-20,
-12,
-11,
-18,
-27,
-29,
-25,
-19,
-21,
-32,
-35,
-31,
-24,
-20,
-27,
-36,
-38,
-31,
-22,
-23,
-32,
-36,
-32,
-21,
-18,
-24,
-29,
-30,
-22,
-13,
-13,
-19,
-22,
-18,
-9,
-5,
-7,
-10,
-10,
-6,
0,
3,
1,
0,
0,
6,
12,
12,
8,
7,
11,
17,
18,
17,
13,
14,
19,
24,
24,
17,
15,
20,
25,
25,
19,
16,
18,
21,
20,
18,
15,
15,
17,
15,
13,
10,
10,
13,
9,
3,
2,
4,
6,
2,
-4,
-8,
-5,
-1,
-5,
-12,
-15,
-14,
-10,
-13,
-18,
-22,
-23,
-20,
-19,
-22,
-26,
-29,
-27,
-26,
-26,
-26,
-31,
-31,
-32,
-30,
-27,
-27,
-30,
-34,
-31,
-25,
-21,
-25,
-31,
-29,
-23,
-15,
-16,
-22,
-25,
-16,
-8,
-7,
-15,
-19,
-11,
-2,
1,
-3,
-7,
-3,
3,
8,
8,
2,
3,
9,
15,
13,
13,
15,
16,
17,
16,
17,
21,
21,
19,
17,
16,
24,
24,
20,
17,
15,
20,
24,
20,
14,
12,
16,
20,
17,
10,
6,
8,
11,
10,
6,
3,
-1,
-1,
1,
0,
-3,
-8,
-11,
-11,
-9,
-8,
-11,
-18,
-23,
-21,
-16,
-13,
-21,
-30,
-31,
-24,
-17,
-22,
-33,
-36,
-29,
-22,
-24,
-31,
-38,
-34,
-24,
-18,
-26,
-35,
-36,
-26,
-16,
-18,
-26,
-28,
-25,
-16,
-11,
-12,
-19,
-21,
-13,
-5,
-4,
-7,
-10,
-8,
-2,
5,
5,
0,
0,
2,
12,
15,
10,
7,
8,
15,
20,
18,
14,
12,
18,
24,
24,
19,
15,
17,
23,
24,
22,
18,
17,
19,
20,
19,
19,
16,
13,
13,
13,
13,
10,
8,
11,
7,
4,
2,
2,
1,
0,
-4,
-6,
-7,
-7,
-9,
-10,
-14,
-18,
-16,
-16,
-16,
-22,
-25,
-24,
-20,
-22,
-27,
-29,
-31,
-24,
-22,
-28,
-34,
-34,
-29,
-24,
-24,
-31,
-35,
-32,
-24,
-22,
-25,
-28,
-27,
-22,
-19,
-16,
-18,
-20,
-18,
-15,
-10,
-9,
-12,
-10,
-9,
-3,
0,
0,
-1,
-2,
2,
9,
13,
8,
3,
7,
15,
20,
17,
12,
11,
18,
24,
24,
18,
14,
18,
24,
23,
21,
18,
19,
21,
19,
17,
18,
18,
18,
15,
12,
14,
14,
12,
9,
5,
6,
9,
7,
-1,
-6,
-4,
2,
3,
-7,
-15,
-15,
-9,
-5,
-12,
-20,
-24,
-19,
-15,
-17,
-23,
-27,
-28,
-24,
-23,
-25,
-30,
-31,
-32,
-28,
-26,
-29,
-31,
-33,
-33,
-27,
-22,
-25,
-32,
-34,
-27,
-16,
-15,
-25,
-30,
-25,
-14,
-6,
-12,
-21,
-21,
-9,
2,
-1,
-10,
-14,
-4,
7,
8,
4,
-1,
3,
10,
16,
14,
9,
8,
14,
19,
19,
16,
15,
15,
20,
24,
21,
21,
17,
17,
22,
24,
24,
18,
16,
17,
19,
21,
17,
12,
10,
13,
16,
12,
6,
4,
6,
8,
4,
-1,
-4,
-3,
-1,
-6,
-9,
-10,
-9,
-8,
-13,
-15,
-21,
-18,
-16,
-19,
-24,
-27,
-26,
-21,
-25,
-27,
-32,
-30,
-25,
-25,
-30,
-35,
-31,
-28,
-25,
-24,
-30,
-32,
-29,
-23,
-19,
-24,
-28,
-28,
-21,
-16,
-14,
-17,
-22,
-17,
-8,
-4,
-8,
-14,
-12,
-3,
2,
2,
-1,
-4,
1,
8,
12,
10,
5,
5,
12,
20,
19,
15,
12,
14,
21,
24,
23,
18,
15,
18,
25,
23,
21,
16,
15,
19,
21,
22,
18,
12,
13,
18,
17,
15,
7,
4,
9,
9,
7,
1,
-1,
-1,
-1,
-1,
-4,
-6,
-9,
-11,
-12,
-12,
-11,
-15,
-20,
-23,
-22,
-18,
-17,
-20,
-29,
-33,
-25,
-20,
-23,
-30,
-37,
-32,
-23,
-24,
-31,
-35,
-33,
-25,
-21,
-27,
-32,
-32,
-26,
-17,
-19,
-22,
-25,
-23,
-15,
-13,
-12,
-15,
-18,
-14,
-8,
-1,
0,
-6,
-7,
-2,
5,
11,
9,
0,
0,
8,
19,
17,
10,
5,
12,
22,
25,
17,
10,
14,
26,
30,
22,
14,
14,
23,
29,
23,
15,
13,
16,
21,
19,
15,
13,
12,
14,
13,
10,
9,
7,
4,
4,
3,
1,
0,
-2,
-4,
-7,
-7,
-8,
-9,
-14,
-15,
-13,
-15,
-19,
-23,
-24,
-20,
-21,
-25,
-27,
-28,
-25,
-27,
-31,
-30,
-27,
-26,
-29,
-32,
-32,
-30,
-24,
-25,
-30,
-34,
-31,
-19,
-18,
-23,
-30,
-27,
-15,
-11,
-14,
-20,
-20,
-13,
-3,
-3,
-9,
-12,
-8,
3,
