4-transistorverstaerker/data/ALL0046/A0046CH2.CSV

Memory Length,4000,
Trigger Level,3.80000e+01,
Source,CH2,
Probe,1.0X,
Vertical Units,V,
Vertical Scale,2.00000e-01,
Vertical Position,0.00000e+00,
Horizontal Units,S,
Horizontal Scale,1.00000e-06,
Horizontal Position,-1.3600000e-06,
Horizontal Mode,Main,
Sampling Period,4.00000e-09,
Firmware,V1.14,
Time, ,
Mode,Fast,
Waveform Data,
20,
20,
20,
21,
20,
21,
21,
20,
21,
20,
20,
20,
20,
20,
19,
20,
20,
20,
19,
19,
19,
18,
19,
19,
19,
19,
18,
19,
19,
18,
19,
18,
19,
18,
17,
18,
18,
17,
19,
17,
18,
18,
16,
18,
17,
17,
18,
17,
17,
16,
17,
16,
16,
16,
16,
17,
16,
15,
16,
14,
16,
15,
15,
15,
14,
15,
14,
14,
15,
13,
15,
13,
14,
13,
12,
13,
13,
13,
13,
11,
14,
12,
12,
12,
11,
12,
11,
12,
11,
10,
11,
9,
11,
9,
10,
11,
9,
11,
9,
9,
10,
7,
10,
8,
8,
9,
7,
8,
8,
7,
8,
6,
7,
7,
7,
6,
6,
7,
6,
6,
6,
5,
6,
5,
6,
4,
5,
5,
3,
5,
4,
3,
5,
2,
3,
3,
2,
3,
2,
1,
3,
1,
2,
2,
1,
1,
1,
1,
1,
1,
0,
0,
0,
-1,
0,
0,
0,
0,
-1,
-1,
-1,
-3,
0,
-2,
-2,
-2,
-3,
-2,
-2,
-4,
-3,
-4,
-3,
-4,
-4,
-4,
-5,
-4,
-4,
-6,
-4,
-6,
-5,
-6,
-6,
-5,
-6,
-6,
-6,
-7,
-7,
-7,
-6,
-8,
-7,
-8,
-8,
-7,
-8,
-7,
-8,
-10,
-7,
-11,
-8,
-9,
-10,
-8,
-10,
-10,
-9,
-12,
-9,
-12,
-9,
-10,
-11,
-11,
-12,
-11,
-12,
-12,
-11,
-13,
-12,
-13,
-12,
-12,
-13,
-12,
-14,
-13,
-13,
-15,
-12,
-15,
-14,
-14,
-15,
-14,
-15,
-16,
-14,
-16,
-15,
-16,
-16,
-16,
-15,
-16,
-16,
-16,
-17,
-18,
-16,
-18,
-17,
-17,
-18,
-17,
-18,
-17,
-17,
-19,
-18,
-18,
-18,
-19,
-19,
-19,
-19,
-19,
-18,
-20,
-19,
-20,
-20,
-20,
-20,
-20,
-20,
-21,
-19,
-21,
-21,
-20,
-21,
-20,
-20,
-21,
-21,
-22,
-21,
-22,
-21,
-21,
-21,
-21,
-22,
-21,
-21,
-22,
-21,
-23,
-21,
-23,
-23,
-22,
-23,
-22,
-23,
-23,
-22,
-23,
-22,
-24,
-22,
-22,
-24,
-22,
-24,
-23,
-23,
-24,
-22,
-24,
-24,
-23,
-24,
-23,
-24,
-22,
-24,
-25,
-23,
-25,
-22,
-24,
-25,
-22,
-26,
-24,
-24,
-25,
-23,
-25,
-24,
-24,
-25,
-24,
-25,
-24,
-25,
-25,
-24,
-25,
-24,
-25,
-25,
-23,
-25,
-24,
-25,
-25,
-24,
-26,
-24,
-25,
-24,
-25,
-25,
-24,
-24,
-24,
-24,
-26,
-24,
-25,
-24,
-23,
-25,
-24,
-24,
-25,
-24,
-25,
-24,
-23,
-24,
-24,
-24,
-24,
-24,
-24,
-24,
-24,
-23,
-25,
-24,
-24,
-24,
-23,
-24,
-24,
-23,
-24,
-22,
-24,
-24,
-23,
-23,
-23,
-23,
-23,
-22,
-23,
-21,
-23,
-23,
-22,
-23,
-22,
-21,
-23,
-21,
-22,
-22,
-22,
-22,
-22,
-22,
-21,
-22,
-21,
-22,
-22,
-20,
-22,
-20,
-20,
-21,
-19,
-20,
-21,
-19,
-21,
-19,
-21,
-20,
-19,
-20,
-19,
-20,
-20,
-18,
-20,
-18,
-19,
-17,
-19,
-19,
-18,
-19,
-18,
-18,
-19,
-17,
-18,
-16,
-18,
-17,
-17,
-18,
-17,
-17,
-17,
-15,
-18,
-15,
-16,
-16,
-15,
-16,
-15,
-15,
-16,
-14,
-15,
-15,
-15,
-15,
-15,
-14,
-14,
-14,
-14,
-13,
-14,
-12,
-14,
-13,
-13,
-13,
-13,
-13,
-12,
-12,
-12,
-11,
-13,
-11,
-11,
-11,
-10,
-11,
-11,
-10,
-12,
-8,
-10,
-10,
-8,
-10,
-9,
-8,
-10,
-8,
-9,
-8,
-8,
-8,
-8,
-7,
-7,
-7,
-7,
-7,
-7,
-5,
-8,
-6,
-6,
-7,
-5,
-5,
-6,
-4,
-6,
-4,
-5,
-5,
-4,
-4,
-4,
-3,
-3,
-3,
-5,
-3,
-4,
-3,
-2,
-3,
-2,
-2,
-2,
-1,
-3,
0,
-1,
-1,
-1,
-1,
0,
-1,
0,
0,
-1,
2,
-1,
1,
1,
0,
2,
1,
2,
3,
1,
4,
1,
2,
3,
3,
3,
3,
4,
4,
4,
5,
3,
4,
4,
4,
5,
5,
5,
5,
5,
6,
5,
7,
6,
7,
7,
6,
8,
6,
7,
9,
7,
8,
8,
8,
9,
7,
9,
9,
9,
9,
9,
9,
10,
11,
10,
10,
10,
10,
11,
11,
11,
11,
10,
11,
12,
11,
12,
12,
12,
13,
12,
14,
13,
13,
13,
13,
14,
14,
13,
14,
13,
15,
14,
14,
15,
14,
15,
15,
14,
16,
15,
16,
15,
16,
16,
15,
17,
16,
16,
17,
15,
19,
16,
18,
18,
16,
18,
17,
17,
19,
16,
19,
18,
18,
18,
17,
19,
18,
18,
19,
18,
20,
18,
19,
19,
18,
20,
19,
19,
20,
19,
20,
19,
20,
19,
20,
21,
19,
21,
20,
19,
23,
18,
21,
21,
20,
22,
20,
21,
22,
20,
22,
21,
21,
21,
22,
21,
21,
23,
21,
22,
22,
22,
24,
21,
21,
22,
22,
23,
22,
22,
23,
22,
24,
21,
23,
22,
22,
22,
23,
22,
23,
21,
24,
22,
23,
23,
22,
22,
24,
22,
24,
23,
24,
22,
24,
23,
23,
24,
23,
23,
24,
22,
25,
22,
23,
23,
22,
23,
23,
21,
24,
21,
22,
23,
23,
22,
22,
23,
24,
23,
23,
21,
24,
21,
22,
22,
23,
23,
22,
21,
24,
21,
22,
21,
23,
21,
21,
21,
20,
23,
23,
19,
23,
20,
21,
22,
20,
22,
21,
20,
21,
20,
22,
20,
20,
20,
20,
21,
19,
20,
19,
19,
22,
18,
20,
19,
19,
20,
18,
20,
19,
18,
20,
18,
20,
19,
18,
18,
17,
19,
18,
17,
19,
17,
18,
17,
17,
17,
17,
17,
17,
17,
17,
17,
17,
16,
17,
16,
16,
17,
16,
16,
16,
15,
16,
15,
15,
15,
15,
15,
14,
13,
15,
13,
15,
13,
14,
13,
14,
13,
13,
13,
13,
12,
13,
13,
11,
12,
12,
12,
11,
10,
11,
11,
11,
10,
11,
10,
10,
11,
10,
9,
11,
8,
11,
9,
9,
10,
8,
9,
8,
7,
9,
7,
7,
8,
7,
8,
6,
7,
6,
6,
7,
5,
7,
6,
6,
6,
4,
6,
4,
5,
5,
3,
5,
2,
4,
3,
2,
5,
2,
3,
4,
1,
4,
2,
2,
2,
1,
2,
1,
1,
2,
1,
0,
0,
1,
-1,
0,
0,
-1,
1,
-1,
-2,
0,
-3,
0,
-2,
-2,
-1,
-3,
-3,
-2,
-3,
-1,
-4,
-3,
-4,
-4,
-4,
-4,
-4,
-5,
-5,
-4,
-5,
-4,
-5,
-5,
-5,
-5,
-6,
-6,
-6,
-6,
-6,
-6,
-7,
-6,
-7,
-8,
-7,
-8,
-8,
-7,
-10,
-7,
-9,
-9,
-8,
-9,
-9,
-9,
-12,
-8,
-11,
-10,
-10,
-11,
-11,
-11,
-11,
-10,
-12,
-12,
-12,
-12,
-12,
-13,
-13,
-13,
-13,
-12,
-13,
-13,
-14,
-12,
-14,
-14,
-14,
-15,
-13,
-15,
-15,
-13,
-17,
-14,
-16,
-15,
-14,
-17,
-16,
-15,
-17,
-15,
-17,
-15,
-17,
-16,
-17,
-17,
-17,
-18,
-17,
-17,
-19,
-16,
-19,
-18,
-18,
-19,
-18,
-18,
-19,
-18,
-19,
-17,
-20,
-18,
-19,
-20,
-19,
-20,
-19,
-20,
-20,
-18,
-21,
-20,
-20,
-21,
-20,
-21,
-20,
-21,
-21,
-20,
-21,
-21,
-22,
-21,
-21,
-22,
-21,
-23,
-22,
-21,
-23,
-21,
-22,
-23,
-22,
-23,
-23,
-22,
-23,
-22,
-23,
-22,
-23,
-24,
-23,
-23,
-23,
-22,
-23,
-22,
-23,
-24,
-23,
-24,
-23,
-23,
-24,
-24,
-23,
-24,
-24,
-23,
-25,
-24,
-24,
-25,
-23,
-24,
-25,
-23,
-25,
-24,
-24,
-25,
-23,
-25,
-24,
-24,
-25,
-23,
-25,
-24,
-25,
-25,
-24,
-25,
-24,
-25,
-24,
-24,
-25,
-24,
-25,
-25,
-24,
-25,
-23,
-25,
-25,
-24,
-25,
-23,
-25,
-24,
-24,
-26,
-23,
-26,
-24,
-23,
-26,
-24,
-25,
-24,
-24,
-25,
-24,
-24,
-24,
-23,
-25,
-23,
-25,
-22,
-24,
-24,
-22,
-25,
-23,
-23,
-24,
-22,
-24,
-23,
-23,
-24,
-22,
-24,
-23,
-23,
-23,
-22,
-23,
-22,
-23,
-22,
-22,
-23,
-23,
-23,
-23,
-21,
-22,
-22,
-22,
-21,
-22,
-22,
-22,
-22,
-21,
-22,
-22,
-20,
-22,
-21,
-21,
-21,
-20,
-20,
-21,
-19,
-22,
-20,
-20,
-21,
-20,
-19,
-20,
-19,
-20,
-19,
-19,
-19,
-19,
-19,
-19,
-19,
-18,
-18,
-19,
-18,
-19,
-17,
-18,
-18,
-17,
-17,
-18,
-17,
-18,
-16,
-18,
-15,
-17,
-16,
-16,
-18,
-16,
-15,
-16,
-14,
-16,
-14,
-16,
-16,
-14,
-15,
-14,
-14,
-15,
-14,
-15,
-13,
-14,
-13,
-14,
-13,
-12,
-13,
-13,
-12,
-14,
-12,
-14,
-11,
-12,
-12,
-11,
-12,
-11,
-10,
-12,
-9,
-12,
-9,
-11,
-11,
-8,
-11,
-9,
-8,
-10,
-8,
-10,
-8,
-8,
-8,
-8,
-8,
-7,
-8,
-7,
-7,
-8,
-5,
-8,
-7,
-6,
-7,
-5,
-6,
-7,
-4,
-6,
-4,
-5,
-5,
-5,
-5,
-4,
-4,
-4,
-4,
-4,
-3,
-4,
-2,
-3,
-3,
-2,
-3,
-3,
-2,
-3,
-1,
-2,
-1,
0,
-1,
-1,
0,
0,
0,
-1,
0,
0,
1,
1,
0,
1,
1,
1,
2,
1,
3,
2,
2,
2,
3,
2,
4,
2,
3,
3,
4,
2,
4,
5,
4,
6,
4,
4,
6,
4,
6,
6,
6,
6,
5,
7,
6,
7,
8,
6,
8,
7,
7,
8,
7,
9,
8,
8,
10,
7,
10,
9,
9,
10,
9,
10,
10,
10,
11,
10,
11,
10,
12,
10,
11,
12,
10,
12,
12,
11,
14,
11,
13,
13,
12,
13,
13,
13,
14,
13,
15,
13,
15,
14,
15,
15,
14,
15,
15,
14,
16,
15,
16,
15,
16,
16,
16,
17,
16,
17,
17,
15,
18,
16,
17,
18,
16,
17,
17,
16,
18,
17,
18,
18,
17,
18,
18,
18,
18,
18,
19,
18,
19,
18,
19,
18,
18,
19,
19,
19,
20,
19,
19,
19,
19,
19,
19,
20,
20,
20,
20,
19,
21,
20,
20,
21,
20,
22,
21,
19,
23,
20,
21,
21,
19,
21,
22,
21,
22,
21,
22,
22,
22,
21,
23,
22,
21,
23,
22,
22,
24,
20,
24,
21,
22,
23,
21,
23,
22,
23,
24,
21,
23,
21,
24,
22,
22,
24,
22,
23,
24,
21,
24,
21,
24,
22,
22,
24,
22,
24,
23,
23,
24,
21,
24,
22,
22,
24,
21,
23,
24,
21,
24,
21,
22,
24,
22,
22,
23,
23,
24,
23,
23,
23,
24,
22,
23,
22,
23,
23,
23,
21,
23,
22,
23,
21,
22,
21,
21,
22,
21,
21,
22,
21,
23,
20,
20,
22,
20,
20,
22,
20,
22,
21,
20,
21,
19,
20,
20,
20,
20,
20,
20,
20,
20,
19,
20,
20,
19,
20,
20,
19,
20,
18,
20,
18,
18,
19,
18,
19,
19,
18,
19,
17,
19,
18,
18,
18,
16,
18,
18,
17,
18,
16,
17,
16,
17,
17,
16,
17,
16,
17,
16,
15,
17,
15,
16,
16,
14,
17,
15,
14,
16,
13,
16,
14,
15,
15,
13,
14,
13,
13,
13,
12,
13,
12,
14,
13,
11,
12,
11,
12,
12,
11,
11,
10,
11,
11,
11,
10,
10,
11,
9,
11,
11,
8,
11,
9,
9,
10,
8,
9,
8,
7,
9,
8,
7,
7,
7,
7,
8,
7,
6,
7,
6,
7,
7,
5,
6,
6,
5,
5,
5,
5,
5,
4,
5,
4,
4,
4,
3,
4,
3,
2,
4,
2,
3,
3,
2,
3,
1,
1,
2,
1,
2,
1,
0,
1,
0,
0,
1,
0,
0,
0,
0,
-2,
0,
-2,
-2,
0,
-2,
0,
-2,
-3,
0,
-4,
-1,
-3,
-4,
-3,
-4,
-3,
-3,
-4,
-3,
-4,
-4,
-5,
-5,
-5,
-6,
-4,
-5,
-6,
-5,
-6,
-5,
-7,
-5,
-7,
-7,
-7,
-8,
-6,
-7,
-9,
-6,
-9,
-7,
-9,
-9,
-7,
-10,
-8,
-8,
-11,
-9,
-11,
-9,
-10,
-10,
-10,
-11,
-11,
-11,
-12,
-10,
-12,
-10,
-12,
-12,
-12,
-13,
-12,
-13,
-13,
-12,
-14,
-13,
-14,
-13,
-13,
-15,
-13,
-14,
-15,
-14,
-16,
-14,
-15,
-16,
-15,
-14,
-16,
-15,
-16,
-15,
-16,
-17,
-16,
-15,
-17,
-17,
-17,
-17,
-16,
-17,
-18,
-16,
-19,
-17,
-17,
-18,
-17,
-18,
-20,
-17,
-19,
-19,
-19,
-19,
-19,
-20,
-20,
-19,
-20,
-19,
-20,
-19,
-20,
-21,
-19,
-21,
-20,
-20,
-21,
-20,
-21,
-20,
-22,
-21,
-21,
-22,
-21,
-22,
-21,
-21,
-23,
-21,
-23,
-22,
-21,
-24,
-20,
-23,
-23,
-21,
-23,
-22,
-23,
-22,
-22,
-24,
-22,
-23,
-23,
-22,
-24,
-22,
-24,
-22,
-23,
-24,
-22,
-25,
-23,
-23,
-25,
-23,
-24,
-23,
-24,
-24,
-23,
-24,
-23,
-24,
-25,
-22,
-24,
-23,
-24,
-25,
-23,
-25,
-25,
-24,
-25,
-24,
-24,
-24,
-25,
-24,
-24,
-25,
-24,
-25,
-24,
-24,
-26,
-24,
-25,
-25,
-24,
-25,
-25,
-24,
-25,
-24,
-24,
-24,
-25,
-24,
-24,
-25,
-24,
-24,
-25,
-24,
-25,
-24,
-24,
-25,
-23,
-24,
-24,
-23,
-25,
-24,
-24,
-24,
-24,
-24,
-23,
-24,
-23,
-24,
-24,
-23,
-24,
-22,
-24,
-24,
-22,
-24,
-23,
-24,
-24,
-22,
-24,
-22,
-22,
-24,
-22,
-24,
-23,
-22,
-23,
-21,
-23,
-21,
-22,
-22,
-22,
-23,
-22,
-22,
-22,
-21,
-22,
-21,
-22,
-21,
-21,
-22,
-20,
-23,
-21,
-20,
-22,
-19,
-21,
-21,
-19,
-21,
-19,
-20,
-20,
-19,
-21,
-19,
-20,
-19,
-19,
-19,
-19,
-19,
-19,
-19,
-19,
-17,
-19,
-16,
-18,
-18,
-18,
-18,
-17,
-17,
-19,
-16,
-18,
-16,
-17,
-17,
-16,
-16,
-16,
-16,
-17,
-15,
-16,
-14,
-16,
-15,
-15,
-15,
-15,
-15,
-14,
-14,
-15,
-14,
-14,
-13,
-14,
-14,
-13,
-14,
-13,
-12,
-13,
-12,
-12,
-13,
-12,
-12,
-12,
-10,
-12,
-9,
-12,
-10,
-11,
-11,
-11,
-10,
-11,
-9,
-10,
-8,
-10,
-9,
-9,
-8,
-8,
-9,
-9,
-8,
-9,
-7,
-8,
-7,
-8,
-6,
-7,
-8,
-6,
-7,
-7,
-5,
-7,
-5,
-6,
-5,
-3,
-6,
-5,
-4,
-5,
-3,
-6,
-4,
-4,
-3,
-3,
-4,
-3,
-3,
-3,
-2,
-3,
0,
-3,
-1,
-2,
-3,
-1,
-1,
-1,
0,
-2,
1,
0,
0,
0,
0,
1,
-1,
1,
2,
0,
3,
1,
2,
2,
2,
3,
2,
2,
3,
3,
3,
3,
3,
3,
4,
4,
3,
5,
4,
5,
6,
4,
6,
6,
5,
6,
5,
6,
6,
6,
7,
6,
7,
7,
7,
8,
7,
8,
8,
8,
9,
8,
8,
9,
8,
10,
9,
9,
10,
9,
10,
11,
11,
10,
11,
11,
10,
12,
11,
11,
12,
10,
12,
12,
11,
14,
12,
13,
14,
12,
15,
12,
14,
14,
13,
13,
14,
14,
15,
14,
15,
13,
15,
15,
15,
16,
15,
15,
16,
15,
17,
15,
16,
16,
17,
17,
15,
17,
16,
17,
18,
16,
19,
17,
17,
18,
17,
18,
18,
17,
19,
18,
18,
18,
19,
18,
18,
19,
18,
19,
19,
18,
20,
18,
20,
20,
19,
20,
19,
20,
20,
19,
20,
19,
21,
20,
19,
21,
19,
21,
22,
20,
22,
20,
21,
21,
20,
21,
22,
21,
21,
21,
20,
21,
23,
21,
22,
21,
21,
23,
22,
23,
24,
21,
23,
21,
21,
24,
22,
21,
24,
22,
23,
23,
22,
23,
23,
22,
23,
22,
22,
23,
24,
22,
23,
22,
22,
23,
23,
22,
23,
23,
24,
22,
24,
21,
23,
24,
23,
23,
24,
21,
25,
21,
24,
22,
22,
24,
23,
23,
24,
22,
23,
21,
24,
23,
22,
22,
22,
24,
22,
23,
24,
20,
24,
21,
22,
22,
21,
22,
22,
22,
23,
20,
22,
21,
21,
21,
20,
23,
21,
21,
23,
20,
22,
21,
20,
21,
19,
21,
21,
20,
20,
20,
20,
19,
20,
19,
20,
20,
18,
20,
19,
18,
20,
18,
20,
19,
19,
20,
18,
18,
19,
18,
18,
18,
18,
18,
18,
18,
18,
18,
18,
17,
18,
17,
17,
17,
17,
17,
16,
16,
17,
16,
16,
16,
17,
16,
16,
16,
15,
16,
15,
14,
16,
14,
15,
15,
13,
15,
14,
14,
15,
13,
14,
13,
14,
13,
12,
13,
13,
13,
12,
11,
14,
11,
12,
12,
10,
12,
11,
11,
11,
9,
11,
10,
11,
9,
10,
10,
8,
10,
9,
8,
10,
8,
9,
8,
7,
9,
7,
8,
7,
7,
7,
7,
7,
6,
7,
6,
6,
7,
5,
6,
6,
4,
7,
4,
5,
5,
3,
5,
4,
4,
5,
2,
4,
2,
4,
2,
2,
3,
1,
2,
2,
1,
2,
1,
1,
0,
1,
1,
0,
1,
0,
0,
0,
-1,
1,
-1,
-1,
-1,
-2,
-1,
-2,
-3,
0,
-3,
-2,
-2,
-3,
-2,
-3,
-4,
-3,
-5,
-4,
-3,
-4,
-5,
-4,
-5,
-5,
-5,
-5,
-6,
-5,
-6,
-5,
-5,
-6,
-6,
-6,
-7,
-7,
-7,
-7,
-7,
-7,
-8,
-8,
-8,
-9,
-8,
-8,
-10,
-8,
-10,
-9,
-9,
-10,
-9,
-10,
-11,
-9,
-11,
-10,
-12,
-11,
-11,
-11,
-12,
-12,
-11,
-12,
-13,
-11,
-14,
-12,
-13,
-13,
-12,
-14,
-13,
-13,
-15,
-13,
-15,
-13,
-15,
-15,
-14,
-15,
-15,
-15,
-16,
-14,
-17,
-15,
-16,
-16,
-16,
-17,
-16,
-17,
-17,
-16,
-17,
-15,
-18,
-16,
-17,
-20,
-17,
-19,
-17,
-18,
-20,
-16,
-19,
-19,
-19,
-20,
-19,
-19,
-19,
-18,
-20,
-19,
-20,
-20,
-20,
-20,
-19,
-21,
-20,
-21,
-21,
-19,
-21,
-21,
-21,
-21,
-21,
-22,
-21,
-22,
-21,
-21,
-22,
-21,
-22,
-22,
-21,
-22,
-22,
-21,
-23,
-21,
-22,
-22,
-22,
-23,
-23,
-22,
-23,
-22,
-22,
-23,
-23,
-23,
-22,
-23,
-22,
-23,
-23,
-24,
-24,
-22,
-24,
-23,
-23,
-24,
-23,
-25,
-23,
-24,
-25,
-23,
-24,
-23,
-24,
-24,
-23,
-25,
-24,
-24,
-25,
-23,
-25,
-24,
-24,
-25,
-23,
-25,
-24,
-25,
-25,
-24,
-26,
-23,
-25,
-24,
-24,
-26,
-23,
-25,
-25,
-23,
-26,
-23,
-26,
-25,
-23,
-25,
-23,
-24,
-25,
-24,
-25,
-24,
-26,
-23,
-24,
-25,
-23,
-25,
-24,
-23,
-26,
-23,
-24,
-24,
-24,
-24,
-23,
-25,
-24,
-24,
-24,
-23,
-25,
-22,
-24,
-24,
-22,
-25,
-23,
-23,
-24,
-22,
-23,
-23,
-22,
-24,
-23,
-23,
-23,
-23,
-22,
-22,
-22,
-22,
-23,
-22,
-22,
-22,
-22,
-22,
-22,
-21,
-22,
-21,
-22,
-22,
-21,
-22,
-22,
-20,
-22,
-21,
-21,
-20,
-21,
-21,
-20,
-21,
-20,
-19,
-21,
-19,
-20,
-20,
-19,
-20,
-20,
-19,
-20,
-19,
-19,
-18,
-19,
-18,
-19,
-19,
-17,
-19,
-17,
-17,
-19,
-16,
-19,
-17,
-17,
-18,
-16,
-17,
-17,
-16,
-17,
-16,
-17,
-15,
-16,
-16,
-15,
-16,
-15,
-14,
-16,
-13,
-16,
-13,
-15,
-14,
-14,
-14,
-14,
-14,
-13,
-12,
-14,
-12,
-14,
-12,
-13,
-13,
-11,
-12,
-12,
-10,
-13,
-10,
-12,
-11,
-11,
-11,
-10,
-10,
-10,
-9,
-11,
-9,
-10,
-9,
-10,
-9,
-8,
-9,
-8,
-8,
-9,
-7,
-8,
-7,
-8,
-8,
-6,
-7,
-6,
-7,
-7,
-5,
-7,
-5,
-6,
-6,
-5,
-6,
-6,
-4,
-6,
-4,
-4,
-5,
-4,
-4,
-4,
-3,
-4,
-4,
-3,
-3,
-4,
-1,
-3,
-3,
-1,
-2,
-1,
-1,
-2,
0,
-2,
-1,
0,
-1,
1,
0,
0,
2,
0,
1,
1,
0,
2,
0,
2,
2,
1,
3,
1,
4,
2,
2,
3,
3,
3,
4,
4,
4,
4,
4,
3,
5,
4,
4,
6,
5,
6,
5,
5,
7,
5,
7,
7,
6,
8,
7,
8,
7,
7,
9,
7,
9,
7,
8,
8,
7,
10,
8,
9,
9,
9,
11,
10,
11,
10,
10,
12,
10,
11,
12,
10,
12,
10,
12,
12,
10,
13,
12,
12,
13,
12,
14,
13,
14,
13,
14,
13,
14,
14,
13,
15,
15,
14,
16,
14,
15,
16,
15,
16,
16,
15,
17,
15,
16,
16,
16,
16,
16,
17,
17,
16,
17,
17,
17,
17,
17,
18,
18,
17,
18,
17,
18,
18,
17,
18,
19,
18,
18,
18,
19,
19,
19,
18,
19,
19,
19,
20,
19,
20,
20,
18,
21,
19,
20,
20,
19,
21,
19,
20,
21,
19,
22,
20,
22,
20,
20,
22,
20,
21,
21,
20,
23,
21,
22,
21,
21,
21,
21,
23,
22,
22,
24,
20,
23,
21,
21,
23,
21,
24,
22,
21,
24,
21,
23,
22,
22,
23,
23,
23,
22,
22,
23,
23,
24,
21,
23,
23,
22,
25,
23,
22,
24,
22,
24,
21,
23,
23,
22,
24,
23,
23,
24,
21,
24,
23,
24,
22,
23,
24,
23,
22,
24,
23,
23,
22,
24,
22,
23,
22,
23,
23,
22,
23,
23,
21,
23,
21,
22,
23,
22,
21,
22,
21,
22,
21,
21,
21,
22,
21,
21,
21,
23,
20,
21,
21,
21,
21,
20,
21,
21,
20,
21,
19,
21,
20,
20,
20,
20,
20,
19,
20,
20,
19,
21,
18,
20,
19,
18,
20,
18,
19,
19,
17,
20,
18,
18,
18,
18,
18,
18,
18,
19,
17,
18,
17,
18,
17,
17,
18,
16,
18,
16,
17,
18,
15,
17,
15,
16,
16,
15,
17,
15,
15,
16,
13,
17,
14,
16,
16,
14,
15,
14,
14,
15,
13,
14,
13,
14,
13,
14,
13,
12,
13,
12,
12,
13,
11,
12,
12,
11,
12,
11,
11,
11,
10,
11,
11,
11,
10,
10,
10,
9,
11,
9,
9,
10,
8,
9,
9,
8,
9,
8,
7,
8,
8,
7,
7,
7,
7,
7,
6,
6,
7,
6,
6,
7,
5,
6,
6,
4,
6,
4,
3,
5,
3,
5,
3,
3,
4,
2,
3,
3,
2,
3,
2,
2,
2,
2,
2,
1,
2,
1,
1,
1,
0,
1,
-1,
0,
0,
-1,
0,
-1,
0,
0,
-2,
1,
-3,
-1,
-2,
-3,
-1,
-3,
-2,
-1,
-5,
-2,
-4,
-4,
-4,
-4,
-4,
-4,
-4,
-5,
-5,
-5,
-6,
-4,
-6,
-5,
-6,
-7,
-6,
-6,
-7,
-5,
-7,
-6,
-8,
-7,
-7,
-8,
-7,
-8,
-7,
-8,
-10,
-8,
-10,
-9,
-9,
-10,
-9,
-10,
-11,
-9,
-11,
-10,
-11,
-10,
-12,
-10,
-11,
-12,
-11,
-12,
-13,
-11,
-14,
-12,
-12,
-14,
-12,
-13,
-14,
-13,
-15,
-13,
-14,
-14,
-14,
-14,
-14,
-14,
-15,
-14,
-16,
-15,
-15,
-15,
-16,
-15,
-16,
-15,
-16,
-16,
-17,
-16,
-17,
-16,
-17,
-17,
-17,
-18,
-18,
-17,
-19,
-17,
-19,
-18,
-18,
-20,
-18,
-19,
-19,
-18,
-20,
-18,
-20,
-19,
-19,
-20,
-19,
-20,
-19,
-20,
-20,
-19,
-22,
-20,
-21,
-21,
-19,
-22,
-20,
-20,
-22,
-21,
-22,
-21,
-22,
-22,
-21,
-22,
-20,
-21,
-23,
-21,
-23,
-21,
-23,
-23,
-22,
-23,
-22,
-22,
-23,
-22,
-23,
-22,
-24,
-22,
-22,
-24,
-22,
-24,
-23,
-24,
-24,
-22,
-25,
-24,
-23,
-25,
-23,
-24,
-23,
-23,
-25,
-23,
-24,
-24,
-24,
-24,
-23,
-24,
-25,
-24,
-25,
-24,
-24,
-24,
-24,
-25,
-24,
-24,
-25,
-25,
-25,
-24,
-25,
-24,
-25,
-24,
-24,
-25,
-24,
-24,
-25,
-24,
-25,
-25,
-24,
-25,
-23,
-24,
-25,
-24,
-25,
-24,
-24,
-24,
-24,
-25,
-25,
-24,
-24,
-24,
-25,
-23,
-25,
-24,
-24,
-25,
-23,
-24,
-23,
-24,
-25,
-23,
-24,
-24,
-23,
-24,
-23,
-24,
-23,
-23,
-24,
-22,
-24,
-23,
-23,
-24,
-22,
-24,
-24,
-22,
-23,
-22,
-23,
-22,
-22,
-23,
-22,
-23,
-22,
-23,
-21,
-21,
-23,
-20,
-23,
-22,
-21,
-23,
-21,
-21,
-22,
-21,
-22,
-20,
-22,
-21,
-21,
-21,
-20,
-21,
-20,
-20,
-21,
-19,
-20,
-20,
-20,
-20,
-19,
-19,
-19,
-19,
-19,
-18,
-19,
-17,
-20,
-19,
-18,
-19,
-17,
-18,
-19,
-16,
-18,
-17,
-17,
-18,
-17,
-17,
-17,
-15,
-16,
-16,
-16,
-16,
-17,
-16,
-16,
-15,
-16,
-15,
-16,
-15,
-16,
-14,
-15,
-14,
-13,
-15,
-15,
-13,
-14,
-13,
-14,
-13,
-13,
-13,
-13,
-13,
-12,
-13,
-14,
-11,
-13,
-11,
-11,
-12,
-11,
-11,
-11,
-9,
-11,
-9,
-10,
-10,
-10,
-9,
-10,
-9,
-9,
-9,
-10,
-8,
-10,
-8,
-8,
-8,
-7,
-8,
-7,
-6,
-8,
-5,
-7,
-6,
-7,
-6,
-5,
-7,
-5,
-5,
-7,
-4,
-6,
-4,
-5,
-5,
-4,
-5,
-4,
-4,
-4,
-3,
-4,
-2,
-4,
-2,
-3,
-3,
-1,
-4,
-2,
0,
-3,
0,
-2,
-1,
0,
-2,
0,
0,
0,
2,
-1,
1,
0,
1,
1,
1,
2,
1,
2,
2,
1,
3,
1,
3,
3,
2,
3,
3,
2,
4,
4,
4,
4,
5,
4,
4,
5,
4,
5,
6,
5,
6,
6,
6,
7,
6,
7,
7,
7,
8,
7,
7,
8,
8,
8,
8,
8,
8,
9,
9,
9,
10,
9,
10,
9,
10,
11,
9,
10,
11,
10,
11,
10,
11,
12,
11,
12,
11,
11,
11,
11,
14,
12,
13,
14,
11,
14,
14,
13,
14,
13,
14,
14,
15,
13,
14,
15,
14,
16,
15,
14,
17,
13,
16,
16,
14,
17,
15,
16,
17,
16,
17,
16,
17,
16,
17,
18,
17,
17,
18,
17,
18,
17,
19,
17,
18,
18,
17,
19,
18,
18,
