8-mikroprozessor/daten/ALL0005/A0005CH1.CSV

Memory Length,4000,
Trigger Level,1.87899e+00,
Source,CH1,
Probe,1.0X,
Vertical Units,V,
Vertical Scale,1.00000e+00,
Vertical Position,-1.76000e+00,
Horizontal Units,S,
Horizontal Scale,1.00000e-05,
Horizontal Position,6.1200000e-05,
Horizontal Mode,Main,
Sampling Period,4.00000e-08,
Firmware,V1.14,
Time, ,
Mode,Fast,
Waveform Data,
-3,
-3,
-3,
-1,
-1,
-2,
-2,
-2,
-2,
-3,
-3,
-2,
-2,
-2,
-2,
-2,
-2,
-2,
-2,
-3,
-3,
-2,
-2,
-2,
-2,
-2,
-2,
-3,
-3,
-2,
-2,
-2,
-2,
-1,
-1,
-3,
-3,
-2,
-2,
-3,
-3,
-3,
-3,
-3,
-3,
-3,
-3,
-2,
-2,
-2,
-2,
-2,
-2,
-2,
-2,
-2,
-2,
-3,
-3,
-2,
-2,
-3,
-3,
-2,
-2,
-2,
-2,
-3,
-3,
-3,
-3,
-2,
-2,
-2,
-2,
-2,
-2,
-2,
-2,
-2,
-2,
-3,
-3,
-2,
-2,
-3,
-3,
-3,
-3,
-2,
-2,
-3,
-3,
-2,
-2,
-2,
-2,
-2,
-2,
-2,
-2,
-3,
-3,
-3,
-3,
-3,
-3,
-3,
-3,
-3,
-3,
-3,
-3,
-2,
-2,
-3,
-3,
-2,
-2,
-2,
-2,
-3,
-3,
-2,
-2,
-3,
-3,
-2,
-2,
-3,
-3,
-3,
-3,
-3,
-3,
-2,
-2,
-2,
-2,
-3,
-3,
-2,
-2,
-2,
-2,
-2,
-2,
-2,
-2,
-3,
-3,
-2,
-2,
-3,
-3,
-2,
-2,
-2,
-2,
-2,
-2,
-2,
-2,
-2,
-2,
-3,
-3,
-3,
-3,
-2,
-2,
-2,
-2,
-3,
-3,
-3,
-3,
-3,
-3,
-2,
-2,
-2,
-2,
-3,
-3,
-1,
-1,
-2,
-2,
-3,
-3,
-2,
-2,
-2,
-2,
-3,
-3,
-2,
-2,
-3,
-3,
-3,
-3,
-2,
-2,
-2,
-2,
-2,
-2,
-2,
-2,
-2,
-2,
-3,
-3,
-1,
-1,
-3,
-3,
-2,
-2,
-2,
-2,
-2,
-2,
-2,
-2,
-3,
-3,
-3,
-3,
-2,
-2,
-1,
-1,
-2,
-2,
-2,
-2,
-2,
-2,
-2,
-2,
-3,
-3,
-2,
-2,
-2,
-2,
-3,
-3,
-2,
-2,
-3,
-3,
-3,
-3,
-2,
-2,
-2,
-2,
-3,
-3,
-2,
-2,
-2,
-2,
-2,
-2,
-2,
-2,
-1,
-1,
-3,
-3,
-3,
-3,
-2,
-2,
-2,
-2,
-2,
-2,
-2,
-2,
-3,
-3,
-2,
-2,
-3,
-3,
-1,
-1,
-2,
-2,
-2,
-2,
-1,
-1,
-3,
-3,
-3,
-3,
-2,
-2,
-3,
-3,
-2,
-2,
-2,
-2,
-2,
-2,
-2,
-2,
-2,
-2,
-2,
-2,
-2,
-2,
-2,
-2,
-1,
-1,
-3,
-3,
-2,
-2,
-3,
-3,
-3,
-3,
-3,
-3,
-2,
-2,
-3,
-3,
-2,
-2,
-2,
-2,
-3,
-3,
-2,
-2,
-3,
-3,
-3,
-3,
-2,
-2,
-3,
-3,
-3,
-3,
-2,
-2,
-3,
-3,
-3,
-3,
-2,
-2,
-3,
-3,
-1,
-1,
-3,
-3,
-2,
-2,
-2,
-2,
-2,
-2,
-3,
-3,
-2,
-2,
-2,
-2,
-3,
-3,
-2,
-2,
-2,
-2,
-2,
-2,
-2,
-2,
-3,
-3,
-3,
-3,
-2,
-2,
-2,
-2,
-3,
-3,
-2,
-2,
-3,
-3,
-3,
-3,
-3,
-3,
-2,
-2,
-2,
-2,
-2,
-2,
-2,
-2,
-3,
-3,
-2,
-2,
-2,
-2,
-2,
-2,
-2,
-2,
-3,
-3,
-1,
-1,
-3,
-3,
-2,
-2,
-2,
-2,
-3,
-3,
-2,
-2,
-2,
-2,
-3,
-3,
-3,
-3,
-2,
-2,
-2,
-2,
-2,
-2,
-2,
-2,
-2,
-2,
-1,
-1,
0,
0,
3,
3,
6,
6,
19,
69,
69,
99,
101,
101,
104,
104,
96,
96,
96,
96,
98,
98,
98,
98,
99,
99,
99,
99,
99,
99,
99,
99,
99,
99,
98,
98,
99,
99,
98,
98,
99,
99,
98,
98,
98,
98,
99,
99,
98,
98,
98,
98,
98,
98,
98,
98,
97,
97,
99,
99,
98,
98,
98,
98,
98,
98,
99,
99,
98,
98,
98,
98,
99,
99,
99,
99,
98,
98,
99,
99,
98,
98,
98,
98,
98,
98,
98,
98,
100,
100,
98,
98,
98,
98,
99,
99,
97,
97,
98,
98,
98,
98,
98,
98,
98,
98,
99,
99,
98,
98,
98,
98,
99,
99,
99,
99,
98,
98,
99,
99,
98,
98,
99,
99,
98,
98,
98,
98,
99,
99,
99,
99,
99,
99,
99,
99,
98,
98,
99,
99,
98,
98,
98,
98,
98,
98,
98,
98,
98,
98,
98,
98,
98,
98,
98,
98,
98,
98,
98,
98,
99,
99,
99,
99,
98,
98,
98,
98,
98,
98,
99,
99,
99,
99,
99,
99,
99,
99,
99,
99,
98,
98,
98,
98,
98,
98,
99,
99,
99,
99,
98,
98,
99,
99,
98,
98,
97,
97,
98,
98,
99,
99,
98,
98,
98,
98,
98,
98,
98,
98,
98,
98,
98,
98,
99,
99,
99,
99,
99,
99,
99,
99,
98,
98,
98,
98,
98,
98,
98,
98,
98,
98,
98,
98,
99,
99,
98,
98,
99,
99,
98,
98,
98,
98,
98,
98,
99,
99,
99,
99,
98,
98,
99,
99,
99,
99,
99,
99,
98,
98,
99,
99,
99,
99,
99,
99,
98,
98,
99,
99,
98,
98,
99,
99,
99,
99,
99,
99,
99,
99,
98,
98,
99,
99,
99,
99,
99,
99,
98,
98,
99,
99,
98,
98,
98,
98,
98,
98,
98,
98,
98,
98,
99,
99,
99,
99,
98,
98,
99,
99,
99,
99,
98,
98,
98,
98,
99,
99,
98,
98,
99,
99,
98,
98,
98,
98,
99,
99,
99,
99,
98,
98,
99,
99,
98,
98,
99,
99,
99,
99,
98,
98,
99,
99,
98,
98,
98,
98,
98,
98,
99,
99,
99,
99,
99,
99,
99,
99,
98,
98,
99,
99,
99,
99,
98,
98,
98,
98,
99,
99,
99,
99,
99,
99,
98,
98,
99,
99,
98,
98,
99,
99,
98,
98,
98,
98,
98,
98,
99,
99,
98,
98,
99,
99,
99,
99,
98,
98,
99,
99,
98,
98,
99,
99,
99,
99,
98,
98,
98,
98,
98,
98,
98,
98,
99,
99,
98,
98,
99,
99,
98,
98,
99,
99,
98,
98,
99,
99,
99,
99,
98,
98,
99,
99,
99,
99,
98,
98,
98,
98,
99,
99,
98,
98,
98,
98,
98,
98,
99,
99,
98,
98,
99,
99,
98,
98,
98,
98,
99,
99,
98,
98,
99,
99,
98,
98,
98,
98,
98,
98,
99,
99,
99,
99,
98,
98,
99,
99,
99,
99,
99,
99,
99,
99,
98,
98,
99,
99,
99,
99,
99,
99,
98,
98,
97,
97,
99,
99,
99,
99,
99,
99,
99,
99,
98,
98,
98,
98,
99,
99,
99,
99,
99,
99,
99,
99,
99,
99,
99,
99,
99,
99,
99,
99,
98,
98,
98,
98,
98,
98,
99,
99,
99,
99,
99,
99,
98,
98,
98,
98,
99,
99,
98,
98,
98,
98,
99,
99,
98,
98,
98,
98,
99,
99,
98,
98,
99,
99,
98,
98,
99,
99,
98,
98,
99,
99,
99,
99,
99,
99,
98,
98,
98,
98,
99,
99,
99,
99,
99,
99,
97,
97,
98,
98,
99,
99,
98,
98,
98,
98,
98,
98,
99,
99,
98,
98,
99,
99,
98,
98,
98,
98,
98,
98,
96,
96,
91,
91,
83,
61,
61,
28,
25,
-1,
-1,
-1,
-1,
-1,
-2,
-2,
-2,
-2,
-2,
-2,
-2,
-2,
-2,
-2,
-1,
-1,
-2,
-2,
-2,
-2,
-2,
-2,
-1,
-1,
-2,
-2,
-3,
-3,
-2,
-2,
-1,
-1,
-2,
-2,
-2,
-2,
-2,
-2,
-3,
-3,
-2,
-2,
-3,
-3,
-2,
-2,
-2,
-2,
-1,
-1,
-1,
-1,
-1,
-1,
-2,
-2,
-2,
-2,
-2,
-2,
-2,
-2,
-2,
-2,
-2,
-2,
-2,
-2,
-3,
-3,
-1,
-1,
-3,
-3,
-2,
-2,
-3,
-3,
-1,
-1,
-1,
-1,
-1,
-1,
-1,
-1,
-2,
-2,
-2,
-2,
-3,
-3,
-2,
-2,
-2,
-2,
-2,
-2,
-2,
-2,
-3,
-3,
-1,
-1,
-1,
-1,
-3,
-3,
-2,
-2,
-2,
-2,
-2,
-2,
-3,
-3,
-2,
-2,
-2,
-2,
-2,
-2,
-1,
-1,
-1,
-1,
-2,
-2,
-1,
-1,
-2,
-2,
-2,
-2,
-2,
-2,
-2,
-2,
-2,
-2,
-2,
-2,
-2,
-2,
-2,
-2,
-3,
-3,
-3,
-3,
-3,
-3,
-2,
-2,
-3,
-3,
-2,
-2,
-1,
-1,
-2,
-2,
-2,
-2,
-3,
-3,
-2,
-2,
-1,
-1,
-1,
-1,
-3,
-3,
-2,
-2,
-3,
-3,
-3,
-3,
-2,
-2,
-3,
-3,
-2,
-2,
-3,
-3,
-2,
-2,
-4,
-4,
-3,
-3,
-2,
-2,
-3,
-3,
-2,
-2,
-3,
-3,
-2,
-2,
-2,
-2,
-3,
-3,
-2,
-2,
-3,
-3,
-3,
-3,
-3,
-3,
-3,
-3,
-3,
-3,
-3,
-3,
-2,
-2,
-3,
-3,
-2,
-2,
-3,
-3,
-2,
-2,
-1,
-1,
-2,
-2,
-2,
-2,
-2,
-2,
-2,
-2,
-2,
-2,
-3,
-3,
-2,
-2,
-3,
-3,
-2,
-2,
-2,
-2,
-2,
-2,
-2,
-2,
-2,
-2,
-3,
-3,
-2,
-2,
-2,
-2,
-3,
-3,
-1,
-1,
-2,
-2,
-2,
-2,
-2,
-2,
-3,
-3,
-2,
-2,
-2,
-2,
-2,
-2,
-3,
-3,
-3,
-3,
-2,
-2,
-2,
-2,
-3,
-3,
-3,
-3,
-3,
-3,
-2,
-2,
-2,
-2,
-2,
-2,
-3,
-3,
-3,
-3,
-3,
-3,
-3,
-3,
-2,
-2,
-2,
-2,
-2,
-2,
-1,
-1,
-3,
-3,
-2,
-2,
-3,
-3,
-3,
-3,
-2,
-2,
-1,
-1,
-3,
-3,
-3,
-3,
-3,
-3,
-2,
-2,
-2,
-2,
-3,
-3,
-1,
-1,
-3,
-3,
-2,
-2,
-2,
-2,
-2,
-2,
-3,
-3,
-2,
-2,
-3,
-3,
-1,
-1,
-3,
-3,
-3,
-3,
-2,
-2,
-3,
-3,
-3,
-3,
-2,
-2,
-3,
-3,
-3,
-3,
-2,
-2,
-2,
-2,
-3,
-3,
-3,
-3,
-2,
-2,
-2,
-2,
-3,
-3,
-1,
-1,
-2,
-2,
-1,
-1,
-2,
-2,
-2,
-2,
-2,
-2,
-3,
-3,
-2,
-2,
-3,
-3,
-2,
-2,
-2,
-2,
-2,
-2,
-3,
-3,
-3,
-3,
-1,
-1,
-2,
-2,
-3,
-3,
-2,
-2,
-3,
-3,
-3,
-3,
-3,
-3,
-2,
-2,
-3,
-3,
-3,
-3,
-3,
-3,
-2,
-2,
-2,
-2,
-3,
-3,
-2,
-2,
-3,
-3,
-2,
-2,
-3,
-3,
-2,
-2,
-3,
-3,
-2,
-2,
-3,
-3,
-2,
-2,
-3,
-3,
-3,
-3,
-2,
-2,
-2,
-2,
-3,
-3,
-2,
-2,
-3,
-3,
-2,
-2,
-2,
-2,
-2,
-2,
-2,
-2,
-2,
-2,
-3,
-3,
-3,
-3,
-3,
-3,
-3,
-3,
-3,
-3,
-2,
-2,
-2,
-2,
-2,
-2,
-2,
-2,
-2,
-2,
-3,
-3,
-2,
-2,
-2,
-2,
-2,
-2,
-3,
-3,
-3,
-3,
-3,
-3,
-2,
-2,
-3,
-3,
-3,
-3,
-2,
-2,
-3,
-3,
-3,
-3,
-2,
-2,
-2,
-2,
-3,
-3,
-3,
-3,
-2,
-2,
-3,
-3,
-3,
-3,
-2,
-2,
-2,
-2,
-2,
-2,
-3,
-3,
-2,
-2,
-3,
-3,
-2,
-2,
-2,
-2,
-2,
-2,
-3,
-3,
-2,
-2,
-3,
-3,
-2,
-2,
-3,
-3,
-3,
-3,
-3,
-3,
-3,
-3,
-3,
-3,
-3,
-3,
-2,
-2,
-3,
-3,
-2,
-2,
-2,
-2,
-2,
-2,
-2,
-2,
-3,
-3,
-2,
-2,
-3,
-3,
-3,
-3,
-3,
-3,
-2,
-2,
1,
14,
21,
51,
51,
78,
80,
99,
99,
99,
104,
104,
106,
106,
102,
102,
97,
97,
99,
99,
99,
99,
99,
99,
99,
99,
98,
98,
99,
99,
98,
98,
99,
99,
99,
99,
98,
98,
99,
99,
98,
98,
98,
98,
98,
98,
99,
99,
99,
99,
99,
99,
99,
99,
97,
97,
99,
99,
98,
98,
98,
98,
98,
98,
98,
98,
98,
98,
98,
98,
98,
98,
99,
99,
98,
98,
98,
98,
98,
98,
99,
99,
98,
98,
98,
98,
98,
98,
98,
98,
98,
98,
98,
98,
98,
98,
98,
98,
98,
98,
99,
99,
99,
99,
99,
99,
98,
98,
99,
99,
97,
97,
99,
99,
98,
98,
99,
99,
99,
99,
98,
98,
99,
99,
99,
99,
99,
99,
98,
98,
99,
99,
98,
98,
98,
98,
98,
98,
99,
99,
98,
98,
99,
99,
98,
98,
98,
98,
99,
99,
98,
98,
99,
99,
98,
98,
98,
98,
99,
99,
98,
98,
98,
98,
98,
98,
99,
99,
99,
99,
98,
98,
98,
98,
98,
98,
98,
98,
98,
98,
99,
99,
99,
99,
99,
99,
98,
98,
99,
99,
98,
98,
97,
97,
98,
98,
99,
99,
99,
99,
98,
98,
98,
98,
98,
98,
99,
99,
98,
98,
98,
98,
98,
98,
98,
98,
99,
99,
99,
99,
98,
98,
99,
99,
98,
98,
99,
99,
98,
98,
99,
99,
99,
99,
98,
98,
99,
99,
99,
99,
98,
98,
98,
98,
98,
98,
99,
99,
99,
99,
99,
99,
98,
98,
98,
98,
98,
98,
99,
99,
98,
98,
98,
98,
98,
98,
98,
98,
99,
99,
98,
98,
99,
99,
98,
98,
99,
99,
99,
99,
99,
99,
98,
98,
99,
99,
99,
99,
99,
99,
99,
99,
99,
99,
99,
99,
99,
99,
99,
99,
98,
98,
99,
99,
98,
98,
98,
98,
99,
99,
99,
99,
99,
99,
99,
99,
99,
99,
99,
99,
99,
99,
98,
98,
98,
98,
99,
99,
98,
98,
98,
98,
99,
99,
99,
99,
99,
99,
98,
98,
99,
99,
98,
98,
99,
99,
98,
98,
99,
99,
99,
99,
98,
98,
98,
98,
99,
99,
98,
98,
98,
98,
98,
98,
98,
98,
99,
99,
98,
98,
99,
99,
98,
98,
98,
98,
99,
99,
98,
98,
98,
98,
99,
99,
99,
99,
99,
99,
99,
99,
98,
98,
98,
98,
99,
99,
98,
98,
98,
98,
98,
98,
99,
99,
97,
97,
98,
98,
99,
99,
99,
99,
97,
97,
99,
99,
99,
99,
99,
99,
98,
98,
99,
99,
98,
98,
99,
99,
98,
98,
98,
98,
99,
99,
99,
99,
99,
99,
99,
99,
99,
99,
98,
98,
99,
99,
99,
99,
99,
99,
99,
99,
98,
98,
99,
99,
98,
98,
99,
99,
99,
99,
99,
99,
99,
99,
98,
98,
98,
98,
98,
98,
98,
98,
99,
99,
98,
98,
99,
99,
98,
98,
98,
98,
99,
99,
98,
98,
99,
99,
99,
99,
98,
98,
98,
98,
99,
99,
98,
98,
98,
98,
99,
99,
99,
99,
99,
99,
98,
98,
99,
99,
99,
99,
99,
99,
98,
98,
99,
99,
98,
98,
99,
99,
99,
99,
99,
99,
99,
99,
98,
98,
99,
99,
99,
99,
99,
99,
98,
98,
98,
98,
99,
99,
98,
98,
99,
99,
99,
99,
99,
99,
98,
98,
99,
99,
99,
99,
98,
98,
98,
98,
99,
99,
99,
99,
99,
99,
98,
98,
99,
99,
99,
99,
99,
99,
99,
99,
98,
98,
99,
99,
98,
98,
98,
98,
98,
98,
98,
98,
99,
99,
99,
99,
98,
98,
99,
99,
99,
99,
98,
85,
83,
72,
72,
56,
55,
30,
27,
15,
12,
1,
1,
1,
-1,
-1,
-1,
-1,
-2,
-2,
-1,
-1,
-1,
-1,
-2,
-2,
-2,
-2,
-2,
-2,
-1,
-1,
-1,
-1,
-1,
-1,
-2,
-2,
-2,
-2,
-3,
-3,
-1,
-1,
-2,
-2,
-2,
-2,
-2,
-2,
-2,
-2,
-2,
-2,
-1,
-1,
-2,
-2,
-1,
-1,
-2,
-2,
-2,
-2,
-2,
-2,
-2,
-2,
-1,
-1,
-2,
-2,
-3,
-3,
-2,
-2,
-3,
-3,
-2,
-2,
-1,
-1,
-2,
-2,
-2,
-2,
-1,
-1,
-2,
-2,
-2,
-2,
-2,
-2,
-2,
-2,
-1,
-1,
-1,
-1,
-2,
-2,
-2,
-2,
-2,
-2,
-1,
-1,
-2,
-2,
-2,
-2,
-2,
-2,
-2,
-2,
-3,
-3,
-1,
-1,
-2,
-2,
-2,
-2,
-2,
-2,
-2,
-2,
-2,
-2,
-2,
-2,
-2,
-2,
-3,
-3,
-1,
-1,
-2,
-2,
-2,
-2,
-2,
-2,
-3,
-3,
-2,
-2,
-3,
-3,
-2,
-2,
-3,
-3,
-3,
-3,
-3,
-3,
-2,
-2,
-1,
-1,
-1,
-1,
-3,
-3,
-3,
-3,
-1,
-1,
-2,
-2,
-2,
-2,
-1,
-1,
-2,
-2,
-2,
-2,
-2,
-2,
-3,
-3,
-2,
-2,
-3,
-3,
-2,
-2,
-3,
-3,
-1,
-1,
-2,
-2,
-2,
-2,
-2,
-2,
-2,
-2,
-2,
-2,
-3,
-3,
-3,
-3,
-3,
-3,
-3,
-3,
-2,
-2,
-2,
-2,
-3,
-3,
-3,
-3,
-2,
-2,
-1,
-1,
-3,
-3,
-3,
-3,
-3,
-3,
-3,
-3,
-2,
-2,
-2,
-2,
-3,
-3,
-2,
-2,
-2,
-2,
-2,
-2,
-2,
-2,
-3,
-3,
-2,
-2,
-2,
-2,
-2,
-2,
-3,
-3,
-2,
-2,
-3,
-3,
-3,
-3,
-2,
-2,
-2,
-2,
-2,
-2,
-3,
-3,
-2,
-2,
-2,
-2,
-2,
-2,
-3,
-3,
-2,
-2,
-3,
-3,
-2,
-2,
-3,
-3,
-3,
-3,
-3,
-3,
-3,
-3,
-3,
-3,
-2,
-2,
-2,
-2,
-3,
-3,
-3,
-3,
-3,
-3,
-2,
-2,
-3,
-3,
-3,
-3,
-1,
-1,
-1,
-1,
-2,
-2,
-2,
-2,
-2,
-2,
-3,
-3,
-2,
-2,
-2,
-2,
-3,
-3,
-2,
-2,
-2,
-2,
-2,
-2,
-3,
-3,
-3,
-3,
-3,
-3,
-2,
-2,
-2,
-2,
-3,
-3,
-1,
-1,
-3,
-3,
-3,
-3,
-4,
-4,
-3,
-3,
-2,
-2,
-3,
-3,
-3,
-3,
-2,
-2,
-3,
-3,
-2,
-2,
-3,
-3,
-4,
-4,
-3,
-3,
-3,
-3,
-2,
-2,
-3,
-3,
-3,
-3,
-4,
-4,
-2,
-2,
-3,
-3,
-3,
-3,
-2,
-2,
-2,
-2,
-2,
-2,
-3,
-3,
-3,
-3,
-2,
-2,
-3,
-3,
-2,
-2,
-3,
-3,
-2,
-2,
-2,
-2,
-3,
-3,
-3,
-3,
-2,
-2,
-2,
-2,
-3,
-3,
-2,
-2,
-3,
-3,
-3,
-3,
-2,
-2,
-2,
-2,
-2,
-2,
-2,
-2,
-2,
-2,
-3,
-3,
-2,
-2,
-3,
-3,
-2,
-2,
-2,
-2,
-3,
-3,
-2,
-2,
-3,
-3,
-2,
-2,
-2,
-2,
-2,
-2,
-2,
-2,
-2,
-2,
-2,
-2,
-3,
-3,
-3,
-3,
-2,
-2,
-2,
-2,
-3,
-3,
-3,
-3,
-2,
-2,
-3,
-3,
-3,
-3,
-2,
-2,
-3,
-3,
-2,
-2,
-3,
-3,
-3,
-3,
-3,
-3,
-2,
-2,
-3,
-3,
-3,
-3,
-3,
-3,
-3,
-3,
-2,
-2,
-2,
-2,
-2,
-2,
-2,
-2,
-2,
-2,
-3,
-3,
-2,
-2,
-3,
-3,
-2,
-2,
-2,
-2,
-3,
-3,
-2,
-2,
-3,
-3,
-3,
-3,
-2,
-2,
-2,
-2,
-2,
-2,
-3,
-3,
-2,
-2,
-3,
-3,
-2,
-2,
-3,
-3,
-2,
-2,
-2,
-2,
-3,
-3,
-2,
-2,
-2,
-2,
-2,
-2,
-3,
-3,
-3,
-3,
-3,
-3,
-2,
-2,
-2,
-2,
-3,
-3,
-2,
-2,
-2,
-2,
-2,
-2,
-2,
-2,
-3,
-3,
-3,
-3,
-3,
-3,
-2,
-2,
-3,
-3,
-3,
-3,
-2,
-2,
-3,
-3,
-3,
-3,
-3,
-3,
-3,
-3,
-3,
-3,
-3,
-3,
-3,
-3,
-2,
-2,
-2,
-2,
-3,
-3,
-3,
-3,
-2,
-2,
-1,
-1,
0,
0,
3,
3,
6,
6,
20,
91,
91,
106,
106,
106,
104,
104,
100,
100,
96,
96,
97,
97,
98,
98,
99,
99,
99,
99,
99,
99,
98,
98,
97,
97,
99,
99,
99,
99,
98,
98,
98,
98,
98,
98,
98,
98,
99,
99,
98,
98,
98,
98,
99,
99,
98,
98,
98,
98,
98,
98,
99,
99,
98,
98,
98,
98,
99,
99,
99,
99,
98,
98,
100,
100,
99,
99,
99,
99,
99,
99,
99,
99,
98,
98,
98,
98,
98,
98,
98,
98,
98,
98,
98,
98,
98,
98,
98,
98,
99,
99,
98,
98,
98,
98,
98,
98,
98,
98,
98,
98,
98,
98,
97,
97,
97,
97,
98,
98,
99,
99,
98,
98,
98,
98,
98,
98,
97,
97,
99,
99,
98,
98,
99,
99,
99,
99,
98,
98,
99,
99,
98,
98,
99,
99,
98,
98,
99,
99,
98,
98,
98,
98,
99,
99,
98,
98,
98,
98,
98,
98,
99,
99,
98,
98,
98,
98,
99,
99,
99,
99,
99,
99,
98,
98,
98,
98,
98,
98,
99,
99,
99,
99,
99,
99,
98,
98,
99,
99,
98,
98,
98,
98,
98,
98,
98,
98,
99,
99,
98,
98,
98,
98,
99,
99,
98,
98,
98,
98,
99,
99,
99,
99,
98,
98,
98,
98,
99,
99,
98,
98,
99,
99,
98,
98,
98,
98,
98,
98,
97,
97,
98,
98,
99,
99,
98,
98,
98,
98,
99,
99,
99,
99,
99,
99,
98,
98,
99,
99,
98,
98,
99,
99,
98,
98,
98,
98,
98,
98,
99,
99,
99,
99,
98,
98,
99,
99,
98,
98,
98,
98,
99,
99,
98,
98,
99,
99,
98,
98,
99,
99,
98,
98,
99,
99,
98,
98,
99,
99,
98,
98,
98,
98,
98,
98,
98,
98,
99,
99,
99,
99,
99,
99,
98,
98,
99,
99,
99,
99,
99,
99,
99,
99,
98,
98,
98,
98,
98,
98,
98,
98,
99,
99,
99,
99,
98,
98,
99,
99,
99,
99,
98,
98,
98,
98,
99,
99,
99,
99,
98,
98,
99,
99,
99,
99,
98,
98,
98,
98,
98,
98,
98,
98,
98,
98,
98,
98,
99,
99,
98,
98,
98,
98,
98,
98,
99,
99,
99,
99,
99,
99,
99,
99,
98,
98,
98,
98,
99,
99,
99,
99,
99,
99,
99,
99,
99,
99,
98,
98,
99,
99,
98,
98,
98,
98,
98,
98,
99,
99,
99,
99,
98,
98,
99,
99,
98,
98,
99,
99,
99,
99,
98,
98,
99,
99,
98,
98,
99,
99,
99,
99,
98,
98,
99,
99,
98,
98,
98,
98,
99,
99,
98,
98,
99,
99,
98,
98,
98,
98,
99,
99,
99,
99,
99,
99,
98,
98,
99,
99,
99,
99,
99,
99,
99,
99,
98,
98,
99,
99,
98,
98,
99,
99,
99,
99,
98,
98,
99,
99,
97,
97,
98,
98,
97,
97,
98,
98,
99,
99,
98,
98,
99,
99,
98,
98,
99,
99,
98,
98,
99,
99,
98,
98,
99,
99,
98,
98,
99,
99,
98,
98,
99,
99,
98,
98,
99,
99,
99,
99,
99,
99,
99,
99,
99,
99,
97,
97,
99,
99,
99,
99,
98,
98,
99,
99,
98,
98,
98,
98,
98,
98,
98,
98,
99,
99,
98,
98,
98,
98,
98,
98,
98,
98,
98,
98,
98,
98,
99,
99,
98,
98,
98,
98,
98,
98,
99,
99,
99,
99,
99,
99,
99,
99,
98,
98,
99,
99,
98,
98,
99,
99,
98,
98,
98,
98,
99,
99,
98,
98,
99,
99,
99,
99,
99,
99,
99,
99,
99,
99,
99,
99,
99,
99,
98,
98,
99,
99,
99,
99,
98,
98,
99,
99,
98,
98,
96,
96,
92,
92,
83,
46,
44,
2,
0,
0,
-1,
-1,
0,
0,
-1,
-1,
-1,
-1,
-1,
-1,
-1,
-1,
-2,
-2,
-1,
-1,
-2,
-2,
-2,
-2,
-2,
-2,
-2,
-2,
-2,
-2,
-2,
-2,
-3,
-3,
-2,
-2,
-2,
-2,
-1,
-1,
-2,
-2,
-3,
-3,
-2,
-2,
-1,
-1,
-2,
-2,
-2,
-2,
-2,
-2,
-2,
-2,
-1,
-1,
-2,
-2,
-3,
-3,
-1,
-1,
-3,
-3,
-2,
-2,
-2,
-2,
-2,
-2,
-2,
-2,
-1,
-1,
-2,
-2,
-3,
-3,
-3,
-3,
-3,
-3,
-2,
-2,
-2,
-2,
-2,
-2,
-2,
-2,
-2,
-2,
-1,
-1,
-2,
-2,
-1,
-1,
-2,
-2,
-1,
-1,
-2,
-2,
-3,
-3,
-2,
-2,
-2,
-2,
-2,
-2,
-1,
-1,
-2,
-2,
-2,
-2,
-2,
-2,
-3,
-3,
-3,
-3,
-2,
-2,
-2,
-2,
-2,
-2,
-2,
-2,
-2,
-2,
-2,
-2,
-2,
-2,
-2,
-2,
-3,
-3,
-2,
-2,
-2,
-2,
-3,
-3,
-2,
-2,
-1,
-1,
-2,
-2,
-2,
-2,
-2,
-2,
-3,
-3,
-2,
-2,
-3,
-3,
-2,
-2,
-2,
-2,
-2,
-2,
-3,
-3,
-2,
-2,
-2,
-2,
-2,
-2,
-3,
-3,
-3,
-3,
-3,
-3,
-2,
-2,
-2,
-2,
-2,
-2,
-2,
-2,
-2,
-2,
-2,
-2,
-3,
-3,
-2,
-2,
-3,
-3,
-1,
-1,
-3,
-3,
-2,
-2,
-2,
-2,
-2,
-2,
-3,
-3,
-2,
-2,
-3,
-3,
-3,
-3,
-2,
-2,
-3,
-3,
-3,
-3,
-3,
-3,
-2,
-2,
-1,
-1,
-2,
-2,
-3,
-3,
-3,
-3,
-3,
-3,
-2,
-2,
-3,
-3,
-3,
-3,
-3,
-3,
-3,
-3,
-3,
-3,
-3,
-3,
-3,
-3,
-3,
-3,
-2,
-2,
-3,
-3,
-4,
-4,
-2,
-2,
-3,
-3,
-3,
-3,
-2,
-2,
-3,
-3,
-3,
-3,
-2,
-2,
-2,
-2,
-3,
-3,
-3,
-3,
-2,
-2,
-3,
-3,
-3,
-3,
-3,
-3,
-3,
-3,
-3,
-3,
-2,
-2,
-2,
-2,
-2,
-2,
-2,
-2,
-3,
-3,
-2,
-2,
-2,
-2,
-2,
-2,
-2,
-2,
-1,
-1,
-3,
-3,
-3,
-3,
-3,
-3,
-2,
-2,
-3,
-3,
-2,
-2,
-2,
-2,
-3,
-3,
-2,
-2,
-3,
-3,
-2,
-2,
-3,
-3,
-3,
-3,
-3,
-3,
-2,
-2,
-2,
-2,
-3,
-3,
-2,
-2,
-2,
-2,
-3,
-3,
-3,
-3,
-3,
-3,
-2,
-2,
-3,
-3,
-2,
-2,
-2,
-2,
-3,
-3,
-2,
-2,
-2,
-2,
-2,
-2,
-2,
-2,
-3,
-3,
-3,
-3,
-3,
-3,
-2,
-2,
-2,
-2,
-2,
-2,
-2,
-2,
-3,
-3,
-2,
-2,
-2,
-2,
-2,
-2,
-3,
-3,
-3,
-3,
-3,
-3,
-3,
-3,
-2,
-2,
-3,
-3,
-2,
-2,
-3,
-3,
-3,
-3,
-3,
-3,
-3,
-3,
-2,
-2,
-2,
-2,
-3,
-3,
-2,
-2,
-3,
-3,
-3,
-3,
-3,
-3,
-3,
-3,
-2,
-2,
-2,
-2,
-3,
-3,
-2,
-2,
-1,
-1,
-4,
-4,
-1,
-1,
-2,
-2,
-2,
-2,
-2,
-2,
-2,
-2,
-2,
-2,
-3,
-3,
-3,
-3,
-3,
-3,
-2,
-2,
-3,
-3,
-3,
-3,
-2,
-2,
-3,
-3,
-3,
-3,
-2,
-2,
-3,
