5-grundlagen-opAmps/data/ALL0068/A0068CH1.CSV

Memory Length,4000,
Trigger Level,-1.00000e+01,
Source,CH1,
Probe,1.0X,
Vertical Units,V,
Vertical Scale,5.00000e-02,
Vertical Position,0.00000e+00,
Horizontal Units,S,
Horizontal Scale,1.00000e-03,
Horizontal Position,0.0000000e+00,
Horizontal Mode,Main,
Sampling Period,4.00000e-06,
Firmware,V1.14,
Time, ,
Mode,Fast,
Waveform Data,
12,
12,
-1,
6,
17,
5,
18,
11,
11,
16,
4,
15,
15,
9,
25,
17,
17,
15,
15,
21,
8,
21,
21,
20,
31,
21,
21,
18,
31,
20,
33,
27,
27,
24,
35,
25,
37,
35,
19,
29,
29,
29,
29,
30,
30,
33,
33,
36,
24,
37,
24,
41,
25,
35,
35,
39,
27,
40,
29,
36,
36,
33,
48,
39,
39,
44,
32,
44,
32,
45,
31,
45,
32,
40,
51,
37,
53,
41,
52,
48,
34,
46,
35,
44,
44,
40,
53,
47,
35,
51,
35,
44,
55,
43,
55,
49,
36,
43,
56,
45,
57,
47,
47,
41,
57,
48,
48,
42,
58,
47,
47,
45,
57,
55,
38,
48,
37,
48,
48,
49,
49,
42,
56,
41,
55,
48,
37,
48,
36,
49,
37,
46,
46,
47,
36,
48,
34,
47,
34,
51,
34,
41,
52,
44,
44,
35,
52,
43,
43,
40,
52,
36,
49,
40,
40,
37,
48,
41,
28,
32,
46,
38,
25,
29,
44,
40,
26,
33,
33,
31,
43,
32,
32,
37,
21,
29,
40,
33,
21,
36,
20,
31,
18,
32,
16,
33,
16,
29,
15,
21,
32,
23,
23,
20,
32,
16,
30,
16,
29,
12,
28,
21,
9,
22,
6,
18,
5,
13,
13,
17,
2,
10,
21,
14,
2,
4,
20,
13,
-1,
15,
-3,
12,
-5,
-3,
13,
-2,
11,
9,
-9,
1,
1,
0,
0,
-3,
-3,
-1,
-1,
-6,
7,
-4,
-16,
-12,
2,
-8,
-8,
-11,
0,
-12,
-12,
-6,
-22,
-19,
-5,
-13,
-25,
-14,
-25,
-20,
-7,
-19,
-19,
-20,
-9,
-22,
-11,
-27,
-12,
-28,
-14,
-21,
-33,
-29,
-16,
-29,
-18,
-32,
-19,
-32,
-19,
-28,
-40,
-36,
-23,
-30,
-41,
-31,
-43,
-31,
-44,
-36,
-36,
-32,
-45,
-35,
-35,
-39,
-39,
-37,
-49,
-34,
-48,
-40,
-40,
-39,
-39,
-47,
-31,
-42,
-31,
-40,
-53,
-44,
-44,
-43,
-55,
-43,
-55,
-42,
-55,
-49,
-37,
-50,
-39,
-41,
-58,
-41,
-59,
-44,
-59,
-57,
-42,
-43,
-61,
-49,
-49,
-53,
-41,
-52,
-40,
-49,
-60,
-48,
-60,
-53,
-42,
-51,
-51,
-48,
-61,
-54,
-54,
-48,
-62,
-60,
-43,
-57,
-43,
-60,
-43,
-47,
-63,
-53,
-64,
-55,
-44,
-49,
-64,
-48,
-63,
-55,
-41,
-51,
-51,
-52,
-52,
-52,
-52,
-46,
-61,
-55,
-43,
-51,
-62,
-49,
-49,
-48,
-61,
-45,
-59,
-50,
-39,
-56,
-39,
-54,
-37,
-40,
-59,
-47,
-47,
-48,
-48,
-45,
-56,
-43,
-55,
-44,
-44,
-41,
-52,
-51,
-33,
-33,
-51,
-43,
-32,
-39,
-51,
-40,
-51,
-42,
-29,
-34,
-48,
-39,
-28,
-41,
-27,
-35,
-24,
-34,
-34,
-36,
-25,
-31,
-44,
-31,
-42,
-27,
-42,
-30,
-30,
-28,
-28,
-29,
-18,
-30,
-16,
-25,
-25,
-23,
-34,
-16,
-32,
-19,
-31,
-24,
-11,
-20,
-20,
-26,
-9,
-16,
-16,
-17,
-17,
-20,
-7,
-18,
-4,
-13,
-2,
-10,
-10,
-8,
-8,
-15,
1,
-5,
-16,
-5,
-5,
-12,
5,
-3,
-14,
-2,
-2,
-4,
8,
7,
-10,
-1,
11,
7,
-6,
6,
-6,
4,
4,
8,
-4,
7,
7,
5,
19,
10,
10,
15,
2,
8,
21,
9,
23,
13,
13,
12,
25,
17,
6,
23,
9,
18,
30,
26,
11,
18,
32,
19,
32,
19,
33,
22,
34,
20,
36,
23,
37,
25,
37,
36,
19,
28,
28,
27,
40,
26,
42,
34,
22,
29,
42,
36,
24,
44,
27,
35,
35,
33,
45,
42,
27,
40,
29,
43,
32,
47,
32,
43,
31,
41,
41,
46,
32,
40,
51,
44,
33,
38,
52,
43,
43,
45,
45,
41,
53,
47,
36,
44,
55,
36,
53,
46,
46,
46,
46,
48,
37,
43,
56,
45,
56,
49,
37,
46,
57,
52,
38,
48,
48,
43,
56,
43,
55,
53,
37,
44,
56,
53,
37,
49,
37,
44,
55,
43,
54,
41,
54,
45,
45,
46,
35,
43,
54,
45,
34,
46,
35,
50,
37,
43,
43,
39,
51,
49,
33,
45,
32,
44,
32,
48,
32,
37,
48,
44,
30,
41,
30,
35,
47,
37,
48,
37,
37,
36,
36,
37,
37,
37,
24,
37,
23,
33,
33,
34,
23,
27,
41,
30,
30,
35,
20,
35,
19,
23,
37,
23,
36,
22,
35,
29,
14,
21,
32,
24,
13,
26,
9,
23,
8,
21,
9,
19,
7,
10,
25,
17,
5,
15,
15,
12,
12,
9,
9,
10,
10,
14,
1,
3,
17,
13,
-4,
2,
13,
2,
2,
-2,
11,
6,
-7,
1,
1,
0,
-11,
-2,
-2,
1,
-13,
-3,
-14,
-11,
4,
-6,
-6,
-15,
0,
-15,
0,
-10,
-10,
-13,
-13,
-11,
-24,
-19,
-6,
-15,
-15,
-12,
-25,
-18,
-18,
-16,
-28,
-22,
-11,
-23,
-23,
-18,
-32,
-21,
-33,
-26,
-15,
-23,
-34,
-29,
-15,
-32,
-19,
-32,
-21,
-27,
-40,
-29,
-41,
-35,
-21,
-34,
-34,
-30,
-45,
-38,
-38,
-32,
-48,
-35,
-47,
-43,
-29,
-37,
-48,
-42,
-30,
-37,
-50,
-42,
-42,
-47,
-33,
-39,
-52,
-45,
-45,
-48,
-33,
-41,
-55,
-44,
-56,
-47,
-47,
-48,
-37,
-51,
-36,
-48,
-48,
-44,
-59,
-56,
-40,
-49,
-60,
-56,
-43,
-59,
-42,
-45,
-59,
-50,
-50,
-52,
-40,
-47,
-60,
-55,
-43,
-49,
-61,
-53,
-53,
-56,
-43,
-56,
-43,
-49,
-60,
-53,
-53,
-53,
-53,
-49,
-62,
-52,
-52,
-55,
-42,
-58,
-43,
-59,
-43,
-51,
-63,
-56,
-43,
-48,
-60,
-58,
-42,
-47,
-60,
-57,
-41,
-49,
-49,
-48,
-60,
-53,
-41,
-47,
-47,
-45,
-58,
-53,
-40,
-52,
-38,
-45,
-57,
-50,
-39,
-45,
-45,
-47,
-36,
-37,
-53,
-45,
-45,
-37,
-53,
-42,
-42,
-44,
-32,
-45,
-31,
-44,
-32,
-38,
-38,
-35,
-48,
-34,
-46,
-41,
-27,
-35,
-46,
-37,
-25,
-31,
-44,
-31,
-44,
-29,
-40,
-28,
-40,
-26,
-38,
-29,
-29,
-22,
-37,
-29,
-17,
-25,
-25,
-21,
-32,
-23,
-23,
-22,
-22,
-23,
-12,
-17,
-29,
-21,
-8,
-24,
-9,
-20,
-7,
-11,
-23,
-8,
-24,
-16,
-3,
-10,
-10,
-3,
-19,
-12,
1,
-11,
2,
-6,
-6,
1,
-12,
-5,
6,
-3,
8,
-4,
9,
0,
11,
0,
0,
7,
-7,
5,
-7,
4,
4,
3,
16,
3,
17,
12,
0,
15,
0,
12,
1,
13,
13,
20,
3,
11,
25,
16,
27,
16,
28,
18,
18,
15,
29,
23,
11,
21,
21,
21,
32,
17,
33,
24,
35,
20,
36,
29,
17,
34,
18,
33,
19,
24,
39,
27,
40,
33,
22,
31,
31,
37,
24,
32,
44,
35,
46,
31,
47,
43,
28,
41,
28,
37,
48,
41,
29,
36,
49,
37,
50,
37,
49,
40,
40,
45,
33,
47,
34,
43,
43,
45,
45,
43,
43,
42,
53,
47,
34,
41,
54,
48,
37,
44,
55,
50,
37,
48,
37,
45,
56,
48,
36,
55,
38,
48,
36,
45,
56,
44,
57,
47,
47,
44,
55,
52,
37,
45,
56,
51,
37,
47,
47,
51,
37,
46,
46,
40,
54,
52,
36,
43,
54,
50,
36,
46,
46,
42,
42,
48,
33,
39,
53,
38,
52,
39,
53,
51,
32,
47,
33,
47,
33,
40,
40,
36,
49,
41,
29,
39,
28,
42,
28,
32,
46,
36,
36,
33,
44,
36,
36,
31,
43,
30,
42,
31,
31,
32,
21,
35,
20,
26,
38,
25,
37,
28,
16,
28,
16,
19,
34,
27,
16,
27,
15,
24,
13,
30,
12,
21,
10,
16,
27,
20,
8,
21,
7,
11,
25,
17,
5,
11,
23,
9,
21,
11,
11,
5,
20,
10,
10,
2,
17,
3,
15,
4,
4,
2,
13,
3,
-8,
-4,
9,
-10,
9,
0,
-12,
-4,
-4,
-1,
-13,
1,
-15,
-5,
-5,
-12,
2,
-10,
-10,
-7,
-22,
-13,
-13,
-15,
-4,
-10,
-25,
-11,
-25,
-15,
-27,
-19,
-19,
-17,
-29,
-16,
-31,
-19,
-32,
-31,
-13,
-23,
-23,
-26,
-15,
-29,
-16,
-25,
-36,
-27,
-27,
-34,
-21,
-26,
-41,
-27,
-41,
-28,
-43,
-35,
-35,
-35,
-35,
-30,
-45,
-36,
-36,
-36,
-48,
-38,
-38,
-36,
-49,
-39,
-50,
-37,
-50,
-43,
-32,
-35,
-52,
-49,
-34,
-42,
-56,
-44,
-55,
-38,
-55,
-51,
-37,
-47,
-47,
-41,
-58,
-47,
-58,
-44,
-57,
-44,
-57,
-47,
-58,
-44,
-59,
-45,
-59,
-49,
-49,
-52,
-41,
-53,
-42,
-48,
-62,
-57,
-43,
-55,
-44,
-55,
-44,
-59,
-44,
-51,
-63,
-49,
-63,
-58,
-44,
-58,
-44,
-50,
-62,
-52,
-52,
-46,
-62,
-51,
-62,
-54,
-43,
-47,
-63,
-54,
-43,
-52,
-52,
-58,
-44,
-55,
-43,
-55,
-40,
-54,
-43,
-52,
-52,
-51,
-51,
-51,
-51,
-51,
-51,
-52,
-40,
-48,
-48,
-47,
-47,
-51,
-38,
-51,
-37,
-48,
-37,
-50,
-36,
-46,
-35,
-47,
-35,
-41,
-53,
-36,
-52,
-38,
-52,
-37,
-48,
-38,
-49,
-39,
-39,
-36,
-48,
-43,
-27,
-36,
-36,
-39,
-27,
-37,
-24,
-36,
-23,
-25,
-42,
-32,
-32,
-33,
-20,
-27,
-38,
-28,
-28,
-23,
-39,
-27,
-27,
-27,
-15,
-27,
-14,
-26,
-14,
-17,
-32,
-19,
-31,
-28,
-11,
-23,
-9,
-19,
-19,
-20,
-5,
-20,
-6,
-11,
-23,
-17,
-3,
-9,
-21,
-9,
-9,
-8,
-8,
-8,
-8,
0,
-17,
-2,
-15,
-8,
6,
-8,
6,
-5,
8,
-1,
10,
2,
2,
2,
13,
2,
15,
13,
-4,
11,
-3,
5,
16,
12,
-1,
6,
18,
12,
1,
11,
22,
20,
4,
15,
15,
20,
6,
13,
25,
16,
27,
16,
30,
28,
13,
15,
32,
20,
32,
25,
14,
26,
26,
21,
36,
31,
18,
28,
28,
36,
19,
30,
30,
32,
32,
33,
33,
29,
40,
35,
23,
36,
25,
41,
27,
37,
25,
32,
47,
39,
39,
40,
29,
41,
30,
40,
29,
37,
50,
35,
49,
43,
31,
37,
52,
40,
53,
44,
44,
45,
34,
44,
44,
45,
33,
38,
53,
35,
53,
45,
45,
47,
47,
44,
44,
52,
36,
48,
37,
52,
38,
49,
37,
46,
46,
46,
57,
44,
56,
46,
46,
49,
38,
43,
56,
48,
48,
50,
37,
50,
37,
45,
56,
52,
37,
41,
54,
50,
35,
44,
44,
48,
36,
41,
53,
48,
35,
39,
53,
39,
51,
44,
33,
40,
51,
41,
41,
45,
32,
40,
51,
37,
48,
48,
31,
37,
48,
36,
48,
37,
37,
34,
45,
33,
46,
36,
25,
34,
34,
37,
25,
29,
42,
36,
22,
35,
21,
24,
40,
33,
20,
31,
19,
27,
27,
24,
37,
29,
16,
23,
23,
21,
32,
23,
12,
21,
10,
23,
9,
19,
8,
16,
16,
24,
5,
15,
15,
16,
4,
14,
1,
11,
11,
12,
0,
7,
18,
9,
9,
11,
-2,
6,
17,
7,
-4,
5,
5,
1,
12,
1,
1,
-2,
9,
0,
-12,
0,
-15,
-1,
-13,
-2,
-16,
-2,
-17,
-11,
-11,
-4,
-19,
-8,
-21,
-8,
-20,
-9,
-22,
-16,
-5,
-19,
-7,
-13,
-25,
-13,
-27,
-17,
-28,
-18,
-29,
-13,
-31,
-24,
-13,
-27,
-15,
-27,
-15,
-27,
-16,
-28,
-17,
-35,
-20,
-28,
-39,
-29,
-40,
-33,
-33,
-24,
-42,
-32,
-44,
-41,
-26,
-34,
-45,
-40,
-28,
-31,
-47,
-39,
-39,
-34,
-48,
-44,
-30,
-37,
-50,
-39,
-51,
-42,
-42,
-50,
-34,
-43,
-43,
-47,
-36,
-46,
-46,
-45,
-45,
-48,
-37,
-45,
-56,
-54,
-38,
-48,
-48,
-47,
-58,
-45,
-59,
-48,
-59,
-49,
-49,
-50,
-50,
-55,
-41,
-48,
-61,
-49,
-61,
-51,
-51,
-48,
-60,
-54,
-42,
-51,
-51,
-53,
-53,
-53,
-53,
-52,
-52,
-50,
-62,
-53,
-53,
-56,
-44,
-55,
-44,
-47,
-63,
-46,
-63,
-52,
-52,
-51,
-51,
-50,
-50,
-57,
-44,
-51,
-63,
-52,
-52,
-45,
-60,
-55,
-41,
-51,
-51,
-45,
-59,
-51,
-40,
-47,
-47,
-51,
-37,
-49,
-38,
-46,
-46,
-46,
-46,
-45,
-45,
-45,
-45,
-44,
-44,
-47,
-35,
-38,
-53,
-46,
-33,
-38,
-50,
-35,
-49,
-38,
-49,
-36,
-48,
-43,
-30,
-40,
-27,
-28,
-45,
-34,
-34,
-34,
-34,
-30,
-44,
-32,
-43,
-33,
-33,
-35,
-23,
-29,
-40,
-24,
-39,
-30,
-17,
-27,
-27,
-28,
-16,
-25,
-14,
-21,
-32,
-27,
-13,
-27,
-11,
-28,
-11,
-23,
-10,
-17,
-17,
-17,
-6,
-13,
-24,
-13,
-13,
-10,
-10,
-16,
-1,
-9,
-9,
-19,
0,
-5,
-17,
-4,
-15,
1,
-14,
1,
-14,
-9,
8,
1,
1,
0,
0,
1,
1,
0,
12,
1,
14,
6,
6,
1,
15,
8,
-3,
0,
17,
15,
1,
8,
21,
12,
12,
13,
13,
15,
4,
9,
25,
17,
17,
27,
9,
20,
9,
24,
11,
24,
11,
20,
31,
21,
33,
26,
26,
28,
17,
23,
35,
23,
37,
29,
29,
29,
29,
27,
40,
24,
41,
31,
43,
37,
24,
35,
35,
41,
24,
41,
26,
38,
27,
32,
47,
38,
38,
34,
48,
39,
39,
44,
31,
41,
41,
42,
42,
37,
52,
38,
52,
43,
32,
44,
44,
45,
34,
45,
45,
45,
45,
46,
46,
43,
55,
48,
37,
49,
38,
52,
37,
48,
48,
44,
57,
48,
48,
49,
49,
47,
59,
50,
38,
48,
48,
45,
56,
45,
45,
46,
46,
56,
39,
49,
37,
51,
37,
40,
56,
49,
37,
48,
48,
45,
45,
48,
37,
49,
37,
47,
36,
46,
46,
40,
54,
43,
43,
40,
52,
46,
32,
40,
40,
43,
31,
45,
32,
38,
49,
34,
49,
40,
29,
29,
48,
37,
37,
35,
46,
40,
27,
41,
26,
39,
24,
34,
23,
28,
42,
27,
41,
29,
40,
30,
30,
27,
39,
26,
26,
28,
16,
25,
25,
31,
13,
21,
32,
23,
23,
16,
31,
15,
31,
19,
19,
16,
27,
22,
6,
10,
24,
19,
4,
13,
13,
14,
1,
11,
-1,
11,
0,
5,
16,
2,
16,
5,
5,
3,
16,
2,
2,
1,
1,
0,
0,
0,
-11,
-2,
-2,
-6,
5,
-6,
-6,
-9,
2,
-4,
-16,
-5,
-18,
-8,
-8,
-10,
-21,
-12,
-12,
-18,
-4,
-12,
-24,
-12,
-26,
-16,
-27,
-15,
-28,
-11,
-30,
-20,
-20,
-24,
-13,
-23,
-12,
-28,
-15,
-27,
-15,
-24,
-35,
-28,
-28,
-33,
-19,
-26,
-39,
-34,
-21,
-33,
-22,
-33,
-33,
-35,
-35,
-32,
-44,
-36,
-36,
-36,
-36,
-42,
-28,
-40,
-28,
-34,
-47,
-43,
-31,
-37,
-51,
-37,
-51,
-42,
-42,
-41,
-52,
-42,
-53,
-44,
-44,
-46,
-34,
-49,
-37,
-44,
-55,
-45,
-45,
-44,
-55,
-42,
-58,
-47,
-59,
-53,
-41,
-49,
-60,
-45,
-59,
-48,
-59,
-57,
-41,
-51,
-51,
-50,
-61,
-49,
-63,
-56,
-43,
-52,
-52,
-56,
-43,
-52,
-63,
-51,
-62,
-53,
-53,
-52,
-52,
-56,
-43,
-55,
-43,
-51,
-51,
-51,
-63,
-52,
-52,
-48,
-63,
-61,
-44,
-51,
-51,
-51,
-63,
-48,
-61,
-56,
-42,
-53,
-41,
-51,
-51,
-51,
-51,
-49,
-60,
-49,
-60,
-51,
-40,
-47,
-59,
-48,
-48,
-43,
-57,
-43,
-56,
-42,
-55,
-45,
-45,
-52,
-35,
-52,
-35,
-46,
-46,
-46,
-33,
-40,
-40,
-34,
-49,
-48,
-30,
-41,
-30,
-33,
-47,
-42,
-28,
-45,
-29,
-44,
-28,
-33,
-45,
-34,
-34,
-37,
-24,
-37,
-23,
-34,
-22,
-32,
-20,
-31,
-19,
-32,
-17,
-20,
-35,
-21,
-33,
-24,
-13,
-29,
-13,
-28,
-13,
-19,
-31,
-20,
-20,
-15,
-27,
-23,
-7,
-12,
-25,
-12,
-23,
-13,
-13,
-11,
-11,
-11,
0,
-16,
0,
-7,
-7,
-2,
-16,
-3,
-16,
-4,
-15,
1,
-14,
-6,
6,
-5,
7,
4,
-9,
3,
-8,
4,
-7,
3,
3,
2,
14,
12,
-4,
12,
-3,
1,
18,
12,
1,
13,
2,
15,
4,
14,
14,
17,
5,
20,
8,
14,
27,
16,
28,
23,
9,
20,
20,
24,
13,
17,
32,
19,
34,
21,
34,
25,
25,
25,
37,
32,
19,
29,
29,
33,
21,
32,
21,
31,
31,
32,
44,
36,
25,
35,
24,
40,
25,
35,
46,
37,
37,
41,
28,
37,
48,
38,
49,
34,
49,
34,
49,
38,
49,
41,
41,
37,
50,
41,
41,
48,
33,
41,
53,
52,
35,
45,
45,
45,
45,
47,
36,
49,
36,
51,
36,
47,
47,
48,
48,
46,
46,
50,
37,
47,
47,
46,
46,
46,
46,
49,
37,
48,
37,
46,
46,
52,
37,
45,
45,
49,
36,
47,
47,
46,
46,
47,
47,
47,
36,
46,
46,
47,
36,
46,
46,
40,
55,
45,
45,
40,
53,
47,
35,
42,
42,
46,
33,
39,
50,
49,
32,
32,
51,
40,
40,
38,
49,
40,
40,
36,
48,
38,
38,
41,
27,
36,
36,
36,
36,
38,
26,
36,
25,
35,
23,
31,
31,
33,
20,
29,
29,
29,
29,
32,
19,
23,
37,
21,
36,
27,
16,
21,
33,
24,
13,
28,
13,
25,
11,
22,
11,
11,
28,
17,
6,
20,
7,
13,
25,
15,
15,
5,
23,
19,
1,
10,
10,
9,
20,
4,
18,
7,
18,
8,
-4,
4,
4,
2,
2,
-3,
12,
0,
11,
-3,
8,
-1,
-12,
-4,
-4,
-4,
-4,
0,
-16,
-8,
-8,
-8,
-8,
-5,
-20,
-8,
-20,
-8,
-23,
-13,
-13,
-15,
-15,
-13,
-25,
-18,
-7,
-18,
-18,
-25,
-8,
-26,
-12,
-19,
-32,
-18,
-34,
-24,
-24,
-29,
-17,
-23,
-36,
-21,
-37,
-25,
-37,
-23,
-38,
-34,
-21,
-31,
-31,
-38,
-23,
-35,
-24,
-31,
-45,
-30,
-46,
-32,
-45,
-33,
-47,
-42,
-29,
-45,
-29,
-35,
-50,
-42,
-42,
-35,
-52,
-40,
-51,
-48,
-34,
-41,
-54,
-41,
-53,
-47,
-35,
-48,
-36,
-48,
-36,
-43,
-56,
-47,
-47,
-45,
-56,
-53,
-38,
-50,
-50,
-54,
-40,
-51,
-51,
-53,
-41,
-55,
-42,
-53,
-41,
-45,
-60,
-53,
-42,
-52,
-52,
-50,
-61,
-55,
-42,
-48,
-61,
-55,
-43,
-53,
-53,
-56,
-43,
-54,
-43,
-57,
-43,
-51,
-51,
-57,
-43,
-50,
-61,
-51,
-62,
-52,
-52,
-53,
-53,
-45,
-62,
-54,
-42,
-51,
-62,
-51,
-51,
-52,
-52,
-52,
-52,
-57,
-40,
-52,
-41,
-52,
-39,
-47,
-59,
-48,
-48,
-47,
-47,
-45,
-45,
-44,
-55,
-47,
-35,
-45,
-45,
-40,
-52,
-49,
-33,
-45,
-33,
-49,
-32,
-35,
-50,
-40,
-40,
-43,
-31,
-36,
-48,
-39,
-39,
-36,
-47,
-40,
-27,
-33,
-44,
-33,
-33,
-27,
-42,
-33,
-22,
-33,
-22,
-27,
-39,
-24,
-37,
-24,
-36,
-27,
-27,
-27,
-15,
-25,
-14,
-22,
-22,
-21,
-32,
-26,
-12,
-24,
-11,
-13,
-27,
-24,
-7,
-16,
-16,
-21,
-5,
-11,
-24,
-18,
-3,
-12,
-12,
-9,
-20,
-12,
1,
-14,
3,
-5,
-5,
-2,
-13,
-6,
5,
-6,
6,
1,
-11,
-6,
9,
9,
-10,
1,
12,
-4,
13,
9,
-3,
6,
17,
13,
-1,
9,
9,
12,
1,
9,
22,
16,
3,
16,
5,
17,
17,
19,
6,
17,
17,
18,
18,
20,
20,
18,
31,
24,
13,
21,
33,
32,
15,
27,
16,
28,
17,
25,
37,
25,
36,
31,
19,
28,
28,
29,
40,
29,
41,
38,
23,
35,
24,
33,
33,
36,
25,
39,
25,
41,
28,
43,
29,
40,
29,
35,
48,
38,
38,
44,
31,
35,
50,
41,
41,
47,
33,
45,
33,
40,
52,
37,
53,
44,
33,
44,
44,
45,
56,
44,
44,
50,
37,
44,
56,
42,
56,
49,
36,
42,
55,
45,
56,
49,
37,
47,
47,
49,
49,
50,
39,
45,
57,
45,
57,
49,
49,
46,
57,
44,
56,
53,
38,
46,
57,
44,
55,
50,
37,
49,
37,
47,
36,
51,
35,
43,
43,
51,
35,
38,
53,
45,
45,
49,
33,
42,
42,
42,
42,
44,
32,
36,
51,
41,
41,
36,
49,
40,
40,
31,
49,
40,
29,
35,
47,
33,
45,
39,
26,
34,
34,
28,
42,
35,
24,
37,
23,
30,
30,
34,
20,
24,
37,
32,
19,
33,
17,
21,
35,
22,
33,
23,
23,
22,
22,
29,
13,
21,
21,
17,
29,
25,
10,
17,
6,
16,
16,
12,
25,
13,
13,
16,
2,
15,
1,
15,
1,
12,
0,
9,
-2,
3,
15,
0,
15,
9,
-6,
5,
5,
3,
-8,
4,
-9,
3,
-11,
-7,
8,
0,
-13,
-3,
-15,
-12,
2,
-5,
-16,
-12,
1,
-7,
-20,
-11,
-11,
-15,
-3,
-11,
-23,
-14,
-26,
-17,
-17,
-16,
-27,
-16,
-28,
-16,
-31,
-17,
-31,
-27,
-13,
-28,
-15,
-18,
-35,
-19,
-34,
-23,
-35,
-26,
-26,
-26,
-26,
-27,
-39,
-27,
-41,
-28,
-41,
-40,
-24,
-27,
-43,
-33,
-33,
-33,
-45,
-40,
-27,
-39,
-28,
-42,
-30,
-36,
-49,
-40,
-51,
-35,
-50,
-45,
-32,
-35,
-52,
-44,
-44,
-44,
-44,
-37,
-56,
-47,
-36,
-42,
-55,
-43,
-55,
-47,
-47,
-47,
-58,
-45,
-58,
-48,
-59,
-44,
-58,
-49,
-60,
-57,
-41,
-43,
-60,
-50,
-61,
-51,
-51,
-49,
-61,
-47,
-61,
-56,
-42,
-57,
-43,
-52,
-52,
-49,
-61,
-56,
-44,
-53,
-53,
-48,
-63,
-54,
-54,
-53,
-53,
-52,
-52,
-53,
-53,
-49,
-63,
-53,
-53,
-58,
-43,
-53,
-53,
-54,
-43,
-55,
-42,
-53,
-42,
-59,
-41,
-53,
-41,
-51,
-40,
-53,
-41,
-49,
-49,
-51,
-40,
-48,
-48,
-48,
-48,
-49,
-37,
-45,
-45,
-43,
-43,
-44,
-55,
-49,
-35,
-43,
-43,
-43,
-43,
-39,
-51,
-41,
-41,
-44,
-32,
-40,
-40,
-39,
-39,
-33,
-49,
-40,
-28,
-35,
-47,
-36,
-36,
-32,
-45,
-39,
-26,
-36,
-24,
-35,
-23,
-28,
-39,
-29,
-29,
-30,
-19,
-27,
-27,
-31,
-17,
-31,
-16,
-21,
-34,
-23,
-23,
-22,
-11,
-22,
-11,
-20,
-20,
-15,
-27,
-20,
-8,
-21,
-6,
-11,
-23,
-15,
-4,
-11,
-22,
-19,
-2,
-13,
0,
-11,
1,
-6,
-17,
-13,
4,
-7,
5,
-3,
-3,
0,
-11,
-1,
-1,
2,
-9,
5,
-8,
1,
13,
1,
15,
3,
15,
6,
6,
9,
20,
8,
8,
16,
2,
10,
21,
14,
14,
17,
5,
17,
5,
15,
15,
23,
9,
18,
18,
23,
9,
16,
30,
20,
31,
23,
23,
24,
35,
28,
17,
27,
27,
35,
19,
28,
17,
32,
19,
31,
31,
29,
29,
35,
22,
28,
42,
29,
42,
30,
45,
34,
34,
36,
36,
40,
28,
36,
47,
37,
48,
39,
39,
44,
32,
40,
51,
45,
32,
48,
33,
37,
52,
41,
53,
45,
34,
44,
44,
41,
53,
53,
36,
44,
44,
46,
46,
43,
55,
48,
36,
40,
56,
45,
45,
51,
37,
46,
46,
52,
38,
44,
56,
43,
58,
52,
37,
49,
37,
48,
37,
52,
38,
49,
37,
48,
37,
45,
56,
45,
45,
47,
36,
45,
45,
47,
36,
44,
44,
48,
36,
53,
37,
45,
45,
49,
36,
45,
45,
43,
43,
40,
52,
37,
51,
42,
42,
47,
33,
43,
31,
41,
41,
37,
49,
34,
48,
39,
39,
38,
38,
33,
45,
41,
26,
31,
44,
38,
24,
35,
23,
28,
41,
31,
31,
28,
39,
24,
37,
25,
36,
34,
19,
33,
17,
22,
35,
22,
22,
28,
14,
17,
31,
26,
10,
26,
9,
24,
9,
16,
29,
14,
26,
13,
24,
9,
24,
9,
23,
17,
1,
9,
9,
13,
-1,
10,
-1,
4,
16,
4,
15,
4,
4,
0,
14,
4,
4,
-6,
9,
4,
-10,
-5,
8,
-1,
-12,
-7,
4,
-3,
-15,
-6,
-17,
-2,
-20,
-11,
-11,
-11,
-11,
-12,
-1,
-8,
-23,
-11,
-24,
-19,
-6,
-23,
-6,
-23,
-9,
-19,
-19,
-25,
-11,
-19,
-31,
-19,
-31,
-19,
-33,
-24,
-35,
-22,
-35,
-27,
-27,
-24,
-37,
-29,
-40,
-30,
-30,
-30,
-42,
-31,
-31,
-27,
-43,
-34,
-34,
-37,
-37,
-37,
-37,
-45,
-29,
-31,
-47,
-43,
-31,
-36,
-50,
-44,
-33,
-37,
-51,
-47,
-33,
-43,
-43,
-44,
-44,
-36,
-54,
-45,
-45,
-44,
-55,
-43,
-56,
-55,
-38,
-43,
-56,
-45,
-58,
-49,
-49,
-52,
-41,
-55,
-42,
-53,
-41,
-48,
-60,
-56,
-42,
-55,
-42,
-49,
-60,
-45,
-60,
-56,
-43,
-56,
-41,
-52,
-52,
-52,
-52,
-47,
-61,
-54,
-54,
-51,
-62,
-51,
-62,
-60,
-44,
-56,
-45,
-58,
-44,
-49,
-61,
-50,
-61,
-58,
-43,
-56,
-43,
-52,
-41,
-56,
-43,
-46,
-60,
-53,
-42,
-48,
-59,
-48,
-60,
-49,
-38,
-49,
-49,
-52,
-37,
-43,
-57,
-46,
-58,
-47,
-47,
-45,
-56,
-49,
-37,
-44,
-44,
-45,
-45,
-45,
-45,
-41,
-53,
-36,
-52,
-42,
-42,
-40,
-40,
-41,
-41,
-42,
-31,
-39,
-39,
-39,
-39,
-37,
-37,
-36,
-36,
-34,
-34,
-37,
-23,
-34,
-23,
-32,
-32,
-31,
-20,
-23,
-40,
-31,
-19,
-32,
-16,
-32,
-17,
-22,
-36,
-26,
-15,
-27,
-14,
-23,
-23,
-20,
-20,
-21,
-9,
-19,
-19,
-24,
-7,
-19,
-5,
-8,
-24,
-14,
-14,
-9,
-23,
-5,
-21,
-5,
-19,
-13,
0,
-8,
-8,
-2,
-15,
-4,
-15,
-8,
4,
-5,
7,
-2,
-2,
1,
-11,
0,
11,
-1,
12,
1,
13,
2,
15,
1,
