5-grundlagen-opAmps/data/ALL0009/A0009CH1.CSV

Memory Length,4000,
Trigger Level,0.00000e+00,
Source,CH1,
Probe,1.0X,
Vertical Units,V,
Vertical Scale,5.00000e-02,
Vertical Position,0.00000e+00,
Horizontal Units,S,
Horizontal Scale,1.00000e-07,
Horizontal Position,1.0000000e-07,
Horizontal Mode,Main,
Sampling Period,2.00000e-09,
Firmware,V1.14,
Time, ,
Mode,Fast,
Waveform Data,
12,
12,
14,
9,
4,
0,
4,
9,
9,
3,
-3,
-5,
0,
6,
3,
-6,
-12,
-9,
-3,
0,
-5,
-13,
-18,
-13,
-7,
-5,
-16,
-22,
-19,
-14,
-11,
-17,
-27,
-25,
-19,
-16,
-17,
-27,
-29,
-26,
-23,
-20,
-26,
-33,
-32,
-28,
-24,
-26,
-31,
-33,
-32,
-29,
-27,
-28,
-31,
-34,
-33,
-30,
-28,
-30,
-30,
-30,
-30,
-29,
-28,
-29,
-28,
-29,
-28,
-27,
-25,
-26,
-26,
-24,
-23,
-22,
-24,
-21,
-21,
-22,
-19,
-15,
-15,
-17,
-19,
-16,
-12,
-8,
-9,
-11,
-12,
-12,
-7,
-3,
-3,
-5,
-7,
-2,
2,
3,
3,
-1,
0,
4,
8,
9,
4,
2,
7,
13,
14,
10,
7,
8,
15,
19,
17,
12,
8,
14,
24,
21,
17,
11,
13,
21,
25,
21,
16,
15,
18,
23,
23,
20,
17,
18,
21,
21,
18,
17,
17,
17,
19,
18,
17,
16,
15,
16,
16,
16,
12,
10,
13,
12,
13,
10,
8,
9,
7,
7,
7,
5,
4,
3,
3,
-1,
-1,
0,
1,
-2,
-7,
-11,
-8,
-4,
-4,
-9,
-14,
-16,
-11,
-9,
-11,
-16,
-20,
-18,
-11,
-14,
-22,
-26,
-25,
-16,
-17,
-24,
-32,
-31,
-23,
-19,
-24,
-31,
-35,
-32,
-24,
-19,
-27,
-35,
-37,
-31,
-24,
-26,
-32,
-35,
-32,
-28,
-26,
-27,
-32,
-35,
-31,
-26,
-23,
-30,
-36,
-31,
-24,
-20,
-23,
-30,
-32,
-26,
-16,
-16,
-22,
-30,
-27,
-16,
-11,
-15,
-21,
-24,
-16,
-9,
-8,
-12,
-16,
-14,
-6,
-4,
-6,
-8,
-8,
-3,
-1,
-2,
-2,
-1,
1,
2,
5,
4,
4,
4,
7,
9,
10,
9,
11,
12,
10,
11,
16,
16,
14,
14,
14,
14,
19,
19,
17,
17,
15,
18,
23,
23,
19,
17,
19,
19,
22,
22,
19,
18,
18,
19,
22,
19,
15,
15,
18,
20,
19,
14,
12,
15,
18,
19,
16,
8,
5,
10,
15,
16,
8,
2,
4,
8,
11,
7,
1,
-1,
1,
4,
3,
-1,
-7,
-5,
-1,
-2,
-6,
-11,
-11,
-9,
-8,
-11,
-13,
-15,
-16,
-15,
-12,
-17,
-20,
-22,
-22,
-17,
-20,
-20,
-24,
-23,
-24,
-26,
-26,
-26,
-26,
-28,
-29,
-29,
-29,
-28,
-29,
-30,
-30,
-32,
-31,
-28,
-29,
-30,
-32,
-31,
-29,
-29,
-31,
-32,
-30,
-30,
-26,
-26,
-30,
-32,
-29,
-22,
-21,
-25,
-29,
-29,
-20,
-16,
-16,
-24,
-27,
-23,
-13,
-9,
-17,
-23,
-24,
-12,
-4,
-7,
-13,
-17,
-11,
-3,
0,
-5,
-12,
-9,
0,
5,
1,
-5,
-5,
2,
10,
10,
4,
1,
2,
8,
16,
15,
6,
3,
9,
17,
19,
16,
12,
9,
15,
20,
20,
16,
12,
15,
20,
24,
20,
15,
16,
20,
26,
23,
17,
15,
18,
24,
25,
18,
14,
15,
20,
23,
21,
16,
14,
16,
18,
16,
14,
14,
14,
13,
11,
9,
10,
11,
12,
9,
4,
3,
7,
8,
4,
1,
-1,
2,
1,
0,
-3,
-5,
-4,
-5,
-5,
-8,
-11,
-13,
-10,
-8,
-11,
-16,
-19,
-15,
-13,
-14,
-15,
-24,
-23,
-21,
-18,
-15,
-23,
-31,
-30,
-24,
-20,
-24,
-30,
-32,
-29,
-25,
-26,
-30,
-33,
-32,
-28,
-27,
-30,
-36,
-35,
-28,
-25,
-28,
-35,
-35,
-31,
-27,
-26,
-29,
-31,
-32,
-27,
-26,
-25,
-27,
-29,
-26,
-25,
-23,
-24,
-23,
-22,
-22,
-21,
-19,
-17,
-17,
-16,
-15,
-15,
-14,
-14,
-12,
-11,
-11,
-9,
-6,
-7,
-7,
-5,
-4,
-2,
-1,
2,
0,
0,
1,
4,
7,
7,
5,
3,
8,
11,
14,
12,
8,
6,
11,
18,
19,
13,
9,
12,
20,
24,
19,
13,
11,
19,
25,
24,
16,
11,
16,
24,
28,
20,
13,
13,
20,
28,
25,
17,
11,
14,
24,
26,
21,
11,
9,
16,
21,
18,
12,
8,
9,
14,
16,
12,
5,
4,
8,
12,
11,
4,
-2,
0,
5,
6,
2,
-4,
-7,
-4,
0,
2,
-4,
-13,
-14,
-8,
-4,
-7,
-14,
-19,
-14,
-12,
-13,
-16,
-20,
-20,
-18,
-16,
-19,
-24,
-24,
-24,
-20,
-23,
-29,
-28,
-24,
-24,
-26,
-32,
-31,
-29,
-27,
-28,
-31,
-30,
-30,
-29,
-31,
-31,
-33,
-28,
-28,
-28,
-34,
-35,
-29,
-26,
-26,
-29,
-32,
-31,
-27,
-24,
-24,
-26,
-29,
-25,
-23,
-20,
-22,
-26,
-24,
-20,
-17,
-15,
-16,
-20,
-18,
-11,
-9,
-11,
-16,
-15,
-9,
-3,
-5,
-8,
-11,
-8,
0,
4,
1,
-6,
-5,
3,
8,
6,
1,
1,
5,
10,
11,
10,
7,
7,
11,
16,
15,
10,
10,
14,
18,
17,
15,
15,
17,
18,
18,
18,
19,
19,
18,
20,
19,
21,
22,
20,
18,
17,
19,
23,
20,
17,
15,
16,
19,
21,
19,
16,
13,
13,
17,
17,
16,
11,
10,
12,
13,
13,
10,
6,
5,
7,
9,
7,
1,
-1,
1,
6,
6,
-3,
-9,
-8,
-1,
2,
-1,
-11,
-15,
-10,
-5,
-4,
-10,
-21,
-20,
-11,
-9,
-13,
-22,
-27,
-20,
-15,
-16,
-26,
-28,
-27,
-22,
-18,
-24,
-30,
-33,
-28,
-21,
-21,
-29,
-36,
-35,
-28,
-24,
-27,
-32,
-36,
-34,
-28,
-26,
-29,
-34,
-35,
-28,
-27,
-27,
-30,
-32,
-29,
-26,
-26,
-27,
-29,
-28,
-25,
-24,
-25,
-25,
-26,
-20,
-19,
-19,
-20,
-21,
-19,
-18,
-15,
-15,
-15,
-15,
-13,
-10,
-12,
-11,
-8,
-5,
-6,
-8,
-8,
-4,
0,
1,
0,
-3,
-2,
3,
9,
8,
2,
1,
6,
12,
13,
9,
7,
9,
13,
17,
16,
12,
11,
16,
20,
20,
15,
12,
14,
21,
25,
21,
18,
14,
17,
23,
24,
21,
14,
14,
19,
25,
22,
17,
15,
15,
20,
24,
19,
15,
13,
17,
20,
17,
12,
8,
12,
16,
15,
9,
5,
7,
10,
12,
8,
4,
2,
2,
6,
5,
1,
-1,
-2,
-2,
-3,
-4,
-4,
-3,
-7,
-12,
-12,
-10,
-9,
-11,
-15,
-17,
-17,
-14,
-11,
-18,
-22,
-21,
-20,
-17,
-21,
-26,
-27,
-24,
-20,
-24,
-28,
-31,
-30,
-26,
-25,
-27,
-31,
-34,
-32,
-26,
-25,
-29,
-35,
-36,
-30,
-26,
-25,
-29,
-38,
-36,
-29,
-23,
-27,
-33,
-36,
-29,
-21,
-22,
-29,
-33,
-29,
-22,
-19,
-20,
-30,
-29,
-20,
-12,
-15,
-22,
-27,
-21,
-11,
-8,
-13,
-18,
-18,
-13,
-6,
-4,
-10,
-12,
-9,
-3,
-1,
-2,
-4,
-4,
0,
2,
4,
2,
1,
2,
9,
11,
7,
4,
5,
10,
14,
14,
12,
10,
10,
15,
18,
17,
16,
16,
17,
20,
19,
17,
17,
20,
19,
18,
16,
19,
21,
23,
20,
18,
17,
20,
23,
22,
18,
15,
17,
21,
20,
17,
13,
14,
19,
19,
15,
9,
9,
14,
18,
14,
7,
3,
5,
12,
12,
6,
0,
0,
3,
8,
5,
-2,
-8,
-6,
0,
2,
-3,
-11,
-12,
-9,
-5,
-7,
-12,
-16,
-17,
-12,
-12,
-13,
-21,
-22,
-17,
-15,
-17,
-23,
-27,
-27,
-20,
-19,
-25,
-28,
-31,
-29,
-25,
-23,
-26,
-32,
-33,
-28,
-26,
-28,
-32,
-32,
-30,
-30,
-29,
-29,
-31,
-30,
-29,
-30,
-30,
-31,
-32,
-28,
-28,
-28,
-28,
-28,
-27,
-27,
-28,
-24,
-20,
-23,
-25,
-27,
-22,
-18,
-16,
-16,
-22,
-22,
-16,
-11,
-10,
-16,
-16,
-13,
-8,
-6,
-7,
-9,
-11,
-6,
-1,
1,
-4,
-5,
-3,
3,
6,
4,
0,
0,
4,
10,
13,
9,
4,
4,
12,
19,
17,
10,
6,
11,
19,
24,
18,
11,
10,
18,
24,
23,
15,
12,
17,
24,
25,
20,
16,
16,
22,
25,
21,
17,
14,
19,
24,
21,
16,
12,
16,
20,
20,
17,
13,
12,
14,
16,
13,
14,
11,
9,
11,
10,
9,
7,
7,
6,
5,
2,
1,
3,
1,
1,
0,
-2,
-7,
-7,
-4,
-3,
-7,
-11,
-10,
-9,
-11,
-13,
-15,
-15,
-14,
-14,
-14,
-20,
-22,
-18,
-16,
-17,
-26,
-29,
-27,
-19,
-18,
-26,
-33,
-32,
-25,
-22,
-24,
-30,
-36,
-32,
-27,
-23,
-31,
-36,
-35,
-28,
-24,
-28,
-34,
-35,
-31,
-25,
-25,
-29,
-35,
-34,
-28,
-21,
-23,
-30,
-33,
-29,
-22,
-18,
-24,
-28,
-29,
-24,
-16,
-16,
-20,
-24,
-21,
-14,
-11,
-14,
-16,
-16,
-11,
-8,
-9,
-9,
-11,
-9,
-4,
0,
-3,
-7,
-4,
0,
3,
2,
3,
1,
3,
5,
7,
9,
7,
7,
10,
10,
11,
13,
16,
14,
11,
11,
14,
17,
19,
16,
14,
17,
20,
22,
19,
17,
18,
20,
23,
23,
17,
15,
19,
22,
23,
18,
15,
16,
20,
24,
21,
16,
12,
14,
20,
22,
17,
9,
11,
11,
18,
17,
12,
6,
5,
9,
12,
10,
3,
2,
3,
7,
7,
2,
-5,
-3,
1,
3,
-2,
-8,
-13,
-8,
-1,
-1,
-11,
-17,
-17,
-11,
-8,
-13,
-19,
-21,
-18,
-15,
-15,
-23,
-25,
-22,
-22,
-19,
-25,
-27,
-25,
-24,
-24,
-28,
-31,
-29,
-27,
-26,
-29,
-31,
-29,
-30,
-28,
-31,
-30,
-31,
-30,
-28,
-30,
-32,
-32,
-29,
-27,
-27,
-30,
-31,
-29,
-26,
-25,
-26,
-28,
-30,
-27,
-19,
-20,
-24,
-28,
-25,
-20,
-16,
-15,
-20,
-22,
-19,
-12,
-9,
-15,
-18,
-16,
-8,
-4,
-7,
-13,
-12,
-6,
1,
1,
-4,
-10,
-4,
4,
9,
3,
-4,
-2,
4,
12,
13,
6,
3,
5,
12,
16,
15,
9,
8,
13,
19,
18,
16,
12,
14,
18,
20,
23,
16,
13,
17,
24,
25,
18,
14,
14,
20,
26,
24,
18,
16,
16,
21,
24,
21,
15,
14,
18,
20,
18,
15,
14,
15,
14,
14,
12,
12,
11,
10,
10,
8,
8,
7,
7,
5,
3,
4,
5,
4,
-2,
-4,
0,
2,
0,
-6,
-9,
-9,
-5,
-5,
-7,
-14,
-17,
-14,
-9,
-10,
-17,
-21,
-19,
-15,
-15,
-18,
-24,
-26,
-22,
-21,
-19,
-23,
-28,
-29,
-27,
-24,
-25,
-31,
-33,
-29,
-25,
-25,
-29,
-32,
-34,
-31,
-27,
-25,
-31,
-36,
-34,
-28,
-25,
-28,
-32,
-33,
-29,
-25,
-25,
-28,
-31,
-30,
-26,
-23,
-26,
-28,
-27,
-23,
-19,
-21,
-25,
-24,
-20,
-16,
-16,
-16,
-18,
-16,
-10,
-12,
-11,
-13,
-12,
-6,
-8,
-8,
-7,
-4,
0,
-2,
-3,
-3,
0,
4,
6,
5,
1,
2,
7,
11,
10,
6,
5,
9,
13,
14,
14,
12,
11,
16,
19,
17,
14,
13,
17,
20,
21,
18,
12,
15,
20,
26,
25,
17,
12,
17,
24,
28,
21,
13,
12,
20,
26,
24,
16,
9,
15,
23,
24,
18,
8,
9,
17,
21,
15,
8,
5,
9,
15,
14,
6,
1,
3,
8,
11,
8,
-1,
-5,
-2,
2,
3,
-2,
-7,
-10,
-8,
-5,
-5,
-7,
-12,
-15,
-13,
-9,
-11,
-16,
-16,
-16,
-15,
-15,
-21,
-23,
-21,
-21,
-19,
-23,
-26,
-28,
-27,
-23,
-25,
-28,
-31,
-30,
-28,
-28,
-28,
-28,
-29,
-32,
-33,
-31,
-29,
-28,
-29,
-32,
-34,
-33,
-29,
-26,
-28,
-34,
-34,
-28,
-24,
-26,
-31,
-30,
-26,
-23,
-21,
-27,
-29,
-26,
-20,
-16,
-21,
-24,
-24,
-17,
-13,
-13,
-16,
-19,
-17,
-12,
-7,
-7,
-12,
-14,
-9,
-3,
-3,
-3,
-6,
-5,
-1,
2,
3,
0,
-1,
2,
7,
8,
6,
4,
5,
9,
13,
12,
11,
9,
12,
17,
18,
14,
11,
13,
18,
20,
18,
16,
16,
19,
19,
20,
19,
20,
19,
20,
20,
19,
19,
23,
21,
19,
15,
16,
20,
22,
20,
16,
16,
16,
19,
18,
16,
13,
10,
15,
16,
13,
8,
7,
12,
12,
10,
4,
0,
3,
7,
8,
4,
-4,
-6,
-2,
4,
3,
-6,
-11,
-11,
-6,
-1,
-6,
-14,
-17,
-14,
-9,
-8,
-15,
-22,
-21,
-14,
-11,
-17,
-27,
-28,
-23,
-14,
-16,
-26,
-33,
-30,
-22,
-18,
-23,
-35,
-38,
-32,
-23,
-22,
-31,
-36,
-35,
-27,
-24,
-29,
-33,
-35,
-30,
-27,
-28,
-31,
-34,
-29,
-27,
-25,
-28,
-32,
-30,
-28,
-24,
-25,
-26,
-27,
-27,
-24,
-20,
-19,
-21,
-23,
-20,
-18,
-17,
-16,
-16,
-18,
-15,
-13,
-11,
-11,
-12,
-9,
-8,
-8,
-8,
-7,
-3,
-2,
-3,
-4,
-1,
2,
3,
3,
2,
3,
7,
11,
8,
5,
5,
12,
16,
13,
8,
7,
14,
18,
18,
12,
9,
14,
19,
24,
20,
13,
13,
19,
23,
22,
18,
16,
17,
21,
23,
21,
19,
17,
18,
22,
21,
18,
16,
17,
20,
20,
18,
14,
11,
13,
17,
18,
15,
8,
7,
12,
15,
13,
7,
4,
5,
7,
8,
5,
1,
1,
2,
2,
-1,
-4,
-4,
-3,
-3,
-7,
-10,
-9,
-8,
-7,
-13,
-16,
-14,
-14,
-14,
-15,
-20,
-18,
-17,
-18,
-19,
-24,
-23,
-21,
-19,
-22,
-29,
-31,
-27,
-22,
-24,
-29,
-32,
-31,
-26,
-25,
-28,
-32,
-35,
-31,
-26,
-25,
-30,
-36,
-35,
-29,
-25,
-28,
-33,
-36,
-33,
-25,
-24,
-27,
-34,
-33,
-25,
-18,
-20,
-28,
-32,
-27,
-18,
-14,
-18,
-28,
-28,
-18,
-9,
-11,
-19,
-24,
-18,
-9,
-6,
-11,
-16,
-14,
-7,
0,
-1,
-8,
-11,
-4,
3,
4,
-2,
-5,
-1,
5,
10,
9,
3,
0,
4,
11,
15,
9,
6,
9,
12,
15,
16,
13,
15,
15,
16,
18,
17,
17,
18,
21,
19,
19,
17,
18,
20,
21,
22,
19,
20,
18,
19,
21,
21,
19,
18,
19,
17,
18,
17,
17,
20,
16,
14,
12,
12,
18,
16,
12,
9,
6,
10,
14,
12,
4,
1,
4,
9,
8,
2,
-2,
-1,
1,
2,
-3,
-5,
-8,
-4,
0,
-5,
-11,
-15,
-12,
-5,
-9,
-14,
-16,
-19,
-15,
-14,
-12,
-20,
-24,
-23,
-20,
-16,
-21,
-25,
-28,
-26,
-23,
-23,
-26,
-29,
-30,
-29,
-27,
-27,
-29,
-32,
-32,
-28,
-27,
-30,
-33,
-31,
-28,
-28,
-29,
-32,
-33,
-32,
-28,
-27,
-28,
-29,
-29,
-27,
-27,
-28,
-26,
-24,
-23,
-28,
-28,
-22,
-19,
-18,
-20,
-24,
-22,
-16,
-12,
-13,
-17,
-20,
-13,
-7,
-8,
-13,
-14,
-10,
-3,
-2,
-6,
-9,
-7,
-1,
4,
4,
-3,
-6,
0,
7,
11,
6,
2,
1,
8,
16,
16,
11,
5,
6,
15,
21,
18,
11,
9,
14,
22,
23,
16,
12,
14,
22,
27,
23,
14,
11,
20,
26,
26,
18,
12,
16,
23,
27,
23,
14,
13,
17,
23,
22,
15,
11,
13,
18,
19,
15,
12,
10,
12,
12,
12,
9,
6,
8,
10,
9,
5,
1,
3,
4,
3,
2,
-1,
-2,
-3,
-3,
-3,
-5,
-6,
-8,
-9,
-10,
-11,
-12,
-10,
-11,
-15,
-18,
-19,
-18,
-16,
-16,
-17,
-23,
-23,
-22,
-20,
-19,
-25,
-28,
-26,
-23,
-24,
-27,
-32,
-31,
-27,
-25,
-28,
-32,
-34,
-30,
-26,
-27,
-34,
-37,
-33,
-26,
-23,
-30,
-36,
-34,
-29,
-23,
-25,
-31,
-34,
-31,
-24,
-20,
-24,
-29,
-29,
-23,
-20,
-20,
-25,
-26,
-21,
-18,
-16,
-17,
-19,
-19,
-14,
-10,
-11,
-13,
-14,
-12,
-7,
-7,
-4,
-6,
-8,
-7,
-3,
1,
1,
-2,
-2,
0,
4,
6,
7,
5,
5,
7,
9,
12,
10,
10,
11,
13,
13,
14,
16,
15,
14,
15,
16,
19,
20,
17,
16,
17,
21,
24,
20,
16,
17,
22,
25,
22,
15,
11,
18,
25,
25,
18,
12,
14,
20,
25,
21,
12,
9,
13,
20,
20,
11,
7,
7,
13,
15,
12,
7,
3,
6,
10,
9,
5,
-3,
-4,
5,
8,
5,
-5,
-9,
-6,
0,
2,
-4,
-12,
-16,
-11,
-4,
-5,
-14,
-20,
-16,
-12,
-12,
-16,
-26,
-22,
-17,
-15,
-17,
-28,
-28,
-24,
-20,
-19,
-27,
-31,
-32,
-25,
-23,
-29,
-32,
-32,
-28,
-27,
-28,
-31,
-30,
-31,
-29,
-30,
-31,
-32,
-31,
-29,
-30,
-32,
-32,
-31,
-27,
-28,
-30,
-29,
-28,
-26,
-26,
-24,
-26,
-26,
-24,
-21,
-21,
-22,
-23,
-18,
-18,
-15,
-15,
-19,
-18,
-14,
-9,
-10,
-15,
-15,
-10,
-2,
-1,
-5,
-9,
-8,
0,
4,
4,
-1,
-5,
0,
7,
9,
6,
0,
3,
9,
13,
12,
7,
6,
11,
17,
18,
12,
9,
12,
19,
23,
18,
13,
12,
17,
22,
23,
20,
15,
16,
18,
22,
24,
19,
17,
18,
20,
21,
20,
18,
19,
17,
17,
18,
17,
17,
16,
16,
16,
14,
13,
12,
12,
12,
12,
12,
9,
7,
6,
7,
8,
7,
4,
3,
1,
1,
3,
3,
-1,
-7,
-8,
-5,
-1,
-4,
-9,
-13,
-13,
-7,
-7,
-10,
-16,
-20,
-16,
-9,
-13,
-19,
-25,
-24,
-16,
-15,
-22,
-28,
-29,
-23,
-18,
-21,
-30,
-34,
-30,
-24,
-20,
-28,
-35,
-36,
-30,
-24,
-26,
-32,
-36,
-35,
-28,
-26,
-27,
-32,
-35,
-32,
-27,
-25,
-30,
-34,
-31,
-27,
-24,
-26,
-31,
-31,
-27,
-19,
-18,
-24,
-29,
-27,
-18,
-13,
-18,
-24,
-24,
-17,
-13,
-12,
-13,
-16,
-14,
-8,
-7,
-9,
-12,
-6,
-1,
-3,
-6,
-6,
-3,
2,
3,
3,
-1,
0,
5,
8,
6,
4,
4,
11,
13,
11,
9,
12,
14,
16,
16,
11,
12,
15,
19,
23,
17,
14,
14,
17,
22,
22,
17,
15,
17,
21,
25,
23,
18,
15,
18,
24,
25,
19,
14,
14,
20,
24,
20,
13,
11,
14,
20,
22,
14,
6,
7,
16,
17,
11,
3,
2,
8,
12,
11,
4,
-3,
0,
4,
7,
5,
-3,
-6,
-4,
0,
-2,
-6,
-9,
-10,
-8,
-7,
-9,
-12,
-16,
-14,
-11,
-13,
-16,
-21,
-20,
-17,
-19,
-19,
-24,
-25,
-25,
-24,
-24,
-23,
-26,
-28,
-29,
-28,
-26,
-27,
-29,
-30,
-31,
-32,
-29,
-28,
-29,
-30,
-34,
-31,
-29,
-29,
-29,
-32,
-33,
-29,
-27,
-27,
-31,
-33,
-29,
-24,
-22,
-26,
-32,
-30,
-22,
-16,
-20,
-26,
-28,
-23,
-13,
-11,
-16,
-24,
-24,
-13,
-8,
-10,
-16,
-17,
-12,
-5,
-4,
-7,
-12,
-11,
-3,
4,
0,
-6,
-5,
-1,
6,
6,
3,
0,
2,
7,
12,
11,
6,
5,
7,
13,
15,
14,
11,
10,
15,
18,
19,
16,
13,
15,
19,
22,
20,
16,
17,
20,
25,
22,
18,
15,
19,
22,
22,
19,
17,
18,
21,
22,
17,
16,
16,
19,
19,
16,
14,
13,
16,
17,
12,
9,
10,
14,
15,
9,
4,
3,
9,
13,
8,
1,
-4,
1,
6,
5,
0,
-7,
-6,
-3,
-2,
-3,
-10,
-12,
-9,
-7,
-7,
-13,
-16,
-16,
-14,
-11,
-14,
-22,
-25,
-22,
-15,
-15,
-20,
-28,
-31,
-24,
-17,
-20,
-28,
-33,
-30,
-25,
-24,
-26,
-35,
-36,
-28,
-24,
-26,
-33,
-36,
-32,
-26,
-24,
-30,
-35,
-35,
-28,
-26,
-26,
-31,
-34,
-30,
-27,
-24,
-26,
-31,
-29,
-27,
-24,
-24,
-21,
-24,
-24,
-21,
-19,
-18,
-18,
-20,
-18,
-16,
-14,
-13,
-13,
-15,
-13,
-10,
-8,
-8,
-8,
-7,
-4,
-3,
-3,
-2,
-1,
-1,
0,
3,
4,
3,
2,
4,
5,
9,
10,
10,
8,
7,
9,
16,
19,
12,
9,
11,
18,
22,
19,
13,
11,
18,
22,
24,
19,
14,
16,
22,
25,
21,
16,
14,
20,
26,
24,
17,
13,
15,
21,
24,
19,
13,
10,
16,
21,
19,
16,
12,
11,
13,
15,
13,
9,
7,
8,
11,
10,
5,
3,
4,
5,
5,
2,
-2,
-1,
0,
1,
0,
-4,
-8,
-8,
-7,
-5,
-8,
-12,
-12,
-12,
-13,
-14,
-16,
-16,
-15,
-17,
-19,
-23,
-21,
-19,
-20,
-20,
-25,
-29,
-26,
-23,
-23,
-28,
-33,
-29,
-25,
-24,
-27,
-33,
-32,
-29,
-26,
-28,
-35,
-36,
-32,
-26,
-25,
-33,
-37,
-33,
-25,
-23,
-28,
-34,
-36,
-28,
-21,
-22,
-29,
-34,
-30,
-23,
-18,
-21,
-28,
-28,
-22,
-16,
-14,
-18,
-23,
-21,
-13,
-9,
-11,
-17,
-19,
-12,
-6,
-4,
-9,
-13,
-10,
-3,
3,
0,
-7,
-9,
-1,
7,
7,
2,
-2,
0,
7,
11,
11,
7,
6,
9,
13,
15,
11,
11,
13,
15,
15,
15,
14,
16,
18,
18,
19,
19,
17,
17,
19,
20,
21,
22,
20,
17,
18,
19,
23,
22,
18,
16,
17,
20,
21,
18,
17,
15,
14,
16,
17,
16,
13,
12,
12,
13,
13,
12,
9,
8,
8,
8,
11,
5,
1,
1,
4,
8,
2,
-4,
-6,
-3,
2,
0,
-7,
-11,
-11,
-4,
-3,
-8,
-17,
-19,
-11,
-9,
-10,
-18,
-26,
-19,
-16,
-15,
-20,
-24,
-25,
-23,
-19,
-24,
-27,
-29,
-28,
-24,
-23,
-29,
-32,
-31,
-27,
-26,
-28,
-29,
-31,
-32,
-31,
-28,
-29,
-32,
-33,
-32,
-29,
-30,
-29,
-30,
-30,
-30,
-29,
-29,
-27,
-26,
-26,
-26,
-26,
-28,
-26,
-20,
-21,
-22,
-25,
-23,
-17,
-17,
-19,
-17,
-17,
-14,
-10,
-12,
-15,
-15,
-9,
-4,
-7,
-12,
-12,
-7,
1,
3,
0,
-8,
-7,
1,
10,
9,
1,
-2,
3,
12,
14,
8,
4,
5,
13,
17,
16,
9,
8,
12,
19,
23,
15,
9,
12,
20,
26,
24,
16,
12,
17,
25,
27,
21,
13,
13,
20,
25,
25,
17,
13,
15,
21,
25,
21,
14,
11,
17,
24,
21,
13,
9,
12,
17,
18,
13,
7,
6,
11,
14,
11,
6,
1,
4,
7,
8,
3,
-2,
-1,
1,
1,
-1,
-4,
-3,
-5,
-6,
-7,
-10,
-8,
-10,
-10,
-15,
-15,
-14,
-15,
-13,
-18,
-20,
-17,
-19,
-19,
-21,
-25,
-20,
-21,
-24,
-26,
-28,
-27,
-26,
-25,
-27,
-29,
-31,
-32,
-27,
-26,
-27,
-32,
-34,
-31,
-28,
-25,
-28,
-35,
-36,
-32,
-25,
-25,
-30,
-35,
-31,
-25,
-22,
-26,
-31,
-30,
-25,
-19,
-21,
-27,
-29,
-25,
-15,
-16,
-21,
-27,
-24,
-16,
-12,
-14,
-16,
-17,
-14,
-9,
-7,
-10,
-11,
-8,
-7,
-6,
-5,
-4,
-3,
-1,
0,
0,
1,
2,
2,
4,
5,
6,
6,
8,
10,
9,
9,
12,
12,
12,
14,
16,
15,
14,
16,
16,
16,
16,
17,
20,
21,
20,
18,
16,
18,
24,
23,
19,
16,
17,
23,
26,
23,
15,
13,
18,
24,
25,
17,
12,
12,
19,
24,
18,
11,
9,
14,
20,
19,
7,
1,
5,
15,
15,
10,
1,
-1,
4,
10,
9,
0,
-6,
-6,
0,
5,
0,
-8,
-13,
-8,
-3,
-6,
-10,
-17,
-15,
-12,
-9,
-11,
-19,
-22,
-19,
-13,
-13,
-20,
-28,
-27,
-20,
-16,
-20,
-28,
-31,
-29,
-22,
-20,
-27,
-32,
-33,
-28,
-25,
-26,
-32,
-32,
-30,
-27,
-29,
-31,
-31,
-30,
-29,
-30,
-30,
-32,
-32,
-27,
-28,
-29,
-29,
-28,
-27,
-26,
-28,
-26,
-25,
-24,
-24,
-27,
-24,
-22,
-20,
-17,
-21,
-22,
-19,
-15,
-12,
-15,
-16,
-16,
-12,
-8,
-7,
-8,
-11,
-10,
-4,
-1,
-1,
-2,
-4,
-1,
2,
4,
4,
2,
2,
4,
11,
10,
6,
3,
9,
15,
14,
12,
7,
8,
15,
20,
18,
14,
10,
14,
21,
24,
19,
14,
14,
19,
24,
20,
18,
17,
20,
23,
23,
19,
18,
19,
23,
23,
18,
17,
18,
19,
18,
18,
17,
16,
14,
14,
14,
15,
13,
12,
11,
9,
9,
11,
12,
9,
4,
2,
4,
5,
5,
1,
-1,
-3,
-3,
-2,
-2,
-4,
-8,
-10,
-8,
-6,
-7,
-13,
-16,
-15,
-11,
-10,
-13,
-18,
-21,
-17,
-11,
-16,
-25,
-31,
-27,
-17,
-15,
-23,
-32,
-33,
-25,
-19,
-23,
-31,
-38,
-32,
-24,
-19,
-28,
-38,
-36,
-28,
-22,
-27,
-35,
-37,
-31,
-25,
-27,
-30,
-35,
-35,
-28,
-23,
-25,
-31,
-35,
-29,
-22,
-19,
-24,
-29,
-30,
-23,
-16,
-17,
-22,
-26,
-24,
-15,
-13,
-15,
-20,
-16,
-13,
-10,
-9,
-12,
-12,
-10,
-5,
-1,
-6,
-9,
-6,
-1,
3,
1,
-1,
-1,
1,
4,
5,
5,
5,
6,
8,
9,
9,
11,
13,
14,
11,
10,
12,
17,
18,
18,
17,
11,
17,
20,
19,
19,
16,
17,
21,
21,
20,
18,
17,
20,
21,
21,
19,
17,
19,
22,
24,
19,
14,
14,
17,
21,
20,
16,
12,
10,
15,
18,
16,
10,
5,
7,
12,
14,
9,
2,
4,
6,
9,
5,
0,
-3,
-2,
2,
3,
-4,
-7,
-8,
-4,
-2,
-7,
-13,
-15,
-11,
-8,
-10,
-14,
-17,
-18,
-16,
-14,
-17,
-21,
-23,
-21,
-19,
-22,
-23,
-24,
-24,
-25,
-28,
-27,
-26,
-25,
-28,
-32,
-31,
-29,
-27,
-28,
-31,
-32,
-31,
-29,
-28,
-30,
-33,
-32,
-29,
-27,
-31,
-33,
-32,
-28,
-25,
-26,
-27,
-31,
-30,
-26,
-23,
-21,
-26,
-30,
-27,
-20,
-16,
-16,
-23,
-25,
-20,
-13,
-11,
-15,
-21,
-16,
-10,
-4,
-8,
-15,
-15,
-7,
1,
0,
-5,
-12,
-7,
4,
9,
2,
-5,
-4,
4,
12,
10,
5,
1,
4,
10,
15,
13,
7,
7,
12,
19,
18,
14,
11,
16,
18,
21,
19,
14,
14,
17,
23,
23,
18,
15,
17,
21,
25,
23,
17,
16,
19,
22,
24,
20,
15,
18,
20,
21,
17,
13,
16,
18,
17,
13,
13,
12,
14,
14,
