5-grundlagen-opAmps/data/ALL0009/A0009CH2.CSV

Memory Length,4000,
Trigger Level,0.00000e+00,
Source,CH2,
Probe,1.0X,
Vertical Units,V,
Vertical Scale,5.00000e-02,
Vertical Position,0.00000e+00,
Horizontal Units,S,
Horizontal Scale,1.00000e-07,
Horizontal Position,1.0000000e-07,
Horizontal Mode,Main,
Sampling Period,2.00000e-09,
Firmware,V1.14,
Time, ,
Mode,Fast,
Waveform Data,
19,
19,
19,
18,
15,
17,
20,
24,
26,
23,
24,
24,
30,
33,
32,
28,
28,
32,
36,
35,
31,
30,
32,
35,
38,
35,
33,
32,
35,
38,
37,
34,
31,
34,
37,
36,
32,
29,
29,
32,
33,
33,
28,
26,
29,
30,
28,
26,
25,
23,
23,
22,
17,
17,
16,
15,
13,
13,
12,
10,
9,
8,
7,
7,
5,
4,
0,
-1,
-2,
-4,
-5,
-9,
-11,
-9,
-10,
-12,
-14,
-15,
-16,
-17,
-19,
-19,
-20,
-23,
-24,
-24,
-26,
-26,
-26,
-31,
-30,
-31,
-31,
-31,
-31,
-33,
-36,
-33,
-30,
-33,
-38,
-38,
-37,
-33,
-35,
-37,
-39,
-38,
-36,
-33,
-35,
-35,
-36,
-33,
-28,
-30,
-34,
-34,
-31,
-29,
-27,
-27,
-30,
-29,
-26,
-23,
-22,
-22,
-20,
-19,
-17,
-15,
-15,
-15,
-13,
-13,
-12,
-8,
-7,
-9,
-7,
-4,
-1,
0,
1,
3,
3,
6,
8,
8,
8,
11,
13,
14,
15,
16,
16,
18,
20,
21,
20,
25,
26,
25,
25,
26,
28,
31,
31,
31,
30,
28,
33,
35,
35,
33,
33,
35,
38,
36,
33,
33,
36,
38,
38,
35,
32,
31,
33,
35,
34,
29,
28,
31,
34,
34,
30,
27,
27,
28,
27,
27,
23,
18,
19,
22,
21,
17,
13,
13,
16,
16,
14,
10,
7,
8,
8,
8,
4,
-1,
-4,
-3,
-1,
-3,
-9,
-9,
-9,
-10,
-8,
-11,
-15,
-16,
-14,
-14,
-17,
-21,
-25,
-23,
-22,
-23,
-26,
-31,
-30,
-28,
-28,
-30,
-30,
-33,
-34,
-31,
-33,
-34,
-35,
-35,
-35,
-36,
-37,
-37,
-37,
-36,
-36,
-35,
-35,
-32,
-34,
-34,
-33,
-35,
-32,
-32,
-32,
-32,
-33,
-30,
-29,
-26,
-28,
-27,
-24,
-21,
-21,
-21,
-21,
-19,
-18,
-15,
-14,
-15,
-16,
-14,
-12,
-8,
-6,
-6,
-5,
-5,
-1,
2,
3,
4,
3,
5,
7,
9,
8,
10,
11,
13,
17,
16,
16,
16,
19,
25,
25,
23,
25,
26,
28,
28,
28,
27,
27,
29,
31,
32,
33,
33,
33,
34,
36,
34,
34,
35,
35,
35,
35,
34,
35,
34,
33,
34,
35,
33,
31,
32,
33,
30,
29,
27,
28,
26,
27,
27,
24,
24,
24,
24,
20,
20,
19,
20,
17,
14,
12,
10,
11,
10,
6,
3,
3,
4,
3,
2,
-2,
-5,
-3,
-1,
-4,
-8,
-12,
-10,
-9,
-11,
-17,
-21,
-20,
-17,
-19,
-21,
-25,
-26,
-23,
-21,
-22,
-30,
-33,
-31,
-28,
-27,
-33,
-34,
-38,
-34,
-33,
-33,
-35,
-38,
-36,
-35,
-32,
-34,
-39,
-39,
-38,
-35,
-33,
-35,
-38,
-39,
-34,
-31,
-32,
-33,
-34,
-32,
-28,
-26,
-30,
-31,
-29,
-26,
-23,
-22,
-25,
-25,
-24,
-18,
-15,
-18,
-17,
-14,
-12,
-9,
-8,
-9,
-7,
-5,
-4,
-3,
-3,
-3,
0,
3,
4,
6,
7,
10,
11,
12,
14,
15,
16,
18,
18,
19,
18,
22,
23,
24,
24,
23,
25,
27,
31,
29,
29,
31,
33,
34,
34,
33,
33,
34,
34,
35,
34,
34,
33,
37,
37,
36,
34,
34,
35,
34,
34,
34,
32,
29,
30,
33,
31,
26,
27,
27,
28,
28,
27,
24,
21,
23,
22,
21,
18,
14,
13,
16,
15,
9,
9,
7,
8,
9,
5,
4,
2,
2,
1,
-2,
-4,
-7,
-9,
-7,
-8,
-12,
-14,
-14,
-16,
-18,
-19,
-17,
-19,
-20,
-22,
-22,
-25,
-24,
-25,
-30,
-29,
-29,
-31,
-31,
-31,
-32,
-35,
-34,
-34,
-33,
-36,
-36,
-37,
-38,
-36,
-36,
-37,
-38,
-39,
-37,
-35,
-33,
-37,
-37,
-35,
-31,
-31,
-32,
-32,
-32,
-33,
-27,
-27,
-30,
-32,
-29,
-25,
-22,
-23,
-23,
-22,
-18,
-14,
-13,
-16,
-17,
-13,
-9,
-7,
-9,
-11,
-10,
-5,
-1,
-1,
-1,
-1,
2,
6,
10,
8,
8,
9,
12,
15,
17,
15,
14,
16,
19,
23,
24,
22,
22,
26,
29,
32,
28,
26,
29,
32,
34,
33,
31,
31,
32,
34,
34,
35,
34,
34,
37,
37,
36,
33,
35,
36,
35,
34,
33,
33,
33,
33,
33,
32,
31,
31,
30,
29,
28,
28,
28,
27,
24,
20,
21,
20,
19,
17,
16,
15,
14,
13,
12,
11,
9,
9,
7,
7,
5,
-1,
-2,
-2,
-4,
-5,
-6,
-8,
-11,
-11,
-9,
-10,
-15,
-18,
-16,
-15,
-17,
-19,
-24,
-26,
-24,
-25,
-26,
-28,
-31,
-33,
-31,
-29,
-33,
-35,
-36,
-31,
-31,
-35,
-37,
-40,
-38,
-36,
-37,
-39,
-40,
-39,
-36,
-36,
-36,
-37,
-37,
-35,
-33,
-35,
-34,
-35,
-35,
-34,
-33,
-32,
-32,
-32,
-30,
-28,
-26,
-25,
-23,
-21,
-21,
-21,
-19,
-17,
-16,
-17,
-16,
-15,
-14,
-12,
-9,
-9,
-7,
-4,
-3,
0,
0,
1,
3,
5,
7,
8,
8,
7,
9,
12,
14,
16,
15,
15,
19,
22,
22,
24,
25,
25,
26,
31,
29,
28,
26,
28,
33,
35,
33,
30,
31,
36,
38,
37,
34,
33,
34,
38,
39,
35,
29,
32,
37,
38,
35,
31,
32,
34,
36,
33,
30,
32,
30,
30,
30,
27,
23,
22,
24,
23,
22,
19,
17,
16,
19,
18,
17,
15,
11,
11,
11,
11,
6,
3,
2,
2,
2,
-1,
-3,
-6,
-6,
-5,
-5,
-8,
-11,
-11,
-11,
-13,
-16,
-20,
-21,
-19,
-20,
-24,
-24,
-26,
-26,
-27,
-29,
-29,
-30,
-29,
-29,
-31,
-35,
-34,
-34,
-32,
-33,
-37,
-38,
-37,
-34,
-37,
-38,
-37,
-37,
-36,
-35,
-37,
-37,
-38,
-35,
-33,
-32,
-34,
-35,
-32,
-29,
-27,
-28,
-30,
-30,
-28,
-25,
-25,
-25,
-26,
-24,
-21,
-18,
-17,
-17,
-17,
-16,
-10,
-8,
-8,
-9,
-9,
-6,
-2,
-1,
-4,
-3,
-1,
3,
3,
5,
4,
7,
11,
13,
14,
14,
15,
16,
18,
20,
20,
20,
21,
22,
25,
26,
27,
26,
27,
30,
31,
31,
31,
33,
34,
32,
33,
35,
35,
33,
32,
33,
36,
36,
34,
34,
34,
35,
37,
35,
34,
32,
30,
34,
32,
29,
27,
27,
27,
28,
29,
26,
25,
23,
25,
25,
24,
18,
15,
15,
16,
16,
12,
9,
7,
9,
12,
8,
3,
0,
1,
3,
3,
-1,
-7,
-9,
-6,
-6,
-11,
-14,
-16,
-16,
-15,
-13,
-17,
-21,
-23,
-19,
-17,
-22,
-27,
-28,
-27,
-25,
-26,
-33,
-35,
-32,
-33,
-32,
-32,
-34,
-37,
-35,
-33,
-33,
-36,
-36,
-37,
-36,
-37,
-36,
-38,
-38,
-36,
-36,
-35,
-33,
-35,
-33,
-30,
-30,
-31,
-31,
-30,
-28,
-31,
-29,
-28,
-27,
-25,
-23,
-22,
-21,
-21,
-18,
-15,
-14,
-16,
-15,
-12,
-7,
-8,
-8,
-9,
-8,
-4,
-1,
-1,
-3,
-1,
5,
7,
10,
9,
8,
10,
14,
16,
15,
15,
17,
19,
20,
20,
19,
19,
24,
27,
28,
28,
27,
31,
29,
31,
34,
32,
31,
32,
34,
36,
36,
33,
31,
36,
38,
37,
37,
34,
34,
37,
39,
36,
29,
30,
33,
34,
34,
31,
28,
28,
31,
31,
29,
26,
26,
27,
27,
24,
21,
17,
19,
18,
15,
15,
14,
13,
12,
11,
10,
7,
7,
5,
3,
2,
1,
-1,
-3,
-6,
-8,
-9,
-8,
-9,
-13,
-15,
-15,
-14,
-14,
-17,
-20,
-21,
-21,
-22,
-21,
-26,
-28,
-27,
-29,
-27,
-28,
-33,
-33,
-34,
-31,
-32,
-32,
-36,
-36,
-37,
-34,
-35,
-37,
-39,
-40,
-37,
-33,
-35,
-38,
-38,
-35,
-31,
-30,
-33,
-36,
-36,
-33,
-29,
-31,
-35,
-35,
-31,
-26,
-26,
-26,
-28,
-24,
-21,
-18,
-18,
-20,
-19,
-16,
-12,
-13,
-15,
-13,
-12,
-9,
-6,
-5,
-4,
-3,
-1,
2,
3,
4,
4,
8,
8,
10,
10,
10,
13,
14,
16,
17,
17,
19,
20,
25,
24,
24,
27,
26,
28,
27,
29,
30,
31,
33,
32,
32,
32,
33,
34,
37,
36,
35,
33,
35,
37,
37,
33,
33,
32,
33,
34,
34,
32,
30,
33,
35,
34,
28,
28,
29,
32,
29,
26,
22,
21,
22,
24,
24,
18,
16,
17,
18,
17,
15,
11,
10,
13,
10,
7,
6,
2,
2,
1,
0,
-2,
-6,
-7,
-5,
-6,
-8,
-11,
-13,
-13,
-12,
-12,
-17,
-20,
-22,
-22,
-21,
-21,
-25,
-31,
-30,
-26,
-26,
-31,
-31,
-31,
-30,
-31,
-32,
-35,
-35,
-35,
-34,
-35,
-35,
-38,
-37,
-36,
-37,
-38,
-37,
-37,
-36,
-37,
-36,
-37,
-35,
-34,
-35,
-35,
-33,
-31,
-29,
-29,
-30,
-31,
-26,
-25,
-24,
-27,
-25,
-22,
-20,
-21,
-19,
-21,
-19,
-15,
-12,
-9,
-11,
-9,
-9,
-5,
-3,
-3,
-3,
-3,
0,
1,
4,
4,
3,
5,
11,
14,
13,
13,
13,
15,
20,
20,
20,
18,
20,
24,
27,
26,
24,
25,
27,
32,
33,
31,
29,
32,
34,
35,
35,
33,
34,
35,
37,
35,
34,
33,
35,
37,
36,
33,
34,
35,
34,
35,
33,
33,
31,
30,
30,
28,
27,
28,
29,
27,
26,
25,
25,
23,
23,
20,
19,
17,
16,
14,
15,
12,
10,
9,
8,
7,
5,
3,
2,
2,
2,
1,
-3,
-5,
-7,
-7,
-7,
-9,
-15,
-17,
-14,
-14,
-16,
-20,
-21,
-22,
-19,
-20,
-23,
-27,
-28,
-26,
-26,
-26,
-30,
-35,
-34,
-30,
-29,
-35,
-37,
-37,
-34,
-33,
-32,
-36,
-39,
-37,
-35,
-32,
-35,
-39,
-39,
-37,
-32,
-35,
-36,
-36,
-32,
-31,
-29,
-29,
-31,
-33,
-29,
-26,
-26,
-27,
-26,
-27,
-23,
-19,
-18,
-20,
-18,
-18,
-13,
-12,
-12,
-12,
-10,
-7,
-5,
-4,
-7,
-5,
-3,
-1,
3,
3,
3,
6,
7,
10,
10,
12,
14,
15,
17,
17,
17,
19,
20,
20,
22,
24,
25,
27,
28,
27,
27,
30,
32,
33,
29,
31,
34,
35,
35,
33,
31,
34,
36,
37,
37,
35,
34,
35,
38,
37,
34,
32,
34,
34,
33,
31,
29,
29,
28,
31,
31,
29,
26,
25,
27,
27,
25,
21,
19,
19,
19,
17,
16,
12,
10,
13,
12,
10,
7,
5,
6,
7,
5,
-1,
-2,
-4,
-4,
-5,
-8,
-10,
-12,
-11,
-10,
-11,
-16,
-17,
-17,
-17,
-19,
-22,
-23,
-24,
-23,
-25,
-29,
-27,
-28,
-31,
-32,
-31,
-32,
-34,
-31,
-32,
-33,
-36,
-36,
-35,
-36,
-37,
-37,
-38,
-36,
-36,
-37,
-37,
-38,
-38,
-34,
-30,
-32,
-35,
-35,
-34,
-30,
-31,
-31,
-32,
-32,
-31,
-26,
-27,
-26,
-26,
-23,
-20,
-16,
-20,
-20,
-19,
-15,
-11,
-12,
-13,
-15,
-12,
-6,
-4,
-6,
-7,
-4,
1,
4,
5,
3,
4,
8,
11,
12,
11,
10,
11,
15,
18,
18,
17,
16,
20,
24,
26,
27,
25,
25,
29,
31,
32,
29,
29,
29,
33,
34,
33,
34,
34,
36,
36,
37,
36,
34,
35,
37,
36,
35,
33,
33,
33,
34,
33,
31,
32,
30,
31,
31,
30,
28,
28,
29,
26,
23,
24,
24,
22,
19,
19,
18,
18,
18,
15,
14,
12,
13,
13,
10,
7,
5,
3,
4,
2,
-2,
-5,
-4,
-4,
-6,
-7,
-10,
-12,
-12,
-11,
-12,
-16,
-19,
-20,
-20,
-20,
-23,
-27,
-26,
-25,
-25,
-26,
-30,
-30,
-31,
-31,
-30,
-32,
-32,
-36,
-35,
-35,
-33,
-35,
-37,
-38,
-36,
-35,
-35,
-35,
-36,
-37,
-32,
-32,
-34,
-35,
-35,
-34,
-32,
-33,
-34,
-35,
-31,
-31,
-28,
-29,
-27,
-25,
-23,
-22,
-22,
-23,
-18,
-18,
-17,
-19,
-17,
-14,
-14,
-13,
-11,
-9,
-7,
-5,
-4,
-3,
-1,
1,
3,
5,
6,
5,
7,
7,
10,
12,
13,
13,
15,
17,
20,
21,
19,
20,
24,
26,
26,
26,
25,
26,
28,
31,
31,
28,
28,
31,
36,
37,
33,
31,
32,
36,
38,
37,
32,
32,
34,
39,
38,
34,
32,
33,
37,
37,
33,
28,
29,
32,
33,
31,
26,
24,
25,
27,
29,
24,
21,
19,
23,
23,
21,
16,
14,
15,
13,
13,
12,
7,
5,
6,
5,
4,
2,
0,
0,
-1,
0,
-4,
-6,
-9,
-9,
-11,
-12,
-14,
-17,
-18,
-17,
-18,
-21,
-22,
-23,
-23,
-24,
-25,
-29,
-27,
-28,
-31,
-32,
-32,
-31,
-35,
-33,
-35,
-36,
-36,
-35,
-35,
-35,
-38,
-37,
-36,
-34,
-36,
-37,
-38,
-36,
-36,
-33,
-35,
-36,
-35,
-33,
-29,
-29,
-32,
-31,
-29,
-26,
-27,
-27,
-27,
-27,
-24,
-21,
-22,
-22,
-21,
-17,
-13,
-13,
-13,
-14,
-10,
-8,
-7,
-7,
-5,
-6,
-5,
-2,
1,
1,
1,
3,
7,
9,
12,
11,
11,
13,
16,
17,
19,
18,
17,
20,
23,
22,
21,
26,
26,
26,
29,
29,
31,
32,
32,
33,
32,
33,
33,
33,
35,
33,
33,
36,
37,
36,
33,
35,
37,
37,
35,
35,
34,
33,
34,
34,
32,
28,
29,
32,
32,
29,
26,
25,
27,
27,
26,
22,
20,
19,
19,
20,
17,
12,
11,
11,
14,
11,
7,
6,
4,
6,
7,
4,
0,
-3,
-3,
-2,
-2,
-7,
-13,
-13,
-10,
-11,
-13,
-17,
-20,
-18,
-17,
-17,
-22,
-25,
-26,
-24,
-21,
-25,
-31,
-34,
-30,
-28,
-31,
-34,
-36,
-35,
-33,
-32,
-32,
-36,
-38,
-35,
-36,
-34,
-36,
-38,
-38,
-35,
-36,
-35,
-34,
-34,
-34,
-33,
-31,
-31,
-33,
-33,
-29,
-29,
-27,
-27,
-30,
-27,
-26,
-23,
-22,
-21,
-19,
-18,
-15,
-16,
-17,
-13,
-10,
-10,
-11,
-11,
-8,
-6,
-5,
-3,
-4,
-1,
3,
5,
5,
5,
6,
9,
11,
13,
11,
11,
16,
17,
17,
18,
16,
20,
25,
26,
25,
23,
25,
27,
31,
29,
29,
28,
29,
32,
33,
33,
32,
31,
33,
35,
36,
34,
33,
35,
35,
36,
35,
34,
32,
33,
33,
32,
32,
29,
30,
31,
31,
29,
28,
26,
27,
27,
26,
25,
22,
19,
19,
19,
18,
15,
14,
14,
15,
12,
11,
9,
8,
9,
5,
2,
2,
1,
-1,
-2,
-5,
-6,
-7,
-7,
-10,
-13,
-13,
-12,
-12,
-15,
-19,
-17,
-19,
-18,
-23,
-25,
-26,
-27,
-24,
-25,
-27,
-31,
-34,
-30,
-28,
-29,
-35,
-36,
-35,
-33,
-32,
-37,
-38,
-37,
-37,
-34,
-35,
-38,
-39,
-36,
-31,
-32,
-35,
-37,
-37,
-32,
-31,
-32,
-34,
-36,
-34,
-30,
-25,
-26,
-29,
-28,
-25,
-18,
-19,
-20,
-21,
-21,
-15,
-13,
-14,
-17,
-17,
-12,
-8,
-7,
-8,
-8,
-2,
1,
2,
2,
2,
4,
6,
11,
11,
10,
9,
11,
15,
15,
17,
17,
18,
21,
24,
25,
26,
25,
29,
27,
31,
32,
31,
32,
33,
33,
33,
34,
35,
34,
37,
37,
37,
37,
37,
40,
39,
37,
38,
37,
37,
38,
35,
37,
35,
36,
35,
34,
33,
30,
33,
34,
29,
26,
26,
29,
27,
26,
21,
19,
23,
23,
23,
19,
15,
14,
13,
14,
11,
5,
5,
6,
7,
3,
0,
-1,
-2,
0,
-3,
-4,
-6,
-10,
-11,
-11,
-12,
-16,
-20,
-19,
-20,
-19,
-22,
-24,
-25,
-29,
-26,
-25,
-27,
-29,
-33,
-33,
-32,
-32,
-36,
-38,
-38,
-38,
-39,
-38,
-39,
-39,
-41,
-39,
-38,
-40,
-41,
-41,
-40,
-41,
-41,
-39,
-40,
-39,
-39,
-40,
-37,
-35,
-36,
-37,
-35,
-33,
-33,
-33,
-32,
-32,
-33,
-29,
-27,
-26,
-27,
-27,
-23,
-19,
-17,
-17,
-18,
-16,
-13,
-9,
-8,
-11,
-10,
-7,
-4,
-3,
-3,
-4,
-1,
4,
7,
8,
5,
8,
11,
14,
17,
17,
14,
15,
19,
22,
22,
20,
20,
22,
28,
29,
28,
25,
28,
32,
35,
34,
32,
31,
33,
36,
37,
33,
33,
34,
38,
40,
39,
35,
33,
38,
39,
38,
35,
33,
34,
34,
34,
34,
29,
29,
31,
31,
29,
27,
28,
28,
30,
26,
23,
21,
20,
20,
17,
16,
15,
13,
13,
13,
9,
8,
9,
8,
6,
4,
1,
0,
0,
-3,
-5,
-6,
-7,
-9,
-11,
-10,
-13,
-16,
-16,
-15,
-16,
-17,
-20,
-22,
-22,
-22,
-24,
-24,
-27,
-29,
-27,
-27,
-28,
-32,
-36,
-33,
-29,
-29,
-35,
-35,
-37,
-33,
-32,
-34,
-37,
-38,
-35,
-33,
-32,
-35,
-38,
-35,
-32,
-31,
-33,
-34,
-32,
-32,
-31,
-28,
-29,
-29,
-29,
-29,
-25,
-25,
-24,
-23,
-21,
-19,
-18,
-16,
-16,
-16,
-15,
-13,
-10,
-11,
-12,
-10,
-6,
-6,
-4,
-2,
-2,
1,
1,
4,
5,
7,
8,
10,
11,
11,
13,
14,
15,
15,
16,
19,
20,
20,
22,
24,
25,
27,
29,
26,
27,
27,
30,
31,
32,
28,
29,
33,
36,
34,
32,
31,
33,
35,
35,
35,
32,
32,
34,
37,
33,
29,
28,
31,
33,
33,
29,
26,
28,
28,
29,
29,
25,
22,
21,
24,
23,
19,
15,
15,
17,
17,
16,
13,
10,
10,
12,
11,
8,
4,
1,
3,
3,
1,
-3,
-5,
-6,
-6,
-7,
-8,
-12,
-13,
-11,
-11,
-13,
-16,
-20,
-19,
-18,
-20,
-23,
-24,
-24,
-23,
-23,
-27,
-28,
-30,
-27,
-29,
-29,
-31,
-33,
-32,
-30,
-31,
-35,
-35,
-34,
-32,
-35,
-35,
-35,
-32,
-31,
-30,
-30,
-32,
-33,
-30,
-29,
-29,
-31,
-31,
-27,
-26,
-25,
-28,
-26,
-23,
-21,
-18,
-17,
-19,
-20,
-15,
-12,
-12,
-13,
-13,
-13,
-10,
-7,
-6,
-7,
-6,
-3,
3,
3,
3,
1,
3,
7,
10,
10,
8,
8,
11,
15,
16,
14,
13,
15,
20,
22,
21,
20,
21,
24,
26,
28,
27,
25,
26,
28,
30,
29,
27,
29,
31,
32,
32,
31,
32,
32,
31,
33,
33,
32,
29,
30,
31,
32,
31,
31,
30,
29,
28,
29,
29,
27,
26,
27,
27,
23,
21,
19,
19,
19,
18,
17,
16,
14,
13,
13,
13,
14,
11,
7,
6,
4,
4,
4,
2,
-3,
-4,
-3,
-2,
-5,
-8,
-12,
-9,
-7,
-8,
-13,
-17,
-18,
-15,
-16,
-19,
-22,
-25,
-23,
-22,
-22,
-30,
-32,
-31,
-28,
-26,
-32,
-33,
-35,
-32,
-33,
-34,
-36,
-37,
-38,
-37,
-35,
-36,
-39,
-38,
-37,
-36,
-36,
-36,
-39,
-38,
-35,
-34,
-35,
-35,
-37,
-35,
-30,
-28,
-31,
-33,
-30,
-28,
-26,
-25,
-27,
-26,
-25,
-21,
-21,
-21,
-20,
-17,
-14,
-14,
-12,
-13,
-9,
-7,
-6,
-5,
-4,
-2,
-1,
1,
2,
1,
4,
7,
10,
10,
11,
13,
16,
18,
19,
19,
20,
22,
25,
26,
25,
22,
25,
30,
32,
32,
31,
29,
34,
36,
38,
37,
35,
36,
38,
41,
39,
37,
33,
36,
39,
40,
38,
38,
37,
38,
39,
38,
36,
33,
34,
36,
35,
32,
28,
29,
31,
33,
28,
25,
23,
22,
26,
26,
24,
18,
14,
17,
17,
14,
11,
8,
8,
10,
8,
5,
2,
2,
1,
0,
0,
-3,
-7,
-6,
-6,
-10,
-12,
-14,
-15,
-16,
-17,
-16,
-19,
-20,
-22,
-21,
-21,
-23,
-26,
-26,
-27,
-27,
-27,
-32,
-30,
-32,
-36,
-33,
-32,
-33,
-35,
-35,
-35,
-36,
-36,
-35,
-38,
-38,
-37,
-37,
-36,
-34,
-37,
-37,
-36,
-34,
-32,
-32,
-32,
-32,
-31,
-27,
-27,
-30,
-32,
-31,
-27,
-23,
-25,
-26,
-26,
-20,
-18,
-15,
-17,
-18,
-17,
-12,
-8,
-10,
-12,
-10,
-7,
-5,
-5,
-4,
-4,
-2,
1,
3,
5,
5,
7,
9,
11,
13,
12,
11,
13,
15,
17,
19,
18,
18,
20,
24,
24,
24,
25,
26,
28,
28,
29,
29,
29,
31,
31,
32,
31,
29,
33,
34,
35,
33,
32,
34,
36,
34,
32,
32,
32,
33,
31,
30,
28,
29,
32,
31,
28,
25,
26,
30,
31,
26,
20,
20,
23,
22,
18,
16,
14,
14,
17,
15,
11,
9,
6,
8,
10,
8,
5,
0,
1,
2,
-2,
-2,
-6,
-10,
-7,
-6,
-8,
-14,
-16,
-16,
-13,
-13,
-17,
-21,
-24,
-22,
-21,
-23,
-25,
-31,
-31,
-29,
-26,
-29,
-36,
-35,
-32,
-30,
-32,
-35,
-37,
-37,
-35,
-34,
-36,
-38,
-39,
-38,
-36,
-36,
-39,
-38,
-35,
-33,
-33,
-34,
-35,
-35,
-35,
-33,
-31,
-32,
-31,
-31,
-30,
-28,
-27,
-24,
-24,
-22,
-22,
-19,
-17,
-19,
-19,
-16,
-14,
-13,
-12,
-10,
-10,
-10,
-7,
-5,
-2,
-1,
-1,
1,
3,
5,
7,
8,
8,
10,
11,
13,
14,
13,
14,
17,
20,
22,
23,
24,
23,
25,
29,
29,
27,
28,
29,
32,
34,
32,
31,
32,
35,
38,
37,
35,
34,
36,
39,
40,
37,
34,
35,
36,
37,
36,
33,
33,
35,
36,
35,
34,
34,
32,
33,
34,
32,
28,
27,
27,
25,
24,
24,
22,
20,
19,
18,
19,
18,
16,
14,
14,
13,
11,
8,
7,
4,
3,
3,
0,
-2,
-4,
-3,
-5,
-6,
-8,
-9,
-9,
-12,
-15,
-16,
-16,
-16,
-19,
-23,
-23,
-22,
-22,
-23,
-27,
-30,
-30,
-30,
-27,
-29,
-33,
-35,
-33,
-30,
-32,
-38,
-39,
-36,
-33,
-35,
-38,
-40,
-39,
-35,
-33,
-36,
-39,
-39,
-36,
-31,
-32,
-36,
-37,
-36,
-30,
-28,
-29,
-30,
-31,
-31,
-24,
-23,
-23,
-26,
-26,
-22,
-19,
-19,
-19,
-21,
-18,
-12,
-10,
-9,
-12,
-12,
-6,
-2,
-3,
-5,
-5,
-2,
1,
4,
3,
3,
4,
9,
12,
12,
11,
13,
15,
18,
20,
18,
19,
21,
22,
24,
24,
24,
24,
27,
28,
29,
28,
30,
32,
32,
32,
34,
33,
35,
33,
33,
33,
35,
35,
33,
35,
35,
34,
35,
35,
35,
31,
32,
34,
33,
31,
29,
28,
26,
26,
28,
26,
25,
23,
23,
25,
24,
22,
17,
18,
18,
17,
13,
11,
10,
7,
10,
9,
5,
2,
1,
2,
4,
1,
-4,
-5,
-5,
-5,
-7,
-11,
-14,
-16,
-14,
-14,
-17,
-20,
-20,
-21,
-20,
-21,
-25,
-26,
-25,
-26,
-25,
-31,
-30,
-31,
-34,
-33,
-34,
-35,
-36,
-36,
-36,
-36,
-36,
-36,
-36,
-36,
-38,
-38,
-38,
-38,
-39,
-38,
-37,
-37,
-36,
-37,
-35,
-32,
-35,
-33,
-31,
-31,
-31,
-31,
-30,
-29,
-27,
-25,
-27,
-26,
-25,
-22,
-18,
-18,
-20,
-18,
-15,
-12,
-11,
-9,
-12,
-11,
-6,
-3,
-3,
-6,
-4,
0,
4,
7,
5,
5,
6,
12,
14,
13,
14,
14,
17,
21,
20,
18,
17,
19,
24,
27,
28,
26,
27,
29,
31,
32,
32,
31,
31,
35,
36,
34,
33,
32,
35,
37,
38,
39,
35,
34,
38,
40,
39,
34,
32,
34,
36,
35,
31,
28,
31,
33,
33,
31,
29,
27,
29,
30,
27,
23,
21,
22,
20,
18,
15,
16,
15,
14,
12,
10,
9,
9,
7,
6,
6,
3,
1,
2,
-1,
-4,
-7,
-7,
-7,
-9,
-11,
-11,
-13,
-14,
-16,
-16,
-19,
-19,
-20,
-21,
-22,
-25,
-26,
-29,
-26,
-26,
-31,
-31,
-33,
-32,
-31,
-31,
-32,
-34,
-36,
-35,
-32,
-34,
-39,
-39,
-37,
-35,
-34,
-36,
-37,
-38,
-35,
-31,
-31,
-34,
-36,
-33,
-30,
-30,
-33,
-33,
-31,
-28,
-27,
-27,
-28,
-26,
-24,
-22,
-20,
-20,
-20,
-17,
-15,
-15,
-13,
-14,
-13,
-13,
-11,
-8,
-7,
-6,
-4,
-2,
1,
3,
1,
5,
5,
6,
7,
10,
10,
11,
12,
12,
14,
16,
18,
19,
19,
20,
24,
26,
27,
25,
25,
27,
30,
29,
29,
29,
29,
30,
33,
35,
34,
32,
33,
35,
37,
37,
33,
33,
34,
35,
33,
32,
29,
29,
33,
35,
36,
28,
27,
31,
33,
32,
28,
23,
24,
26,
27,
24,
18,
16,
18,
19,
19,
16,
11,
11,
16,
14,
9,
9,
4,
4,
5,
3,
-1,
-4,
-4,
-3,
-4,
-6,
-10,
-11,
-10,
-10,
-11,
-14,
-18,
-20,
-20,
-18,
-19,
-24,
-27,
-26,
-24,
-26,
-29,
-32,
-31,
-29,
-30,
-32,
-35,
-34,
-36,
-35,
-36,
-38,
-39,
-37,
-36,
-37,
-40,
-39,
-37,
-35,
-35,
-36,
-37,
-36,
-35,
-37,
-37,
-35,
-34,
-33,
-32,
-32,
-34,
-30,
-27,
-26,
-26,
-25,
-24,
-22,
-21,
-21,
-21,
-20,
-20,
-16,
-15,
-15,
-14,
-12,
-9,
-7,
-5,
-5,
-2,
-2,
-1,
3,
5,
4,
3,
6,
8,
10,
11,
11,
11,
16,
19,
19,
18,
19,
20,
25,
26,
23,
25,
25,
30,
29,
29,
30,
28,
32,
33,
33,
33,
31,
33,
35,
36,
36,
34,
35,
36,
35,
34,
35,
35,
34,
33,
35,
34,
33,
31,
31,
29,
28,
29,
27,
27,
26,
25,
26,
25,
25,
24,
21,
21,
20,
18,
18,
15,
12,
12,
11,
10,
8,
5,
3,
3,
4,
1,
0,
-4,
-3,
-3,
-5,
-7,
-12,
-13,
-12,
-9,
-13,
-19,
-19,
-20,
-18,
-17,
-20,
-25,
-25,
-22,
-22,
-22,
-29,
-33,
-33,
-28,
-27,
-33,
-36,
-36,
-33,
-33,
-32,
-35,
-38,
-36,
-33,
-31,
-36,
-39,
-39,
-37,
-32,
-34,
-35,
-37,
-33,
-32,
-30,
-30,
-31,
-31,
-30,
-25,
-25,
-28,
-29,
-26,
-23,
-22,
-23,
-23,
-21,
-18,
-15,
-13,
-12,
-15,
-10,
-8,
-8,
-7,
-7,
-5,
-4,
-3,
0,
0,
0,
3,
6,
7,
9,
11,
12,
15,
16,
