1-signale-auf-leitern/data/ALL0024/A0024CH1.CSV

Memory Length,4000,
Trigger Level,6.40000e+00,
Source,CH1,
Probe,1.0X,
Vertical Units,V,
Vertical Scale,5.00000e+00,
Vertical Position,0.00000e+00,
Horizontal Units,S,
Horizontal Scale,5.00000e-06,
Horizontal Position,1.2400000e-05,
Horizontal Mode,Main,
Sampling Period,2.00000e-08,
Firmware,V1.14,
Time, ,
Mode,Fast,
Waveform Data,
-12,
-12,
-12,
-11,
-11,
-13,
-13,
-12,
-12,
-12,
-12,
-9,
-9,
-11,
-11,
-9,
-9,
-11,
-11,
-10,
-10,
-10,
-10,
-9,
-9,
-10,
-10,
-10,
-10,
-9,
-9,
-10,
-10,
-9,
-9,
-11,
-11,
-11,
-11,
-12,
-12,
-12,
-12,
-12,
-12,
-13,
-13,
-12,
-12,
-13,
-13,
-12,
-12,
-13,
-13,
-13,
-13,
-13,
-13,
-13,
-13,
-12,
-12,
-12,
-12,
-13,
-13,
-12,
-12,
-12,
-12,
-12,
-12,
-11,
-11,
-11,
-11,
-12,
-12,
-11,
-11,
-11,
-11,
-12,
-12,
-11,
-11,
-11,
-11,
-11,
-11,
-12,
-12,
-11,
-11,
-12,
-12,
-12,
-12,
-12,
-12,
-11,
-11,
-12,
-12,
-11,
-11,
-11,
-11,
-11,
-11,
-11,
-11,
-12,
-12,
-10,
-10,
-10,
-10,
-11,
-11,
-11,
-11,
-12,
-12,
-12,
-12,
-12,
-12,
-12,
-12,
-11,
-11,
-11,
-11,
-13,
-13,
-11,
-11,
-11,
-11,
-11,
-11,
-11,
-11,
-12,
-12,
-11,
-11,
-11,
-11,
-12,
-12,
-12,
-12,
-12,
-12,
-11,
-11,
-11,
-11,
-11,
-11,
-10,
-10,
-11,
-11,
-10,
-10,
-11,
-11,
-9,
-9,
-9,
-9,
-9,
-9,
-9,
-9,
-9,
-9,
-9,
-9,
-10,
-10,
-9,
-9,
-11,
-11,
-10,
-10,
-10,
-10,
-10,
-10,
-11,
-11,
-10,
-10,
-11,
-11,
-11,
-11,
-12,
-12,
-11,
-11,
-12,
-12,
-12,
-12,
-12,
-12,
-10,
-10,
-12,
-12,
-12,
-12,
-12,
-12,
-12,
-12,
-11,
-11,
-12,
-12,
-12,
-12,
-12,
-12,
-12,
-12,
-12,
-12,
-11,
-11,
-12,
-12,
-11,
-11,
-11,
-11,
-12,
-12,
-12,
-12,
-12,
-12,
-11,
-11,
-11,
-11,
-12,
-12,
-11,
-11,
-11,
-11,
-12,
-12,
-10,
-10,
-11,
-11,
-11,
-11,
-12,
-12,
-13,
-13,
-12,
-12,
-11,
-11,
-13,
-13,
-11,
-11,
-11,
-11,
-11,
-11,
-11,
-11,
-10,
-10,
-9,
-9,
-10,
-10,
-9,
-9,
-10,
-10,
-10,
-10,
-10,
-10,
-10,
-10,
-11,
-11,
-12,
-12,
-12,
-12,
-12,
-12,
-11,
-11,
-10,
-10,
-12,
-12,
-12,
-12,
-10,
-10,
-12,
-12,
-11,
-11,
-12,
-12,
-11,
-11,
-10,
-10,
-11,
-11,
-10,
-10,
-11,
-11,
-11,
-11,
-11,
-11,
-11,
-11,
-12,
-12,
-10,
-10,
-12,
-12,
-11,
-11,
-11,
-11,
-10,
-10,
-11,
-11,
-11,
-11,
-11,
-11,
-11,
-11,
-12,
-12,
-11,
-11,
-11,
-11,
-12,
-12,
-11,
-11,
-11,
-11,
-10,
-10,
-12,
-12,
-11,
-11,
-11,
-11,
-10,
-10,
-11,
-11,
-11,
-11,
-11,
-11,
-11,
-11,
-11,
-11,
-12,
-12,
-11,
-11,
-10,
-10,
-11,
-11,
-12,
-12,
-12,
-12,
-11,
-11,
-10,
-10,
-10,
-10,
-10,
-10,
-12,
-12,
-10,
-10,
-11,
-11,
-11,
-11,
-9,
-9,
-10,
-10,
-10,
-10,
-10,
-10,
-11,
-11,
-10,
-10,
-12,
-12,
-10,
-10,
-12,
-12,
-10,
-10,
-12,
-12,
-12,
-12,
-12,
-12,
-11,
-11,
-12,
-12,
-13,
-13,
-12,
-12,
-12,
-12,
-12,
-12,
-11,
-11,
-11,
-11,
-12,
-12,
-11,
-11,
-11,
-11,
-12,
-12,
-12,
-12,
-11,
-11,
-11,
-11,
-11,
-11,
-10,
-10,
-12,
-12,
-11,
-11,
-10,
-10,
-11,
-11,
-11,
-11,
-11,
-11,
-12,
-12,
-11,
-11,
-11,
-11,
-11,
-11,
-12,
-12,
-11,
-11,
-11,
-11,
-10,
-10,
-11,
-11,
-9,
-9,
-10,
-10,
-10,
-10,
-12,
-12,
-11,
-11,
-11,
-11,
-11,
-11,
-12,
-12,
-11,
-11,
-12,
-12,
-11,
-11,
-12,
-12,
-11,
-11,
-11,
-11,
-10,
-10,
-11,
-11,
-11,
-11,
-12,
-12,
-12,
-12,
-12,
-12,
-10,
-10,
-10,
-10,
-11,
-11,
-11,
-11,
-11,
-11,
-12,
-12,
-11,
-11,
-12,
-12,
-12,
-12,
-10,
-10,
-10,
-10,
-11,
-11,
-11,
-11,
-11,
-11,
-10,
-10,
-10,
-10,
-11,
-11,
-10,
-10,
-10,
-10,
-9,
-9,
-11,
-11,
-10,
-10,
-11,
-11,
-10,
-10,
-12,
-12,
-11,
-11,
-11,
-11,
-11,
-11,
-11,
-11,
-11,
-11,
-11,
-11,
-11,
-11,
-11,
-11,
-11,
-11,
-12,
-12,
-12,
-12,
-11,
-11,
-11,
-11,
-12,
-12,
-11,
-11,
-12,
-12,
-10,
-10,
-10,
-10,
-12,
-12,
-10,
-10,
-12,
-12,
-12,
-12,
-11,
-11,
-11,
-11,
-9,
-9,
-10,
-10,
-10,
-10,
-12,
-12,
-10,
-10,
-11,
-11,
-11,
-11,
-11,
-11,
-11,
-11,
-11,
-11,
-10,
-10,
-11,
-11,
-10,
-10,
-11,
-11,
-11,
-11,
-11,
-11,
-10,
-10,
-11,
-11,
-9,
-9,
-10,
-10,
-11,
-11,
-10,
-10,
-11,
-11,
-10,
-10,
-11,
-11,
-11,
-11,
-10,
-10,
-11,
-11,
-10,
-10,
-11,
-11,
-11,
-11,
-11,
-11,
-11,
-11,
-10,
-10,
-12,
-12,
-12,
-12,
-12,
-12,
-11,
-11,
-10,
-10,
-12,
-12,
-11,
-11,
-11,
-11,
-10,
-10,
-11,
-11,
-12,
-12,
-10,
-10,
-10,
-10,
-10,
-10,
-11,
-11,
-10,
-10,
-11,
-11,
-10,
-10,
-11,
-11,
-12,
-12,
-10,
-10,
-12,
-12,
-11,
-11,
-12,
-12,
-12,
-12,
-10,
-10,
-10,
-10,
-11,
-11,
-11,
-11,
-12,
-12,
-12,
-12,
-10,
-10,
-11,
-11,
-10,
-10,
-9,
-9,
-10,
-10,
-12,
-12,
-11,
-11,
-12,
-12,
-9,
-9,
-11,
-11,
-10,
-10,
-12,
-12,
-11,
-11,
-11,
-11,
-11,
-11,
-11,
-11,
-12,
-12,
-12,
-12,
-11,
-11,
-11,
-11,
-11,
-11,
-9,
-9,
-11,
-11,
-10,
-10,
-10,
-10,
-10,
-10,
-10,
-10,
-9,
-9,
-11,
-11,
-10,
-10,
-10,
-10,
-10,
-10,
-11,
-11,
-12,
-12,
-11,
-11,
-10,
-10,
-11,
-11,
-11,
-11,
-10,
-10,
-11,
-11,
-12,
-12,
-10,
-10,
-11,
-11,
-11,
-11,
-10,
-10,
-11,
-11,
-11,
-11,
-9,
-9,
-10,
-10,
-11,
-11,
-11,
-11,
-11,
-11,
-9,
-9,
-10,
-10,
-10,
-10,
-11,
-11,
-10,
-10,
-9,
-9,
-10,
-10,
-11,
-11,
-10,
-10,
-10,
-10,
-12,
-12,
-10,
-10,
-9,
-9,
-10,
-10,
-10,
-10,
-10,
-10,
-11,
-11,
-11,
-11,
-10,
-10,
-9,
-9,
-10,
-10,
-10,
-10,
-11,
-11,
-11,
-11,
-9,
-9,
-10,
-10,
-11,
-11,
-12,
-12,
-11,
-11,
-10,
-10,
-10,
-10,
-10,
-10,
-11,
-11,
-11,
-11,
-9,
-9,
-10,
-10,
-10,
-10,
-12,
-12,
-10,
-10,
-11,
-11,
-12,
-12,
-12,
-12,
-11,
-11,
-12,
-12,
-12,
-12,
-11,
-11,
-11,
-11,
-11,
-11,
-10,
-10,
-12,
-12,
-11,
-11,
-11,
-11,
-11,
-11,
-10,
-10,
-10,
-10,
-11,
-11,
-9,
-9,
-9,
-9,
-11,
-11,
-10,
-10,
-9,
-9,
-11,
-11,
-11,
-11,
-10,
-10,
-11,
-11,
-11,
-11,
-11,
-11,
-11,
-11,
-10,
-10,
-10,
-10,
-12,
-12,
-11,
-11,
-10,
-10,
-11,
-11,
-10,
-10,
-11,
-11,
-9,
-9,
-10,
-10,
-11,
-11,
-12,
-12,
-11,
-11,
-12,
-12,
-12,
-12,
-11,
-11,
-11,
-11,
-11,
-11,
-10,
-10,
-11,
-11,
-11,
-11,
-10,
-10,
-11,
-11,
-11,
-11,
-10,
-10,
-11,
-11,
-11,
-11,
-12,
-12,
-12,
-12,
-11,
-11,
-10,
-10,
-10,
-10,
-11,
-11,
-11,
-11,
-10,
-10,
-11,
-11,
-10,
-10,
-11,
-11,
-10,
-10,
-9,
-9,
-10,
-10,
-10,
-10,
-10,
-10,
-11,
-11,
-11,
-11,
-10,
-10,
-11,
-11,
-10,
-10,
-10,
-10,
-12,
-12,
-10,
-10,
-11,
-11,
-11,
-11,
-11,
-11,
-11,
-11,
-11,
-11,
-10,
-10,
-12,
-12,
-11,
-11,
-10,
-10,
-11,
-11,
-10,
-10,
-9,
-9,
-11,
-11,
-10,
-10,
-11,
-11,
-10,
-10,
-9,
-9,
-9,
-9,
-12,
-12,
-11,
-11,
-10,
-10,
-11,
-11,
-11,
-11,
-12,
-12,
-10,
-10,
-11,
-11,
-10,
-10,
-11,
-11,
-11,
-11,
-11,
-11,
-12,
-12,
-10,
-10,
-11,
-11,
-11,
-11,
-11,
-11,
-10,
-10,
-13,
-13,
-11,
-11,
-11,
-11,
-11,
-11,
-12,
-12,
-12,
-12,
-9,
-9,
-11,
-11,
-10,
-10,
-10,
-10,
-11,
-11,
-11,
-11,
-10,
-10,
-12,
-12,
-11,
-11,
-12,
-12,
-10,
-10,
-10,
-10,
-10,
-10,
-10,
-10,
-12,
-12,
-11,
-11,
-9,
-9,
-10,
-10,
-10,
-10,
-11,
-11,
-11,
-11,
-10,
-10,
-11,
-11,
-10,
-10,
-11,
-11,
-10,
-10,
-11,
-11,
-10,
-10,
-10,
-10,
-11,
-11,
-11,
-11,
-11,
-11,
-11,
-11,
-12,
-12,
-10,
-10,
-12,
-12,
-11,
-11,
-11,
-11,
-10,
-10,
-11,
-11,
-10,
-10,
-10,
-10,
-11,
-11,
-10,
-10,
-12,
-12,
-11,
-11,
-12,
-12,
-10,
-10,
-10,
-10,
-12,
-12,
-11,
-11,
-12,
-12,
-10,
-10,
-11,
-11,
-10,
-10,
-10,
-10,
-10,
-10,
-10,
-10,
-12,
-12,
-11,
-11,
-12,
-12,
-11,
-11,
-10,
-10,
-11,
-11,
-11,
-11,
-11,
-11,
-11,
-11,
-11,
-11,
-12,
-12,
-11,
-11,
-10,
-10,
-12,
-12,
-11,
-11,
-10,
-10,
-11,
-11,
-10,
-10,
-12,
-12,
-10,
-10,
-11,
-11,
-10,
-10,
-10,
-10,
-9,
-9,
-1,
-1,
12,
12,
23,
23,
27,
27,
30,
30,
37,
37,
37,
37,
39,
39,
41,
41,
42,
42,
43,
43,
43,
43,
44,
44,
43,
43,
44,
44,
43,
43,
44,
44,
45,
45,
44,
44,
44,
44,
44,
44,
46,
46,
46,
46,
45,
45,
45,
45,
44,
44,
45,
45,
45,
45,
44,
44,
45,
45,
46,
46,
44,
44,
44,
44,
45,
45,
45,
45,
46,
46,
44,
44,
45,
45,
45,
45,
45,
45,
45,
45,
47,
47,
45,
45,
46,
46,
45,
45,
46,
46,
45,
45,
46,
46,
46,
46,
47,
47,
45,
45,
45,
45,
46,
46,
46,
46,
46,
46,
46,
46,
47,
47,
46,
46,
47,
47,
46,
46,
46,
46,
47,
47,
47,
47,
47,
47,
47,
47,
46,
46,
46,
46,
44,
44,
44,
44,
43,
43,
42,
42,
43,
43,
43,
43,
42,
42,
43,
43,
43,
43,
44,
44,
43,
43,
43,
43,
43,
43,
43,
43,
43,
43,
44,
44,
43,
43,
43,
43,
43,
43,
44,
44,
43,
43,
44,
44,
44,
44,
44,
44,
44,
44,
43,
43,
44,
44,
43,
43,
44,
44,
44,
44,
44,
44,
45,
45,
44,
44,
44,
44,
44,
44,
44,
44,
44,
44,
44,
44,
43,
43,
44,
44,
44,
44,
44,
44,
45,
45,
44,
44,
43,
43,
43,
43,
44,
44,
45,
45,
44,
44,
43,
43,
44,
44,
44,
44,
44,
44,
44,
44,
44,
44,
43,
43,
45,
45,
44,
44,
45,
45,
46,
46,
46,
46,
46,
46,
46,
46,
46,
46,
45,
45,
46,
46,
43,
43,
44,
44,
43,
43,
44,
44,
43,
43,
43,
43,
44,
44,
44,
44,
44,
44,
45,
45,
45,
45,
45,
45,
46,
46,
47,
47,
46,
46,
47,
47,
47,
47,
47,
47,
47,
47,
47,
47,
47,
47,
47,
47,
48,
48,
48,
48,
49,
49,
48,
48,
48,
48,
47,
47,
48,
48,
49,
49,
49,
49,
48,
48,
49,
49,
47,
47,
48,
48,
49,
49,
47,
47,
47,
47,
49,
49,
49,
49,
48,
48,
48,
48,
48,
48,
48,
48,
48,
48,
49,
49,
48,
48,
48,
48,
48,
48,
47,
47,
48,
48,
48,
48,
48,
48,
47,
47,
49,
49,
49,
49,
47,
47,
48,
48,
47,
47,
47,
47,
47,
47,
47,
47,
47,
47,
47,
47,
49,
49,
48,
48,
50,
50,
50,
50,
51,
51,
51,
51,
49,
49,
47,
47,
45,
45,
44,
44,
42,
42,
39,
39,
33,
33,
32,
32,
29,
29,
26,
26,
23,
23,
21,
21,
18,
18,
15,
15,
15,
15,
14,
14,
12,
12,
11,
11,
11,
11,
10,
10,
9,
9,
8,
8,
8,
8,
8,
8,
8,
8,
8,
8,
8,
8,
7,
7,
8,
8,
7,
7,
7,
7,
8,
8,
7,
7,
7,
7,
8,
8,
7,
7,
8,
8,
7,
7,
9,
9,
9,
9,
9,
9,
8,
8,
9,
9,
9,
9,
8,
8,
8,
8,
7,
7,
8,
8,
9,
9,
9,
9,
9,
9,
8,
8,
9,
9,
8,
8,
8,
8,
9,
9,
8,
8,
8,
8,
9,
9,
11,
11,
10,
10,
10,
10,
9,
9,
9,
9,
10,
10,
10,
10,
8,
8,
9,
9,
7,
7,
6,
6,
5,
5,
5,
5,
5,
5,
5,
5,
5,
5,
5,
5,
5,
5,
5,
5,
5,
5,
6,
6,
5,
5,
7,
7,
5,
5,
6,
6,
7,
7,
6,
6,
6,
6,
6,
6,
5,
5,
7,
7,
6,
6,
7,
7,
6,
6,
7,
7,
6,
6,
7,
7,
7,
7,
6,
6,
6,
6,
7,
7,
6,
6,
5,
5,
5,
5,
7,
7,
5,
5,
7,
7,
7,
7,
5,
5,
6,
6,
5,
5,
5,
5,
6,
6,
6,
6,
7,
7,
7,
7,
6,
6,
6,
6,
6,
6,
6,
6,
5,
5,
5,
5,
6,
6,
6,
6,
7,
7,
7,
7,
6,
6,
7,
7,
8,
8,
7,
7,
7,
7,
7,
7,
8,
8,
7,
7,
7,
7,
5,
5,
6,
6,
5,
5,
5,
5,
4,
4,
4,
4,
6,
6,
5,
5,
5,
5,
5,
5,
7,
7,
6,
6,
8,
8,
8,
8,
8,
8,
8,
8,
8,
8,
10,
10,
9,
9,
10,
10,
8,
8,
10,
10,
10,
10,
10,
10,
9,
9,
10,
10,
10,
10,
10,
10,
9,
9,
10,
10,
9,
9,
10,
10,
10,
10,
10,
10,
10,
10,
11,
11,
10,
10,
11,
11,
10,
10,
9,
9,
10,
10,
10,
10,
11,
11,
9,
9,
9,
9,
9,
9,
10,
10,
9,
9,
9,
9,
9,
9,
10,
10,
10,
10,
9,
9,
11,
11,
9,
9,
10,
10,
9,
9,
9,
9,
8,
8,
9,
9,
9,
9,
8,
8,
9,
9,
10,
10,
10,
10,
10,
10,
11,
11,
11,
11,
11,
11,
10,
10,
10,
10,
9,
9,
9,
9,
8,
8,
8,
8,
6,
6,
6,
6,
5,
5,
3,
3,
3,
3,
3,
3,
2,
2,
2,
2,
2,
2,
2,
2,
3,
3,
1,
1,
2,
2,
3,
3,
3,
3,
3,
3,
3,
3,
5,
5,
5,
5,
5,
5,
5,
5,
5,
5,
5,
5,
5,
5,
7,
7,
6,
6,
5,
5,
7,
7,
6,
6,
7,
7,
7,
7,
8,
8,
8,
8,
7,
7,
7,
7,
7,
7,
6,
6,
8,
8,
7,
7,
7,
7,
7,
7,
7,
7,
7,
7,
7,
7,
7,
7,
6,
6,
7,
7,
7,
7,
7,
7,
7,
7,
7,
7,
8,
8,
7,
7,
8,
8,
8,
8,
7,
7,
7,
7,
9,
9,
8,
8,
5,
5,
6,
6,
5,
5,
5,
5,
5,
5,
5,
5,
5,
5,
6,
6,
5,
5,
5,
5,
5,
5,
5,
5,
5,
5,
5,
5,
5,
5,
6,
6,
7,
7,
7,
7,
7,
7,
6,
6,
7,
7,
7,
7,
7,
7,
7,
7,
6,
6,
6,
6,
6,
6,
7,
7,
6,
6,
7,
7,
6,
6,
5,
5,
7,
7,
5,
5,
7,
7,
7,
7,
7,
7,
6,
6,
5,
5,
7,
7,
5,
5,
5,
5,
5,
5,
5,
5,
7,
7,
6,
6,
6,
6,
7,
7,
7,
7,
6,
6,
7,
7,
6,
6,
5,
5,
6,
6,
6,
6,
7,
7,
6,
6,
6,
6,
7,
7,
7,
7,
8,
8,
7,
7,
7,
7,
7,
7,
7,
7,
7,
7,
6,
6,
7,
7,
7,
7,
5,
5,
6,
6,
5,
5,
5,
5,
4,
4,
6,
6,
7,
7,
6,
6,
6,
6,
5,
5,
7,
7,
7,
7,
7,
7,
7,
7,
7,
7,
7,
7,
8,
8,
7,
7,
7,
7,
8,
8,
8,
8,
8,
8,
8,
8,
7,
7,
7,
7,
8,
8,
8,
8,
8,
8,
8,
8,
7,
7,
7,
7,
7,
7,
7,
7,
7,
7,
7,
7,
7,
7,
7,
7,
7,
7,
7,
7,
6,
6,
7,
7,
6,
6,
6,
6,
6,
6,
7,
7,
6,
6,
6,
6,
7,
7,
6,
6,
7,
7,
5,
5,
7,
7,
7,
7,
7,
7,
7,
7,
7,
7,
7,
7,
8,
8,
7,
7,
7,
7,
5,
5,
5,
5,
7,
7,
6,
6,
7,
7,
7,
7,
6,
6,
7,
7,
7,
7,
7,
7,
6,
6,
7,
7,
7,
7,
5,
5,
6,
6,
7,
7,
6,
6,
5,
5,
5,
5,
5,
5,
6,
6,
5,
5,
4,
4,
4,
4,
4,
4,
4,
4,
5,
5,
5,
5,
5,
5,
6,
6,
5,
5,
6,
6,
6,
6,
6,
6,
6,
6,
6,
6,
7,
7,
8,
8,
7,
7,
6,
6,
7,
7,
8,
8,
7,
7,
6,
6,
8,
8,
7,
7,
7,
7,
7,
7,
8,
8,
7,
7,
7,
7,
7,
7,
7,
7,
7,
7,
6,
6,
7,
7,
6,
6,
6,
6,
6,
6,
6,
6,
6,
6,
7,
7,
7,
7,
7,
7,
6,
6,
7,
7,
6,
6,
7,
7,
7,
7,
7,
7,
7,
7,
7,
7,
6,
6,
6,
6,
7,
7,
7,
7,
6,
6,
7,
7,
6,
6,
5,
5,
6,
6,
6,
6,
6,
6,
5,
5,
5,
5,
6,
6,
7,
7,
6,
6,
6,
6,
7,
7,
7,
7,
7,
7,
6,
6,
6,
6,
7,
7,
7,
7,
7,
7,
7,
7,
6,
6,
6,
6,
7,
7,
6,
6,
4,
4,
7,
7,
7,
7,
6,
6,
6,
6,
6,
6,
7,
7,
7,
7,
7,
7,
6,
6,
5,
5,
5,
5,
5,
5,
7,
7,
6,
6,
5,
5,
7,
7,
6,
6,
6,
6,
7,
7,
7,
7,
7,
7,
5,
5,
7,
7,
6,
6,
5,
5,
6,
6,
5,
5,
6,
6,
6,
6,
7,
7,
8,
8,
6,
6,
6,
6,
6,
6,
7,
7,
6,
6,
7,
7,
7,
7,
5,
5,
6,
6,
6,
6,
5,
5,
5,
5,
5,
5,
5,
5,
5,
5,
5,
5,
5,
5,
5,
5,
7,
7,
6,
6,
6,
6,
6,
6,
7,
7,
7,
7,
7,
7,
8,
8,
7,
7,
6,
6,
8,
8,
7,
7,
7,
7,
6,
6,
6,
6,
7,
7,
7,
7,
7,
7,
6,
6,
7,
7,
5,
5,
6,
6,
7,
7,
5,
5,
6,
6,
6,
6,
6,
6,
6,
6,
5,
5,
7,
7,
7,
7,
7,
7,
6,
6,
5,
5,
7,
7,
6,
6,
6,
6,
5,
5,
6,
6,
5,
5,
7,
7,
7,
7,
7,
7,
7,
7,
7,
7,
6,
6,
7,
7,
5,
5,
7,
7,
7,
7,
7,
7,
6,
6,
5,
5,
6,
6,
6,
6,
6,
6,
5,
5,
6,
6,
6,
6,
7,
7,
6,
6,
6,
6,
6,
6,
7,
7,
6,
6,
7,
7,
6,
6,
6,
6,
7,
7,
7,
7,
6,
6,
5,
5,
6,
6,
5,
5,
6,
6,
7,
7,
6,
6,
5,
5,
7,
7,
5,
5,
6,
6,
6,
6,
6,
6,
7,
7,
6,
6,
7,
7,
7,
7,
6,
6,
7,
7,
6,
6,
6,
6,
7,
7,
6,
6,
6,
6,
6,
6,
7,
7,
6,
6,
6,
6,
7,
7,
6,
6,
7,
7,
7,
7,
6,
6,
6,
6,
7,
7,
7,
7,
7,
7,
6,
6,
6,
6,
5,
5,
6,
6,
7,
7,
7,
7,
5,
5,
5,
5,
6,
6,
7,
7,
5,
5,
7,
7,
6,
6,
6,
6,
7,
7,
6,
6,
7,
7,
7,
7,
5,
5,
7,
7,
5,
5,
6,
6,
6,
6,
6,
6,
5,
5,
5,
5,
5,
5,
6,
6,
6,
6,
6,
6,
5,
5,
7,
7,
7,
7,
7,
7,
6,
6,
6,
6,
6,
6,
7,
7,
7,
7,
7,
7,
7,
7,
7,
7,
6,
6,
5,
5,
7,
7,
5,
5,
6,
6,
6,
6,
7,
7,
7,
7,
6,
6,
6,
6,
6,
6,
5,
5,
5,
5,
6,
6,
7,
7,
7,
7,
5,
5,
6,
6,
6,
6,
6,
6,
7,
7,
7,
7,
7,
7,
5,
5,
6,
6,
6,
6,
6,
6,
5,
5,
6,
6,
6,
6,
6,
6,
5,
5,
7,
7,
7,
7,
6,
6,
7,
7,
6,
6,
7,
7,
8,
8,
7,
7,
7,
7,
7,
7,
6,
6,
6,
6,
6,
6,
5,
5,
5,
5,
5,
5,
6,
6,
6,
6,
5,
5,
7,
7,
6,
6,
5,
5,
7,
7,
5,
5,
7,
7,
6,
6,
7,
7,
6,
6,
6,
6,
7,
7,
7,
7,
7,
7,
6,
6,
7,
7,
7,
7,
6,
6,
7,
7,
5,
5,
7,
7,
6,
6,
6,
6,
6,
6,
6,
6,
7,
7,
6,
6,
5,
5,
6,
6,
6,
6,
6,
6,
6,
6,
7,
7,
6,
6,
6,
6,
6,
6,
7,
7,
5,
5,
6,
6,
6,
6,
5,
5,
5,
5,
5,
5,
5,
5,
7,
7,
6,
6,
5,
5,
7,
7,
7,
7,
6,
6,
7,
7,
5,
5,
7,
7,
5,
5,
6,
6,
7,
7,
6,
6,
6,
6,
5,
5,
7,
7,
6,
6,
6,
6,
5,
5,
6,
6,
7,
7,
6,
6,
6,
6,
7,
7,
6,
6,
7,
7,
6,
6,
5,
5,
6,
6,
6,
6,
7,
7,
6,
6,
7,
7,
6,
6,
6,
6,
7,
7,
5,
5,
7,
7,
5,
5,
6,
6,
5,
5,
7,
7,
6,
6,
6,
6,
7,
7,
6,
6,
6,
6,
7,
7,
5,
5,
6,
6,
6,
6,
6,
6,
6,
6,
7,
7,
7,
7,
6,
6,
6,
6,
6,
6,
6,
6,
6,
6,
6,
6,
6,
6,
6,
6,
6,
6,
6,
6,
6,
6,
7,
7,
6,
6,
5,
5,
7,
7,
7,
7,
6,
6,
6,
6,
7,
7,
6,
6,
7,
7,
5,
5,
6,
6,
6,
6,
7,
7,
7,
7,
5,
5,
7,
7,
7,
7,
7,
7,
5,
5,
6,
6,
6,
6,
7,
7,
5,
5,
6,
6,
6,
6,
6,
6,
7,
7,
6,
6,
7,
7,
6,
6,
6,
6,
5,
5,
7,
7,
6,
6,
6,
6,
6,
6,
7,
7,
7,
7,
5,
5,
6,
6,
7,
7,
7,
7,
7,
7,
6,
6,
7,
7,
6,
6,
6,
6,
5,
5,
6,
6,
6,
6,
6,
6,
5,
5,
6,
6,
7,
7,
7,
7,
6,
6,
5,
5,
5,
5,
6,
6,
6,
6,
6,
6,
6,
6,
6,
6,
7,
7,
6,
6,
6,
6,
6,
6,
5,
5,
6,
6,
7,
7,
7,
7,
6,
6,
6,
6,
6,
6,
6,
6,
7,
7,
7,
7,
6,
6,
5,
5,
5,
5,
7,
7,
6,
6,
7,
7,
6,
6,
6,
6,
7,
7,
7,
7,
6,
6,
6,
6,
6,
6,
5,
5,
6,
6,
5,
5,
6,
6,
6,
6,
5,
5,
6,
6,
5,
5,
6,
6,
6,
6,
6,
6,
6,
6,
5,
5,
7,
7,
6,
6,
7,
7,
8,
8,
7,
7,
6,
6,
6,
6,
5,
5,
6,
6,
6,
6,
5,
5,
5,
5,
5,
5,
5,
5,
6,
6,
6,
6,
6,
6,
5,
5,
6,
6,
6,
6,
6,
6,
6,
6,
6,
6,
7,
7,
7,
7,
5,
5,
5,
5,
5,
5,
6,
6,
5,
5,
5,
5,
6,
6,
7,
7,
7,
7,
6,
6,
6,
6,
5,
5,
6,
6,
7,
7,
6,
6,
7,
7,
5,
5,
5,
5,
6,
6,
5,
5,
6,
6,
6,
6,
6,
6,
6,
6,
5,
5,
6,
6,
6,
6,
5,
5,
6,
6,
7,
7,
6,
6,
6,
6,
7,
7,
6,
6,
7,
7,
7,
7,
6,
6,
6,
6,
7,
7,
5,
5,
5,
5,
6,
6,
6,
6,
6,
6,
6,
6,
6,
6,
5,
5,
5,
5,
6,
6,
6,
6,
6,
6,
7,
7,
6,
6,
5,
5,
6,
6,
5,
5,
7,
7,
7,
7,
6,
6,
6,
6,
5,
5,
5,
5,
5,
5,
6,
6,
5,
5,
5,
5,
8,
8,
5,
5,
7,
7,
6,
6,
6,
6,
7,
7,
6,
6,
6,
6,
5,
5,
5,
5,
6,
6,
6,
6,
6,
6,
7,
7,
6,
6,
6,
6,
6,
6,
6,
6,
7,
7,
5,
5,
6,
6,
5,
5,
7,
7,
7,
7,
5,
5,
-3,
-17,
-19,
-19,
-26,
-26,
-33,
-33,
-37,
-37,
-39,
-39,
-41,
-41,
-45,
-45,
-46,
-46,
-46,
-46,
-47,
-47,
-48,
-48,
-48,
-48,
-47,
-47,
-49,
-49,
-49,
-49,
-49,
-49,
-50,
-50,
-49,
-49,
-49,
-49,
-50,
-50,
-49,
-49,
-49,
-49,
-49,
-49,
-49,
-49,
-49,
-49,
-49,
-49,
-49,
-49,
-49,
-49,
-49,
-49,
-49,
-49,
-49,
-49,
-49,
-49,
-49,
-49,
-49,
