4-transistorverstaerker/data/ALL0009/A0009CH2.CSV

Memory Length,4000,
Trigger Level,8.10000e+02,
Source,CH2,
Probe,1.0X,
Vertical Units,V,
Vertical Scale,5.00000e-01,
Vertical Position,-1.43000e+01,
Horizontal Units,S,
Horizontal Scale,5.00000e-04,
Horizontal Position,-6.4000000e-04,
Horizontal Mode,Main,
Sampling Period,2.00000e-06,
Firmware,V1.14,
Time, ,
Mode,Fast,
Waveform Data,
724,
724,
724,
724,
724,
724,
724,
724,
724,
724,
724,
724,
724,
725,
725,
725,
725,
724,
724,
724,
724,
724,
724,
724,
724,
724,
724,
724,
724,
724,
724,
724,
724,
723,
723,
724,
724,
724,
724,
724,
724,
724,
724,
723,
723,
724,
724,
724,
724,
723,
723,
723,
723,
723,
723,
723,
723,
723,
723,
723,
723,
723,
723,
722,
722,
723,
723,
722,
722,
722,
722,
722,
722,
722,
722,
723,
723,
722,
722,
722,
722,
722,
722,
723,
723,
721,
721,
723,
723,
721,
721,
722,
722,
722,
722,
722,
722,
722,
722,
722,
722,
722,
722,
722,
722,
722,
722,
721,
721,
721,
721,
722,
722,
721,
721,
721,
721,
722,
722,
721,
721,
722,
722,
720,
720,
721,
721,
721,
721,
720,
720,
721,
721,
721,
721,
721,
721,
720,
720,
720,
720,
720,
720,
720,
720,
721,
721,
720,
720,
720,
720,
720,
720,
720,
720,
720,
720,
721,
721,
720,
720,
720,
720,
720,
720,
720,
720,
721,
721,
720,
720,
720,
720,
720,
720,
721,
721,
720,
720,
720,
720,
719,
719,
720,
720,
720,
720,
720,
720,
720,
720,
719,
719,
720,
720,
719,
719,
720,
720,
719,
719,
720,
720,
720,
720,
719,
719,
720,
720,
720,
720,
720,
720,
720,
720,
720,
720,
720,
720,
720,
720,
721,
721,
720,
720,
720,
720,
719,
719,
720,
720,
720,
720,
721,
721,
720,
720,
720,
720,
719,
719,
720,
720,
721,
721,
720,
720,
720,
720,
720,
720,
720,
720,
720,
720,
720,
720,
721,
721,
720,
720,
719,
719,
720,
720,
720,
720,
719,
719,
720,
720,
720,
720,
721,
721,
720,
720,
721,
721,
721,
721,
720,
720,
721,
721,
720,
720,
720,
720,
721,
721,
720,
720,
721,
721,
720,
720,
722,
722,
721,
721,
721,
721,
721,
721,
721,
721,
721,
721,
721,
721,
721,
721,
720,
720,
721,
721,
720,
720,
721,
721,
722,
722,
722,
722,
721,
721,
721,
721,
721,
721,
721,
721,
722,
722,
721,
721,
722,
722,
722,
722,
722,
722,
722,
722,
722,
722,
721,
721,
722,
722,
722,
722,
722,
722,
722,
722,
721,
721,
722,
722,
722,
722,
722,
722,
722,
722,
722,
722,
722,
722,
722,
722,
722,
722,
724,
724,
723,
723,
723,
723,
722,
722,
723,
723,
723,
723,
722,
722,
723,
723,
724,
724,
723,
723,
724,
724,
723,
723,
723,
723,
723,
723,
723,
723,
724,
724,
724,
724,
724,
724,
724,
724,
724,
724,
724,
724,
723,
723,
724,
724,
724,
724,
725,
725,
724,
724,
724,
724,
724,
724,
724,
724,
724,
724,
724,
724,
724,
724,
725,
725,
724,
724,
724,
724,
724,
724,
725,
725,
724,
724,
724,
724,
724,
724,
724,
724,
725,
725,
724,
724,
724,
724,
725,
725,
724,
724,
725,
725,
725,
725,
724,
724,
725,
725,
725,
725,
725,
725,
725,
725,
724,
724,
725,
725,
725,
725,
724,
724,
724,
724,
724,
724,
724,
724,
725,
725,
725,
725,
724,
724,
724,
724,
724,
724,
724,
724,
723,
723,
724,
724,
725,
725,
724,
724,
724,
724,
724,
724,
723,
723,
725,
725,
725,
725,
725,
725,
724,
724,
725,
725,
724,
724,
724,
724,
725,
725,
724,
724,
724,
724,
724,
724,
724,
724,
724,
724,
724,
724,
723,
723,
723,
723,
724,
724,
723,
723,
725,
725,
724,
724,
724,
724,
725,
725,
723,
723,
725,
725,
724,
724,
724,
724,
724,
724,
723,
723,
724,
724,
723,
723,
723,
723,
724,
724,
723,
723,
724,
724,
724,
724,
724,
724,
722,
722,
723,
723,
723,
723,
723,
723,
723,
723,
723,
723,
723,
723,
723,
723,
723,
723,
723,
723,
723,
723,
723,
723,
722,
722,
722,
722,
723,
723,
722,
722,
722,
722,
722,
722,
722,
722,
722,
722,
721,
721,
723,
723,
722,
722,
722,
722,
722,
722,
722,
722,
722,
722,
721,
721,
721,
721,
722,
722,
722,
722,
721,
721,
722,
722,
721,
721,
722,
722,
721,
721,
721,
721,
721,
721,
721,
721,
721,
721,
721,
721,
721,
721,
721,
721,
721,
721,
720,
720,
721,
721,
720,
720,
721,
721,
720,
720,
720,
720,
720,
720,
720,
720,
720,
720,
720,
720,
721,
721,
721,
721,
720,
720,
720,
720,
719,
719,
721,
721,
720,
720,
720,
720,
720,
720,
720,
720,
720,
720,
720,
720,
720,
720,
719,
719,
720,
720,
720,
720,
719,
719,
720,
720,
720,
720,
720,
720,
720,
720,
720,
720,
719,
719,
719,
719,
719,
719,
720,
720,
720,
720,
720,
720,
720,
720,
720,
720,
720,
720,
719,
719,
720,
720,
719,
719,
720,
720,
720,
720,
721,
721,
720,
720,
720,
720,
719,
719,
719,
719,
720,
720,
720,
720,
721,
721,
720,
720,
719,
719,
720,
720,
720,
720,
719,
719,
720,
720,
720,
720,
720,
720,
719,
719,
721,
721,
720,
720,
720,
720,
720,
720,
720,
720,
720,
720,
720,
720,
719,
719,
721,
721,
719,
719,
720,
720,
720,
720,
720,
720,
719,
719,
720,
720,
720,
720,
720,
720,
720,
720,
720,
720,
720,
720,
720,
720,
719,
719,
721,
721,
720,
720,
720,
720,
721,
721,
721,
721,
720,
720,
721,
721,
720,
720,
720,
720,
721,
721,
720,
720,
721,
721,
720,
720,
721,
721,
721,
721,
721,
721,
722,
722,
721,
721,
722,
722,
722,
722,
722,
722,
722,
722,
721,
721,
722,
722,
721,
721,
721,
721,
722,
722,
722,
722,
722,
722,
722,
722,
722,
722,
722,
722,
722,
722,
721,
721,
722,
722,
722,
722,
723,
723,
721,
721,
723,
723,
723,
723,
723,
723,
723,
723,
723,
723,
722,
722,
723,
723,
723,
723,
723,
723,
723,
723,
724,
724,
724,
724,
723,
723,
722,
722,
723,
723,
723,
723,
724,
724,
723,
723,
723,
723,
723,
723,
723,
723,
723,
723,
724,
724,
724,
724,
724,
724,
723,
723,
725,
725,
724,
724,
724,
724,
724,
724,
725,
725,
723,
723,
724,
724,
724,
724,
724,
724,
724,
724,
724,
724,
724,
724,
725,
725,
725,
725,
724,
724,
724,
724,
725,
725,
724,
724,
723,
723,
723,
723,
724,
724,
723,
723,
725,
725,
725,
725,
724,
724,
724,
724,
724,
724,
724,
724,
724,
724,
724,
724,
725,
725,
725,
725,
724,
724,
724,
724,
725,
725,
725,
725,
725,
725,
725,
725,
725,
725,
725,
725,
725,
725,
724,
724,
724,
724,
725,
725,
725,
725,
725,
725,
725,
725,
724,
724,
725,
725,
725,
725,
725,
725,
725,
725,
725,
725,
725,
725,
725,
725,
725,
725,
724,
724,
724,
724,
725,
725,
723,
723,
725,
725,
724,
724,
724,
724,
725,
725,
724,
724,
725,
725,
724,
724,
725,
725,
724,
724,
724,
724,
724,
724,
724,
724,
724,
724,
724,
724,
724,
724,
724,
724,
724,
724,
725,
725,
723,
723,
724,
724,
723,
723,
724,
724,
724,
724,
723,
723,
724,
724,
723,
723,
723,
723,
723,
723,
723,
723,
724,
724,
723,
723,
723,
723,
723,
723,
723,
723,
723,
723,
723,
723,
723,
723,
722,
722,
723,
723,
722,
722,
723,
723,
722,
722,
722,
722,
723,
723,
722,
722,
724,
724,
722,
722,
722,
722,
721,
721,
722,
722,
722,
722,
721,
721,
723,
723,
722,
722,
722,
722,
722,
722,
721,
721,
721,
721,
722,
722,
722,
722,
722,
722,
721,
721,
721,
721,
721,
721,
721,
721,
721,
721,
721,
721,
721,
721,
721,
721,
721,
721,
721,
721,
721,
721,
721,
721,
720,
720,
721,
721,
720,
720,
720,
720,
721,
721,
721,
721,
721,
721,
721,
721,
721,
721,
721,
721,
720,
720,
720,
720,
720,
720,
720,
720,
719,
719,
720,
720,
720,
720,
720,
720,
720,
720,
720,
720,
720,
720,
720,
720,
721,
721,
721,
721,
720,
720,
720,
720,
720,
720,
720,
720,
720,
720,
720,
720,
720,
720,
720,
720,
719,
719,
720,
720,
720,
720,
720,
720,
720,
720,
720,
720,
719,
719,
719,
719,
720,
720,
720,
720,
721,
721,
720,
720,
719,
719,
719,
719,
720,
720,
719,
719,
719,
719,
720,
720,
720,
720,
719,
719,
720,
720,
719,
719,
720,
720,
719,
719,
721,
721,
720,
720,
720,
720,
721,
721,
720,
720,
720,
720,
720,
720,
720,
720,
720,
720,
720,
720,
721,
721,
719,
719,
720,
720,
720,
720,
720,
720,
720,
720,
721,
721,
720,
720,
721,
721,
720,
720,
721,
721,
719,
719,
720,
720,
721,
721,
721,
721,
720,
720,
720,
720,
721,
721,
721,
721,
721,
721,
721,
721,
720,
720,
721,
721,
721,
721,
721,
721,
721,
721,
722,
722,
721,
721,
722,
722,
722,
722,
721,
721,
721,
721,
722,
722,
722,
722,
722,
722,
722,
722,
722,
722,
722,
722,
721,
721,
722,
722,
722,
722,
723,
723,
722,
722,
723,
723,
722,
722,
723,
723,
722,
722,
722,
722,
723,
723,
722,
722,
722,
722,
722,
722,
722,
722,
722,
722,
723,
723,
724,
724,
723,
723,
722,
722,
723,
723,
723,
723,
724,
724,
724,
724,
724,
724,
723,
723,
723,
723,
723,
723,
724,
724,
723,
723,
723,
723,
724,
724,
723,
723,
723,
723,
724,
724,
725,
725,
724,
724,
724,
724,
724,
724,
725,
725,
723,
723,
724,
724,
724,
724,
725,
725,
724,
724,
724,
724,
725,
725,
725,
725,
725,
725,
724,
724,
724,
724,
724,
724,
724,
724,
724,
724,
724,
724,
723,
723,
725,
725,
725,
725,
725,
725,
725,
725,
725,
725,
725,
725,
725,
725,
725,
725,
725,
725,
725,
725,
725,
725,
725,
725,
725,
725,
725,
725,
725,
725,
725,
725,
724,
724,
725,
725,
725,
725,
726,
726,
725,
725,
725,
725,
725,
725,
724,
724,
725,
725,
725,
725,
724,
724,
725,
725,
724,
724,
725,
725,
725,
725,
725,
725,
725,
725,
725,
725,
724,
724,
725,
725,
725,
725,
725,
725,
724,
724,
725,
725,
725,
725,
724,
724,
724,
724,
724,
724,
724,
724,
724,
724,
725,
725,
725,
725,
724,
724,
725,
725,
724,
724,
724,
724,
724,
724,
725,
725,
724,
724,
724,
724,
724,
724,
725,
725,
724,
724,
724,
724,
724,
724,
724,
724,
724,
724,
724,
724,
724,
724,
724,
724,
724,
724,
724,
724,
723,
723,
723,
723,
723,
723,
723,
723,
724,
724,
723,
723,
723,
723,
724,
724,
723,
723,
723,
723,
723,
723,
723,
723,
723,
723,
723,
723,
723,
723,
723,
723,
723,
723,
722,
722,
723,
723,
723,
723,
722,
722,
722,
722,
723,
723,
723,
723,
722,
722,
723,
723,
723,
723,
723,
723,
723,
723,
722,
722,
722,
722,
722,
722,
722,
722,
722,
722,
722,
722,
721,
721,
721,
721,
722,
722,
721,
721,
722,
722,
721,
721,
721,
721,
721,
721,
721,
721,
721,
721,
721,
721,
720,
720,
721,
721,
721,
721,
721,
721,
721,
721,
720,
720,
720,
720,
721,
721,
721,
721,
720,
720,
721,
721,
720,
720,
721,
721,
721,
721,
721,
721,
720,
720,
721,
721,
720,
720,
720,
720,
720,
720,
720,
720,
720,
720,
721,
721,
720,
720,
720,
720,
720,
720,
720,
720,
720,
720,
719,
719,
720,
720,
720,
720,
721,
721,
720,
720,
719,
719,
719,
719,
720,
720,
719,
719,
721,
721,
720,
720,
720,
720,
720,
720,
720,
720,
720,
720,
720,
720,
719,
719,
720,
720,
719,
719,
720,
720,
720,
720,
720,
720,
720,
720,
720,
720,
720,
720,
720,
720,
719,
719,
720,
720,
720,
720,
720,
720,
720,
720,
720,
720,
719,
719,
720,
720,
721,
721,
719,
719,
721,
721,
720,
720,
721,
721,
721,
721,
720,
720,
719,
719,
720,
720,
720,
720,
720,
720,
719,
719,
719,
719,
721,
721,
721,
721,
721,
721,
720,
720,
721,
721,
720,
720,
721,
721,
721,
721,
721,
721,
720,
720,
720,
720,
721,
721,
721,
721,
721,
721,
721,
721,
721,
721,
721,
721,
721,
721,
721,
721,
722,
722,
721,
721,
722,
722,
721,
721,
722,
722,
723,
723,
722,
722,
721,
721,
722,
722,
722,
722,
722,
722,
723,
723,
723,
723,
722,
722,
722,
722,
721,
721,
721,
721,
723,
723,
722,
722,
722,
722,
723,
723,
723,
723,
723,
723,
722,
722,
722,
722,
723,
723,
722,
722,
723,
723,
722,
722,
722,
722,
723,
723,
723,
723,
723,
723,
722,
722,
723,
723,
722,
722,
722,
722,
724,
724,
723,
723,
724,
724,
724,
724,
724,
724,
724,
724,
723,
723,
724,
724,
724,
724,
723,
723,
724,
724,
724,
724,
724,
724,
724,
724,
725,
725,
725,
725,
725,
725,
725,
725,
724,
724,
725,
725,
725,
725,
725,
725,
724,
724,
725,
725,
725,
725,
725,
725,
724,
724,
725,
725,
724,
724,
724,
724,
725,
725,
724,
724,
724,
724,
725,
725,
725,
725,
725,
725,
725,
725,
724,
724,
725,
725,
725,
725,
725,
725,
725,
725,
725,
725,
724,
724,
725,
725,
725,
725,
725,
725,
725,
725,
725,
725,
725,
725,
726,
726,
725,
725,
725,
725,
725,
725,
725,
725,
725,
725,
724,
724,
725,
725,
725,
725,
725,
725,
725,
725,
725,
725,
726,
726,
724,
724,
725,
725,
725,
725,
725,
725,
726,
726,
724,
724,
725,
725,
724,
724,
725,
725,
724,
724,
725,
725,
725,
725,
724,
724,
725,
725,
725,
725,
724,
724,
724,
724,
726,
726,
724,
724,
725,
725,
724,
724,
725,
725,
724,
724,
725,
725,
724,
724,
724,
724,
724,
724,
724,
724,
723,
723,
724,
724,
724,
724,
724,
724,
724,
724,
724,
724,
724,
724,
724,
724,
724,
724,
723,
723,
724,
724,
725,
725,
723,
723,
724,
724,
723,
723,
724,
724,
724,
724,
723,
723,
723,
723,
723,
723,
723,
723,
724,
724,
723,
723,
723,
723,
723,
723,
722,
722,
723,
723,
723,
723,
722,
722,
723,
723,
722,
722,
723,
723,
723,
723,
721,
721,
722,
722,
723,
723,
724,
724,
722,
722,
723,
723,
722,
722,
722,
722,
721,
721,
722,
722,
722,
722,
722,
722,
721,
721,
722,
722,
722,
722,
721,
721,
722,
722,
721,
721,
721,
721,
721,
721,
721,
721,
722,
722,
721,
721,
721,
721,
720,
720,
721,
721,
721,
721,
721,
721,
720,
720,
720,
720,
720,
720,
721,
721,
720,
720,
721,
721,
721,
721,
721,
721,
720,
720,
721,
721,
721,
721,
721,
721,
720,
720,
719,
719,
720,
720,
721,
721,
719,
719,
720,
720,
720,
720,
720,
720,
721,
721,
720,
720,
719,
719,
719,
719,
720,
720,
720,
720,
719,
719,
719,
719,
720,
720,
720,
720,
720,
720,
721,
721,
721,
721,
720,
720,
720,
720,
720,
720,
720,
720,
720,
720,
720,
720,
720,
720,
720,
720,
719,
719,
720,
720,
719,
719,
720,
720,
720,
720,
721,
721,
720,
720,
720,
720,
720,
720,
719,
719,
720,
720,
719,
719,
720,
720,
720,
720,
720,
720,
720,
720,
719,
719,
720,
720,
720,
720,
721,
721,
720,
720,
720,
720,
720,
720,
719,
719,
720,
720,
720,
720,
720,
720,
719,
719,
720,
720,
719,
719,
720,
720,
720,
720,
721,
721,
721,
721,
721,
721,
721,
721,
721,
721,
721,
721,
721,
721,
720,
720,
721,
721,
721,
721,
721,
721,
720,
720,
721,
721,
720,
720,
721,
721,
721,
721,
721,
721,
721,
721,
721,
721,
721,
721,
721,
721,
721,
721,
721,
721,
721,
721,
722,
722,
722,
722,
723,
723,
723,
723,
722,
722,
722,
722,
722,
722,
722,
722,
720,
720,
722,
722,
722,
722,
722,
722,
723,
723,
722,
722,
722,
722,
722,
722,
723,
723,
724,
724,
723,
723,
723,
723,
723,
723,
723,
723,
723,
723,
723,
723,
723,
723,
723,
723,
724,
724,
724,
724,
724,
724,
723,
723,
724,
724,
723,
723,
723,
723,
724,
724,
723,
723,
724,
724,
724,
724,
723,
723,
724,
724,
723,
723,
724,
724,
724,
724,
724,
724,
723,
723,
723,
723,
724,
724,
724,
724,
724,
724,
724,
724,
725,
725,
724,
724,
724,
724,
724,
724,
724,
724,
725,
725,
724,
724,
724,
724,
725,
725,
724,
724,
724,
724,
724,
724,
724,
724,
725,
725,
725,
725,
725,
725,
725,
725,
724,
724,
724,
724,
725,
725,
725,
725,
723,
723,
725,
725,
724,
724,
725,
725,
725,
725,
725,
725,
725,
725,
725,
725,
725,
725,
725,
725,
724,
724,
725,
725,
725,
725,
724,
724,
725,
725,
724,
724,
724,
724,
725,
725,
725,
725,
726,
726,
725,
725,
725,
725,
725,
725,
724,
724,
725,
725,
724,
724,
725,
725,
725,
725,
724,
724,
725,
725,
724,
724,
724,
724,
725,
725,
725,
725,
725,
725,
725,
725,
724,
724,
724,
724,
724,
724,
725,
725,
725,
725,
724,
724,
725,
725,
725,
725,
724,
724,
724,
724,
724,
724,
723,
723,
724,
724,
725,
725,
724,
724,
724,
724,
724,
724,
724,
724,
723,
723,
725,
725,
724,
724,
723,
723,
724,
724,
723,
723,
724,
724,
724,
724,
723,
723,
723,
723,
723,
723,
723,
723,
723,
723,
723,
723,
724,
724,
723,
723,
723,
723,
723,
723,
723,
723,
724,
724,
724,
724,
723,
723,
723,
723,
722,
722,
723,
723,
722,
722,
722,
722,
722,
722,
723,
723,
722,
722,
722,
722,
723,
723,
722,
722,
723,
723,
723,
723,
723,
723,
723,
723,
721,
721,
722,
722,
722,
722,
722,
722,
722,
722,
721,
721,
721,
721,
722,
722,
722,
722,
722,
722,
721,
721,
721,
721,
721,
721,
722,
722,
721,
721,
721,
721,
720,
720,
722,
722,
720,
720,
721,
721,
720,
720,
721,
721,
721,
721,
721,
721,
721,
721,
721,
721,
721,
721,
721,
721,
721,
721,
721,
721,
719,
719,
720,
720,
721,
721,
720,
720,
720,
720,
720,
720,
721,
721,
721,
721,
720,
720,
720,
720,
720,
720,
720,
720,
720,
720,
719,
719,
720,
720,
721,
721,
720,
720,
721,
721,
720,
720,
719,
719,
720,
720,
720,
720,
720,
720,
720,
720,
720,
720,
720,
720,
719,
719,
720,
720,
720,
720,
720,
720,
719,
719,
720,
720,
721,
721,
720,
720,
720,
720,
721,
721,
721,
721,
719,
719,
721,
721,
720,
720,
720,
720,
720,
720,
721,
721,
720,
720,
720,
720,
720,
720,
721,
721,
721,
721,
720,
720,
720,
720,
721,
721,
720,
720,
720,
720,
720,
720,
720,
720,
720,
720,
720,
720,
719,
719,
721,
721,
720,
720,
719,
719,
720,
720,
720,
720,
721,
721,
720,
720,
720,
720,
721,
721,
721,
721,
721,
721,
721,
721,
721,
721,
721,
721,
720,
720,
722,
722,
722,
722,
721,
721,
721,
721,
721,
721,
721,
721,
722,
722,
721,
721,
721,
721,
722,
722,
722,
722,
722,
722,
722,
722,
722,
722,
722,
722,
722,
722,
721,
721,
722,
722,
722,
722,
722,
722,
722,
722,
722,
722,
721,
721,
723,
723,
723,
723,
722,
722,
722,
722,
723,
723,
722,
722,
722,
722,
722,
722,
723,
723,
723,
723,
723,
723,
723,
723,
723,
723,
723,
723,
723,
723,
722,
722,
723,
723,
722,
722,
723,
723,
724,
724,
722,
722,
725,
725,
724,
724,
723,
723,
724,
724,
723,
723,
723,
723,
723,
723,
723,
723,
724,
724,
724,
724,
724,
724,
724,
724,
724,
724,
724,
724,
724,
724,
724,
724,
724,
724,
723,
723,
723,
723,
724,
724,
724,
724,
724,
724,
724,
724,
724,
724,
724,
724,
725,
725,
725,
725,
725,
725,
725,
725,
725,
725,
724,
724,
724,
724,
724,
724,
724,
724,
724,
724,
726,
726,
724,
724,
724,
724,
725,
725,
725,
725,
725,
725,
725,
725,
724,
724,
724,
724,
724,
724,
724,
724,
725,
725,
725,
725,
725,
725,
725,
725,
724,
724,
725,
725,
724,
724,
724,
724,
724,
724,
724,
724,
724,
724,
724,
724,
725,
725,
725,
725,
725,
725,
724,
724,
725,
725,
725,
725,
725,
725,
725,
725,
725,
725,
725,
725,
724,
724,
725,
725,
725,
725,
724,
724,
724,
724,
724,
724,
724,
724,
724,
724,
725,
725,
725,
725,
724,
724,
725,
725,
724,
724,
725,
725,
723,
723,
724,
724,
725,
725,
724,
724,
724,
724,
725,
725,
725,
725,
724,
724,
724,
724,
723,
723,
723,
723,
724,
724,
724,
724,
723,
723,
724,
724,
723,
723,
724,
724,
723,
723,
723,
723,
724,
724,
723,
723,
723,
723,
723,
723,
723,
723,
723,
723,
723,
723,
722,
722,
723,
723,
723,
723,
722,
722,
724,
724,
722,
722,
723,
723,
723,
723,
722,
722,
723,
723,
722,
722,
722,
722,
723,
723,
722,
722,
722,
722,
722,
722,
723,
723,
722,
722,
722,
722,
722,
722,
722,
722,
722,
722,
722,
722,
722,
722,
722,
722,
722,
722,
722,
722,
721,
721,
722,
722,
722,
722,
721,
721,
721,
721,
721,
721,
722,
722,
721,
721,
721,
721,
721,
721,
721,
721,
721,
721,
721,
721,
720,
720,
721,
721,
721,
721,
721,
721,
721,
721,
720,
720,
721,
721,
720,
720,
720,
720,
721,
721,
720,
720,
719,
719,
721,
721,
721,
721,
720,
720,
721,
721,
721,
721,
720,
720,
720,
720,
720,
720,
720,
720,
720,
720,
720,
720,
720,
720,
720,
720,
720,
720,
720,
720,
720,
720,
720,
720,
720,
720,
720,
720,
720,
720,
720,
720,
719,
719,
720,
720,
720,
720,
720,
720,
719,
719,
720,
720,
720,
720,
719,
719,
720,
720,
719,
719,
720,
720,
720,
720,
720,
720,
720,
720,
719,
719,
720,
720,
719,
719,
719,
719,
720,
720,
720,
720,
720,
720,
720,
720,
719,
719,
720,
720,
720,
720,
720,
720,
720,
720,
719,
719,
720,
720,
719,
719,
721,
721,
720,
720,
720,
720,
719,
719,
720,
720,
720,
720,
720,
720,
720,
720,
720,
720,
721,
721,
720,
720,
721,
721,
720,
720,
720,
720,
720,
720,
720,
720,
721,
721,
721,
721,
720,
720,
721,
721,
721,
721,
720,
720,
721,
721,
721,
721,
721,
721,
720,
720,
721,
721,
720,
720,
721,
721,
722,
722,
720,
720,
721,
721,
721,
721,
721,
721,
721,
721,
721,
721,
722,
722,
721,
721,
722,
722,
723,
723,
722,
722,
721,
721,
721,
721,
722,
722,
722,
722,
722,
722,
723,
723,
722,
722,
721,
721,
723,
723,
722,
722,
722,
722,
722,
722,
722,
722,
722,
722,
723,
723,
721,
721,
722,
722,
723,
723,
722,
722,
723,
723,
723,
723,
723,
723,
723,
723,
723,
723,
723,
723,
724,
724,
723,
723,
723,
723,
723,
723,
723,
723,
724,
724,
723,
723,
724,
724,
724,
724,
723,
723,
724,
724,
724,
724,
724,
724,
724,
724,
724,
724,
723,
723,
723,
723,
724,
724,
723,
723,
724,
724,
724,
724,
723,
723,
724,
724,
724,
724,
725,
725,
725,
725,
724,
724,
724,
724,
725,
725,
724,
724,
725,
725,
725,
725,
724,
724,
724,
724,
725,
725,
725,
725,
724,
724,
725,
725,
725,
725,
725,
725,
725,
725,
725,
725,
725,
725,
724,
724,
724,
724,
725,
725,
725,
725,
725,
725,
725,
725,
724,
724,
725,
725,
725,
725,
725,
725,
726,
726,
725,
725,
725,
725,
725,
725,
725,
725,
725,
725,
724,
724,
724,
724,
725,
725,
725,
725,
724,
724,
724,
724,
724,
724,
724,
724,
725,
725,
725,
725,
724,
724,
723,
723,
724,
724,
725,
725,
724,
724,
725,
725,
725,
725,
724,
724,
725,
725,
725,
725,
724,
724,
725,
725,
724,
724,
725,
725,
724,
724,
724,
724,
724,
724,
724,
724,
723,
723,
724,
724,
724,
724,
724,
724,
723,
723,
724,
724,
723,
723,
724,
724,
724,
724,
724,
724,
725,
725,
724,
724,
723,
723,
723,
723,
722,
722,
723,
723,
723,
723,
723,
