5-grundlagen-opAmps/data/ALL0090/A0090CH2.CSV

Memory Length,4000,
Trigger Level,2.00000e+01,
Source,CH2,
Probe,1.0X,
Vertical Units,V,
Vertical Scale,2.00000e-01,
Vertical Position,0.00000e+00,
Horizontal Units,S,
Horizontal Scale,1.00000e-02,
Horizontal Position,0.0000000e+00,
Horizontal Mode,XY Mode,
Sampling Period,4.00000e-05,
Firmware,V1.14,
Time, ,
Mode,Fast,
Waveform Data,
-77,
-77,
-73,
-73,
-72,
-72,
-73,
-73,
-71,
-71,
-70,
-70,
-68,
-68,
-66,
-66,
-67,
-67,
-67,
-67,
-65,
-65,
-62,
-62,
-63,
-63,
-61,
-61,
-60,
-60,
-58,
-58,
-57,
-57,
-55,
-55,
-55,
-55,
-54,
-54,
-53,
-53,
-50,
-50,
-50,
-50,
-47,
-47,
-48,
-48,
-45,
-45,
-42,
-42,
-44,
-44,
-40,
-40,
-39,
-39,
-38,
-38,
-37,
-37,
-36,
-36,
-32,
-32,
-32,
-32,
-29,
-29,
-26,
-26,
-26,
-26,
-26,
-26,
-22,
-22,
-22,
-22,
-19,
-19,
-18,
-18,
-17,
-17,
-16,
-16,
-13,
-13,
-11,
-11,
-10,
-10,
-9,
-9,
-8,
-8,
-7,
-7,
-3,
-3,
-3,
-3,
1,
1,
0,
0,
1,
1,
2,
2,
7,
7,
8,
8,
10,
10,
10,
10,
12,
12,
14,
14,
14,
14,
16,
16,
18,
18,
20,
20,
20,
20,
22,
22,
26,
26,
25,
25,
29,
29,
30,
30,
32,
32,
33,
33,
35,
35,
33,
33,
38,
38,
36,
36,
39,
39,
42,
42,
41,
41,
45,
45,
47,
47,
45,
45,
50,
50,
50,
50,
51,
51,
52,
52,
53,
53,
54,
54,
57,
57,
57,
57,
60,
60,
61,
61,
61,
61,
63,
63,
66,
66,
64,
64,
66,
66,
67,
67,
70,
70,
69,
69,
72,
72,
72,
72,
73,
73,
72,
72,
75,
75,
75,
75,
75,
75,
79,
79,
78,
78,
79,
79,
81,
81,
80,
80,
80,
80,
84,
84,
84,
84,
83,
83,
82,
82,
85,
85,
87,
87,
86,
86,
86,
86,
87,
87,
89,
89,
88,
88,
88,
88,
91,
91,
90,
90,
91,
91,
93,
93,
91,
91,
92,
92,
91,
91,
92,
92,
93,
93,
92,
92,
93,
93,
95,
95,
94,
94,
94,
94,
93,
93,
91,
91,
93,
93,
93,
93,
95,
95,
93,
93,
92,
92,
94,
94,
93,
93,
93,
93,
92,
92,
93,
93,
92,
92,
91,
91,
92,
92,
92,
92,
90,
90,
92,
92,
91,
91,
89,
89,
89,
89,
89,
89,
87,
87,
88,
88,
88,
88,
86,
86,
87,
87,
83,
83,
86,
86,
84,
84,
84,
84,
85,
85,
83,
83,
80,
80,
81,
81,
81,
81,
79,
79,
75,
75,
77,
77,
74,
74,
75,
75,
72,
72,
73,
73,
72,
72,
72,
72,
69,
69,
71,
71,
69,
69,
64,
64,
65,
65,
65,
65,
63,
63,
61,
61,
60,
60,
59,
59,
58,
58,
57,
57,
55,
55,
56,
56,
53,
53,
53,
53,
50,
50,
50,
50,
48,
48,
46,
46,
46,
46,
44,
44,
42,
42,
41,
41,
42,
42,
38,
38,
37,
37,
37,
37,
30,
30,
33,
33,
32,
32,
30,
30,
28,
28,
26,
26,
23,
23,
23,
23,
22,
22,
21,
21,
19,
19,
16,
16,
14,
14,
13,
13,
13,
13,
9,
9,
8,
8,
8,
8,
6,
6,
3,
3,
2,
2,
0,
0,
0,
0,
-2,
-2,
-4,
-4,
-4,
-4,
-8,
-8,
-10,
-10,
-10,
-10,
-12,
-12,
-14,
-14,
-17,
-17,
-18,
-18,
-21,
-21,
-21,
-21,
-22,
-22,
-23,
-23,
-24,
-24,
-26,
-26,
-31,
-31,
-29,
-29,
-30,
-30,
-33,
-33,
-34,
-34,
-37,
-37,
-37,
-37,
-40,
-40,
-40,
-40,
-42,
-42,
-44,
-44,
-43,
-43,
-47,
-47,
-48,
-48,
-49,
-49,
-53,
-53,
-53,
-53,
-55,
-55,
-53,
-53,
-56,
-56,
-57,
-57,
-58,
-58,
-59,
-59,
-61,
-61,
-63,
-63,
-65,
-65,
-65,
-65,
-66,
-66,
-69,
-69,
-66,
-66,
-69,
-69,
-73,
-73,
-73,
-73,
-74,
-74,
-72,
-72,
-74,
-74,
-76,
-76,
-74,
-74,
-78,
-78,
-80,
-80,
-79,
-79,
-80,
-80,
-81,
-81,
-83,
-83,
-82,
-82,
-83,
-83,
-86,
-86,
-85,
-85,
-84,
-84,
-89,
-89,
-90,
-90,
-87,
-87,
-88,
-88,
-90,
-90,
-90,
-90,
-93,
-93,
-89,
-89,
-93,
-93,
-92,
-92,
-92,
-92,
-95,
-95,
-95,
-95,
-92,
-92,
-94,
-94,
-97,
-97,
-95,
-95,
-97,
-97,
-96,
-96,
-96,
-96,
-96,
-96,
-94,
-94,
-96,
-96,
-96,
-96,
-97,
-97,
-96,
-96,
-96,
-96,
-95,
-95,
-97,
-97,
-95,
-95,
-94,
-94,
-95,
-95,
-95,
-95,
-94,
-94,
-95,
-95,
-94,
-94,
-94,
-94,
-95,
-95,
-95,
-95,
-92,
-92,
-94,
-94,
-93,
-93,
-93,
-93,
-93,
-93,
-91,
-91,
-92,
-92,
-90,
-90,
-90,
-90,
-89,
-89,
-88,
-88,
-87,
-87,
-90,
-90,
-86,
-86,
-86,
-86,
-87,
-87,
-85,
-85,
-84,
-84,
-82,
-82,
-80,
-80,
-81,
-81,
-80,
-80,
-78,
-78,
-77,
-77,
-78,
-78,
-75,
-75,
-75,
-75,
-74,
-74,
-72,
-72,
-72,
-72,
-71,
-71,
-70,
-70,
-68,
-68,
-68,
-68,
-65,
-65,
-65,
-65,
-63,
-63,
-62,
-62,
-62,
-62,
-59,
-59,
-59,
-59,
-58,
-58,
-58,
-58,
-56,
-56,
-54,
-54,
-51,
-51,
-51,
-51,
-49,
-49,
-49,
-49,
-47,
-47,
-47,
-47,
-45,
-45,
-41,
-41,
-41,
-41,
-39,
-39,
-39,
-39,
-37,
-37,
-35,
-35,
-34,
-34,
-32,
-32,
-29,
-29,
-29,
-29,
-30,
-30,
-27,
-27,
-24,
-24,
-24,
-24,
-22,
-22,
-20,
-20,
-17,
-17,
-17,
-17,
-17,
-17,
-13,
-13,
-11,
-11,
-8,
-8,
-9,
-9,
-7,
-7,
-5,
-5,
-4,
-4,
-1,
-1,
1,
1,
2,
2,
3,
3,
5,
5,
6,
6,
6,
6,
10,
10,
11,
11,
11,
11,
14,
14,
15,
15,
19,
19,
18,
18,
22,
22,
24,
24,
26,
26,
25,
25,
25,
25,
29,
29,
29,
29,
32,
32,
33,
33,
33,
33,
36,
36,
39,
39,
37,
37,
41,
41,
41,
41,
43,
43,
44,
44,
48,
48,
47,
47,
48,
48,
51,
51,
51,
51,
54,
54,
57,
57,
57,
57,
59,
59,
59,
59,
60,
60,
62,
62,
62,
62,
64,
64,
65,
65,
64,
64,
68,
68,
70,
70,
68,
68,
67,
67,
71,
71,
71,
71,
73,
73,
74,
74,
76,
76,
75,
75,
77,
77,
79,
79,
79,
79,
80,
80,
79,
79,
82,
82,
83,
83,
82,
82,
83,
83,
83,
83,
84,
84,
85,
85,
87,
87,
87,
87,
88,
88,
88,
88,
89,
89,
89,
89,
90,
90,
89,
89,
88,
88,
90,
90,
92,
92,
93,
93,
92,
92,
93,
93,
92,
92,
95,
95,
94,
94,
93,
93,
92,
92,
95,
95,
94,
94,
92,
92,
93,
93,
92,
92,
94,
94,
94,
94,
94,
94,
94,
94,
93,
93,
93,
93,
95,
95,
92,
92,
93,
93,
94,
94,
93,
93,
92,
92,
90,
90,
90,
90,
90,
90,
91,
91,
89,
89,
88,
88,
91,
91,
88,
88,
89,
89,
89,
89,
87,
87,
85,
85,
87,
87,
85,
85,
85,
85,
83,
83,
83,
83,
81,
81,
82,
82,
80,
80,
80,
80,
78,
78,
78,
78,
77,
77,
77,
77,
76,
76,
75,
75,
73,
73,
71,
71,
71,
71,
71,
71,
70,
70,
69,
69,
68,
68,
66,
66,
66,
66,
62,
62,
62,
62,
60,
60,
61,
61,
59,
59,
57,
57,
55,
55,
54,
54,
51,
51,
51,
51,
52,
52,
47,
47,
47,
47,
45,
45,
45,
45,
44,
44,
43,
43,
40,
40,
38,
38,
38,
38,
36,
36,
34,
34,
33,
33,
31,
31,
30,
30,
28,
28,
26,
26,
28,
28,
25,
25,
23,
23,
20,
20,
18,
18,
16,
16,
13,
13,
13,
13,
12,
12,
12,
12,
9,
9,
8,
8,
4,
4,
5,
5,
3,
3,
1,
1,
1,
1,
-2,
-2,
-3,
-3,
-4,
-4,
-7,
-7,
-9,
-9,
-11,
-11,
-13,
-13,
-15,
-15,
-13,
-13,
-17,
-17,
-19,
-19,
-20,
-20,
-20,
-20,
-23,
-23,
-25,
-25,
-24,
-24,
-26,
-26,
-32,
-32,
-30,
-30,
-33,
-33,
-34,
-34,
-36,
-36,
-37,
-37,
-41,
-41,
-39,
-39,
-41,
-41,
-42,
-42,
-44,
-44,
-47,
-47,
-48,
-48,
-48,
-48,
-52,
-52,
-52,
-52,
-52,
-52,
-56,
-56,
-55,
-55,
-58,
-58,
-58,
-58,
-59,
-59,
-61,
-61,
-62,
-62,
-62,
-62,
-65,
-65,
-66,
-66,
-67,
-67,
-67,
-67,
-67,
-67,
-68,
-68,
-72,
-72,
-72,
-72,
-73,
-73,
-73,
-73,
-74,
-74,
-76,
-76,
-77,
-77,
-77,
-77,
-77,
-77,
-80,
-80,
-81,
-81,
-82,
-82,
-83,
-83,
-83,
-83,
-84,
-84,
-87,
-87,
-86,
-86,
-85,
-85,
-87,
-87,
-89,
-89,
-87,
-87,
-89,
-89,
-89,
-89,
-90,
-90,
-91,
-91,
-94,
-94,
-93,
-93,
-92,
-92,
-92,
-92,
-92,
-92,
-93,
-93,
-94,
-94,
-95,
-95,
-93,
-93,
-94,
-94,
-95,
-95,
-96,
-96,
-94,
-94,
-96,
-96,
-95,
-95,
-96,
-96,
-94,
-94,
-97,
-97,
-96,
-96,
-96,
-96,
-94,
-94,
-96,
-96,
-97,
-97,
-97,
-97,
-96,
-96,
-95,
-95,
-96,
-96,
-96,
-96,
-95,
-95,
-94,
-94,
-93,
-93,
-94,
-94,
-93,
-93,
-92,
-92,
-93,
-93,
-92,
-92,
-91,
-91,
-92,
-92,
-91,
-91,
-91,
-91,
-89,
-89,
-90,
-90,
-88,
-88,
-87,
-87,
-88,
-88,
-87,
-87,
-86,
-86,
-84,
-84,
-84,
-84,
-82,
-82,
-80,
-80,
-84,
-84,
-81,
-81,
-79,
-79,
-78,
-78,
-79,
-79,
-76,
-76,
-76,
-76,
-76,
-76,
-73,
-73,
-73,
-73,
-71,
-71,
-69,
-69,
-71,
-71,
-68,
-68,
-68,
-68,
-67,
-67,
-65,
-65,
-64,
-64,
-62,
-62,
-62,
-62,
-60,
-60,
-59,
-59,
-59,
-59,
-56,
-56,
-54,
-54,
-51,
-51,
-52,
-52,
-50,
-50,
-48,
-48,
-48,
-48,
-47,
-47,
-45,
-45,
-43,
-43,
-43,
-43,
-40,
-40,
-38,
-38,
-38,
-38,
-35,
-35,
-34,
-34,
-34,
-34,
-30,
-30,
-29,
-29,
-27,
-27,
-25,
-25,
-25,
-25,
-24,
-24,
-22,
-22,
-21,
-21,
-21,
-21,
-17,
-17,
-15,
-15,
-13,
-13,
-13,
-13,
-12,
-12,
-9,
-9,
-9,
-9,
-5,
-5,
-5,
-5,
-3,
-3,
-3,
-3,
-1,
-1,
3,
3,
4,
4,
5,
5,
8,
8,
9,
9,
8,
8,
14,
14,
13,
13,
16,
16,
17,
17,
16,
16,
19,
19,
21,
21,
21,
21,
23,
23,
27,
27,
27,
27,
29,
29,
31,
31,
33,
33,
34,
34,
35,
35,
35,
35,
37,
37,
39,
39,
41,
41,
43,
43,
46,
46,
45,
45,
47,
47,
48,
48,
50,
50,
50,
50,
52,
52,
55,
55,
55,
55,
55,
55,
57,
57,
59,
59,
60,
60,
61,
61,
61,
61,
64,
64,
64,
64,
65,
65,
66,
66,
68,
68,
68,
68,
70,
70,
70,
70,
72,
72,
75,
75,
75,
75,
76,
76,
77,
77,
77,
77,
78,
78,
80,
80,
79,
79,
81,
81,
82,
82,
84,
84,
84,
84,
84,
84,
85,
85,
83,
83,
87,
87,
87,
87,
87,
87,
89,
89,
87,
87,
89,
89,
89,
89,
89,
89,
91,
91,
92,
92,
93,
93,
92,
92,
92,
92,
94,
94,
92,
92,
93,
93,
92,
92,
94,
94,
93,
93,
91,
91,
93,
93,
95,
95,
93,
93,
94,
94,
94,
94,
94,
94,
92,
92,
94,
94,
94,
94,
94,
94,
93,
93,
93,
93,
94,
94,
93,
93,
91,
91,
91,
91,
92,
92,
91,
91,
91,
91,
91,
91,
90,
90,
90,
90,
89,
89,
90,
90,
91,
91,
87,
87,
87,
87,
87,
87,
86,
86,
87,
87,
85,
85,
86,
86,
83,
83,
83,
83,
82,
82,
81,
81,
80,
80,
80,
80,
80,
80,
75,
75,
78,
78,
75,
75,
73,
73,
73,
73,
72,
72,
73,
73,
72,
72,
70,
70,
69,
69,
68,
68,
64,
64,
67,
67,
63,
63,
62,
62,
62,
62,
59,
59,
59,
59,
58,
58,
56,
56,
56,
56,
56,
56,
51,
51,
51,
51,
50,
50,
48,
48,
48,
48,
46,
46,
42,
42,
42,
42,
42,
42,
41,
41,
40,
40,
36,
36,
35,
35,
35,
35,
32,
32,
31,
31,
29,
29,
29,
29,
25,
25,
26,
26,
23,
23,
23,
23,
21,
21,
17,
17,
17,
17,
15,
15,
13,
13,
12,
12,
10,
10,
8,
8,
8,
8,
5,
5,
3,
3,
1,
1,
2,
2,
0,
0,
-3,
-3,
-3,
-3,
-5,
-5,
-8,
-8,
-9,
-9,
-11,
-11,
-11,
-11,
-13,
-13,
-16,
-16,
-17,
-17,
-20,
-20,
-22,
-22,
-24,
-24,
-25,
-25,
-25,
-25,
-27,
-27,
-29,
-29,
-29,
-29,
-31,
-31,
-34,
-34,
-34,
-34,
-34,
-34,
-38,
-38,
-39,
-39,
-40,
-40,
-42,
-42,
-44,
-44,
-46,
-46,
-47,
-47,
-48,
-48,
-49,
-49,
-49,
-49,
-52,
-52,
-54,
-54,
-55,
-55,
-57,
-57,
-57,
-57,
-59,
-59,
-62,
-62,
-61,
-61,
-61,
-61,
-62,
-62,
-64,
-64,
-65,
-65,
-66,
-66,
-68,
-68,
-68,
-68,
-71,
-71,
-72,
-72,
-72,
-72,
-74,
-74,
-75,
-75,
-77,
-77,
-77,
-77,
-79,
-79,
-79,
-79,
-80,
-80,
-80,
-80,
-79,
-79,
-81,
-81,
-83,
-83,
-85,
-85,
-86,
-86,
-85,
-85,
-87,
-87,
-87,
-87,
-86,
-86,
-88,
-88,
-88,
-88,
-91,
-91,
-90,
-90,
-90,
-90,
-93,
-93,
-92,
-92,
-91,
-91,
-93,
-93,
-93,
-93,
-91,
-91,
-95,
-95,
-93,
-93,
-97,
-97,
-95,
-95,
-95,
-95,
-98,
-98,
-95,
-95,
-95,
-95,
-95,
-95,
-95,
-95,
-95,
-95,
-96,
-96,
-94,
-94,
-96,
-96,
-95,
-95,
-96,
-96,
-96,
-96,
-95,
-95,
-97,
-97,
-95,
-95,
-95,
-95,
-95,
-95,
-96,
-96,
-94,
-94,
-96,
-96,
-94,
-94,
-94,
-94,
-94,
-94,
-92,
-92,
-93,
-93,
-92,
-92,
-91,
-91,
-90,
-90,
-90,
-90,
-89,
-89,
-89,
-89,
-88,
-88,
-88,
-88,
-88,
-88,
-86,
-86,
-85,
-85,
-85,
-85,
-85,
-85,
-83,
-83,
-83,
-83,
-83,
-83,
-81,
-81,
-80,
-80,
-78,
-78,
-77,
-77,
-78,
-78,
-77,
-77,
-76,
-76,
-74,
-74,
-73,
-73,
-73,
-73,
-71,
-71,
-70,
-70,
-70,
-70,
-70,
-70,
-67,
-67,
-66,
-66,
-64,
-64,
-65,
-65,
-62,
-62,
-62,
-62,
-60,
-60,
-59,
-59,
-57,
-57,
-57,
-57,
-55,
-55,
-52,
-52,
-51,
-51,
-51,
-51,
-49,
-49,
-49,
-49,
-46,
-46,
-44,
-44,
-43,
-43,
-42,
-42,
-40,
-40,
-37,
-37,
-38,
-38,
-36,
-36,
-34,
-34,
-34,
-34,
-31,
-31,
-28,
-28,
-29,
-29,
-28,
-28,
-26,
-26,
-22,
-22,
-21,
-21,
-18,
-18,
-18,
-18,
-20,
-20,
-16,
-16,
-14,
-14,
-12,
-12,
-10,
-10,
-7,
-7,
-6,
-6,
-6,
-6,
-4,
-4,
-5,
-5,
-2,
-2,
2,
2,
3,
3,
5,
5,
6,
6,
7,
7,
11,
11,
10,
10,
10,
10,
15,
15,
17,
17,
15,
15,
19,
19,
22,
22,
21,
21,
24,
24,
25,
25,
25,
25,
29,
29,
31,
31,
32,
32,
34,
34,
33,
33,
37,
37,
39,
39,
38,
38,
41,
41,
40,
40,
43,
43,
44,
44,
47,
47,
47,
47,
49,
49,
50,
50,
52,
52,
54,
54,
54,
54,
55,
55,
58,
58,
58,
58,
59,
59,
61,
61,
62,
62,
65,
65,
66,
66,
66,
66,
66,
66,
69,
69,
67,
67,
71,
71,
72,
72,
72,
72,
74,
74,
74,
74,
77,
77,
77,
77,
78,
78,
78,
78,
79,
79,
78,
78,
80,
80,
80,
80,
82,
82,
81,
81,
83,
83,
85,
85,
85,
85,
84,
84,
84,
84,
87,
87,
89,
89,
88,
88,
89,
89,
90,
90,
91,
91,
88,
88,
90,
90,
92,
92,
90,
90,
92,
92,
91,
91,
93,
93,
94,
94,
93,
93,
94,
94,
92,
92,
93,
93,
94,
94,
94,
94,
93,
93,
93,
93,
92,
92,
93,
93,
93,
93,
93,
93,
94,
94,
93,
93,
93,
93,
93,
93,
94,
94,
93,
93,
94,
94,
93,
93,
94,
94,
93,
93,
91,
91,
91,
91,
91,
91,
91,
91,
90,
90,
89,
89,
88,
88,
88,
88,
87,
87,
86,
86,
86,
86,
88,
88,
86,
86,
85,
85,
84,
84,
82,
82,
84,
84,
81,
81,
81,
81,
78,
78,
79,
79,
77,
77,
78,
78,
74,
74,
75,
75,
74,
74,
74,
74,
72,
72,
73,
73,
68,
68,
69,
69,
67,
67,
69,
69,
66,
66,
64,
64,
64,
64,
61,
61,
62,
62,
60,
60,
58,
58,
57,
57,
57,
57,
57,
57,
53,
53,
54,
54,
51,
51,
51,
51,
47,
47,
47,
47,
47,
47,
43,
43,
41,
41,
40,
40,
39,
39,
38,
38,
38,
38,
35,
35,
35,
35,
31,
31,
31,
31,
30,
30,
28,
28,
26,
26,
21,
21,
21,
21,
19,
19,
19,
19,
19,
19,
16,
16,
16,
16,
11,
11,
9,
9,
11,
11,
8,
8,
5,
5,
5,
5,
3,
3,
0,
0,
-1,
-1,
-1,
-1,
-3,
-3,
-4,
-4,
-9,
-9,
-8,
-8,
-11,
-11,
-11,
-11,
-13,
-13,
-14,
-14,
-16,
-16,
-18,
-18,
-18,
-18,
-22,
-22,
-22,
-22,
-23,
-23,
-25,
-25,
-26,
-26,
-29,
-29,
-31,
-31,
-32,
-32,
-34,
-34,
-35,
-35,
-38,
-38,
-38,
-38,
-40,
-40,
-41,
-41,
-44,
-44,
-45,
-45,
-44,
-44,
-46,
-46,
-48,
-48,
-48,
-48,
-51,
-51,
-53,
-53,
-53,
-53,
-56,
-56,
-57,
-57,
-58,
-58,
-59,
-59,
-60,
-60,
-61,
-61,
-62,
-62,
-66,
-66,
-65,
-65,
-66,
-66,
-66,
-66,
-68,
-68,
-69,
-69,
-70,
-70,
-69,
-69,
-72,
-72,
-73,
-73,
-76,
-76,
-76,
-76,
-77,
-77,
-77,
-77,
-78,
-78,
-80,
-80,
-80,
-80,
-81,
-81,
-82,
-82,
-82,
-82,
-83,
-83,
-85,
-85,
-85,
-85,
-86,
-86,
-87,
-87,
-86,
-86,
-87,
-87,
-88,
-88,
-91,
-91,
-89,
-89,
-90,
-90,
-91,
-91,
-93,
-93,
-92,
-92,
-92,
-92,
-92,
-92,
-95,
-95,
-95,
-95,
-93,
-93,
-96,
-96,
-97,
-97,
-95,
-95,
-94,
-94,
-97,
-97,
-96,
-96,
-97,
-97,
-96,
-96,
-97,
-97,
-95,
-95,
-97,
-97,
-95,
-95,
-94,
-94,
-97,
-97,
-97,
-97,
-97,
-97,
-93,
-93,
-96,
-96,
-96,
-96,
-95,
-95,
-94,
-94,
-93,
-93,
-93,
-93,
-94,
-94,
-94,
-94,
-92,
-92,
-93,
-93,
-91,
-91,
-92,
-92,
-90,
-90,
-91,
-91,
-89,
-89,
-89,
-89,
-89,
-89,
-89,
-89,
-88,
-88,
-87,
-87,
-87,
-87,
-86,
-86,
-85,
-85,
-86,
-86,
-84,
-84,
-82,
-82,
-81,
-81,
-80,
-80,
-81,
-81,
-79,
-79,
-77,
-77,
-77,
-77,
-76,
-76,
-75,
-75,
-74,
-74,
-72,
-72,
-73,
-73,
-71,
-71,
-70,
-70,
-68,
-68,
-68,
-68,
-66,
-66,
-66,
-66,
-64,
-64,
-63,
-63,
-63,
-63,
-58,
-58,
-58,
-58,
-56,
-56,
-56,
-56,
-55,
-55,
-53,
-53,
-55,
-55,
-51,
-51,
-50,
-50,
-48,
-48,
-48,
-48,
-47,
-47,
-44,
-44,
-44,
-44,
-41,
-41,
-40,
-40,
-39,
-39,
-38,
-38,
-36,
-36,
-33,
-33,
-33,
-33,
-31,
-31,
-29,
-29,
-27,
-27,
-24,
-24,
-24,
-24,
-24,
-24,
-21,
-21,
-19,
-19,
-17,
-17,
-16,
-16,
-14,
-14,
-13,
-13,
-11,
-11,
-9,
-9,
-8,
-8,
-6,
-6,
-5,
-5,
-3,
-3,
-2,
-2,
0,
0,
3,
3,
2,
2,
4,
4,
7,
7,
9,
9,
11,
11,
12,
12,
14,
14,
15,
15,
16,
16,
17,
17,
19,
19,
22,
22,
22,
22,
25,
25,
24,
24,
28,
28,
28,
28,
30,
30,
30,
30,
34,
34,
36,
36,
38,
38,
37,
37,
40,
40,
41,
41,
41,
41,
43,
43,
43,
43,
46,
46,
48,
48,
48,
48,
50,
50,
53,
53,
55,
55,
54,
54,
55,
55,
57,
57,
60,
60,
58,
58,
58,
58,
63,
63,
64,
64,
65,
65,
67,
67,
67,
67,
67,
67,
71,
71,
69,
69,
71,
71,
74,
74,
73,
73,
74,
74,
75,
75,
78,
78,
76,
76,
77,
77,
81,
81,
81,
81,
81,
81,
83,
83,
81,
81,
83,
83,
84,
84,
85,
85,
85,
85,
85,
85,
87,
87,
87,
87,
88,
88,
89,
89,
87,
87,
89,
89,
87,
87,
90,
90,
91,
91,
91,
91,
91,
91,
93,
93,
92,
92,
93,
93,
92,
92,
91,
91,
92,
92,
94,
94,
93,
93,
93,
93,
93,
93,
93,
93,
94,
94,
91,
91,
94,
94,
94,
94,
93,
93,
91,
91,
94,
94,
92,
92,
93,
93,
93,
93,
94,
94,
93,
93,
93,
93,
92,
92,
93,
93,
91,
91,
91,
91,
90,
90,
90,
90,
91,
91,
89,
89,
89,
89,
86,
86,
89,
89,
87,
87,
85,
85,
85,
85,
86,
86,
84,
84,
84,
84,
81,
81,
81,
81,
81,
81,
83,
83,
78,
78,
77,
77,
77,
77,
77,
77,
76,
76,
75,
75,
75,
75,
73,
73,
71,
71,
71,
71,
69,
69,
69,
69,
67,
67,
69,
69,
65,
65,
63,
63,
61,
61,
63,
63,
61,
61,
58,
58,
55,
55,
58,
58,
57,
57,
53,
53,
51,
51,
51,
51,
50,
50,
48,
48,
49,
49,
47,
47,
46,
46,
43,
43,
43,
43,
41,
41,
39,
39,
37,
37,
35,
35,
35,
35,
34,
34,
33,
33,
29,
29,
30,
30,
27,
27,
25,
25,
24,
24,
23,
23,
19,
19,
19,
19,
18,
18,
15,
15,
13,
13,
13,
13,
10,
10,
10,
10,
8,
8,
8,
8,
4,
4,
3,
3,
1,
1,
-1,
-1,
-3,
-3,
-4,
-4,
-6,
-6,
-5,
-5,
-6,
-6,
-8,
-8,
-10,
-10,
-15,
-15,
-15,
-15,
-17,
-17,
-18,
-18,
-19,
-19,
-22,
-22,
-24,
-24,
-25,
-25,
-24,
-24,
-27,
-27,
-30,
-30,
-32,
-32,
-32,
-32,
-34,
-34,
-36,
-36,
-36,
-36,
-38,
-38,
-39,
-39,
-41,
-41,
-45,
-45,
-43,
-43,
-46,
-46,
-47,
-47,
-48,
-48,
-50,
-50,
-50,
-50,
-53,
-53,
-53,
-53,
-55,
-55,
-56,
-56,
-57,
-57,
-59,
-59,
-59,
-59,
-60,
-60,
-62,
-62,
-64,
-64,
-64,
-64,
-66,
-66,
-67,
-67,
-69,
-69,
-70,
-70,
-71,
-71,
-71,
-71,
-74,
-74,
-73,
-73,
-75,
-75,
-76,
-76,
-77,
-77,
-77,
-77,
-79,
-79,
-79,
-79,
-80,
-80,
-82,
-82,
-83,
-83,
-84,
-84,
-85,
-85,
-84,
-84,
-86,
-86,
-85,
-85,
-89,
-89,
-91,
-91,
-89,
-89,
-89,
-89,
-89,
-89,
-91,
-91,
-93,
-93,
-91,
-91,
-92,
-92,
-93,
-93,
-94,
-94,
-94,
-94,
-95,
-95,
-93,
-93,
-94,
-94,
-96,
-96,
-96,
-96,
-96,
-96,
-94,
-94,
-96,
-96,
-96,
-96,
-96,
-96,
-97,
-97,
-95,
-95,
-96,
-96,
-96,
-96,
-95,
-95,
-95,
-95,
-96,
-96,
-96,
-96,
-95,
-95,
-97,
-97,
-97,
-97,
-98,
-98,
-97,
-97,
-93,
-93,
-94,
-94,
-93,
-93,
-93,
-93,
-94,
-94,
-92,
-92,
-94,
-94,
-93,
-93,
-91,
-91,
-93,
-93,
-90,
-90,
-92,
-92,
-90,
-90,
-89,
-89,
-88,
-88,
-87,
-87,
-85,
-85,
-85,
-85,
-84,
-84,
-86,
-86,
-84,
-84,
-82,
-82,
-84,
-84,
-82,
-82,
-81,
-81,
-79,
-79,
-79,
-79,
-79,
-79,
-77,
-77,
-76,
-76,
-74,
-74,
-75,
-75,
-75,
-75,
-72,
-72,
-72,
-72,
-69,
-69,
-71,
-71,
-68,
-68,
-66,
-66,
-64,
-64,
-62,
-62,
-63,
-63,
-61,
-61,
-61,
-61,
-59,
-59,
-56,
-56,
-56,
-56,
-53,
-53,
-55,
-55,
-51,
-51,
-52,
-52,
-49,
-49,
-49,
-49,
-47,
-47,
-45,
-45,
-44,
-44,
-41,
-41,
-41,
-41,
-39,
-39,
-37,
-37,
-37,
-37,
-34,
-34,
-34,
-34,
-32,
-32,
-30,
-30,
-29,
-29,
-27,
-27,
-25,
-25,
-23,
-23,
-22,
-22,
-20,
-20,
-18,
-18,
-19,
-19,
-16,
-16,
-14,
-14,
-15,
-15,
-13,
-13,
-10,
-10,
-7,
-7,
-6,
-6,
-5,
-5,
-3,
-3,
-2,
-2,
0,
0,
1,
1,
5,
5,
5,
5,
7,
7,
9,
9,
7,
7,
13,
13,
13,
13,
16,
16,
17,
17,
19,
19,
20,
20,
23,
23,
23,
23,
24,
24,
27,
27,
28,
28,
28,
28,
30,
30,
33,
33,
34,
34,
36,
36,
35,
35,
37,
37,
41,
41,
40,
40,
43,
43,
44,
44,
45,
45,
48,
48,
49,
49,
49,
49,
53,
53,
54,
54,
54,
54,
55,
55,
55,
55,
58,
58,
59,
59,
59,
59,
61,
61,
63,
63,
62,
62,
65,
65,
64,
64,
67,
67,
68,
68,
69,
69,
70,
70,
72,
72,
73,
73,
74,
74,
75,
75,
75,
75,
77,
77,
77,
77,
78,
78,
80,
80,
80,
80,
83,
83,
81,
81,
81,
81,
83,
83,
84,
84,
84,
84,
87,
87,
85,
85,
87,
87,
87,
87,
88,
88,
87,
87,
88,
88,
90,
90,
91,
91,
91,
91,
91,
91,
91,
91,
91,
91,
91,
91,
94,
94,
92,
92,
91,
91,
95,
95,
93,
93,
93,
93,
95,
95,
95,
95,
92,
92,
91,
91,
92,
92,
94,
94,
92,
92,
94,
94,
94,
94,
95,
95,
94,
94,
93,
93,
93,
93,
93,
93,
94,
94,
92,
92,
93,
93,
92,
92,
93,
93,
91,
91,
91,
91,
91,
91,
