4-transistorverstaerker/data/ALL0070/A0070CH2.CSV

Memory Length,4000,
Trigger Level,5.20000e+01,
Source,CH2,
Probe,1.0X,
Vertical Units,V,
Vertical Scale,2.00000e-01,
Vertical Position,0.00000e+00,
Horizontal Units,S,
Horizontal Scale,5.00000e-07,
Horizontal Position,-7.0000000e-07,
Horizontal Mode,Main,
Sampling Period,2.00000e-09,
Firmware,V1.14,
Time, ,
Mode,Fast,
Waveform Data,
3,
3,
4,
5,
5,
5,
6,
5,
7,
5,
5,
6,
7,
6,
7,
6,
7,
7,
8,
7,
7,
7,
8,
7,
8,
8,
9,
9,
9,
8,
8,
9,
11,
10,
10,
10,
11,
10,
11,
10,
11,
11,
13,
12,
12,
10,
10,
12,
12,
12,
13,
13,
15,
13,
14,
13,
13,
13,
14,
14,
14,
13,
14,
14,
15,
13,
14,
15,
16,
14,
15,
15,
16,
15,
15,
15,
16,
15,
16,
15,
16,
16,
16,
16,
17,
16,
17,
16,
17,
16,
16,
17,
18,
16,
16,
17,
18,
16,
16,
16,
17,
17,
18,
17,
17,
17,
18,
18,
18,
16,
17,
17,
17,
17,
17,
17,
18,
18,
18,
17,
17,
17,
18,
17,
18,
17,
18,
17,
18,
17,
17,
17,
17,
17,
18,
16,
18,
16,
17,
17,
17,
16,
17,
17,
17,
16,
17,
17,
17,
16,
16,
16,
17,
16,
16,
16,
17,
16,
16,
15,
16,
15,
16,
15,
16,
15,
16,
15,
16,
14,
15,
15,
16,
13,
14,
14,
15,
13,
14,
13,
13,
13,
14,
13,
13,
13,
14,
14,
15,
12,
12,
12,
12,
12,
12,
11,
12,
11,
12,
11,
11,
10,
10,
10,
11,
10,
10,
10,
11,
9,
8,
9,
9,
9,
10,
7,
8,
7,
8,
8,
8,
7,
8,
7,
7,
6,
7,
7,
7,
5,
6,
6,
6,
5,
6,
4,
5,
4,
4,
4,
4,
3,
4,
3,
3,
2,
2,
3,
3,
1,
2,
2,
2,
1,
1,
1,
2,
0,
0,
-1,
0,
0,
0,
0,
0,
-2,
-2,
0,
0,
-3,
-2,
-2,
-1,
-3,
-3,
-3,
-3,
-3,
-2,
-4,
-3,
-4,
-4,
-4,
-3,
-6,
-5,
-5,
-5,
-6,
-6,
-6,
-5,
-7,
-6,
-6,
-5,
-7,
-7,
-7,
-7,
-8,
-7,
-9,
-8,
-9,
-9,
-9,
-8,
-10,
-10,
-9,
-8,
-11,
-10,
-10,
-8,
-11,
-11,
-11,
-11,
-12,
-11,
-12,
-11,
-12,
-11,
-12,
-12,
-13,
-13,
-12,
-12,
-14,
-14,
-13,
-12,
-14,
-14,
-14,
-14,
-14,
-14,
-14,
-13,
-15,
-15,
-15,
-15,
-16,
-16,
-15,
-14,
-16,
-16,
-16,
-15,
-17,
-17,
-16,
-15,
-17,
-18,
-17,
-16,
-18,
-18,
-17,
-17,
-18,
-17,
-17,
-16,
-18,
-18,
-17,
-16,
-19,
-18,
-18,
-17,
-18,
-18,
-19,
-18,
-19,
-18,
-18,
-18,
-19,
-19,
-18,
-18,
-19,
-19,
-18,
-18,
-19,
-19,
-19,
-19,
-19,
-19,
-19,
-19,
-18,
-18,
-18,
-18,
-19,
-19,
-18,
-18,
-19,
-19,
-18,
-18,
-19,
-19,
-18,
-18,
-18,
-18,
-19,
-18,
-18,
-18,
-18,
-18,
-19,
-18,
-18,
-18,
-18,
-18,
-18,
-17,
-18,
-18,
-17,
-16,
-18,
-18,
-17,
-17,
-18,
-18,
-17,
-16,
-17,
-17,
-16,
-15,
-17,
-17,
-16,
-15,
-16,
-16,
-16,
-15,
-16,
-16,
-16,
-15,
-15,
-14,
-14,
-14,
-16,
-15,
-14,
-13,
-15,
-15,
-13,
-12,
-14,
-13,
-14,
-13,
-14,
-13,
-13,
-12,
-13,
-12,
-12,
-11,
-12,
-11,
-12,
-11,
-12,
-11,
-10,
-9,
-12,
-11,
-10,
-9,
-11,
-10,
-9,
-8,
-10,
-9,
-9,
-8,
-8,
-7,
-8,
-7,
-8,
-7,
-7,
-6,
-8,
-7,
-6,
-5,
-6,
-6,
-6,
-5,
-6,
-5,
-5,
-5,
-6,
-5,
-4,
-4,
-5,
-4,
-3,
-2,
-4,
-3,
-3,
-1,
-3,
-2,
-3,
-2,
-2,
-1,
-1,
-1,
-1,
0,
0,
1,
0,
0,
0,
1,
0,
0,
1,
1,
1,
2,
1,
2,
2,
2,
2,
3,
3,
4,
3,
3,
4,
6,
4,
4,
4,
4,
5,
6,
5,
6,
5,
8,
6,
6,
7,
7,
7,
8,
7,
7,
6,
7,
7,
8,
7,
8,
8,
8,
9,
9,
8,
8,
10,
10,
10,
11,
10,
10,
11,
11,
11,
12,
11,
12,
11,
12,
11,
12,
12,
13,
11,
12,
12,
13,
13,
14,
12,
13,
14,
15,
13,
14,
14,
15,
14,
14,
14,
15,
14,
15,
15,
16,
15,
15,
15,
15,
15,
15,
16,
17,
15,
16,
16,
17,
15,
16,
16,
17,
16,
16,
16,
17,
16,
16,
16,
16,
17,
17,
17,
17,
16,
16,
17,
17,
17,
17,
16,
17,
17,
17,
17,
17,
17,
18,
18,
18,
17,
18,
17,
18,
17,
18,
17,
17,
17,
17,
17,
17,
17,
17,
17,
18,
17,
17,
17,
17,
16,
17,
17,
17,
17,
18,
17,
18,
16,
17,
17,
17,
17,
17,
16,
17,
16,
16,
16,
16,
16,
16,
16,
16,
15,
16,
16,
17,
15,
15,
16,
17,
15,
15,
15,
16,
15,
15,
14,
14,
14,
15,
15,
15,
13,
14,
15,
16,
13,
14,
12,
12,
12,
13,
12,
13,
12,
12,
11,
12,
11,
12,
11,
12,
12,
13,
10,
11,
10,
10,
11,
11,
9,
9,
9,
11,
9,
9,
8,
8,
9,
9,
7,
7,
7,
8,
8,
8,
6,
7,
7,
7,
6,
6,
5,
6,
6,
6,
5,
5,
5,
6,
4,
4,
4,
4,
3,
4,
2,
2,
3,
3,
2,
2,
2,
2,
2,
2,
2,
2,
1,
2,
0,
1,
0,
0,
-1,
0,
-1,
0,
0,
0,
-1,
-1,
-2,
-1,
-3,
-3,
-2,
-2,
-3,
-3,
-4,
-3,
-3,
-2,
-5,
-4,
-4,
-4,
-3,
-2,
-7,
-6,
-5,
-4,
-6,
-6,
-6,
-6,
-6,
-6,
-7,
-7,
-7,
-6,
-8,
-7,
-8,
-8,
-8,
-7,
-10,
-10,
-9,
-8,
-10,
-10,
-10,
-9,
-10,
-10,
-10,
-9,
-11,
-11,
-11,
-11,
-12,
-11,
-12,
-11,
-13,
-12,
-13,
-12,
-13,
-13,
-13,
-12,
-14,
-14,
-14,
-13,
-14,
-14,
-14,
-13,
-14,
-14,
-15,
-14,
-15,
-15,
-14,
-13,
-16,
-16,
-15,
-14,
-16,
-16,
-16,
-16,
-16,
-16,
-17,
-17,
-17,
-17,
-16,
-15,
-18,
-18,
-17,
-15,
-18,
-18,
-17,
-17,
-17,
-17,
-18,
-18,
-18,
-18,
-17,
-16,
-19,
-18,
-18,
-18,
-19,
-19,
-18,
-18,
-19,
-18,
-18,
-18,
-19,
-19,
-19,
-18,
-19,
-18,
-19,
-18,
-19,
-19,
-18,
-18,
-20,
-20,
-19,
-18,
-19,
-19,
-18,
-17,
-19,
-19,
-19,
-19,
-18,
-18,
-19,
-18,
-19,
-18,
-18,
-18,
-19,
-19,
-18,
-17,
-19,
-19,
-17,
-16,
-18,
-18,
-18,
-17,
-17,
-17,
-18,
-18,
-18,
-17,
-17,
-17,
-18,
-18,
-16,
-15,
-17,
-17,
-16,
-15,
-16,
-16,
-16,
-15,
-16,
-16,
-16,
-15,
-16,
-16,
-15,
-14,
-15,
-15,
-14,
-13,
-15,
-14,
-14,
-13,
-14,
-14,
-14,
-13,
-14,
-14,
-14,
-14,
-13,
-12,
-12,
-12,
-13,
-12,
-11,
-9,
-12,
-12,
-11,
-9,
-11,
-11,
-11,
-9,
-11,
-10,
-10,
-9,
-10,
-10,
-9,
-8,
-10,
-10,
-8,
-7,
-8,
-8,
-8,
-7,
-8,
-8,
-7,
-6,
-7,
-6,
-7,
-6,
-6,
-5,
-5,
-5,
-6,
-6,
-5,
-4,
-5,
-4,
-5,
-4,
-5,
-4,
-3,
-2,
-3,
-3,
-3,
-2,
-3,
-2,
-2,
-1,
-2,
-1,
-1,
0,
-1,
-1,
0,
1,
0,
0,
0,
1,
1,
2,
1,
1,
1,
2,
2,
2,
2,
2,
3,
4,
2,
2,
4,
4,
4,
4,
3,
4,
5,
6,
5,
5,
5,
6,
5,
6,
6,
6,
6,
7,
7,
7,
7,
8,
7,
8,
8,
8,
8,
8,
9,
9,
9,
10,
9,
11,
10,
10,
10,
11,
10,
11,
11,
12,
10,
11,
11,
11,
11,
12,
12,
12,
12,
13,
11,
12,
12,
13,
13,
14,
12,
13,
13,
14,
13,
14,
14,
15,
14,
14,
14,
15,
15,
16,
15,
15,
15,
15,
15,
16,
15,
16,
16,
16,
15,
16,
15,
16,
16,
16,
16,
17,
16,
16,
17,
18,
16,
17,
17,
17,
16,
16,
16,
17,
16,
17,
17,
17,
17,
18,
17,
17,
17,
18,
17,
17,
17,
18,
17,
18,
17,
17,
17,
18,
17,
17,
18,
19,
18,
18,
17,
17,
18,
18,
17,
17,
17,
18,
17,
17,
16,
17,
17,
18,
16,
16,
16,
18,
17,
18,
16,
17,
16,
16,
16,
17,
16,
17,
16,
17,
16,
16,
16,
17,
16,
16,
15,
16,
15,
15,
15,
16,
15,
15,
15,
16,
15,
15,
14,
15,
14,
14,
14,
15,
13,
14,
14,
15,
12,
13,
13,
13,
13,
13,
12,
12,
12,
12,
11,
12,
11,
12,
11,
12,
10,
10,
11,
12,
10,
10,
9,
9,
10,
10,
8,
9,
9,
9,
9,
9,
8,
8,
8,
8,
7,
8,
7,
8,
6,
7,
6,
6,
6,
7,
6,
6,
5,
6,
5,
5,
5,
6,
5,
5,
4,
4,
4,
5,
2,
2,
3,
3,
2,
2,
2,
2,
2,
2,
1,
1,
1,
2,
0,
1,
0,
0,
0,
1,
-1,
-1,
-2,
-1,
-1,
-1,
-3,
-2,
-3,
-3,
-2,
-2,
-4,
-3,
-4,
-3,
-5,
-4,
-4,
-2,
-4,
-3,
-5,
-4,
-6,
-6,
-6,
-5,
-6,
-6,
-6,
-6,
-7,
-7,
-7,
-7,
-7,
-6,
-7,
-7,
-8,
-8,
-9,
-8,
-10,
-10,
-9,
-8,
-10,
-10,
-10,
-9,
-11,
-11,
-10,
-9,
-12,
-11,
-12,
-11,
-12,
-12,
-12,
-11,
-12,
-12,
-13,
-12,
-14,
-13,
-13,
-12,
-14,
-13,
-13,
-13,
-15,
-14,
-14,
-13,
-15,
-15,
-15,
-14,
-15,
-14,
-15,
-14,
-15,
-15,
-15,
-15,
-17,
-17,
-16,
-15,
-17,
-17,
-16,
-15,
-17,
-17,
-17,
-16,
-17,
-17,
-17,
-17,
-18,
-18,
-17,
-16,
-18,
-18,
-18,
-18,
-18,
-18,
-18,
-18,
-19,
-18,
-18,
-18,
-19,
-19,
-19,
-18,
-18,
-18,
-19,
-18,
-19,
-19,
-18,
-18,
-19,
-19,
-18,
-18,
-19,
-19,
-19,
-18,
-18,
-18,
-19,
-18,
-19,
-19,
-18,
-18,
-19,
-18,
-18,
-18,
-19,
-19,
-18,
-18,
-19,
-19,
-18,
-17,
-19,
-19,
-18,
-17,
-18,
-18,
-18,
-18,
-18,
-17,
-17,
-17,
-18,
-17,
-17,
-17,
-18,
-17,
-17,
-15,
-17,
-18,
-16,
-15,
-17,
-17,
-16,
-15,
-16,
-16,
-16,
-15,
-16,
-16,
-15,
-14,
-16,
-16,
-14,
-13,
-16,
-16,
-15,
-14,
-14,
-14,
-14,
-13,
-14,
-13,
-14,
-13,
-14,
-13,
-13,
-12,
-13,
-13,
-12,
-11,
-12,
-11,
-12,
-11,
-12,
-12,
-11,
-9,
-12,
-11,
-10,
-9,
-11,
-10,
-9,
-8,
-10,
-10,
-9,
-8,
-9,
-8,
-8,
-7,
-8,
-8,
-8,
-7,
-8,
-7,
-7,
-6,
-7,
-6,
-6,
-5,
-6,
-6,
-5,
-4,
-6,
-5,
-5,
-4,
-4,
-3,
-4,
-4,
-4,
-3,
-3,
-2,
-3,
-2,
-3,
-2,
-3,
-2,
-2,
-1,
-2,
-2,
-1,
0,
0,
0,
-1,
0,
0,
1,
0,
0,
1,
2,
2,
2,
1,
2,
2,
3,
2,
2,
3,
4,
3,
4,
4,
4,
4,
4,
5,
5,
4,
4,
6,
6,
5,
6,
6,
7,
6,
6,
7,
8,
7,
7,
7,
7,
8,
9,
8,
8,
8,
9,
9,
9,
8,
9,
9,
11,
9,
10,
10,
11,
10,
11,
10,
11,
11,
12,
11,
12,
11,
12,
12,
12,
12,
13,
13,
14,
12,
13,
12,
14,
13,
14,
13,
14,
13,
14,
14,
15,
14,
15,
14,
15,
14,
15,
15,
16,
15,
14,
15,
16,
15,
15,
15,
16,
15,
16,
16,
17,
16,
16,
16,
16,
16,
17,
16,
17,
16,
16,
17,
18,
16,
16,
17,
18,
17,
18,
17,
17,
17,
18,
17,
17,
17,
18,
17,
18,
17,
17,
17,
18,
17,
18,
17,
17,
17,
18,
17,
17,
17,
18,
16,
17,
17,
17,
17,
18,
16,
16,
18,
19,
16,
17,
17,
17,
17,
18,
17,
17,
17,
18,
17,
17,
16,
16,
17,
17,
16,
16,
16,
17,
16,
16,
16,
17,
16,
16,
15,
16,
16,
16,
15,
16,
15,
16,
15,
15,
14,
14,
15,
16,
13,
14,
14,
15,
14,
15,
12,
12,
13,
14,
13,
13,
12,
12,
12,
13,
11,
12,
11,
12,
12,
12,
11,
11,
10,
10,
11,
11,
10,
10,
9,
10,
10,
10,
9,
10,
9,
9,
8,
9,
8,
8,
7,
8,
7,
8,
7,
7,
6,
7,
6,
6,
5,
6,
6,
6,
5,
5,
5,
5,
4,
5,
3,
4,
3,
3,
3,
4,
2,
3,
3,
3,
2,
2,
3,
3,
1,
1,
1,
2,
1,
1,
0,
1,
0,
0,
-1,
0,
-1,
0,
-1,
0,
-3,
-3,
-1,
-1,
-3,
-2,
-3,
-2,
-4,
-3,
-4,
-3,
-3,
-2,
-5,
-4,
-5,
-5,
-4,
-3,
-6,
-6,
-6,
-5,
-7,
-6,
-7,
-6,
-8,
-8,
-7,
-6,
-8,
-8,
-8,
-7,
-8,
-8,
-9,
-8,
-10,
-10,
-9,
-9,
-12,
-11,
-9,
-8,
-11,
-11,
-12,
-11,
-12,
-11,
-12,
-11,
-12,
-11,
-12,
-11,
-13,
-12,
-13,
-12,
-14,
-14,
-13,
-12,
-14,
-14,
-14,
-13,
-14,
-14,
-15,
-14,
-15,
-14,
-15,
-15,
-15,
-15,
-15,
-14,
-16,
-16,
-16,
-15,
-16,
-16,
-16,
-15,
-17,
-17,
-16,
-15,
-17,
-17,
-17,
-16,
-17,
-17,
-18,
-17,
-18,
-17,
-17,
-17,
-18,
-18,
-17,
-16,
-19,
-19,
-19,
-18,
-19,
-18,
-19,
-18,
-19,
-19,
-18,
-18,
-19,
-18,
-18,
-18,
-19,
-19,
-18,
-18,
-19,
-19,
-19,
-18,
-19,
-19,
-19,
-18,
-19,
-19,
-18,
-18,
-19,
-19,
-19,
-18,
-19,
-18,
-18,
-18,
-19,
-19,
-18,
-18,
-19,
-18,
-18,
-18,
-18,
-18,
-18,
-18,
-19,
-18,
-17,
-16,
-19,
-19,
-18,
-17,
-18,
-18,
-17,
-16,
-17,
-17,
-18,
-17,
-17,
-17,
-17,
-16,
-17,
-16,
-16,
-15,
-17,
-17,
-16,
-15,
-16,
-16,
-15,
-15,
-16,
-16,
-15,
-15,
-15,
-14,
-14,
-13,
-15,
-14,
-13,
-12,
-15,
-14,
-14,
-13,
-14,
-13,
-13,
-12,
-13,
-12,
-12,
-11,
-13,
-12,
-12,
-11,
-12,
-11,
-11,
-11,
-12,
-11,
-11,
-9,
-11,
-11,
-9,
-8,
-10,
-10,
-9,
-8,
-9,
-8,
-9,
-8,
-9,
-7,
-7,
-7,
-8,
-7,
-7,
-6,
-7,
-6,
-6,
-5,
-6,
-6,
-5,
-5,
-6,
-5,
-5,
-4,
-6,
-5,
-4,
-4,
-4,
-3,
-3,
-2,
-3,
-3,
-2,
-1,
-2,
-1,
-2,
-1,
-1,
0,
-1,
-1,
0,
0,
0,
0,
0,
1,
1,
2,
1,
1,
1,
2,
2,
2,
2,
3,
2,
3,
2,
3,
3,
4,
4,
4,
3,
4,
5,
6,
5,
5,
5,
7,
6,
6,
5,
6,
7,
7,
6,
7,
7,
8,
7,
7,
7,
8,
9,
9,
8,
8,
9,
10,
9,
9,
9,
10,
10,
11,
10,
11,
10,
11,
11,
11,
10,
11,
11,
11,
11,
12,
12,
12,
12,
13,
12,
13,
12,
13,
13,
13,
13,
14,
14,
14,
13,
14,
14,
15,
13,
14,
15,
16,
14,
14,
15,
16,
15,
16,
15,
16,
15,
16,
15,
16,
15,
16,
16,
17,
15,
16,
16,
17,
16,
16,
16,
17,
17,
18,
17,
17,
16,
16,
17,
17,
16,
16,
17,
17,
17,
18,
17,
17,
17,
17,
17,
17,
17,
18,
17,
18,
16,
16,
17,
18,
17,
18,
17,
18,
17,
18,
18,
18,
17,
17,
17,
18,
17,
17,
17,
17,
17,
18,
17,
17,
16,
16,
17,
17,
16,
16,
17,
17,
16,
16,
16,
16,
16,
16,
16,
17,
16,
16,
16,
17,
15,
16,
15,
16,
14,
15,
15,
15,
15,
16,
14,
15,
15,
16,
14,
14,
13,
14,
13,
13,
13,
14,
13,
14,
12,
13,
13,
13,
12,
12,
12,
12,
12,
12,
11,
12,
11,
11,
11,
12,
11,
12,
10,
10,
9,
10,
10,
11,
10,
10,
9,
9,
8,
8,
7,
8,
8,
8,
8,
8,
6,
7,
7,
7,
6,
6,
6,
7,
5,
5,
5,
5,
5,
6,
4,
5,
4,
5,
4,
4,
3,
3,
3,
3,
2,
2,
3,
3,
1,
2,
2,
2,
1,
1,
0,
1,
0,
0,
0,
1,
0,
0,
-1,
0,
-2,
-2,
-1,
-1,
-3,
-2,
-2,
-1,
-3,
-3,
-3,
-2,
-3,
-3,
-5,
-4,
-4,
-2,
-4,
-2,
-6,
-5,
-5,
-5,
-6,
-6,
-6,
-5,
-7,
-6,
-7,
-6,
-7,
-7,
-7,
-7,
-8,
-7,
-8,
-7,
-10,
-10,
-9,
-8,
-9,
-9,
-9,
-8,
-11,
-10,
-10,
-9,
-11,
-11,
-12,
-11,
-11,
-11,
-11,
-9,
-12,
-11,
-12,
-12,
-13,
-12,
-13,
-12,
-14,
-14,
-13,
-12,
-14,
-14,
-14,
-14,
-14,
-13,
-15,
-14,
-15,
-15,
-14,
-13,
-16,
-15,
-15,
-14,
-16,
-16,
-16,
-15,
-16,
-16,
-16,
-15,
-17,
-17,
-17,
-16,
-17,
-17,
-17,
-17,
-18,
-17,
-17,
-17,
-18,
-18,
-18,
-18,
-18,
-18,
-18,
-17,
-19,
-18,
-18,
-18,
-19,
-19,
-19,
-18,
-18,
-18,
-18,
-18,
-19,
-19,
-19,
-18,
-19,
-19,
-19,
-18,
-19,
-19,
-19,
-18,
-19,
-19,
-19,
-18,
-19,
-19,
-18,
-17,
-19,
-19,
-19,
-18,
-19,
-19,
-19,
-18,
-18,
-17,
-18,
-18,
-19,
-19,
-18,
-17,
-18,
-18,
-18,
-17,
-18,
-18,
-18,
-17,
-18,
-18,
-17,
-17,
-18,
-18,
-17,
-16,
-17,
-17,
-17,
-16,
-17,
-17,
-16,
-15,
-17,
-17,
-16,
-15,
-16,
-16,
-16,
-15,
-16,
-16,
-16,
-15,
-15,
-15,
-15,
-14,
-15,
-15,
-14,
-13,
-15,
-15,
-14,
-13,
-14,
-13,
-14,
-13,
-14,
-13,
-13,
-13,
-13,
-12,
-12,
-12,
-13,
-12,
-11,
-9,
-12,
-11,
-11,
-9,
-10,
-10,
-10,
-9,
-9,
-8,
-9,
-8,
-10,
-10,
-9,
-8,
-9,
-8,
-8,
-7,
-9,
-8,
-8,
-7,
-8,
-7,
-7,
-6,
-6,
-6,
-6,
-5,
-6,
-6,
-5,
-4,
-6,
-5,
-5,
-4,
-5,
-4,
-3,
-2,
-4,
-3,
-3,
-2,
-3,
-3,
-3,
-2,
-2,
-2,
-2,
-1,
-2,
-1,
0,
1,
0,
0,
0,
1,
0,
0,
0,
0,
1,
2,
2,
3,
2,
2,
2,
3,
2,
3,
4,
4,
3,
4,
4,
4,
5,
6,
4,
6,
5,
6,
4,
6,
6,
6,
6,
6,
6,
7,
7,
8,
7,
8,
7,
8,
8,
8,
8,
9,
8,
9,
8,
9,
10,
11,
10,
10,
10,
10,
11,
11,
10,
11,
11,
12,
11,
11,
11,
12,
12,
13,
12,
12,
13,
14,
11,
12,
12,
13,
14,
15,
13,
14,
14,
15,
14,
14,
14,
15,
15,
15,
15,
16,
14,
16,
15,
16,
14,
14,
16,
17,
15,
15,
15,
16,
15,
16,
16,
16,
16,
16,
16,
17,
16,
16,
17,
18,
16,
16,
17,
17,
16,
17,
18,
19,
17,
18,
17,
17,
17,
17,
17,
18,
17,
18,
17,
17,
17,
18,
17,
18,
17,
17,
18,
19,
17,
17,
17,
18,
17,
18,
16,
17,
17,
18,
17,
17,
16,
16,
17,
18,
17,
17,
17,
17,
16,
16,
16,
17,
16,
17,
16,
16,
16,
17,
16,
17,
16,
16,
16,
17,
16,
16,
16,
17,
15,
15,
15,
16,
15,
16,
15,
16,
15,
16,
15,
15,
14,
15,
15,
15,
13,
14,
14,
15,
13,
14,
14,
15,
13,
13,
12,
13,
12,
12,
12,
13,
11,
13,
11,
12,
11,
12,
11,
11,
10,
10,
10,
11,
10,
10,
9,
10,
9,
10,
9,
9,
7,
8,
8,
8,
7,
8,
8,
8,
7,
8,
7,
7,
6,
6,
6,
6,
5,
6,
5,
6,
5,
6,
4,
4,
4,
4,
4,
4,
2,
2,
3,
4,
2,
2,
2,
3,
2,
2,
1,
1,
1,
2,
0,
1,
0,
0,
0,
1,
-2,
-1,
0,
0,
-1,
-1,
-2,
-1,
-3,
-2,
-2,
-2,
-3,
-2,
-4,
-4,
-4,
-3,
-4,
-3,
-4,
-2,
-5,
-4,
-6,
-5,
-5,
-4,
-6,
-6,
-6,
-6,
-7,
-7,
-8,
-7,
-7,
-7,
-8,
-7,
-9,
-8,
-8,
-7,
-9,
-9,
-9,
-8,
-10,
-10,
-10,
-9,
-11,
-11,
-11,
-11,
-11,
-10,
-12,
-11,
-12,
-12,
-10,
-9,
-13,
-12,
-13,
-12,
-13,
-13,
-13,
-13,
-14,
-13,
-13,
-13,
-14,
-14,
-14,
-13,
-15,
-15,
-15,
-14,
-16,
-16,
-15,
-15,
-16,
-16,
-16,
-15,
-16,
-16,
-16,
-15,
-16,
-16,
-16,
-15,
-18,
-17,
-17,
-16,
-18,
-18,
-17,
-17,
-17,
-17,
-18,
-17,
-18,
-17,
-18,
-18,
-19,
-18,
-17,
-16,
-19,
-18,
-18,
-17,
-19,
-19,
-19,
-18,
-19,
-18,
-19,
-18,
-19,
-19,
-18,
-18,
-19,
-18,
-18,
-18,
-19,
-19,
-19,
-18,
-19,
-19,
-19,
-18,
-19,
-19,
-19,
-18,
-18,
-18,
-18,
-18,
-20,
-19,
-18,
-18,
-19,
-19,
-18,
-18,
-18,
-18,
-19,
-18,
-19,
-19,
-18,
-17,
-19,
-18,
-18,
-17,
-18,
-18,
-17,
-17,
-18,
-17,
-17,
-16,
-18,
-17,
-16,
-15,
-18,
-18,
-16,
-15,
-16,
-16,
-16,
-15,
-16,
-16,
-16,
-15,
-16,
-15,
-15,
-14,
-16,
-16,
-14,
-13,
-14,
-14,
-15,
-14,
-15,
-15,
-14,
-13,
-14,
-13,
-13,
-13,
-14,
-13,
-13,
-12,
-13,
-12,
-12,
-11,
-12,
-11,
-12,
-11,
-12,
-11,
-11,
-10,
-11,
-10,
-10,
-9,
-10,
-10,
-9,
-8,
-9,
-8,
-9,
-8,
-9,
-8,
-8,
-7,
-8,
-8,
-7,
-6,
-7,
-6,
-7,
-6,
-7,
-6,
-6,
-5,
-6,
-5,
-4,
-3,
-6,
-6,
-5,
-4,
-4,
-3,
-4,
-4,
-3,
-2,
-3,
-2,
-3,
-2,
-2,
-1,
-2,
-2,
-1,
0,
-1,
-1,
-1,
0,
0,
0,
-1,
0,
0,
1,
1,
1,
1,
2,
2,
3,
2,
2,
2,
3,
2,
3,
3,
4,
3,
4,
5,
5,
5,
6,
6,
6,
5,
6,
6,
7,
6,
6,
6,
7,
6,
7,
7,
8,
7,
8,
8,
9,
9,
9,
8,
8,
8,
9,
8,
9,
9,
10,
10,
11,
10,
10,
11,
12,
11,
12,
11,
11,
12,
13,
11,
12,
12,
12,
13,
14,
12,
13,
12,
13,
13,
13,
13,
14,
13,
14,
14,
14,
13,
14,
14,
15,
15,
16,
15,
15,
15,
15,
16,
16,
15,
15,
16,
17,
16,
16,
16,
17,
16,
16,
15,
17,
16,
16,
17,
18,
16,
16,
17,
17,
16,
16,
17,
18,
17,
18,
17,
17,
17,
18,
17,
17,
17,
18,
17,
18,
16,
17,
17,
18,
16,
16,
17,
17,
17,
17,
16,
17,
17,
18,
17,
17,
17,
18,
17,
17,
17,
18,
17,
18,
16,
17,
18,
18,
17,
17,
17,
18,
17,
17,
16,
17,
17,
17,
16,
17,
16,
16,
16,
17,
16,
16,
16,
17,
15,
15,
15,
16,
16,
16,
15,
15,
15,
16,
15,
16,
13,
14,
14,
15,
14,
14,
15,
16,
13,
14,
14,
15,
13,
13,
13,
13,
12,
13,
13,
14,
11,
12,
12,
13,
12,
12,
11,
11,
10,
10,
11,
11,
10,
10,
9,
10,
10,
10,
8,
8,
8,
9,
8,
9,
8,
8,
7,
8,
7,
8,
7,
7,
6,
7,
6,
6,
6,
7,
6,
6,
5,
6,
5,
5,
4,
5,
4,
5,
3,
3,
3,
4,
3,
4,
3,
3,
2,
2,
3,
3,
1,
2,
1,
2,
0,
0,
0,
1,
-1,
0,
0,
1,
-1,
-1,
-1,
0,
-2,
-2,
-2,
-2,
-3,
-2,
-3,
-2,
-3,
-3,
-4,
-3,
-4,
-4,
-3,
-2,
-5,
-3,
-6,
-5,
-6,
-6,
-5,
-5,
-7,
-6,
-6,
-6,
-7,
-7,
-7,
-6,
-8,
-7,
-8,
-7,
-9,
-9,
-9,
-8,
-9,
-8,
-8,
-8,
-10,
-10,
-9,
-8,
-11,
-11,
-11,
-11,
-11,
-11,
-12,
-11,
-12,
-11,
-12,
-11,
-12,
-12,
-13,
-12,
-14,
-13,
-13,
-12,
-14,
-14,
-13,
-13,
-14,
-14,
-14,
-13,
-15,
-14,
-14,
-13,
-15,
-15,
-15,
-14,
-16,
-16,
-16,
-15,
-16,
-16,
-15,
-15,
-18,
-18,
-16,
-15,
-17,
-17,
-17,
-17,
-17,
-17,
-17,
-17,
-18,
-17,
-18,
-18,
-18,
-18,
-16,
-15,
-19,
-19,
-18,
-18,
-18,
-18,
-19,
-18,
-18,
-18,
-18,
-18,
-19,
-19,
-18,
-18,
-19,
-19,
-18,
-18,
-19,
-19,
-18,
-18,
-19,
-19,
-18,
-18,
-19,
-19,
-19,
-18,
-19,
-19,
-18,
-18,
-19,
-18,
-18,
-18,
-19,
-19,
-18,
-18,
-19,
-19,
-19,
-18,
-18,
-18,
-18,
-18,
-18,
-18,
-17,
-17,
-18,
-18,
-17,
-16,
-19,
-19,
-17,
-16,
-18,
-18,
-16,
-15,
-16,
-16,
-17,
-16,
-17,
-16,
-16,
-15,
-16,
-16,
-16,
-15,
-16,
-16,
-15,
-14,
-16,
-16,
-15,
-14,
-15,
-14,
-15,
-14,
-15,
-15,
-14,
-13,
-14,
-13,
-14,
-13,
-14,
-13,
-13,
-12,
-13,
-13,
-12,
-11,
-12,
-12,
-12,
-12,
-12,
-11,
-12,
-11,
-11,
-11,
-10,
-10,
-11,
-10,
-9,
-8,
-10,
-10,
-9,
-8,
-9,
-9,
-9,
-8,
-8,
-7,
-8,
-7,
-8,
-7,
-7,
-6,
-7,
-6,
-6,
-5,
-6,
-6,
-6,
-5,
-6,
-5,
-5,
-4,
-5,
-4,
-4,
-3,
-4,
-4,
-3,
-2,
-3,
-3,
-3,
-2,
-2,
-2,
-3,
-2,
-2,
-1,
2,
