2-diodenkennlinien/data/ALL0008/A0008CH1.CSV

Memory Length,4000,
Trigger Level,2.23990e+01,
Source,CH1,
Probe,1.0X,
Vertical Units,V,
Vertical Scale,1.00000e+00,
Vertical Position,-2.08400e+01,
Horizontal Units,S,
Horizontal Scale,1.00000e-02,
Horizontal Position,4.0000000e-04,
Horizontal Mode,Main,
Sampling Period,4.00000e-05,
Firmware,V1.14,
Time, ,
Mode,Fast,
Waveform Data,
572,
572,
572,
574,
574,
576,
576,
577,
577,
580,
580,
581,
581,
582,
582,
584,
584,
586,
586,
588,
588,
588,
588,
588,
588,
590,
590,
590,
590,
591,
591,
591,
591,
590,
590,
590,
590,
590,
590,
590,
590,
589,
589,
590,
590,
589,
589,
589,
589,
588,
588,
588,
588,
588,
588,
588,
588,
588,
588,
588,
588,
587,
587,
587,
587,
588,
588,
587,
587,
587,
587,
586,
586,
586,
586,
587,
587,
587,
587,
586,
586,
586,
586,
584,
584,
585,
585,
585,
585,
585,
585,
584,
584,
584,
584,
584,
584,
584,
584,
584,
584,
582,
582,
583,
583,
584,
584,
583,
583,
583,
583,
583,
583,
582,
582,
582,
582,
582,
582,
581,
581,
582,
582,
581,
581,
581,
581,
581,
581,
580,
580,
580,
580,
581,
581,
580,
580,
580,
580,
579,
579,
580,
580,
580,
580,
579,
579,
579,
579,
579,
579,
579,
579,
578,
578,
578,
578,
578,
578,
578,
578,
578,
578,
577,
577,
578,
578,
578,
578,
576,
576,
576,
576,
576,
576,
576,
576,
576,
576,
576,
576,
576,
576,
576,
576,
575,
575,
576,
576,
575,
575,
575,
575,
574,
574,
574,
574,
574,
574,
573,
573,
574,
574,
573,
573,
574,
574,
573,
573,
572,
572,
572,
572,
572,
572,
572,
572,
572,
572,
572,
572,
572,
572,
572,
572,
571,
571,
572,
572,
571,
571,
571,
571,
571,
571,
570,
570,
570,
570,
570,
570,
569,
569,
569,
569,
569,
569,
570,
570,
569,
569,
568,
568,
568,
568,
568,
568,
568,
568,
568,
568,
568,
568,
567,
567,
568,
568,
567,
567,
567,
567,
567,
567,
566,
566,
566,
566,
566,
566,
566,
566,
566,
566,
566,
566,
566,
566,
565,
565,
565,
565,
565,
565,
565,
565,
564,
564,
564,
564,
564,
564,
563,
563,
564,
564,
563,
563,
562,
562,
563,
563,
563,
563,
563,
563,
562,
562,
562,
562,
562,
562,
562,
562,
561,
561,
561,
561,
561,
561,
562,
562,
560,
560,
560,
560,
561,
561,
560,
560,
560,
560,
560,
560,
560,
560,
559,
559,
559,
559,
559,
559,
558,
558,
559,
559,
558,
558,
558,
558,
558,
558,
558,
558,
558,
558,
556,
556,
558,
558,
556,
556,
556,
556,
556,
556,
556,
556,
556,
556,
556,
556,
556,
556,
556,
556,
556,
556,
555,
555,
555,
555,
555,
555,
555,
555,
555,
555,
554,
554,
554,
554,
554,
554,
554,
554,
554,
554,
554,
554,
553,
553,
553,
553,
553,
553,
553,
553,
552,
552,
553,
553,
552,
552,
552,
552,
553,
553,
552,
552,
551,
551,
552,
552,
552,
552,
552,
552,
552,
552,
550,
550,
550,
550,
550,
550,
549,
549,
549,
549,
550,
550,
549,
549,
550,
550,
549,
549,
549,
549,
548,
548,
549,
549,
548,
548,
548,
548,
548,
548,
548,
548,
548,
548,
548,
548,
548,
548,
549,
549,
550,
550,
551,
551,
552,
552,
555,
555,
556,
556,
559,
559,
560,
560,
562,
562,
565,
565,
568,
568,
568,
568,
571,
571,
573,
573,
576,
576,
577,
577,
580,
580,
581,
581,
584,
584,
584,
584,
584,
584,
587,
587,
588,
588,
589,
589,
590,
590,
591,
591,
591,
591,
592,
592,
590,
590,
591,
591,
590,
590,
590,
590,
590,
590,
590,
590,
589,
589,
590,
590,
590,
590,
588,
588,
588,
588,
588,
588,
588,
588,
588,
588,
587,
587,
588,
588,
588,
588,
586,
586,
586,
586,
587,
587,
587,
587,
586,
586,
586,
586,
586,
586,
585,
585,
585,
585,
584,
584,
585,
585,
584,
584,
584,
584,
584,
584,
584,
584,
584,
584,
583,
583,
584,
584,
584,
584,
584,
584,
583,
583,
583,
583,
582,
582,
582,
582,
582,
582,
582,
582,
582,
582,
581,
581,
582,
582,
581,
581,
581,
581,
580,
580,
580,
580,
580,
580,
580,
580,
580,
580,
580,
580,
579,
579,
580,
580,
579,
579,
579,
579,
578,
578,
578,
578,
578,
578,
579,
579,
577,
577,
577,
577,
578,
578,
578,
578,
577,
577,
577,
577,
577,
577,
577,
577,
576,
576,
576,
576,
577,
577,
576,
576,
576,
576,
576,
576,
575,
575,
575,
575,
575,
575,
574,
574,
575,
575,
574,
574,
574,
574,
574,
574,
573,
573,
573,
573,
573,
573,
572,
572,
572,
572,
572,
572,
572,
572,
572,
572,
572,
572,
572,
572,
571,
571,
572,
572,
572,
572,
570,
570,
570,
570,
571,
571,
571,
571,
570,
570,
571,
571,
569,
569,
570,
570,
568,
568,
569,
569,
569,
569,
568,
568,
568,
568,
568,
568,
568,
568,
568,
568,
568,
568,
568,
568,
567,
567,
567,
567,
566,
566,
568,
568,
566,
566,
567,
567,
566,
566,
566,
566,
565,
565,
565,
565,
566,
566,
565,
565,
565,
565,
565,
565,
564,
564,
564,
564,
564,
564,
564,
564,
564,
564,
564,
564,
564,
564,
564,
564,
563,
563,
563,
563,
563,
563,
563,
563,
563,
563,
562,
562,
562,
562,
561,
561,
562,
562,
561,
561,
561,
561,
561,
561,
560,
560,
561,
561,
560,
560,
560,
560,
560,
560,
560,
560,
559,
559,
560,
560,
560,
560,
560,
560,
559,
559,
559,
559,
558,
558,
558,
558,
558,
558,
558,
558,
558,
558,
558,
558,
557,
557,
557,
557,
556,
556,
556,
556,
556,
556,
556,
556,
556,
556,
556,
556,
556,
556,
556,
556,
555,
555,
555,
555,
554,
554,
554,
554,
554,
554,
554,
554,
554,
554,
554,
554,
554,
554,
552,
552,
554,
554,
553,
553,
553,
553,
552,
552,
552,
552,
552,
552,
552,
552,
552,
552,
552,
552,
551,
551,
552,
552,
552,
552,
550,
550,
550,
550,
550,
550,
550,
550,
550,
550,
550,
550,
549,
549,
550,
550,
549,
549,
549,
549,
549,
549,
548,
548,
548,
548,
549,
549,
548,
548,
548,
548,
548,
548,
548,
548,
547,
547,
548,
548,
548,
548,
548,
548,
548,
548,
549,
549,
550,
550,
551,
551,
552,
552,
554,
554,
556,
556,
558,
558,
560,
560,
563,
563,
564,
564,
568,
568,
569,
569,
571,
571,
573,
573,
574,
574,
577,
577,
578,
578,
581,
581,
582,
582,
584,
584,
586,
586,
586,
586,
588,
588,
590,
590,
590,
590,
590,
590,
591,
591,
590,
590,
591,
591,
590,
590,
590,
590,
591,
591,
590,
590,
589,
589,
589,
589,
589,
589,
588,
588,
588,
588,
588,
588,
587,
587,
588,
588,
587,
587,
587,
587,
588,
588,
587,
587,
587,
587,
586,
586,
586,
586,
586,
586,
586,
586,
586,
586,
586,
586,
585,
585,
586,
586,
585,
585,
585,
585,
584,
584,
584,
584,
584,
584,
584,
584,
584,
584,
584,
584,
584,
584,
584,
584,
582,
582,
583,
583,
581,
581,
583,
583,
582,
582,
582,
582,
582,
582,
582,
582,
581,
581,
581,
581,
582,
582,
580,
580,
581,
581,
580,
580,
580,
580,
580,
580,
580,
580,
579,
579,
579,
579,
579,
579,
578,
578,
579,
579,
579,
579,
578,
578,
578,
578,
578,
578,
578,
578,
577,
577,
578,
578,
578,
578,
577,
577,
577,
577,
577,
577,
577,
577,
576,
576,
576,
576,
576,
576,
576,
576,
575,
575,
576,
576,
575,
575,
576,
576,
574,
574,
574,
574,
574,
574,
574,
574,
574,
574,
573,
573,
573,
573,
573,
573,
573,
573,
572,
572,
572,
572,
572,
572,
572,
572,
572,
572,
572,
572,
572,
572,
571,
571,
571,
571,
571,
571,
571,
571,
571,
571,
571,
571,
570,
570,
570,
570,
569,
569,
569,
569,
569,
569,
569,
569,
570,
570,
570,
570,
568,
568,
568,
568,
569,
569,
568,
568,
568,
568,
567,
567,
568,
568,
568,
568,
567,
567,
566,
566,
567,
567,
566,
566,
567,
567,
566,
566,
566,
566,
566,
566,
565,
565,
565,
565,
565,
565,
564,
564,
565,
565,
565,
565,
564,
564,
564,
564,
564,
564,
564,
564,
564,
564,
563,
563,
563,
563,
562,
562,
564,
564,
564,
564,
563,
563,
563,
563,
562,
562,
562,
562,
562,
562,
561,
561,
561,
561,
561,
561,
561,
561,
560,
560,
560,
560,
560,
560,
559,
559,
560,
560,
560,
560,
560,
560,
559,
559,
559,
559,
559,
559,
558,
558,
559,
559,
558,
558,
558,
558,
557,
557,
558,
558,
558,
558,
558,
558,
557,
557,
558,
558,
556,
556,
557,
557,
556,
556,
556,
556,
556,
556,
556,
556,
556,
556,
556,
556,
555,
555,
555,
555,
554,
554,
555,
555,
555,
555,
554,
554,
554,
554,
554,
554,
554,
554,
553,
553,
553,
553,
553,
553,
553,
553,
552,
552,
552,
552,
552,
552,
552,
552,
552,
552,
552,
552,
552,
552,
550,
550,
550,
550,
551,
551,
550,
550,
551,
551,
550,
550,
551,
551,
550,
550,
550,
550,
550,
550,
549,
549,
549,
549,
549,
549,
549,
549,
548,
548,
548,
548,
549,
549,
548,
548,
548,
548,
547,
547,
548,
548,
548,
548,
548,
548,
548,
548,
548,
548,
549,
549,
550,
550,
550,
550,
553,
553,
553,
553,
556,
556,
559,
559,
560,
560,
564,
564,
565,
565,
567,
567,
568,
568,
572,
572,
572,
572,
576,
576,
577,
577,
580,
580,
581,
581,
583,
583,
584,
584,
585,
585,
587,
587,
588,
588,
588,
588,
590,
590,
591,
591,
591,
591,
590,
590,
591,
591,
590,
590,
590,
590,
590,
590,
589,
589,
590,
590,
590,
590,
589,
589,
589,
589,
588,
588,
588,
588,
588,
588,
588,
588,
588,
588,
587,
587,
587,
587,
588,
588,
586,
586,
586,
586,
586,
586,
586,
586,
586,
586,
586,
586,
585,
585,
587,
587,
586,
586,
586,
586,
585,
585,
584,
584,
585,
585,
585,
585,
584,
584,
585,
585,
584,
584,
584,
584,
584,
584,
583,
583,
583,
583,
582,
582,
582,
582,
582,
582,
582,
582,
582,
582,
582,
582,
581,
581,
581,
581,
582,
582,
580,
580,
580,
580,
580,
580,
580,
580,
580,
580,
580,
580,
580,
580,
579,
579,
579,
579,
580,
580,
579,
579,
578,
578,
579,
579,
579,
579,
578,
578,
577,
577,
578,
578,
578,
578,
577,
577,
577,
577,
578,
578,
577,
577,
577,
577,
576,
576,
576,
576,
576,
576,
575,
575,
575,
575,
576,
576,
575,
575,
575,
575,
576,
576,
573,
573,
574,
574,
574,
574,
573,
573,
574,
574,
574,
574,
573,
573,
573,
573,
573,
573,
573,
573,
572,
572,
572,
572,
572,
572,
572,
572,
572,
572,
572,
572,
572,
572,
571,
571,
571,
571,
571,
571,
570,
570,
571,
571,
570,
570,
569,
569,
570,
570,
570,
570,
569,
569,
569,
569,
569,
569,
569,
569,
569,
569,
569,
569,
568,
568,
568,
568,
568,
568,
568,
568,
568,
568,
568,
568,
567,
567,
567,
567,
566,
566,
566,
566,
566,
566,
565,
565,
566,
566,
566,
566,
565,
565,
566,
566,
565,
565,
565,
565,
564,
564,
564,
564,
564,
564,
564,
564,
563,
563,
564,
564,
564,
564,
563,
563,
563,
563,
563,
563,
563,
563,
563,
563,
562,
562,
562,
562,
562,
562,
562,
562,
562,
562,
562,
562,
561,
561,
562,
562,
561,
561,
561,
561,
560,
560,
560,
560,
560,
560,
560,
560,
560,
560,
560,
560,
559,
559,
559,
559,
558,
558,
559,
559,
559,
559,
558,
558,
558,
558,
559,
559,
557,
557,
557,
557,
557,
557,
557,
557,
557,
557,
557,
557,
556,
556,
556,
556,
556,
556,
556,
556,
556,
556,
555,
555,
555,
555,
555,
555,
556,
556,
555,
555,
554,
554,
554,
554,
554,
554,
554,
554,
554,
554,
554,
554,
553,
553,
553,
553,
553,
553,
553,
553,
553,
553,
552,
552,
552,
552,
552,
552,
552,
552,
552,
552,
552,
552,
551,
551,
551,
551,
551,
551,
550,
550,
550,
550,
550,
550,
550,
550,
549,
549,
550,
550,
550,
550,
550,
550,
549,
549,
549,
549,
549,
549,
548,
548,
548,
548,
548,
548,
548,
548,
548,
548,
548,
548,
547,
547,
548,
548,
548,
548,
548,
548,
549,
549,
550,
550,
550,
550,
552,
552,
554,
554,
555,
555,
557,
557,
560,
560,
563,
563,
566,
566,
568,
568,
569,
569,
572,
572,
573,
573,
575,
575,
576,
576,
579,
579,
580,
580,
582,
582,
584,
584,
585,
585,
586,
586,
588,
588,
588,
588,
590,
590,
590,
590,
591,
591,
590,
590,
590,
590,
591,
591,
590,
590,
590,
590,
590,
590,
588,
588,
589,
589,
588,
588,
588,
588,
589,
589,
588,
588,
588,
588,
588,
588,
588,
588,
588,
588,
586,
586,
588,
588,
587,
587,
586,
586,
586,
586,
586,
586,
586,
586,
586,
586,
585,
585,
585,
585,
585,
585,
584,
584,
585,
585,
585,
585,
584,
584,
584,
584,
584,
584,
584,
584,
584,
584,
584,
584,
583,
583,
583,
583,
583,
583,
582,
582,
583,
583,
582,
582,
582,
582,
582,
582,
582,
582,
581,
581,
581,
581,
581,
581,
580,
580,
580,
580,
580,
580,
580,
580,
581,
581,
580,
580,
580,
580,
580,
580,
578,
578,
578,
578,
579,
579,
579,
579,
578,
578,
579,
579,
577,
577,
578,
578,
577,
577,
577,
577,
578,
578,
577,
577,
577,
577,
576,
576,
576,
576,
576,
576,
575,
575,
576,
576,
576,
576,
576,
576,
575,
575,
576,
576,
574,
574,
575,
575,
575,
575,
574,
574,
574,
574,
574,
574,
574,
574,
573,
573,
573,
573,
573,
573,
573,
573,
572,
572,
572,
572,
572,
572,
572,
572,
572,
572,
572,
572,
572,
572,
571,
571,
570,
570,
572,
572,
571,
571,
571,
571,
571,
571,
570,
570,
570,
570,
570,
570,
570,
570,
569,
569,
570,
570,
569,
569,
569,
569,
568,
568,
568,
568,
568,
568,
568,
568,
568,
568,
568,
568,
568,
568,
568,
568,
567,
567,
568,
568,
567,
567,
566,
566,
566,
566,
566,
566,
566,
566,
566,
566,
566,
566,
565,
565,
565,
565,
565,
565,
564,
564,
564,
564,
565,
565,
564,
564,
564,
564,
564,
564,
564,
564,
563,
563,
563,
563,
564,
564,
562,
562,
563,
563,
562,
562,
562,
562,
562,
562,
562,
562,
561,
561,
561,
561,
561,
561,
560,
560,
561,
561,
561,
561,
560,
560,
560,
560,
560,
560,
560,
560,
560,
560,
559,
559,
560,
560,
558,
558,
558,
558,
559,
559,
558,
558,
558,
558,
558,
558,
558,
558,
558,
558,
558,
558,
557,
557,
556,
556,
556,
556,
556,
556,
556,
556,
556,
556,
556,
556,
556,
556,
556,
556,
555,
555,
555,
555,
556,
556,
556,
556,
554,
554,
555,
555,
554,
554,
554,
554,
554,
554,
554,
554,
552,
552,
552,
552,
553,
553,
552,
552,
553,
553,
552,
552,
552,
552,
552,
552,
552,
552,
552,
552,
552,
552,
552,
552,
551,
551,
551,
551,
551,
551,
550,
550,
550,
550,
550,
550,
550,
550,
550,
550,
550,
550,
549,
549,
549,
549,
548,
548,
549,
549,
548,
548,
548,
548,
548,
548,
548,
548,
548,
548,
547,
547,
548,
548,
547,
547,
548,
548,
546,
546,
548,
548,
548,
548,
550,
550,
551,
551,
553,
553,
554,
554,
555,
555,
558,
558,
560,
560,
563,
563,
565,
565,
566,
566,
568,
568,
571,
571,
572,
572,
576,
576,
577,
577,
579,
579,
581,
581,
581,
581,
584,
584,
584,
584,
586,
586,
588,
588,
589,
589,
589,
589,
590,
590,
590,
590,
591,
591,
590,
590,
590,
590,
591,
591,
589,
589,
590,
590,
590,
590,
589,
589,
588,
588,
588,
588,
589,
589,
588,
588,
588,
588,
588,
588,
588,
588,
588,
588,
587,
587,
587,
587,
586,
586,
586,
586,
587,
587,
586,
586,
586,
586,
585,
585,
585,
585,
585,
585,
585,
585,
585,
585,
585,
585,
584,
584,
585,
585,
584,
584,
584,
584,
584,
584,
584,
584,
584,
584,
582,
582,
583,
583,
583,
583,
584,
584,
583,
583,
582,
582,
582,
582,
582,
582,
581,
581,
581,
581,
581,
581,
581,
581,
580,
580,
580,
580,
580,
580,
580,
580,
580,
580,
580,
580,
580,
580,
580,
580,
580,
580,
579,
579,
579,
579,
578,
578,
579,
579,
578,
578,
578,
578,
578,
578,
578,
578,
578,
578,
577,
577,
577,
577,
577,
577,
577,
577,
576,
576,
576,
576,
576,
576,
576,
576,
576,
576,
576,
576,
576,
576,
575,
575,
575,
575,
574,
574,
575,
575,
574,
574,
574,
574,
574,
574,
574,
574,
573,
573,
572,
572,
572,
572,
572,
572,
572,
572,
572,
572,
572,
572,
572,
572,
572,
572,
572,
572,
571,
571,
572,
572,
571,
571,
570,
570,
571,
571,
571,
571,
570,
570,
570,
570,
569,
569,
570,
570,
570,
570,
569,
569,
570,
570,
569,
569,
569,
569,
568,
568,
568,
568,
568,
568,
568,
568,
568,
568,
568,
568,
568,
568,
567,
567,
567,
567,
567,
567,
568,
568,
566,
566,
566,
566,
566,
566,
566,
566,
566,
566,
565,
565,
565,
565,
565,
565,
565,
565,
564,
564,
564,
564,
564,
564,
564,
564,
564,
564,
564,
564,
564,
564,
562,
562,
564,
564,
562,
562,
563,
563,
562,
562,
562,
562,
562,
562,
562,
562,
562,
562,
561,
561,
561,
561,
561,
561,
561,
561,
561,
561,
561,
561,
560,
560,
560,
560,
560,
560,
560,
560,
560,
560,
559,
559,
560,
560,
559,
559,
559,
559,
558,
558,
558,
558,
558,
558,
558,
558,
558,
558,
558,
558,
558,
558,
556,
556,
557,
557,
557,
557,
556,
556,
556,
556,
556,
556,
556,
556,
556,
556,
556,
556,
555,
555,
555,
555,
555,
555,
554,
554,
554,
554,
554,
554,
555,
555,
554,
554,
554,
554,
554,
554,
554,
554,
553,
553,
553,
553,
553,
553,
552,
552,
552,
552,
552,
552,
552,
552,
552,
552,
552,
552,
552,
552,
551,
551,
551,
551,
551,
551,
551,
551,
551,
551,
550,
550,
551,
551,
550,
550,
550,
550,
549,
549,
549,
549,
549,
549,
548,
548,
549,
549,
549,
549,
548,
548,
548,
548,
548,
548,
548,
548,
548,
548,
548,
548,
547,
547,
548,
548,
547,
547,
548,
548,
548,
548,
550,
550,
550,
550,
552,
552,
553,
553,
555,
555,
558,
558,
560,
560,
563,
563,
564,
564,
566,
566,
569,
569,
570,
570,
573,
573,
576,
576,
577,
577,
579,
579,
580,
580,
582,
582,
584,
584,
586,
586,
587,
587,
588,
588,
589,
589,
590,
590,
590,
590,
591,
591,
591,
591,
591,
591,
590,
590,
590,
590,
590,
590,
590,
590,
589,
589,
589,
589,
589,
589,
588,
588,
588,
588,
588,
588,
588,
588,
588,
588,
587,
587,
588,
588,
587,
587,
587,
587,
587,
587,
586,
586,
586,
586,
586,
586,
586,
586,
586,
586,
586,
586,
586,
586,
584,
584,
585,
585,
584,
584,
584,
584,
584,
584,
584,
584,
584,
584,
584,
584,
584,
584,
584,
584,
583,
583,
583,
583,
582,
582,
583,
583,
582,
582,
582,
582,
582,
582,
582,
582,
581,
581,
582,
582,
582,
582,
580,
580,
581,
581,
581,
581,
580,
580,
580,
580,
580,
580,
579,
579,
580,
580,
579,
579,
579,
579,
579,
579,
580,
580,
578,
578,
578,
578,
578,
578,
579,
579,
578,
578,
578,
578,
577,
577,
577,
577,
578,
578,
577,
577,
576,
576,
576,
576,
576,
576,
576,
576,
576,
576,
575,
575,
576,
576,
575,
575,
575,
575,
574,
574,
574,
574,
574,
574,
574,
574,
574,
574,
574,
574,
573,
573,
573,
573,
573,
573,
573,
573,
573,
573,
572,
572,
572,
572,
572,
572,
572,
572,
572,
572,
572,
572,
572,
572,
572,
572,
571,
571,
570,
570,
571,
571,
571,
571,
570,
570,
570,
570,
570,
570,
569,
569,
570,
570,
570,
570,
569,
569,
569,
569,
569,
569,
568,
568,
568,
568,
568,
568,
568,
568,
568,
568,
567,
567,
568,
568,
567,
567,
567,
567,
567,
567,
566,
566,
566,
566,
566,
566,
566,
566,
566,
566,
565,
565,
566,
566,
566,
566,
564,
564,
564,
564,
564,
564,
564,
564,
564,
564,
564,
564,
564,
564,
564,
564,
564,
564,
563,
563,
564,
564,
563,
563,
563,
563,
562,
562,
562,
562,
562,
562,
562,
562,
561,
561,
562,
562,
561,
561,
560,
560,
561,
561,
560,
560,
560,
560,
560,
560,
560,
560,
560,
560,
560,
560,
560,
560,
559,
559,
559,
559,
559,
559,
559,
559,
558,
558,
558,
558,
558,
558,
558,
558,
557,
557,
558,
558,
558,
558,
558,
558,
557,
557,
556,
556,
556,
556,
556,
556,
556,
556,
556,
556,
556,
556,
555,
555,
556,
556,
555,
555,
554,
554,
555,
555,
554,
554,
554,
554,
554,
554,
554,
554,
554,
554,
554,
554,
553,
553,
553,
553,
553,
553,
552,
552,
553,
553,
552,
552,
552,
552,
552,
552,
552,
552,
552,
552,
552,
552,
551,
551,
551,
551,
551,
551,
552,
552,
551,
551,
550,
550,
549,
549,
551,
551,
549,
549,
550,
550,
549,
549,
549,
549,
549,
549,
549,
549,
549,
549,
549,
549,
548,
548,
548,
548,
548,
548,
548,
548,
548,
548,
548,
548,
547,
547,
548,
548,
548,
548,
548,
548,
549,
549,
551,
551,
552,
552,
554,
554,
556,
556,
558,
558,
560,
560,
563,
563,
564,
564,
566,
566,
569,
569,
571,
571,
572,
572,
576,
576,
576,
576,
579,
579,
580,
580,
582,
582,
584,
584,
586,
586,
587,
587,
588,
588,
588,
588,
589,
589,
590,
590,
591,
591,
591,
591,
590,
590,
591,
591,
590,
590,
590,
590,
590,
590,
589,
589,
590,
590,
588,
588,
588,
588,
588,
588,
588,
588,
588,
588,
588,
588,
587,
587,
588,
588,
587,
587,
587,
587,
586,
586,
586,
586,
586,
586,
586,
586,
586,
586,
586,
586,
585,
585,
586,
586,
585,
585,
584,
584,
584,
584,
584,
584,
584,
584,
584,
584,
584,
584,
584,
584,
584,
584,
583,
583,
584,
584,
583,
583,
583,
583,
582,
582,
582,
582,
582,
582,
582,
582,
581,
581,
581,
581,
581,
581,
581,
581,
581,
581,
581,
581,
581,
581,
580,
580,
580,
580,
580,
580,
580,
580,
580,
580,
580,
580,
579,
579,
580,
580,
579,
579,
579,
579,
578,
578,
578,
578,
578,
578,
578,
578,
578,
578,
577,
577,
578,
578,
577,
577,
577,
577,
576,
576,
577,
577,
576,
576,
576,
576,
576,
576,
576,
576,
576,
576,
576,
576,
575,
575,
576,
576,
575,
575,
574,
574,
575,
575,
574,
574,
574,
574,
573,
573,
573,
573,
573,
573,
573,
573,
572,
572,
573,
573,
572,
572,
572,
572,
572,
572,
572,
572,
572,
572,
571,
571,
572,
572,
572,
572,
571,
571,
571,
571,
571,
571,
570,
570,
570,
570,
569,
569,
570,
570,
570,
570,
570,
570,
569,
569,
569,
569,
568,
568,
568,
568,
568,
568,
568,
568,
568,
568,
568,
568,
568,
568,
567,
567,
567,
567,
566,
566,
568,
568,
567,
567,
566,
566,
566,
566,
566,
566,
566,
566,
565,
565,
566,
566,
565,
565,
565,
565,
565,
565,
564,
564,
565,
565,
564,
564,
564,
564,
564,
564,
564,
564,
564,
564,
564,
564,
563,
563,
563,
563,
562,
562,
563,
563,
562,
562,
562,
562,
562,
562,
562,
562,
561,
561,
561,
561,
561,
561,
561,
561,
560,
560,
560,
560,
560,
560,
560,
560,
559,
559,
559,
559,
560,
560,
560,
560,
559,
559,
559,
559,
559,
559,
559,
559,
558,
558,
558,
558,
558,
558,
558,
558,
557,
557,
558,
558,
557,
557,
557,
557,
556,
556,
556,
556,
556,
556,
556,
556,
556,
556,
556,
556,
556,
556,
556,
556,
554,
554,
554,
554,
555,
555,
554,
554,
554,
554,
554,
554,
554,
554,
554,
554,
554,
554,
554,
554,
553,
553,
552,
552,
553,
553,
552,
552,
553,
553,
552,
552,
552,
552,
552,
552,
552,
552,
552,
552,
552,
552,
551,
551,
552,
552,
